{"componentChunkName":"component---gatsby-theme-buzzing-src-gatsby-theme-timeline-templates-posts-query-js","path":"/en/tags/story/page/7","result":{"data":{"site":{"siteMetadata":{"title":"Reddit 热门","description":"用中文浏览Reddit热门内容","social":[{"name":"Twitter","url":"https://twitter.com/gatsbyjs","external":null,"prefetch":null},{"name":"GitHub","url":"https://github.com/gatsbyjs","external":null,"prefetch":null}],"menuLinks":[],"localize":[{"locale":"en","title":"Buzzing on Reddit","description":"See what's buzzing on Reddit in your native language","social":[{"name":"Reddit","url":"https://www.reddit.com/","external":true,"prefetch":null}],"menuLinks":[{"name":"Weekly Selection","url":"/issues","external":null,"prefetch":null},{"name":"RSS","url":"/rss.xml","external":null,"prefetch":false}]},{"locale":"zh-Hant","title":"Reddit 熱門","description":"用中文瀏覽Reddit熱門內容","social":null,"menuLinks":null}]}},"tagsGroup":{"group":[{"fieldValue":"ASK HN","totalCount":44},{"fieldValue":"Bitcoin","totalCount":4},{"fieldValue":"Hacker News","totalCount":2600},{"fieldValue":"Poll","totalCount":1},{"fieldValue":"SaveAMC","totalCount":1},{"fieldValue":"Show HN","totalCount":89},{"fieldValue":"bitcoin","totalCount":3},{"fieldValue":"investing","totalCount":797},{"fieldValue":"poll","totalCount":1},{"fieldValue":"reddit","totalCount":4938},{"fieldValue":"science","totalCount":1},{"fieldValue":"stocks","totalCount":1592},{"fieldValue":"story","totalCount":2599},{"fieldValue":"tweet","totalCount":814},{"fieldValue":"wallstreetbets","totalCount":2549}]},"allBlogPost":{"nodes":[{"__typename":"SocialMediaPost","id":"HnPost-26447674","excerpt":"","slug":"/hn/26447674","title":"Out of the Top Fifty Games on Steam, 70% Work on Linux","date":"March 13, 2021","dateISO":"2021-03-13T19:20:37.575Z","datetime":"2021-03-13 19:20","tags":["story","Hacker News"],"image":null,"imageAlt":null,"provider":"Hacker News","thirdPartyId":"26447674","url":"https://news.ycombinator.com/item?id=26447674","originalUrl":"https://boilingsteam.com/out-of-the-top-50-games-70-work-on-linux-now/","imageRemote":"https://boilingsteam.com/wp-content/uploads/valheim-top.jpg","video":null,"channel":null,"channelUrl":null,"author":"ekianjo","authorUrl":"https://news.ycombinator.com/user?id=ekianjo","authorImage":null,"authorSlug":null,"score":323,"views":null,"sharedCount":null,"likeCount":null,"sharedContent":null,"parent":{"__typename":"HnJson","localize":[{"title":"在Steam上排名前五十的游戏中，70%可以在Linux上运行。","locale":"zh"},{"title":"在Steam上排名前五十的遊戲中，70%可以在Linux上運行。","locale":"zh-Hant"}]}},{"__typename":"SocialMediaPost","id":"HnPost-26446337","excerpt":"","slug":"/hn/26446337","title":"Docker Security Cheat Sheet","date":"March 13, 2021","dateISO":"2021-03-13T18:53:27.416Z","datetime":"2021-03-13 18:53","tags":["story","Hacker News"],"image":null,"imageAlt":null,"provider":"Hacker News","thirdPartyId":"26446337","url":"https://news.ycombinator.com/item?id=26446337","originalUrl":"https://cheatsheetseries.owasp.org/cheatsheets/Docker_Security_Cheat_Sheet.html","imageRemote":"https://cheatsheetseries.owasp.org/assets/OWASP_Logo_Transp.png","video":null,"channel":null,"channelUrl":null,"author":"soheilpro","authorUrl":"https://news.ycombinator.com/user?id=soheilpro","authorImage":null,"authorSlug":null,"score":324,"views":null,"sharedCount":null,"likeCount":null,"sharedContent":null,"parent":{"__typename":"HnJson","localize":[{"title":"Docker安全小抄","locale":"zh"},{"title":"Docker安全小抄","locale":"zh-Hant"}]}},{"__typename":"SocialMediaPost","id":"HnPost-26446070","excerpt":"","slug":"/hn/26446070","title":"Flameshot – Screenshot tool that supports Wayland","date":"March 13, 2021","dateISO":"2021-03-13T15:57:36.565Z","datetime":"2021-03-13 15:57","tags":["story","Hacker News"],"image":null,"imageAlt":null,"provider":"Hacker News","thirdPartyId":"26446070","url":"https://news.ycombinator.com/item?id=26446070","originalUrl":"https://flameshot.org/changelog/","imageRemote":"https://flameshot.org/media/flameshot.svg","video":null,"channel":null,"channelUrl":null,"author":"VitalyAnkh","authorUrl":"https://news.ycombinator.com/user?id=VitalyAnkh","authorImage":null,"authorSlug":null,"score":317,"views":null,"sharedCount":null,"likeCount":null,"sharedContent":null,"parent":{"__typename":"HnJson","localize":[{"title":"Flameshot - 支持Wayland的截屏工具。","locale":"zh"},{"title":"Flameshot - 支持Wayland的截屏工具。","locale":"zh-Hant"}]}},{"__typename":"SocialMediaPost","id":"HnPost-26442845","excerpt":"","slug":"/hn/26442845","title":"A brief history of router architecture","date":"March 13, 2021","dateISO":"2021-03-13T14:55:47.751Z","datetime":"2021-03-13 14:55","tags":["story","Hacker News"],"image":null,"imageAlt":null,"provider":"Hacker News","thirdPartyId":"26442845","url":"https://news.ycombinator.com/item?id=26442845","originalUrl":"https://blog.apnic.net/2021/03/12/a-brief-history-of-router-architecture/","imageRemote":"https://blog.apnic.net/wp-content/uploads/2021/03/router-history-FT.jpg","video":null,"channel":null,"channelUrl":null,"author":"xuande","authorUrl":"https://news.ycombinator.com/user?id=xuande","authorImage":null,"authorSlug":null,"score":213,"views":null,"sharedCount":null,"likeCount":null,"sharedContent":null,"parent":{"__typename":"HnJson","localize":[{"title":"路由器架构简史","locale":"zh"},{"title":"路由器架構簡史","locale":"zh-Hant"}]}},{"__typename":"SocialMediaPost","id":"HnPost-26444444","excerpt":"","slug":"/hn/26444444","title":"Gordon Hall has died","date":"March 13, 2021","dateISO":"2021-03-13T14:48:52.128Z","datetime":"2021-03-13 14:48","tags":["story","Hacker News"],"image":null,"imageAlt":null,"provider":"Hacker News","thirdPartyId":"26444444","url":"https://news.ycombinator.com/item?id=26444444","originalUrl":"https://www.bbc.co.uk/news/uk-england-leeds-56374535","imageRemote":"https://ichef.bbci.co.uk/news/1024/branded_news/9B68/production/_117548793_gordon.jpg","video":null,"channel":null,"channelUrl":null,"author":"asplake","authorUrl":"https://news.ycombinator.com/user?id=asplake","authorImage":null,"authorSlug":null,"score":190,"views":null,"sharedCount":null,"likeCount":null,"sharedContent":null,"parent":{"__typename":"HnJson","localize":[{"title":"戈登-霍尔去世了","locale":"zh"},{"title":"戈登-霍爾去世了","locale":"zh-Hant"}]}},{"__typename":"SocialMediaPost","id":"HnPost-26443406","excerpt":"","slug":"/hn/26443406","title":"RethinkDB: why we failed (2017)","date":"March 13, 2021","dateISO":"2021-03-13T09:53:26.724Z","datetime":"2021-03-13 09:53","tags":["story","Hacker News"],"image":null,"imageAlt":null,"provider":"Hacker News","thirdPartyId":"26443406","url":"https://news.ycombinator.com/item?id=26443406","originalUrl":"https://www.defmacro.org/2017/01/18/why-rethinkdb-failed.html?zarsrc=30&utm_source=zalo&utm_medium=zalo&utm_campaign=zalo","imageRemote":null,"video":null,"channel":null,"channelUrl":null,"author":"anhldbk","authorUrl":"https://news.ycombinator.com/user?id=anhldbk","authorImage":null,"authorSlug":null,"score":362,"views":null,"sharedCount":null,"likeCount":null,"sharedContent":null,"parent":{"__typename":"HnJson","localize":[{"title":"RethinkDB：我们为什么会失败（2017年）？","locale":"zh"},{"title":"RethinkDB：我們爲什麼會失敗（2017年）？","locale":"zh-Hant"}]}},{"__typename":"SocialMediaPost","id":"HnPost-26443025","excerpt":"","slug":"/hn/26443025","title":"How to convert your old laptop screen into an external monitor","date":"March 13, 2021","dateISO":"2021-03-13T09:38:59.832Z","datetime":"2021-03-13 09:38","tags":["story","Hacker News"],"image":null,"imageAlt":null,"provider":"Hacker News","thirdPartyId":"26443025","url":"https://news.ycombinator.com/item?id=26443025","originalUrl":"https://www.slashdigit.com/convert-old-laptop-screen-external-monitor/","imageRemote":"https://www.slashdigit.com/wp-content/uploads/2017/07/how-to-turn-laptop-screen-into-external-monitor.jpg","video":null,"channel":null,"channelUrl":null,"author":"louwrentius","authorUrl":"https://news.ycombinator.com/user?id=louwrentius","authorImage":null,"authorSlug":null,"score":345,"views":null,"sharedCount":null,"likeCount":null,"sharedContent":null,"parent":{"__typename":"HnJson","localize":[{"title":"如何将旧笔记本屏幕转换为外置显示器？","locale":"zh"},{"title":"如何將舊筆記本屏幕轉換爲外置顯示器？","locale":"zh-Hant"}]}},{"__typename":"SocialMediaPost","id":"HnPost-26443768","excerpt":"","slug":"/hn/26443768","title":"Speed of Rust vs. C","date":"March 13, 2021","dateISO":"2021-03-13T07:34:13.933Z","datetime":"2021-03-13 07:34","tags":["story","Hacker News"],"image":null,"imageAlt":null,"provider":"Hacker News","thirdPartyId":"26443768","url":"https://news.ycombinator.com/item?id=26443768","originalUrl":"https://kornel.ski/rust-c-speed","imageRemote":"https://kornel.ski/wohooo.jpg","video":null,"channel":null,"channelUrl":null,"author":"sivizius","authorUrl":"https://news.ycombinator.com/user?id=sivizius","authorImage":null,"authorSlug":null,"score":614,"views":null,"sharedCount":null,"likeCount":null,"sharedContent":null,"parent":{"__typename":"HnJson","localize":[{"title":"生锈速度与C","locale":"zh"},{"title":"生鏽速度與C","locale":"zh-Hant"}]}},{"__typename":"SocialMediaPost","id":"HnPost-26442021","excerpt":"","slug":"/hn/26442021","title":"Humble tokamak physicist owns generations of cosmological wankers","date":"March 13, 2021","dateISO":"2021-03-13T06:40:10.489Z","datetime":"2021-03-13 06:40","tags":["story","Hacker News"],"image":null,"imageAlt":null,"provider":"Hacker News","thirdPartyId":"26442021","url":"https://news.ycombinator.com/item?id=26442021","originalUrl":"https://scottlocklin.wordpress.com/2021/03/12/humble-tokamak-physicist-owns-generations-of-cosmological-wankers/","imageRemote":"https://scottlocklin.files.wordpress.com/2021/03/cosmochad.jpg","video":null,"channel":null,"channelUrl":null,"author":"telotortium","authorUrl":"https://news.ycombinator.com/user?id=telotortium","authorImage":null,"authorSlug":null,"score":179,"views":null,"sharedCount":null,"likeCount":null,"sharedContent":null,"parent":{"__typename":"HnJson","localize":[{"title":"卑微的托卡马克物理学家拥有一代又一代的宇宙学浪人。","locale":"zh"},{"title":"卑微的託卡馬克物理學家擁有一代又一代的宇宙學浪人。","locale":"zh-Hant"}]}},{"__typename":"SocialMediaPost","id":"HnPost-26441399","excerpt":"","slug":"/hn/26441399","title":"Vitalik escalates ETH 2.0 merge as miners plan a 51% attack","date":"March 13, 2021","dateISO":"2021-03-13T04:58:51.126Z","datetime":"2021-03-13 04:58","tags":["story","Hacker News"],"image":null,"imageAlt":null,"provider":"Hacker News","thirdPartyId":"26441399","url":"https://news.ycombinator.com/item?id=26441399","originalUrl":"https://our.status.im/vitalik-escalates-eth-2-0-merge-as-miners-plan-a-51-attack/","imageRemote":"https://our.status.im/content/images/2021/03/Vitalik-v-miner-header.png","video":null,"channel":null,"channelUrl":null,"author":"michaelsbradley","authorUrl":"https://news.ycombinator.com/user?id=michaelsbradley","authorImage":null,"authorSlug":null,"score":489,"views":null,"sharedCount":null,"likeCount":null,"sharedContent":null,"parent":{"__typename":"HnJson","localize":[{"title":"Vitalik升级ETH2.0合并，矿工计划攻击51%。","locale":"zh"},{"title":"Vitalik升級ETH2.0合併，礦工計劃攻擊51%。","locale":"zh-Hant"}]}},{"__typename":"SocialMediaPost","id":"HnPost-26440702","excerpt":"","slug":"/hn/26440702","title":"Hospitals lift curtain on prices, reveals giant swings for hips, knees and more","date":"March 13, 2021","dateISO":"2021-03-13T02:42:58.952Z","datetime":"2021-03-13 02:42","tags":["story","Hacker News"],"image":null,"imageAlt":null,"provider":"Hacker News","thirdPartyId":"26440702","url":"https://news.ycombinator.com/item?id=26440702","originalUrl":"https://www.medtechdive.com/news/hospitals-price-transparency-spotty-compliance-swings-price/596593/","imageRemote":"https://www.medtechdive.com/user_media/cache/c2/ad/c2adce3c9ec4c84353cab1d058809abb.jpg","video":null,"channel":null,"channelUrl":null,"author":"theonlyklas","authorUrl":"https://news.ycombinator.com/user?id=theonlyklas","authorImage":null,"authorSlug":null,"score":254,"views":null,"sharedCount":null,"likeCount":null,"sharedContent":null,"parent":{"__typename":"HnJson","localize":[{"title":"医院掀起物价大幕，揭开臀部、膝盖等巨幅波动的真相","locale":"zh"},{"title":"醫院掀起物價大幕，揭開臀部、膝蓋等巨幅波動的真相","locale":"zh-Hant"}]}},{"__typename":"SocialMediaPost","id":"HnPost-26441593","excerpt":"","slug":"/hn/26441593","title":"The demise and potential revival of the American chestnut","date":"March 13, 2021","dateISO":"2021-03-13T02:42:58.952Z","datetime":"2021-03-13 02:42","tags":["story","Hacker News"],"image":null,"imageAlt":null,"provider":"Hacker News","thirdPartyId":"26441593","url":"https://news.ycombinator.com/item?id=26441593","originalUrl":"https://www.sierraclub.org/sierra/2021-2-march-april/feature/demise-and-potential-revival-american-chestnut","imageRemote":"https://www.sierraclub.org/sites/www.sierraclub.org/files/sierra/articles/sharing/2021-3-Feature-Opener-Chestnut-Tree-TN.png","video":null,"channel":null,"channelUrl":null,"author":"jseliger","authorUrl":"https://news.ycombinator.com/user?id=jseliger","authorImage":null,"authorSlug":null,"score":286,"views":null,"sharedCount":null,"likeCount":null,"sharedContent":null,"parent":{"__typename":"HnJson","localize":[{"title":"美国板栗的消亡和潜在的复兴。","locale":"zh"},{"title":"美國板栗的消亡和潛在的復興。","locale":"zh-Hant"}]}},{"__typename":"SocialMediaPost","id":"HnPost-26438040","excerpt":"","slug":"/hn/26438040","title":"Spectre in JavaScript","date":"March 13, 2021","dateISO":"2021-03-13T02:08:47.742Z","datetime":"2021-03-13 02:08","tags":["story","Hacker News"],"image":null,"imageAlt":null,"provider":"Hacker News","thirdPartyId":"26438040","url":"https://news.ycombinator.com/item?id=26438040","originalUrl":"https://leaky.page/","imageRemote":"https://leaky.page/preview.png","video":null,"channel":null,"channelUrl":null,"author":"jeffbee","authorUrl":"https://news.ycombinator.com/user?id=jeffbee","authorImage":null,"authorSlug":null,"score":228,"views":null,"sharedCount":null,"likeCount":null,"sharedContent":null,"parent":{"__typename":"HnJson","localize":[{"title":"JavaScript中的Spectre","locale":"zh"},{"title":"JavaScript中的Spectre","locale":"zh-Hant"}]}},{"__typename":"SocialMediaPost","id":"HnPost-26439208","excerpt":"","slug":"/hn/26439208","title":"RegEx Crossword","date":"March 12, 2021","dateISO":"2021-03-12T22:58:13.941Z","datetime":"2021-03-12 22:58","tags":["story","Hacker News"],"image":null,"imageAlt":null,"provider":"Hacker News","thirdPartyId":"26439208","url":"https://news.ycombinator.com/item?id=26439208","originalUrl":"http://jimbly.github.io/regex-crossword/","imageRemote":null,"video":null,"channel":null,"channelUrl":null,"author":"andrelaszlo","authorUrl":"https://news.ycombinator.com/user?id=andrelaszlo","authorImage":null,"authorSlug":null,"score":390,"views":null,"sharedCount":null,"likeCount":null,"sharedContent":null,"parent":{"__typename":"HnJson","localize":[{"title":"RegEx填字游戏","locale":"zh"},{"title":"RegEx填字遊戲","locale":"zh-Hant"}]}},{"__typename":"SocialMediaPost","id":"HnPost-26440397","excerpt":"","slug":"/hn/26440397","title":"What's New in SQLite 3.35","date":"March 12, 2021","dateISO":"2021-03-12T21:47:44.852Z","datetime":"2021-03-12 21:47","tags":["story","Hacker News"],"image":null,"imageAlt":null,"provider":"Hacker News","thirdPartyId":"26440397","url":"https://news.ycombinator.com/item?id=26440397","originalUrl":"https://nalgeon.github.io/sqlite-3-35/","imageRemote":null,"video":null,"channel":null,"channelUrl":null,"author":"nalgeon","authorUrl":"https://news.ycombinator.com/user?id=nalgeon","authorImage":null,"authorSlug":null,"score":492,"views":null,"sharedCount":null,"likeCount":null,"sharedContent":null,"parent":{"__typename":"HnJson","localize":[{"title":"SQLite 3.35中的新内容","locale":"zh"},{"title":"SQLite 3.35中的新內容","locale":"zh-Hant"}]}},{"__typename":"SocialMediaPost","id":"HnPost-26438899","excerpt":"","slug":"/hn/26438899","title":"Myanmar's satellite held by Japan on space station due to spying concern","date":"March 12, 2021","dateISO":"2021-03-12T21:19:13.140Z","datetime":"2021-03-12 21:19","tags":["story","Hacker News"],"image":null,"imageAlt":null,"provider":"Hacker News","thirdPartyId":"26438899","url":"https://news.ycombinator.com/item?id=26438899","originalUrl":"https://www.reuters.com/article/us-myanmar-politics-satellite-japan-excl-idUSKBN2B41O1","imageRemote":"https://static.reuters.com/resources/r/?m=02&d=20210312&t=2&i=1554686705&r=LYNXMPEH2B11Y&w=800","video":null,"channel":null,"channelUrl":null,"author":"giuliomagnifico","authorUrl":"https://news.ycombinator.com/user?id=giuliomagnifico","authorImage":null,"authorSlug":null,"score":427,"views":null,"sharedCount":null,"likeCount":null,"sharedContent":null,"parent":{"__typename":"HnJson","localize":[{"title":"缅甸卫星因间谍问题被日本扣在空间站上","locale":"zh"},{"title":"緬甸衛星因間諜問題被日本扣在空間站上","locale":"zh-Hant"}]}},{"__typename":"SocialMediaPost","id":"HnPost-26436552","excerpt":"","slug":"/hn/26436552","title":"The internet didn’t kill counterculture – you just won’t find it on Instagram","date":"March 12, 2021","dateISO":"2021-03-12T20:42:36.134Z","datetime":"2021-03-12 20:42","tags":["story","Hacker News"],"image":null,"imageAlt":null,"provider":"Hacker News","thirdPartyId":"26436552","url":"https://news.ycombinator.com/item?id=26436552","originalUrl":"https://www.documentjournal.com/2021/01/the-internet-didnt-kill-counterculture-you-just-wont-find-it-on-instagram/","imageRemote":"https://s3.amazonaws.com/djwp/wp-content/uploads/2021/01/14120317/IC_THUMB_VERTICAL.jpg","video":null,"channel":null,"channelUrl":null,"author":"isanengineer","authorUrl":"https://news.ycombinator.com/user?id=isanengineer","authorImage":null,"authorSlug":null,"score":555,"views":null,"sharedCount":null,"likeCount":null,"sharedContent":null,"parent":{"__typename":"HnJson","localize":[{"title":"互联网并没有扼杀反文化--只是你在Instagram上找不到而已。","locale":"zh"},{"title":"互聯網並沒有扼殺反文化--只是你在Instagram上找不到而已。","locale":"zh-Hant"}]}},{"__typename":"SocialMediaPost","id":"HnPost-26423000","excerpt":"","slug":"/hn/26423000","title":"From Vim to Emacs in fourteen days (2015)","date":"March 12, 2021","dateISO":"2021-03-12T20:27:02.384Z","datetime":"2021-03-12 20:27","tags":["story","Hacker News"],"image":null,"imageAlt":null,"provider":"Hacker News","thirdPartyId":"26423000","url":"https://news.ycombinator.com/item?id=26423000","originalUrl":"https://blog.aaronbieber.com/2015/05/24/from-vim-to-emacs-in-fourteen-days.html","imageRemote":"https://blog.aaronbieber.com/images/aaron-bieber.png","video":null,"channel":null,"channelUrl":null,"author":"Assossa","authorUrl":"https://news.ycombinator.com/user?id=Assossa","authorImage":null,"authorSlug":null,"score":170,"views":null,"sharedCount":null,"likeCount":null,"sharedContent":null,"parent":{"__typename":"HnJson","localize":[{"title":"从Vim到Emacs的十四天（2015年","locale":"zh"},{"title":"從Vim到Emacs的十四天（2015年","locale":"zh-Hant"}]}},{"__typename":"SocialMediaPost","id":"HnPost-26437152","excerpt":"","slug":"/hn/26437152","title":"M.2 on a Raspberry Pi – The Tofu CM4 Carrier Board","date":"March 12, 2021","dateISO":"2021-03-12T20:00:25.020Z","datetime":"2021-03-12 20:00","tags":["story","Hacker News"],"image":null,"imageAlt":null,"provider":"Hacker News","thirdPartyId":"26437152","url":"https://news.ycombinator.com/item?id=26437152","originalUrl":"https://www.jeffgeerling.com/blog/2021/m2-on-raspberry-pi-tofu-compute-module-4-carrier-board","imageRemote":"https://www.jeffgeerling.com/sites/default/files/images/tofu-by-oratek-hero.jpeg","video":null,"channel":null,"channelUrl":null,"author":"geerlingguy","authorUrl":"https://news.ycombinator.com/user?id=geerlingguy","authorImage":null,"authorSlug":null,"score":294,"views":null,"sharedCount":null,"likeCount":null,"sharedContent":null,"parent":{"__typename":"HnJson","localize":[{"title":"树莓派上的M.2 - 豆腐CM4载板","locale":"zh"},{"title":"樹莓派上的M.2 - 豆腐CM4載板","locale":"zh-Hant"}]}},{"__typename":"SocialMediaPost","id":"HnPost-26429057","excerpt":"","slug":"/hn/26429057","title":"Uber and Lyft to swap data on banned drivers","date":"March 12, 2021","dateISO":"2021-03-12T19:53:23.838Z","datetime":"2021-03-12 19:53","tags":["story","Hacker News"],"image":null,"imageAlt":null,"provider":"Hacker News","thirdPartyId":"26429057","url":"https://news.ycombinator.com/item?id=26429057","originalUrl":"https://www.bbc.co.uk/news/business-56368058","imageRemote":"https://ichef.bbci.co.uk/news/1024/branded_news/9032/production/_117541963_hi033138812.jpg","video":null,"channel":null,"channelUrl":null,"author":"recursion","authorUrl":"https://news.ycombinator.com/user?id=recursion","authorImage":null,"authorSlug":null,"score":162,"views":null,"sharedCount":null,"likeCount":null,"sharedContent":null,"parent":{"__typename":"HnJson","localize":[{"title":"Uber和Lyft将交换被禁司机的数据。","locale":"zh"},{"title":"Uber和Lyft將交換被禁司機的數據。","locale":"zh-Hant"}]}},{"__typename":"SocialMediaPost","id":"HnPost-26434032","excerpt":"","slug":"/hn/26434032","title":"On the death of my family's dairy farm (2019)","date":"March 12, 2021","dateISO":"2021-03-12T19:53:23.838Z","datetime":"2021-03-12 19:53","tags":["story","Hacker News"],"image":null,"imageAlt":null,"provider":"Hacker News","thirdPartyId":"26434032","url":"https://news.ycombinator.com/item?id=26434032","originalUrl":"https://blog.abevoelker.com/2019-03-06/on-the-death-of-my-familys-dairy-farm/","imageRemote":"https://abevoelker.com/assets/on-the-death-of-my-familys-dairy-farm/cover-image-0ef354203b999a24bee88049cbca5feacaa42e23733b5cddf773802e2de49268.jpg","video":null,"channel":null,"channelUrl":null,"author":"ddtaylor","authorUrl":"https://news.ycombinator.com/user?id=ddtaylor","authorImage":null,"authorSlug":null,"score":234,"views":null,"sharedCount":null,"likeCount":null,"sharedContent":null,"parent":{"__typename":"HnJson","localize":[{"title":"关于我家奶牛场的死亡（2019年）。","locale":"zh"},{"title":"關於我家奶牛場的死亡（2019年）。","locale":"zh-Hant"}]}},{"__typename":"SocialMediaPost","id":"HnPost-26433654","excerpt":"","slug":"/hn/26433654","title":"Drop millions of allocations by using a linked list (2015)","date":"March 12, 2021","dateISO":"2021-03-12T18:59:28.372Z","datetime":"2021-03-12 18:59","tags":["story","Hacker News"],"image":null,"imageAlt":null,"provider":"Hacker News","thirdPartyId":"26433654","url":"https://news.ycombinator.com/item?id=26433654","originalUrl":"https://github.com/rubygems/rubygems/pull/1188","imageRemote":"https://avatars.githubusercontent.com/u/208761?s=400&v=4","video":null,"channel":null,"channelUrl":null,"author":"ddtaylor","authorUrl":"https://news.ycombinator.com/user?id=ddtaylor","authorImage":null,"authorSlug":null,"score":178,"views":null,"sharedCount":null,"likeCount":null,"sharedContent":null,"parent":{"__typename":"HnJson","localize":[{"title":"通过使用联动清单，落下百万拨款（2015年）。","locale":"zh"},{"title":"通過使用聯動清單，落下百萬撥款（2015年）。","locale":"zh-Hant"}]}},{"__typename":"SocialMediaPost","id":"HnPost-26435416","excerpt":"","slug":"/hn/26435416","title":"A Model of the Cosmos in the Ancient Greek Antikythera Mechanism","date":"March 12, 2021","dateISO":"2021-03-12T17:49:27.798Z","datetime":"2021-03-12 17:49","tags":["story","Hacker News"],"image":null,"imageAlt":null,"provider":"Hacker News","thirdPartyId":"26435416","url":"https://news.ycombinator.com/item?id=26435416","originalUrl":"https://www.nature.com/articles/s41598-021-84310-w","imageRemote":"https://media.springernature.com/m685/springer-static/image/art%3A10.1038%2Fs41598-021-84310-w/MediaObjects/41598_2021_84310_Fig1_HTML.png","video":null,"channel":null,"channelUrl":null,"author":"sohkamyung","authorUrl":"https://news.ycombinator.com/user?id=sohkamyung","authorImage":null,"authorSlug":null,"score":259,"views":null,"sharedCount":null,"likeCount":null,"sharedContent":null,"parent":{"__typename":"HnJson","localize":[{"title":"古希腊Antikythera机制中的宇宙模型","locale":"zh"},{"title":"古希臘Antikythera機制中的宇宙模型","locale":"zh-Hant"}]}},{"__typename":"SocialMediaPost","id":"HnPost-26431507","excerpt":"","slug":"/hn/26431507","title":"Self-supervised learning: The dark matter of intelligence","date":"March 12, 2021","dateISO":"2021-03-12T17:18:02.497Z","datetime":"2021-03-12 17:18","tags":["story","Hacker News"],"image":null,"imageAlt":null,"provider":"Hacker News","thirdPartyId":"26431507","url":"https://news.ycombinator.com/item?id=26431507","originalUrl":"https://ai.facebook.com/blog/self-supervised-learning-the-dark-matter-of-intelligence/","imageRemote":"https://scontent-iad3-1.xx.fbcdn.net/v/t39.2365-6/105597558_3135808863106723_8338468658194053157_n.svg?_nc_cat=108&ccb=1-3&_nc_sid=ad8a9d&_nc_ohc=cKfyAuKdVrsAX_foxH4&_nc_ht=scontent-iad3-1.xx&oh=0c01ff4e553b4106931c3f0829f1f99d&oe=60710617","video":null,"channel":null,"channelUrl":null,"author":"Anon84","authorUrl":"https://news.ycombinator.com/user?id=Anon84","authorImage":null,"authorSlug":null,"score":178,"views":null,"sharedCount":null,"likeCount":null,"sharedContent":null,"parent":{"__typename":"HnJson","localize":[{"title":"自我监督学习。智能的暗物质","locale":"zh"},{"title":"自我監督學習。智能的暗物質","locale":"zh-Hant"}]}},{"__typename":"SocialMediaPost","id":"HnPost-26433862","excerpt":"","slug":"/hn/26433862","title":"Bitcoin miners in Abkhazia are causing blackouts in remote villages [video]","date":"March 12, 2021","dateISO":"2021-03-12T16:39:01.192Z","datetime":"2021-03-12 16:39","tags":["story","Hacker News"],"image":null,"imageAlt":null,"provider":"Hacker News","thirdPartyId":"26433862","url":"https://news.ycombinator.com/item?id=26433862","originalUrl":"https://www.youtube.com/watch?v=Rrgo-64ndnY","imageRemote":"https://i.ytimg.com/vi/Rrgo-64ndnY/hqdefault.jpg","video":null,"channel":null,"channelUrl":null,"author":"f311a","authorUrl":"https://news.ycombinator.com/user?id=f311a","authorImage":null,"authorSlug":null,"score":228,"views":null,"sharedCount":null,"likeCount":null,"sharedContent":null,"parent":{"__typename":"HnJson","localize":[{"title":"阿布哈兹的比特币矿工正在导致偏远村庄停电[视频]。","locale":"zh"},{"title":"阿布哈茲的比特幣礦工正在導致偏遠村莊停電[視頻]。","locale":"zh-Hant"}]}}]}},"pageContext":{"basePath":"/","pageType":"tag","tag":"story","tagsFilter":{"id":{"glob":"!*Post-1"}},"filter":{"id":{"glob":"!*Post-1"},"tags":{"eq":"story"}},"limit":25,"skip":150,"total":2599,"totalPages":104,"currentPage":7,"maxWidth":1024,"maxHeight":512,"locale":"en","hrefLang":"en-US","originalPath":"/tags/story/page/7","dateFormat":"MM/DD/YYYY"}},"staticQueryHashes":["1239077767","2506312863","2744905544","3025052997","3493603132","3493603132","3513215887","386998304"]}