{"componentChunkName":"component---gatsby-theme-buzzing-src-gatsby-theme-timeline-templates-posts-query-js","path":"/tags/hacker-news/page/73","result":{"data":{"site":{"siteMetadata":{"title":"Reddit 热门","description":"用中文浏览Reddit热门内容","social":[{"name":"Twitter","url":"https://twitter.com/gatsbyjs","external":null,"prefetch":null},{"name":"GitHub","url":"https://github.com/gatsbyjs","external":null,"prefetch":null}],"menuLinks":[],"localize":[{"locale":"en","title":"Buzzing on Reddit","description":"See what's buzzing on Reddit in your native language","social":[{"name":"Reddit","url":"https://www.reddit.com/","external":true,"prefetch":null}],"menuLinks":[{"name":"Weekly Selection","url":"/issues","external":null,"prefetch":null},{"name":"RSS","url":"/rss.xml","external":null,"prefetch":false}]},{"locale":"zh-Hant","title":"Reddit 熱門","description":"用中文瀏覽Reddit熱門內容","social":null,"menuLinks":null}]}},"tagsGroup":{"group":[{"fieldValue":"ASK HN","totalCount":42},{"fieldValue":"Bitcoin","totalCount":4},{"fieldValue":"Hacker News","totalCount":2407},{"fieldValue":"Poll","totalCount":1},{"fieldValue":"SaveAMC","totalCount":1},{"fieldValue":"Show HN","totalCount":81},{"fieldValue":"bitcoin","totalCount":3},{"fieldValue":"investing","totalCount":753},{"fieldValue":"poll","totalCount":1},{"fieldValue":"reddit","totalCount":4523},{"fieldValue":"science","totalCount":1},{"fieldValue":"stocks","totalCount":1482},{"fieldValue":"story","totalCount":2406},{"fieldValue":"tweet","totalCount":767},{"fieldValue":"wallstreetbets","totalCount":2288}]},"allBlogPost":{"nodes":[{"__typename":"SocialMediaPost","id":"HnPost-25608932","excerpt":"","slug":"/hn/25608932","title":"Getting Started in Robotics","date":"January 02, 2021","dateISO":"2021-01-02T09:05:01.039Z","datetime":"2021-01-02 09:05","tags":["story","Hacker News"],"image":null,"imageAlt":null,"provider":"Hacker News","thirdPartyId":"25608932","url":"https://news.ycombinator.com/item?id=25608932","originalUrl":"https://allshire.org/getting-started-robotics/","imageRemote":"https://allshire.org/img/post/getting-started/spot_mini.jpg","video":null,"channel":null,"channelUrl":null,"author":"networdtwo","authorUrl":"https://news.ycombinator.com/user?id=networdtwo","authorImage":null,"authorSlug":null,"score":279,"views":null,"sharedCount":null,"likeCount":null,"sharedContent":null,"parent":{"__typename":"HnJson","localize":[{"title":"机器人入门","locale":"zh"},{"title":"機器人入門","locale":"zh-Hant"}]}},{"__typename":"SocialMediaPost","id":"HnPost-25610741","excerpt":"","slug":"/hn/25610741","title":"A half-hour to learn Rust","date":"January 02, 2021","dateISO":"2021-01-02T09:05:01.039Z","datetime":"2021-01-02 09:05","tags":["story","Hacker News"],"image":null,"imageAlt":null,"provider":"Hacker News","thirdPartyId":"25610741","url":"https://news.ycombinator.com/item?id=25610741","originalUrl":"https://fasterthanli.me/articles/a-half-hour-to-learn-rust","imageRemote":"https://fasterthanli.me/img/logo-square.png","video":null,"channel":null,"channelUrl":null,"author":"selvan","authorUrl":"https://news.ycombinator.com/user?id=selvan","authorImage":null,"authorSlug":null,"score":1434,"views":null,"sharedCount":null,"likeCount":null,"sharedContent":null,"parent":{"__typename":"HnJson","localize":[{"title":"学习Rust的半个小时","locale":"zh"},{"title":"學習Rust的半個小時","locale":"zh-Hant"}]}},{"__typename":"SocialMediaPost","id":"HnPost-25603683","excerpt":"","slug":"/hn/25603683","title":"What’s Entering Public Domain in 2021: The Great Gatsby, Music by Duke Ellington","date":"January 02, 2021","dateISO":"2021-01-02T08:38:38.424Z","datetime":"2021-01-02 08:38","tags":["story","Hacker News"],"image":null,"imageAlt":null,"provider":"Hacker News","thirdPartyId":"25603683","url":"https://news.ycombinator.com/item?id=25603683","originalUrl":"https://www.openculture.com/2021/01/whats-entering-the-public-domain-in-2021.html","imageRemote":"https://cdn8.openculture.com/2020/12/31231456/2021-montage2.jpg","video":null,"channel":null,"channelUrl":null,"author":"danso","authorUrl":"https://news.ycombinator.com/user?id=danso","authorImage":null,"authorSlug":null,"score":219,"views":null,"sharedCount":null,"likeCount":null,"sharedContent":null,"parent":{"__typename":"HnJson","localize":[{"title":"2021年进入公共领域的是什么：伟大的盖茨比，杜克·艾灵顿的音乐","locale":"zh"},{"title":"2021年進入公共領域的是什麼：偉大的蓋茨比，杜克·艾靈頓的音樂","locale":"zh-Hant"}]}},{"__typename":"SocialMediaPost","id":"HnPost-25607809","excerpt":"","slug":"/hn/25607809","title":"The Pile: An 800GB Dataset of Diverse Text for Language Modeling","date":"January 02, 2021","dateISO":"2021-01-02T07:07:50.267Z","datetime":"2021-01-02 07:07","tags":["story","Hacker News"],"image":null,"imageAlt":null,"provider":"Hacker News","thirdPartyId":"25607809","url":"https://news.ycombinator.com/item?id=25607809","originalUrl":"http://pile.eleuther.ai/","imageRemote":"https://pile.eleuther.ai/logo.png","video":null,"channel":null,"channelUrl":null,"author":"leogao","authorUrl":"https://news.ycombinator.com/user?id=leogao","authorImage":null,"authorSlug":null,"score":221,"views":null,"sharedCount":null,"likeCount":null,"sharedContent":null,"parent":{"__typename":"HnJson","localize":[{"title":"堆：用于语言建模的800 GB不同文本的数据集","locale":"zh"},{"title":"堆：用於語言建模的800 GB不同文本的數據集","locale":"zh-Hant"}]}},{"__typename":"SocialMediaPost","id":"HnPost-25606769","excerpt":"","slug":"/hn/25606769","title":"Crossing 2000 Miles of Siberia to Reach One of the Most Isolated Cities on Earth","date":"January 02, 2021","dateISO":"2021-01-02T05:46:09.298Z","datetime":"2021-01-02 05:46","tags":["story","Hacker News"],"image":null,"imageAlt":null,"provider":"Hacker News","thirdPartyId":"25606769","url":"https://news.ycombinator.com/item?id=25606769","originalUrl":"https://www.thedrive.com/news/38035/russian-off-roaders-crossed-2000-miles-of-siberia-to-reach-one-of-the-most-isolated-cities-on-earth","imageRemote":"https://api.thedrive.com/wp-content/uploads/2020/12/russia-siberia-snow-explorer.jpg?quality=85","video":null,"channel":null,"channelUrl":null,"author":"NaOH","authorUrl":"https://news.ycombinator.com/user?id=NaOH","authorImage":null,"authorSlug":null,"score":246,"views":null,"sharedCount":null,"likeCount":null,"sharedContent":null,"parent":{"__typename":"HnJson","localize":[{"title":"穿越2000英里的西伯利亚到达地球上最与世隔绝的城市之一","locale":"zh"},{"title":"穿越2000英里的西伯利亞到達地球上最與世隔絕的城市之一","locale":"zh-Hant"}]}},{"__typename":"SocialMediaPost","id":"HnPost-25609321","excerpt":"","slug":"/hn/25609321","title":"Horrifying PDF Experiments","date":"January 02, 2021","dateISO":"2021-01-02T05:13:55.455Z","datetime":"2021-01-02 05:13","tags":["story","Hacker News"],"image":null,"imageAlt":null,"provider":"Hacker News","thirdPartyId":"25609321","url":"https://news.ycombinator.com/item?id=25609321","originalUrl":"https://github.com/osnr/horrifying-pdf-experiments","imageRemote":"https://avatars0.githubusercontent.com/u/96857?s=400&v=4","video":null,"channel":null,"channelUrl":null,"author":"thesephist","authorUrl":"https://news.ycombinator.com/user?id=thesephist","authorImage":null,"authorSlug":null,"score":490,"views":null,"sharedCount":null,"likeCount":null,"sharedContent":null,"parent":{"__typename":"HnJson","localize":[{"title":"可怕的PDF实验","locale":"zh"},{"title":"可怕的PDF實驗","locale":"zh-Hant"}]}},{"__typename":"SocialMediaPost","id":"HnPost-25604732","excerpt":"","slug":"/hn/25604732","title":"You’re Never Too Old to Become a Beginner","date":"January 02, 2021","dateISO":"2021-01-02T03:06:43.144Z","datetime":"2021-01-02 03:06","tags":["story","Hacker News"],"image":null,"imageAlt":null,"provider":"Hacker News","thirdPartyId":"25604732","url":"https://news.ycombinator.com/item?id=25604732","originalUrl":"https://www.wsj.com/articles/for-new-years-resolutions-never-think-youre-too-old-to-become-a-beginner-11609426707","imageRemote":"https://images.wsj.net/im-278703/social","video":null,"channel":null,"channelUrl":null,"author":"wallflower","authorUrl":"https://news.ycombinator.com/user?id=wallflower","authorImage":null,"authorSlug":null,"score":226,"views":null,"sharedCount":null,"likeCount":null,"sharedContent":null,"parent":{"__typename":"HnJson","localize":[{"title":"要成为一个初学者，年龄永远不会太大","locale":"zh"},{"title":"要成爲一個初學者，年齡永遠不會太大","locale":"zh-Hant"}]}},{"__typename":"SocialMediaPost","id":"HnPost-25591443","excerpt":"","slug":"/hn/25591443","title":"Anesthesia works on plants too, and we don’t know why","date":"January 02, 2021","dateISO":"2021-01-02T01:29:49.143Z","datetime":"2021-01-02 01:29","tags":["story","Hacker News"],"image":null,"imageAlt":null,"provider":"Hacker News","thirdPartyId":"25591443","url":"https://news.ycombinator.com/item?id=25591443","originalUrl":"https://medium.com/@lukehollomon/anesthesia-works-on-plants-too-and-we-dont-know-why-dc7ed8a89909","imageRemote":"https://miro.medium.com/max/611/1*cDyZZf2Vgq0RTr5MRFGSNg.jpeg","video":null,"channel":null,"channelUrl":null,"author":"riffraff","authorUrl":"https://news.ycombinator.com/user?id=riffraff","authorImage":null,"authorSlug":null,"score":286,"views":null,"sharedCount":null,"likeCount":null,"sharedContent":null,"parent":{"__typename":"HnJson","localize":[{"title":"麻醉对植物也有效，我们不知道为什么","locale":"zh"},{"title":"麻醉對植物也有效，我們不知道爲什麼","locale":"zh-Hant"}]}},{"__typename":"SocialMediaPost","id":"HnPost-25602765","excerpt":"","slug":"/hn/25602765","title":"Zynga shuts down FarmVille after 11 years","date":"January 01, 2021","dateISO":"2021-01-01T23:45:19.014Z","datetime":"2021-01-01 23:45","tags":["story","Hacker News"],"image":null,"imageAlt":null,"provider":"Hacker News","thirdPartyId":"25602765","url":"https://news.ycombinator.com/item?id=25602765","originalUrl":"https://twitter.com/markpinc/status/1344742333443493889","imageRemote":null,"video":null,"channel":null,"channelUrl":null,"author":"azhenley","authorUrl":"https://news.ycombinator.com/user?id=azhenley","authorImage":null,"authorSlug":null,"score":236,"views":null,"sharedCount":null,"likeCount":null,"sharedContent":null,"parent":{"__typename":"HnJson","localize":[{"title":"Zynga在11年后关闭FarmVille","locale":"zh"},{"title":"Zynga在11年後關閉FarmVille","locale":"zh-Hant"}]}},{"__typename":"SocialMediaPost","id":"HnPost-25605470","excerpt":"","slug":"/hn/25605470","title":"Artichoke is a Ruby made with Rust that compiles to WebAssembly","date":"January 01, 2021","dateISO":"2021-01-01T22:39:58.236Z","datetime":"2021-01-01 22:39","tags":["story","Hacker News"],"image":null,"imageAlt":null,"provider":"Hacker News","thirdPartyId":"25605470","url":"https://news.ycombinator.com/item?id=25605470","originalUrl":"https://github.com/artichoke/artichoke","imageRemote":"https://repository-images.githubusercontent.com/199196552/3b5f4100-4731-11eb-9873-fbca5428e628","video":null,"channel":null,"channelUrl":null,"author":"ibraheemdev","authorUrl":"https://news.ycombinator.com/user?id=ibraheemdev","authorImage":null,"authorSlug":null,"score":325,"views":null,"sharedCount":null,"likeCount":null,"sharedContent":null,"parent":{"__typename":"HnJson","localize":[{"title":"Artichoke是一个用Rust制作的Ruby，可以编译成WebAssembly","locale":"zh"},{"title":"Artichoke是一個用Rust製作的Ruby，可以編譯成WebAssembly","locale":"zh-Hant"}]}},{"__typename":"SocialMediaPost","id":"HnPost-25604040","excerpt":"","slug":"/hn/25604040","title":"Desalination Breakthrough Could Lead to Cheaper Water Filtration","date":"January 01, 2021","dateISO":"2021-01-01T21:52:18.813Z","datetime":"2021-01-01 21:52","tags":["story","Hacker News"],"image":null,"imageAlt":null,"provider":"Hacker News","thirdPartyId":"25604040","url":"https://news.ycombinator.com/item?id=25604040","originalUrl":"https://news.utexas.edu/2020/12/31/desalination-breakthrough-could-lead-to-cheaper-water-filtration/","imageRemote":"https://news.utexas.edu/wp-content/uploads/2020/12/Student50733184336_a04a010842_c-copy.jpg","video":null,"channel":null,"channelUrl":null,"author":"based2","authorUrl":"https://news.ycombinator.com/user?id=based2","authorImage":null,"authorSlug":null,"score":259,"views":null,"sharedCount":null,"likeCount":null,"sharedContent":null,"parent":{"__typename":"HnJson","localize":[{"title":"海水淡化突破可能导致更便宜的水过滤","locale":"zh"},{"title":"海水淡化突破可能導致更便宜的水過濾","locale":"zh-Hant"}]}},{"__typename":"SocialMediaPost","id":"HnPost-25605867","excerpt":"","slug":"/hn/25605867","title":"School or Prison","date":"January 01, 2021","dateISO":"2021-01-01T21:52:18.813Z","datetime":"2021-01-01 21:52","tags":["story","Hacker News"],"image":null,"imageAlt":null,"provider":"Hacker News","thirdPartyId":"25605867","url":"https://news.ycombinator.com/item?id=25605867","originalUrl":"https://www.schoolprison.com/","imageRemote":null,"video":null,"channel":null,"channelUrl":null,"author":"nickburlett","authorUrl":"https://news.ycombinator.com/user?id=nickburlett","authorImage":null,"authorSlug":null,"score":705,"views":null,"sharedCount":null,"likeCount":null,"sharedContent":null,"parent":{"__typename":"HnJson","localize":[{"title":"学校或监狱","locale":"zh"},{"title":"學校或監獄","locale":"zh-Hant"}]}},{"__typename":"SocialMediaPost","id":"HnPost-25603254","excerpt":"","slug":"/hn/25603254","title":"Running Debian on a 32MB RAM Single Core ARM SBC","date":"January 01, 2021","dateISO":"2021-01-01T20:44:07.449Z","datetime":"2021-01-01 20:44","tags":["story","Hacker News"],"image":null,"imageAlt":null,"provider":"Hacker News","thirdPartyId":"25603254","url":"https://news.ycombinator.com/item?id=25603254","originalUrl":"https://blog.jmdawson.co.uk/lichee-nano-pi-will-it-run-debian/","imageRemote":"https://i0.wp.com/blog.jmdawson.co.uk/wp-content/uploads/2021/01/LicheePi-Nano-Board-Large.jpg?fit=1414%2C976&ssl=1","video":null,"channel":null,"channelUrl":null,"author":"jamesmd","authorUrl":"https://news.ycombinator.com/user?id=jamesmd","authorImage":null,"authorSlug":null,"score":192,"views":null,"sharedCount":null,"likeCount":null,"sharedContent":null,"parent":{"__typename":"HnJson","localize":[{"title":"在32MB RAM单核ARM SBC上运行Debian","locale":"zh"},{"title":"在32MB RAM單核ARM SBC上運行Debian","locale":"zh-Hant"}]}},{"__typename":"SocialMediaPost","id":"HnPost-25603271","excerpt":"","slug":"/hn/25603271","title":"George Orwell is out of copyright. What happens now?","date":"January 01, 2021","dateISO":"2021-01-01T20:44:07.449Z","datetime":"2021-01-01 20:44","tags":["story","Hacker News"],"image":null,"imageAlt":null,"provider":"Hacker News","thirdPartyId":"25603271","url":"https://news.ycombinator.com/item?id=25603271","originalUrl":"https://www.theguardian.com/books/booksblog/2021/jan/01/george-orwell-is-out-of-copyright-what-happens-now","imageRemote":"https://i.guim.co.uk/img/media/2da60d98bd4e33cde3ab3a5a1d7f621090dcb400/0_648_2008_1203/master/2008.jpg?width=1200&height=630&quality=85&auto=format&fit=crop&overlay-align=bottom%2Cleft&overlay-width=100p&overlay-base64=L2ltZy9zdGF0aWMvb3ZlcmxheXMvdGctZGVmYXVsdC5wbmc&enable=upscale&s=498c1fee882c3f63e8d5e3cc5619590a","video":null,"channel":null,"channelUrl":null,"author":"headalgorithm","authorUrl":"https://news.ycombinator.com/user?id=headalgorithm","authorImage":null,"authorSlug":null,"score":193,"views":null,"sharedCount":null,"likeCount":null,"sharedContent":null,"parent":{"__typename":"HnJson","localize":[{"title":"乔治·奥威尔的版权到期了。现在怎么办？","locale":"zh"},{"title":"喬治·奧威爾的版權到期了。現在怎麼辦？","locale":"zh-Hant"}]}},{"__typename":"SocialMediaPost","id":"HnPost-25605156","excerpt":"","slug":"/hn/25605156","title":"Peer-reviewed papers are getting increasingly boring","date":"January 01, 2021","dateISO":"2021-01-01T20:44:07.449Z","datetime":"2021-01-01 20:44","tags":["story","Hacker News"],"image":null,"imageAlt":null,"provider":"Hacker News","thirdPartyId":"25605156","url":"https://news.ycombinator.com/item?id=25605156","originalUrl":"https://lemire.me/blog/2021/01/01/peer-reviewed-papers-are-getting-increasingly-boring/","imageRemote":"https://lemire.me/img/portrait2018facebook.jpg","video":null,"channel":null,"channelUrl":null,"author":"ingve","authorUrl":"https://news.ycombinator.com/user?id=ingve","authorImage":null,"authorSlug":null,"score":364,"views":null,"sharedCount":null,"likeCount":null,"sharedContent":null,"parent":{"__typename":"HnJson","localize":[{"title":"同行评议的论文越来越乏味。","locale":"zh"},{"title":"同行評議的論文越來越乏味。","locale":"zh-Hant"}]}},{"__typename":"SocialMediaPost","id":"HnPost-25605880","excerpt":"","slug":"/hn/25605880","title":"Apple has threatened to remove Amphetamine from the App Store","date":"January 01, 2021","dateISO":"2021-01-01T20:15:44.326Z","datetime":"2021-01-01 20:15","tags":["story","Hacker News"],"image":null,"imageAlt":null,"provider":"Hacker News","thirdPartyId":"25605880","url":"https://news.ycombinator.com/item?id=25605880","originalUrl":"https://github.com/x74353/SaveAmphetamine","imageRemote":"https://repository-images.githubusercontent.com/325698515/39601b00-4c26-11eb-9810-08ad8e3c371e","video":null,"channel":null,"channelUrl":null,"author":"giuliomagnifico","authorUrl":"https://news.ycombinator.com/user?id=giuliomagnifico","authorImage":null,"authorSlug":null,"score":946,"views":null,"sharedCount":null,"likeCount":null,"sharedContent":null,"parent":{"__typename":"HnJson","localize":[{"title":"苹果威胁要从App Store下架安非他命","locale":"zh"},{"title":"蘋果威脅要從App Store下架安非他命","locale":"zh-Hant"}]}},{"__typename":"SocialMediaPost","id":"HnPost-25600711","excerpt":"","slug":"/hn/25600711","title":"The naval shipworm helped bring about the Industrial Revolution","date":"January 01, 2021","dateISO":"2021-01-01T19:24:57.378Z","datetime":"2021-01-01 19:24","tags":["story","Hacker News"],"image":null,"imageAlt":null,"provider":"Hacker News","thirdPartyId":"25600711","url":"https://news.ycombinator.com/item?id=25600711","originalUrl":"https://twitter.com/davidfickling/status/1344404814256504832","imageRemote":null,"video":null,"channel":null,"channelUrl":null,"author":"mstats","authorUrl":"https://news.ycombinator.com/user?id=mstats","authorImage":null,"authorSlug":null,"score":160,"views":null,"sharedCount":null,"likeCount":null,"sharedContent":null,"parent":{"__typename":"HnJson","localize":[{"title":"海军舰艇蠕虫促成了工业革命。","locale":"zh"},{"title":"海軍艦艇蠕蟲促成了工業革命。","locale":"zh-Hant"}]}},{"__typename":"SocialMediaPost","id":"HnPost-25605211","excerpt":"","slug":"/hn/25605211","title":"My Experience @ Apple","date":"January 01, 2021","dateISO":"2021-01-01T19:24:57.378Z","datetime":"2021-01-01 19:24","tags":["story","Hacker News"],"image":null,"imageAlt":null,"provider":"Hacker News","thirdPartyId":"25605211","url":"https://news.ycombinator.com/item?id=25605211","originalUrl":"https://ex-apple-engineer.medium.com/my-experience-apple-5d8b6205cb56","imageRemote":"https://miro.medium.com/max/496/1*o3l4N-q01WTDrG73LitR8g.jpeg","video":null,"channel":null,"channelUrl":null,"author":"limono","authorUrl":"https://news.ycombinator.com/user?id=limono","authorImage":null,"authorSlug":null,"score":1597,"views":null,"sharedCount":null,"likeCount":null,"sharedContent":null,"parent":{"__typename":"HnJson","localize":[{"title":"我的经历@苹果","locale":"zh"},{"title":"我的經歷@蘋果","locale":"zh-Hant"}]}},{"__typename":"SocialMediaPost","id":"HnPost-25602602","excerpt":"","slug":"/hn/25602602","title":"White House wins ruling on disclosing health care prices","date":"January 01, 2021","dateISO":"2021-01-01T18:54:29.918Z","datetime":"2021-01-01 18:54","tags":["story","Hacker News"],"image":null,"imageAlt":null,"provider":"Hacker News","thirdPartyId":"25602602","url":"https://news.ycombinator.com/item?id=25602602","originalUrl":"https://apnews.com/article/donald-trump-politics-kayleigh-mcenany-courts-f0700210fe86004255f68f15d12e9932","imageRemote":"https://storage.googleapis.com/afs-prod/media/9a3dc45deae840ffa781c110213a4eb1/3000.jpeg","video":null,"channel":null,"channelUrl":null,"author":"gscott","authorUrl":"https://news.ycombinator.com/user?id=gscott","authorImage":null,"authorSlug":null,"score":207,"views":null,"sharedCount":null,"likeCount":null,"sharedContent":null,"parent":{"__typename":"HnJson","localize":[{"title":"白宫赢得关于披露医疗价格的裁决","locale":"zh"},{"title":"白宮贏得關於披露醫療價格的裁決","locale":"zh-Hant"}]}},{"__typename":"SocialMediaPost","id":"HnPost-25601821","excerpt":"","slug":"/hn/25601821","title":"State machines are wonderful tools","date":"January 01, 2021","dateISO":"2021-01-01T17:07:22.284Z","datetime":"2021-01-01 17:07","tags":["story","Hacker News"],"image":null,"imageAlt":null,"provider":"Hacker News","thirdPartyId":"25601821","url":"https://news.ycombinator.com/item?id=25601821","originalUrl":"https://nullprogram.com/blog/2020/12/31/","imageRemote":"https://nullprogram.com/img/diagram/morse.svg","video":null,"channel":null,"channelUrl":null,"author":"chmaynard","authorUrl":"https://news.ycombinator.com/user?id=chmaynard","authorImage":null,"authorSlug":null,"score":338,"views":null,"sharedCount":null,"likeCount":null,"sharedContent":null,"parent":{"__typename":"HnJson","localize":[{"title":"状态机是很棒的工具","locale":"zh"},{"title":"狀態機是很棒的工具","locale":"zh-Hant"}]}},{"__typename":"SocialMediaPost","id":"HnPost-25601846","excerpt":"","slug":"/hn/25601846","title":"Fired App Reviewer Sues Apple","date":"January 01, 2021","dateISO":"2021-01-01T17:07:22.284Z","datetime":"2021-01-01 17:07","tags":["story","Hacker News"],"image":null,"imageAlt":null,"provider":"Hacker News","thirdPartyId":"25601846","url":"https://news.ycombinator.com/item?id=25601846","originalUrl":"https://mjtsai.com/blog/2020/12/31/fired-app-reviewer-sues-apple/","imageRemote":"https://mjtsai.com/images/dropdmg-icon-32.png","video":null,"channel":null,"channelUrl":null,"author":"ksec","authorUrl":"https://news.ycombinator.com/user?id=ksec","authorImage":null,"authorSlug":null,"score":265,"views":null,"sharedCount":null,"likeCount":null,"sharedContent":null,"parent":{"__typename":"HnJson","localize":[{"title":"被解雇的App Reviewer起诉苹果","locale":"zh"},{"title":"被解僱的App Reviewer起訴蘋果","locale":"zh-Hant"}]}},{"__typename":"SocialMediaPost","id":"HnPost-25600011","excerpt":"","slug":"/hn/25600011","title":"Best of HN 2020","date":"January 01, 2021","dateISO":"2021-01-01T15:11:00.825Z","datetime":"2021-01-01 15:11","tags":["story","Hacker News"],"image":null,"imageAlt":null,"provider":"Hacker News","thirdPartyId":"25600011","url":"https://news.ycombinator.com/item?id=25600011","originalUrl":"https://hn.algolia.com/?dateEnd=1609415804&dateRange=custom&dateStart=1577836800&page=0&prefix=false&query=&sort=byPopularity&type=story","imageRemote":"https://d3nb9u6x572n0.cloudfront.net/yc-logo.png","video":null,"channel":null,"channelUrl":null,"author":"richardboegli","authorUrl":"https://news.ycombinator.com/user?id=richardboegli","authorImage":null,"authorSlug":null,"score":188,"views":null,"sharedCount":null,"likeCount":null,"sharedContent":null,"parent":{"__typename":"HnJson","localize":[{"title":"2020年度最佳HN","locale":"zh"},{"title":"2020年度最佳HN","locale":"zh-Hant"}]}},{"__typename":"SocialMediaPost","id":"HnPost-25602950","excerpt":"","slug":"/hn/25602950","title":"EU Signs €145bn Declaration to Develop Next Gen Processors and 2nm Technology","date":"January 01, 2021","dateISO":"2021-01-01T14:35:36.774Z","datetime":"2021-01-01 14:35","tags":["story","Hacker News"],"image":null,"imageAlt":null,"provider":"Hacker News","thirdPartyId":"25602950","url":"https://news.ycombinator.com/item?id=25602950","originalUrl":"https://www.eetimes.eu/eu-signs-e145bn-declaration-to-develop-next-gen-processors-and-2nm-technology/","imageRemote":"https://www.eetimes.eu/wp-content/uploads/2020/12/European-Commission-microelectronics-image.jpg?fit=992%2C682","video":null,"channel":null,"channelUrl":null,"author":"simonpd","authorUrl":"https://news.ycombinator.com/user?id=simonpd","authorImage":null,"authorSlug":null,"score":752,"views":null,"sharedCount":null,"likeCount":null,"sharedContent":null,"parent":{"__typename":"HnJson","localize":[{"title":"欧盟签署1450亿欧元宣言开发下一代处理器和2 NM技术","locale":"zh"},{"title":"歐盟簽署1450億歐元宣言開發下一代處理器和2 NM技術","locale":"zh-Hant"}]}},{"__typename":"SocialMediaPost","id":"HnPost-25601814","excerpt":"","slug":"/hn/25601814","title":"2021: CA law restricts delivery apps from listing restaurants without permission","date":"January 01, 2021","dateISO":"2021-01-01T12:14:04.261Z","datetime":"2021-01-01 12:14","tags":["story","Hacker News"],"image":null,"imageAlt":null,"provider":"Hacker News","thirdPartyId":"25601814","url":"https://news.ycombinator.com/item?id=25601814","originalUrl":"https://leginfo.legislature.ca.gov/faces/billTextClient.xhtml?bill_id=201920200AB2149","imageRemote":"https://leginfo.legislature.ca.gov/resources/images/header_img.png","video":null,"channel":null,"channelUrl":null,"author":"supernova87a","authorUrl":"https://news.ycombinator.com/user?id=supernova87a","authorImage":null,"authorSlug":null,"score":1317,"views":null,"sharedCount":null,"likeCount":null,"sharedContent":null,"parent":{"__typename":"HnJson","localize":[{"title":"2021年：CA法律限制送货应用程序未经许可列出餐厅","locale":"zh"},{"title":"2021年：CA法律限制送貨應用程序未經許可列出餐廳","locale":"zh-Hant"}]}},{"__typename":"SocialMediaPost","id":"HnPost-25598270","excerpt":"","slug":"/hn/25598270","title":"Reverse Engineering Source Code of the Biontech Pfizer Vaccine: Part 2","date":"January 01, 2021","dateISO":"2021-01-01T11:55:02.946Z","datetime":"2021-01-01 11:55","tags":["story","Hacker News"],"image":null,"imageAlt":null,"provider":"Hacker News","thirdPartyId":"25598270","url":"https://news.ycombinator.com/item?id=25598270","originalUrl":"https://berthub.eu/articles/posts/part-2-reverse-engineering-source-code-of-the-biontech-pfizer-vaccine/","imageRemote":"https://berthub.eu/articles/dna-codon-table.png","video":null,"channel":null,"channelUrl":null,"author":"soheilpro","authorUrl":"https://news.ycombinator.com/user?id=soheilpro","authorImage":null,"authorSlug":null,"score":212,"views":null,"sharedCount":null,"likeCount":null,"sharedContent":null,"parent":{"__typename":"HnJson","localize":[{"title":"生物技术辉瑞疫苗的反向工程源代码：第二部分","locale":"zh"},{"title":"生物技術輝瑞疫苗的反向工程源代碼：第二部分","locale":"zh-Hant"}]}}]}},"pageContext":{"basePath":"/","pageType":"tag","tag":"Hacker News","tagsFilter":{"id":{"glob":"!*Post-1"}},"filter":{"id":{"glob":"!*Post-1"},"tags":{"eq":"Hacker News"}},"limit":25,"skip":1800,"total":2407,"totalPages":97,"currentPage":73,"maxWidth":1024,"maxHeight":512,"locale":"zh","hrefLang":"zh-Hans","originalPath":"/tags/hacker-news/page/73","dateFormat":"YYYY-MM-DD"}},"staticQueryHashes":["1239077767","2506312863","2744905544","3025052997","3493603132","3493603132","3513215887","386998304"]}