{"componentChunkName":"component---gatsby-theme-buzzing-src-gatsby-theme-timeline-templates-posts-query-js","path":"/ja/tags/story/page/20","result":{"data":{"site":{"siteMetadata":{"title":"Reddit 热门","description":"用中文浏览Reddit热门内容","social":[{"name":"Twitter","url":"https://twitter.com/gatsbyjs","external":null,"prefetch":null},{"name":"GitHub","url":"https://github.com/gatsbyjs","external":null,"prefetch":null}],"menuLinks":[],"localize":[{"locale":"en","title":"Buzzing on Reddit","description":"See what's buzzing on Reddit in your native language","social":[{"name":"Reddit","url":"https://www.reddit.com/","external":true,"prefetch":null}],"menuLinks":[{"name":"Weekly Selection","url":"/issues","external":null,"prefetch":null},{"name":"RSS","url":"/rss.xml","external":null,"prefetch":false}]},{"locale":"zh-Hant","title":"Reddit 熱門","description":"用中文瀏覽Reddit熱門內容","social":null,"menuLinks":null}]}},"tagsGroup":{"group":[{"fieldValue":"ASK HN","totalCount":54},{"fieldValue":"Hacker News","totalCount":3107},{"fieldValue":"Poll","totalCount":1},{"fieldValue":"Show HN","totalCount":100},{"fieldValue":"poll","totalCount":1},{"fieldValue":"story","totalCount":3106}]},"allBlogPost":{"nodes":[{"__typename":"SocialMediaPost","id":"HnPost-26514365","excerpt":"","slug":"/hn/26514365","title":"Senior Engineers Build Consensus (2019)","date":"March 20, 2021","dateISO":"2021-03-20T15:49:53.495Z","datetime":"2021-03-20 15:49","tags":["story","Hacker News"],"image":null,"imageAlt":null,"provider":"Hacker News","thirdPartyId":"26514365","url":"https://news.ycombinator.com/item?id=26514365","originalUrl":"https://hyperbo.la/w/nemawashi/","imageRemote":"https://hyperbo.la/hyperbola-logo.png","video":null,"channel":null,"channelUrl":null,"author":"p4lindromica","authorUrl":"https://news.ycombinator.com/user?id=p4lindromica","authorImage":null,"authorSlug":null,"score":203,"views":null,"sharedCount":null,"likeCount":null,"sharedContent":null,"parent":{"__typename":"HnJson","localize":[{"title":"高级工程师凝聚共识（2019","locale":"zh"},{"title":"高級工程師凝聚共識（2019","locale":"zh-Hant"}]}},{"__typename":"SocialMediaPost","id":"HnPost-26521912","excerpt":"","slug":"/hn/26521912","title":"Young Goldman Sachs bankers ask for 80-hour week cap","date":"March 20, 2021","dateISO":"2021-03-20T14:39:42.416Z","datetime":"2021-03-20 14:39","tags":["story","Hacker News"],"image":null,"imageAlt":null,"provider":"Hacker News","thirdPartyId":"26521912","url":"https://news.ycombinator.com/item?id=26521912","originalUrl":"https://www.bbc.com/news/business-56452494","imageRemote":"https://ichef.bbci.co.uk/news/1024/branded_news/127AC/production/_117629657_gettyimages-1131487083-1.jpg","video":null,"channel":null,"channelUrl":null,"author":"wheybags","authorUrl":"https://news.ycombinator.com/user?id=wheybags","authorImage":null,"authorSlug":null,"score":311,"views":null,"sharedCount":null,"likeCount":null,"sharedContent":null,"parent":{"__typename":"HnJson","localize":[{"title":"高盛年轻银行家要求每周80小时上限","locale":"zh"},{"title":"高盛年輕銀行家要求每週80小時上限","locale":"zh-Hant"}]}},{"__typename":"SocialMediaPost","id":"HnPost-26522681","excerpt":"","slug":"/hn/26522681","title":"Demoscene accepted as UNESCO cultural heritage in Germany","date":"March 20, 2021","dateISO":"2021-03-20T14:39:42.416Z","datetime":"2021-03-20 14:39","tags":["story","Hacker News"],"image":null,"imageAlt":null,"provider":"Hacker News","thirdPartyId":"26522681","url":"https://news.ycombinator.com/item?id=26522681","originalUrl":"http://demoscene-the-art-of-coding.net/2021/03/20/demoscene-accepted-as-unesco-cultural-heritage-in-germany/","imageRemote":"http://demoscene-the-art-of-coding.net/wp-content/uploads/2021/03/Decent-Work-for-All.png","video":null,"channel":null,"channelUrl":null,"author":"quakeguy","authorUrl":"https://news.ycombinator.com/user?id=quakeguy","authorImage":null,"authorSlug":null,"score":1106,"views":null,"sharedCount":null,"likeCount":null,"sharedContent":null,"parent":{"__typename":"HnJson","localize":[{"title":"德莫斯克尼被德国接受为联合国教科文组织文化遗产","locale":"zh"},{"title":"德莫斯克尼被德國接受爲聯合國教科文組織文化遺產","locale":"zh-Hant"}]}},{"__typename":"SocialMediaPost","id":"HnPost-26522294","excerpt":"","slug":"/hn/26522294","title":"Nobody designs for small iPhone devices anymore","date":"March 20, 2021","dateISO":"2021-03-20T13:26:20.703Z","datetime":"2021-03-20 13:26","tags":["story","Hacker News"],"image":null,"imageAlt":null,"provider":"Hacker News","thirdPartyId":"26522294","url":"https://news.ycombinator.com/item?id=26522294","originalUrl":"https://lwgmnz.me/2021/03/20/nobody-designs-for-small-iphone-devices-anymore/","imageRemote":"https://lwgmnzme.files.wordpress.com/2021/03/img_2834.jpg","video":null,"channel":null,"channelUrl":null,"author":"dirtylowprofile","authorUrl":"https://news.ycombinator.com/user?id=dirtylowprofile","authorImage":null,"authorSlug":null,"score":464,"views":null,"sharedCount":null,"likeCount":null,"sharedContent":null,"parent":{"__typename":"HnJson","localize":[{"title":"没有人再为小型iPhone设备设计了","locale":"zh"},{"title":"沒有人再爲小型iPhone設備設計了","locale":"zh-Hant"}]}},{"__typename":"SocialMediaPost","id":"HnPost-26514456","excerpt":"","slug":"/hn/26514456","title":"Differential Datalog","date":"March 20, 2021","dateISO":"2021-03-20T13:00:10.541Z","datetime":"2021-03-20 13:00","tags":["story","Hacker News"],"image":null,"imageAlt":null,"provider":"Hacker News","thirdPartyId":"26514456","url":"https://news.ycombinator.com/item?id=26514456","originalUrl":"https://github.com/vmware/differential-datalog","imageRemote":"https://avatars.githubusercontent.com/u/473334?s=400&v=4","video":null,"channel":null,"channelUrl":null,"author":"maximilianroos","authorUrl":"https://news.ycombinator.com/user?id=maximilianroos","authorImage":null,"authorSlug":null,"score":231,"views":null,"sharedCount":null,"likeCount":null,"sharedContent":null,"parent":{"__typename":"HnJson","localize":[{"title":"差分数据记录","locale":"zh"},{"title":"差分數據記錄","locale":"zh-Hant"}]}},{"__typename":"SocialMediaPost","id":"HnPost-26513835","excerpt":"","slug":"/hn/26513835","title":"A new moralism is gripping the literary world","date":"March 20, 2021","dateISO":"2021-03-20T11:45:27.059Z","datetime":"2021-03-20 11:45","tags":["story","Hacker News"],"image":null,"imageAlt":null,"provider":"Hacker News","thirdPartyId":"26513835","url":"https://news.ycombinator.com/item?id=26513835","originalUrl":"https://www.persuasion.community/p/beware-of-books","imageRemote":"https://cdn.substack.com/image/fetch/w_1200,c_limit,f_jpg,q_auto:good,fl_progressive:steep/https%3A%2F%2Fbucketeer-e05bbc84-baa3-437e-9518-adb32be77984.s3.amazonaws.com%2Fpublic%2Fimages%2F6d9a4933-2a74-4f4e-bff4-4304901dce0b_5000x3646.jpeg","video":null,"channel":null,"channelUrl":null,"author":"jseliger","authorUrl":"https://news.ycombinator.com/user?id=jseliger","authorImage":null,"authorSlug":null,"score":165,"views":null,"sharedCount":null,"likeCount":null,"sharedContent":null,"parent":{"__typename":"HnJson","localize":[{"title":"新的道德观正在笼罩文坛","locale":"zh"},{"title":"新的道德觀正在籠罩文壇","locale":"zh-Hant"}]}},{"__typename":"SocialMediaPost","id":"HnPost-26516225","excerpt":"","slug":"/hn/26516225","title":"System Shock","date":"March 20, 2021","dateISO":"2021-03-20T10:56:53.518Z","datetime":"2021-03-20 10:56","tags":["story","Hacker News"],"image":null,"imageAlt":null,"provider":"Hacker News","thirdPartyId":"26516225","url":"https://news.ycombinator.com/item?id=26516225","originalUrl":"https://www.filfre.net/2021/03/system-shock/","imageRemote":"https://www.filfre.net/wp-content/uploads/2021/02/612989-system-shock-dos-front-cover-212x300.jpg","video":null,"channel":null,"channelUrl":null,"author":"doppp","authorUrl":"https://news.ycombinator.com/user?id=doppp","authorImage":null,"authorSlug":null,"score":181,"views":null,"sharedCount":null,"likeCount":null,"sharedContent":null,"parent":{"__typename":"HnJson","localize":[{"title":"系统冲击","locale":"zh"},{"title":"系統衝擊","locale":"zh-Hant"}]}},{"__typename":"SocialMediaPost","id":"HnPost-26519457","excerpt":"","slug":"/hn/26519457","title":"I don't care about cookies","date":"March 20, 2021","dateISO":"2021-03-20T08:30:28.332Z","datetime":"2021-03-20 08:30","tags":["story","Hacker News"],"image":null,"imageAlt":null,"provider":"Hacker News","thirdPartyId":"26519457","url":"https://news.ycombinator.com/item?id=26519457","originalUrl":"https://www.i-dont-care-about-cookies.eu/","imageRemote":"https://www.i-dont-care-about-cookies.eu/resources/themes/common/header-bg.jpg","video":null,"channel":null,"channelUrl":null,"author":"LegitGandalf","authorUrl":"https://news.ycombinator.com/user?id=LegitGandalf","authorImage":null,"authorSlug":null,"score":248,"views":null,"sharedCount":null,"likeCount":null,"sharedContent":null,"parent":{"__typename":"HnJson","localize":[{"title":"我才不管什么饼干呢","locale":"zh"},{"title":"我纔不管什麼餅乾呢","locale":"zh-Hant"}]}},{"__typename":"SocialMediaPost","id":"HnPost-26517124","excerpt":"","slug":"/hn/26517124","title":"Scientist behind Covid-19 mRNA vaccine says her team's next target is cancer","date":"March 20, 2021","dateISO":"2021-03-20T03:44:41.410Z","datetime":"2021-03-20 03:44","tags":["story","Hacker News"],"image":null,"imageAlt":null,"provider":"Hacker News","thirdPartyId":"26517124","url":"https://news.ycombinator.com/item?id=26517124","originalUrl":"https://www.cbc.ca/news/health/covid-19-scientist-mrna-cancer-1.5956150","imageRemote":"https://i.cbc.ca/1.5956176.1616159864!/cpImage/httpImage/image.jpg_gen/derivatives/16x9_620/virus-outbreak-germany-biontech.jpg","video":null,"channel":null,"channelUrl":null,"author":"srameshc","authorUrl":"https://news.ycombinator.com/user?id=srameshc","authorImage":null,"authorSlug":null,"score":241,"views":null,"sharedCount":null,"likeCount":null,"sharedContent":null,"parent":{"__typename":"HnJson","localize":[{"title":"Covid-19 mRNA疫苗背后的科学家表示，她的团队的下一个目标是癌症。","locale":"zh"},{"title":"Covid-19 mRNA疫苗背後的科學家表示，她的團隊的下一個目標是癌症。","locale":"zh-Hant"}]}},{"__typename":"SocialMediaPost","id":"HnPost-26519693","excerpt":"","slug":"/hn/26519693","title":"New Intel “backdoor” – undocumented x86 instruction to alter microcode","date":"March 20, 2021","dateISO":"2021-03-20T03:44:41.410Z","datetime":"2021-03-20 03:44","tags":["story","Hacker News"],"image":null,"imageAlt":null,"provider":"Hacker News","thirdPartyId":"26519693","url":"https://news.ycombinator.com/item?id=26519693","originalUrl":"https://twitter.com/_markel___/status/1373059797155778562","imageRemote":null,"video":null,"channel":null,"channelUrl":null,"author":"BlackLotus89","authorUrl":"https://news.ycombinator.com/user?id=BlackLotus89","authorImage":null,"authorSlug":null,"score":443,"views":null,"sharedCount":null,"likeCount":null,"sharedContent":null,"parent":{"__typename":"HnJson","localize":[{"title":"新的英特尔 \"后门\"--未记录的x86指令改变微码","locale":"zh"},{"title":"新的英特爾 \"後門\"--未記錄的x86指令改變微碼","locale":"zh-Hant"}]}},{"__typename":"SocialMediaPost","id":"HnPost-26516824","excerpt":"","slug":"/hn/26516824","title":"Data Science in Julia for Hackers","date":"March 20, 2021","dateISO":"2021-03-20T02:58:53.727Z","datetime":"2021-03-20 02:58","tags":["story","Hacker News"],"image":null,"imageAlt":null,"provider":"Hacker News","thirdPartyId":"26516824","url":"https://news.ycombinator.com/item?id=26516824","originalUrl":"https://datasciencejuliahackers.com/","imageRemote":"https://datasciencejuliahackers.com/images/bayes-hacker.png","video":null,"channel":null,"channelUrl":null,"author":"dklend122","authorUrl":"https://news.ycombinator.com/user?id=dklend122","authorImage":null,"authorSlug":null,"score":238,"views":null,"sharedCount":null,"likeCount":null,"sharedContent":null,"parent":{"__typename":"HnJson","localize":[{"title":"黑客的Julia中的数据科学","locale":"zh"},{"title":"黑客的Julia中的數據科學","locale":"zh-Hant"}]}},{"__typename":"SocialMediaPost","id":"HnPost-26519244","excerpt":"","slug":"/hn/26519244","title":"Tesla's “full self driving” beta is potentially dangerous","date":"March 20, 2021","dateISO":"2021-03-20T01:00:21.675Z","datetime":"2021-03-20 01:00","tags":["story","Hacker News"],"image":null,"imageAlt":null,"provider":"Hacker News","thirdPartyId":"26519244","url":"https://news.ycombinator.com/item?id=26519244","originalUrl":"https://www.roadandtrack.com/news/a35878363/teslas-full-self-driving-beta-is-just-laughably-bad-and-potentially-dangerous/","imageRemote":"https://hips.hearstapps.com/hmg-prod.s3.amazonaws.com/images/screen-shot-2021-03-18-at-4-33-42-pm-1616099640.png?crop=1.00xw:0.892xh;0,0.108xh&resize=1200:*","video":null,"channel":null,"channelUrl":null,"author":"mdbug","authorUrl":"https://news.ycombinator.com/user?id=mdbug","authorImage":null,"authorSlug":null,"score":444,"views":null,"sharedCount":null,"likeCount":null,"sharedContent":null,"parent":{"__typename":"HnJson","localize":[{"title":"特斯拉 \"完全自动驾驶 \"测试版有潜在危险性","locale":"zh"},{"title":"特斯拉 \"完全自動駕駛 \"測試版有潛在危險性","locale":"zh-Hant"}]}},{"__typename":"SocialMediaPost","id":"HnPost-26518290","excerpt":"","slug":"/hn/26518290","title":"Click","date":"March 19, 2021","dateISO":"2021-03-19T23:13:24.096Z","datetime":"2021-03-19 23:13","tags":["story","Hacker News"],"image":null,"imageAlt":null,"provider":"Hacker News","thirdPartyId":"26518290","url":"https://news.ycombinator.com/item?id=26518290","originalUrl":"https://clickclickclick.click/","imageRemote":null,"video":null,"channel":null,"channelUrl":null,"author":"st_goliath","authorUrl":"https://news.ycombinator.com/user?id=st_goliath","authorImage":null,"authorSlug":null,"score":1093,"views":null,"sharedCount":null,"likeCount":null,"sharedContent":null,"parent":{"__typename":"HnJson","localize":[{"title":"点击","locale":"zh"},{"title":"點擊","locale":"zh-Hant"}]}},{"__typename":"SocialMediaPost","id":"HnPost-26509986","excerpt":"","slug":"/hn/26509986","title":"Go Statement Considered Harmful (2018)","date":"March 19, 2021","dateISO":"2021-03-19T21:37:05.334Z","datetime":"2021-03-19 21:37","tags":["story","Hacker News"],"image":null,"imageAlt":null,"provider":"Hacker News","thirdPartyId":"26509986","url":"https://news.ycombinator.com/item?id=26509986","originalUrl":"https://vorpus.org/blog/notes-on-structured-concurrency-or-go-statement-considered-harmful/","imageRemote":"https://vorpus.org/blog/notes-on-structured-concurrency-or-go-statement-considered-harmful/testing.png","video":null,"channel":null,"channelUrl":null,"author":"celeritascelery","authorUrl":"https://news.ycombinator.com/user?id=celeritascelery","authorImage":null,"authorSlug":null,"score":176,"views":null,"sharedCount":null,"likeCount":null,"sharedContent":null,"parent":{"__typename":"HnJson","localize":[{"title":"围棋声明被认为是有害的(2018)","locale":"zh"},{"title":"圍棋聲明被認爲是有害的(2018)","locale":"zh-Hant"}]}},{"__typename":"SocialMediaPost","id":"HnPost-26514612","excerpt":"","slug":"/hn/26514612","title":"What I wish I knew before building a Shopify App","date":"March 19, 2021","dateISO":"2021-03-19T21:23:12.627Z","datetime":"2021-03-19 21:23","tags":["story","Hacker News"],"image":null,"imageAlt":null,"provider":"Hacker News","thirdPartyId":"26514612","url":"https://news.ycombinator.com/item?id=26514612","originalUrl":"https://ma.ttias.ch/what-i-wish-i-knew-before-building-a-shopify-app.html","imageRemote":null,"video":null,"channel":null,"channelUrl":null,"author":"Dragony","authorUrl":"https://news.ycombinator.com/user?id=Dragony","authorImage":null,"authorSlug":null,"score":363,"views":null,"sharedCount":null,"likeCount":null,"sharedContent":null,"parent":{"__typename":"HnJson","localize":[{"title":"我希望在构建Shopify应用之前知道的事情。","locale":"zh"},{"title":"我希望在構建Shopify應用之前知道的事情。","locale":"zh-Hant"}]}},{"__typename":"SocialMediaPost","id":"HnPost-26512460","excerpt":"","slug":"/hn/26512460","title":"Xbar: The BitBar reboot. Put anything in your macOS menu bar","date":"March 19, 2021","dateISO":"2021-03-19T20:52:34.735Z","datetime":"2021-03-19 20:52","tags":["story","Hacker News"],"image":null,"imageAlt":null,"provider":"Hacker News","thirdPartyId":"26512460","url":"https://news.ycombinator.com/item?id=26512460","originalUrl":"https://xbarapp.com/","imageRemote":"https://xbarapp.com/public/img/xbar-menu-preview.png","video":null,"channel":null,"channelUrl":null,"author":"rjmunro","authorUrl":"https://news.ycombinator.com/user?id=rjmunro","authorImage":null,"authorSlug":null,"score":265,"views":null,"sharedCount":null,"likeCount":null,"sharedContent":null,"parent":{"__typename":"HnJson","localize":[{"title":"Xbar: BitBar reboot. 把任何东西放在你的macOS菜单栏里","locale":"zh"},{"title":"Xbar: BitBar reboot. 把任何東西放在你的macOS菜單欄裏","locale":"zh-Hant"}]}},{"__typename":"SocialMediaPost","id":"HnPost-26512798","excerpt":"","slug":"/hn/26512798","title":"Calling for public input on our approach to world leaders","date":"March 19, 2021","dateISO":"2021-03-19T20:52:34.735Z","datetime":"2021-03-19 20:52","tags":["story","Hacker News"],"image":null,"imageAlt":null,"provider":"Hacker News","thirdPartyId":"26512798","url":"https://news.ycombinator.com/item?id=26512798","originalUrl":"https://blog.twitter.com/en_us/topics/company/2021/calling-for-public-input-on-our-approach-to-world-leaders.html","imageRemote":"https://blog.twitter.com/content/dam/blog-twitter/official/universal-assets/Generic_BlogShare.jpg.twimg.768.jpg","video":null,"channel":null,"channelUrl":null,"author":"uptown","authorUrl":"https://news.ycombinator.com/user?id=uptown","authorImage":null,"authorSlug":null,"score":231,"views":null,"sharedCount":null,"likeCount":null,"sharedContent":null,"parent":{"__typename":"HnJson","localize":[{"title":"呼吁公众就我们对待世界领导人的方法提出意见。","locale":"zh"},{"title":"呼籲公衆就我們對待世界領導人的方法提出意見。","locale":"zh-Hant"}]}},{"__typename":"SocialMediaPost","id":"HnPost-26516081","excerpt":"","slug":"/hn/26516081","title":"Hacker's Guide to Numerical Analysis","date":"March 19, 2021","dateISO":"2021-03-19T20:52:34.735Z","datetime":"2021-03-19 20:52","tags":["story","Hacker News"],"image":null,"imageAlt":null,"provider":"Hacker News","thirdPartyId":"26516081","url":"https://news.ycombinator.com/item?id=26516081","originalUrl":"http://bollu.github.io/a-hackers-guide-to-numerical-analysis.html","imageRemote":"http://bollu.github.io/static/forward-backward-error.png","video":null,"channel":null,"channelUrl":null,"author":"bollu","authorUrl":"https://news.ycombinator.com/user?id=bollu","authorImage":null,"authorSlug":null,"score":356,"views":null,"sharedCount":null,"likeCount":null,"sharedContent":null,"parent":{"__typename":"HnJson","localize":[{"title":"黑客的数值分析指南","locale":"zh"},{"title":"黑客的數值分析指南","locale":"zh-Hant"}]}},{"__typename":"SocialMediaPost","id":"HnPost-26513528","excerpt":"","slug":"/hn/26513528","title":"Sensible macOS Defaults","date":"March 19, 2021","dateISO":"2021-03-19T19:19:47.175Z","datetime":"2021-03-19 19:19","tags":["story","Hacker News"],"image":null,"imageAlt":null,"provider":"Hacker News","thirdPartyId":"26513528","url":"https://news.ycombinator.com/item?id=26513528","originalUrl":"https://github.com/mathiasbynens/dotfiles/blob/master/.macos","imageRemote":"https://avatars.githubusercontent.com/u/81942?s=400&v=4","video":null,"channel":null,"channelUrl":null,"author":"garrtt","authorUrl":"https://news.ycombinator.com/user?id=garrtt","authorImage":null,"authorSlug":null,"score":341,"views":null,"sharedCount":null,"likeCount":null,"sharedContent":null,"parent":{"__typename":"HnJson","localize":[{"title":"合理的macOS默认值","locale":"zh"},{"title":"合理的macOS默認值","locale":"zh-Hant"}]}},{"__typename":"SocialMediaPost","id":"HnPost-26512125","excerpt":"","slug":"/hn/26512125","title":"Egypt prepares to start move to new capital, away from the chaos of Cairo","date":"March 19, 2021","dateISO":"2021-03-19T18:58:42.837Z","datetime":"2021-03-19 18:58","tags":["story","Hacker News"],"image":null,"imageAlt":null,"provider":"Hacker News","thirdPartyId":"26512125","url":"https://news.ycombinator.com/item?id=26512125","originalUrl":"https://www.reuters.com/article/us-egypt-new-capital/egypt-prepares-to-start-move-to-new-capital-away-from-the-chaos-of-cairo-idUSKBN2B91X3","imageRemote":"https://static.reuters.com/resources/r/?m=02&d=20210317&t=2&i=1555210933&r=LYNXMPEH2G13X&w=800","video":null,"channel":null,"channelUrl":null,"author":"wslh","authorUrl":"https://news.ycombinator.com/user?id=wslh","authorImage":null,"authorSlug":null,"score":254,"views":null,"sharedCount":null,"likeCount":null,"sharedContent":null,"parent":{"__typename":"HnJson","localize":[{"title":"埃及准备开始迁往新首都，远离开罗的混乱。","locale":"zh"},{"title":"埃及準備開始遷往新首都，遠離開羅的混亂。","locale":"zh-Hant"}]}},{"__typename":"SocialMediaPost","id":"HnPost-26499781","excerpt":"","slug":"/hn/26499781","title":"What I learned in two years of moving government forms online (2018)","date":"March 19, 2021","dateISO":"2021-03-19T18:32:07.880Z","datetime":"2021-03-19 18:32","tags":["story","Hacker News"],"image":null,"imageAlt":null,"provider":"Hacker News","thirdPartyId":"26499781","url":"https://news.ycombinator.com/item?id=26499781","originalUrl":"https://medium.com/@jgee/what-i-learned-in-two-years-of-moving-government-forms-online-1edc4c2aa089","imageRemote":"https://miro.medium.com/max/1200/1*YNPL-HRdiW1LzCiKP76TfA.png","video":null,"channel":null,"channelUrl":null,"author":"williamsmj","authorUrl":"https://news.ycombinator.com/user?id=williamsmj","authorImage":null,"authorSlug":null,"score":262,"views":null,"sharedCount":null,"likeCount":null,"sharedContent":null,"parent":{"__typename":"HnJson","localize":[{"title":"将政府表格搬到网上两年来我的体会（2018年","locale":"zh"},{"title":"將政府表格搬到網上兩年來我的體會（2018年","locale":"zh-Hant"}]}},{"__typename":"SocialMediaPost","id":"HnPost-26509654","excerpt":"","slug":"/hn/26509654","title":"Greenwald: Yesterday Journalists Spread a Significant Lie All over Twitter","date":"March 19, 2021","dateISO":"2021-03-19T17:52:56.065Z","datetime":"2021-03-19 17:52","tags":["story","Hacker News"],"image":null,"imageAlt":null,"provider":"Hacker News","thirdPartyId":"26509654","url":"https://news.ycombinator.com/item?id=26509654","originalUrl":"https://greenwald.substack.com/p/journalists-illustrating-how-they","imageRemote":"https://cdn.substack.com/image/fetch/w_1200,c_limit,f_jpg,q_auto:good,fl_progressive:steep/https%3A%2F%2Fbucketeer-e05bbc84-baa3-437e-9518-adb32be77984.s3.amazonaws.com%2Fpublic%2Fimages%2F343c03d2-4b7f-4838-a697-18d9c9cac897_3000x2000.jpeg","video":null,"channel":null,"channelUrl":null,"author":"offby37years","authorUrl":"https://news.ycombinator.com/user?id=offby37years","authorImage":null,"authorSlug":null,"score":202,"views":null,"sharedCount":null,"likeCount":null,"sharedContent":null,"parent":{"__typename":"HnJson","localize":[{"title":"格林沃尔德。昨天记者在推特上散布了一个重大的谎言。","locale":"zh"},{"title":"格林沃爾德。昨天記者在推特上散佈了一個重大的謊言。","locale":"zh-Hant"}]}},{"__typename":"SocialMediaPost","id":"HnPost-26513877","excerpt":"","slug":"/hn/26513877","title":"Duke Nukem 3D Mirror Universe","date":"March 19, 2021","dateISO":"2021-03-19T17:52:56.065Z","datetime":"2021-03-19 17:52","tags":["story","Hacker News"],"image":null,"imageAlt":null,"provider":"Hacker News","thirdPartyId":"26513877","url":"https://news.ycombinator.com/item?id=26513877","originalUrl":"https://twitter.com/Foone/status/1372766463556083715","imageRemote":null,"video":null,"channel":null,"channelUrl":null,"author":"tosh","authorUrl":"https://news.ycombinator.com/user?id=tosh","authorImage":null,"authorSlug":null,"score":819,"views":null,"sharedCount":null,"likeCount":null,"sharedContent":null,"parent":{"__typename":"HnJson","localize":[{"title":"毁灭公爵3D镜像宇宙","locale":"zh"},{"title":"毀滅公爵3D鏡像宇宙","locale":"zh-Hant"}]}},{"__typename":"SocialMediaPost","id":"HnPost-26514624","excerpt":"","slug":"/hn/26514624","title":"Wrecking sandwich traders for fun and profit","date":"March 19, 2021","dateISO":"2021-03-19T17:21:34.005Z","datetime":"2021-03-19 17:21","tags":["story","Hacker News"],"image":null,"imageAlt":null,"provider":"Hacker News","thirdPartyId":"26514624","url":"https://news.ycombinator.com/item?id=26514624","originalUrl":"https://github.com/Defi-Cartel/salmonella","imageRemote":"https://avatars.githubusercontent.com/u/79462788?s=400&v=4","video":null,"channel":null,"channelUrl":null,"author":"dmckinno","authorUrl":"https://news.ycombinator.com/user?id=dmckinno","authorImage":null,"authorSlug":null,"score":268,"views":null,"sharedCount":null,"likeCount":null,"sharedContent":null,"parent":{"__typename":"HnJson","localize":[{"title":"捣毁夹层商，为的是好玩，为的是盈利。","locale":"zh"},{"title":"搗毀夾層商，爲的是好玩，爲的是盈利。","locale":"zh-Hant"}]}},{"__typename":"SocialMediaPost","id":"HnPost-26511106","excerpt":"","slug":"/hn/26511106","title":"The biggest threat to Rust's sustainability","date":"March 19, 2021","dateISO":"2021-03-19T16:45:54.854Z","datetime":"2021-03-19 16:45","tags":["story","Hacker News"],"image":null,"imageAlt":null,"provider":"Hacker News","thirdPartyId":"26511106","url":"https://news.ycombinator.com/item?id=26511106","originalUrl":"https://kerkour.com/blog/the-biggest-threat-to-rust-sustainability/","imageRemote":"https://kerkour.com/imgs/og_image.jpg","video":null,"channel":null,"channelUrl":null,"author":"hutrdvnj","authorUrl":"https://news.ycombinator.com/user?id=hutrdvnj","authorImage":null,"authorSlug":null,"score":171,"views":null,"sharedCount":null,"likeCount":null,"sharedContent":null,"parent":{"__typename":"HnJson","localize":[{"title":"Rust可持续发展的最大威胁","locale":"zh"},{"title":"Rust可持續發展的最大威脅","locale":"zh-Hant"}]}}]}},"pageContext":{"basePath":"/","pageType":"tag","tag":"story","tagsFilter":{"id":{"glob":"!*Post-1"}},"filter":{"id":{"glob":"!*Post-1"},"tags":{"eq":"story"}},"limit":25,"skip":475,"total":3106,"totalPages":125,"currentPage":20,"maxWidth":1024,"maxHeight":512,"locale":"ja","hrefLang":"ja-JA","originalPath":"/tags/story/page/20","dateFormat":"YYYY-MM-DD"}},"staticQueryHashes":["1239077767","2506312863","2744905544","3025052997","3493603132","3493603132","3513215887","386998304"]}