{"componentChunkName":"component---gatsby-theme-buzzing-src-gatsby-theme-timeline-templates-posts-query-js","path":"/zh-Hant/page/19","result":{"data":{"site":{"siteMetadata":{"title":"Reddit 热门","description":"用中文浏览Reddit热门内容","social":[{"name":"Twitter","url":"https://twitter.com/gatsbyjs","external":null,"prefetch":null},{"name":"GitHub","url":"https://github.com/gatsbyjs","external":null,"prefetch":null}],"menuLinks":[],"localize":[{"locale":"en","title":"Buzzing on Reddit","description":"See what's buzzing on Reddit in your native language","social":[{"name":"Reddit","url":"https://www.reddit.com/","external":true,"prefetch":null}],"menuLinks":[{"name":"Weekly Selection","url":"/issues","external":null,"prefetch":null},{"name":"RSS","url":"/rss.xml","external":null,"prefetch":false}]},{"locale":"zh-Hant","title":"Reddit 熱門","description":"用中文瀏覽Reddit熱門內容","social":null,"menuLinks":null}]}},"tagsGroup":{"group":[{"fieldValue":"ASK HN","totalCount":54},{"fieldValue":"Hacker News","totalCount":3107},{"fieldValue":"Poll","totalCount":1},{"fieldValue":"Show HN","totalCount":100},{"fieldValue":"poll","totalCount":1},{"fieldValue":"story","totalCount":3106}]},"allBlogPost":{"nodes":[{"__typename":"SocialMediaPost","id":"HnPost-26530604","excerpt":"","slug":"/hn/26530604","title":"Reverse-Engineering NES Tetris to Add Hard Drop","date":"March 21, 2021","dateISO":"2021-03-21T20:12:14.131Z","datetime":"2021-03-21 20:12","tags":["story","Hacker News"],"image":null,"imageAlt":null,"provider":"Hacker News","thirdPartyId":"26530604","url":"https://news.ycombinator.com/item?id=26530604","originalUrl":"https://www.gridbugs.org/reverse-engineering-nes-tetris-to-add-hard-drop/","imageRemote":"https://gridbugs.org/images/reverse-engineering-nes-tetris-to-add-hard-drop/screenshot1.png","video":null,"channel":null,"channelUrl":null,"author":"stevebox","authorUrl":"https://news.ycombinator.com/user?id=stevebox","authorImage":null,"authorSlug":null,"score":213,"views":null,"sharedCount":null,"likeCount":null,"sharedContent":null,"parent":{"__typename":"HnJson","localize":[{"title":"逆向工程NES俄罗斯方块添加硬降","locale":"zh"},{"title":"逆向工程NES俄羅斯方塊添加硬降","locale":"zh-Hant"}]}},{"__typename":"SocialMediaPost","id":"HnPost-26532588","excerpt":"","slug":"/hn/26532588","title":"As U.S. schools shuttered, student mental health cratered, Reuters survey finds","date":"March 21, 2021","dateISO":"2021-03-21T20:12:14.131Z","datetime":"2021-03-21 20:12","tags":["story","Hacker News"],"image":null,"imageAlt":null,"provider":"Hacker News","thirdPartyId":"26532588","url":"https://news.ycombinator.com/item?id=26532588","originalUrl":"https://www.reuters.com/investigates/special-report/health-coronavirus-students/","imageRemote":"https://www.reuters.com/investigates/special-report/assets/health-coronavirus-students/mastheads/share_RTX9ZCNC.jpg?v=222211190321","video":null,"channel":null,"channelUrl":null,"author":"accountinhn","authorUrl":"https://news.ycombinator.com/user?id=accountinhn","authorImage":null,"authorSlug":null,"score":329,"views":null,"sharedCount":null,"likeCount":null,"sharedContent":null,"parent":{"__typename":"HnJson","localize":[{"title":"路透社调查发现，美国学校停课，学生心理健康崩溃","locale":"zh"},{"title":"路透社調查發現，美國學校停課，學生心理健康崩潰","locale":"zh-Hant"}]}},{"__typename":"SocialMediaPost","id":"HnPost-26531162","excerpt":"","slug":"/hn/26531162","title":"John Cleese Sells the Brooklyn Bridge as an NFT","date":"March 21, 2021","dateISO":"2021-03-21T19:37:41.305Z","datetime":"2021-03-21 19:37","tags":["story","Hacker News"],"image":null,"imageAlt":null,"provider":"Hacker News","thirdPartyId":"26531162","url":"https://news.ycombinator.com/item?id=26531162","originalUrl":"https://twitter.com/JohnCleese/status/1372944852325789704","imageRemote":null,"video":null,"channel":null,"channelUrl":null,"author":"jshprentz","authorUrl":"https://news.ycombinator.com/user?id=jshprentz","authorImage":null,"authorSlug":null,"score":444,"views":null,"sharedCount":null,"likeCount":null,"sharedContent":null,"parent":{"__typename":"HnJson","localize":[{"title":"约翰-克莱斯将布鲁克林大桥卖给NFT。","locale":"zh"},{"title":"約翰-克萊斯將布魯克林大橋賣給NFT。","locale":"zh-Hant"}]}},{"__typename":"SocialMediaPost","id":"HnPost-26531297","excerpt":"","slug":"/hn/26531297","title":"Don't End the Week with Nothing","date":"March 21, 2021","dateISO":"2021-03-21T18:08:40.069Z","datetime":"2021-03-21 18:08","tags":["story","Hacker News"],"image":null,"imageAlt":null,"provider":"Hacker News","thirdPartyId":"26531297","url":"https://news.ycombinator.com/item?id=26531297","originalUrl":"https://training.kalzumeus.com/newsletters/archive/do-not-end-the-week-with-nothing","imageRemote":null,"video":null,"channel":null,"channelUrl":null,"author":"mooreds","authorUrl":"https://news.ycombinator.com/user?id=mooreds","authorImage":null,"authorSlug":null,"score":814,"views":null,"sharedCount":null,"likeCount":null,"sharedContent":null,"parent":{"__typename":"HnJson","localize":[{"title":"不要什么都不做就结束这个星期","locale":"zh"},{"title":"不要什麼都不做就結束這個星期","locale":"zh-Hant"}]}},{"__typename":"SocialMediaPost","id":"HnPost-26531079","excerpt":"","slug":"/hn/26531079","title":"Why every single element of SOLID is wrong","date":"March 21, 2021","dateISO":"2021-03-21T17:26:56.347Z","datetime":"2021-03-21 17:26","tags":["story","Hacker News"],"image":null,"imageAlt":null,"provider":"Hacker News","thirdPartyId":"26531079","url":"https://news.ycombinator.com/item?id=26531079","originalUrl":"https://dannorth.net/2021/03/16/cupid-the-back-story/","imageRemote":"https://dannorthnet.files.wordpress.com/2021/03/solid-is-wrong-dragged.pdf","video":null,"channel":null,"channelUrl":null,"author":"blowski","authorUrl":"https://news.ycombinator.com/user?id=blowski","authorImage":null,"authorSlug":null,"score":318,"views":null,"sharedCount":null,"likeCount":null,"sharedContent":null,"parent":{"__typename":"HnJson","localize":[{"title":"为什么SOLID的每一个元素都是错误的","locale":"zh"},{"title":"爲什麼SOLID的每一個元素都是錯誤的","locale":"zh-Hant"}]}},{"__typename":"SocialMediaPost","id":"HnPost-26530103","excerpt":"","slug":"/hn/26530103","title":"CutiePi – A Raspberry Pi 4 tablet","date":"March 21, 2021","dateISO":"2021-03-21T16:03:45.283Z","datetime":"2021-03-21 16:03","tags":["story","Hacker News"],"image":null,"imageAlt":null,"provider":"Hacker News","thirdPartyId":"26530103","url":"https://news.ycombinator.com/item?id=26530103","originalUrl":"https://cutiepi.io/","imageRemote":"https://cutiepi.io/assets/pictures/cutiepi-og-image.jpg","video":null,"channel":null,"channelUrl":null,"author":"captn3m0","authorUrl":"https://news.ycombinator.com/user?id=captn3m0","authorImage":null,"authorSlug":null,"score":451,"views":null,"sharedCount":null,"likeCount":null,"sharedContent":null,"parent":{"__typename":"HnJson","localize":[{"title":"CutiePi - Raspberry Pi 4平板电脑。","locale":"zh"},{"title":"CutiePi - Raspberry Pi 4平板電腦。","locale":"zh-Hant"}]}},{"__typename":"SocialMediaPost","id":"HnPost-26511713","excerpt":"","slug":"/hn/26511713","title":"Outgrowing Software","date":"March 21, 2021","dateISO":"2021-03-21T15:51:25.321Z","datetime":"2021-03-21 15:51","tags":["story","Hacker News"],"image":null,"imageAlt":null,"provider":"Hacker News","thirdPartyId":"26511713","url":"https://news.ycombinator.com/item?id=26511713","originalUrl":"https://www.ben-evans.com/benedictevans/2021/3/18/outgrowing-software","imageRemote":"http://static1.squarespace.com/static/50363cf324ac8e905e7df861/5055cb1de4b0a751cabaedd5/6053742363493a7187ede375/1616253830336/screen-shot-2019-06-27-at-10-34-38-am-1561646148.png?format=1500w","video":null,"channel":null,"channelUrl":null,"author":"nreece","authorUrl":"https://news.ycombinator.com/user?id=nreece","authorImage":null,"authorSlug":null,"score":203,"views":null,"sharedCount":null,"likeCount":null,"sharedContent":null,"parent":{"__typename":"HnJson","localize":[{"title":"超越软件","locale":"zh"},{"title":"超越軟件","locale":"zh-Hant"}]}},{"__typename":"SocialMediaPost","id":"HnPost-26528835","excerpt":"","slug":"/hn/26528835","title":"Godot Engine Web Editor","date":"March 21, 2021","dateISO":"2021-03-21T15:16:31.776Z","datetime":"2021-03-21 15:16","tags":["story","Hacker News"],"image":null,"imageAlt":null,"provider":"Hacker News","thirdPartyId":"26528835","url":"https://news.ycombinator.com/item?id=26528835","originalUrl":"https://editor.godotengine.org/releases/latest/","imageRemote":"https://editor.godotengine.org/releases/latest/logo.svg","video":null,"channel":null,"channelUrl":null,"author":"todsacerdoti","authorUrl":"https://news.ycombinator.com/user?id=todsacerdoti","authorImage":null,"authorSlug":null,"score":273,"views":null,"sharedCount":null,"likeCount":null,"sharedContent":null,"parent":{"__typename":"HnJson","localize":[{"title":"Godot引擎网站编辑器","locale":"zh"},{"title":"Godot引擎網站編輯器","locale":"zh-Hant"}]}},{"__typename":"SocialMediaPost","id":"HnPost-26530024","excerpt":"","slug":"/hn/26530024","title":"NFTs Are a Pyramid Scheme and People Are Already Losing Money","date":"March 21, 2021","dateISO":"2021-03-21T15:16:31.776Z","datetime":"2021-03-21 15:16","tags":["story","Hacker News"],"image":null,"imageAlt":null,"provider":"Hacker News","thirdPartyId":"26530024","url":"https://news.ycombinator.com/item?id=26530024","originalUrl":"https://fstoppers.com/opinion/nfts-are-pyramid-scheme-and-people-are-already-losing-money-554869","imageRemote":"https://cdn.fstoppers.com/styles/large-16-9/s3/lead/2021/03/f523598edfae7b554d7490b78d245ef8.jpg","video":null,"channel":null,"channelUrl":null,"author":"CynicusRex","authorUrl":"https://news.ycombinator.com/user?id=CynicusRex","authorImage":null,"authorSlug":null,"score":187,"views":null,"sharedCount":null,"likeCount":null,"sharedContent":null,"parent":{"__typename":"HnJson","localize":[{"title":"非自由贸易区是一个金字塔计划，人们已经损失了钱。","locale":"zh"},{"title":"非自由貿易區是一個金字塔計劃，人們已經損失了錢。","locale":"zh-Hant"}]}},{"__typename":"SocialMediaPost","id":"HnPost-26528011","excerpt":"","slug":"/hn/26528011","title":"Ask HN: What was the biggest contributor to your happiness in the past year?","date":"March 21, 2021","dateISO":"2021-03-21T13:48:53.054Z","datetime":"2021-03-21 13:48","tags":["story","ASK HN","Hacker News"],"image":null,"imageAlt":null,"provider":"Hacker News","thirdPartyId":"26528011","url":"https://news.ycombinator.com/item?id=26528011","originalUrl":"https://news.ycombinator.com/item?id=26528011","imageRemote":null,"video":null,"channel":"ASK HN","channelUrl":"https://news.ycombinator.com/ask","author":"break_the_bank","authorUrl":"https://news.ycombinator.com/user?id=break_the_bank","authorImage":null,"authorSlug":null,"score":345,"views":null,"sharedCount":null,"likeCount":null,"sharedContent":null,"parent":{"__typename":"HnJson","localize":[{"title":"问HN：在过去的一年里，对你的幸福感贡献最大的是什么？","locale":"zh"},{"title":"問HN：在過去的一年裏，對你的幸福感貢獻最大的是什麼？","locale":"zh-Hant"}]}},{"__typename":"SocialMediaPost","id":"HnPost-26528404","excerpt":"","slug":"/hn/26528404","title":"Flatpak – a security nightmare – 2 years later (2020)","date":"March 21, 2021","dateISO":"2021-03-21T11:24:46.035Z","datetime":"2021-03-21 11:24","tags":["story","Hacker News"],"image":null,"imageAlt":null,"provider":"Hacker News","thirdPartyId":"26528404","url":"https://news.ycombinator.com/item?id=26528404","originalUrl":"http://flatkill.org/2020/","imageRemote":"http://flatkill.org/2020/sandboxlie.png","video":null,"channel":null,"channelUrl":null,"author":"URfejk","authorUrl":"https://news.ycombinator.com/user?id=URfejk","authorImage":null,"authorSlug":null,"score":314,"views":null,"sharedCount":null,"likeCount":null,"sharedContent":null,"parent":{"__typename":"HnJson","localize":[{"title":"Flatpak----安全噩梦----两年后(2020年)","locale":"zh"},{"title":"Flatpak----安全噩夢----兩年後(2020年)","locale":"zh-Hant"}]}},{"__typename":"SocialMediaPost","id":"HnPost-26521186","excerpt":"","slug":"/hn/26521186","title":"Emacs is the 2D Command-line Interface","date":"March 21, 2021","dateISO":"2021-03-21T10:54:32.992Z","datetime":"2021-03-21 10:54","tags":["story","Hacker News"],"image":null,"imageAlt":null,"provider":"Hacker News","thirdPartyId":"26521186","url":"https://news.ycombinator.com/item?id=26521186","originalUrl":"https://hongchao.me/cli-and-emacs/","imageRemote":"https://hongchao.me/images/compose-cli.png","video":null,"channel":null,"channelUrl":null,"author":"karlicoss","authorUrl":"https://news.ycombinator.com/user?id=karlicoss","authorImage":null,"authorSlug":null,"score":222,"views":null,"sharedCount":null,"likeCount":null,"sharedContent":null,"parent":{"__typename":"HnJson","localize":[{"title":"Emacs是2D命令行界面","locale":"zh"},{"title":"Emacs是2D命令行界面","locale":"zh-Hant"}]}},{"__typename":"SocialMediaPost","id":"HnPost-26523816","excerpt":"","slug":"/hn/26523816","title":"Ask HN: How to build empathy?","date":"March 21, 2021","dateISO":"2021-03-21T07:24:07.384Z","datetime":"2021-03-21 07:24","tags":["story","ASK HN","Hacker News"],"image":null,"imageAlt":null,"provider":"Hacker News","thirdPartyId":"26523816","url":"https://news.ycombinator.com/item?id=26523816","originalUrl":"https://news.ycombinator.com/item?id=26523816","imageRemote":null,"video":null,"channel":"ASK HN","channelUrl":"https://news.ycombinator.com/ask","author":"break_the_bank","authorUrl":"https://news.ycombinator.com/user?id=break_the_bank","authorImage":null,"authorSlug":null,"score":210,"views":null,"sharedCount":null,"likeCount":null,"sharedContent":null,"parent":{"__typename":"HnJson","localize":[{"title":"问HN：如何建立同理心？","locale":"zh"},{"title":"問HN：如何建立同理心？","locale":"zh-Hant"}]}},{"__typename":"SocialMediaPost","id":"HnPost-26524876","excerpt":"","slug":"/hn/26524876","title":"How to Study Mathematics (2017)","date":"March 21, 2021","dateISO":"2021-03-21T05:29:20.536Z","datetime":"2021-03-21 05:29","tags":["story","Hacker News"],"image":null,"imageAlt":null,"provider":"Hacker News","thirdPartyId":"26524876","url":"https://news.ycombinator.com/item?id=26524876","originalUrl":"https://www.math.uh.edu/~dblecher/pf2.html","imageRemote":null,"video":null,"channel":null,"channelUrl":null,"author":"qnsi","authorUrl":"https://news.ycombinator.com/user?id=qnsi","authorImage":null,"authorSlug":null,"score":248,"views":null,"sharedCount":null,"likeCount":null,"sharedContent":null,"parent":{"__typename":"HnJson","localize":[{"title":"如何学习数学(2017)","locale":"zh"},{"title":"如何學習數學(2017)","locale":"zh-Hant"}]}},{"__typename":"SocialMediaPost","id":"HnPost-26507454","excerpt":"","slug":"/hn/26507454","title":"Mac SE/30 logicboard recreation","date":"March 21, 2021","dateISO":"2021-03-21T02:00:43.924Z","datetime":"2021-03-21 02:00","tags":["story","Hacker News"],"image":null,"imageAlt":null,"provider":"Hacker News","thirdPartyId":"26507454","url":"https://news.ycombinator.com/item?id=26507454","originalUrl":"https://68kmla.org/forums/topic/62451-se30-logicboard-recreation/","imageRemote":"https://68kmla.org/forums/uploads/profile/photo-46.jpg","video":null,"channel":null,"channelUrl":null,"author":"zdw","authorUrl":"https://news.ycombinator.com/user?id=zdw","authorImage":null,"authorSlug":null,"score":207,"views":null,"sharedCount":null,"likeCount":null,"sharedContent":null,"parent":{"__typename":"HnJson","localize":[{"title":"Mac SE/30逻辑板再现","locale":"zh"},{"title":"Mac SE/30邏輯板再現","locale":"zh-Hant"}]}},{"__typename":"SocialMediaPost","id":"HnPost-26509612","excerpt":"","slug":"/hn/26509612","title":"Nyxt Browser","date":"March 21, 2021","dateISO":"2021-03-21T02:00:43.924Z","datetime":"2021-03-21 02:00","tags":["story","Hacker News"],"image":null,"imageAlt":null,"provider":"Hacker News","thirdPartyId":"26509612","url":"https://news.ycombinator.com/item?id=26509612","originalUrl":"https://nyxt.atlas.engineer/","imageRemote":"https://nyxt.atlas.engineer/image/nyxt_128x128.png","video":null,"channel":null,"channelUrl":null,"author":"wglb","authorUrl":"https://news.ycombinator.com/user?id=wglb","authorImage":null,"authorSlug":null,"score":533,"views":null,"sharedCount":null,"likeCount":null,"sharedContent":null,"parent":{"__typename":"HnJson","localize":[{"title":"尼克斯浏览器","locale":"zh"},{"title":"尼克斯瀏覽器","locale":"zh-Hant"}]}},{"__typename":"SocialMediaPost","id":"HnPost-26525694","excerpt":"","slug":"/hn/26525694","title":"My self-study plan for electrical engineering","date":"March 21, 2021","dateISO":"2021-03-21T02:00:43.923Z","datetime":"2021-03-21 02:00","tags":["story","Hacker News"],"image":null,"imageAlt":null,"provider":"Hacker News","thirdPartyId":"26525694","url":"https://news.ycombinator.com/item?id=26525694","originalUrl":"https://i-kh.net/2021/03/20/electrical-engineering-study-plan/","imageRemote":null,"video":null,"channel":null,"channelUrl":null,"author":"bucket2015","authorUrl":"https://news.ycombinator.com/user?id=bucket2015","authorImage":null,"authorSlug":null,"score":366,"views":null,"sharedCount":null,"likeCount":null,"sharedContent":null,"parent":{"__typename":"HnJson","localize":[{"title":"我的电气工程自学计划","locale":"zh"},{"title":"我的電氣工程自學計劃","locale":"zh-Hant"}]}},{"__typename":"SocialMediaPost","id":"HnPost-26524776","excerpt":"","slug":"/hn/26524776","title":"Speeding up SQL queries by orders of magnitude using UNION","date":"March 20, 2021","dateISO":"2021-03-20T23:57:43.721Z","datetime":"2021-03-20 23:57","tags":["story","Hacker News"],"image":null,"imageAlt":null,"provider":"Hacker News","thirdPartyId":"26524776","url":"https://news.ycombinator.com/item?id=26524776","originalUrl":"https://www.foxhound.systems/blog/sql-performance-with-union/","imageRemote":"https://www.foxhound.systems/img/2021-03-19-sql-performance-with-union/sql-union-banner.jpg","video":null,"channel":null,"channelUrl":null,"author":"tate","authorUrl":"https://news.ycombinator.com/user?id=tate","authorImage":null,"authorSlug":null,"score":397,"views":null,"sharedCount":null,"likeCount":null,"sharedContent":null,"parent":{"__typename":"HnJson","localize":[{"title":"使用UNION以数量级加快SQL查询的速度。","locale":"zh"},{"title":"使用UNION以數量級加快SQL查詢的速度。","locale":"zh-Hant"}]}},{"__typename":"SocialMediaPost","id":"HnPost-26519867","excerpt":"","slug":"/hn/26519867","title":"CFTC Orders Coinbase Inc. To Pay $6.5M Penalty","date":"March 20, 2021","dateISO":"2021-03-20T23:49:15.523Z","datetime":"2021-03-20 23:49","tags":["story","Hacker News"],"image":null,"imageAlt":null,"provider":"Hacker News","thirdPartyId":"26519867","url":"https://news.ycombinator.com/item?id=26519867","originalUrl":"https://www.cftc.gov/PressRoom/PressReleases/8369-21","imageRemote":"https://www.cftc.gov/sites/default/files/CFTC-OB-Photo-200113-Press-6.jpg","video":null,"channel":null,"channelUrl":null,"author":"TylerE","authorUrl":"https://news.ycombinator.com/user?id=TylerE","authorImage":null,"authorSlug":null,"score":170,"views":null,"sharedCount":null,"likeCount":null,"sharedContent":null,"parent":{"__typename":"HnJson","localize":[{"title":"CFTC命令Coinbase Inc. 支付650万美元的罚款","locale":"zh"},{"title":"CFTC命令Coinbase Inc. 支付650萬美元的罰款","locale":"zh-Hant"}]}},{"__typename":"SocialMediaPost","id":"HnPost-26521936","excerpt":"","slug":"/hn/26521936","title":"Police warn students to avoid Sci-Hub","date":"March 20, 2021","dateISO":"2021-03-20T22:55:25.032Z","datetime":"2021-03-20 22:55","tags":["story","Hacker News"],"image":null,"imageAlt":null,"provider":"Hacker News","thirdPartyId":"26521936","url":"https://news.ycombinator.com/item?id=26521936","originalUrl":"https://www.bbc.com/news/education-56462390","imageRemote":"https://ichef.bbci.co.uk/news/1024/branded_news/8A64/production/_106282453_cyberattacks.jpg","video":null,"channel":null,"channelUrl":null,"author":"Black101","authorUrl":"https://news.ycombinator.com/user?id=Black101","authorImage":null,"authorSlug":null,"score":163,"views":null,"sharedCount":null,"likeCount":null,"sharedContent":null,"parent":{"__typename":"HnJson","localize":[{"title":"警方警告学生避开科学馆","locale":"zh"},{"title":"警方警告學生避開科學館","locale":"zh-Hant"}]}},{"__typename":"SocialMediaPost","id":"HnPost-26521598","excerpt":"","slug":"/hn/26521598","title":"In Praise of the Unambiguous Click Menu","date":"March 20, 2021","dateISO":"2021-03-20T21:36:49.574Z","datetime":"2021-03-20 21:36","tags":["story","Hacker News"],"image":null,"imageAlt":null,"provider":"Hacker News","thirdPartyId":"26521598","url":"https://news.ycombinator.com/item?id=26521598","originalUrl":"https://css-tricks.com/in-praise-of-the-unambiguous-click-menu/","imageRemote":"https://css-tricks.com/wp-content/uploads/2021/03/click-menu-768x384.gif","video":null,"channel":null,"channelUrl":null,"author":"sandebert","authorUrl":"https://news.ycombinator.com/user?id=sandebert","authorImage":null,"authorSlug":null,"score":202,"views":null,"sharedCount":null,"likeCount":null,"sharedContent":null,"parent":{"__typename":"HnJson","localize":[{"title":"赞美毫不含糊的点击菜单。","locale":"zh"},{"title":"讚美毫不含糊的點擊菜單。","locale":"zh-Hant"}]}},{"__typename":"SocialMediaPost","id":"HnPost-26520021","excerpt":"","slug":"/hn/26520021","title":"Amazon S3 Object Lambda","date":"March 20, 2021","dateISO":"2021-03-20T20:46:24.931Z","datetime":"2021-03-20 20:46","tags":["story","Hacker News"],"image":null,"imageAlt":null,"provider":"Hacker News","thirdPartyId":"26520021","url":"https://news.ycombinator.com/item?id=26520021","originalUrl":"https://aws.amazon.com/blogs/aws/introducing-amazon-s3-object-lambda-use-your-code-to-process-data-as-it-is-being-retrieved-from-s3/","imageRemote":"https://d2908q01vomqb2.cloudfront.net/da4b9237bacccdf19c0760cab7aec4a8359010b0/2021/03/18/Site-Merch_S3-Object-Lambda_Final_SocialMedia_1.png","video":null,"channel":null,"channelUrl":null,"author":"tosh","authorUrl":"https://news.ycombinator.com/user?id=tosh","authorImage":null,"authorSlug":null,"score":170,"views":null,"sharedCount":null,"likeCount":null,"sharedContent":null,"parent":{"__typename":"HnJson","localize":[{"title":"亚马逊S3对象Lambda","locale":"zh"},{"title":"亞馬遜S3對象Lambda","locale":"zh-Hant"}]}},{"__typename":"SocialMediaPost","id":"HnPost-26523223","excerpt":"","slug":"/hn/26523223","title":"Learning Machine Learning for Game Development","date":"March 20, 2021","dateISO":"2021-03-20T20:30:42.085Z","datetime":"2021-03-20 20:30","tags":["story","Hacker News"],"image":null,"imageAlt":null,"provider":"Hacker News","thirdPartyId":"26523223","url":"https://news.ycombinator.com/item?id=26523223","originalUrl":"http://ai.googleblog.com/2021/03/leveraging-machine-learning-for-game.html","imageRemote":"http://2.bp.blogspot.com/-qRz-hnwUdY4/WulXSQ6Rv4I/AAAAAAAATvQ/shk7KsphA0c3E3nUMsDVASqYaH0PhLPNwCK4BGAYYCw/s1600/GoogleAI_logo_horizontal_color_rgb.png","video":null,"channel":null,"channelUrl":null,"author":"atg_abhishek","authorUrl":"https://news.ycombinator.com/user?id=atg_abhishek","authorImage":null,"authorSlug":null,"score":269,"views":null,"sharedCount":null,"likeCount":null,"sharedContent":null,"parent":{"__typename":"HnJson","localize":[{"title":"学习机器学习的游戏开发","locale":"zh"},{"title":"學習機器學習的遊戲開發","locale":"zh-Hant"}]}},{"__typename":"SocialMediaPost","id":"HnPost-26521446","excerpt":"","slug":"/hn/26521446","title":"Georgian African American newspapers from 1886-1926 now available freely online","date":"March 20, 2021","dateISO":"2021-03-20T20:07:09.801Z","datetime":"2021-03-20 20:07","tags":["story","Hacker News"],"image":null,"imageAlt":null,"provider":"Hacker News","thirdPartyId":"26521446","url":"https://news.ycombinator.com/item?id=26521446","originalUrl":"https://blog.dlg.galileo.usg.edu/?p=7751%0A","imageRemote":"https://lh5.googleusercontent.com/79T51p_uIxzIZyfR3n0mdlOyGZoLO3VahYE8fPHOkIrE_M1oZnYEMx3DqKW_dVUC2G2t-ldARP8dejHI5Vub7bteiwwdVWrLzWWTbc3hUKs0nLL66K5JJO9kz7gnu085QFi7vzuG","video":null,"channel":null,"channelUrl":null,"author":"DoreenMichele","authorUrl":"https://news.ycombinator.com/user?id=DoreenMichele","authorImage":null,"authorSlug":null,"score":182,"views":null,"sharedCount":null,"likeCount":null,"sharedContent":null,"parent":{"__typename":"HnJson","localize":[{"title":"1886-1926年的乔治亚州非裔美国人报纸现已免费上网。","locale":"zh"},{"title":"1886-1926年的喬治亞州非裔美國人報紙現已免費上網。","locale":"zh-Hant"}]}},{"__typename":"SocialMediaPost","id":"HnPost-26521761","excerpt":"","slug":"/hn/26521761","title":"The Invention of a New Pasta Shape","date":"March 20, 2021","dateISO":"2021-03-20T18:03:17.899Z","datetime":"2021-03-20 18:03","tags":["story","Hacker News"],"image":null,"imageAlt":null,"provider":"Hacker News","thirdPartyId":"26521761","url":"https://news.ycombinator.com/item?id=26521761","originalUrl":"https://kottke.org/21/03/the-invention-of-a-new-pasta-shape","imageRemote":"https://kottke.org/plus/misc/images/cascatelli-pasta-01.jpg","video":null,"channel":null,"channelUrl":null,"author":"dgellow","authorUrl":"https://news.ycombinator.com/user?id=dgellow","authorImage":null,"authorSlug":null,"score":443,"views":null,"sharedCount":null,"likeCount":null,"sharedContent":null,"parent":{"__typename":"HnJson","localize":[{"title":"发明新的面食形状。","locale":"zh"},{"title":"發明新的麪食形狀。","locale":"zh-Hant"}]}}]}},"pageContext":{"basePath":"/","pageType":"home","tagsFilter":{"id":{"glob":"!*Post-1"}},"filter":{"id":{"glob":"!*Post-1"}},"limit":25,"skip":450,"totalPages":125,"total":3107,"currentPage":19,"maxWidth":1024,"maxHeight":512,"locale":"zh-Hant","hrefLang":"zh-Hant","originalPath":"/page/19","dateFormat":"YYYY-MM-DD"}},"staticQueryHashes":["1239077767","2506312863","2744905544","3025052997","3493603132","3493603132","3513215887","386998304"]}