{"componentChunkName":"component---gatsby-theme-buzzing-src-gatsby-theme-timeline-templates-posts-query-js","path":"/ja/page/6","result":{"data":{"site":{"siteMetadata":{"title":"Reddit 热门","description":"用中文浏览Reddit热门内容","social":[{"name":"Twitter","url":"https://twitter.com/gatsbyjs","external":null,"prefetch":null},{"name":"GitHub","url":"https://github.com/gatsbyjs","external":null,"prefetch":null}],"menuLinks":[],"localize":[{"locale":"en","title":"Buzzing on Reddit","description":"See what's buzzing on Reddit in your native language","social":[{"name":"Reddit","url":"https://www.reddit.com/","external":true,"prefetch":null}],"menuLinks":[{"name":"Weekly Selection","url":"/issues","external":null,"prefetch":null},{"name":"RSS","url":"/rss.xml","external":null,"prefetch":false}]},{"locale":"zh-Hant","title":"Reddit 熱門","description":"用中文瀏覽Reddit熱門內容","social":null,"menuLinks":null}]}},"tagsGroup":{"group":[{"fieldValue":"ASK HN","totalCount":54},{"fieldValue":"Hacker News","totalCount":3107},{"fieldValue":"Poll","totalCount":1},{"fieldValue":"Show HN","totalCount":100},{"fieldValue":"poll","totalCount":1},{"fieldValue":"story","totalCount":3106}]},"allBlogPost":{"nodes":[{"__typename":"SocialMediaPost","id":"HnPost-26644838","excerpt":"","slug":"/hn/26644838","title":"Signed Char Lotte","date":"April 01, 2021","dateISO":"2021-04-01T20:29:43.014Z","datetime":"2021-04-01 20:29","tags":["story","Hacker News"],"image":null,"imageAlt":null,"provider":"Hacker News","thirdPartyId":"26644838","url":"https://news.ycombinator.com/item?id=26644838","originalUrl":"https://nickdrozd.github.io/2021/03/30/signed-char-lotte.html","imageRemote":null,"video":null,"channel":null,"channelUrl":null,"author":"signa11","authorUrl":"https://news.ycombinator.com/user?id=signa11","authorImage":null,"authorSlug":null,"score":614,"views":null,"sharedCount":null,"likeCount":null,"sharedContent":null,"parent":{"__typename":"HnJson","localize":[{"title":"夏洛特签名","locale":"zh"},{"title":"夏洛特簽名","locale":"zh-Hant"}]}},{"__typename":"SocialMediaPost","id":"HnPost-26658317","excerpt":"","slug":"/hn/26658317","title":"Cheers to 10 Years","date":"April 01, 2021","dateISO":"2021-04-01T20:29:43.014Z","datetime":"2021-04-01 20:29","tags":["story","Hacker News"],"image":null,"imageAlt":null,"provider":"Hacker News","thirdPartyId":"26658317","url":"https://news.ycombinator.com/item?id=26658317","originalUrl":"https://blog.elementary.io/ten-years/","imageRemote":"https://www.gravatar.com/avatar/1f3cc76b99b5d0dae8381a23f52ea96d?s=48&d=blank","video":null,"channel":null,"channelUrl":null,"author":"mariuz","authorUrl":"https://news.ycombinator.com/user?id=mariuz","authorImage":null,"authorSlug":null,"score":146,"views":null,"sharedCount":null,"likeCount":null,"sharedContent":null,"parent":{"__typename":"HnJson","localize":[{"title":"为10年干杯","locale":"zh"},{"title":"爲10年乾杯","locale":"zh-Hant"},{"title":"10年後に乾杯","locale":"ja-JA"},{"title":"10年後に乾杯","locale":"ja"}]}},{"__typename":"SocialMediaPost","id":"HnPost-26644616","excerpt":"","slug":"/hn/26644616","title":"Ask HN: Where do you find potential customers to validate your idea / MVP?","date":"April 01, 2021","dateISO":"2021-04-01T19:34:26.373Z","datetime":"2021-04-01 19:34","tags":["story","ASK HN","Hacker News"],"image":null,"imageAlt":null,"provider":"Hacker News","thirdPartyId":"26644616","url":"https://news.ycombinator.com/item?id=26644616","originalUrl":"https://news.ycombinator.com/item?id=26644616","imageRemote":null,"video":null,"channel":"ASK HN","channelUrl":"https://news.ycombinator.com/ask","author":"showsover","authorUrl":"https://news.ycombinator.com/user?id=showsover","authorImage":null,"authorSlug":null,"score":256,"views":null,"sharedCount":null,"likeCount":null,"sharedContent":null,"parent":{"__typename":"HnJson","localize":[{"title":"问HN：你在哪里找到潜在客户来验证你的想法/MVP？","locale":"zh"},{"title":"問HN：你在哪裏找到潛在客戶來驗證你的想法/MVP？","locale":"zh-Hant"}]}},{"__typename":"SocialMediaPost","id":"HnPost-26662297","excerpt":"","slug":"/hn/26662297","title":"A categorized list of all Java and JVM features since JDK 8 to 16","date":"April 01, 2021","dateISO":"2021-04-01T18:45:34.971Z","datetime":"2021-04-01 18:45","tags":["story","Hacker News"],"image":null,"imageAlt":null,"provider":"Hacker News","thirdPartyId":"26662297","url":"https://news.ycombinator.com/item?id=26662297","originalUrl":"https://advancedweb.hu/a-categorized-list-of-all-java-and-jvm-features-since-jdk-8-to-16/","imageRemote":"https://advancedweb.hu/permaimages/og/post_java_8.jpg","video":null,"channel":null,"channelUrl":null,"author":"pjmlp","authorUrl":"https://news.ycombinator.com/user?id=pjmlp","authorImage":null,"authorSlug":null,"score":303,"views":null,"sharedCount":null,"likeCount":null,"sharedContent":null,"parent":{"__typename":"HnJson","localize":[{"title":"从JDK 8到16的所有Java和JVM特性的分类列表。","locale":"zh"},{"title":"從JDK 8到16的所有Java和JVM特性的分類列表。","locale":"zh-Hant"},{"title":"JDK 8から16までのすべてのJavaおよびJVMの機能を分類したリスト","locale":"ja-JA"},{"title":"JDK 8から16までのすべてのJavaおよびJVMの機能を分類したリスト","locale":"ja"}]}},{"__typename":"SocialMediaPost","id":"HnPost-26658111","excerpt":"","slug":"/hn/26658111","title":"Category Theory: Orders","date":"April 01, 2021","dateISO":"2021-04-01T18:02:20.415Z","datetime":"2021-04-01 18:02","tags":["story","Hacker News"],"image":null,"imageAlt":null,"provider":"Hacker News","thirdPartyId":"26658111","url":"https://news.ycombinator.com/item?id=26658111","originalUrl":"https://boris-marinov.github.io/category-theory-illustrated/04_order/","imageRemote":"https://boris-marinov.github.io/category-theory-illustrated/logo.svg","video":null,"channel":null,"channelUrl":null,"author":"todsacerdoti","authorUrl":"https://news.ycombinator.com/user?id=todsacerdoti","authorImage":null,"authorSlug":null,"score":199,"views":null,"sharedCount":null,"likeCount":null,"sharedContent":null,"parent":{"__typename":"HnJson","localize":[{"title":"类别理论。订单","locale":"zh"},{"title":"類別理論。訂單","locale":"zh-Hant"},{"title":"カテゴリー・セオリー オーダー","locale":"ja-JA"},{"title":"カテゴリー・セオリー オーダー","locale":"ja"}]}},{"__typename":"SocialMediaPost","id":"HnPost-26661443","excerpt":"","slug":"/hn/26661443","title":"Ask HN: Who is hiring? (April 2021)","date":"April 01, 2021","dateISO":"2021-04-01T18:02:20.415Z","datetime":"2021-04-01 18:02","tags":["story","ASK HN","Hacker News"],"image":null,"imageAlt":null,"provider":"Hacker News","thirdPartyId":"26661443","url":"https://news.ycombinator.com/item?id=26661443","originalUrl":"https://news.ycombinator.com/item?id=26661443","imageRemote":null,"video":null,"channel":"ASK HN","channelUrl":"https://news.ycombinator.com/ask","author":"whoishiring","authorUrl":"https://news.ycombinator.com/user?id=whoishiring","authorImage":null,"authorSlug":null,"score":367,"views":null,"sharedCount":null,"likeCount":null,"sharedContent":null,"parent":{"__typename":"HnJson","localize":[{"title":"问HN：谁在招聘？(2021年4月)","locale":"zh"},{"title":"問HN：誰在招聘？(2021年4月)","locale":"zh-Hant"},{"title":"Ask HN: 誰が採用しているのか？(2021年4月)","locale":"ja-JA"},{"title":"Ask HN: 誰が採用しているのか？(2021年4月)","locale":"ja"}]}},{"__typename":"SocialMediaPost","id":"HnPost-26657803","excerpt":"","slug":"/hn/26657803","title":"Ask HN: Best low-/no-code solution for simple web-based database frontends","date":"April 01, 2021","dateISO":"2021-04-01T17:09:06.559Z","datetime":"2021-04-01 17:09","tags":["story","ASK HN","Hacker News"],"image":null,"imageAlt":null,"provider":"Hacker News","thirdPartyId":"26657803","url":"https://news.ycombinator.com/item?id=26657803","originalUrl":"https://news.ycombinator.com/item?id=26657803","imageRemote":null,"video":null,"channel":"ASK HN","channelUrl":"https://news.ycombinator.com/ask","author":"codechoir","authorUrl":"https://news.ycombinator.com/user?id=codechoir","authorImage":null,"authorSlug":null,"score":175,"views":null,"sharedCount":null,"likeCount":null,"sharedContent":null,"parent":{"__typename":"HnJson","localize":[{"title":"问HN：简单的基于Web的数据库前端的最佳低代码/无代码解决方案。","locale":"zh"},{"title":"問HN：簡單的基於Web的數據庫前端的最佳低代碼/無代碼解決方案。","locale":"zh-Hant"},{"title":"Ask HN: シンプルなWebベースのデータベースフロントエンドのための、低コスト/ノーコードのベストソリューションです。","locale":"ja-JA"},{"title":"Ask HN: シンプルなWebベースのデータベースフロントエンドのための、低コスト/ノーコードのベストソリューションです。","locale":"ja"}]}},{"__typename":"SocialMediaPost","id":"HnPost-26657828","excerpt":"","slug":"/hn/26657828","title":"Arabian Nights","date":"April 01, 2021","dateISO":"2021-04-01T17:09:06.559Z","datetime":"2021-04-01 17:09","tags":["story","Hacker News"],"image":null,"imageAlt":null,"provider":"Hacker News","thirdPartyId":"26657828","url":"https://news.ycombinator.com/item?id=26657828","originalUrl":"https://blog.pgdp.net/2021/04/01/arabian-nights/","imageRemote":"https://dproofreaders.files.wordpress.com/2021/03/nights.jpg","video":null,"channel":null,"channelUrl":null,"author":"sohkamyung","authorUrl":"https://news.ycombinator.com/user?id=sohkamyung","authorImage":null,"authorSlug":null,"score":185,"views":null,"sharedCount":null,"likeCount":null,"sharedContent":null,"parent":{"__typename":"HnJson","localize":[{"title":"阿拉伯之夜","locale":"zh"},{"title":"阿拉伯之夜","locale":"zh-Hant"},{"title":"アラビアン・ナイト","locale":"ja-JA"},{"title":"アラビアン・ナイト","locale":"ja"}]}},{"__typename":"SocialMediaPost","id":"HnPost-26660504","excerpt":"","slug":"/hn/26660504","title":"Pfizer 91% effective in updated data, protective against South African variant","date":"April 01, 2021","dateISO":"2021-04-01T17:09:06.559Z","datetime":"2021-04-01 17:09","tags":["story","Hacker News"],"image":null,"imageAlt":null,"provider":"Hacker News","thirdPartyId":"26660504","url":"https://news.ycombinator.com/item?id=26660504","originalUrl":"https://www.reuters.com/article/idUSKBN2BO55Y","imageRemote":"https://static.reuters.com/resources/r/?m=02&d=20210401&t=2&i=1557016979&r=LYNXMPEH302PX&w=800","video":null,"channel":null,"channelUrl":null,"author":"reddotX","authorUrl":"https://news.ycombinator.com/user?id=reddotX","authorImage":null,"authorSlug":null,"score":396,"views":null,"sharedCount":null,"likeCount":null,"sharedContent":null,"parent":{"__typename":"HnJson","localize":[{"title":"辉瑞最新数据91%有效，对南非变种有保护作用。","locale":"zh"},{"title":"輝瑞最新數據91%有效，對南非變種有保護作用。","locale":"zh-Hant"},{"title":"ファイザー社、最新データで91％の有効性、南アフリカのバリアントに対する防御効果を確認","locale":"ja-JA"},{"title":"ファイザー社、最新データで91％の有効性、南アフリカのバリアントに対する防御効果を確認","locale":"ja"}]}},{"__typename":"SocialMediaPost","id":"HnPost-26657436","excerpt":"","slug":"/hn/26657436","title":"TSMC cancels chip price cuts and promises $100B investment surge","date":"April 01, 2021","dateISO":"2021-04-01T14:26:33.974Z","datetime":"2021-04-01 14:26","tags":["story","Hacker News"],"image":null,"imageAlt":null,"provider":"Hacker News","thirdPartyId":"26657436","url":"https://news.ycombinator.com/item?id=26657436","originalUrl":"https://asia.nikkei.com/Business/Tech/Semiconductors/TSMC-cancels-chip-price-cuts-and-promises-100bn-investment-surge","imageRemote":"https://www.ft.com/__origami/service/image/v2/images/raw/https%3A%2F%2Fs3-ap-northeast-1.amazonaws.com%2Fpsh-ex-ftnikkei-3937bb4%2Fimages%2F4%2F9%2F3%2F1%2F33361394-1-eng-GB%2FFab3inc002_198%20%E3%81%AE%E3%82%B3%E3%83%92%E3%82%9A%E3%83%BC.jpg?width=1024&height=512&fit=cover&gravity=faces&source=nar-cms","video":null,"channel":null,"channelUrl":null,"author":"baybal2","authorUrl":"https://news.ycombinator.com/user?id=baybal2","authorImage":null,"authorSlug":null,"score":286,"views":null,"sharedCount":null,"likeCount":null,"sharedContent":null,"parent":{"__typename":"HnJson","localize":[{"title":"台积电取消芯片降价，承诺千亿投资大增。","locale":"zh"},{"title":"臺積電取消芯片降價，承諾千億投資大增。","locale":"zh-Hant"},{"title":"TSMCはチップの値下げを取りやめ、1,000億ドルの投資急増を約束","locale":"ja-JA"},{"title":"TSMCはチップの値下げを取りやめ、1,000億ドルの投資急増を約束","locale":"ja"}]}},{"__typename":"SocialMediaPost","id":"HnPost-26657805","excerpt":"","slug":"/hn/26657805","title":"LineageOS 18.1","date":"April 01, 2021","dateISO":"2021-04-01T14:26:33.974Z","datetime":"2021-04-01 14:26","tags":["story","Hacker News"],"image":null,"imageAlt":null,"provider":"Hacker News","thirdPartyId":"26657805","url":"https://news.ycombinator.com/item?id=26657805","originalUrl":"https://lineageos.org/Changelog-25/","imageRemote":"https://lineageos.org/images/2021-04-01/hero.png","video":null,"channel":null,"channelUrl":null,"author":"danielg0","authorUrl":"https://news.ycombinator.com/user?id=danielg0","authorImage":null,"authorSlug":null,"score":298,"views":null,"sharedCount":null,"likeCount":null,"sharedContent":null,"parent":{"__typename":"HnJson","localize":[{"title":"LineageOS 18.1","locale":"zh"},{"title":"LineageOS 18.1","locale":"zh-Hant"},{"title":"LineageOS 18.1","locale":"ja-JA"},{"title":"LineageOS 18.1","locale":"ja"}]}},{"__typename":"SocialMediaPost","id":"HnPost-26657332","excerpt":"","slug":"/hn/26657332","title":"Great Bitter Lake Association, the Sort-of-Micronation Formed in the Suez Canal","date":"April 01, 2021","dateISO":"2021-04-01T13:51:27.485Z","datetime":"2021-04-01 13:51","tags":["story","Hacker News"],"image":null,"imageAlt":null,"provider":"Hacker News","thirdPartyId":"26657332","url":"https://news.ycombinator.com/item?id=26657332","originalUrl":"https://99percentinvisible.org/episode/great-bitter-lake-association/","imageRemote":"https://99percentinvisible.org/app/uploads/2019/10/yellow-submarine-768x512-728x485.jpg","video":null,"channel":null,"channelUrl":null,"author":"mellowhype","authorUrl":"https://news.ycombinator.com/user?id=mellowhype","authorImage":null,"authorSlug":null,"score":269,"views":null,"sharedCount":null,"likeCount":null,"sharedContent":null,"parent":{"__typename":"HnJson","localize":[{"title":"大苦湖协会","locale":"zh"},{"title":"大苦湖協會","locale":"zh-Hant"},{"title":"スエズ運河で結成された「グレート・ビター・レイク・アソシエーション」という名の組合","locale":"ja-JA"},{"title":"スエズ運河で結成された「グレート・ビター・レイク・アソシエーション」という名の組合","locale":"ja"}]}},{"__typename":"SocialMediaPost","id":"HnPost-26659150","excerpt":"","slug":"/hn/26659150","title":"Pro¹X: A Linux smartphone with slideout keyboard","date":"April 01, 2021","dateISO":"2021-04-01T13:51:27.485Z","datetime":"2021-04-01 13:51","tags":["story","Hacker News"],"image":null,"imageAlt":null,"provider":"Hacker News","thirdPartyId":"26659150","url":"https://news.ycombinator.com/item?id=26659150","originalUrl":"https://www.fxtec.com/pro1x","imageRemote":"https://www.fxtec.com/images/Asset-4.svg","video":null,"channel":null,"channelUrl":null,"author":"phantom_oracle","authorUrl":"https://news.ycombinator.com/user?id=phantom_oracle","authorImage":null,"authorSlug":null,"score":413,"views":null,"sharedCount":null,"likeCount":null,"sharedContent":null,"parent":{"__typename":"HnJson","localize":[{"title":"Pro¹X：一款带有滑盖键盘的Linux智能手机。","locale":"zh"},{"title":"Pro¹X：一款帶有滑蓋鍵盤的Linux智能手機。","locale":"zh-Hant"},{"title":"Pro¹X: スライド式キーボードを搭載したLinuxスマートフォン","locale":"ja-JA"},{"title":"Pro¹X: スライド式キーボードを搭載したLinuxスマートフォン","locale":"ja"}]}},{"__typename":"SocialMediaPost","id":"HnPost-26656759","excerpt":"","slug":"/hn/26656759","title":"Security Breach at US Universities","date":"April 01, 2021","dateISO":"2021-04-01T10:27:55.983Z","datetime":"2021-04-01 10:27","tags":["story","Hacker News"],"image":null,"imageAlt":null,"provider":"Hacker News","thirdPartyId":"26656759","url":"https://news.ycombinator.com/item?id=26656759","originalUrl":"https://dorper.me/articles/unileak.aspx","imageRemote":null,"video":null,"channel":null,"channelUrl":null,"author":"babelfish","authorUrl":"https://news.ycombinator.com/user?id=babelfish","authorImage":null,"authorSlug":null,"score":346,"views":null,"sharedCount":null,"likeCount":null,"sharedContent":null,"parent":{"__typename":"HnJson","localize":[{"title":"美国大学出现安全漏洞","locale":"zh"},{"title":"美國大學出現安全漏洞","locale":"zh-Hant"},{"title":"米国の大学におけるセキュリティ侵害","locale":"ja-JA"},{"title":"米国の大学におけるセキュリティ侵害","locale":"ja"}]}},{"__typename":"SocialMediaPost","id":"HnPost-26645312","excerpt":"","slug":"/hn/26645312","title":"OBS Studio Now Ready with Wayland Capture Support","date":"April 01, 2021","dateISO":"2021-04-01T07:26:57.800Z","datetime":"2021-04-01 07:26","tags":["story","Hacker News"],"image":null,"imageAlt":null,"provider":"Hacker News","thirdPartyId":"26645312","url":"https://news.ycombinator.com/item?id=26645312","originalUrl":"https://www.phoronix.com/scan.php?page=news_item&px=OBS-Studio-Wayland-Ready","imageRemote":"https://www.phoronix.com/assets/categories/wayland.jpg","video":null,"channel":null,"channelUrl":null,"author":"infomax","authorUrl":"https://news.ycombinator.com/user?id=infomax","authorImage":null,"authorSlug":null,"score":143,"views":null,"sharedCount":null,"likeCount":null,"sharedContent":null,"parent":{"__typename":"HnJson","localize":[{"title":"OBS Studio现在可以支持Wayland采集了","locale":"zh"},{"title":"OBS Studio現在可以支持Wayland採集了","locale":"zh-Hant"}]}},{"__typename":"SocialMediaPost","id":"HnPost-26651578","excerpt":"","slug":"/hn/26651578","title":"Apple doesn't care about album cover art","date":"April 01, 2021","dateISO":"2021-04-01T06:46:12.892Z","datetime":"2021-04-01 06:46","tags":["story","Hacker News"],"image":null,"imageAlt":null,"provider":"Hacker News","thirdPartyId":"26651578","url":"https://news.ycombinator.com/item?id=26651578","originalUrl":"https://guilhermesimoes.github.io/blog/apple-does-not-care-about-album-cover-art","imageRemote":"https://guilhermesimoes.github.io/assets/images/iphone-music-app-paused.png","video":null,"channel":null,"channelUrl":null,"author":"glitchdout","authorUrl":"https://news.ycombinator.com/user?id=glitchdout","authorImage":null,"authorSlug":null,"score":227,"views":null,"sharedCount":null,"likeCount":null,"sharedContent":null,"parent":{"__typename":"HnJson","localize":[{"title":"苹果不关心专辑封面设计","locale":"zh"},{"title":"蘋果不關心專輯封面設計","locale":"zh-Hant"}]}},{"__typename":"SocialMediaPost","id":"HnPost-26653867","excerpt":"","slug":"/hn/26653867","title":"Google is accelerating reopening of offices and putting limits on remote work","date":"April 01, 2021","dateISO":"2021-04-01T06:46:12.892Z","datetime":"2021-04-01 06:46","tags":["story","Hacker News"],"image":null,"imageAlt":null,"provider":"Hacker News","thirdPartyId":"26653867","url":"https://news.ycombinator.com/item?id=26653867","originalUrl":"https://www.cnbc.com/2021/03/31/google-speeds-partial-office-reopening-and-puts-limits-on-remote-work.html","imageRemote":"https://image.cnbcfm.com/api/v1/image/105193472-RTS1QG9H.jpg?v=1530104102","video":null,"channel":null,"channelUrl":null,"author":"richardknop","authorUrl":"https://news.ycombinator.com/user?id=richardknop","authorImage":null,"authorSlug":null,"score":348,"views":null,"sharedCount":null,"likeCount":null,"sharedContent":null,"parent":{"__typename":"HnJson","localize":[{"title":"谷歌正在加速重新开放办公室，并对远程工作进行限制。","locale":"zh"},{"title":"谷歌正在加速重新開放辦公室，並對遠程工作進行限制。","locale":"zh-Hant"}]}},{"__typename":"SocialMediaPost","id":"HnPost-26656206","excerpt":"","slug":"/hn/26656206","title":"Latest EmDrive tests at Dresden University shows it does not develop any thrust","date":"April 01, 2021","dateISO":"2021-04-01T06:21:28.721Z","datetime":"2021-04-01 06:21","tags":["story","Hacker News"],"image":null,"imageAlt":null,"provider":"Hacker News","thirdPartyId":"26656206","url":"https://news.ycombinator.com/item?id=26656206","originalUrl":"https://www.grenzwissenschaft-aktuell.de/latest-emdrive-tests-at-dresden-university-shows-impossible-engine-does-not-develop-any-thrust20210321/","imageRemote":"https://www.grenzwissenschaft-aktuell.de/wp-content/uploads/2021/03/4231-emDrive-versuchsaufbau-TU-dresden-1.jpg","video":null,"channel":null,"channelUrl":null,"author":"sohkamyung","authorUrl":"https://news.ycombinator.com/user?id=sohkamyung","authorImage":null,"authorSlug":null,"score":509,"views":null,"sharedCount":null,"likeCount":null,"sharedContent":null,"parent":{"__typename":"HnJson","localize":[{"title":"德累斯顿大学最新的EmDrive测试显示，它不会产生任何推力。","locale":"zh"},{"title":"德累斯頓大學最新的EmDrive測試顯示，它不會產生任何推力。","locale":"zh-Hant"},{"title":"ドレスデン大学で行われた最新のEmDriveテストでは、推力が発生しないことが確認された","locale":"ja-JA"},{"title":"ドレスデン大学で行われた最新のEmDriveテストでは、推力が発生しないことが確認された","locale":"ja"}]}},{"__typename":"SocialMediaPost","id":"HnPost-26653788","excerpt":"","slug":"/hn/26653788","title":"Beach High School","date":"April 01, 2021","dateISO":"2021-04-01T05:56:12.767Z","datetime":"2021-04-01 05:56","tags":["story","Hacker News"],"image":null,"imageAlt":null,"provider":"Hacker News","thirdPartyId":"26653788","url":"https://news.ycombinator.com/item?id=26653788","originalUrl":"http://www2.cruzio.com/~beachhi/graduation.html","imageRemote":"http://www2.cruzio.com/~beachhi/shim.gif","video":null,"channel":null,"channelUrl":null,"author":"PebblesRox","authorUrl":"https://news.ycombinator.com/user?id=PebblesRox","authorImage":null,"authorSlug":null,"score":184,"views":null,"sharedCount":null,"likeCount":null,"sharedContent":null,"parent":{"__typename":"HnJson","localize":[{"title":"海滩高中","locale":"zh"},{"title":"海灘高中","locale":"zh-Hant"}]}},{"__typename":"SocialMediaPost","id":"HnPost-26655256","excerpt":"","slug":"/hn/26655256","title":"Update on campaign targeting security researchers","date":"April 01, 2021","dateISO":"2021-04-01T04:54:15.262Z","datetime":"2021-04-01 04:54","tags":["story","Hacker News"],"image":null,"imageAlt":null,"provider":"Hacker News","thirdPartyId":"26655256","url":"https://news.ycombinator.com/item?id=26655256","originalUrl":"https://blog.google/threat-analysis-group/update-campaign-targeting-security-researchers/","imageRemote":"https://blog.google/static/blogv2/images/google-1000x1000.png","video":null,"channel":null,"channelUrl":null,"author":"arkadiyt","authorUrl":"https://news.ycombinator.com/user?id=arkadiyt","authorImage":null,"authorSlug":null,"score":239,"views":null,"sharedCount":null,"likeCount":null,"sharedContent":null,"parent":{"__typename":"HnJson","localize":[{"title":"关于针对安全研究人员的运动的最新情况","locale":"zh"},{"title":"關於針對安全研究人員的運動的最新情況","locale":"zh-Hant"},{"title":"セキュリティ研究者を対象としたキャンペーンに関する最新情報","locale":"ja-JA"},{"title":"セキュリティ研究者を対象としたキャンペーンに関する最新情報","locale":"ja"}]}},{"__typename":"SocialMediaPost","id":"HnPost-26649230","excerpt":"","slug":"/hn/26649230","title":"Apple to build battery-based solar energy storage project in California","date":"April 01, 2021","dateISO":"2021-04-01T02:30:41.497Z","datetime":"2021-04-01 02:30","tags":["story","Hacker News"],"image":null,"imageAlt":null,"provider":"Hacker News","thirdPartyId":"26649230","url":"https://news.ycombinator.com/item?id=26649230","originalUrl":"https://www.reuters.com/article/us-apple-environment-idUSKBN2BN206","imageRemote":"https://static.reuters.com/resources/r/?m=02&d=20210331&t=2&i=1556888524&r=LYNXMPEH2U0ZS&w=800","video":null,"channel":null,"channelUrl":null,"author":"drdrey","authorUrl":"https://news.ycombinator.com/user?id=drdrey","authorImage":null,"authorSlug":null,"score":153,"views":null,"sharedCount":null,"likeCount":null,"sharedContent":null,"parent":{"__typename":"HnJson","localize":[{"title":"苹果将在加州建设基于电池的太阳能储能项目","locale":"zh"},{"title":"蘋果將在加州建設基於電池的太陽能儲能項目","locale":"zh-Hant"}]}},{"__typename":"SocialMediaPost","id":"HnPost-26653807","excerpt":"","slug":"/hn/26653807","title":"Redefining what a map can be with new information and AI","date":"April 01, 2021","dateISO":"2021-04-01T02:30:41.497Z","datetime":"2021-04-01 02:30","tags":["story","Hacker News"],"image":null,"imageAlt":null,"provider":"Hacker News","thirdPartyId":"26653807","url":"https://news.ycombinator.com/item?id=26653807","originalUrl":"https://blog.google/products/maps/redefining-what-map-can-be-new-information-and-ai","imageRemote":"https://storage.googleapis.com/gweb-uniblog-publish-prod/images/social_share_graphic_fallback_-_multicolor.max-1300x1300.png","video":null,"channel":null,"channelUrl":null,"author":"ra7","authorUrl":"https://news.ycombinator.com/user?id=ra7","authorImage":null,"authorSlug":null,"score":299,"views":null,"sharedCount":null,"likeCount":null,"sharedContent":null,"parent":{"__typename":"HnJson","localize":[{"title":"用新的信息和人工智能重新定义地图的功能。","locale":"zh"},{"title":"用新的信息和人工智能重新定義地圖的功能。","locale":"zh-Hant"}]}},{"__typename":"SocialMediaPost","id":"HnPost-26652488","excerpt":"","slug":"/hn/26652488","title":"Tracing Paper (2020)","date":"April 01, 2021","dateISO":"2021-04-01T01:17:30.775Z","datetime":"2021-04-01 01:17","tags":["story","Hacker News"],"image":null,"imageAlt":null,"provider":"Hacker News","thirdPartyId":"26652488","url":"https://news.ycombinator.com/item?id=26652488","originalUrl":"https://logicmag.io/security/tracing-paper/","imageRemote":"https://images.ctfassets.net/e529ilab8frl/279VBnz7WtLLWHX9kr1Ezl/a0d693454b747795f9d387b3f09c8385/16.png?w=1200&fm=jpg&fl=progressive","video":null,"channel":null,"channelUrl":null,"author":"reimbar","authorUrl":"https://news.ycombinator.com/user?id=reimbar","authorImage":null,"authorSlug":null,"score":267,"views":null,"sharedCount":null,"likeCount":null,"sharedContent":null,"parent":{"__typename":"HnJson","localize":[{"title":"描图纸(2020年)","locale":"zh"},{"title":"描圖紙(2020年)","locale":"zh-Hant"}]}},{"__typename":"SocialMediaPost","id":"HnPost-26653950","excerpt":"","slug":"/hn/26653950","title":"Jump in cancer diagnoses at 65 implies patients wait for Medicare","date":"March 31, 2021","dateISO":"2021-03-31T23:47:58.777Z","datetime":"2021-03-31 23:47","tags":["story","Hacker News"],"image":null,"imageAlt":null,"provider":"Hacker News","thirdPartyId":"26653950","url":"https://news.ycombinator.com/item?id=26653950","originalUrl":"http://med.stanford.edu/news/all-news/2021/03/Cancer-diagnoses-implies-patients-wait-for-Medicare.html","imageRemote":"http://med.stanford.edu/content/dam/sm-news/images/2021/03/lung-cancer-cells1.jpg","video":null,"channel":null,"channelUrl":null,"author":"hardtke","authorUrl":"https://news.ycombinator.com/user?id=hardtke","authorImage":null,"authorSlug":null,"score":547,"views":null,"sharedCount":null,"likeCount":null,"sharedContent":null,"parent":{"__typename":"HnJson","localize":[{"title":"65岁癌症诊断的跳跃性增长意味着患者在等待医疗保险的到来","locale":"zh"},{"title":"65歲癌症診斷的跳躍性增長意味着患者在等待醫療保險的到來","locale":"zh-Hant"}]}},{"__typename":"SocialMediaPost","id":"HnPost-26653200","excerpt":"","slug":"/hn/26653200","title":"YouTube to Remove Dislikes","date":"March 31, 2021","dateISO":"2021-03-31T22:57:54.380Z","datetime":"2021-03-31 22:57","tags":["story","Hacker News"],"image":null,"imageAlt":null,"provider":"Hacker News","thirdPartyId":"26653200","url":"https://news.ycombinator.com/item?id=26653200","originalUrl":"https://twitter.com/YouTube/status/1376942486594150405","imageRemote":null,"video":null,"channel":null,"channelUrl":null,"author":"Jerry2","authorUrl":"https://news.ycombinator.com/user?id=Jerry2","authorImage":null,"authorSlug":null,"score":437,"views":null,"sharedCount":null,"likeCount":null,"sharedContent":null,"parent":{"__typename":"HnJson","localize":[{"title":"YouTube删除不喜欢的人","locale":"zh"},{"title":"YouTube刪除不喜歡的人","locale":"zh-Hant"}]}}]}},"pageContext":{"basePath":"/","pageType":"home","tagsFilter":{"id":{"glob":"!*Post-1"}},"filter":{"id":{"glob":"!*Post-1"}},"limit":25,"skip":125,"totalPages":125,"total":3107,"currentPage":6,"maxWidth":1024,"maxHeight":512,"locale":"ja","hrefLang":"ja-JA","originalPath":"/page/6","dateFormat":"YYYY-MM-DD"}},"staticQueryHashes":["1239077767","2506312863","2744905544","3025052997","3493603132","3493603132","3513215887","386998304"]}