{"componentChunkName":"component---gatsby-theme-buzzing-src-gatsby-theme-timeline-templates-posts-query-js","path":"/en/tags/hacker-news/page/14","result":{"data":{"site":{"siteMetadata":{"title":"Reddit 热门","description":"用中文浏览Reddit热门内容","social":[{"name":"Twitter","url":"https://twitter.com/gatsbyjs","external":null,"prefetch":null},{"name":"GitHub","url":"https://github.com/gatsbyjs","external":null,"prefetch":null}],"menuLinks":[],"localize":[{"locale":"en","title":"Buzzing on Reddit","description":"See what's buzzing on Reddit in your native language","social":[{"name":"Reddit","url":"https://www.reddit.com/","external":true,"prefetch":null}],"menuLinks":[{"name":"Weekly Selection","url":"/issues","external":null,"prefetch":null},{"name":"RSS","url":"/rss.xml","external":null,"prefetch":false}]},{"locale":"zh-Hant","title":"Reddit 熱門","description":"用中文瀏覽Reddit熱門內容","social":null,"menuLinks":null}]}},"tagsGroup":{"group":[{"fieldValue":"ASK HN","totalCount":54},{"fieldValue":"Hacker News","totalCount":3105},{"fieldValue":"Poll","totalCount":1},{"fieldValue":"Show HN","totalCount":100},{"fieldValue":"poll","totalCount":1},{"fieldValue":"story","totalCount":3104}]},"allBlogPost":{"nodes":[{"__typename":"SocialMediaPost","id":"HnPost-26573930","excerpt":"","slug":"/hn/26573930","title":"Show HN: Arc, an open-source Databricks alternative","date":"March 25, 2021","dateISO":"2021-03-25T12:21:19.870Z","datetime":"2021-03-25 12:21","tags":["story","Show HN","Hacker News"],"image":null,"imageAlt":null,"provider":"Hacker News","thirdPartyId":"26573930","url":"https://news.ycombinator.com/item?id=26573930","originalUrl":"https://arc.tripl.ai/","imageRemote":"https://arc.tripl.ai/images/logo.png","video":null,"channel":"Show HN","channelUrl":"https://news.ycombinator.com/show","author":"seddonm1","authorUrl":"https://news.ycombinator.com/user?id=seddonm1","authorImage":null,"authorSlug":null,"score":172,"views":null,"sharedCount":null,"likeCount":null,"sharedContent":null,"parent":{"__typename":"HnJson","localize":[{"title":"显示HN：Arc，一个开源的Databricks替代品","locale":"zh"},{"title":"顯示HN：Arc，一個開源的Databricks替代品","locale":"zh-Hant"}]}},{"__typename":"SocialMediaPost","id":"HnPost-26575327","excerpt":"","slug":"/hn/26575327","title":"Lawyers used sheepskin as anti-fraud device for hundreds of years","date":"March 25, 2021","dateISO":"2021-03-25T07:29:01.311Z","datetime":"2021-03-25 07:29","tags":["story","Hacker News"],"image":null,"imageAlt":null,"provider":"Hacker News","thirdPartyId":"26575327","url":"https://news.ycombinator.com/item?id=26575327","originalUrl":"https://phys.org/news/2021-03-lawyers-sheepskin-anti-fraud-device-hundreds.html","imageRemote":"https://scx2.b-cdn.net/gfx/news/hires/2021/lawyersuseds.jpg","video":null,"channel":null,"channelUrl":null,"author":"jnord","authorUrl":"https://news.ycombinator.com/user?id=jnord","authorImage":null,"authorSlug":null,"score":307,"views":null,"sharedCount":null,"likeCount":null,"sharedContent":null,"parent":{"__typename":"HnJson","localize":[{"title":"律师用羊皮做反欺诈手段已有数百年历史","locale":"zh"},{"title":"律師用羊皮做反欺詐手段已有數百年曆史","locale":"zh-Hant"}]}},{"__typename":"SocialMediaPost","id":"HnPost-26564346","excerpt":"","slug":"/hn/26564346","title":"Video RAM Transplant Doubles RTX3070 Memory to 16GB","date":"March 25, 2021","dateISO":"2021-03-25T06:33:33.535Z","datetime":"2021-03-25 06:33","tags":["story","Hacker News"],"image":null,"imageAlt":null,"provider":"Hacker News","thirdPartyId":"26564346","url":"https://news.ycombinator.com/item?id=26564346","originalUrl":"https://hackaday.com/2021/03/20/video-ram-transplant-doubles-rtx-3070-memory-to-16-gb/","imageRemote":"https://hackaday.com/wp-content/uploads/2021/03/rtx-3070-ram-upgrade-featured.jpg","video":null,"channel":null,"channelUrl":null,"author":"antman","authorUrl":"https://news.ycombinator.com/user?id=antman","authorImage":null,"authorSlug":null,"score":149,"views":null,"sharedCount":null,"likeCount":null,"sharedContent":null,"parent":{"__typename":"HnJson","localize":[{"title":"显存移植将RTX3070内存翻倍至16GB","locale":"zh"},{"title":"顯存移植將RTX3070內存翻倍至16GB","locale":"zh-Hant"}]}},{"__typename":"SocialMediaPost","id":"HnPost-26571129","excerpt":"","slug":"/hn/26571129","title":"The world is facing a coffee deficit","date":"March 25, 2021","dateISO":"2021-03-25T04:59:41.326Z","datetime":"2021-03-25 04:59","tags":["story","Hacker News"],"image":null,"imageAlt":null,"provider":"Hacker News","thirdPartyId":"26571129","url":"https://news.ycombinator.com/item?id=26571129","originalUrl":"https://www.bloombergquint.com/business/coffee-trade-reeling-from-virus-faces-nightmare-freight-snags","imageRemote":"https://gumlet.assettype.com/bloombergquint%2F2021-03%2Fc4dc46c5-fd5f-4c42-a4e9-6305018e8df6%2F368824991.jpg?w=1200&auto=format%2Ccompress&ogImage=true","video":null,"channel":null,"channelUrl":null,"author":"benryon","authorUrl":"https://news.ycombinator.com/user?id=benryon","authorImage":null,"authorSlug":null,"score":195,"views":null,"sharedCount":null,"likeCount":null,"sharedContent":null,"parent":{"__typename":"HnJson","localize":[{"title":"世界正面临着咖啡不足的问题","locale":"zh"},{"title":"世界正面臨着咖啡不足的問題","locale":"zh-Hant"}]}},{"__typename":"SocialMediaPost","id":"HnPost-26573143","excerpt":"","slug":"/hn/26573143","title":"Counting cycles and instructions on the Apple M1 processor","date":"March 25, 2021","dateISO":"2021-03-25T04:59:41.326Z","datetime":"2021-03-25 04:59","tags":["story","Hacker News"],"image":null,"imageAlt":null,"provider":"Hacker News","thirdPartyId":"26573143","url":"https://news.ycombinator.com/item?id=26573143","originalUrl":"https://lemire.me/blog/2021/03/24/counting-cycles-and-instructions-on-the-apple-m1-processor/","imageRemote":"https://lemire.me/img/portrait2018facebook.jpg","video":null,"channel":null,"channelUrl":null,"author":"chmaynard","authorUrl":"https://news.ycombinator.com/user?id=chmaynard","authorImage":null,"authorSlug":null,"score":189,"views":null,"sharedCount":null,"likeCount":null,"sharedContent":null,"parent":{"__typename":"HnJson","localize":[{"title":"在苹果M1处理器上计算周期和指令。","locale":"zh"},{"title":"在蘋果M1處理器上計算週期和指令。","locale":"zh-Hant"}]}},{"__typename":"SocialMediaPost","id":"HnPost-26574077","excerpt":"","slug":"/hn/26574077","title":"Where are all the containers? The global shortage explained","date":"March 25, 2021","dateISO":"2021-03-25T03:54:16.712Z","datetime":"2021-03-25 03:54","tags":["story","Hacker News"],"image":null,"imageAlt":null,"provider":"Hacker News","thirdPartyId":"26574077","url":"https://news.ycombinator.com/item?id=26574077","originalUrl":"https://www.hillebrand.com/media/publication/where-are-all-the-containers-the-global-shortage-explained","imageRemote":"https://www.hillebrand.com/images/default-source/stories/container_shortage-article_graphics-world_container_index4b13648c-9404-4f07-9101-607aed833096.png?Status=Master&sfvrsn=8b7fa4b2_3","video":null,"channel":null,"channelUrl":null,"author":"luthfur","authorUrl":"https://news.ycombinator.com/user?id=luthfur","authorImage":null,"authorSlug":null,"score":324,"views":null,"sharedCount":null,"likeCount":null,"sharedContent":null,"parent":{"__typename":"HnJson","localize":[{"title":"集装箱都去哪了？全球短缺的解释","locale":"zh"},{"title":"集裝箱都去哪了？全球短缺的解釋","locale":"zh-Hant"}]}},{"__typename":"SocialMediaPost","id":"HnPost-26571391","excerpt":"","slug":"/hn/26571391","title":"Comparing Svelte and React","date":"March 25, 2021","dateISO":"2021-03-25T02:43:42.369Z","datetime":"2021-03-25 02:43","tags":["story","Hacker News"],"image":null,"imageAlt":null,"provider":"Hacker News","thirdPartyId":"26571391","url":"https://news.ycombinator.com/item?id=26571391","originalUrl":"https://www.jackfranklin.co.uk/blog/comparing-svelte-and-react-javascript/","imageRemote":"https://res.cloudinary.com/dtzvjz9gv/image/upload/w_1280,h_669,c_fill,q_auto,f_auto/w_760,c_fit,co_rgb:000000,g_south_west,x_480,y_254,l_text:Georgia_64:Comparing%20Svelte%20and%20React/w_760,c_fit,co_rgb:000000,g_north_west,x_480,y_445,l_text:Georgia_48:jackfranklin.co.uk/blog-card-template","video":null,"channel":null,"channelUrl":null,"author":"feross","authorUrl":"https://news.ycombinator.com/user?id=feross","authorImage":null,"authorSlug":null,"score":285,"views":null,"sharedCount":null,"likeCount":null,"sharedContent":null,"parent":{"__typename":"HnJson","localize":[{"title":"比较Svelte和React","locale":"zh"},{"title":"比較Svelte和React","locale":"zh-Hant"}]}},{"__typename":"SocialMediaPost","id":"HnPost-26573406","excerpt":"","slug":"/hn/26573406","title":"Pollution from fossil fuel combustion deadlier than previously thought","date":"March 25, 2021","dateISO":"2021-03-25T01:32:48.668Z","datetime":"2021-03-25 01:32","tags":["story","Hacker News"],"image":null,"imageAlt":null,"provider":"Hacker News","thirdPartyId":"26573406","url":"https://news.ycombinator.com/item?id=26573406","originalUrl":"https://www.hsph.harvard.edu/news/hsph-in-the-news/pollution-from-fossil-fuel-combustion-deadlier-than-previously-thought/","imageRemote":"https://cdn1.sph.harvard.edu/social-share.jpg","video":null,"channel":null,"channelUrl":null,"author":"seesawtron","authorUrl":"https://news.ycombinator.com/user?id=seesawtron","authorImage":null,"authorSlug":null,"score":296,"views":null,"sharedCount":null,"likeCount":null,"sharedContent":null,"parent":{"__typename":"HnJson","localize":[{"title":"化石燃料燃烧造成的污染比以前想象的更致命","locale":"zh"},{"title":"化石燃料燃燒造成的污染比以前想象的更致命","locale":"zh-Hant"}]}},{"__typename":"SocialMediaPost","id":"HnPost-26574731","excerpt":"","slug":"/hn/26574731","title":"Do you want Linux phones?","date":"March 25, 2021","dateISO":"2021-03-25T01:32:48.668Z","datetime":"2021-03-25 01:32","tags":["story","Hacker News"],"image":null,"imageAlt":null,"provider":"Hacker News","thirdPartyId":"26574731","url":"https://news.ycombinator.com/item?id=26574731","originalUrl":"https://blog.brixit.nl/do-you-really-want-linux-phones/","imageRemote":"https://blog.brixit.nl/content/images/2021/03/43555b5c92007071b6e2d97b5120699673a914a3.jpeg","video":null,"channel":null,"channelUrl":null,"author":"JetSpiegel","authorUrl":"https://news.ycombinator.com/user?id=JetSpiegel","authorImage":null,"authorSlug":null,"score":496,"views":null,"sharedCount":null,"likeCount":null,"sharedContent":null,"parent":{"__typename":"HnJson","localize":[{"title":"你想要Linux手机吗？","locale":"zh"},{"title":"你想要Linux手機嗎？","locale":"zh-Hant"}]}},{"__typename":"SocialMediaPost","id":"HnPost-26566048","excerpt":"","slug":"/hn/26566048","title":"Silicon Valley firms in no hurry to open up offices despite easing of virus ban","date":"March 24, 2021","dateISO":"2021-03-24T23:32:38.663Z","datetime":"2021-03-24 23:32","tags":["story","Hacker News"],"image":null,"imageAlt":null,"provider":"Hacker News","thirdPartyId":"26566048","url":"https://news.ycombinator.com/item?id=26566048","originalUrl":"https://www.reuters.com/article/us-health-coronavirus-tech-siliconvalley/silicon-valley-firms-in-no-hurry-to-open-up-offices-despite-easing-of-virus-ban-idUSKBN2BG09U","imageRemote":"https://static.reuters.com/resources/r/?m=02&d=20210324&t=2&i=1556004914&r=LYNXMPEH2N06W&w=800","video":null,"channel":null,"channelUrl":null,"author":"mikesabbagh","authorUrl":"https://news.ycombinator.com/user?id=mikesabbagh","authorImage":null,"authorSlug":null,"score":215,"views":null,"sharedCount":null,"likeCount":null,"sharedContent":null,"parent":{"__typename":"HnJson","localize":[{"title":"硅谷企业虽放宽病毒禁令但不急于开设办事处","locale":"zh"},{"title":"硅谷企業雖放寬病毒禁令但不急於開設辦事處","locale":"zh-Hant"}]}},{"__typename":"SocialMediaPost","id":"HnPost-26573236","excerpt":"","slug":"/hn/26573236","title":"Intel chief Pat Gelsinger: Too many chips made in Asia","date":"March 24, 2021","dateISO":"2021-03-24T23:32:38.663Z","datetime":"2021-03-24 23:32","tags":["story","Hacker News"],"image":null,"imageAlt":null,"provider":"Hacker News","thirdPartyId":"26573236","url":"https://news.ycombinator.com/item?id=26573236","originalUrl":"https://www.bbc.com/news/technology-56512430","imageRemote":"https://ichef.bbci.co.uk/news/1024/branded_news/B4E5/production/_117690364_intel.jpg","video":null,"channel":null,"channelUrl":null,"author":"tartoran","authorUrl":"https://news.ycombinator.com/user?id=tartoran","authorImage":null,"authorSlug":null,"score":302,"views":null,"sharedCount":null,"likeCount":null,"sharedContent":null,"parent":{"__typename":"HnJson","localize":[{"title":"英特尔主管帕特-盖尔辛格。太多芯片在亚洲制造","locale":"zh"},{"title":"英特爾主管帕特-蓋爾辛格。太多芯片在亞洲製造","locale":"zh-Hant"}]}},{"__typename":"SocialMediaPost","id":"HnPost-26572412","excerpt":"","slug":"/hn/26572412","title":"High IQs are associated with mental and physical disorders","date":"March 24, 2021","dateISO":"2021-03-24T21:58:33.041Z","datetime":"2021-03-24 21:58","tags":["story","Hacker News"],"image":null,"imageAlt":null,"provider":"Hacker News","thirdPartyId":"26572412","url":"https://news.ycombinator.com/item?id=26572412","originalUrl":"https://www.scientificamerican.com/article/bad-news-for-the-highly-intelligent/","imageRemote":"https://static.scientificamerican.com/sciam/cache/file/F4FFDF28-F50F-4DF3-A864831C8A4D1B35.jpg","video":null,"channel":null,"channelUrl":null,"author":"aminozuur","authorUrl":"https://news.ycombinator.com/user?id=aminozuur","authorImage":null,"authorSlug":null,"score":171,"views":null,"sharedCount":null,"likeCount":null,"sharedContent":null,"parent":{"__typename":"HnJson","localize":[{"title":"高智商与心理和生理疾病有关","locale":"zh"},{"title":"高智商與心理和生理疾病有關","locale":"zh-Hant"}]}},{"__typename":"SocialMediaPost","id":"HnPost-26570795","excerpt":"","slug":"/hn/26570795","title":"The Solution of the Zodiac Killer’s 340-Character Cipher","date":"March 24, 2021","dateISO":"2021-03-24T21:01:06.655Z","datetime":"2021-03-24 21:01","tags":["story","Hacker News"],"image":null,"imageAlt":null,"provider":"Hacker News","thirdPartyId":"26570795","url":"https://news.ycombinator.com/item?id=26570795","originalUrl":"https://blog.wolfram.com/2021/03/24/the-solution-of-the-zodiac-killers-340-character-cipher/","imageRemote":"https://content.wolfram.com/uploads/sites/39/2021/03/zodiac-cipher.png","video":null,"channel":null,"channelUrl":null,"author":"0-_-0","authorUrl":"https://news.ycombinator.com/user?id=0-_-0","authorImage":null,"authorSlug":null,"score":661,"views":null,"sharedCount":null,"likeCount":null,"sharedContent":null,"parent":{"__typename":"HnJson","localize":[{"title":"十二生肖杀手340字密码的解法","locale":"zh"},{"title":"十二生肖殺手340字密碼的解法","locale":"zh-Hant"}]}},{"__typename":"SocialMediaPost","id":"HnPost-26568598","excerpt":"","slug":"/hn/26568598","title":"Intel Unleashed, Gelsinger on Intel, IDM 2.0","date":"March 24, 2021","dateISO":"2021-03-24T19:50:43.212Z","datetime":"2021-03-24 19:50","tags":["story","Hacker News"],"image":null,"imageAlt":null,"provider":"Hacker News","thirdPartyId":"26568598","url":"https://news.ycombinator.com/item?id=26568598","originalUrl":"https://stratechery.com/2021/intel-unleashed-gelsinger-on-intel-idm-2-0/","imageRemote":"https://stratechery.com/wp-content/uploads/2021/03/intel-1.png","video":null,"channel":null,"channelUrl":null,"author":"kaboro","authorUrl":"https://news.ycombinator.com/user?id=kaboro","authorImage":null,"authorSlug":null,"score":273,"views":null,"sharedCount":null,"likeCount":null,"sharedContent":null,"parent":{"__typename":"HnJson","localize":[{"title":"英特尔释放，格尔辛格谈英特尔，IDM 2.0。","locale":"zh"},{"title":"英特爾釋放，格爾辛格談英特爾，IDM 2.0。","locale":"zh-Hant"}]}},{"__typename":"SocialMediaPost","id":"HnPost-26553675","excerpt":"","slug":"/hn/26553675","title":"Hermes, a JavaScript engine optimized for React Native","date":"March 24, 2021","dateISO":"2021-03-24T18:58:28.856Z","datetime":"2021-03-24 18:58","tags":["story","Hacker News"],"image":null,"imageAlt":null,"provider":"Hacker News","thirdPartyId":"26553675","url":"https://news.ycombinator.com/item?id=26553675","originalUrl":"https://hermesengine.dev/","imageRemote":"https://hermesengine.dev/img/logo.svg","video":null,"channel":null,"channelUrl":null,"author":"dgellow","authorUrl":"https://news.ycombinator.com/user?id=dgellow","authorImage":null,"authorSlug":null,"score":193,"views":null,"sharedCount":null,"likeCount":null,"sharedContent":null,"parent":{"__typename":"HnJson","localize":[{"title":"Hermes，一个为React Native优化的JavaScript引擎。","locale":"zh"},{"title":"Hermes，一個爲React Native優化的JavaScript引擎。","locale":"zh-Hant"}]}},{"__typename":"SocialMediaPost","id":"HnPost-26564168","excerpt":"","slug":"/hn/26564168","title":"How to create a 1M record table with a single query","date":"March 24, 2021","dateISO":"2021-03-24T18:58:28.856Z","datetime":"2021-03-24 18:58","tags":["story","Hacker News"],"image":null,"imageAlt":null,"provider":"Hacker News","thirdPartyId":"26564168","url":"https://news.ycombinator.com/item?id=26564168","originalUrl":"https://antonz.org/random-table/","imageRemote":null,"video":null,"channel":null,"channelUrl":null,"author":"lipanski","authorUrl":"https://news.ycombinator.com/user?id=lipanski","authorImage":null,"authorSlug":null,"score":176,"views":null,"sharedCount":null,"likeCount":null,"sharedContent":null,"parent":{"__typename":"HnJson","localize":[{"title":"如何用单次查询创建1M记录表？","locale":"zh"},{"title":"如何用單次查詢創建1M記錄表？","locale":"zh-Hant"}]}},{"__typename":"SocialMediaPost","id":"HnPost-26565785","excerpt":"","slug":"/hn/26565785","title":"My Python testing style guide (2017)","date":"March 24, 2021","dateISO":"2021-03-24T18:58:28.856Z","datetime":"2021-03-24 18:58","tags":["story","Hacker News"],"image":null,"imageAlt":null,"provider":"Hacker News","thirdPartyId":"26565785","url":"https://news.ycombinator.com/item?id=26565785","originalUrl":"https://blog.thea.codes/my-python-testing-style-guide/","imageRemote":"https://blog.thea.codes/static/me.png","video":null,"channel":null,"channelUrl":null,"author":"rbanffy","authorUrl":"https://news.ycombinator.com/user?id=rbanffy","authorImage":null,"authorSlug":null,"score":198,"views":null,"sharedCount":null,"likeCount":null,"sharedContent":null,"parent":{"__typename":"HnJson","localize":[{"title":"我的Python测试风格指南（2017","locale":"zh"},{"title":"我的Python測試風格指南（2017","locale":"zh-Hant"}]}},{"__typename":"SocialMediaPost","id":"HnPost-26566925","excerpt":"","slug":"/hn/26566925","title":"Removed gem breaks Rails ActiveStorage","date":"March 24, 2021","dateISO":"2021-03-24T18:58:28.856Z","datetime":"2021-03-24 18:58","tags":["story","Hacker News"],"image":null,"imageAlt":null,"provider":"Hacker News","thirdPartyId":"26566925","url":"https://news.ycombinator.com/item?id=26566925","originalUrl":"https://github.com/rails/rails/issues/41750","imageRemote":"https://avatars.githubusercontent.com/u/4223?s=400&v=4","video":null,"channel":null,"channelUrl":null,"author":"ldulcic","authorUrl":"https://news.ycombinator.com/user?id=ldulcic","authorImage":null,"authorSlug":null,"score":260,"views":null,"sharedCount":null,"likeCount":null,"sharedContent":null,"parent":{"__typename":"HnJson","localize":[{"title":"移除的 gem 破坏 Rails ActiveStorage","locale":"zh"},{"title":"移除的 gem 破壞 Rails ActiveStorage","locale":"zh-Hant"}]}},{"__typename":"SocialMediaPost","id":"HnPost-26567756","excerpt":"","slug":"/hn/26567756","title":"'Do Not Split': A Hong Kong protest film [video]","date":"March 24, 2021","dateISO":"2021-03-24T18:58:28.856Z","datetime":"2021-03-24 18:58","tags":["story","Hacker News"],"image":null,"imageAlt":null,"provider":"Hacker News","thirdPartyId":"26567756","url":"https://news.ycombinator.com/item?id=26567756","originalUrl":"https://fieldofvision.org/do-not-split","imageRemote":"https://assets-jpcust.jwpsrv.com/thumbs/VI7fbwuf-720.jpg","video":null,"channel":null,"channelUrl":null,"author":"lawrenceyan","authorUrl":"https://news.ycombinator.com/user?id=lawrenceyan","authorImage":null,"authorSlug":null,"score":472,"views":null,"sharedCount":null,"likeCount":null,"sharedContent":null,"parent":{"__typename":"HnJson","localize":[{"title":"'不要分开'。一部香港抗议电影 [视频]","locale":"zh"},{"title":"'不要分開'。一部香港抗議電影 [視頻]","locale":"zh-Hant"}]}},{"__typename":"SocialMediaPost","id":"HnPost-26567842","excerpt":"","slug":"/hn/26567842","title":"Over twenty subreddits have gone private","date":"March 24, 2021","dateISO":"2021-03-24T18:58:28.856Z","datetime":"2021-03-24 18:58","tags":["story","Hacker News"],"image":null,"imageAlt":null,"provider":"Hacker News","thirdPartyId":"26567842","url":"https://news.ycombinator.com/item?id=26567842","originalUrl":"https://old.reddit.com/r/SubredditDrama/comments/mbq12a/over_twenty_subreddits_including_cringetopia/","imageRemote":"https://www.redditstatic.com/new-icon.png","video":null,"channel":null,"channelUrl":null,"author":"giancarlostoro","authorUrl":"https://news.ycombinator.com/user?id=giancarlostoro","authorImage":null,"authorSlug":null,"score":243,"views":null,"sharedCount":null,"likeCount":null,"sharedContent":null,"parent":{"__typename":"HnJson","localize":[{"title":"二十多个子网站已经私有化","locale":"zh"},{"title":"二十多個子網站已經私有化","locale":"zh-Hant"}]}},{"__typename":"SocialMediaPost","id":"HnPost-26567980","excerpt":"","slug":"/hn/26567980","title":"Ask HN: Digital Nomads: What's Your Setup?","date":"March 24, 2021","dateISO":"2021-03-24T18:58:28.856Z","datetime":"2021-03-24 18:58","tags":["story","ASK HN","Hacker News"],"image":null,"imageAlt":null,"provider":"Hacker News","thirdPartyId":"26567980","url":"https://news.ycombinator.com/item?id=26567980","originalUrl":"https://news.ycombinator.com/item?id=26567980","imageRemote":null,"video":null,"channel":"ASK HN","channelUrl":"https://news.ycombinator.com/ask","author":"jrwoodruff","authorUrl":"https://news.ycombinator.com/user?id=jrwoodruff","authorImage":null,"authorSlug":null,"score":242,"views":null,"sharedCount":null,"likeCount":null,"sharedContent":null,"parent":{"__typename":"HnJson","localize":[{"title":"问HN：数字游牧民族。你的设置是什么？","locale":"zh"},{"title":"問HN：數字遊牧民族。你的設置是什麼？","locale":"zh-Hant"}]}},{"__typename":"SocialMediaPost","id":"HnPost-26568014","excerpt":"","slug":"/hn/26568014","title":"Show HN: I wrote a book about Go","date":"March 24, 2021","dateISO":"2021-03-24T18:58:28.856Z","datetime":"2021-03-24 18:58","tags":["story","Show HN","Hacker News"],"image":null,"imageAlt":null,"provider":"Hacker News","thirdPartyId":"26568014","url":"https://news.ycombinator.com/item?id=26568014","originalUrl":"https://www.practical-go-lessons.com/","imageRemote":null,"video":null,"channel":"Show HN","channelUrl":"https://news.ycombinator.com/show","author":"maximilienandi","authorUrl":"https://news.ycombinator.com/user?id=maximilienandi","authorImage":null,"authorSlug":null,"score":861,"views":null,"sharedCount":null,"likeCount":null,"sharedContent":null,"parent":{"__typename":"HnJson","localize":[{"title":"SHOW HN：我写了一本关于围棋的书。","locale":"zh"},{"title":"SHOW HN：我寫了一本關於圍棋的書。","locale":"zh-Hant"}]}},{"__typename":"SocialMediaPost","id":"HnPost-26568489","excerpt":"","slug":"/hn/26568489","title":"Gnome 40","date":"March 24, 2021","dateISO":"2021-03-24T18:58:28.856Z","datetime":"2021-03-24 18:58","tags":["story","Hacker News"],"image":null,"imageAlt":null,"provider":"Hacker News","thirdPartyId":"26568489","url":"https://news.ycombinator.com/item?id=26568489","originalUrl":"https://forty.gnome.org/","imageRemote":"https://forty.gnome.org/assets/card.png","video":null,"channel":null,"channelUrl":null,"author":"pbui","authorUrl":"https://news.ycombinator.com/user?id=pbui","authorImage":null,"authorSlug":null,"score":367,"views":null,"sharedCount":null,"likeCount":null,"sharedContent":null,"parent":{"__typename":"HnJson","localize":[{"title":"Gnome 40","locale":"zh"},{"title":"Gnome 40","locale":"zh-Hant"}]}},{"__typename":"SocialMediaPost","id":"HnPost-26568960","excerpt":"","slug":"/hn/26568960","title":"Reddit’s most popular subreddits go private in protest against ‘censorship’","date":"March 24, 2021","dateISO":"2021-03-24T18:58:28.856Z","datetime":"2021-03-24 18:58","tags":["story","Hacker News"],"image":null,"imageAlt":null,"provider":"Hacker News","thirdPartyId":"26568960","url":"https://news.ycombinator.com/item?id=26568960","originalUrl":"https://www.gamerevolution.com/news/677190-reddit-private-community-aimee-challenor-censorship","imageRemote":"https://www.gamerevolution.com/assets/uploads/2021/03/reddit-aimee-knight.jpg","video":null,"channel":null,"channelUrl":null,"author":"LordAtlas","authorUrl":"https://news.ycombinator.com/user?id=LordAtlas","authorImage":null,"authorSlug":null,"score":552,"views":null,"sharedCount":null,"likeCount":null,"sharedContent":null,"parent":{"__typename":"HnJson","localize":[{"title":"Reddit最受欢迎的subreddits私有化以抗议 \"审查制度","locale":"zh"},{"title":"Reddit最受歡迎的subreddits私有化以抗議 \"審查制度","locale":"zh-Hant"}]}},{"__typename":"SocialMediaPost","id":"HnPost-26568962","excerpt":"","slug":"/hn/26568962","title":"America’s bald eagle population continues to soar","date":"March 24, 2021","dateISO":"2021-03-24T18:58:28.855Z","datetime":"2021-03-24 18:58","tags":["story","Hacker News"],"image":null,"imageAlt":null,"provider":"Hacker News","thirdPartyId":"26568962","url":"https://news.ycombinator.com/item?id=26568962","originalUrl":"https://www.fws.gov/birds/news/210324eagle-population.php","imageRemote":"https://www.fws.gov/birdhabitat/img/ncshare/icon_share.png","video":null,"channel":null,"channelUrl":null,"author":"infodocket","authorUrl":"https://news.ycombinator.com/user?id=infodocket","authorImage":null,"authorSlug":null,"score":353,"views":null,"sharedCount":null,"likeCount":null,"sharedContent":null,"parent":{"__typename":"HnJson","localize":[{"title":"美国秃鹰数量持续飙升","locale":"zh"},{"title":"美國禿鷹數量持續飆升","locale":"zh-Hant"}]}}]}},"pageContext":{"basePath":"/","pageType":"tag","tag":"Hacker News","tagsFilter":{"id":{"glob":"!*Post-1"}},"filter":{"id":{"glob":"!*Post-1"},"tags":{"eq":"Hacker News"}},"limit":25,"skip":325,"total":3105,"totalPages":125,"currentPage":14,"maxWidth":1024,"maxHeight":512,"locale":"en","hrefLang":"en-US","originalPath":"/tags/hacker-news/page/14","dateFormat":"MM/DD/YYYY"}},"staticQueryHashes":["1239077767","2506312863","2744905544","3025052997","3493603132","3493603132","3513215887","386998304"]}