{"componentChunkName":"component---gatsby-theme-buzzing-src-gatsby-theme-timeline-templates-posts-query-js","path":"/en/tags/hacker-news/page/40","result":{"data":{"site":{"siteMetadata":{"title":"Reddit 热门","description":"用中文浏览Reddit热门内容","social":[{"name":"Twitter","url":"https://twitter.com/gatsbyjs","external":null,"prefetch":null},{"name":"GitHub","url":"https://github.com/gatsbyjs","external":null,"prefetch":null}],"menuLinks":[],"localize":[{"locale":"en","title":"Buzzing on Reddit","description":"See what's buzzing on Reddit in your native language","social":[{"name":"Reddit","url":"https://www.reddit.com/","external":true,"prefetch":null}],"menuLinks":[{"name":"Weekly Selection","url":"/issues","external":null,"prefetch":null},{"name":"RSS","url":"/rss.xml","external":null,"prefetch":false}]},{"locale":"zh-Hant","title":"Reddit 熱門","description":"用中文瀏覽Reddit熱門內容","social":null,"menuLinks":null}]}},"tagsGroup":{"group":[{"fieldValue":"ASK HN","totalCount":44},{"fieldValue":"Bitcoin","totalCount":4},{"fieldValue":"Hacker News","totalCount":2600},{"fieldValue":"Poll","totalCount":1},{"fieldValue":"SaveAMC","totalCount":1},{"fieldValue":"Show HN","totalCount":89},{"fieldValue":"bitcoin","totalCount":3},{"fieldValue":"investing","totalCount":797},{"fieldValue":"poll","totalCount":1},{"fieldValue":"reddit","totalCount":4938},{"fieldValue":"science","totalCount":1},{"fieldValue":"stocks","totalCount":1592},{"fieldValue":"story","totalCount":2599},{"fieldValue":"tweet","totalCount":814},{"fieldValue":"wallstreetbets","totalCount":2549}]},"allBlogPost":{"nodes":[{"__typename":"SocialMediaPost","id":"HnPost-26087064","excerpt":"","slug":"/hn/26087064","title":"Researcher hacks over 35 tech firms in novel supply chain attack","date":"February 10, 2021","dateISO":"2021-02-10T11:00:20.403Z","datetime":"2021-02-10 11:00","tags":["story","Hacker News"],"image":null,"imageAlt":null,"provider":"Hacker News","thirdPartyId":"26087064","url":"https://news.ycombinator.com/item?id=26087064","originalUrl":"https://www.bleepingcomputer.com/news/security/researcher-hacks-over-35-tech-firms-in-novel-supply-chain-attack/","imageRemote":"https://www.bleepstatic.com/content/hl-images/2021/02/08/supply-chain.jpg","video":null,"channel":null,"channelUrl":null,"author":"Robadob","authorUrl":"https://news.ycombinator.com/user?id=Robadob","authorImage":null,"authorSlug":null,"score":1071,"views":null,"sharedCount":null,"likeCount":null,"sharedContent":null,"parent":{"__typename":"HnJson","localize":[{"title":"研究人员在新颖的供应链攻击中黑掉了35家以上的科技公司。","locale":"zh"},{"title":"研究人員在新穎的供應鏈攻擊中黑掉了35家以上的科技公司。","locale":"zh-Hant"}]}},{"__typename":"SocialMediaPost","id":"HnPost-26086086","excerpt":"","slug":"/hn/26086086","title":"Amazon competitor got our belt listing taken down by saying it contains drugs","date":"February 10, 2021","dateISO":"2021-02-10T08:52:25.987Z","datetime":"2021-02-10 08:52","tags":["story","Hacker News"],"image":null,"imageAlt":null,"provider":"Hacker News","thirdPartyId":"26086086","url":"https://news.ycombinator.com/item?id=26086086","originalUrl":"https://travelhead.medium.com/competitor-reported-our-no-buckle-belts-as-containing-a-dea-controlled-substance-and-got-us-e6df903172a3","imageRemote":"https://miro.medium.com/proxy/1*kFrc4tBFM_tCis-2Ic87WA.png","video":null,"channel":null,"channelUrl":null,"author":"travelhead","authorUrl":"https://news.ycombinator.com/user?id=travelhead","authorImage":null,"authorSlug":null,"score":507,"views":null,"sharedCount":null,"likeCount":null,"sharedContent":null,"parent":{"__typename":"HnJson","localize":[{"title":"亚马逊的竞争对手把我们的腰带列表撤下来了，说它含有毒品。","locale":"zh"},{"title":"亞馬遜的競爭對手把我們的腰帶列表撤下來了，說它含有毒品。","locale":"zh-Hant"}]}},{"__typename":"SocialMediaPost","id":"HnPost-26083919","excerpt":"","slug":"/hn/26083919","title":"Github1s – One second to read GitHub code with VS Code","date":"February 10, 2021","dateISO":"2021-02-10T03:30:31.543Z","datetime":"2021-02-10 03:30","tags":["story","Hacker News"],"image":null,"imageAlt":null,"provider":"Hacker News","thirdPartyId":"26083919","url":"https://news.ycombinator.com/item?id=26083919","originalUrl":"https://github.com/conwnet/github1s","imageRemote":"https://avatars.githubusercontent.com/u/17734694?s=400&v=4","video":null,"channel":null,"channelUrl":null,"author":"tardismechanic","authorUrl":"https://news.ycombinator.com/user?id=tardismechanic","authorImage":null,"authorSlug":null,"score":1640,"views":null,"sharedCount":null,"likeCount":null,"sharedContent":null,"parent":{"__typename":"HnJson","localize":[{"title":"Github1s - 用VS Code一秒读懂GitHub代码。","locale":"zh"},{"title":"Github1s - 用VS Code一秒讀懂GitHub代碼。","locale":"zh-Hant"}]}},{"__typename":"SocialMediaPost","id":"HnPost-26081880","excerpt":"","slug":"/hn/26081880","title":"Thinking too much can be bad for you","date":"February 10, 2021","dateISO":"2021-02-10T03:10:27.429Z","datetime":"2021-02-10 03:10","tags":["story","Hacker News"],"image":null,"imageAlt":null,"provider":"Hacker News","thirdPartyId":"26081880","url":"https://news.ycombinator.com/item?id=26081880","originalUrl":"https://www.economist.com/1843/2012/12/29/why-thinking-too-much-can-be-bad-for-you","imageRemote":"https://www.economist.com/img/b/1754/987/90/1843magazine.com/sites/default/files/styles/il_manual_crop_16_9/public/0312ILIN03-web.jpg","video":null,"channel":null,"channelUrl":null,"author":"smk_","authorUrl":"https://news.ycombinator.com/user?id=smk_","authorImage":null,"authorSlug":null,"score":334,"views":null,"sharedCount":null,"likeCount":null,"sharedContent":null,"parent":{"__typename":"HnJson","localize":[{"title":"想得太多会对你不利","locale":"zh"},{"title":"想得太多會對你不利","locale":"zh-Hant"}]}},{"__typename":"SocialMediaPost","id":"HnPost-26082347","excerpt":"","slug":"/hn/26082347","title":"Haxe 4.2","date":"February 10, 2021","dateISO":"2021-02-10T01:54:41.328Z","datetime":"2021-02-10 01:54","tags":["story","Hacker News"],"image":null,"imageAlt":null,"provider":"Hacker News","thirdPartyId":"26082347","url":"https://news.ycombinator.com/item?id=26082347","originalUrl":"https://community.haxe.org/t/haxe-4-2-0-is-released/2888","imageRemote":"https://community.haxe.org/uploads/default/original/1X/6f43c594828df00125c10a5a89df995731ddaa5c.png","video":null,"channel":null,"channelUrl":null,"author":"Gama11","authorUrl":"https://news.ycombinator.com/user?id=Gama11","authorImage":null,"authorSlug":null,"score":277,"views":null,"sharedCount":null,"likeCount":null,"sharedContent":null,"parent":{"__typename":"HnJson","localize":[{"title":"Haxe 4.2","locale":"zh"},{"title":"Haxe 4.2","locale":"zh-Hant"}]}},{"__typename":"SocialMediaPost","id":"HnPost-26080163","excerpt":"","slug":"/hn/26080163","title":"Ask HN: Team fun event ideas during WFH?","date":"February 10, 2021","dateISO":"2021-02-10T01:23:15.722Z","datetime":"2021-02-10 01:23","tags":["story","ASK HN","Hacker News"],"image":null,"imageAlt":null,"provider":"Hacker News","thirdPartyId":"26080163","url":"https://news.ycombinator.com/item?id=26080163","originalUrl":"https://news.ycombinator.com/item?id=26080163","imageRemote":null,"video":null,"channel":"ASK HN","channelUrl":"https://news.ycombinator.com/ask","author":"pseudobry","authorUrl":"https://news.ycombinator.com/user?id=pseudobry","authorImage":null,"authorSlug":null,"score":211,"views":null,"sharedCount":null,"likeCount":null,"sharedContent":null,"parent":{"__typename":"HnJson","localize":[{"title":"问HN：WFH期间的团队趣味活动创意？","locale":"zh"},{"title":"問HN：WFH期間的團隊趣味活動創意？","locale":"zh-Hant"}]}},{"__typename":"SocialMediaPost","id":"HnPost-26081208","excerpt":"","slug":"/hn/26081208","title":"The Queen has more power over British law than we thought","date":"February 10, 2021","dateISO":"2021-02-10T01:23:15.722Z","datetime":"2021-02-10 01:23","tags":["story","Hacker News"],"image":null,"imageAlt":null,"provider":"Hacker News","thirdPartyId":"26081208","url":"https://news.ycombinator.com/item?id=26081208","originalUrl":"https://www.theguardian.com/commentisfree/2021/feb/08/queen-power-british-law-queens-consent","imageRemote":"https://i.guim.co.uk/img/media/cef209006fd6b39432e7aa98664a10d48708ca65/0_232_3500_2101/master/3500.jpg?width=1200&height=630&quality=85&auto=format&fit=crop&overlay-align=bottom%2Cleft&overlay-width=100p&overlay-base64=L2ltZy9zdGF0aWMvb3ZlcmxheXMvdGctb3BpbmlvbnMucG5n&enable=upscale&s=d5f8dad0c097dc6b2a769889a4967ab7","video":null,"channel":null,"channelUrl":null,"author":"anonymfus","authorUrl":"https://news.ycombinator.com/user?id=anonymfus","authorImage":null,"authorSlug":null,"score":374,"views":null,"sharedCount":null,"likeCount":null,"sharedContent":null,"parent":{"__typename":"HnJson","localize":[{"title":"女王对英国法律的控制力比我们想象的要大得多","locale":"zh"},{"title":"女王對英國法律的控制力比我們想象的要大得多","locale":"zh-Hant"}]}},{"__typename":"SocialMediaPost","id":"HnPost-26082680","excerpt":"","slug":"/hn/26082680","title":"SDL Moves to GitHub","date":"February 10, 2021","dateISO":"2021-02-10T00:46:21.905Z","datetime":"2021-02-10 00:46","tags":["story","Hacker News"],"image":null,"imageAlt":null,"provider":"Hacker News","thirdPartyId":"26082680","url":"https://news.ycombinator.com/item?id=26082680","originalUrl":"https://discourse.libsdl.org/t/sdl-moving-to-github/28700/5","imageRemote":"https://discourse.libsdl.org/uploads/default/original/2X/7/7502c3c39c33c4309023972bdc0c0961f7ad78c4.png","video":null,"channel":null,"channelUrl":null,"author":"Bl4ckb0ne","authorUrl":"https://news.ycombinator.com/user?id=Bl4ckb0ne","authorImage":null,"authorSlug":null,"score":289,"views":null,"sharedCount":null,"likeCount":null,"sharedContent":null,"parent":{"__typename":"HnJson","localize":[{"title":"SDL 移至 GitHub","locale":"zh"},{"title":"SDL 移至 GitHub","locale":"zh-Hant"}]}},{"__typename":"SocialMediaPost","id":"HnPost-26080578","excerpt":"","slug":"/hn/26080578","title":"Browser Fuzzing at Mozilla","date":"February 09, 2021","dateISO":"2021-02-09T23:57:12.959Z","datetime":"2021-02-09 23:57","tags":["story","Hacker News"],"image":null,"imageAlt":null,"provider":"Hacker News","thirdPartyId":"26080578","url":"https://news.ycombinator.com/item?id=26080578","originalUrl":"https://hacks.mozilla.org/2021/02/browser-fuzzing-at-mozilla/","imageRemote":"https://hacks.mozilla.org/files/2021/02/Fuzzing-pipeline1-1.jpg","video":null,"channel":null,"channelUrl":null,"author":"gbrown_","authorUrl":"https://news.ycombinator.com/user?id=gbrown_","authorImage":null,"authorSlug":null,"score":231,"views":null,"sharedCount":null,"likeCount":null,"sharedContent":null,"parent":{"__typename":"HnJson","localize":[{"title":"Mozilla的浏览器模糊化","locale":"zh"},{"title":"Mozilla的瀏覽器模糊化","locale":"zh-Hant"}]}},{"__typename":"SocialMediaPost","id":"HnPost-26077294","excerpt":"","slug":"/hn/26077294","title":"Farmers are having to hack their own tractors  to make repairs","date":"February 09, 2021","dateISO":"2021-02-09T23:37:50.004Z","datetime":"2021-02-09 23:37","tags":["story","Hacker News"],"image":null,"imageAlt":null,"provider":"Hacker News","thirdPartyId":"26077294","url":"https://news.ycombinator.com/item?id=26077294","originalUrl":"https://www.thedrive.com/news/39158/farmers-are-having-to-hack-their-own-tractors-just-to-make-repairs","imageRemote":"https://api.thedrive.com/wp-content/uploads/2021/02/jdeere_970x546.jpg?quality=85","video":null,"channel":null,"channelUrl":null,"author":"clouddrover","authorUrl":"https://news.ycombinator.com/user?id=clouddrover","authorImage":null,"authorSlug":null,"score":278,"views":null,"sharedCount":null,"likeCount":null,"sharedContent":null,"parent":{"__typename":"HnJson","localize":[{"title":"农民不得不砍掉自己的拖拉机来进行维修。","locale":"zh"},{"title":"農民不得不砍掉自己的拖拉機來進行維修。","locale":"zh-Hant"}]}},{"__typename":"SocialMediaPost","id":"HnPost-26082303","excerpt":"","slug":"/hn/26082303","title":"Cops are playing music while citizens are filming to trigger copyright filters","date":"February 09, 2021","dateISO":"2021-02-09T22:58:54.664Z","datetime":"2021-02-09 22:58","tags":["story","Hacker News"],"image":null,"imageAlt":null,"provider":"Hacker News","thirdPartyId":"26082303","url":"https://news.ycombinator.com/item?id=26082303","originalUrl":"https://twitter.com/jason_koebler/status/1359213426740895744","imageRemote":null,"video":null,"channel":null,"channelUrl":null,"author":"edward","authorUrl":"https://news.ycombinator.com/user?id=edward","authorImage":null,"authorSlug":null,"score":959,"views":null,"sharedCount":null,"likeCount":null,"sharedContent":null,"parent":{"__typename":"HnJson","localize":[{"title":"警察在市民拍摄时播放音乐，引发版权过滤。","locale":"zh"},{"title":"警察在市民拍攝時播放音樂，引發版權過濾。","locale":"zh-Hant"}]}},{"__typename":"SocialMediaPost","id":"HnPost-26079389","excerpt":"","slug":"/hn/26079389","title":"Launch HN: SigNoz (YC W21) – Open-source alternative to DataDog","date":"February 09, 2021","dateISO":"2021-02-09T22:39:42.179Z","datetime":"2021-02-09 22:39","tags":["story","Hacker News"],"image":null,"imageAlt":null,"provider":"Hacker News","thirdPartyId":"26079389","url":"https://news.ycombinator.com/item?id=26079389","originalUrl":"https://news.ycombinator.com/item?id=26079389","imageRemote":null,"video":null,"channel":null,"channelUrl":null,"author":"pranay01","authorUrl":"https://news.ycombinator.com/user?id=pranay01","authorImage":null,"authorSlug":null,"score":222,"views":null,"sharedCount":null,"likeCount":null,"sharedContent":null,"parent":{"__typename":"HnJson","localize":[{"title":"推出HN：SigNoz(YC W21)--DataDog的开放源码替代方案。","locale":"zh"},{"title":"推出HN：SigNoz(YC W21)--DataDog的開放源碼替代方案。","locale":"zh-Hant"}]}},{"__typename":"SocialMediaPost","id":"HnPost-26082428","excerpt":"","slug":"/hn/26082428","title":"OpenStreetMap proven to be a highly accurate map in top US cities","date":"February 09, 2021","dateISO":"2021-02-09T22:39:42.179Z","datetime":"2021-02-09 22:39","tags":["story","Hacker News"],"image":null,"imageAlt":null,"provider":"Hacker News","thirdPartyId":"26082428","url":"https://news.ycombinator.com/item?id=26082428","originalUrl":"https://eng.lyft.com/how-lyft-discovered-openstreetmap-is-the-freshest-map-for-rideshare-a7a41bf92ec","imageRemote":"https://miro.medium.com/max/1200/0*fuDU1vIj1ASqSiFs","video":null,"channel":null,"channelUrl":null,"author":"clarecorthell","authorUrl":"https://news.ycombinator.com/user?id=clarecorthell","authorImage":null,"authorSlug":null,"score":871,"views":null,"sharedCount":null,"likeCount":null,"sharedContent":null,"parent":{"__typename":"HnJson","localize":[{"title":"事实证明，OpenStreetMap是美国顶级城市的高精度地图。","locale":"zh"},{"title":"事實證明，OpenStreetMap是美國頂級城市的高精度地圖。","locale":"zh-Hant"}]}},{"__typename":"SocialMediaPost","id":"HnPost-26080760","excerpt":"","slug":"/hn/26080760","title":"Pattern Matching Accepted for Python","date":"February 09, 2021","dateISO":"2021-02-09T22:24:05.503Z","datetime":"2021-02-09 22:24","tags":["story","Hacker News"],"image":null,"imageAlt":null,"provider":"Hacker News","thirdPartyId":"26080760","url":"https://news.ycombinator.com/item?id=26080760","originalUrl":"https://lwn.net/Articles/845480/","imageRemote":"https://static.lwn.net/images/logo/barepenguin-70.png","video":null,"channel":null,"channelUrl":null,"author":"eplanit","authorUrl":"https://news.ycombinator.com/user?id=eplanit","authorImage":null,"authorSlug":null,"score":646,"views":null,"sharedCount":null,"likeCount":null,"sharedContent":null,"parent":{"__typename":"HnJson","localize":[{"title":"接受Python的模式匹配","locale":"zh"},{"title":"接受Python的模式匹配","locale":"zh-Hant"}]}},{"__typename":"SocialMediaPost","id":"HnPost-26081672","excerpt":"","slug":"/hn/26081672","title":"Creeping as a Service","date":"February 09, 2021","dateISO":"2021-02-09T22:24:05.503Z","datetime":"2021-02-09 22:24","tags":["story","Hacker News"],"image":null,"imageAlt":null,"provider":"Hacker News","thirdPartyId":"26081672","url":"https://news.ycombinator.com/item?id=26081672","originalUrl":"https://every.to/divinations/creeping-as-a-service-craas","imageRemote":"https://d24ovhgu8s7341.cloudfront.net/uploads/post/social_media_image/1495/Social_1200x628.png","video":null,"channel":null,"channelUrl":null,"author":"dshipper","authorUrl":"https://news.ycombinator.com/user?id=dshipper","authorImage":null,"authorSlug":null,"score":351,"views":null,"sharedCount":null,"likeCount":null,"sharedContent":null,"parent":{"__typename":"HnJson","localize":[{"title":"匍匐作为一种服务","locale":"zh"},{"title":"匍匐作爲一種服務","locale":"zh-Hant"}]}},{"__typename":"SocialMediaPost","id":"HnPost-26079002","excerpt":"","slug":"/hn/26079002","title":"John McWhorter: The Neoracists","date":"February 09, 2021","dateISO":"2021-02-09T21:00:43.316Z","datetime":"2021-02-09 21:00","tags":["story","Hacker News"],"image":null,"imageAlt":null,"provider":"Hacker News","thirdPartyId":"26079002","url":"https://news.ycombinator.com/item?id=26079002","originalUrl":"https://www.persuasion.community/p/john-mcwhorter-the-neoracists","imageRemote":"https://cdn.substack.com/image/fetch/w_1200,c_limit,f_jpg,q_auto:good,fl_progressive:steep/https%3A%2F%2Fbucketeer-e05bbc84-baa3-437e-9518-adb32be77984.s3.amazonaws.com%2Fpublic%2Fimages%2Fd3f575ee-a995-499c-86fe-72680f8d5d12_700x312.jpeg","video":null,"channel":null,"channelUrl":null,"author":"paulpauper","authorUrl":"https://news.ycombinator.com/user?id=paulpauper","authorImage":null,"authorSlug":null,"score":192,"views":null,"sharedCount":null,"likeCount":null,"sharedContent":null,"parent":{"__typename":"HnJson","localize":[{"title":"约翰-麦克沃特：新种族主义者","locale":"zh"},{"title":"約翰-麥克沃特：新種族主義者","locale":"zh-Hant"}]}},{"__typename":"SocialMediaPost","id":"HnPost-26077823","excerpt":"","slug":"/hn/26077823","title":"Haskell: The Bad Parts, part 2 (2020)","date":"February 09, 2021","dateISO":"2021-02-09T20:07:36.333Z","datetime":"2021-02-09 20:07","tags":["story","Hacker News"],"image":null,"imageAlt":null,"provider":"Hacker News","thirdPartyId":"26077823","url":"https://news.ycombinator.com/item?id=26077823","originalUrl":"https://www.snoyman.com/blog/2020/11/haskell-bad-parts-2","imageRemote":"https://www.snoyman.com/img/snoylogo.png","video":null,"channel":null,"channelUrl":null,"author":"anuragsoni","authorUrl":"https://news.ycombinator.com/user?id=anuragsoni","authorImage":null,"authorSlug":null,"score":257,"views":null,"sharedCount":null,"likeCount":null,"sharedContent":null,"parent":{"__typename":"HnJson","localize":[{"title":"Haskell: 坏的部分，第二部分(2020年)","locale":"zh"},{"title":"Haskell: 壞的部分，第二部分(2020年)","locale":"zh-Hant"}]}},{"__typename":"SocialMediaPost","id":"HnPost-26076731","excerpt":"","slug":"/hn/26076731","title":"Pseudophilosophy encourages confused, self-indulgent thinking","date":"February 09, 2021","dateISO":"2021-02-09T18:24:20.719Z","datetime":"2021-02-09 18:24","tags":["story","Hacker News"],"image":null,"imageAlt":null,"provider":"Hacker News","thirdPartyId":"26076731","url":"https://news.ycombinator.com/item?id=26076731","originalUrl":"https://psyche.co/ideas/pseudophilosophy-encourages-confused-self-indulgent-thinking","imageRemote":"https://epsilon.psyche.co/images/c9dd3ad2-33fb-4920-bda5-af5fd800c3fc/2700x1530.jpg","video":null,"channel":null,"channelUrl":null,"author":"pseudolus","authorUrl":"https://news.ycombinator.com/user?id=pseudolus","authorImage":null,"authorSlug":null,"score":187,"views":null,"sharedCount":null,"likeCount":null,"sharedContent":null,"parent":{"__typename":"HnJson","localize":[{"title":"伪哲学鼓励了混乱的、自我放纵的思考","locale":"zh"},{"title":"僞哲學鼓勵了混亂的、自我放縱的思考","locale":"zh-Hant"}]}},{"__typename":"SocialMediaPost","id":"HnPost-26076680","excerpt":"","slug":"/hn/26076680","title":"José Valim Reveals “Project Nx” (Numerical Elixir)","date":"February 09, 2021","dateISO":"2021-02-09T17:50:54.192Z","datetime":"2021-02-09 17:50","tags":["story","Hacker News"],"image":null,"imageAlt":null,"provider":"Hacker News","thirdPartyId":"26076680","url":"https://news.ycombinator.com/item?id=26076680","originalUrl":"https://thinkingelixir.com/podcast-episodes/034-jose-valim-reveals-project-nx/","imageRemote":"https://thinkingelixir.com/wp-content/uploads/2020/05/podcast-graphic_3000px.png","video":null,"channel":null,"channelUrl":null,"author":"thibaut_barrere","authorUrl":"https://news.ycombinator.com/user?id=thibaut_barrere","authorImage":null,"authorSlug":null,"score":352,"views":null,"sharedCount":null,"likeCount":null,"sharedContent":null,"parent":{"__typename":"HnJson","localize":[{"title":"何塞-瓦里姆透露了 \"Project Nx\"（Numerical Elixir）。","locale":"zh"},{"title":"何塞-瓦里姆透露了 \"Project Nx\"（Numerical Elixir）。","locale":"zh-Hant"}]}},{"__typename":"SocialMediaPost","id":"HnPost-26075697","excerpt":"","slug":"/hn/26075697","title":"A Statement on Recent Events Between Signal and the Anti-Censorship Community","date":"February 09, 2021","dateISO":"2021-02-09T17:38:52.115Z","datetime":"2021-02-09 17:38","tags":["story","Hacker News"],"image":null,"imageAlt":null,"provider":"Hacker News","thirdPartyId":"26075697","url":"https://news.ycombinator.com/item?id=26075697","originalUrl":"https://github.com/net4people/bbs/issues/63","imageRemote":"https://avatars.githubusercontent.com/u/33761262?s=400&v=4","video":null,"channel":null,"channelUrl":null,"author":"1una","authorUrl":"https://news.ycombinator.com/user?id=1una","authorImage":null,"authorSlug":null,"score":242,"views":null,"sharedCount":null,"likeCount":null,"sharedContent":null,"parent":{"__typename":"HnJson","localize":[{"title":"关于Signal和反审查界最近事件的声明。","locale":"zh"},{"title":"關於Signal和反審查界最近事件的聲明。","locale":"zh-Hant"}]}},{"__typename":"SocialMediaPost","id":"HnPost-26078301","excerpt":"","slug":"/hn/26078301","title":"Facebook sued for ‘losing control’ of users’ data","date":"February 09, 2021","dateISO":"2021-02-09T17:38:52.115Z","datetime":"2021-02-09 17:38","tags":["story","Hacker News"],"image":null,"imageAlt":null,"provider":"Hacker News","thirdPartyId":"26078301","url":"https://news.ycombinator.com/item?id=26078301","originalUrl":"https://www.bbc.com/news/technology-55998588","imageRemote":"https://ichef.bbci.co.uk/news/1024/branded_news/13B39/production/_116879608_hi065358355.jpg","video":null,"channel":null,"channelUrl":null,"author":"bmcn2020","authorUrl":"https://news.ycombinator.com/user?id=bmcn2020","authorImage":null,"authorSlug":null,"score":327,"views":null,"sharedCount":null,"likeCount":null,"sharedContent":null,"parent":{"__typename":"HnJson","localize":[{"title":"Facebook因 \"失去对用户数据的控制 \"而被起诉。","locale":"zh"},{"title":"Facebook因 \"失去對用戶數據的控制 \"而被起訴。","locale":"zh-Hant"}]}},{"__typename":"SocialMediaPost","id":"HnPost-26075670","excerpt":"","slug":"/hn/26075670","title":"ReactOS Updates","date":"February 09, 2021","dateISO":"2021-02-09T16:51:40.391Z","datetime":"2021-02-09 16:51","tags":["story","Hacker News"],"image":null,"imageAlt":null,"provider":"Hacker News","thirdPartyId":"26075670","url":"https://news.ycombinator.com/item?id=26075670","originalUrl":"https://reactos.org/blogs/newsletter-100/","imageRemote":"https://reactos.org/sites/default/files/Mizu-Desktop.png","video":null,"channel":null,"channelUrl":null,"author":"jeditobe","authorUrl":"https://news.ycombinator.com/user?id=jeditobe","authorImage":null,"authorSlug":null,"score":225,"views":null,"sharedCount":null,"likeCount":null,"sharedContent":null,"parent":{"__typename":"HnJson","localize":[{"title":"ReactOS更新","locale":"zh"},{"title":"ReactOS更新","locale":"zh-Hant"}]}},{"__typename":"SocialMediaPost","id":"HnPost-26076391","excerpt":"","slug":"/hn/26076391","title":"Man to pay £25,000 ($34,000) damages over negative TrustPilot review","date":"February 09, 2021","dateISO":"2021-02-09T16:51:40.391Z","datetime":"2021-02-09 16:51","tags":["story","Hacker News"],"image":null,"imageAlt":null,"provider":"Hacker News","thirdPartyId":"26076391","url":"https://news.ycombinator.com/item?id=26076391","originalUrl":"https://www.bbc.com/news/technology-55981600","imageRemote":"https://ichef.bbci.co.uk/news/1024/branded_news/11C53/production/_116878727_gettyimages-1221327322.jpg","video":null,"channel":null,"channelUrl":null,"author":"pseudolus","authorUrl":"https://news.ycombinator.com/user?id=pseudolus","authorImage":null,"authorSlug":null,"score":291,"views":null,"sharedCount":null,"likeCount":null,"sharedContent":null,"parent":{"__typename":"HnJson","localize":[{"title":"男子因TrustPilot负面评论需赔偿2.5万英镑（3.4万美元）的损失。","locale":"zh"},{"title":"男子因TrustPilot負面評論需賠償2.5萬英鎊（3.4萬美元）的損失。","locale":"zh-Hant"}]}},{"__typename":"SocialMediaPost","id":"HnPost-26074188","excerpt":"","slug":"/hn/26074188","title":"The World’s Aging Dams","date":"February 09, 2021","dateISO":"2021-02-09T16:04:45.777Z","datetime":"2021-02-09 16:04","tags":["story","Hacker News"],"image":null,"imageAlt":null,"provider":"Hacker News","thirdPartyId":"26074188","url":"https://news.ycombinator.com/item?id=26074188","originalUrl":"https://e360.yale.edu/features/water-warning-the-looming-threat-of-the-worlds-aging-dams","imageRemote":"https://e360.yale.edu/assets/site/shutterstock_1376116481_Kariba-Dam_web2.jpg","video":null,"channel":null,"channelUrl":null,"author":"robbybaron","authorUrl":"https://news.ycombinator.com/user?id=robbybaron","authorImage":null,"authorSlug":null,"score":219,"views":null,"sharedCount":null,"likeCount":null,"sharedContent":null,"parent":{"__typename":"HnJson","localize":[{"title":"世界上老化的水坝","locale":"zh"},{"title":"世界上老化的水壩","locale":"zh-Hant"}]}},{"__typename":"SocialMediaPost","id":"HnPost-26076050","excerpt":"","slug":"/hn/26076050","title":"No support Linux hosting shutting down from hack","date":"February 09, 2021","dateISO":"2021-02-09T14:40:40.845Z","datetime":"2021-02-09 14:40","tags":["story","Hacker News"],"image":null,"imageAlt":null,"provider":"Hacker News","thirdPartyId":"26076050","url":"https://news.ycombinator.com/item?id=26076050","originalUrl":"https://www.nosupportlinuxhosting.com/","imageRemote":null,"video":null,"channel":null,"channelUrl":null,"author":"ourmandave","authorUrl":"https://news.ycombinator.com/user?id=ourmandave","authorImage":null,"authorSlug":null,"score":352,"views":null,"sharedCount":null,"likeCount":null,"sharedContent":null,"parent":{"__typename":"HnJson","localize":[{"title":"不支持Linux主机从黑客手中关机","locale":"zh"},{"title":"不支持Linux主機從黑客手中關機","locale":"zh-Hant"}]}}]}},"pageContext":{"basePath":"/","pageType":"tag","tag":"Hacker News","tagsFilter":{"id":{"glob":"!*Post-1"}},"filter":{"id":{"glob":"!*Post-1"},"tags":{"eq":"Hacker News"}},"limit":25,"skip":975,"total":2600,"totalPages":104,"currentPage":40,"maxWidth":1024,"maxHeight":512,"locale":"en","hrefLang":"en-US","originalPath":"/tags/hacker-news/page/40","dateFormat":"MM/DD/YYYY"}},"staticQueryHashes":["1239077767","2506312863","2744905544","3025052997","3493603132","3493603132","3513215887","386998304"]}