{"componentChunkName":"component---gatsby-theme-buzzing-src-gatsby-theme-timeline-templates-posts-query-js","path":"/zh-Hant/tags/hacker-news/page/25","result":{"data":{"site":{"siteMetadata":{"title":"Reddit 热门","description":"用中文浏览Reddit热门内容","social":[{"name":"Twitter","url":"https://twitter.com/gatsbyjs","external":null,"prefetch":null},{"name":"GitHub","url":"https://github.com/gatsbyjs","external":null,"prefetch":null}],"menuLinks":[],"localize":[{"locale":"en","title":"Buzzing on Reddit","description":"See what's buzzing on Reddit in your native language","social":[{"name":"Reddit","url":"https://www.reddit.com/","external":true,"prefetch":null}],"menuLinks":[{"name":"Weekly Selection","url":"/issues","external":null,"prefetch":null},{"name":"RSS","url":"/rss.xml","external":null,"prefetch":false}]},{"locale":"zh-Hant","title":"Reddit 熱門","description":"用中文瀏覽Reddit熱門內容","social":null,"menuLinks":null}]}},"tagsGroup":{"group":[{"fieldValue":"ASK HN","totalCount":44},{"fieldValue":"Bitcoin","totalCount":4},{"fieldValue":"Hacker News","totalCount":2600},{"fieldValue":"Poll","totalCount":1},{"fieldValue":"SaveAMC","totalCount":1},{"fieldValue":"Show HN","totalCount":89},{"fieldValue":"bitcoin","totalCount":3},{"fieldValue":"investing","totalCount":797},{"fieldValue":"poll","totalCount":1},{"fieldValue":"reddit","totalCount":4938},{"fieldValue":"science","totalCount":1},{"fieldValue":"stocks","totalCount":1592},{"fieldValue":"story","totalCount":2599},{"fieldValue":"tweet","totalCount":814},{"fieldValue":"wallstreetbets","totalCount":2549}]},"allBlogPost":{"nodes":[{"__typename":"SocialMediaPost","id":"HnPost-26247278","excerpt":"","slug":"/hn/26247278","title":"LinkedIn is building a gig marketplace","date":"February 24, 2021","dateISO":"2021-02-24T10:14:29.088Z","datetime":"2021-02-24 10:14","tags":["story","Hacker News"],"image":null,"imageAlt":null,"provider":"Hacker News","thirdPartyId":"26247278","url":"https://news.ycombinator.com/item?id=26247278","originalUrl":"https://aimgroup.com/2021/02/22/linkedin-building-gig-marketplace/","imageRemote":"https://aimgroup.com/wp-content/uploads/2021/02/1612767907416.jpg","video":null,"channel":null,"channelUrl":null,"author":"ArtTimeInvestor","authorUrl":"https://news.ycombinator.com/user?id=ArtTimeInvestor","authorImage":null,"authorSlug":null,"score":385,"views":null,"sharedCount":null,"likeCount":null,"sharedContent":null,"parent":{"__typename":"HnJson","localize":[{"title":"LinkedIn正在建立一个gig市场","locale":"zh"},{"title":"LinkedIn正在建立一個gig市場","locale":"zh-Hant"}]}},{"__typename":"SocialMediaPost","id":"HnPost-26246049","excerpt":"","slug":"/hn/26246049","title":"Making Games on Your Own as an Engineer","date":"February 24, 2021","dateISO":"2021-02-24T09:49:05.582Z","datetime":"2021-02-24 09:49","tags":["story","Hacker News"],"image":null,"imageAlt":null,"provider":"Hacker News","thirdPartyId":"26246049","url":"https://news.ycombinator.com/item?id=26246049","originalUrl":"https://blog.eyas.sh/2021/02/unity-for-engineers-pt11-development-process/","imageRemote":"https://blog.eyas.sh/static/sear-greyson-K-ZsC7YdJ6Y-unsplash-a47992d53cb173f94aa3de6924e1f6d8.jpg","video":null,"channel":null,"channelUrl":null,"author":"Eyas","authorUrl":"https://news.ycombinator.com/user?id=Eyas","authorImage":null,"authorSlug":null,"score":344,"views":null,"sharedCount":null,"likeCount":null,"sharedContent":null,"parent":{"__typename":"HnJson","localize":[{"title":"作为工程师自己制作游戏","locale":"zh"},{"title":"作爲工程師自己製作遊戲","locale":"zh-Hant"}]}},{"__typename":"SocialMediaPost","id":"HnPost-26242264","excerpt":"","slug":"/hn/26242264","title":"Try to guess if code is real or GPT2-generated","date":"February 24, 2021","dateISO":"2021-02-24T09:32:14.723Z","datetime":"2021-02-24 09:32","tags":["story","Hacker News"],"image":null,"imageAlt":null,"provider":"Hacker News","thirdPartyId":"26242264","url":"https://news.ycombinator.com/item?id=26242264","originalUrl":"https://doesnotexist.codes","imageRemote":"https://doesnotexist.codes/messlab.png","video":null,"channel":null,"channelUrl":null,"author":"AlexDenisov","authorUrl":"https://news.ycombinator.com/user?id=AlexDenisov","authorImage":null,"authorSlug":null,"score":200,"views":null,"sharedCount":null,"likeCount":null,"sharedContent":null,"parent":{"__typename":"HnJson","localize":[{"title":"试着猜测代码是真实的还是GPT2生成的。","locale":"zh"},{"title":"試着猜測代碼是真實的還是GPT2生成的。","locale":"zh-Hant"}]}},{"__typename":"SocialMediaPost","id":"HnPost-26245563","excerpt":"","slug":"/hn/26245563","title":"Building an E-Ink Laptop","date":"February 24, 2021","dateISO":"2021-02-24T08:45:02.883Z","datetime":"2021-02-24 08:45","tags":["story","Hacker News"],"image":null,"imageAlt":null,"provider":"Hacker News","thirdPartyId":"26245563","url":"https://news.ycombinator.com/item?id=26245563","originalUrl":"https://alexsoto.dev/building-an-e-ink-laptop.html","imageRemote":"https://alexsoto.dev/static/building-an-e-ink-laptop/eink-t480.jpg","video":null,"channel":null,"channelUrl":null,"author":"alex-a-soto","authorUrl":"https://news.ycombinator.com/user?id=alex-a-soto","authorImage":null,"authorSlug":null,"score":342,"views":null,"sharedCount":null,"likeCount":null,"sharedContent":null,"parent":{"__typename":"HnJson","localize":[{"title":"构建一个电子墨水笔记本","locale":"zh"},{"title":"構建一個電子墨水筆記本","locale":"zh-Hant"}]}},{"__typename":"SocialMediaPost","id":"HnPost-26240901","excerpt":"","slug":"/hn/26240901","title":"The Thousand Brains Theory of Intelligence (2019)","date":"February 24, 2021","dateISO":"2021-02-24T07:20:37.958Z","datetime":"2021-02-24 07:20","tags":["story","Hacker News"],"image":null,"imageAlt":null,"provider":"Hacker News","thirdPartyId":"26240901","url":"https://news.ycombinator.com/item?id=26240901","originalUrl":"https://numenta.com/blog/2019/01/16/the-thousand-brains-theory-of-intelligence/","imageRemote":"http://numenta.com/wp-content/uploads/blog/2019/01/16/images/classic-vs-thousand-brains.png","video":null,"channel":null,"channelUrl":null,"author":"hacksilver","authorUrl":"https://news.ycombinator.com/user?id=hacksilver","authorImage":null,"authorSlug":null,"score":180,"views":null,"sharedCount":null,"likeCount":null,"sharedContent":null,"parent":{"__typename":"HnJson","localize":[{"title":"千脑智能理论(2019)","locale":"zh"},{"title":"千腦智能理論(2019)","locale":"zh-Hant"}]}},{"__typename":"SocialMediaPost","id":"HnPost-26239236","excerpt":"","slug":"/hn/26239236","title":"Recreating Real-World Terrain with React, Three.js and WebGL Shaders","date":"February 24, 2021","dateISO":"2021-02-24T06:44:39.387Z","datetime":"2021-02-24 06:44","tags":["story","Hacker News"],"image":null,"imageAlt":null,"provider":"Hacker News","thirdPartyId":"26239236","url":"https://news.ycombinator.com/item?id=26239236","originalUrl":"https://techblog.geekyants.com/recreating-real-world-terrain-with-react-threejs-and-webgl-shaders-1","imageRemote":"https://hashnode.com/utility/r?url=https%3A%2F%2Fcdn.hashnode.com%2Fres%2Fhashnode%2Fimage%2Fupload%2Fv1612255942863%2Fe1R1sFrCk.png%3Fw%3D1200%26h%3D630%26fit%3Dcrop%26crop%3Dentropy%26auto%3Dcompress%26fm%3Dpng","video":null,"channel":null,"channelUrl":null,"author":"ObiWanFrijoles","authorUrl":"https://news.ycombinator.com/user?id=ObiWanFrijoles","authorImage":null,"authorSlug":null,"score":172,"views":null,"sharedCount":null,"likeCount":null,"sharedContent":null,"parent":{"__typename":"HnJson","localize":[{"title":"用React、Three.js和WebGL Shaders重现真实世界的地形","locale":"zh"},{"title":"用React、Three.js和WebGL Shaders重現真實世界的地形","locale":"zh-Hant"}]}},{"__typename":"SocialMediaPost","id":"HnPost-26246435","excerpt":"","slug":"/hn/26246435","title":"Fry's Electronics is closing all stores","date":"February 24, 2021","dateISO":"2021-02-24T06:25:59.056Z","datetime":"2021-02-24 06:25","tags":["story","Hacker News"],"image":null,"imageAlt":null,"provider":"Hacker News","thirdPartyId":"26246435","url":"https://news.ycombinator.com/item?id=26246435","originalUrl":"https://twitter.com/bill0004/status/1364407906192424964","imageRemote":null,"video":null,"channel":null,"channelUrl":null,"author":"synack","authorUrl":"https://news.ycombinator.com/user?id=synack","authorImage":null,"authorSlug":null,"score":480,"views":null,"sharedCount":null,"likeCount":null,"sharedContent":null,"parent":{"__typename":"HnJson","localize":[{"title":"福莱电子将关闭所有门店","locale":"zh"},{"title":"福萊電子將關閉所有門店","locale":"zh-Hant"}]}},{"__typename":"SocialMediaPost","id":"HnPost-26243964","excerpt":"","slug":"/hn/26243964","title":"Architecture of the Playstation 2","date":"February 24, 2021","dateISO":"2021-02-24T05:33:01.037Z","datetime":"2021-02-24 05:33","tags":["story","Hacker News"],"image":null,"imageAlt":null,"provider":"Hacker News","thirdPartyId":"26243964","url":"https://news.ycombinator.com/item?id=26243964","originalUrl":"https://www.copetti.org/writings/consoles/playstation-2/","imageRemote":"https://www.copetti.org/images/consoles/ps2/diagram.png","video":null,"channel":null,"channelUrl":null,"author":"biwasa","authorUrl":"https://news.ycombinator.com/user?id=biwasa","authorImage":null,"authorSlug":null,"score":289,"views":null,"sharedCount":null,"likeCount":null,"sharedContent":null,"parent":{"__typename":"HnJson","localize":[{"title":"Playstation 2的结构","locale":"zh"},{"title":"Playstation 2的結構","locale":"zh-Hant"}]}},{"__typename":"SocialMediaPost","id":"HnPost-26240339","excerpt":"","slug":"/hn/26240339","title":"10 Years of Open-Source Visualization: Did I learn anything from D3.js?","date":"February 24, 2021","dateISO":"2021-02-24T03:25:09.921Z","datetime":"2021-02-24 03:25","tags":["story","Hacker News"],"image":null,"imageAlt":null,"provider":"Hacker News","thirdPartyId":"26240339","url":"https://news.ycombinator.com/item?id=26240339","originalUrl":"https://observablehq.com/@mbostock/10-years-of-open-source-visualization","imageRemote":"https://static.observableusercontent.com/thumbnail/72daccb466b572bcaab79bd196100c84eefc293efbaab4237d891c037f3aebdf.jpg","video":null,"channel":null,"channelUrl":null,"author":"serial_dev","authorUrl":"https://news.ycombinator.com/user?id=serial_dev","authorImage":null,"authorSlug":null,"score":367,"views":null,"sharedCount":null,"likeCount":null,"sharedContent":null,"parent":{"__typename":"HnJson","localize":[{"title":"开源可视化10年。我从D3.js中学到了什么吗？","locale":"zh"},{"title":"開源可視化10年。我從D3.js中學到了什麼嗎？","locale":"zh-Hant"}]}},{"__typename":"SocialMediaPost","id":"HnPost-26245419","excerpt":"","slug":"/hn/26245419","title":"American Airlines Confirms: UFO Contact over New Mexico on Sunday","date":"February 24, 2021","dateISO":"2021-02-24T03:25:09.921Z","datetime":"2021-02-24 03:25","tags":["story","Hacker News"],"image":null,"imageAlt":null,"provider":"Hacker News","thirdPartyId":"26245419","url":"https://news.ycombinator.com/item?id=26245419","originalUrl":"https://viewfromthewing.com/american-airlines-pilot-reported-ufo-contact-over-new-mexico-on-sunday/","imageRemote":"https://viewfromthewing.com/wp-content/uploads/2021/02/truth-is-out-there.png","video":null,"channel":null,"channelUrl":null,"author":"miles","authorUrl":"https://news.ycombinator.com/user?id=miles","authorImage":null,"authorSlug":null,"score":328,"views":null,"sharedCount":null,"likeCount":null,"sharedContent":null,"parent":{"__typename":"HnJson","localize":[{"title":"美国航空公司证实： 周日在新墨西哥州上空与UFO接触","locale":"zh"},{"title":"美國航空公司證實： 週日在新墨西哥州上空與UFO接觸","locale":"zh-Hant"}]}},{"__typename":"SocialMediaPost","id":"HnPost-26242991","excerpt":"","slug":"/hn/26242991","title":"Taking a Stand in the War on General-Purpose Computing","date":"February 24, 2021","dateISO":"2021-02-24T00:59:19.194Z","datetime":"2021-02-24 00:59","tags":["story","Hacker News"],"image":null,"imageAlt":null,"provider":"Hacker News","thirdPartyId":"26242991","url":"https://news.ycombinator.com/item?id=26242991","originalUrl":"https://cheapskatesguide.org/articles/war-on-gp-computing.html","imageRemote":null,"video":null,"channel":null,"channelUrl":null,"author":"Funes-","authorUrl":"https://news.ycombinator.com/user?id=Funes-","authorImage":null,"authorSlug":null,"score":276,"views":null,"sharedCount":null,"likeCount":null,"sharedContent":null,"parent":{"__typename":"HnJson","localize":[{"title":"在通用计算的战争中表态","locale":"zh"},{"title":"在通用計算的戰爭中表態","locale":"zh-Hant"}]}},{"__typename":"SocialMediaPost","id":"HnPost-26243546","excerpt":"","slug":"/hn/26243546","title":"I helped build ByteDance's censorship machine","date":"February 24, 2021","dateISO":"2021-02-24T00:00:26.426Z","datetime":"2021-02-24 00:00","tags":["story","Hacker News"],"image":null,"imageAlt":null,"provider":"Hacker News","thirdPartyId":"26243546","url":"https://news.ycombinator.com/item?id=26243546","originalUrl":"https://www.protocol.com/china/i-built-bytedance-censorship-machine","imageRemote":"https://www.protocol.com/media-library/eyJhbGciOiJIUzI1NiIsInR5cCI6IkpXVCJ9.eyJpbWFnZSI6Imh0dHBzOi8vYXNzZXRzLnJibC5tcy8yNTY2MTU0Mi9vcmlnaW4uanBnIiwiZXhwaXJlc19hdCI6MTYyNzMzMDMzNn0.2Yk1TLdvWHmFd4vcSp8VMd9rEXZq29oiXqMuBcx_ZVY/image.jpg?width=1200&coordinates=0%2C250%2C0%2C250&height=600","video":null,"channel":null,"channelUrl":null,"author":"hker","authorUrl":"https://news.ycombinator.com/user?id=hker","authorImage":null,"authorSlug":null,"score":198,"views":null,"sharedCount":null,"likeCount":null,"sharedContent":null,"parent":{"__typename":"HnJson","localize":[{"title":"我帮助建立了ByteDance的审查机器。","locale":"zh"},{"title":"我幫助建立了ByteDance的審查機器。","locale":"zh-Hant"}]}},{"__typename":"SocialMediaPost","id":"HnPost-26239156","excerpt":"","slug":"/hn/26239156","title":"Samsung now updates Android for longer than Google does","date":"February 23, 2021","dateISO":"2021-02-23T23:42:17.384Z","datetime":"2021-02-23 23:42","tags":["story","Hacker News"],"image":null,"imageAlt":null,"provider":"Hacker News","thirdPartyId":"26239156","url":"https://news.ycombinator.com/item?id=26239156","originalUrl":"https://arstechnica.com/gadgets/2021/02/samsung-now-updates-android-for-longer-than-google-does/","imageRemote":"https://cdn.arstechnica.net/wp-content/uploads/2021/02/Samsung-Galaxy-S21-760x380.jpg","video":null,"channel":null,"channelUrl":null,"author":"samizdis","authorUrl":"https://news.ycombinator.com/user?id=samizdis","authorImage":null,"authorSlug":null,"score":194,"views":null,"sharedCount":null,"likeCount":null,"sharedContent":null,"parent":{"__typename":"HnJson","localize":[{"title":"三星现在更新安卓系统的时间比谷歌长","locale":"zh"},{"title":"三星現在更新安卓系統的時間比谷歌長","locale":"zh-Hant"}]}},{"__typename":"SocialMediaPost","id":"HnPost-26237823","excerpt":"","slug":"/hn/26237823","title":"Letters from House Democrats to Cable Providers [pdf]","date":"February 23, 2021","dateISO":"2021-02-23T21:43:48.700Z","datetime":"2021-02-23 21:43","tags":["story","Hacker News"],"image":null,"imageAlt":null,"provider":"Hacker News","thirdPartyId":"26237823","url":"https://news.ycombinator.com/item?id=26237823","originalUrl":"https://eshoo.house.gov/sites/eshoo.house.gov/files/Eshoo-McNerney-TV-Misinfo%20Letters-2.22.21.pdf","imageRemote":null,"video":null,"channel":null,"channelUrl":null,"author":"temp8964","authorUrl":"https://news.ycombinator.com/user?id=temp8964","authorImage":null,"authorSlug":null,"score":243,"views":null,"sharedCount":null,"likeCount":null,"sharedContent":null,"parent":{"__typename":"HnJson","localize":[{"title":"众议院民主党人给有线电视供应商的信 [pdf]","locale":"zh"},{"title":"衆議院民主黨人給有線電視供應商的信 [pdf]","locale":"zh-Hant"}]}},{"__typename":"SocialMediaPost","id":"HnPost-26238262","excerpt":"","slug":"/hn/26238262","title":"Mypyc: Compile type-annotated Python to C","date":"February 23, 2021","dateISO":"2021-02-23T21:28:18.239Z","datetime":"2021-02-23 21:28","tags":["story","Hacker News"],"image":null,"imageAlt":null,"provider":"Hacker News","thirdPartyId":"26238262","url":"https://news.ycombinator.com/item?id=26238262","originalUrl":"https://github.com/python/mypy/tree/master/mypyc","imageRemote":"https://avatars.githubusercontent.com/u/1525981?s=400&v=4","video":null,"channel":null,"channelUrl":null,"author":"mvolfik","authorUrl":"https://news.ycombinator.com/user?id=mvolfik","authorImage":null,"authorSlug":null,"score":230,"views":null,"sharedCount":null,"likeCount":null,"sharedContent":null,"parent":{"__typename":"HnJson","localize":[{"title":"Mypyc: 将经过类型注释的Python编译成C语言。","locale":"zh"},{"title":"Mypyc: 將經過類型註釋的Python編譯成C語言。","locale":"zh-Hant"}]}},{"__typename":"SocialMediaPost","id":"HnPost-26226273","excerpt":"","slug":"/hn/26226273","title":"Noise pollution hurts the heart","date":"February 23, 2021","dateISO":"2021-02-23T20:39:24.662Z","datetime":"2021-02-23 20:39","tags":["story","Hacker News"],"image":null,"imageAlt":null,"provider":"Hacker News","thirdPartyId":"26226273","url":"https://news.ycombinator.com/item?id=26226273","originalUrl":"https://www.theatlantic.com/health/archive/2021/02/how-noise-harms-heart/618091/","imageRemote":"https://cdn.theatlantic.com/thumbor/q0efvkoY-NMAopEEViqO8lK_n2w=/8x910:5921x3990/960x500/https://cdn.theatlantic.com/assets/media/img/mt/2021/02/GettyImages_1127953165/original.jpg","video":null,"channel":null,"channelUrl":null,"author":"prostoalex","authorUrl":"https://news.ycombinator.com/user?id=prostoalex","authorImage":null,"authorSlug":null,"score":244,"views":null,"sharedCount":null,"likeCount":null,"sharedContent":null,"parent":{"__typename":"HnJson","localize":[{"title":"噪声污染伤人心","locale":"zh"},{"title":"噪聲污染傷人心","locale":"zh-Hant"}]}},{"__typename":"SocialMediaPost","id":"HnPost-26236325","excerpt":"","slug":"/hn/26236325","title":"Gridcoin: An open-source cryptocurrency that rewards volunteer computing","date":"February 23, 2021","dateISO":"2021-02-23T20:25:58.043Z","datetime":"2021-02-23 20:25","tags":["story","Hacker News"],"image":null,"imageAlt":null,"provider":"Hacker News","thirdPartyId":"26236325","url":"https://news.ycombinator.com/item?id=26236325","originalUrl":"https://en.wikipedia.org/wiki/Gridcoin","imageRemote":"https://upload.wikimedia.org/wikipedia/commons/7/79/Grc_universe_logo.png","video":null,"channel":null,"channelUrl":null,"author":"guerrilla","authorUrl":"https://news.ycombinator.com/user?id=guerrilla","authorImage":null,"authorSlug":null,"score":230,"views":null,"sharedCount":null,"likeCount":null,"sharedContent":null,"parent":{"__typename":"HnJson","localize":[{"title":"网格币：一种奖励志愿计算的开源加密货币。","locale":"zh"},{"title":"網格幣：一種獎勵志願計算的開源加密貨幣。","locale":"zh-Hant"}]}},{"__typename":"SocialMediaPost","id":"HnPost-26236908","excerpt":"","slug":"/hn/26236908","title":"You need to be able to run your system","date":"February 23, 2021","dateISO":"2021-02-23T20:25:58.043Z","datetime":"2021-02-23 20:25","tags":["story","Hacker News"],"image":null,"imageAlt":null,"provider":"Hacker News","thirdPartyId":"26236908","url":"https://news.ycombinator.com/item?id=26236908","originalUrl":"http://catern.com/run.html","imageRemote":null,"video":null,"channel":null,"channelUrl":null,"author":"catern","authorUrl":"https://news.ycombinator.com/user?id=catern","authorImage":null,"authorSlug":null,"score":289,"views":null,"sharedCount":null,"likeCount":null,"sharedContent":null,"parent":{"__typename":"HnJson","localize":[{"title":"你需要能够运行你的系统","locale":"zh"},{"title":"你需要能夠運行你的系統","locale":"zh-Hant"}]}},{"__typename":"SocialMediaPost","id":"HnPost-26239711","excerpt":"","slug":"/hn/26239711","title":"Free for Developers","date":"February 23, 2021","dateISO":"2021-02-23T20:01:38.684Z","datetime":"2021-02-23 20:01","tags":["story","Hacker News"],"image":null,"imageAlt":null,"provider":"Hacker News","thirdPartyId":"26239711","url":"https://news.ycombinator.com/item?id=26239711","originalUrl":"https://free-for.dev/#/","imageRemote":null,"video":null,"channel":null,"channelUrl":null,"author":"fs111","authorUrl":"https://news.ycombinator.com/user?id=fs111","authorImage":null,"authorSlug":null,"score":928,"views":null,"sharedCount":null,"likeCount":null,"sharedContent":null,"parent":{"__typename":"HnJson","localize":[{"title":"开发者免费","locale":"zh"},{"title":"開發者免費","locale":"zh-Hant"}]}},{"__typename":"SocialMediaPost","id":"HnPost-26237368","excerpt":"","slug":"/hn/26237368","title":"Teaching Compilers Backward","date":"February 23, 2021","dateISO":"2021-02-23T19:29:26.124Z","datetime":"2021-02-23 19:29","tags":["story","Hacker News"],"image":null,"imageAlt":null,"provider":"Hacker News","thirdPartyId":"26237368","url":"https://news.ycombinator.com/item?id=26237368","originalUrl":"https://blog.sigplan.org/2021/02/23/teaching-compilers-backward/","imageRemote":"https://blog.sigplan.org/wp-content/uploads/2021/02/shutterstock_671583940.jpg","video":null,"channel":null,"channelUrl":null,"author":"azhenley","authorUrl":"https://news.ycombinator.com/user?id=azhenley","authorImage":null,"authorSlug":null,"score":268,"views":null,"sharedCount":null,"likeCount":null,"sharedContent":null,"parent":{"__typename":"HnJson","localize":[{"title":"向后教编译器","locale":"zh"},{"title":"向後教編譯器","locale":"zh-Hant"}]}},{"__typename":"SocialMediaPost","id":"HnPost-26234384","excerpt":"","slug":"/hn/26234384","title":"ComputeSharp, Run C# on the GPU","date":"February 23, 2021","dateISO":"2021-02-23T18:50:55.722Z","datetime":"2021-02-23 18:50","tags":["story","Hacker News"],"image":null,"imageAlt":null,"provider":"Hacker News","thirdPartyId":"26234384","url":"https://news.ycombinator.com/item?id=26234384","originalUrl":"https://github.com/Sergio0694/ComputeSharp/tree/dev","imageRemote":"https://repository-images.githubusercontent.com/201615840/e2cfca00-747b-11eb-84b0-8e24b2a9420a","video":null,"channel":null,"channelUrl":null,"author":"pjmlp","authorUrl":"https://news.ycombinator.com/user?id=pjmlp","authorImage":null,"authorSlug":null,"score":172,"views":null,"sharedCount":null,"likeCount":null,"sharedContent":null,"parent":{"__typename":"HnJson","localize":[{"title":"ComputeSharp，在GPU上运行C#。","locale":"zh"},{"title":"ComputeSharp，在GPU上運行C#。","locale":"zh-Hant"}]}},{"__typename":"SocialMediaPost","id":"HnPost-26239068","excerpt":"","slug":"/hn/26239068","title":"Git is my buddy: Effective Git as a solo developer","date":"February 23, 2021","dateISO":"2021-02-23T18:50:55.722Z","datetime":"2021-02-23 18:50","tags":["story","Hacker News"],"image":null,"imageAlt":null,"provider":"Hacker News","thirdPartyId":"26239068","url":"https://news.ycombinator.com/item?id=26239068","originalUrl":"https://mikkel.ca/blog/git-is-my-buddy-effective-solo-developer/","imageRemote":null,"video":null,"channel":null,"channelUrl":null,"author":"vortex_ape","authorUrl":"https://news.ycombinator.com/user?id=vortex_ape","authorImage":null,"authorSlug":null,"score":411,"views":null,"sharedCount":null,"likeCount":null,"sharedContent":null,"parent":{"__typename":"HnJson","localize":[{"title":"Git是我的好朋友：作为一个单独的开发者，Git是有效的。","locale":"zh"},{"title":"Git是我的好朋友：作爲一個單獨的開發者，Git是有效的。","locale":"zh-Hant"}]}},{"__typename":"SocialMediaPost","id":"HnPost-26236770","excerpt":"","slug":"/hn/26236770","title":"Nextcloud Hub 21","date":"February 23, 2021","dateISO":"2021-02-23T18:33:45.590Z","datetime":"2021-02-23 18:33","tags":["story","Hacker News"],"image":null,"imageAlt":null,"provider":"Hacker News","thirdPartyId":"26236770","url":"https://news.ycombinator.com/item?id=26236770","originalUrl":"https://nextcloud.com/blog/nextcloud-hub-21-out-with-up-to-10x-better-performance-whiteboard-and-more-collaboration-features/","imageRemote":"https://nextcloud.com/media/Whiteboard-2.png","video":null,"channel":null,"channelUrl":null,"author":"threatofrain","authorUrl":"https://news.ycombinator.com/user?id=threatofrain","authorImage":null,"authorSlug":null,"score":207,"views":null,"sharedCount":null,"likeCount":null,"sharedContent":null,"parent":{"__typename":"HnJson","localize":[{"title":"Nextcloud Hub 21","locale":"zh"},{"title":"Nextcloud Hub 21","locale":"zh-Hant"}]}},{"__typename":"SocialMediaPost","id":"HnPost-26234614","excerpt":"","slug":"/hn/26234614","title":"Scientists break through the wall of sleep to the untapped world of dreams","date":"February 23, 2021","dateISO":"2021-02-23T17:55:55.118Z","datetime":"2021-02-23 17:55","tags":["story","Hacker News"],"image":null,"imageAlt":null,"provider":"Hacker News","thirdPartyId":"26234614","url":"https://news.ycombinator.com/item?id=26234614","originalUrl":"https://beta.nsf.gov/science-matters/scientists-break-through-wall-sleep-untapped-world-dreams","imageRemote":"https://das-prod-nsf-gov.s3.amazonaws.com/styles/_inline_image_full_width/s3/2021-01/shutterstock_1199439910%20-%20woman%20in%20dream%20with%20lab%20coat.jpg?itok=-vf0yYm4","video":null,"channel":null,"channelUrl":null,"author":"metaversemaker","authorUrl":"https://news.ycombinator.com/user?id=metaversemaker","authorImage":null,"authorSlug":null,"score":220,"views":null,"sharedCount":null,"likeCount":null,"sharedContent":null,"parent":{"__typename":"HnJson","localize":[{"title":"科学家冲破睡眠的围墙，进入未被开发的梦境世界","locale":"zh"},{"title":"科學家衝破睡眠的圍牆，進入未被開發的夢境世界","locale":"zh-Hant"}]}},{"__typename":"SocialMediaPost","id":"HnPost-26232760","excerpt":"","slug":"/hn/26232760","title":"The road to electric is filled with tiny cars","date":"February 23, 2021","dateISO":"2021-02-23T17:44:26.561Z","datetime":"2021-02-23 17:44","tags":["story","Hacker News"],"image":null,"imageAlt":null,"provider":"Hacker News","thirdPartyId":"26232760","url":"https://news.ycombinator.com/item?id=26232760","originalUrl":"https://restofworld.org/2021/tesla-vs-tiny-cars/","imageRemote":"https://149346090.v2.pressablecdn.com/wp-content/uploads/2021/02/EVBeijing_01-scaled.jpg","video":null,"channel":null,"channelUrl":null,"author":"jimmy2020","authorUrl":"https://news.ycombinator.com/user?id=jimmy2020","authorImage":null,"authorSlug":null,"score":170,"views":null,"sharedCount":null,"likeCount":null,"sharedContent":null,"parent":{"__typename":"HnJson","localize":[{"title":"电动化的道路上充满了小汽车","locale":"zh"},{"title":"電動化的道路上充滿了小汽車","locale":"zh-Hant"}]}}]}},"pageContext":{"basePath":"/","pageType":"tag","tag":"Hacker News","tagsFilter":{"id":{"glob":"!*Post-1"}},"filter":{"id":{"glob":"!*Post-1"},"tags":{"eq":"Hacker News"}},"limit":25,"skip":600,"total":2600,"totalPages":104,"currentPage":25,"maxWidth":1024,"maxHeight":512,"locale":"zh-Hant","hrefLang":"zh-Hant","originalPath":"/tags/hacker-news/page/25","dateFormat":"YYYY-MM-DD"}},"staticQueryHashes":["1239077767","2506312863","2744905544","3025052997","3493603132","3493603132","3513215887","386998304"]}