{"componentChunkName":"component---gatsby-theme-buzzing-src-gatsby-theme-timeline-templates-posts-query-js","path":"/ja/tags/story/page/15","result":{"data":{"site":{"siteMetadata":{"title":"Reddit 热门","description":"用中文浏览Reddit热门内容","social":[{"name":"Twitter","url":"https://twitter.com/gatsbyjs","external":null,"prefetch":null},{"name":"GitHub","url":"https://github.com/gatsbyjs","external":null,"prefetch":null}],"menuLinks":[],"localize":[{"locale":"en","title":"Buzzing on Reddit","description":"See what's buzzing on Reddit in your native language","social":[{"name":"Reddit","url":"https://www.reddit.com/","external":true,"prefetch":null}],"menuLinks":[{"name":"Weekly Selection","url":"/issues","external":null,"prefetch":null},{"name":"RSS","url":"/rss.xml","external":null,"prefetch":false}]},{"locale":"zh-Hant","title":"Reddit 熱門","description":"用中文瀏覽Reddit熱門內容","social":null,"menuLinks":null}]}},"tagsGroup":{"group":[{"fieldValue":"ASK HN","totalCount":54},{"fieldValue":"Hacker News","totalCount":3107},{"fieldValue":"Poll","totalCount":1},{"fieldValue":"Show HN","totalCount":100},{"fieldValue":"poll","totalCount":1},{"fieldValue":"story","totalCount":3106}]},"allBlogPost":{"nodes":[{"__typename":"SocialMediaPost","id":"HnPost-26568960","excerpt":"","slug":"/hn/26568960","title":"Reddit’s most popular subreddits go private in protest against ‘censorship’","date":"March 24, 2021","dateISO":"2021-03-24T18:58:28.856Z","datetime":"2021-03-24 18:58","tags":["story","Hacker News"],"image":null,"imageAlt":null,"provider":"Hacker News","thirdPartyId":"26568960","url":"https://news.ycombinator.com/item?id=26568960","originalUrl":"https://www.gamerevolution.com/news/677190-reddit-private-community-aimee-challenor-censorship","imageRemote":"https://www.gamerevolution.com/assets/uploads/2021/03/reddit-aimee-knight.jpg","video":null,"channel":null,"channelUrl":null,"author":"LordAtlas","authorUrl":"https://news.ycombinator.com/user?id=LordAtlas","authorImage":null,"authorSlug":null,"score":552,"views":null,"sharedCount":null,"likeCount":null,"sharedContent":null,"parent":{"__typename":"HnJson","localize":[{"title":"Reddit最受欢迎的subreddits私有化以抗议 \"审查制度","locale":"zh"},{"title":"Reddit最受歡迎的subreddits私有化以抗議 \"審查制度","locale":"zh-Hant"}]}},{"__typename":"SocialMediaPost","id":"HnPost-26568962","excerpt":"","slug":"/hn/26568962","title":"America’s bald eagle population continues to soar","date":"March 24, 2021","dateISO":"2021-03-24T18:58:28.855Z","datetime":"2021-03-24 18:58","tags":["story","Hacker News"],"image":null,"imageAlt":null,"provider":"Hacker News","thirdPartyId":"26568962","url":"https://news.ycombinator.com/item?id=26568962","originalUrl":"https://www.fws.gov/birds/news/210324eagle-population.php","imageRemote":"https://www.fws.gov/birdhabitat/img/ncshare/icon_share.png","video":null,"channel":null,"channelUrl":null,"author":"infodocket","authorUrl":"https://news.ycombinator.com/user?id=infodocket","authorImage":null,"authorSlug":null,"score":353,"views":null,"sharedCount":null,"likeCount":null,"sharedContent":null,"parent":{"__typename":"HnJson","localize":[{"title":"美国秃鹰数量持续飙升","locale":"zh"},{"title":"美國禿鷹數量持續飆升","locale":"zh-Hant"}]}},{"__typename":"SocialMediaPost","id":"HnPost-26562819","excerpt":"","slug":"/hn/26562819","title":"Donald Knuth’s Algorithm D, its implementation in Hacker’s Delight and elsewhere","date":"March 24, 2021","dateISO":"2021-03-24T16:00:04.469Z","datetime":"2021-03-24 16:00","tags":["story","Hacker News"],"image":null,"imageAlt":null,"provider":"Hacker News","thirdPartyId":"26562819","url":"https://news.ycombinator.com/item?id=26562819","originalUrl":"https://skanthak.homepage.t-online.de/division.html","imageRemote":"https://www.w3.org/Icons/valid-html401.png","video":null,"channel":null,"channelUrl":null,"author":"graderjs","authorUrl":"https://news.ycombinator.com/user?id=graderjs","authorImage":null,"authorSlug":null,"score":165,"views":null,"sharedCount":null,"likeCount":null,"sharedContent":null,"parent":{"__typename":"HnJson","localize":[{"title":"唐纳德-克努斯的算法D，它在《黑客的快乐》和其他地方的实现。","locale":"zh"},{"title":"唐納德-克努斯的算法D，它在《黑客的快樂》和其他地方的實現。","locale":"zh-Hant"}]}},{"__typename":"SocialMediaPost","id":"HnPost-26565780","excerpt":"","slug":"/hn/26565780","title":"Firefox 87 introduces SmartBlock for Private Browsing","date":"March 24, 2021","dateISO":"2021-03-24T14:59:27.216Z","datetime":"2021-03-24 14:59","tags":["story","Hacker News"],"image":null,"imageAlt":null,"provider":"Hacker News","thirdPartyId":"26565780","url":"https://news.ycombinator.com/item?id=26565780","originalUrl":"https://blog.mozilla.org/security/2021/03/23/introducing-smartblock/","imageRemote":"https://ffp4g1ylyit3jdyti1hqcvtb-wpengine.netdna-ssl.com/security/files/2021/03/smartblock-comparison.gif","video":null,"channel":null,"channelUrl":null,"author":"elktea","authorUrl":"https://news.ycombinator.com/user?id=elktea","authorImage":null,"authorSlug":null,"score":377,"views":null,"sharedCount":null,"likeCount":null,"sharedContent":null,"parent":{"__typename":"HnJson","localize":[{"title":"火狐87引入了用于私人浏览的SmartBlock。","locale":"zh"},{"title":"火狐87引入了用於私人瀏覽的SmartBlock。","locale":"zh-Hant"}]}},{"__typename":"SocialMediaPost","id":"HnPost-26566373","excerpt":"","slug":"/hn/26566373","title":"PinePhone – Beta Edition Linux SmartPhone Preorder","date":"March 24, 2021","dateISO":"2021-03-24T14:59:27.216Z","datetime":"2021-03-24 14:59","tags":["story","Hacker News"],"image":null,"imageAlt":null,"provider":"Hacker News","thirdPartyId":"26566373","url":"https://news.ycombinator.com/item?id=26566373","originalUrl":"https://pine64.com/product/pinephone-beta-edition-linux-smartphone/?v=0446c16e2e66","imageRemote":"https://pine64.com/wp-content/uploads/2021/03/PPBetaEdition.png","video":null,"channel":null,"channelUrl":null,"author":"fsflover","authorUrl":"https://news.ycombinator.com/user?id=fsflover","authorImage":null,"authorSlug":null,"score":315,"views":null,"sharedCount":null,"likeCount":null,"sharedContent":null,"parent":{"__typename":"HnJson","localize":[{"title":"PinePhone - 测试版 Linux 智能手机预购版","locale":"zh"},{"title":"PinePhone - 測試版 Linux 智能手機預購版","locale":"zh-Hant"}]}},{"__typename":"SocialMediaPost","id":"HnPost-26561847","excerpt":"","slug":"/hn/26561847","title":"I escaped Node","date":"March 24, 2021","dateISO":"2021-03-24T14:31:24.222Z","datetime":"2021-03-24 14:31","tags":["story","Hacker News"],"image":null,"imageAlt":null,"provider":"Hacker News","thirdPartyId":"26561847","url":"https://news.ycombinator.com/item?id=26561847","originalUrl":"https://acco.io/i-escaped-node","imageRemote":"https://acco.io/sync-inc-logo.svg","video":null,"channel":null,"channelUrl":null,"author":"out_of_protocol","authorUrl":"https://news.ycombinator.com/user?id=out_of_protocol","authorImage":null,"authorSlug":null,"score":262,"views":null,"sharedCount":null,"likeCount":null,"sharedContent":null,"parent":{"__typename":"HnJson","localize":[{"title":"我逃离了Node","locale":"zh"},{"title":"我逃離了Node","locale":"zh-Hant"}]}},{"__typename":"SocialMediaPost","id":"HnPost-26565970","excerpt":"","slug":"/hn/26565970","title":"The Python Package Index is now a GitHub secret scanning integrator","date":"March 24, 2021","dateISO":"2021-03-24T14:31:24.222Z","datetime":"2021-03-24 14:31","tags":["story","Hacker News"],"image":null,"imageAlt":null,"provider":"Hacker News","thirdPartyId":"26565970","url":"https://news.ycombinator.com/item?id=26565970","originalUrl":"https://github.blog/changelog/2021-03-22-the-python-package-index-is-now-a-github-secret-scanning-integrator/","imageRemote":"https://github.blog/wp-content/uploads/2019/03/blog-card.png?fit=5001%2C2626","video":null,"channel":null,"channelUrl":null,"author":"rbanffy","authorUrl":"https://news.ycombinator.com/user?id=rbanffy","authorImage":null,"authorSlug":null,"score":370,"views":null,"sharedCount":null,"likeCount":null,"sharedContent":null,"parent":{"__typename":"HnJson","localize":[{"title":"Python包索引现在是GitHub的秘密扫描集成器。","locale":"zh"},{"title":"Python包索引現在是GitHub的祕密掃描集成器。","locale":"zh-Hant"}]}},{"__typename":"SocialMediaPost","id":"HnPost-26553639","excerpt":"","slug":"/hn/26553639","title":"How to price your SaaS product","date":"March 24, 2021","dateISO":"2021-03-24T13:42:00.683Z","datetime":"2021-03-24 13:42","tags":["story","Hacker News"],"image":null,"imageAlt":null,"provider":"Hacker News","thirdPartyId":"26553639","url":"https://news.ycombinator.com/item?id=26553639","originalUrl":"https://www.lennysnewsletter.com/p/saas-pricing-strategy","imageRemote":"https://cdn.substack.com/image/fetch/w_1200,c_limit,f_jpg,q_auto:good,fl_progressive:steep/https%3A%2F%2Fbucketeer-e05bbc84-baa3-437e-9518-adb32be77984.s3.amazonaws.com%2Fpublic%2Fimages%2F971baee8-62bc-4007-8a62-b2179faef927_1600x900.png","video":null,"channel":null,"channelUrl":null,"author":"samulipehkonen","authorUrl":"https://news.ycombinator.com/user?id=samulipehkonen","authorImage":null,"authorSlug":null,"score":193,"views":null,"sharedCount":null,"likeCount":null,"sharedContent":null,"parent":{"__typename":"HnJson","localize":[{"title":"如何给你的SaaS产品定价","locale":"zh"},{"title":"如何給你的SaaS產品定價","locale":"zh-Hant"}]}},{"__typename":"SocialMediaPost","id":"HnPost-26558074","excerpt":"","slug":"/hn/26558074","title":"Practical Cryptography for Developers","date":"March 24, 2021","dateISO":"2021-03-24T11:13:43.467Z","datetime":"2021-03-24 11:13","tags":["story","Hacker News"],"image":null,"imageAlt":null,"provider":"Hacker News","thirdPartyId":"26558074","url":"https://news.ycombinator.com/item?id=26558074","originalUrl":"https://cryptobook.nakov.com/","imageRemote":"https://app.gitbook.com/share/space/thumbnail/-LhlOQMrG9bRiqWpegM0.png","video":null,"channel":null,"channelUrl":null,"author":"r_singh","authorUrl":"https://news.ycombinator.com/user?id=r_singh","authorImage":null,"authorSlug":null,"score":150,"views":null,"sharedCount":null,"likeCount":null,"sharedContent":null,"parent":{"__typename":"HnJson","localize":[{"title":"开发者的实用密码学","locale":"zh"},{"title":"開發者的實用密碼學","locale":"zh-Hant"}]}},{"__typename":"SocialMediaPost","id":"HnPost-26561641","excerpt":"","slug":"/hn/26561641","title":"Map shows how fertilizer is choking the Great Lakes","date":"March 24, 2021","dateISO":"2021-03-24T10:14:50.947Z","datetime":"2021-03-24 10:14","tags":["story","Hacker News"],"image":null,"imageAlt":null,"provider":"Hacker News","thirdPartyId":"26561641","url":"https://news.ycombinator.com/item?id=26561641","originalUrl":"https://www.nationalgeographic.com/magazine/graphics/too-much-fertilizer-is-harming-the-great-lakes","imageRemote":"https://i.natgeofe.com/n/4d9c0aa9-27fe-49f6-9680-0f142240be0d/great-lake-agriculture-og-desktop-medium.jpg?w=1200","video":null,"channel":null,"channelUrl":null,"author":"DyslexicAtheist","authorUrl":"https://news.ycombinator.com/user?id=DyslexicAtheist","authorImage":null,"authorSlug":null,"score":155,"views":null,"sharedCount":null,"likeCount":null,"sharedContent":null,"parent":{"__typename":"HnJson","localize":[{"title":"地图显示了化肥是如何扼杀五大湖泊的。","locale":"zh"},{"title":"地圖顯示了化肥是如何扼殺五大湖泊的。","locale":"zh-Hant"}]}},{"__typename":"SocialMediaPost","id":"HnPost-26562845","excerpt":"","slug":"/hn/26562845","title":"GPT-3 tries pickup lines","date":"March 24, 2021","dateISO":"2021-03-24T09:49:55.902Z","datetime":"2021-03-24 09:49","tags":["story","Hacker News"],"image":null,"imageAlt":null,"provider":"Hacker News","thirdPartyId":"26562845","url":"https://news.ycombinator.com/item?id=26562845","originalUrl":"https://aiweirdness.com/post/646367635078103040/gpt-3-tries-pickup-lines","imageRemote":"https://64.media.tumblr.com/avatar_3d541b3ced61_16.pnj","video":null,"channel":null,"channelUrl":null,"author":"gigama","authorUrl":"https://news.ycombinator.com/user?id=gigama","authorImage":null,"authorSlug":null,"score":210,"views":null,"sharedCount":null,"likeCount":null,"sharedContent":null,"parent":{"__typename":"HnJson","localize":[{"title":"GPT-3尝试接驳线路","locale":"zh"},{"title":"GPT-3嘗試接駁線路","locale":"zh-Hant"}]}},{"__typename":"SocialMediaPost","id":"HnPost-26564638","excerpt":"","slug":"/hn/26564638","title":"Google Removed ClearURLs Extension from Chrome Web Store","date":"March 24, 2021","dateISO":"2021-03-24T09:49:55.902Z","datetime":"2021-03-24 09:49","tags":["story","Hacker News"],"image":null,"imageAlt":null,"provider":"Hacker News","thirdPartyId":"26564638","url":"https://news.ycombinator.com/item?id=26564638","originalUrl":"https://github.com/ClearURLs/Addon/issues/102","imageRemote":"https://avatars.githubusercontent.com/u/69992176?s=400&v=4","video":null,"channel":null,"channelUrl":null,"author":"URfejk","authorUrl":"https://news.ycombinator.com/user?id=URfejk","authorImage":null,"authorSlug":null,"score":802,"views":null,"sharedCount":null,"likeCount":null,"sharedContent":null,"parent":{"__typename":"HnJson","localize":[{"title":"谷歌从Chrome网络商店中删除了ClearURLs扩展。","locale":"zh"},{"title":"谷歌從Chrome網絡商店中刪除了ClearURLs擴展。","locale":"zh-Hant"}]}},{"__typename":"SocialMediaPost","id":"HnPost-26561933","excerpt":"","slug":"/hn/26561933","title":"Venus could have been habitable for billions of years (2019)","date":"March 24, 2021","dateISO":"2021-03-24T07:14:02.766Z","datetime":"2021-03-24 07:14","tags":["story","Hacker News"],"image":null,"imageAlt":null,"provider":"Hacker News","thirdPartyId":"26561933","url":"https://news.ycombinator.com/item?id=26561933","originalUrl":"https://www.smithsonianmag.com/smart-news/venus-could-have-been-habitable-billions-years-180973203/","imageRemote":"https://thumbs-prod.si-cdn.com/mmMFPQ2NZraBfv5p9VTUA-Bgifg=/fit-in/1600x0/https://public-media.si-cdn.com/filer/48/22/4822028f-ea5c-4b5d-ae55-5e86031e7b39/venus_with_water.jpg","video":null,"channel":null,"channelUrl":null,"author":"YeGoblynQueenne","authorUrl":"https://news.ycombinator.com/user?id=YeGoblynQueenne","authorImage":null,"authorSlug":null,"score":243,"views":null,"sharedCount":null,"likeCount":null,"sharedContent":null,"parent":{"__typename":"HnJson","localize":[{"title":"金星可能已经宜居了数十亿年(2019年)","locale":"zh"},{"title":"金星可能已經宜居了數十億年(2019年)","locale":"zh-Hant"}]}},{"__typename":"SocialMediaPost","id":"HnPost-26562543","excerpt":"","slug":"/hn/26562543","title":"Closing web browser windows doesn't close connections","date":"March 24, 2021","dateISO":"2021-03-24T06:52:35.015Z","datetime":"2021-03-24 06:52","tags":["story","Hacker News"],"image":null,"imageAlt":null,"provider":"Hacker News","thirdPartyId":"26562543","url":"https://news.ycombinator.com/item?id=26562543","originalUrl":"https://lapcatsoftware.com/articles/closing.html","imageRemote":null,"video":null,"channel":null,"channelUrl":null,"author":"alsetmusic","authorUrl":"https://news.ycombinator.com/user?id=alsetmusic","authorImage":null,"authorSlug":null,"score":273,"views":null,"sharedCount":null,"likeCount":null,"sharedContent":null,"parent":{"__typename":"HnJson","localize":[{"title":"关闭网页浏览器窗口并不能关闭连接。","locale":"zh"},{"title":"關閉網頁瀏覽器窗口並不能關閉連接。","locale":"zh-Hant"}]}},{"__typename":"SocialMediaPost","id":"HnPost-26563225","excerpt":"","slug":"/hn/26563225","title":"They Just Moved to Austin. Now They Want to End One of Its Traditions","date":"March 24, 2021","dateISO":"2021-03-24T06:52:35.015Z","datetime":"2021-03-24 06:52","tags":["story","Hacker News"],"image":null,"imageAlt":null,"provider":"Hacker News","thirdPartyId":"26563225","url":"https://news.ycombinator.com/item?id=26563225","originalUrl":"https://www.texasmonthly.com/news-politics/austin-car-clubs-gentrification/","imageRemote":"https://img.texasmonthly.com/2021/03/austin-car-club1.jpg?auto=compress&crop=faces&fit=crop&fm=pjpg&h=750&ixlib=php-1.2.1&q=45&w=1200&wpsize=landscape-1200","video":null,"channel":null,"channelUrl":null,"author":"undefined1","authorUrl":"https://news.ycombinator.com/user?id=undefined1","authorImage":null,"authorSlug":null,"score":328,"views":null,"sharedCount":null,"likeCount":null,"sharedContent":null,"parent":{"__typename":"HnJson","localize":[{"title":"他们刚刚搬到奥斯汀。现在他们想结束这里的一个传统。","locale":"zh"},{"title":"他們剛剛搬到奧斯汀。現在他們想結束這裏的一個傳統。","locale":"zh-Hant"}]}},{"__typename":"SocialMediaPost","id":"HnPost-26559131","excerpt":"","slug":"/hn/26559131","title":"Study finds walking improves creativity (2014)","date":"March 24, 2021","dateISO":"2021-03-24T04:58:52.931Z","datetime":"2021-03-24 04:58","tags":["story","Hacker News"],"image":null,"imageAlt":null,"provider":"Hacker News","thirdPartyId":"26559131","url":"https://news.ycombinator.com/item?id=26559131","originalUrl":"https://news.stanford.edu/2014/04/24/walking-vs-sitting-042414/","imageRemote":"http://s3-us-west-1.amazonaws.com/stanford.ucomm.newsms.media/wp-content/uploads/2016/04/21143726/13763-walking_teaser.jpg","video":null,"channel":null,"channelUrl":null,"author":"CynicusRex","authorUrl":"https://news.ycombinator.com/user?id=CynicusRex","authorImage":null,"authorSlug":null,"score":247,"views":null,"sharedCount":null,"likeCount":null,"sharedContent":null,"parent":{"__typename":"HnJson","localize":[{"title":"研究发现步行能提高创造力(2014)","locale":"zh"},{"title":"研究發現步行能提高創造力(2014)","locale":"zh-Hant"}]}},{"__typename":"SocialMediaPost","id":"HnPost-26560694","excerpt":"","slug":"/hn/26560694","title":"The fight against fake-paper factories that churn out sham science","date":"March 24, 2021","dateISO":"2021-03-24T04:58:52.931Z","datetime":"2021-03-24 04:58","tags":["story","Hacker News"],"image":null,"imageAlt":null,"provider":"Hacker News","thirdPartyId":"26560694","url":"https://news.ycombinator.com/item?id=26560694","originalUrl":"https://www.nature.com/articles/d41586-021-00733-5","imageRemote":"https://media.nature.com/lw1024/magazine-assets/d41586-021-00733-5/d41586-021-00733-5_18989364.jpg","video":null,"channel":null,"channelUrl":null,"author":"pseudolus","authorUrl":"https://news.ycombinator.com/user?id=pseudolus","authorImage":null,"authorSlug":null,"score":240,"views":null,"sharedCount":null,"likeCount":null,"sharedContent":null,"parent":{"__typename":"HnJson","localize":[{"title":"打击制造虚假科学的假纸工厂。","locale":"zh"},{"title":"打擊製造虛假科學的假紙工廠。","locale":"zh-Hant"}]}},{"__typename":"SocialMediaPost","id":"HnPost-26563090","excerpt":"","slug":"/hn/26563090","title":"Multiple US Navy destroyers swarmed by mysterious 'drones' off California coast","date":"March 24, 2021","dateISO":"2021-03-24T04:58:52.931Z","datetime":"2021-03-24 04:58","tags":["story","Hacker News"],"image":null,"imageAlt":null,"provider":"Hacker News","thirdPartyId":"26563090","url":"https://news.ycombinator.com/item?id=26563090","originalUrl":"https://www.thedrive.com/the-war-zone/39913/multiple-destroyers-were-swarmed-by-mysterious-drones-off-california-over-numerous-nights?xid=twittershare","imageRemote":"https://api.thedrive.com/wp-content/uploads/2021/03/Drone-Swarm-Around-Destroyer-SOCAL.jpg?quality=85","video":null,"channel":null,"channelUrl":null,"author":"SEJeff","authorUrl":"https://news.ycombinator.com/user?id=SEJeff","authorImage":null,"authorSlug":null,"score":291,"views":null,"sharedCount":null,"likeCount":null,"sharedContent":null,"parent":{"__typename":"HnJson","localize":[{"title":"美国海军多艘驱逐舰在加州海岸被神秘 \"无人机 \"蜂拥而至。","locale":"zh"},{"title":"美國海軍多艘驅逐艦在加州海岸被神祕 \"無人機 \"蜂擁而至。","locale":"zh-Hant"}]}},{"__typename":"SocialMediaPost","id":"HnPost-26557048","excerpt":"","slug":"/hn/26557048","title":"Living Like It's 99, No Social Media, No Smartphone","date":"March 24, 2021","dateISO":"2021-03-24T02:02:41.306Z","datetime":"2021-03-24 02:02","tags":["story","Hacker News"],"image":null,"imageAlt":null,"provider":"Hacker News","thirdPartyId":"26557048","url":"https://news.ycombinator.com/item?id=26557048","originalUrl":"https://www.alvarez.io/posts/living-like-its99/","imageRemote":"https://www.alvarez.io/img/color/l99.jpg","video":null,"channel":null,"channelUrl":null,"author":"betaman0","authorUrl":"https://news.ycombinator.com/user?id=betaman0","authorImage":null,"authorSlug":null,"score":151,"views":null,"sharedCount":null,"likeCount":null,"sharedContent":null,"parent":{"__typename":"HnJson","localize":[{"title":"像99岁一样生活，没有社交媒体，没有智能手机。","locale":"zh"},{"title":"像99歲一樣生活，沒有社交媒體，沒有智能手機。","locale":"zh-Hant"}]}},{"__typename":"SocialMediaPost","id":"HnPost-26541582","excerpt":"","slug":"/hn/26541582","title":"Sovereign writers and Substack","date":"March 24, 2021","dateISO":"2021-03-24T01:01:35.099Z","datetime":"2021-03-24 01:01","tags":["story","Hacker News"],"image":null,"imageAlt":null,"provider":"Hacker News","thirdPartyId":"26541582","url":"https://news.ycombinator.com/item?id=26541582","originalUrl":"https://stratechery.com/2021/sovereign-writers-and-substack/","imageRemote":"https://stratechery.com/wp-content/uploads/2021/03/substack-2.png","video":null,"channel":null,"channelUrl":null,"author":"feross","authorUrl":"https://news.ycombinator.com/user?id=feross","authorImage":null,"authorSlug":null,"score":142,"views":null,"sharedCount":null,"likeCount":null,"sharedContent":null,"parent":{"__typename":"HnJson","localize":[{"title":"主权作家和Substack","locale":"zh"},{"title":"主權作家和Substack","locale":"zh-Hant"}]}},{"__typename":"SocialMediaPost","id":"HnPost-26556938","excerpt":"","slug":"/hn/26556938","title":"Yale’s 367-year-old water bond still pays interest (2015)","date":"March 24, 2021","dateISO":"2021-03-24T01:01:35.099Z","datetime":"2021-03-24 01:01","tags":["story","Hacker News"],"image":null,"imageAlt":null,"provider":"Hacker News","thirdPartyId":"26556938","url":"https://news.ycombinator.com/item?id=26556938","originalUrl":"https://news.yale.edu/2015/09/22/living-artifact-dutch-golden-age-yale-s-367-year-old-water-bond-still-pays-interest","imageRemote":"https://news.yale.edu/sites/default/files/styles/opengraph_image/public/thumbnail/yale-dutch-water-bond.jpg?itok=FtcU7VR5","video":null,"channel":null,"channelUrl":null,"author":"marc__1","authorUrl":"https://news.ycombinator.com/user?id=marc__1","authorImage":null,"authorSlug":null,"score":205,"views":null,"sharedCount":null,"likeCount":null,"sharedContent":null,"parent":{"__typename":"HnJson","localize":[{"title":"耶鲁大学367年的水债仍在付息(2015)","locale":"zh"},{"title":"耶魯大學367年的水債仍在付息(2015)","locale":"zh-Hant"}]}},{"__typename":"SocialMediaPost","id":"HnPost-26555153","excerpt":"","slug":"/hn/26555153","title":"Letterlocking","date":"March 23, 2021","dateISO":"2021-03-23T23:46:39.903Z","datetime":"2021-03-23 23:46","tags":["story","Hacker News"],"image":null,"imageAlt":null,"provider":"Hacker News","thirdPartyId":"26555153","url":"https://news.ycombinator.com/item?id=26555153","originalUrl":"https://en.wikipedia.org/wiki/Letterlocking","imageRemote":"https://upload.wikimedia.org/wikipedia/commons/thumb/2/2b/Letterlocking.jpg/1200px-Letterlocking.jpg","video":null,"channel":null,"channelUrl":null,"author":"krisbolton","authorUrl":"https://news.ycombinator.com/user?id=krisbolton","authorImage":null,"authorSlug":null,"score":167,"views":null,"sharedCount":null,"likeCount":null,"sharedContent":null,"parent":{"__typename":"HnJson","localize":[{"title":"字母锁","locale":"zh"},{"title":"字母鎖","locale":"zh-Hant"}]}},{"__typename":"SocialMediaPost","id":"HnPost-26560319","excerpt":"","slug":"/hn/26560319","title":"Suez canal blocked by a massive ship","date":"March 23, 2021","dateISO":"2021-03-23T23:26:48.808Z","datetime":"2021-03-23 23:26","tags":["story","Hacker News"],"image":null,"imageAlt":null,"provider":"Hacker News","thirdPartyId":"26560319","url":"https://news.ycombinator.com/item?id=26560319","originalUrl":"https://twitter.com/jsrailton/status/1374438210315513864","imageRemote":null,"video":null,"channel":null,"channelUrl":null,"author":"tilolebo","authorUrl":"https://news.ycombinator.com/user?id=tilolebo","authorImage":null,"authorSlug":null,"score":1037,"views":null,"sharedCount":null,"likeCount":null,"sharedContent":null,"parent":{"__typename":"HnJson","localize":[{"title":"苏伊士运河被一艘巨轮封锁","locale":"zh"},{"title":"蘇伊士運河被一艘巨輪封鎖","locale":"zh-Hant"}]}},{"__typename":"SocialMediaPost","id":"HnPost-26558039","excerpt":"","slug":"/hn/26558039","title":"Uniswap v3","date":"March 23, 2021","dateISO":"2021-03-23T22:51:53.091Z","datetime":"2021-03-23 22:51","tags":["story","Hacker News"],"image":null,"imageAlt":null,"provider":"Hacker News","thirdPartyId":"26558039","url":"https://news.ycombinator.com/item?id=26558039","originalUrl":"https://uniswap.org/blog/uniswap-v3/","imageRemote":"https://uniswap.org/blog/uniswap-v3/twitter-card.jpg","video":null,"channel":null,"channelUrl":null,"author":"dylkil","authorUrl":"https://news.ycombinator.com/user?id=dylkil","authorImage":null,"authorSlug":null,"score":154,"views":null,"sharedCount":null,"likeCount":null,"sharedContent":null,"parent":{"__typename":"HnJson","localize":[{"title":"Uniswap v3","locale":"zh"},{"title":"Uniswap v3","locale":"zh-Hant"}]}},{"__typename":"SocialMediaPost","id":"HnPost-26560498","excerpt":"","slug":"/hn/26560498","title":"The End of AMP?","date":"March 23, 2021","dateISO":"2021-03-23T22:51:53.091Z","datetime":"2021-03-23 22:51","tags":["story","Hacker News"],"image":null,"imageAlt":null,"provider":"Hacker News","thirdPartyId":"26560498","url":"https://news.ycombinator.com/item?id=26560498","originalUrl":"https://www.lafoo.com/the-end-of-amp/","imageRemote":"https://www.lafoo.com/wp-content/uploads/2021/03/the-end-of-amp.png","video":null,"channel":null,"channelUrl":null,"author":"colinprince","authorUrl":"https://news.ycombinator.com/user?id=colinprince","authorImage":null,"authorSlug":null,"score":366,"views":null,"sharedCount":null,"likeCount":null,"sharedContent":null,"parent":{"__typename":"HnJson","localize":[{"title":"AMP的终结？","locale":"zh"},{"title":"AMP的終結？","locale":"zh-Hant"}]}}]}},"pageContext":{"basePath":"/","pageType":"tag","tag":"story","tagsFilter":{"id":{"glob":"!*Post-1"}},"filter":{"id":{"glob":"!*Post-1"},"tags":{"eq":"story"}},"limit":25,"skip":350,"total":3106,"totalPages":125,"currentPage":15,"maxWidth":1024,"maxHeight":512,"locale":"ja","hrefLang":"ja-JA","originalPath":"/tags/story/page/15","dateFormat":"YYYY-MM-DD"}},"staticQueryHashes":["1239077767","2506312863","2744905544","3025052997","3493603132","3493603132","3513215887","386998304"]}