{"componentChunkName":"component---gatsby-theme-buzzing-src-gatsby-theme-timeline-templates-posts-query-js","path":"/zh-Hant/page/23","result":{"data":{"site":{"siteMetadata":{"title":"Reddit 热门","description":"用中文浏览Reddit热门内容","social":[{"name":"Reddit","url":"https://www.reddit.com/","external":true,"prefetch":null},{"name":"GitHub","url":"https://github.com/gatsbyjs","external":null,"prefetch":null}],"menuLinks":[{"name":"每周精选","url":"/issues","external":null,"prefetch":null},{"name":"RSS","url":"/rss.xml","external":null,"prefetch":false}],"localize":[{"locale":"en","title":"Buzzing on Reddit","description":"See what's buzzing on Reddit in your native language","social":[{"name":"Reddit","url":"https://www.reddit.com/","external":true,"prefetch":null}],"menuLinks":[{"name":"Weekly Selection","url":"/issues","external":null,"prefetch":null},{"name":"RSS","url":"/rss.xml","external":null,"prefetch":false}]},{"locale":"zh-Hant","title":"Reddit 熱門","description":"用中文瀏覽Reddit熱門內容","social":null,"menuLinks":null}]}},"tagsGroup":{"group":[{"fieldValue":"BTC","totalCount":1},{"fieldValue":"Bitcoin","totalCount":261},{"fieldValue":"CryptoCurrency","totalCount":207},{"fieldValue":"bitcoin","totalCount":40},{"fieldValue":"btc","totalCount":1},{"fieldValue":"phase5","totalCount":7},{"fieldValue":"reddit","totalCount":455},{"fieldValue":"tweet","totalCount":97}]},"allBlogPost":{"nodes":[{"__typename":"SocialMediaPost","id":"RedditPost-kj18h3","excerpt":"The dirty bastards at Financial Crimes Enforcement Network (“FinCEN”) US Dept of\nTreasury just posted on the Federal Registry a new regulation to require US\nExchanges to not let you send your crypto to an offline (re: address outside the\nexchange) address unless your tell them whom owns the…","slug":"/reddit/r/CryptoCurrency/comments/kj18h3/immediate_action_required_usa_fincen_tries_to/","title":"IMMEDIATE ACTION REQUIRED: USA FinCEN tries to sneak new \"Wallet Registration\" requirement in over the Holiday. This is the WORST.","date":"December 24, 2020","dateISO":"2020-12-24T07:34:34.000Z","datetime":"2020-12-24 07:34","tags":["CryptoCurrency","reddit"],"image":null,"imageAlt":"Reddit Image","provider":"Reddit","thirdPartyId":"kj18h3","url":"https://www.reddit.com/r/CryptoCurrency/comments/kj18h3/immediate_action_required_usa_fincen_tries_to/","originalUrl":"https://www.reddit.com/r/CryptoCurrency/comments/kj18h3/immediate_action_required_usa_fincen_tries_to/","imageRemote":"https://external-preview.redd.it/u6cXg_08kKaKsG5lDtNMpKApwQgt2P22t2tVJB40Cl8.jpg?width=640&crop=smart&auto=webp&s=1df29aa9e3b8874360f0f92d5c052ea53900104d","video":null,"channel":"CryptoCurrency","channelUrl":"https://www.reddit.com/r/CryptoCurrency","author":"hashratez","authorUrl":"https://www.reddit.com/user/hashratez","authorImage":null,"authorSlug":"hashratez","score":1351,"views":null,"sharedCount":null,"likeCount":null,"sharedContent":null,"parent":{"__typename":"RedditJson","localize":[{"title":"需要立即采取行动：美国FinCEN试图在假期期间偷偷提出新的“钱包注册”要求。这是最糟糕的。","the_new_excerpt":"金融犯罪执法网络(FinCEN)美国部门的肮脏混蛋\n财政部刚刚在联邦登记处发布了一项新规定，要求美国\n交换以不让您将加密发送到脱机(Re：地址在\n…)地址，除非您告诉他们谁拥有Exchange","locale":"zh"},{"title":"需要立即採取行動：美國FinCEN試圖在假期期間偷偷提出新的“錢包註冊”要求。這是最糟糕的。","the_new_excerpt":"金融犯罪執法網絡(FinCEN)美國部門的骯髒混蛋\n財政部剛剛在聯邦登記處發佈了一項新規定，要求美國\n交換以不讓您將加密發送到脫機(Re：地址在\n…)地址，除非您告訴他們誰擁有Exchange","locale":"zh-Hant"}]}},{"__typename":"SocialMediaPost","id":"RedditPost-kj6uvw","excerpt":"","slug":"/reddit/r/CryptoCurrency/comments/kj6uvw/microstrategy_ceo_says_flow_of_money_from/","title":"MicroStrategy CEO Says Flow of Money From Conventional Assets Into Bitcoin Not a Bubble","date":"December 24, 2020","dateISO":"2020-12-24T07:34:34.000Z","datetime":"2020-12-24 07:34","tags":["CryptoCurrency","reddit"],"image":null,"imageAlt":"Reddit Image","provider":"Reddit","thirdPartyId":"kj6uvw","url":"https://www.reddit.com/r/CryptoCurrency/comments/kj6uvw/microstrategy_ceo_says_flow_of_money_from/","originalUrl":"https://www.reddit.com/r/CryptoCurrency/comments/kj6uvw/microstrategy_ceo_says_flow_of_money_from/","imageRemote":"https://external-preview.redd.it/DN5AQhesTxC92tmhub94n200A8FNLuiDjaqMTzSf-s0.jpg?width=640&crop=smart&auto=webp&s=406202233474df839cb05dd0bd9fd363906a83bc","video":null,"channel":"CryptoCurrency","channelUrl":"https://www.reddit.com/r/CryptoCurrency","author":"patrickstar466","authorUrl":"https://www.reddit.com/user/patrickstar466","authorImage":null,"authorSlug":"patrickstar466","score":91,"views":null,"sharedCount":null,"likeCount":null,"sharedContent":null,"parent":{"__typename":"RedditJson","localize":[{"title":"微策略首席执行官表示，资金从传统资产流入比特币，而不是泡沫","the_new_excerpt":null,"locale":"zh"},{"title":"微策略首席執行官表示，資金從傳統資產流入比特幣，而不是泡沫","the_new_excerpt":null,"locale":"zh-Hant"}]}}]}},"pageContext":{"basePath":"/","pageType":"home","tagsFilter":{"id":{"glob":"!*Post-1"}},"filter":{"id":{"glob":"!*Post-1"}},"limit":25,"skip":550,"totalPages":23,"total":552,"currentPage":23,"maxWidth":1024,"maxHeight":512,"locale":"zh-Hant","hrefLang":"zh-Hant","originalPath":"/page/23","dateFormat":"YYYY-MM-DD"}},"staticQueryHashes":["1239077767","2506312863","2744905544","3493603132","3493603132","386998304","4203388852"]}