{"componentChunkName":"component---gatsby-theme-buzzing-src-gatsby-theme-timeline-templates-posts-query-js","path":"/zh-Hant/tags/story/page/10","result":{"data":{"site":{"siteMetadata":{"title":"Reddit 热门","description":"用中文浏览Reddit热门内容","social":[{"name":"Twitter","url":"https://twitter.com/gatsbyjs","external":null,"prefetch":null},{"name":"GitHub","url":"https://github.com/gatsbyjs","external":null,"prefetch":null}],"menuLinks":[],"localize":[{"locale":"en","title":"Buzzing on Reddit","description":"See what's buzzing on Reddit in your native language","social":[{"name":"Reddit","url":"https://www.reddit.com/","external":true,"prefetch":null}],"menuLinks":[{"name":"Weekly Selection","url":"/issues","external":null,"prefetch":null},{"name":"RSS","url":"/rss.xml","external":null,"prefetch":false}]},{"locale":"zh-Hant","title":"Reddit 熱門","description":"用中文瀏覽Reddit熱門內容","social":null,"menuLinks":null}]}},"tagsGroup":{"group":[{"fieldValue":"ASK HN","totalCount":44},{"fieldValue":"Bitcoin","totalCount":4},{"fieldValue":"Hacker News","totalCount":2600},{"fieldValue":"Poll","totalCount":1},{"fieldValue":"SaveAMC","totalCount":1},{"fieldValue":"Show HN","totalCount":89},{"fieldValue":"bitcoin","totalCount":3},{"fieldValue":"investing","totalCount":797},{"fieldValue":"poll","totalCount":1},{"fieldValue":"reddit","totalCount":4938},{"fieldValue":"science","totalCount":1},{"fieldValue":"stocks","totalCount":1592},{"fieldValue":"story","totalCount":2599},{"fieldValue":"tweet","totalCount":814},{"fieldValue":"wallstreetbets","totalCount":2549}]},"allBlogPost":{"nodes":[{"__typename":"SocialMediaPost","id":"HnPost-26408822","excerpt":"","slug":"/hn/26408822","title":"Emacs org-mode examples and cookbook (2017)","date":"March 10, 2021","dateISO":"2021-03-10T17:07:46.509Z","datetime":"2021-03-10 17:07","tags":["story","Hacker News"],"image":null,"imageAlt":null,"provider":"Hacker News","thirdPartyId":"26408822","url":"https://news.ycombinator.com/item?id=26408822","originalUrl":"http://ehneilsen.net/notebook/orgExamples/org-examples.html","imageRemote":"http://ehneilsen.net/notebook/orgExamples/ditaa-simpleboxes.png","video":null,"channel":null,"channelUrl":null,"author":"ddtaylor","authorUrl":"https://news.ycombinator.com/user?id=ddtaylor","authorImage":null,"authorSlug":null,"score":253,"views":null,"sharedCount":null,"likeCount":null,"sharedContent":null,"parent":{"__typename":"HnJson","localize":[{"title":"Emacs org-mode范例和食谱（2017年）","locale":"zh"},{"title":"Emacs org-mode範例和食譜（2017年）","locale":"zh-Hant"}]}},{"__typename":"SocialMediaPost","id":"HnPost-26408941","excerpt":"","slug":"/hn/26408941","title":"UK 'Right to repair' law to come in this summer","date":"March 10, 2021","dateISO":"2021-03-10T17:07:46.509Z","datetime":"2021-03-10 17:07","tags":["story","Hacker News"],"image":null,"imageAlt":null,"provider":"Hacker News","thirdPartyId":"26408941","url":"https://news.ycombinator.com/item?id=26408941","originalUrl":"https://www.bbc.co.uk/news/business-56340077","imageRemote":"https://ichef.bbci.co.uk/news/1024/branded_news/6299/production/_105114252_gettyimages-614860180_crop.jpg","video":null,"channel":null,"channelUrl":null,"author":"djaychela","authorUrl":"https://news.ycombinator.com/user?id=djaychela","authorImage":null,"authorSlug":null,"score":234,"views":null,"sharedCount":null,"likeCount":null,"sharedContent":null,"parent":{"__typename":"HnJson","localize":[{"title":"英国 \"维修权 \"法将于今夏出台","locale":"zh"},{"title":"英國 \"維修權 \"法將於今夏出臺","locale":"zh-Hant"}]}},{"__typename":"SocialMediaPost","id":"HnPost-26409820","excerpt":"","slug":"/hn/26409820","title":"Authelia is an open-source authentication/authorization server with 2FA/SSO","date":"March 10, 2021","dateISO":"2021-03-10T17:07:46.509Z","datetime":"2021-03-10 17:07","tags":["story","Hacker News"],"image":null,"imageAlt":null,"provider":"Hacker News","thirdPartyId":"26409820","url":"https://news.ycombinator.com/item?id=26409820","originalUrl":"https://github.com/authelia/authelia","imageRemote":"https://repository-images.githubusercontent.com/75785240/724ca480-396f-11ea-874f-d39c6900e14d","video":null,"channel":null,"channelUrl":null,"author":"thunderbong","authorUrl":"https://news.ycombinator.com/user?id=thunderbong","authorImage":null,"authorSlug":null,"score":288,"views":null,"sharedCount":null,"likeCount":null,"sharedContent":null,"parent":{"__typename":"HnJson","localize":[{"title":"Authelia是一个开源的认证/授权服务器，具有2FA/SSO功能。","locale":"zh"},{"title":"Authelia是一個開源的認證/授權服務器，具有2FA/SSO功能。","locale":"zh-Hant"}]}},{"__typename":"SocialMediaPost","id":"HnPost-26410047","excerpt":"","slug":"/hn/26410047","title":"I don't want to learn your query language (2018)","date":"March 10, 2021","dateISO":"2021-03-10T16:20:14.974Z","datetime":"2021-03-10 16:20","tags":["story","Hacker News"],"image":null,"imageAlt":null,"provider":"Hacker News","thirdPartyId":"26410047","url":"https://news.ycombinator.com/item?id=26410047","originalUrl":"https://erikbern.com/2018/08/30/i-dont-want-to-learn-your-garbage-query-language.html","imageRemote":"https://erikbern.com/assets/dsls.png","video":null,"channel":null,"channelUrl":null,"author":"nudpiedo","authorUrl":"https://news.ycombinator.com/user?id=nudpiedo","authorImage":null,"authorSlug":null,"score":291,"views":null,"sharedCount":null,"likeCount":null,"sharedContent":null,"parent":{"__typename":"HnJson","localize":[{"title":"我不想学你的疑问语言(2018)","locale":"zh"},{"title":"我不想學你的疑問語言(2018)","locale":"zh-Hant"}]}},{"__typename":"SocialMediaPost","id":"HnPost-26410135","excerpt":"","slug":"/hn/26410135","title":"Lou Ottens, inventor of cassette tape, has died","date":"March 10, 2021","dateISO":"2021-03-10T15:26:19.799Z","datetime":"2021-03-10 15:26","tags":["story","Hacker News"],"image":null,"imageAlt":null,"provider":"Hacker News","thirdPartyId":"26410135","url":"https://news.ycombinator.com/item?id=26410135","originalUrl":"https://netherlandsnewslive.com/inventor-of-cassette-tape-lou-ottens-passed-away-financial/107722/","imageRemote":"https://www.telegraaf.nl/images/1200x630/filters:format(jpeg):quality(80)/cdn-kiosk-api.telegraaf.nl/e34ff7c0-811e-11eb-b351-02c309bc01c1.jpg","video":null,"channel":null,"channelUrl":null,"author":"Anon84","authorUrl":"https://news.ycombinator.com/user?id=Anon84","authorImage":null,"authorSlug":null,"score":409,"views":null,"sharedCount":null,"likeCount":null,"sharedContent":null,"parent":{"__typename":"HnJson","localize":[{"title":"录音带的发明者Lou Ottens去世了。","locale":"zh"},{"title":"錄音帶的發明者Lou Ottens去世了。","locale":"zh-Hant"}]}},{"__typename":"SocialMediaPost","id":"HnPost-26408181","excerpt":"","slug":"/hn/26408181","title":"We created a fake language to root out resume liars","date":"March 10, 2021","dateISO":"2021-03-10T12:10:57.239Z","datetime":"2021-03-10 12:10","tags":["story","Hacker News"],"image":null,"imageAlt":null,"provider":"Hacker News","thirdPartyId":"26408181","url":"https://news.ycombinator.com/item?id=26408181","originalUrl":"https://www.facebook.com/groups/CFprogrammers/permalink/10158154545285036/","imageRemote":"https://lookaside.fbsbx.com/lookaside/crawler/media/?media_id=10158154545285036","video":null,"channel":null,"channelUrl":null,"author":"rmason","authorUrl":"https://news.ycombinator.com/user?id=rmason","authorImage":null,"authorSlug":null,"score":551,"views":null,"sharedCount":null,"likeCount":null,"sharedContent":null,"parent":{"__typename":"HnJson","localize":[{"title":"我们创造了一种假语言，以根除简历骗子。","locale":"zh"},{"title":"我們創造了一種假語言，以根除簡歷騙子。","locale":"zh-Hant"}]}},{"__typename":"SocialMediaPost","id":"HnPost-26407560","excerpt":"","slug":"/hn/26407560","title":"Ask HN: Those who quit their jobs to travel the world, how did it go?","date":"March 10, 2021","dateISO":"2021-03-10T11:27:17.376Z","datetime":"2021-03-10 11:27","tags":["story","ASK HN","Hacker News"],"image":null,"imageAlt":null,"provider":"Hacker News","thirdPartyId":"26407560","url":"https://news.ycombinator.com/item?id=26407560","originalUrl":"https://news.ycombinator.com/item?id=26407560","imageRemote":null,"video":null,"channel":"ASK HN","channelUrl":"https://news.ycombinator.com/ask","author":"cercatrova","authorUrl":"https://news.ycombinator.com/user?id=cercatrova","authorImage":null,"authorSlug":null,"score":399,"views":null,"sharedCount":null,"likeCount":null,"sharedContent":null,"parent":{"__typename":"HnJson","localize":[{"title":"问HN：那些辞职去环游世界的人，过得怎么样？","locale":"zh"},{"title":"問HN：那些辭職去環遊世界的人，過得怎麼樣？","locale":"zh-Hant"}]}},{"__typename":"SocialMediaPost","id":"HnPost-26400239","excerpt":"","slug":"/hn/26400239","title":"The Roblox Microverse","date":"March 10, 2021","dateISO":"2021-03-10T08:21:32.711Z","datetime":"2021-03-10 08:21","tags":["story","Hacker News"],"image":null,"imageAlt":null,"provider":"Hacker News","thirdPartyId":"26400239","url":"https://news.ycombinator.com/item?id=26400239","originalUrl":"https://stratechery.com/2021/the-roblox-microverse/","imageRemote":"https://stratechery.com/wp-content/uploads/2021/03/roblox-2.png","video":null,"channel":null,"channelUrl":null,"author":"Kinrany","authorUrl":"https://news.ycombinator.com/user?id=Kinrany","authorImage":null,"authorSlug":null,"score":173,"views":null,"sharedCount":null,"likeCount":null,"sharedContent":null,"parent":{"__typename":"HnJson","localize":[{"title":"Roblox微观世界","locale":"zh"},{"title":"Roblox微觀世界","locale":"zh-Hant"}]}},{"__typename":"SocialMediaPost","id":"HnPost-26405919","excerpt":"","slug":"/hn/26405919","title":"Flipper Zero: Tamagochi for Hackers","date":"March 10, 2021","dateISO":"2021-03-10T07:56:54.723Z","datetime":"2021-03-10 07:56","tags":["story","Hacker News"],"image":null,"imageAlt":null,"provider":"Hacker News","thirdPartyId":"26405919","url":"https://news.ycombinator.com/item?id=26405919","originalUrl":"https://flipperzero.one/","imageRemote":"https://static.tildacdn.com/tild3038-3932-4065-a163-656631323038/main-2500-2.jpg","video":null,"channel":null,"channelUrl":null,"author":"tarsiec","authorUrl":"https://news.ycombinator.com/user?id=tarsiec","authorImage":null,"authorSlug":null,"score":181,"views":null,"sharedCount":null,"likeCount":null,"sharedContent":null,"parent":{"__typename":"HnJson","localize":[{"title":"Flipper Zero: Tamagochi for Hackers(黑客)","locale":"zh"},{"title":"Flipper Zero: Tamagochi for Hackers(黑客)","locale":"zh-Hant"}]}},{"__typename":"SocialMediaPost","id":"HnPost-26403669","excerpt":"","slug":"/hn/26403669","title":"RSS as a Facebook alternative","date":"March 10, 2021","dateISO":"2021-03-10T07:28:07.254Z","datetime":"2021-03-10 07:28","tags":["story","Hacker News"],"image":null,"imageAlt":null,"provider":"Hacker News","thirdPartyId":"26403669","url":"https://news.ycombinator.com/item?id=26403669","originalUrl":"https://thenewleafjournal.com/around-the-web-rss-as-a-facebook-alternative/","imageRemote":"https://thenewleafjournal.com/wp-content/uploads/2021/02/rss-article-thumb.png","video":null,"channel":null,"channelUrl":null,"author":"dgrin91","authorUrl":"https://news.ycombinator.com/user?id=dgrin91","authorImage":null,"authorSlug":null,"score":234,"views":null,"sharedCount":null,"likeCount":null,"sharedContent":null,"parent":{"__typename":"HnJson","localize":[{"title":"RSS作为Facebook的替代品","locale":"zh"},{"title":"RSS作爲Facebook的替代品","locale":"zh-Hant"}]}},{"__typename":"SocialMediaPost","id":"HnPost-26406969","excerpt":"","slug":"/hn/26406969","title":"Cloudflare, OKTA Hacked","date":"March 10, 2021","dateISO":"2021-03-10T06:37:08.381Z","datetime":"2021-03-10 06:37","tags":["story","Hacker News"],"image":null,"imageAlt":null,"provider":"Hacker News","thirdPartyId":"26406969","url":"https://news.ycombinator.com/item?id=26406969","originalUrl":"https://twitter.com/nyancrimew/status/1369437256193343496","imageRemote":null,"video":null,"channel":null,"channelUrl":null,"author":"marianov","authorUrl":"https://news.ycombinator.com/user?id=marianov","authorImage":null,"authorSlug":null,"score":165,"views":null,"sharedCount":null,"likeCount":null,"sharedContent":null,"parent":{"__typename":"HnJson","localize":[{"title":"Cloudflare、OKTA被黑客攻击？","locale":"zh"},{"title":"Cloudflare、OKTA被黑客攻擊？","locale":"zh-Hant"}]}},{"__typename":"SocialMediaPost","id":"HnPost-26399672","excerpt":"","slug":"/hn/26399672","title":"Show HN: Diahook – Webhooks as a Service","date":"March 10, 2021","dateISO":"2021-03-10T05:55:43.810Z","datetime":"2021-03-10 05:55","tags":["story","Show HN","Hacker News"],"image":null,"imageAlt":null,"provider":"Hacker News","thirdPartyId":"26399672","url":"https://news.ycombinator.com/item?id=26399672","originalUrl":"https://www.diahook.com/?r=hn","imageRemote":"https://www.diahook.com/_next/static/images/brand-4755c28ace829276a612067e4524aa35.svg","video":null,"channel":"Show HN","channelUrl":"https://news.ycombinator.com/show","author":"tasn","authorUrl":"https://news.ycombinator.com/user?id=tasn","authorImage":null,"authorSlug":null,"score":211,"views":null,"sharedCount":null,"likeCount":null,"sharedContent":null,"parent":{"__typename":"HnJson","localize":[{"title":"显示HN：Diahook - Webhooks作为一项服务。","locale":"zh"},{"title":"顯示HN：Diahook - Webhooks作爲一項服務。","locale":"zh-Hant"}]}},{"__typename":"SocialMediaPost","id":"HnPost-26385413","excerpt":"","slug":"/hn/26385413","title":"The Mathematical Engineering of Deep Learning","date":"March 10, 2021","dateISO":"2021-03-10T05:37:39.915Z","datetime":"2021-03-10 05:37","tags":["story","Hacker News"],"image":null,"imageAlt":null,"provider":"Hacker News","thirdPartyId":"26385413","url":"https://news.ycombinator.com/item?id=26385413","originalUrl":"https://deeplearningmath.org/","imageRemote":"https://deeplearningmath.org/deeplearningmath.png","video":null,"channel":null,"channelUrl":null,"author":"yonin","authorUrl":"https://news.ycombinator.com/user?id=yonin","authorImage":null,"authorSlug":null,"score":160,"views":null,"sharedCount":null,"likeCount":null,"sharedContent":null,"parent":{"__typename":"HnJson","localize":[{"title":"深度学习的数学工程","locale":"zh"},{"title":"深度學習的數學工程","locale":"zh-Hant"}]}},{"__typename":"SocialMediaPost","id":"HnPost-26407323","excerpt":"","slug":"/hn/26407323","title":"Fire declared in OVH SBG2 datacentre building","date":"March 10, 2021","dateISO":"2021-03-10T05:21:56.845Z","datetime":"2021-03-10 05:21","tags":["story","Hacker News"],"image":null,"imageAlt":null,"provider":"Hacker News","thirdPartyId":"26407323","url":"https://news.ycombinator.com/item?id=26407323","originalUrl":"http://travaux.ovh.net/?do=details&id=49471&","imageRemote":"http://travaux.ovh.net/themes/Bluey/percent-0.png","video":null,"channel":null,"channelUrl":null,"author":"finniananderson","authorUrl":"https://news.ycombinator.com/user?id=finniananderson","authorImage":null,"authorSlug":null,"score":1135,"views":null,"sharedCount":null,"likeCount":null,"sharedContent":null,"parent":{"__typename":"HnJson","localize":[{"title":"OVH SBG2数据中心大楼宣布发生火灾。","locale":"zh"},{"title":"OVH SBG2數據中心大樓宣佈發生火災。","locale":"zh-Hant"}]}},{"__typename":"SocialMediaPost","id":"HnPost-26406989","excerpt":"","slug":"/hn/26406989","title":"Why asynchronous Rust doesn't work","date":"March 10, 2021","dateISO":"2021-03-10T04:57:30.683Z","datetime":"2021-03-10 04:57","tags":["story","Hacker News"],"image":null,"imageAlt":null,"provider":"Hacker News","thirdPartyId":"26406989","url":"https://news.ycombinator.com/item?id=26406989","originalUrl":"https://theta.eu.org/2021/03/08/async-rust-2.html","imageRemote":"https://theta.eu.org/assets/img/rust-async/msql-srv.png","video":null,"channel":null,"channelUrl":null,"author":"tazjin","authorUrl":"https://news.ycombinator.com/user?id=tazjin","authorImage":null,"authorSlug":null,"score":591,"views":null,"sharedCount":null,"likeCount":null,"sharedContent":null,"parent":{"__typename":"HnJson","localize":[{"title":"为什么异步Rust不能工作？","locale":"zh"},{"title":"爲什麼異步Rust不能工作？","locale":"zh-Hant"}]}},{"__typename":"SocialMediaPost","id":"HnPost-26387100","excerpt":"","slug":"/hn/26387100","title":"Hertz, the original meme stock, is turning out to be worthless","date":"March 10, 2021","dateISO":"2021-03-10T01:55:35.643Z","datetime":"2021-03-10 01:55","tags":["story","Hacker News"],"image":null,"imageAlt":null,"provider":"Hacker News","thirdPartyId":"26387100","url":"https://news.ycombinator.com/item?id=26387100","originalUrl":"https://www.bloomberg.com/news/articles/2021-03-02/hertz-the-original-meme-stock-is-turning-out-to-be-worthless","imageRemote":null,"video":null,"channel":null,"channelUrl":null,"author":"prostoalex","authorUrl":"https://news.ycombinator.com/user?id=prostoalex","authorImage":null,"authorSlug":null,"score":194,"views":null,"sharedCount":null,"likeCount":null,"sharedContent":null,"parent":{"__typename":"HnJson","localize":[{"title":"赫兹，原来的记忆股，正在变成一文不值的东西","locale":"zh"},{"title":"赫茲，原來的記憶股，正在變成一文不值的東西","locale":"zh-Hant"}]}},{"__typename":"SocialMediaPost","id":"HnPost-26403341","excerpt":"","slug":"/hn/26403341","title":"Show HN: I made a tool to convert images of tables to CSV","date":"March 10, 2021","dateISO":"2021-03-10T01:55:35.643Z","datetime":"2021-03-10 01:55","tags":["story","Show HN","Hacker News"],"image":null,"imageAlt":null,"provider":"Hacker News","thirdPartyId":"26403341","url":"https://news.ycombinator.com/item?id=26403341","originalUrl":"https://github.com/artperrin/image2csv","imageRemote":"https://avatars.githubusercontent.com/u/78485334?s=400&v=4","video":null,"channel":"Show HN","channelUrl":"https://news.ycombinator.com/show","author":"aperrin","authorUrl":"https://news.ycombinator.com/user?id=aperrin","authorImage":null,"authorSlug":null,"score":348,"views":null,"sharedCount":null,"likeCount":null,"sharedContent":null,"parent":{"__typename":"HnJson","localize":[{"title":"显示HN：我做了一个工具，将表格的图像转换为CSV。","locale":"zh"},{"title":"顯示HN：我做了一個工具，將表格的圖像轉換爲CSV。","locale":"zh-Hant"}]}},{"__typename":"SocialMediaPost","id":"HnPost-26405056","excerpt":"","slug":"/hn/26405056","title":"Hackers Break into Thousands of Security Cameras, Exposing Tesla, Jail, Hospital","date":"March 10, 2021","dateISO":"2021-03-10T00:59:37.028Z","datetime":"2021-03-10 00:59","tags":["story","Hacker News"],"image":null,"imageAlt":null,"provider":"Hacker News","thirdPartyId":"26405056","url":"https://news.ycombinator.com/item?id=26405056","originalUrl":"https://www.bnnbloomberg.ca/hackers-break-into-thousands-of-security-cameras-exposing-tesla-jails-hospitals-1.1574681","imageRemote":"http://www.bnnbloomberg.ca/polopoly_fs/1.1574682!/fileimage/httpImage/image.png_gen/derivatives/landscape_620/madison-county-jail-seen-through-a-verkada-camera.png","video":null,"channel":null,"channelUrl":null,"author":"f430","authorUrl":"https://news.ycombinator.com/user?id=f430","authorImage":null,"authorSlug":null,"score":666,"views":null,"sharedCount":null,"likeCount":null,"sharedContent":null,"parent":{"__typename":"HnJson","localize":[{"title":"黑客闯入数千台监控摄像头 曝光特斯拉、监狱、医院","locale":"zh"},{"title":"黑客闖入數千臺監控攝像頭 曝光特斯拉、監獄、醫院","locale":"zh-Hant"}]}},{"__typename":"SocialMediaPost","id":"HnPost-26404830","excerpt":"","slug":"/hn/26404830","title":"Git: Malicious repositories can execute remote code while cloning","date":"March 09, 2021","dateISO":"2021-03-09T23:58:29.258Z","datetime":"2021-03-09 23:58","tags":["story","Hacker News"],"image":null,"imageAlt":null,"provider":"Hacker News","thirdPartyId":"26404830","url":"https://news.ycombinator.com/item?id=26404830","originalUrl":"https://www.openwall.com/lists/oss-security/2021/03/09/3","imageRemote":"https://www.openwall.com/logo.png","video":null,"channel":null,"channelUrl":null,"author":"todsacerdoti","authorUrl":"https://news.ycombinator.com/user?id=todsacerdoti","authorImage":null,"authorSlug":null,"score":624,"views":null,"sharedCount":null,"likeCount":null,"sharedContent":null,"parent":{"__typename":"HnJson","localize":[{"title":"Git 恶意仓库可以在克隆时执行远程代码。","locale":"zh"},{"title":"Git 惡意倉庫可以在克隆時執行遠程代碼。","locale":"zh-Hant"}]}},{"__typename":"SocialMediaPost","id":"HnPost-26401568","excerpt":"","slug":"/hn/26401568","title":"Internet Archive Scholar: Search Millions of Research Papers","date":"March 09, 2021","dateISO":"2021-03-09T23:51:19.481Z","datetime":"2021-03-09 23:51","tags":["story","Hacker News"],"image":null,"imageAlt":null,"provider":"Hacker News","thirdPartyId":"26401568","url":"https://news.ycombinator.com/item?id=26401568","originalUrl":"http://blog.archive.org/2021/03/09/search-scholarly-materials-preserved-in-the-internet-archive/","imageRemote":"https://scholar-qa.archive.org/static/scholar-vaporwave-logo.png","video":null,"channel":null,"channelUrl":null,"author":"bnewbold","authorUrl":"https://news.ycombinator.com/user?id=bnewbold","authorImage":null,"authorSlug":null,"score":340,"views":null,"sharedCount":null,"likeCount":null,"sharedContent":null,"parent":{"__typename":"HnJson","localize":[{"title":"互联网档案馆学者。搜索数以百万计的研究论文","locale":"zh"},{"title":"互聯網檔案館學者。搜索數以百萬計的研究論文","locale":"zh-Hant"}]}},{"__typename":"SocialMediaPost","id":"HnPost-26403614","excerpt":"","slug":"/hn/26403614","title":"T-Mobile to share customers' data with advertisers unless they opt out","date":"March 09, 2021","dateISO":"2021-03-09T23:34:50.335Z","datetime":"2021-03-09 23:34","tags":["story","Hacker News"],"image":null,"imageAlt":null,"provider":"Hacker News","thirdPartyId":"26403614","url":"https://news.ycombinator.com/item?id=26403614","originalUrl":"https://thehill.com/policy/technology/542303-t-mobile-to-share-customers-web-mobile-app-data-with-advertisers-unless","imageRemote":"https://thehill.com/sites/default/files/tmobile_032410getty_lead.jpg","video":null,"channel":null,"channelUrl":null,"author":"34679","authorUrl":"https://news.ycombinator.com/user?id=34679","authorImage":null,"authorSlug":null,"score":368,"views":null,"sharedCount":null,"likeCount":null,"sharedContent":null,"parent":{"__typename":"HnJson","localize":[{"title":"T-Mobile将与广告商共享客户数据，除非他们选择退出。","locale":"zh"},{"title":"T-Mobile將與廣告商共享客戶數據，除非他們選擇退出。","locale":"zh-Hant"}]}},{"__typename":"SocialMediaPost","id":"HnPost-26399377","excerpt":"","slug":"/hn/26399377","title":"Esbuild 0.9","date":"March 09, 2021","dateISO":"2021-03-09T22:42:17.721Z","datetime":"2021-03-09 22:42","tags":["story","Hacker News"],"image":null,"imageAlt":null,"provider":"Hacker News","thirdPartyId":"26399377","url":"https://news.ycombinator.com/item?id=26399377","originalUrl":"https://github.com/evanw/esbuild/releases/tag/v0.9.0","imageRemote":"https://repository-images.githubusercontent.com/61137153/980bce80-192f-11eb-98b7-d06ecb974e52","video":null,"channel":null,"channelUrl":null,"author":"swyx","authorUrl":"https://news.ycombinator.com/user?id=swyx","authorImage":null,"authorSlug":null,"score":253,"views":null,"sharedCount":null,"likeCount":null,"sharedContent":null,"parent":{"__typename":"HnJson","localize":[{"title":"Esbuild 0.9","locale":"zh"},{"title":"Esbuild 0.9","locale":"zh-Hant"}]}},{"__typename":"SocialMediaPost","id":"HnPost-26402682","excerpt":"","slug":"/hn/26402682","title":"UK businesses caught buying five-star Google reviews","date":"March 09, 2021","dateISO":"2021-03-09T22:17:39.383Z","datetime":"2021-03-09 22:17","tags":["story","Hacker News"],"image":null,"imageAlt":null,"provider":"Hacker News","thirdPartyId":"26402682","url":"https://news.ycombinator.com/item?id=26402682","originalUrl":"https://www.bbc.com/news/technology-56321576","imageRemote":"https://ichef.bbci.co.uk/news/1024/branded_news/154EF/production/_117497278_gettyimages-1174370345-1.jpg","video":null,"channel":null,"channelUrl":null,"author":"leephillips","authorUrl":"https://news.ycombinator.com/user?id=leephillips","authorImage":null,"authorSlug":null,"score":375,"views":null,"sharedCount":null,"likeCount":null,"sharedContent":null,"parent":{"__typename":"HnJson","localize":[{"title":"英国企业购买谷歌五星评价被抓","locale":"zh"},{"title":"英國企業購買谷歌五星評價被抓","locale":"zh-Hant"}]}},{"__typename":"SocialMediaPost","id":"HnPost-26401786","excerpt":"","slug":"/hn/26401786","title":"Girls perform better academically in almost all countries (2015)","date":"March 09, 2021","dateISO":"2021-03-09T20:54:22.960Z","datetime":"2021-03-09 20:54","tags":["story","Hacker News"],"image":null,"imageAlt":null,"provider":"Hacker News","thirdPartyId":"26401786","url":"https://news.ycombinator.com/item?id=26401786","originalUrl":"http://www.economist.com/news/international/21645759-boys-are-being-outclassed-girls-both-school-and-university-and-gap","imageRemote":"https://www.economist.com/img/b/595/335/90/sites/default/files/images/print-edition/20150307_IRP002_2.jpg","video":null,"channel":null,"channelUrl":null,"author":"ddtaylor","authorUrl":"https://news.ycombinator.com/user?id=ddtaylor","authorImage":null,"authorSlug":null,"score":264,"views":null,"sharedCount":null,"likeCount":null,"sharedContent":null,"parent":{"__typename":"HnJson","localize":[{"title":"几乎所有国家的女孩都在学业上表现更好(2015年)","locale":"zh"},{"title":"幾乎所有國家的女孩都在學業上表現更好(2015年)","locale":"zh-Hant"}]}},{"__typename":"SocialMediaPost","id":"HnPost-26401955","excerpt":"","slug":"/hn/26401955","title":"Webmention.io","date":"March 09, 2021","dateISO":"2021-03-09T20:47:37.624Z","datetime":"2021-03-09 20:47","tags":["story","Hacker News"],"image":null,"imageAlt":null,"provider":"Hacker News","thirdPartyId":"26401955","url":"https://news.ycombinator.com/item?id=26401955","originalUrl":"https://webmention.io/","imageRemote":"https://webmention.io/img/webmention-logo-380.png","video":null,"channel":null,"channelUrl":null,"author":"bezelbuttons","authorUrl":"https://news.ycombinator.com/user?id=bezelbuttons","authorImage":null,"authorSlug":null,"score":387,"views":null,"sharedCount":null,"likeCount":null,"sharedContent":null,"parent":{"__typename":"HnJson","localize":[{"title":"Webmention.io","locale":"zh"},{"title":"Webmention.io","locale":"zh-Hant"}]}}]}},"pageContext":{"basePath":"/","pageType":"tag","tag":"story","tagsFilter":{"id":{"glob":"!*Post-1"}},"filter":{"id":{"glob":"!*Post-1"},"tags":{"eq":"story"}},"limit":25,"skip":225,"total":2599,"totalPages":104,"currentPage":10,"maxWidth":1024,"maxHeight":512,"locale":"zh-Hant","hrefLang":"zh-Hant","originalPath":"/tags/story/page/10","dateFormat":"YYYY-MM-DD"}},"staticQueryHashes":["1239077767","2506312863","2744905544","3025052997","3493603132","3493603132","3513215887","386998304"]}