{"componentChunkName":"component---gatsby-theme-buzzing-src-gatsby-theme-timeline-templates-posts-query-js","path":"/tags/hacker-news/page/2","result":{"data":{"site":{"siteMetadata":{"title":"Reddit 热门","description":"用中文浏览Reddit热门内容","social":[{"name":"Reddit","url":"https://www.reddit.com/","external":true,"prefetch":null},{"name":"GitHub","url":"https://github.com/gatsbyjs","external":null,"prefetch":null}],"menuLinks":[{"name":"每周精选","url":"/issues","external":null,"prefetch":null},{"name":"RSS","url":"/rss.xml","external":null,"prefetch":false}],"localize":[{"locale":"en","title":"Buzzing on Reddit","description":"See what's buzzing on Reddit in your native language","social":[{"name":"Reddit","url":"https://www.reddit.com/","external":true,"prefetch":null}],"menuLinks":[{"name":"Weekly Selection","url":"/issues","external":null,"prefetch":null},{"name":"RSS","url":"/rss.xml","external":null,"prefetch":false}]},{"locale":"zh-Hant","title":"Reddit 熱門","description":"用中文瀏覽Reddit熱門內容","social":null,"menuLinks":null}]}},"tagsGroup":{"group":[{"fieldValue":"ASK HN","totalCount":19},{"fieldValue":"Bitcoin","totalCount":3},{"fieldValue":"Hacker News","totalCount":800},{"fieldValue":"Poll","totalCount":1},{"fieldValue":"Show HN","totalCount":31},{"fieldValue":"investing","totalCount":166},{"fieldValue":"poll","totalCount":1},{"fieldValue":"reddit","totalCount":592},{"fieldValue":"science","totalCount":1},{"fieldValue":"stocks","totalCount":276},{"fieldValue":"story","totalCount":799},{"fieldValue":"tweet","totalCount":242},{"fieldValue":"wallstreetbets","totalCount":150}]},"allBlogPost":{"nodes":[{"__typename":"SocialMediaPost","id":"HnPost-25675556","excerpt":"","slug":"/hn/25675556","title":"CVE-2021-3011: Key recovery on Google Titan Key","date":"January 08, 2021","dateISO":"2021-01-08T06:00:42.247Z","datetime":"2021-01-08 06:00","tags":["story","Hacker News"],"image":null,"imageAlt":null,"provider":"Hacker News","thirdPartyId":"25675556","url":"https://news.ycombinator.com/item?id=25675556","originalUrl":"https://ninjalab.io/a-side-journey-to-titan/","imageRemote":"https://ninjalab.io/wp-content/uploads/2021/01/Titan_Bluetooth_EM_probe.png","video":null,"channel":null,"channelUrl":null,"author":"hexa-","authorUrl":"https://news.ycombinator.com/user?id=hexa-","authorImage":null,"authorSlug":null,"score":201,"views":null,"sharedCount":null,"likeCount":null,"sharedContent":null,"parent":{"__typename":"HnJson","localize":[{"title":"CVE-2021-3011：Google Titan Key上的密钥恢复","locale":"zh"},{"title":"CVE-2021-3011：Google Titan Key上的密鑰恢復","locale":"zh-Hant"}]}},{"__typename":"SocialMediaPost","id":"HnPost-25675763","excerpt":"","slug":"/hn/25675763","title":"Apple relases open source modules of Big Sur","date":"January 08, 2021","dateISO":"2021-01-08T06:00:42.247Z","datetime":"2021-01-08 06:00","tags":["story","Hacker News"],"image":null,"imageAlt":null,"provider":"Hacker News","thirdPartyId":"25675763","url":"https://news.ycombinator.com/item?id=25675763","originalUrl":"https://opensource.apple.com/release/macos-1101.html","imageRemote":"https://opensource.apple.com/static/images/icon_downloads.png","video":null,"channel":null,"channelUrl":null,"author":"giuliomagnifico","authorUrl":"https://news.ycombinator.com/user?id=giuliomagnifico","authorImage":null,"authorSlug":null,"score":201,"views":null,"sharedCount":null,"likeCount":null,"sharedContent":null,"parent":{"__typename":"HnJson","localize":[{"title":"苹果转售Big Sur的开源模块","locale":"zh"},{"title":"蘋果轉售Big Sur的開源模塊","locale":"zh-Hant"}]}},{"__typename":"SocialMediaPost","id":"HnPost-25675249","excerpt":"","slug":"/hn/25675249","title":"Epic acquires RAD Game Tools","date":"January 08, 2021","dateISO":"2021-01-08T05:20:41.123Z","datetime":"2021-01-08 05:20","tags":["story","Hacker News"],"image":null,"imageAlt":null,"provider":"Hacker News","thirdPartyId":"25675249","url":"https://news.ycombinator.com/item?id=25675249","originalUrl":"https://www.epicgames.com/site/en-US/news/epic-acquires-rad-game-tools","imageRemote":"https://cdn2.unrealengine.com/555x500-555x500-6a965e5b97f2.png","video":null,"channel":null,"channelUrl":null,"author":"jsheard","authorUrl":"https://news.ycombinator.com/user?id=jsheard","authorImage":null,"authorSlug":null,"score":202,"views":null,"sharedCount":null,"likeCount":null,"sharedContent":null,"parent":{"__typename":"HnJson","localize":[{"title":"EPIC收购RAD游戏工具","locale":"zh"},{"title":"EPIC收購RAD遊戲工具","locale":"zh-Hant"}]}},{"__typename":"SocialMediaPost","id":"HnPost-25673495","excerpt":"","slug":"/hn/25673495","title":"My stack is HTML+CSS","date":"January 08, 2021","dateISO":"2021-01-08T04:50:45.633Z","datetime":"2021-01-08 04:50","tags":["story","Hacker News"],"image":null,"imageAlt":null,"provider":"Hacker News","thirdPartyId":"25673495","url":"https://news.ycombinator.com/item?id=25673495","originalUrl":"https://blog.steren.fr/2020/my-stack-will-outlive-yours/","imageRemote":"https://blog.steren.fr/2020/my-stack-will-outlive-yours/lighthouse-score-improve.png","video":null,"channel":null,"channelUrl":null,"author":"zdw","authorUrl":"https://news.ycombinator.com/user?id=zdw","authorImage":null,"authorSlug":null,"score":201,"views":null,"sharedCount":null,"likeCount":null,"sharedContent":null,"parent":{"__typename":"HnJson","localize":[{"title":"我的堆栈是HTML+CSS","locale":"zh"},{"title":"我的堆棧是HTML+CSS","locale":"zh-Hant"}]}},{"__typename":"SocialMediaPost","id":"HnPost-25679388","excerpt":"","slug":"/hn/25679388","title":"Sealed U.S. Court Records Exposed in SolarWinds Breach","date":"January 08, 2021","dateISO":"2021-01-08T04:50:45.633Z","datetime":"2021-01-08 04:50","tags":["story","Hacker News"],"image":null,"imageAlt":null,"provider":"Hacker News","thirdPartyId":"25679388","url":"https://news.ycombinator.com/item?id=25679388","originalUrl":"https://krebsonsecurity.com/2021/01/sealed-u-s-court-records-exposed-in-solarwinds-breach/","imageRemote":"https://krebsonsecurity.com/wp-content/uploads/2021/01/uscourts.png","video":null,"channel":null,"channelUrl":null,"author":"parsecs","authorUrl":"https://news.ycombinator.com/user?id=parsecs","authorImage":null,"authorSlug":null,"score":207,"views":null,"sharedCount":null,"likeCount":null,"sharedContent":null,"parent":{"__typename":"HnJson","localize":[{"title":"SolarWinds泄密事件曝光密封的美国法院记录","locale":"zh"},{"title":"SolarWinds泄密事件曝光密封的美國法院記錄","locale":"zh-Hant"}]}},{"__typename":"SocialMediaPost","id":"HnPost-25674134","excerpt":"","slug":"/hn/25674134","title":"Thonny: A hassle-free Python micro-IDE","date":"January 08, 2021","dateISO":"2021-01-08T02:32:32.117Z","datetime":"2021-01-08 02:32","tags":["story","Hacker News"],"image":null,"imageAlt":null,"provider":"Hacker News","thirdPartyId":"25674134","url":"https://news.ycombinator.com/item?id=25674134","originalUrl":"https://thonny.org/","imageRemote":"https://thonny.org/img/download.png","video":null,"channel":null,"channelUrl":null,"author":"nine_k","authorUrl":"https://news.ycombinator.com/user?id=nine_k","authorImage":null,"authorSlug":null,"score":266,"views":null,"sharedCount":null,"likeCount":null,"sharedContent":null,"parent":{"__typename":"HnJson","localize":[{"title":"Thonny：一种无麻烦的Python微IDE","locale":"zh"},{"title":"Thonny：一種無麻煩的Python微IDE","locale":"zh-Hant"}]}},{"__typename":"SocialMediaPost","id":"HnPost-25675787","excerpt":"","slug":"/hn/25675787","title":"A physical breach is a nightmare scenario for Capitol IT","date":"January 08, 2021","dateISO":"2021-01-08T02:32:32.117Z","datetime":"2021-01-08 02:32","tags":["story","Hacker News"],"image":null,"imageAlt":null,"provider":"Hacker News","thirdPartyId":"25675787","url":"https://news.ycombinator.com/item?id=25675787","originalUrl":"https://twitter.com/jacobian/status/1347000969435860993","imageRemote":null,"video":null,"channel":null,"channelUrl":null,"author":"rmason","authorUrl":"https://news.ycombinator.com/user?id=rmason","authorImage":null,"authorSlug":null,"score":289,"views":null,"sharedCount":null,"likeCount":null,"sharedContent":null,"parent":{"__typename":"HnJson","localize":[{"title":"物理漏洞对Capitol IT来说是一场噩梦","locale":"zh"},{"title":"物理漏洞對Capitol IT來說是一場噩夢","locale":"zh-Hant"}]}},{"__typename":"SocialMediaPost","id":"HnPost-25677556","excerpt":"","slug":"/hn/25677556","title":"DOJ fines Boeing over $2.5B, charges it with fraud conspiracy","date":"January 08, 2021","dateISO":"2021-01-08T02:32:32.117Z","datetime":"2021-01-08 02:32","tags":["story","Hacker News"],"image":null,"imageAlt":null,"provider":"Hacker News","thirdPartyId":"25677556","url":"https://news.ycombinator.com/item?id=25677556","originalUrl":"https://www.cnbc.com/2021/01/07/doj-fines-boeing-over-2point5-billion-charges-it-with-fraud-conspiracy-over-737-max-crashes.html","imageRemote":"https://image.cnbcfm.com/api/v1/image/106346772-15796283718262020-01-20t125547z_1926596068_rc2oje9pnbqv_rtrmadp_3_boeing-737max-brand.jpg?v=1610053920","video":null,"channel":null,"channelUrl":null,"author":"Lapz","authorUrl":"https://news.ycombinator.com/user?id=Lapz","authorImage":null,"authorSlug":null,"score":281,"views":null,"sharedCount":null,"likeCount":null,"sharedContent":null,"parent":{"__typename":"HnJson","localize":[{"title":"美国司法部对波音罚款超过25亿美元，指控其共谋欺诈","locale":"zh"},{"title":"美國司法部對波音罰款超過25億美元，指控其共謀欺詐","locale":"zh-Hant"}]}},{"__typename":"SocialMediaPost","id":"HnPost-25679618","excerpt":"","slug":"/hn/25679618","title":"CO2 already emitted will warm Earth beyond climate targets","date":"January 08, 2021","dateISO":"2021-01-08T02:32:32.117Z","datetime":"2021-01-08 02:32","tags":["story","Hacker News"],"image":null,"imageAlt":null,"provider":"Hacker News","thirdPartyId":"25679618","url":"https://news.ycombinator.com/item?id=25679618","originalUrl":"https://www.cbc.ca/news/technology/climate-targets-1.5861537","imageRemote":"https://i.cbc.ca/1.4922800.1543350548!/cpImage/httpImage/image.jpg_gen/derivatives/16x9_620/us-coal-s-decline.jpg","video":null,"channel":null,"channelUrl":null,"author":"colinprince","authorUrl":"https://news.ycombinator.com/user?id=colinprince","authorImage":null,"authorSlug":null,"score":299,"views":null,"sharedCount":null,"likeCount":null,"sharedContent":null,"parent":{"__typename":"HnJson","localize":[{"title":"已经排放的二氧化碳将使地球变暖，超过气候目标","locale":"zh"},{"title":"已經排放的二氧化碳將使地球變暖，超過氣候目標","locale":"zh-Hant"}]}},{"__typename":"SocialMediaPost","id":"HnPost-25677144","excerpt":"","slug":"/hn/25677144","title":"Nuclear lighthouses built by the Soviets in the Arctic [video]","date":"January 07, 2021","dateISO":"2021-01-07T23:57:37.059Z","datetime":"2021-01-07 23:57","tags":["story","Hacker News"],"image":null,"imageAlt":null,"provider":"Hacker News","thirdPartyId":"25677144","url":"https://news.ycombinator.com/item?id=25677144","originalUrl":"https://www.bbc.com/reel/video/p0931jtk/the-nuclear-lighthouses-built-by-the-soviets-in-the-arctic","imageRemote":"https://ychef.files.bbci.co.uk/1376x774/p0931lk9.jpg","video":null,"channel":null,"channelUrl":null,"author":"etimberg","authorUrl":"https://news.ycombinator.com/user?id=etimberg","authorImage":null,"authorSlug":null,"score":384,"views":null,"sharedCount":null,"likeCount":null,"sharedContent":null,"parent":{"__typename":"HnJson","localize":[{"title":"苏联在北极建造的核灯塔[视频]","locale":"zh"},{"title":"蘇聯在北極建造的核燈塔[視頻]","locale":"zh-Hant"}]}},{"__typename":"SocialMediaPost","id":"HnPost-25674964","excerpt":"","slug":"/hn/25674964","title":"Simple Bank Is Closing","date":"January 07, 2021","dateISO":"2021-01-07T23:20:11.979Z","datetime":"2021-01-07 23:20","tags":["story","Hacker News"],"image":null,"imageAlt":null,"provider":"Hacker News","thirdPartyId":"25674964","url":"https://news.ycombinator.com/item?id=25674964","originalUrl":"https://www.oregonlive.com/silicon-forest/2021/01/simple-portland-online-banker-is-shutting-down.html","imageRemote":"https://www.oregonlive.com/resizer/OPUA_JVudGNJzDChLy2PP7_CJr8=/1280x0/smart/cloudfront-us-east-1.images.arcpublishing.com/advancelocal/YTPDPPH7GRDAJFUEDDFVJTOZ2Q.jpeg","video":null,"channel":null,"channelUrl":null,"author":"roberto8647","authorUrl":"https://news.ycombinator.com/user?id=roberto8647","authorImage":null,"authorSlug":null,"score":443,"views":null,"sharedCount":null,"likeCount":null,"sharedContent":null,"parent":{"__typename":"HnJson","localize":[{"title":"简单银行正在倒闭","locale":"zh"},{"title":"簡單銀行正在倒閉","locale":"zh-Hant"}]}},{"__typename":"SocialMediaPost","id":"HnPost-25677573","excerpt":"","slug":"/hn/25677573","title":"Boeing charged with 737 Max fraud conspiracy and agrees to pay over $2.5B","date":"January 07, 2021","dateISO":"2021-01-07T22:57:36.981Z","datetime":"2021-01-07 22:57","tags":["story","Hacker News"],"image":null,"imageAlt":null,"provider":"Hacker News","thirdPartyId":"25677573","url":"https://news.ycombinator.com/item?id=25677573","originalUrl":"https://www.justice.gov/opa/pr/boeing-charged-737-max-fraud-conspiracy-and-agrees-pay-over-25-billion","imageRemote":"https://www.justice.gov/sites/all/modules/features/doj_sharing/images/doj-seal-fb.jpg","video":null,"channel":null,"channelUrl":null,"author":"edward","authorUrl":"https://news.ycombinator.com/user?id=edward","authorImage":null,"authorSlug":null,"score":387,"views":null,"sharedCount":null,"likeCount":null,"sharedContent":null,"parent":{"__typename":"HnJson","localize":[{"title":"波音被控737 MAX欺诈共谋并同意支付超过25亿美元","locale":"zh"},{"title":"波音被控737 MAX欺詐共謀並同意支付超過25億美元","locale":"zh-Hant"}]}},{"__typename":"SocialMediaPost","id":"HnPost-25673441","excerpt":"","slug":"/hn/25673441","title":"Ask HN: How would you convince your friends and family to switch from WhatsApp?","date":"January 07, 2021","dateISO":"2021-01-07T21:28:39.285Z","datetime":"2021-01-07 21:28","tags":["story","ASK HN","Hacker News"],"image":null,"imageAlt":null,"provider":"Hacker News","thirdPartyId":"25673441","url":"https://news.ycombinator.com/item?id=25673441","originalUrl":"https://news.ycombinator.com/item?id=25673441","imageRemote":null,"video":null,"channel":"ASK HN","channelUrl":"https://news.ycombinator.com/ask","author":"millibar","authorUrl":"https://news.ycombinator.com/user?id=millibar","authorImage":null,"authorSlug":null,"score":231,"views":null,"sharedCount":null,"likeCount":null,"sharedContent":null,"parent":{"__typename":"HnJson","localize":[{"title":"HN提问：你如何说服你的朋友和家人改用WhatsApp？","locale":"zh"},{"title":"HN提問：你如何說服你的朋友和家人改用WhatsApp？","locale":"zh-Hant"}]}},{"__typename":"SocialMediaPost","id":"HnPost-25673631","excerpt":"","slug":"/hn/25673631","title":"Dissecting the Apple M1 GPU, part I","date":"January 07, 2021","dateISO":"2021-01-07T20:26:50.580Z","datetime":"2021-01-07 20:26","tags":["story","Hacker News"],"image":null,"imageAlt":null,"provider":"Hacker News","thirdPartyId":"25673631","url":"https://news.ycombinator.com/item?id=25673631","originalUrl":"https://rosenzweig.io/blog/asahi-gpu-part-1.html","imageRemote":null,"video":null,"channel":null,"channelUrl":null,"author":"caution","authorUrl":"https://news.ycombinator.com/user?id=caution","authorImage":null,"authorSlug":null,"score":475,"views":null,"sharedCount":null,"likeCount":null,"sharedContent":null,"parent":{"__typename":"HnJson","localize":[{"title":"剖析Apple M1 GPU，第一部分","locale":"zh"},{"title":"剖析Apple M1 GPU，第一部分","locale":"zh-Hant"}]}},{"__typename":"SocialMediaPost","id":"HnPost-25673275","excerpt":"","slug":"/hn/25673275","title":"No Meetings, No Deadlines, No Full-Time Employees","date":"January 07, 2021","dateISO":"2021-01-07T18:57:28.731Z","datetime":"2021-01-07 18:57","tags":["story","Hacker News"],"image":null,"imageAlt":null,"provider":"Hacker News","thirdPartyId":"25673275","url":"https://news.ycombinator.com/item?id=25673275","originalUrl":"https://sahillavingia.com/work","imageRemote":"https://sahillavingia.com/gumroadians.png","video":null,"channel":null,"channelUrl":null,"author":"sahillavingia","authorUrl":"https://news.ycombinator.com/user?id=sahillavingia","authorImage":null,"authorSlug":null,"score":1159,"views":null,"sharedCount":null,"likeCount":null,"sharedContent":null,"parent":{"__typename":"HnJson","localize":[{"title":"没有会议，没有最后期限，没有全职员工","locale":"zh"},{"title":"沒有會議，沒有最後期限，沒有全職員工","locale":"zh-Hant"}]}},{"__typename":"SocialMediaPost","id":"HnPost-25666929","excerpt":"","slug":"/hn/25666929","title":"M1 Macs cannot support dual Extended displays through their Thunderbolt 3 ports","date":"January 07, 2021","dateISO":"2021-01-07T18:17:01.261Z","datetime":"2021-01-07 18:17","tags":["story","Hacker News"],"image":null,"imageAlt":null,"provider":"Hacker News","thirdPartyId":"25666929","url":"https://news.ycombinator.com/item?id=25666929","originalUrl":"https://www.caldigit.com/apple-silicon-mac-and-caldigit-dock-compatibility/","imageRemote":null,"video":null,"channel":null,"channelUrl":null,"author":"juliangamble","authorUrl":"https://news.ycombinator.com/user?id=juliangamble","authorImage":null,"authorSlug":null,"score":212,"views":null,"sharedCount":null,"likeCount":null,"sharedContent":null,"parent":{"__typename":"HnJson","localize":[{"title":"M1 Mac无法通过其十万伏特3端口支持双扩展显示器","locale":"zh"},{"title":"M1 Mac無法通過其十萬伏特3端口支持雙擴展顯示器","locale":"zh-Hant"}]}},{"__typename":"SocialMediaPost","id":"HnPost-25669840","excerpt":"","slug":"/hn/25669840","title":"Donate to Signal","date":"January 07, 2021","dateISO":"2021-01-07T18:17:01.260Z","datetime":"2021-01-07 18:17","tags":["story","Hacker News"],"image":null,"imageAlt":null,"provider":"Hacker News","thirdPartyId":"25669840","url":"https://news.ycombinator.com/item?id=25669840","originalUrl":"https://signal.org/donate/","imageRemote":"https://signal.org/assets/og/og-image-ff2096df535eee499356de64b19fa8cebb9681ab1e78cca7330e7f8b8d5ec6d5.png","video":null,"channel":null,"channelUrl":null,"author":"nanna","authorUrl":"https://news.ycombinator.com/user?id=nanna","authorImage":null,"authorSlug":null,"score":432,"views":null,"sharedCount":null,"likeCount":null,"sharedContent":null,"parent":{"__typename":"HnJson","localize":[{"title":"捐赠给Signal","locale":"zh"},{"title":"捐贈給Signal","locale":"zh-Hant"}]}},{"__typename":"SocialMediaPost","id":"HnPost-25669316","excerpt":"","slug":"/hn/25669316","title":"Traffic Simulator","date":"January 07, 2021","dateISO":"2021-01-07T17:07:06.534Z","datetime":"2021-01-07 17:07","tags":["story","Hacker News"],"image":null,"imageAlt":null,"provider":"Hacker News","thirdPartyId":"25669316","url":"https://news.ycombinator.com/item?id=25669316","originalUrl":"https://traffic-simulation.de/","imageRemote":"https://traffic-simulation.de/figs/buttonStop3_small.png","video":null,"channel":null,"channelUrl":null,"author":"eecc","authorUrl":"https://news.ycombinator.com/user?id=eecc","authorImage":null,"authorSlug":null,"score":477,"views":null,"sharedCount":null,"likeCount":null,"sharedContent":null,"parent":{"__typename":"HnJson","localize":[{"title":"交通模拟器","locale":"zh"},{"title":"交通模擬器","locale":"zh-Hant"}]}},{"__typename":"SocialMediaPost","id":"HnPost-25672461","excerpt":"","slug":"/hn/25672461","title":"Facebook Indefinitely Suspends Trump","date":"January 07, 2021","dateISO":"2021-01-07T17:07:06.534Z","datetime":"2021-01-07 17:07","tags":["story","Hacker News"],"image":null,"imageAlt":null,"provider":"Hacker News","thirdPartyId":"25672461","url":"https://news.ycombinator.com/item?id=25672461","originalUrl":"https://www.facebook.com/4/posts/10112681480907401/","imageRemote":"https://scontent-sjc3-1.xx.fbcdn.net/v/t1.0-1/s200x200/79515135_10111007623880301_5111576226921709568_o.jpg?_nc_cat=1&ccb=2&_nc_sid=bbed71&_nc_ohc=4skTL-E2FcwAX-PzxJN&_nc_ht=scontent-sjc3-1.xx&tp=7&oh=8253bce638352035d2d49ed2c1e4cd48&oe=601BDA37","video":null,"channel":null,"channelUrl":null,"author":"jaredwiener","authorUrl":"https://news.ycombinator.com/user?id=jaredwiener","authorImage":null,"authorSlug":null,"score":921,"views":null,"sharedCount":null,"likeCount":null,"sharedContent":null,"parent":{"__typename":"HnJson","localize":[{"title":"Facebook无限期暂停特朗普","locale":"zh"},{"title":"Facebook無限期暫停特朗普","locale":"zh-Hant"}]}},{"__typename":"SocialMediaPost","id":"HnPost-25669864","excerpt":"","slug":"/hn/25669864","title":"Poll: Switching from WhatsApp","date":"January 07, 2021","dateISO":"2021-01-07T13:51:54.463Z","datetime":"2021-01-07 13:51","tags":["poll","Poll","Hacker News"],"image":null,"imageAlt":null,"provider":"Hacker News","thirdPartyId":"25669864","url":"https://news.ycombinator.com/item?id=25669864","originalUrl":"https://news.ycombinator.com/item?id=25669864","imageRemote":null,"video":null,"channel":null,"channelUrl":null,"author":"ColinWright","authorUrl":"https://news.ycombinator.com/user?id=ColinWright","authorImage":null,"authorSlug":null,"score":935,"views":null,"sharedCount":null,"likeCount":null,"sharedContent":null,"parent":{"__typename":"HnJson","localize":[{"title":"民意调查：从WhatsApp切换","locale":"zh"},{"title":"民意調查：從WhatsApp切換","locale":"zh-Hant"}]}},{"__typename":"SocialMediaPost","id":"HnPost-25667251","excerpt":"","slug":"/hn/25667251","title":"Infosec implications of the US Capitol physical breach","date":"January 07, 2021","dateISO":"2021-01-07T11:38:30.707Z","datetime":"2021-01-07 11:38","tags":["story","Hacker News"],"image":null,"imageAlt":null,"provider":"Hacker News","thirdPartyId":"25667251","url":"https://news.ycombinator.com/item?id=25667251","originalUrl":"https://twitter.com/neurovagrant/status/1346964347684179970","imageRemote":null,"video":null,"channel":null,"channelUrl":null,"author":"ytpete","authorUrl":"https://news.ycombinator.com/user?id=ytpete","authorImage":null,"authorSlug":null,"score":373,"views":null,"sharedCount":null,"likeCount":null,"sharedContent":null,"parent":{"__typename":"HnJson","localize":[{"title":"美国国会大厦物理入侵事件的信息安全含义","locale":"zh"},{"title":"美國國會大廈物理入侵事件的信息安全含義","locale":"zh-Hant"}]}},{"__typename":"SocialMediaPost","id":"HnPost-25658704","excerpt":"","slug":"/hn/25658704","title":"PeerJS – Simple peer-to-peer with WebRTC","date":"January 07, 2021","dateISO":"2021-01-07T10:59:24.696Z","datetime":"2021-01-07 10:59","tags":["story","Hacker News"],"image":null,"imageAlt":null,"provider":"Hacker News","thirdPartyId":"25658704","url":"https://news.ycombinator.com/item?id=25658704","originalUrl":"https://peerjs.com/","imageRemote":"https://s3.amazonaws.com/github/ribbons/forkme_right_darkblue_121621.png","video":null,"channel":null,"channelUrl":null,"author":"caminocorner","authorUrl":"https://news.ycombinator.com/user?id=caminocorner","authorImage":null,"authorSlug":null,"score":208,"views":null,"sharedCount":null,"likeCount":null,"sharedContent":null,"parent":{"__typename":"HnJson","localize":[{"title":"PeerJS-使用WebRTC的简单点对点","locale":"zh"},{"title":"PeerJS-使用WebRTC的簡單點對點","locale":"zh-Hant"}]}},{"__typename":"SocialMediaPost","id":"HnPost-25663729","excerpt":"","slug":"/hn/25663729","title":"A Look at the CPU Security Mitigation Costs Three Years After Spectre/Meltdown","date":"January 07, 2021","dateISO":"2021-01-07T10:59:24.696Z","datetime":"2021-01-07 10:59","tags":["story","Hacker News"],"image":null,"imageAlt":null,"provider":"Hacker News","thirdPartyId":"25663729","url":"https://news.ycombinator.com/item?id=25663729","originalUrl":"https://www.phoronix.com/scan.php?page=article&item=3-years-specmelt&num=1","imageRemote":"https://www.phoronix.net/image.php?id=3-years-specmelt&image=specmelt_3_1_med","video":null,"channel":null,"channelUrl":null,"author":"zdw","authorUrl":"https://news.ycombinator.com/user?id=zdw","authorImage":null,"authorSlug":null,"score":276,"views":null,"sharedCount":null,"likeCount":null,"sharedContent":null,"parent":{"__typename":"HnJson","localize":[{"title":"Spectre/Meltdown之后三年的CPU安全缓解成本","locale":"zh"},{"title":"Spectre/Meltdown之後三年的CPU安全緩解成本","locale":"zh-Hant"}]}},{"__typename":"SocialMediaPost","id":"HnPost-25643940","excerpt":"","slug":"/hn/25643940","title":"Ask HN: What does mastery look like in software engineering?","date":"January 07, 2021","dateISO":"2021-01-07T09:16:02.161Z","datetime":"2021-01-07 09:16","tags":["story","ASK HN","Hacker News"],"image":null,"imageAlt":null,"provider":"Hacker News","thirdPartyId":"25643940","url":"https://news.ycombinator.com/item?id=25643940","originalUrl":"https://news.ycombinator.com/item?id=25643940","imageRemote":null,"video":null,"channel":"ASK HN","channelUrl":"https://news.ycombinator.com/ask","author":"abdabab","authorUrl":"https://news.ycombinator.com/user?id=abdabab","authorImage":null,"authorSlug":null,"score":353,"views":null,"sharedCount":null,"likeCount":null,"sharedContent":null,"parent":{"__typename":"HnJson","localize":[{"title":"HN提问：精通在软件工程中是什么样子的？","locale":"zh"},{"title":"HN提問：精通在軟件工程中是什麼樣子的？","locale":"zh-Hant"}]}},{"__typename":"SocialMediaPost","id":"HnPost-25640036","excerpt":"","slug":"/hn/25640036","title":"Truck Art in Pakistan (2018)","date":"January 07, 2021","dateISO":"2021-01-07T08:52:16.273Z","datetime":"2021-01-07 08:52","tags":["story","Hacker News"],"image":null,"imageAlt":null,"provider":"Hacker News","thirdPartyId":"25640036","url":"https://news.ycombinator.com/item?id=25640036","originalUrl":"https://mymodernmet.com/pakistan-truck-art/","imageRemote":"https://mymodernmet.com/wp/wp-content/uploads/2018/04/jingle-truck-art-pakistan-thumbnail.jpg","video":null,"channel":null,"channelUrl":null,"author":"brudgers","authorUrl":"https://news.ycombinator.com/user?id=brudgers","authorImage":null,"authorSlug":null,"score":231,"views":null,"sharedCount":null,"likeCount":null,"sharedContent":null,"parent":{"__typename":"HnJson","localize":[{"title":"巴基斯坦的卡车艺术(2018年)","locale":"zh"},{"title":"巴基斯坦的卡車藝術(2018年)","locale":"zh-Hant"}]}}]}},"pageContext":{"basePath":"/","pageType":"tag","tag":"Hacker News","tagsFilter":{"id":{"glob":"!*Post-1"}},"filter":{"id":{"glob":"!*Post-1"},"tags":{"eq":"Hacker News"}},"limit":25,"skip":25,"total":800,"totalPages":32,"currentPage":2,"maxWidth":1024,"maxHeight":512,"locale":"zh","hrefLang":"zh-Hans","originalPath":"/tags/hacker-news/page/2","dateFormat":"YYYY-MM-DD"}},"staticQueryHashes":["1239077767","1684688348","2506312863","2744905544","3493603132","3493603132","386998304"]}