{"componentChunkName":"component---gatsby-theme-buzzing-src-gatsby-theme-timeline-templates-posts-query-js","path":"/en/tags/hacker-news/page/117","result":{"data":{"site":{"siteMetadata":{"title":"Reddit 热门","description":"用中文浏览Reddit热门内容","social":[{"name":"Twitter","url":"https://twitter.com/gatsbyjs","external":null,"prefetch":null},{"name":"GitHub","url":"https://github.com/gatsbyjs","external":null,"prefetch":null}],"menuLinks":[],"localize":[{"locale":"en","title":"Buzzing on Reddit","description":"See what's buzzing on Reddit in your native language","social":[{"name":"Reddit","url":"https://www.reddit.com/","external":true,"prefetch":null}],"menuLinks":[{"name":"Weekly Selection","url":"/issues","external":null,"prefetch":null},{"name":"RSS","url":"/rss.xml","external":null,"prefetch":false}]},{"locale":"zh-Hant","title":"Reddit 熱門","description":"用中文瀏覽Reddit熱門內容","social":null,"menuLinks":null}]}},"tagsGroup":{"group":[{"fieldValue":"ASK HN","totalCount":54},{"fieldValue":"Hacker News","totalCount":3105},{"fieldValue":"Poll","totalCount":1},{"fieldValue":"Show HN","totalCount":100},{"fieldValue":"poll","totalCount":1},{"fieldValue":"story","totalCount":3104}]},"allBlogPost":{"nodes":[{"__typename":"SocialMediaPost","id":"HnPost-25489140","excerpt":"","slug":"/hn/25489140","title":"Dozens of Al Jazeera journalists allegedly hacked using NSO Group spyware","date":"December 21, 2020","dateISO":"2020-12-21T07:02:35.707Z","datetime":"2020-12-21 07:02","tags":["story","Hacker News"],"image":null,"imageAlt":null,"provider":"Hacker News","thirdPartyId":"25489140","url":"https://news.ycombinator.com/item?id=25489140","originalUrl":"https://www.theguardian.com/media/2020/dec/20/citizen-lab-nso-dozens-of-aljazeera-journalists-allegedly-hacked-using-israeli-firm-spyware","imageRemote":"https://i.guim.co.uk/img/media/7c09b66f8c90054c2d5a8e962665572fa195c998/0_232_3500_2101/master/3500.jpg?width=1200&height=630&quality=85&auto=format&fit=crop&overlay-align=bottom%2Cleft&overlay-width=100p&overlay-base64=L2ltZy9zdGF0aWMvb3ZlcmxheXMvdGctZGVmYXVsdC5wbmc&enable=upscale&s=ea50247b22ccf51782077e6a70a3108b","video":null,"channel":null,"channelUrl":null,"author":"aleksei","authorUrl":"https://news.ycombinator.com/user?id=aleksei","authorImage":null,"authorSlug":null,"score":111,"views":null,"sharedCount":null,"likeCount":null,"sharedContent":null,"parent":{"__typename":"HnJson","localize":[{"title":"数十名半岛电视台记者涉嫌使用NSO集团间谍软件进行黑客攻击","locale":"zh"},{"title":"數十名半島電視臺記者涉嫌使用NSO集團間諜軟件進行黑客攻擊","locale":"zh-Hant"}]}},{"__typename":"SocialMediaPost","id":"HnPost-25492038","excerpt":"","slug":"/hn/25492038","title":"Paper about Herbalife-related patient death removed after legal threats","date":"December 21, 2020","dateISO":"2020-12-21T06:38:32.337Z","datetime":"2020-12-21 06:38","tags":["story","Hacker News"],"image":null,"imageAlt":null,"provider":"Hacker News","thirdPartyId":"25492038","url":"https://news.ycombinator.com/item?id=25492038","originalUrl":"https://scienceintegritydigest.com/2020/12/20/paper-about-herbalife-related-patient-death-removed-after-company-threatens-to-sue-the-journal/","imageRemote":"https://scienceintegritydigest.files.wordpress.com/2020/12/screen-shot-2020-12-20-at-2.14.35-pm.png","video":null,"channel":null,"channelUrl":null,"author":"computer23","authorUrl":"https://news.ycombinator.com/user?id=computer23","authorImage":null,"authorSlug":null,"score":444,"views":null,"sharedCount":null,"likeCount":null,"sharedContent":null,"parent":{"__typename":"HnJson","localize":[{"title":"关于康宝莱相关患者死亡的文件在受到法律威胁后被删除","locale":"zh"},{"title":"關於康寶萊相關患者死亡的文件在受到法律威脅後被刪除","locale":"zh-Hant"}]}},{"__typename":"SocialMediaPost","id":"HnPost-25485679","excerpt":"","slug":"/hn/25485679","title":"An Introduction to Lock-Free Programming","date":"December 21, 2020","dateISO":"2020-12-21T05:46:38.828Z","datetime":"2020-12-21 05:46","tags":["story","Hacker News"],"image":null,"imageAlt":null,"provider":"Hacker News","thirdPartyId":"25485679","url":"https://news.ycombinator.com/item?id=25485679","originalUrl":"https://preshing.com/20120612/an-introduction-to-lock-free-programming/","imageRemote":"https://preshing.com/images/its-lock-free.png","video":null,"channel":null,"channelUrl":null,"author":"wheresvic4","authorUrl":"https://news.ycombinator.com/user?id=wheresvic4","authorImage":null,"authorSlug":null,"score":149,"views":null,"sharedCount":null,"likeCount":null,"sharedContent":null,"parent":{"__typename":"HnJson","localize":[{"title":"无锁编程导论","locale":"zh"},{"title":"無鎖編程導論","locale":"zh-Hant"}]}},{"__typename":"SocialMediaPost","id":"HnPost-25490138","excerpt":"","slug":"/hn/25490138","title":"eBPF Is Awesome","date":"December 21, 2020","dateISO":"2020-12-21T03:56:24.970Z","datetime":"2020-12-21 03:56","tags":["story","Hacker News"],"image":null,"imageAlt":null,"provider":"Hacker News","thirdPartyId":"25490138","url":"https://news.ycombinator.com/item?id=25490138","originalUrl":"https://filipnikolovski.com/posts/ebpf/","imageRemote":"https://d33wubrfki0l68.cloudfront.net/b19abde4b1ccfe4ce140969c8bf44f39d1c2fe70/f9ed3/images/ebpf/bcc_tracing_tools_early2019.png","video":null,"channel":null,"channelUrl":null,"author":"filipn","authorUrl":"https://news.ycombinator.com/user?id=filipn","authorImage":null,"authorSlug":null,"score":268,"views":null,"sharedCount":null,"likeCount":null,"sharedContent":null,"parent":{"__typename":"HnJson","localize":[{"title":"eBPF是令人敬畏的","locale":"zh"},{"title":"eBPF是令人敬畏的","locale":"zh-Hant"}]}},{"__typename":"SocialMediaPost","id":"HnPost-25484451","excerpt":"","slug":"/hn/25484451","title":"Kivy: Cross-Platform Python Framework for UI Development","date":"December 21, 2020","dateISO":"2020-12-21T03:35:33.339Z","datetime":"2020-12-21 03:35","tags":["story","Hacker News"],"image":null,"imageAlt":null,"provider":"Hacker News","thirdPartyId":"25484451","url":"https://news.ycombinator.com/item?id=25484451","originalUrl":"https://kivy.org/","imageRemote":"http://kivy.org/logos/kivy-logo-black-256.png","video":null,"channel":null,"channelUrl":null,"author":"ve55","authorUrl":"https://news.ycombinator.com/user?id=ve55","authorImage":null,"authorSlug":null,"score":177,"views":null,"sharedCount":null,"likeCount":null,"sharedContent":null,"parent":{"__typename":"HnJson","localize":[{"title":"Kivy：跨平台的用户界面开发Python框架","locale":"zh"},{"title":"Kivy：跨平臺的用戶界面開發Python框架","locale":"zh-Hant"}]}},{"__typename":"SocialMediaPost","id":"HnPost-25489650","excerpt":"","slug":"/hn/25489650","title":"Mile-Long Wooden Xylophone Plays Bach in Japanese Forest","date":"December 21, 2020","dateISO":"2020-12-21T03:35:33.339Z","datetime":"2020-12-21 03:35","tags":["story","Hacker News"],"image":null,"imageAlt":null,"provider":"Hacker News","thirdPartyId":"25489650","url":"https://news.ycombinator.com/item?id=25489650","originalUrl":"https://dornob.com/mile-long-wooden-xylophone-plays-bach-in-japanese-forest/","imageRemote":"https://cimg1.ibsrv.net/cimg/www.dornob.com/750x421_85-1/777/Screen-Shot-2020-09-04-at-7-59-10-AM-605777.png","video":null,"channel":null,"channelUrl":null,"author":"akeck","authorUrl":"https://news.ycombinator.com/user?id=akeck","authorImage":null,"authorSlug":null,"score":299,"views":null,"sharedCount":null,"likeCount":null,"sharedContent":null,"parent":{"__typename":"HnJson","localize":[{"title":"一英里长的木质木琴在日本森林里演奏巴赫","locale":"zh"},{"title":"一英里長的木質木琴在日本森林裏演奏巴赫","locale":"zh-Hant"}]}},{"__typename":"SocialMediaPost","id":"HnPost-25484160","excerpt":"","slug":"/hn/25484160","title":"Autism and Invention Are Connected","date":"December 21, 2020","dateISO":"2020-12-21T02:14:57.853Z","datetime":"2020-12-21 02:14","tags":["story","Hacker News"],"image":null,"imageAlt":null,"provider":"Hacker News","thirdPartyId":"25484160","url":"https://news.ycombinator.com/item?id=25484160","originalUrl":"https://www.wsj.com/articles/how-autism-and-invention-are-connected-11607749260","imageRemote":"https://images.wsj.net/im-271037/social","video":null,"channel":null,"channelUrl":null,"author":"jkuria","authorUrl":"https://news.ycombinator.com/user?id=jkuria","authorImage":null,"authorSlug":null,"score":183,"views":null,"sharedCount":null,"likeCount":null,"sharedContent":null,"parent":{"__typename":"HnJson","localize":[{"title":"自闭症与发明密不可分","locale":"zh"},{"title":"自閉症與發明密不可分","locale":"zh-Hant"}]}},{"__typename":"SocialMediaPost","id":"HnPost-25484227","excerpt":"","slug":"/hn/25484227","title":"Operation Elop: The final years of Nokia’s mobile phones (2017)","date":"December 21, 2020","dateISO":"2020-12-21T02:14:57.853Z","datetime":"2020-12-21 02:14","tags":["story","Hacker News"],"image":null,"imageAlt":null,"provider":"Hacker News","thirdPartyId":"25484227","url":"https://news.ycombinator.com/item?id=25484227","originalUrl":"https://medium.com/@harrikiljander/operation-elop-6f2b043f52c5","imageRemote":"https://miro.medium.com/max/1200/1*av5Tn7-KXqzgMgdK_plTng.jpeg","video":null,"channel":null,"channelUrl":null,"author":"partingshots","authorUrl":"https://news.ycombinator.com/user?id=partingshots","authorImage":null,"authorSlug":null,"score":129,"views":null,"sharedCount":null,"likeCount":null,"sharedContent":null,"parent":{"__typename":"HnJson","localize":[{"title":"《埃洛普行动：诺基亚手机的最后几年》(2017)","locale":"zh"},{"title":"《埃洛普行動：諾基亞手機的最後幾年》(2017)","locale":"zh-Hant"}]}},{"__typename":"SocialMediaPost","id":"HnPost-25481758","excerpt":"","slug":"/hn/25481758","title":"Nature invented play long before it invented us","date":"December 21, 2020","dateISO":"2020-12-21T01:35:00.077Z","datetime":"2020-12-21 01:35","tags":["story","Hacker News"],"image":null,"imageAlt":null,"provider":"Hacker News","thirdPartyId":"25481758","url":"https://news.ycombinator.com/item?id=25481758","originalUrl":"http://nautil.us/issue/94/evolving/why-it-pays-to-play-around-rp","imageRemote":"http://static.nautil.us/16090_3ac88c103b945977e9085785158dac19.png","video":null,"channel":null,"channelUrl":null,"author":"dnetesn","authorUrl":"https://news.ycombinator.com/user?id=dnetesn","authorImage":null,"authorSlug":null,"score":171,"views":null,"sharedCount":null,"likeCount":null,"sharedContent":null,"parent":{"__typename":"HnJson","localize":[{"title":"早在大自然发明我们之前，它就已经发明了游戏。","locale":"zh"},{"title":"早在大自然發明我們之前，它就已經發明瞭遊戲。","locale":"zh-Hant"}]}},{"__typename":"SocialMediaPost","id":"HnPost-25489879","excerpt":"","slug":"/hn/25489879","title":"More challenging projects every programmer should try","date":"December 21, 2020","dateISO":"2020-12-21T01:35:00.077Z","datetime":"2020-12-21 01:35","tags":["story","Hacker News"],"image":null,"imageAlt":null,"provider":"Hacker News","thirdPartyId":"25489879","url":"https://news.ycombinator.com/item?id=25489879","originalUrl":"https://web.eecs.utk.edu/~azh/blog/morechallengingprojects.html","imageRemote":"https://web.eecs.utk.edu/~azh/blog/images/raytracer.png","video":null,"channel":null,"channelUrl":null,"author":"pavehawk2007","authorUrl":"https://news.ycombinator.com/user?id=pavehawk2007","authorImage":null,"authorSlug":null,"score":756,"views":null,"sharedCount":null,"likeCount":null,"sharedContent":null,"parent":{"__typename":"HnJson","localize":[{"title":"每个程序员都应该尝试更具挑战性的项目","locale":"zh"},{"title":"每個程序員都應該嘗試更具挑戰性的項目","locale":"zh-Hant"}]}},{"__typename":"SocialMediaPost","id":"HnPost-25486869","excerpt":"","slug":"/hn/25486869","title":"The Gervais Principle, or the Office According to “The Office” (2009)","date":"December 20, 2020","dateISO":"2020-12-20T23:37:38.321Z","datetime":"2020-12-20 23:37","tags":["story","Hacker News"],"image":null,"imageAlt":null,"provider":"Hacker News","thirdPartyId":"25486869","url":"https://news.ycombinator.com/item?id=25486869","originalUrl":"https://www.ribbonfarm.com/2009/10/07/the-gervais-principle-or-the-office-according-to-the-office/","imageRemote":"https://206hwf3fj4w52u3br03fi242-wpengine.netdna-ssl.com/wp-content/uploads/2009/10/compLifeCycle.JPG","video":null,"channel":null,"channelUrl":null,"author":"etherio","authorUrl":"https://news.ycombinator.com/user?id=etherio","authorImage":null,"authorSlug":null,"score":122,"views":null,"sharedCount":null,"likeCount":null,"sharedContent":null,"parent":{"__typename":"HnJson","localize":[{"title":"Gervais原则，或根据“办公室”(2009)的办公室","locale":"zh"},{"title":"Gervais原則，或根據“辦公室”(2009)的辦公室","locale":"zh-Hant"}]}},{"__typename":"SocialMediaPost","id":"HnPost-25483693","excerpt":"","slug":"/hn/25483693","title":"Rebooting a 15 year-old game written in D – Part 1 Compiling","date":"December 20, 2020","dateISO":"2020-12-20T23:11:28.027Z","datetime":"2020-12-20 23:11","tags":["story","Hacker News"],"image":null,"imageAlt":null,"provider":"Hacker News","thirdPartyId":"25483693","url":"https://news.ycombinator.com/item?id=25483693","originalUrl":"https://speps.fr/articles/torus-trooper-part1/","imageRemote":"https://speps.fr/media/articles/tt1.png","video":null,"channel":null,"channelUrl":null,"author":"arunc","authorUrl":"https://news.ycombinator.com/user?id=arunc","authorImage":null,"authorSlug":null,"score":106,"views":null,"sharedCount":null,"likeCount":null,"sharedContent":null,"parent":{"__typename":"HnJson","localize":[{"title":"重新启动用D编写的已有15年历史的游戏-第1部分编译","locale":"zh"},{"title":"重新啓動用D編寫的已有15年曆史的遊戲-第1部分編譯","locale":"zh-Hant"}]}},{"__typename":"SocialMediaPost","id":"HnPost-25488799","excerpt":"","slug":"/hn/25488799","title":"Security expert warned SolarWinds in 2019 that anyone could access server","date":"December 20, 2020","dateISO":"2020-12-20T22:54:52.039Z","datetime":"2020-12-20 22:54","tags":["story","Hacker News"],"image":null,"imageAlt":null,"provider":"Hacker News","thirdPartyId":"25488799","url":"https://news.ycombinator.com/item?id=25488799","originalUrl":"https://www.businessinsider.com.au/solarwinds-warned-weak-123-password-could-expose-firm-report-2020-12","imageRemote":"https://i.insider.com/5fd922606524f100197922d2","video":null,"channel":null,"channelUrl":null,"author":"1cvmask","authorUrl":"https://news.ycombinator.com/user?id=1cvmask","authorImage":null,"authorSlug":null,"score":205,"views":null,"sharedCount":null,"likeCount":null,"sharedContent":null,"parent":{"__typename":"HnJson","localize":[{"title":"安全专家在2019年警告SolarWinds，任何人都可以访问服务器","locale":"zh"},{"title":"安全專家在2019年警告SolarWinds，任何人都可以訪問服務器","locale":"zh-Hant"}]}},{"__typename":"SocialMediaPost","id":"HnPost-25486191","excerpt":"","slug":"/hn/25486191","title":"How and why I stopped buying new laptops","date":"December 20, 2020","dateISO":"2020-12-20T22:36:03.114Z","datetime":"2020-12-20 22:36","tags":["story","Hacker News"],"image":null,"imageAlt":null,"provider":"Hacker News","thirdPartyId":"25486191","url":"https://news.ycombinator.com/item?id=25486191","originalUrl":"https://solar.lowtechmagazine.com/2020/12/how-and-why-i-stopped-buying-new-laptops.html","imageRemote":"https://solar.lowtechmagazine.com/dithers/X60-on-its-side-white.png","video":null,"channel":null,"channelUrl":null,"author":"pencil_","authorUrl":"https://news.ycombinator.com/user?id=pencil_","authorImage":null,"authorSlug":null,"score":291,"views":null,"sharedCount":null,"likeCount":null,"sharedContent":null,"parent":{"__typename":"HnJson","localize":[{"title":"我如何以及为什么停止购买新笔记本电脑","locale":"zh"},{"title":"我如何以及爲什麼停止購買新筆記本電腦","locale":"zh-Hant"}]}},{"__typename":"SocialMediaPost","id":"HnPost-25489298","excerpt":"","slug":"/hn/25489298","title":"Journalists Hacked with Suspected NSO Group iMessage ‘Zero-Click’ Exploit","date":"December 20, 2020","dateISO":"2020-12-20T22:36:03.114Z","datetime":"2020-12-20 22:36","tags":["story","Hacker News"],"image":null,"imageAlt":null,"provider":"Hacker News","thirdPartyId":"25489298","url":"https://news.ycombinator.com/item?id=25489298","originalUrl":"https://citizenlab.ca/2020/12/the-great-ipwn-journalists-hacked-with-suspected-nso-group-imessage-zero-click-exploit/","imageRemote":"https://citizenlab.ca/wp-content/uploads/2020/12/ajArtboard-1@4x.png","video":null,"channel":null,"channelUrl":null,"author":"arkadiyt","authorUrl":"https://news.ycombinator.com/user?id=arkadiyt","authorImage":null,"authorSlug":null,"score":622,"views":null,"sharedCount":null,"likeCount":null,"sharedContent":null,"parent":{"__typename":"HnJson","localize":[{"title":"疑似NSO Group iMessage“Zero-Click”漏洞的记者遭黑客攻击","locale":"zh"},{"title":"疑似NSO Group iMessage“Zero-Click”漏洞的記者遭黑客攻擊","locale":"zh-Hant"}]}},{"__typename":"SocialMediaPost","id":"HnPost-25489534","excerpt":"","slug":"/hn/25489534","title":"A medical hoax leads to a 50-year mistruth about MSG (2019)","date":"December 20, 2020","dateISO":"2020-12-20T22:36:03.113Z","datetime":"2020-12-20 22:36","tags":["story","Hacker News"],"image":null,"imageAlt":null,"provider":"Hacker News","thirdPartyId":"25489534","url":"https://news.ycombinator.com/item?id=25489534","originalUrl":"https://news.colgate.edu/magazine/2019/02/06/the-strange-case-of-dr-ho-man-kwok/","imageRemote":"https://news.colgate.edu/magazine/wp-content/uploads/sites/6/2019/02/MSG-Spot2Final1-copy2-1024x489.jpg","video":null,"channel":null,"channelUrl":null,"author":"laplacesdemon48","authorUrl":"https://news.ycombinator.com/user?id=laplacesdemon48","authorImage":null,"authorSlug":null,"score":290,"views":null,"sharedCount":null,"likeCount":null,"sharedContent":null,"parent":{"__typename":"HnJson","localize":[{"title":"一场医疗骗局导致人们对味精50年的不信任(2019年)","locale":"zh"},{"title":"一場醫療騙局導致人們對味精50年的不信任(2019年)","locale":"zh-Hant"}]}},{"__typename":"SocialMediaPost","id":"HnPost-25486120","excerpt":"","slug":"/hn/25486120","title":"Building the Middle Class of the Creator Economy","date":"December 20, 2020","dateISO":"2020-12-20T21:52:40.728Z","datetime":"2020-12-20 21:52","tags":["story","Hacker News"],"image":null,"imageAlt":null,"provider":"Hacker News","thirdPartyId":"25486120","url":"https://news.ycombinator.com/item?id=25486120","originalUrl":"https://li.substack.com/p/building-the-middle-class-of-the","imageRemote":"https://cdn.substack.com/image/fetch/h_600,c_limit,f_auto,q_auto:good,fl_progressive:steep/https%3A%2F%2Fbucketeer-e05bbc84-baa3-437e-9518-adb32be77984.s3.amazonaws.com%2Fpublic%2Fimages%2Fb4568520-e489-4d6a-862c-194ce21510b6_2388x1360.jpeg","video":null,"channel":null,"channelUrl":null,"author":"elsewhen","authorUrl":"https://news.ycombinator.com/user?id=elsewhen","authorImage":null,"authorSlug":null,"score":168,"views":null,"sharedCount":null,"likeCount":null,"sharedContent":null,"parent":{"__typename":"HnJson","localize":[{"title":"打造创客经济的中产阶层","locale":"zh"},{"title":"打造創客經濟的中產階層","locale":"zh-Hant"}]}},{"__typename":"SocialMediaPost","id":"HnPost-25485841","excerpt":"","slug":"/hn/25485841","title":"Building a simple neural net in Java","date":"December 20, 2020","dateISO":"2020-12-20T21:37:28.029Z","datetime":"2020-12-20 21:37","tags":["story","Hacker News"],"image":null,"imageAlt":null,"provider":"Hacker News","thirdPartyId":"25485841","url":"https://news.ycombinator.com/item?id=25485841","originalUrl":"https://smalldata.tech/blog/2016/05/03/building-a-simple-neural-net-in-java","imageRemote":"https://smalldata.tech/img/blog/nn-1-simple-problem.png","video":null,"channel":null,"channelUrl":null,"author":"wheresvic4","authorUrl":"https://news.ycombinator.com/user?id=wheresvic4","authorImage":null,"authorSlug":null,"score":137,"views":null,"sharedCount":null,"likeCount":null,"sharedContent":null,"parent":{"__typename":"HnJson","localize":[{"title":"用JAVA构建一个简单的神经网络","locale":"zh"},{"title":"用JAVA構建一個簡單的神經網絡","locale":"zh-Hant"}]}},{"__typename":"SocialMediaPost","id":"HnPost-25486446","excerpt":"","slug":"/hn/25486446","title":"The Acorn Archimedes and the first ARM processor","date":"December 20, 2020","dateISO":"2020-12-20T21:37:28.029Z","datetime":"2020-12-20 21:37","tags":["story","Hacker News"],"image":null,"imageAlt":null,"provider":"Hacker News","thirdPartyId":"25486446","url":"https://news.ycombinator.com/item?id=25486446","originalUrl":"https://arstechnica.com/features/2020/12/how-an-obscure-british-pc-maker-invented-arm-and-changed-the-world/","imageRemote":"https://cdn.arstechnica.net/wp-content/uploads/2020/12/Torchinsky-listing-image-760x380.png","video":null,"channel":null,"channelUrl":null,"author":"furcyd","authorUrl":"https://news.ycombinator.com/user?id=furcyd","authorImage":null,"authorSlug":null,"score":172,"views":null,"sharedCount":null,"likeCount":null,"sharedContent":null,"parent":{"__typename":"HnJson","localize":[{"title":"橡子阿基米德和第一个ARM处理器","locale":"zh"},{"title":"橡子阿基米德和第一個ARM處理器","locale":"zh-Hant"}]}},{"__typename":"SocialMediaPost","id":"HnPost-25486432","excerpt":"","slug":"/hn/25486432","title":"Set up a Raspberry Pi meteor detector","date":"December 20, 2020","dateISO":"2020-12-20T21:23:15.720Z","datetime":"2020-12-20 21:23","tags":["story","Hacker News"],"image":null,"imageAlt":null,"provider":"Hacker News","thirdPartyId":"25486432","url":"https://news.ycombinator.com/item?id=25486432","originalUrl":"https://www.skyatnightmagazine.com/advice/diy/raspberry-pi-meteor-detector/","imageRemote":"https://images.immediate.co.uk/production/volatile/sites/25/2020/12/raspberry-pi-meteor-detector-e9f4b89.jpg?quality=90&resize=620,413","video":null,"channel":null,"channelUrl":null,"author":"jstanley","authorUrl":"https://news.ycombinator.com/user?id=jstanley","authorImage":null,"authorSlug":null,"score":138,"views":null,"sharedCount":null,"likeCount":null,"sharedContent":null,"parent":{"__typename":"HnJson","localize":[{"title":"安装一台树莓PI流星探测器","locale":"zh"},{"title":"安裝一臺樹莓PI流星探測器","locale":"zh-Hant"}]}},{"__typename":"SocialMediaPost","id":"HnPost-25485493","excerpt":"","slug":"/hn/25485493","title":"Geometrize: Turn Images into Geometric Primitives","date":"December 20, 2020","dateISO":"2020-12-20T20:40:52.759Z","datetime":"2020-12-20 20:40","tags":["story","Hacker News"],"image":null,"imageAlt":null,"provider":"Hacker News","thirdPartyId":"25485493","url":"https://news.ycombinator.com/item?id=25485493","originalUrl":"https://www.geometrize.co.uk/","imageRemote":null,"video":null,"channel":null,"channelUrl":null,"author":"adrian_mrd","authorUrl":"https://news.ycombinator.com/user?id=adrian_mrd","authorImage":null,"authorSlug":null,"score":157,"views":null,"sharedCount":null,"likeCount":null,"sharedContent":null,"parent":{"__typename":"HnJson","localize":[{"title":"几何：将图像转换为几何图元","locale":"zh"},{"title":"幾何：將圖像轉換爲幾何圖元","locale":"zh-Hant"}]}},{"__typename":"SocialMediaPost","id":"HnPost-25486995","excerpt":"","slug":"/hn/25486995","title":"Decaying Tanker Has 4 Times the Amount of Oil as the Exxon Valdez","date":"December 20, 2020","dateISO":"2020-12-20T20:25:49.319Z","datetime":"2020-12-20 20:25","tags":["story","Hacker News"],"image":null,"imageAlt":null,"provider":"Hacker News","thirdPartyId":"25486995","url":"https://news.ycombinator.com/item?id=25486995","originalUrl":"https://scitechdaily.com/scientists-warn-of-likely-massive-oil-spill-abandoned-tanker-has-4-times-the-amount-of-oil-as-the-exxon-valdez/","imageRemote":"https://scitechdaily.com/images/Computer-Simulation-Red-Sea-scaled.jpg","video":null,"channel":null,"channelUrl":null,"author":"samizdis","authorUrl":"https://news.ycombinator.com/user?id=samizdis","authorImage":null,"authorSlug":null,"score":188,"views":null,"sharedCount":null,"likeCount":null,"sharedContent":null,"parent":{"__typename":"HnJson","localize":[{"title":"腐烂油轮的含油量是埃克森·瓦尔迪兹号的4倍","locale":"zh"},{"title":"腐爛油輪的含油量是埃克森·瓦爾迪茲號的4倍","locale":"zh-Hant"}]}},{"__typename":"SocialMediaPost","id":"HnPost-25487597","excerpt":"","slug":"/hn/25487597","title":"Crime Shouldn't Pay: Why Big Tech Executives Should Face Jail","date":"December 20, 2020","dateISO":"2020-12-20T20:25:49.319Z","datetime":"2020-12-20 20:25","tags":["story","Hacker News"],"image":null,"imageAlt":null,"provider":"Hacker News","thirdPartyId":"25487597","url":"https://news.ycombinator.com/item?id=25487597","originalUrl":"https://mattstoller.substack.com/p/crime-shouldnt-pay-why-big-tech-executives","imageRemote":"https://cdn.substack.com/image/fetch/h_600,c_limit,f_auto,q_auto:good,fl_progressive:steep/https%3A%2F%2Fbucketeer-e05bbc84-baa3-437e-9518-adb32be77984.s3.amazonaws.com%2Fpublic%2Fimages%2F6988e2b2-3451-4924-8f47-feaf919e1b53_960x640.jpeg","video":null,"channel":null,"channelUrl":null,"author":"pseudolus","authorUrl":"https://news.ycombinator.com/user?id=pseudolus","authorImage":null,"authorSlug":null,"score":107,"views":null,"sharedCount":null,"likeCount":null,"sharedContent":null,"parent":{"__typename":"HnJson","localize":[{"title":"犯罪不应该付出代价：为什么大型科技公司的高管应该面临牢狱之灾","locale":"zh"},{"title":"犯罪不應該付出代價：爲什麼大型科技公司的高管應該面臨牢獄之災","locale":"zh-Hant"}]}},{"__typename":"SocialMediaPost","id":"HnPost-25487747","excerpt":"","slug":"/hn/25487747","title":"Researchers propose faster, more efficient alternatives to backpropagation","date":"December 20, 2020","dateISO":"2020-12-20T20:25:49.319Z","datetime":"2020-12-20 20:25","tags":["story","Hacker News"],"image":null,"imageAlt":null,"provider":"Hacker News","thirdPartyId":"25487747","url":"https://news.ycombinator.com/item?id=25487747","originalUrl":"https://venturebeat.com/2020/12/16/at-neurips-2020-researchers-proposed-faster-more-efficient-alternatives-to-backpropagation/","imageRemote":"https://venturebeat.com/wp-content/uploads/2019/04/brain-ai-e1561657878421.jpg?w=1200&strip=all","video":null,"channel":null,"channelUrl":null,"author":"webmaven","authorUrl":"https://news.ycombinator.com/user?id=webmaven","authorImage":null,"authorSlug":null,"score":239,"views":null,"sharedCount":null,"likeCount":null,"sharedContent":null,"parent":{"__typename":"HnJson","localize":[{"title":"研究人员提出了比反向传播更快、更有效的替代方案","locale":"zh"},{"title":"研究人員提出了比反向傳播更快、更有效的替代方案","locale":"zh-Hant"}]}},{"__typename":"SocialMediaPost","id":"HnPost-25487130","excerpt":"","slug":"/hn/25487130","title":"An Engineer’s Guide to Stock Options (2013)","date":"December 20, 2020","dateISO":"2020-12-20T19:30:58.668Z","datetime":"2020-12-20 19:30","tags":["story","Hacker News"],"image":null,"imageAlt":null,"provider":"Hacker News","thirdPartyId":"25487130","url":"https://news.ycombinator.com/item?id=25487130","originalUrl":"https://blog.alexmaccaw.com/an-engineers-guide-to-stock-options#","imageRemote":"https://svbtleusercontent.com/b894YXfgATViN2NPFboW1y02260xsuap_large.png","video":null,"channel":null,"channelUrl":null,"author":"lemonspat","authorUrl":"https://news.ycombinator.com/user?id=lemonspat","authorImage":null,"authorSlug":null,"score":249,"views":null,"sharedCount":null,"likeCount":null,"sharedContent":null,"parent":{"__typename":"HnJson","localize":[{"title":"股票期权工程师指南(2013)","locale":"zh"},{"title":"股票期權工程師指南(2013)","locale":"zh-Hant"}]}}]}},"pageContext":{"basePath":"/","pageType":"tag","tag":"Hacker News","tagsFilter":{"id":{"glob":"!*Post-1"}},"filter":{"id":{"glob":"!*Post-1"},"tags":{"eq":"Hacker News"}},"limit":25,"skip":2900,"total":3105,"totalPages":125,"currentPage":117,"maxWidth":1024,"maxHeight":512,"locale":"en","hrefLang":"en-US","originalPath":"/tags/hacker-news/page/117","dateFormat":"MM/DD/YYYY"}},"staticQueryHashes":["1239077767","2506312863","2744905544","3025052997","3493603132","3493603132","3513215887","386998304"]}