{"componentChunkName":"component---gatsby-theme-buzzing-src-gatsby-theme-timeline-templates-posts-query-js","path":"/en/page/86","result":{"data":{"site":{"siteMetadata":{"title":"Reddit 热门","description":"用中文浏览Reddit热门内容","social":[{"name":"Twitter","url":"https://twitter.com/gatsbyjs","external":null,"prefetch":null},{"name":"GitHub","url":"https://github.com/gatsbyjs","external":null,"prefetch":null}],"menuLinks":[],"localize":[{"locale":"en","title":"Buzzing on Reddit","description":"See what's buzzing on Reddit in your native language","social":[{"name":"Reddit","url":"https://www.reddit.com/","external":true,"prefetch":null}],"menuLinks":[{"name":"Weekly Selection","url":"/issues","external":null,"prefetch":null},{"name":"RSS","url":"/rss.xml","external":null,"prefetch":false}]},{"locale":"zh-Hant","title":"Reddit 熱門","description":"用中文瀏覽Reddit熱門內容","social":null,"menuLinks":null}]}},"tagsGroup":{"group":[{"fieldValue":"ASK HN","totalCount":54},{"fieldValue":"Hacker News","totalCount":3105},{"fieldValue":"Poll","totalCount":1},{"fieldValue":"Show HN","totalCount":100},{"fieldValue":"poll","totalCount":1},{"fieldValue":"story","totalCount":3104}]},"allBlogPost":{"nodes":[{"__typename":"SocialMediaPost","id":"HnPost-25810000","excerpt":"","slug":"/hn/25810000","title":"“Tencent QQ caught scraping all browser history on Windows”","date":"January 17, 2021","dateISO":"2021-01-17T14:59:57.626Z","datetime":"2021-01-17 14:59","tags":["story","Hacker News"],"image":null,"imageAlt":null,"provider":"Hacker News","thirdPartyId":"25810000","url":"https://news.ycombinator.com/item?id=25810000","originalUrl":"https://twitter.com/CodeColorist/status/1350625255765671938","imageRemote":null,"video":null,"channel":null,"channelUrl":null,"author":"DyslexicAtheist","authorUrl":"https://news.ycombinator.com/user?id=DyslexicAtheist","authorImage":null,"authorSlug":null,"score":303,"views":null,"sharedCount":null,"likeCount":null,"sharedContent":null,"parent":{"__typename":"HnJson","localize":[{"title":"\"腾讯QQ被发现在Windows上刮取所有浏览器历史记录\"","locale":"zh"},{"title":"\"騰訊QQ被發現在Windows上刮取所有瀏覽器歷史記錄\"","locale":"zh-Hant"}]}},{"__typename":"SocialMediaPost","id":"HnPost-25808878","excerpt":"","slug":"/hn/25808878","title":"The World’s Oldest Story? ‘Seven Sisters’ Myths May Reach Back 100k Years","date":"January 17, 2021","dateISO":"2021-01-17T13:48:14.910Z","datetime":"2021-01-17 13:48","tags":["story","Hacker News"],"image":null,"imageAlt":null,"provider":"Hacker News","thirdPartyId":"25808878","url":"https://news.ycombinator.com/item?id=25808878","originalUrl":"https://singularityhub.com/2021/01/10/the-worlds-oldest-story-astronomers-say-global-myths-about-seven-sisters-stars-may-reach-back-100000-years/","imageRemote":"https://singularityhub.com/wp-content/uploads/2021/01/pleiades-hubble-image-nasa.jpg","video":null,"channel":null,"channelUrl":null,"author":"akamoonknight","authorUrl":"https://news.ycombinator.com/user?id=akamoonknight","authorImage":null,"authorSlug":null,"score":448,"views":null,"sharedCount":null,"likeCount":null,"sharedContent":null,"parent":{"__typename":"HnJson","localize":[{"title":"世界上最古老的故事？七姐妹》神话或可追溯到10万年前","locale":"zh"},{"title":"世界上最古老的故事？七姐妹》神話或可追溯到10萬年前","locale":"zh-Hant"}]}},{"__typename":"SocialMediaPost","id":"HnPost-25805158","excerpt":"","slug":"/hn/25805158","title":"REST Servers in Go: Part 1 – standard library","date":"January 17, 2021","dateISO":"2021-01-17T09:28:55.559Z","datetime":"2021-01-17 09:28","tags":["story","Hacker News"],"image":null,"imageAlt":null,"provider":"Hacker News","thirdPartyId":"25805158","url":"https://news.ycombinator.com/item?id=25805158","originalUrl":"https://eli.thegreenplace.net/2021/rest-servers-in-go-part-1-standard-library/","imageRemote":"https://eli.thegreenplace.net/images/logosmall.png","video":null,"channel":null,"channelUrl":null,"author":"tutfbhuf","authorUrl":"https://news.ycombinator.com/user?id=tutfbhuf","authorImage":null,"authorSlug":null,"score":257,"views":null,"sharedCount":null,"likeCount":null,"sharedContent":null,"parent":{"__typename":"HnJson","localize":[{"title":"Go中的REST服务器。第1部分 - 标准库","locale":"zh"},{"title":"Go中的REST服務器。第1部分 - 標準庫","locale":"zh-Hant"}]}},{"__typename":"SocialMediaPost","id":"HnPost-25807199","excerpt":"","slug":"/hn/25807199","title":"The first blue pigment discovered in 200 years is now commercially available","date":"January 17, 2021","dateISO":"2021-01-17T08:54:05.241Z","datetime":"2021-01-17 08:54","tags":["story","Hacker News"],"image":null,"imageAlt":null,"provider":"Hacker News","thirdPartyId":"25807199","url":"https://news.ycombinator.com/item?id=25807199","originalUrl":"https://news.artnet.com/art-world/yinmn-blue-comes-market-1921665","imageRemote":"https://news.artnet.com/app/news-upload/2017/05/ylnmn-blue-pic.jpg","video":null,"channel":null,"channelUrl":null,"author":"uptown","authorUrl":"https://news.ycombinator.com/user?id=uptown","authorImage":null,"authorSlug":null,"score":325,"views":null,"sharedCount":null,"likeCount":null,"sharedContent":null,"parent":{"__typename":"HnJson","localize":[{"title":"200年来发现的第一种蓝色颜料现已投入商业使用","locale":"zh"},{"title":"200年來發現的第一種藍色顏料現已投入商業使用","locale":"zh-Hant"}]}},{"__typename":"SocialMediaPost","id":"HnPost-25807792","excerpt":"","slug":"/hn/25807792","title":"JingOS: Linux Distro Inspired by the iPad","date":"January 17, 2021","dateISO":"2021-01-17T08:54:05.241Z","datetime":"2021-01-17 08:54","tags":["story","Hacker News"],"image":null,"imageAlt":null,"provider":"Hacker News","thirdPartyId":"25807792","url":"https://news.ycombinator.com/item?id=25807792","originalUrl":"https://www.jingos.com/","imageRemote":null,"video":null,"channel":null,"channelUrl":null,"author":"throwaway888abc","authorUrl":"https://news.ycombinator.com/user?id=throwaway888abc","authorImage":null,"authorSlug":null,"score":434,"views":null,"sharedCount":null,"likeCount":null,"sharedContent":null,"parent":{"__typename":"HnJson","localize":[{"title":"JingOS。受iPad启发的Linux发行版","locale":"zh"},{"title":"JingOS。受iPad啓發的Linux發行版","locale":"zh-Hant"}]}},{"__typename":"SocialMediaPost","id":"HnPost-25806788","excerpt":"","slug":"/hn/25806788","title":"Signal Is Back","date":"January 17, 2021","dateISO":"2021-01-17T07:57:37.818Z","datetime":"2021-01-17 07:57","tags":["story","Hacker News"],"image":null,"imageAlt":null,"provider":"Hacker News","thirdPartyId":"25806788","url":"https://news.ycombinator.com/item?id=25806788","originalUrl":"https://twitter.com/signalapp/status/1350595202872823809/","imageRemote":null,"video":null,"channel":null,"channelUrl":null,"author":"decrypt","authorUrl":"https://news.ycombinator.com/user?id=decrypt","authorImage":null,"authorSlug":null,"score":316,"views":null,"sharedCount":null,"likeCount":null,"sharedContent":null,"parent":{"__typename":"HnJson","localize":[{"title":"信号恢复了","locale":"zh"},{"title":"信號恢復了","locale":"zh-Hant"}]}},{"__typename":"SocialMediaPost","id":"HnPost-25778185","excerpt":"","slug":"/hn/25778185","title":"Mysterious helicopters have been circling Los Angeles","date":"January 17, 2021","dateISO":"2021-01-17T05:14:39.170Z","datetime":"2021-01-17 05:14","tags":["story","Hacker News"],"image":null,"imageAlt":null,"provider":"Hacker News","thirdPartyId":"25778185","url":"https://news.ycombinator.com/item?id=25778185","originalUrl":"https://www.thedrive.com/the-war-zone/38686/everything-we-know-about-the-mysterious-dark-helicopters-that-have-been-circling-los-angeles","imageRemote":"https://api.thedrive.com/wp-content/uploads/2021/01/mystery-407-1.jpg?quality=85","video":null,"channel":null,"channelUrl":null,"author":"josephjrobison","authorUrl":"https://news.ycombinator.com/user?id=josephjrobison","authorImage":null,"authorSlug":null,"score":189,"views":null,"sharedCount":null,"likeCount":null,"sharedContent":null,"parent":{"__typename":"HnJson","localize":[{"title":"神秘的直升机一直在洛杉矶上空盘旋。","locale":"zh"},{"title":"神祕的直升機一直在洛杉磯上空盤旋。","locale":"zh-Hant"}]}},{"__typename":"SocialMediaPost","id":"HnPost-25780961","excerpt":"","slug":"/hn/25780961","title":"The richer you are, the more likely you’ll social distance, study finds","date":"January 17, 2021","dateISO":"2021-01-17T05:14:39.170Z","datetime":"2021-01-17 05:14","tags":["story","Hacker News"],"image":null,"imageAlt":null,"provider":"Hacker News","thirdPartyId":"25780961","url":"https://news.ycombinator.com/item?id=25780961","originalUrl":"https://releases.jhu.edu/2021/01/14/the-richer-you-are-the-more-likely-youll-social-distance-study-finds/","imageRemote":"https://releases.jhu.edu/wp-content/themes/hopkins2/graphics/interior/header_logo.gif","video":null,"channel":null,"channelUrl":null,"author":"rustoo","authorUrl":"https://news.ycombinator.com/user?id=rustoo","authorImage":null,"authorSlug":null,"score":192,"views":null,"sharedCount":null,"likeCount":null,"sharedContent":null,"parent":{"__typename":"HnJson","localize":[{"title":"研究发现，越是有钱，越是容易产生社交距离。","locale":"zh"},{"title":"研究發現，越是有錢，越是容易產生社交距離。","locale":"zh-Hant"}]}},{"__typename":"SocialMediaPost","id":"HnPost-25786640","excerpt":"","slug":"/hn/25786640","title":"Show HN: Vmctl/Vmcli – Easily Run Linux VMs on M1 Macs","date":"January 17, 2021","dateISO":"2021-01-17T05:14:39.170Z","datetime":"2021-01-17 05:14","tags":["story","Show HN","Hacker News"],"image":null,"imageAlt":null,"provider":"Hacker News","thirdPartyId":"25786640","url":"https://news.ycombinator.com/item?id=25786640","originalUrl":"https://github.com/gyf304/vmcli","imageRemote":"https://avatars0.githubusercontent.com/u/7296537?s=400&v=4","video":null,"channel":"Show HN","channelUrl":"https://news.ycombinator.com/show","author":"gyf304","authorUrl":"https://news.ycombinator.com/user?id=gyf304","authorImage":null,"authorSlug":null,"score":198,"views":null,"sharedCount":null,"likeCount":null,"sharedContent":null,"parent":{"__typename":"HnJson","localize":[{"title":"HN新产品： Vmctl/Vmcli - 在M1 Mac上轻松运行Linux虚拟机。","locale":"zh"},{"title":"HN新產品： Vmctl/Vmcli - 在M1 Mac上輕鬆運行Linux虛擬機。","locale":"zh-Hant"}]}},{"__typename":"SocialMediaPost","id":"HnPost-25789703","excerpt":"","slug":"/hn/25789703","title":"StimulusReflex, or LiveView for Rails","date":"January 17, 2021","dateISO":"2021-01-17T05:14:39.170Z","datetime":"2021-01-17 05:14","tags":["story","Hacker News"],"image":null,"imageAlt":null,"provider":"Hacker News","thirdPartyId":"25789703","url":"https://news.ycombinator.com/item?id=25789703","originalUrl":"https://docs.stimulusreflex.com/","imageRemote":"https://app.gitbook.com/share/space/thumbnail/-Lpnm81iPOBUa9lAmLxg.png","video":null,"channel":null,"channelUrl":null,"author":"nanna","authorUrl":"https://news.ycombinator.com/user?id=nanna","authorImage":null,"authorSlug":null,"score":198,"views":null,"sharedCount":null,"likeCount":null,"sharedContent":null,"parent":{"__typename":"HnJson","localize":[{"title":"StimulusReflex，或Rails的LiveView。","locale":"zh"},{"title":"StimulusReflex，或Rails的LiveView。","locale":"zh-Hant"}]}},{"__typename":"SocialMediaPost","id":"HnPost-25790323","excerpt":"","slug":"/hn/25790323","title":"AMD Launches Ryzen 5000 Mobile: Zen 3 and Cezanne for Notebooks","date":"January 17, 2021","dateISO":"2021-01-17T05:14:39.170Z","datetime":"2021-01-17 05:14","tags":["story","Hacker News"],"image":null,"imageAlt":null,"provider":"Hacker News","thirdPartyId":"25790323","url":"https://news.ycombinator.com/item?id=25790323","originalUrl":"https://www.anandtech.com/show/16405/amd-launches-ryzen-5000-mobile-zen-3-and-cezanne-for-notebooks","imageRemote":"https://images.anandtech.com/doci/16405/Carou_678x452.png","video":null,"channel":null,"channelUrl":null,"author":"adwn","authorUrl":"https://news.ycombinator.com/user?id=adwn","authorImage":null,"authorSlug":null,"score":195,"views":null,"sharedCount":null,"likeCount":null,"sharedContent":null,"parent":{"__typename":"HnJson","localize":[{"title":"AMD推出Ryzen 5000手机。笔记本电脑的Zen 3和Cezanne","locale":"zh"},{"title":"AMD推出Ryzen 5000手機。筆記本電腦的Zen 3和Cezanne","locale":"zh-Hant"}]}},{"__typename":"SocialMediaPost","id":"HnPost-25792422","excerpt":"","slug":"/hn/25792422","title":"My preferred .NET console stack","date":"January 17, 2021","dateISO":"2021-01-17T05:14:39.170Z","datetime":"2021-01-17 05:14","tags":["story","Hacker News"],"image":null,"imageAlt":null,"provider":"Hacker News","thirdPartyId":"25792422","url":"https://news.ycombinator.com/item?id=25792422","originalUrl":"https://www.devlead.se/posts/2021/2021-01-15-my-preferred-console-stack","imageRemote":"https://cdn.devlead.se/clipimg-vscode/2021/01/14/e02ce155-5ff2-8a7b-e306-8c486f23f864.png?sv=2019-12-12&st=2021-01-13T20%3A33%3A10Z&se=2031-01-14T20%3A33%3A10Z&sr=b&sp=r&sig=fdANWdytZGRdgDMxN%2B%2BTNSCAbz%2Bzg6R0iAvtvYWYoKw%3D","video":null,"channel":null,"channelUrl":null,"author":"devlead","authorUrl":"https://news.ycombinator.com/user?id=devlead","authorImage":null,"authorSlug":null,"score":199,"views":null,"sharedCount":null,"likeCount":null,"sharedContent":null,"parent":{"__typename":"HnJson","localize":[{"title":"我喜欢的.NET控制台协议栈","locale":"zh"},{"title":"我喜歡的.NET控制檯協議棧","locale":"zh-Hant"}]}},{"__typename":"SocialMediaPost","id":"HnPost-25802160","excerpt":"","slug":"/hn/25802160","title":"“Appointment” as professor at Harvard was an elaborate phishing attack","date":"January 17, 2021","dateISO":"2021-01-17T05:14:39.170Z","datetime":"2021-01-17 05:14","tags":["story","Hacker News"],"image":null,"imageAlt":null,"provider":"Hacker News","thirdPartyId":"25802160","url":"https://news.ycombinator.com/item?id=25802160","originalUrl":"https://www.ndtv.com/blog/how-i-fell-for-a-phishing-attack-my-story-by-nidhi-razdan-2353395","imageRemote":"https://c.ndtvimg.com/2021-01/0r7oq1c4_nidhi-razdan-650_625x300_16_January_21.jpg","video":null,"channel":null,"channelUrl":null,"author":"LordAtlas","authorUrl":"https://news.ycombinator.com/user?id=LordAtlas","authorImage":null,"authorSlug":null,"score":214,"views":null,"sharedCount":null,"likeCount":null,"sharedContent":null,"parent":{"__typename":"HnJson","localize":[{"title":"\"钦点 \"哈佛教授是精心设计的钓鱼攻击","locale":"zh"},{"title":"\"欽點 \"哈佛教授是精心設計的釣魚攻擊","locale":"zh-Hant"}]}},{"__typename":"SocialMediaPost","id":"HnPost-25802714","excerpt":"","slug":"/hn/25802714","title":"Every day at the same time, my internet dies for 1 minute. How do I investigate?","date":"January 17, 2021","dateISO":"2021-01-17T05:14:39.170Z","datetime":"2021-01-17 05:14","tags":["story","Hacker News"],"image":null,"imageAlt":null,"provider":"Hacker News","thirdPartyId":"25802714","url":"https://news.ycombinator.com/item?id=25802714","originalUrl":"https://news.ycombinator.com/item?id=25802714","imageRemote":null,"video":null,"channel":null,"channelUrl":null,"author":"overallorder","authorUrl":"https://news.ycombinator.com/user?id=overallorder","authorImage":null,"authorSlug":null,"score":307,"views":null,"sharedCount":null,"likeCount":null,"sharedContent":null,"parent":{"__typename":"HnJson","localize":[{"title":"每天同一时间，我的网络死机1分钟。我该如何调查？","locale":"zh"},{"title":"每天同一時間，我的網絡死機1分鐘。我該如何調查？","locale":"zh-Hant"}]}},{"__typename":"SocialMediaPost","id":"HnPost-25803010","excerpt":"","slug":"/hn/25803010","title":"Signal apps DDoS'ed their own server","date":"January 17, 2021","dateISO":"2021-01-17T05:14:39.170Z","datetime":"2021-01-17 05:14","tags":["story","Hacker News"],"image":null,"imageAlt":null,"provider":"Hacker News","thirdPartyId":"25803010","url":"https://news.ycombinator.com/item?id=25803010","originalUrl":"https://twitter.com/NovakDaniel/status/1350471722034745348","imageRemote":null,"video":null,"channel":null,"channelUrl":null,"author":"Daniel_sk","authorUrl":"https://news.ycombinator.com/user?id=Daniel_sk","authorImage":null,"authorSlug":null,"score":212,"views":null,"sharedCount":null,"likeCount":null,"sharedContent":null,"parent":{"__typename":"HnJson","localize":[{"title":"信号应用DDoS了自己的服务器","locale":"zh"},{"title":"信號應用DDoS了自己的服務器","locale":"zh-Hant"}]}},{"__typename":"SocialMediaPost","id":"HnPost-25803568","excerpt":"","slug":"/hn/25803568","title":"Toxic positivity does more harm than good","date":"January 17, 2021","dateISO":"2021-01-17T05:14:39.170Z","datetime":"2021-01-17 05:14","tags":["story","Hacker News"],"image":null,"imageAlt":null,"provider":"Hacker News","thirdPartyId":"25803568","url":"https://news.ycombinator.com/item?id=25803568","originalUrl":"https://www.bloomberg.com/news/articles/2021-01-14/what-is-fono-toxic-positivity-is-doing-more-harm-than-good","imageRemote":null,"video":null,"channel":null,"channelUrl":null,"author":"prostoalex","authorUrl":"https://news.ycombinator.com/user?id=prostoalex","authorImage":null,"authorSlug":null,"score":397,"views":null,"sharedCount":null,"likeCount":null,"sharedContent":null,"parent":{"__typename":"HnJson","localize":[{"title":"有毒的积极性弊大于利","locale":"zh"},{"title":"有毒的積極性弊大於利","locale":"zh-Hant"}]}},{"__typename":"SocialMediaPost","id":"HnPost-25804183","excerpt":"","slug":"/hn/25804183","title":"A Nepali team has made the first winter ascent of K2","date":"January 17, 2021","dateISO":"2021-01-17T05:14:39.170Z","datetime":"2021-01-17 05:14","tags":["story","Hacker News"],"image":null,"imageAlt":null,"provider":"Hacker News","thirdPartyId":"25804183","url":"https://news.ycombinator.com/item?id=25804183","originalUrl":"http://www.alpinist.com/doc/web21w/newswire-k2-first-winter-ascent","imageRemote":"http://www.alpinist.com/img/search_arrow.png","video":null,"channel":null,"channelUrl":null,"author":"eigenvector","authorUrl":"https://news.ycombinator.com/user?id=eigenvector","authorImage":null,"authorSlug":null,"score":304,"views":null,"sharedCount":null,"likeCount":null,"sharedContent":null,"parent":{"__typename":"HnJson","localize":[{"title":"尼泊尔团队首次实现了K2的冬季攀登。","locale":"zh"},{"title":"尼泊爾團隊首次實現了K2的冬季攀登。","locale":"zh-Hant"}]}},{"__typename":"SocialMediaPost","id":"HnPost-25804597","excerpt":"","slug":"/hn/25804597","title":"Google Images Restored","date":"January 17, 2021","dateISO":"2021-01-17T05:14:39.170Z","datetime":"2021-01-17 05:14","tags":["story","Hacker News"],"image":null,"imageAlt":null,"provider":"Hacker News","thirdPartyId":"25804597","url":"https://news.ycombinator.com/item?id=25804597","originalUrl":"https://github.com/fanfare/googleimagesrestored","imageRemote":"https://repository-images.githubusercontent.com/202856776/811fc300-525d-11ea-9798-f6e074032eac","video":null,"channel":null,"channelUrl":null,"author":"alphabet9000","authorUrl":"https://news.ycombinator.com/user?id=alphabet9000","authorImage":null,"authorSlug":null,"score":265,"views":null,"sharedCount":null,"likeCount":null,"sharedContent":null,"parent":{"__typename":"HnJson","localize":[{"title":"谷歌图片恢复","locale":"zh"},{"title":"谷歌圖片恢復","locale":"zh-Hant"}]}},{"__typename":"SocialMediaPost","id":"HnPost-25804869","excerpt":"","slug":"/hn/25804869","title":"Mnm – an open source project to replace email and SMTP","date":"January 17, 2021","dateISO":"2021-01-17T04:16:56.074Z","datetime":"2021-01-17 04:16","tags":["story","Hacker News"],"image":null,"imageAlt":null,"provider":"Hacker News","thirdPartyId":"25804869","url":"https://news.ycombinator.com/item?id=25804869","originalUrl":"https://mnmnotmail.org/","imageRemote":"https://mnmnotmail.org/icon-dev-gray.svg","video":null,"channel":null,"channelUrl":null,"author":"skinkestek","authorUrl":"https://news.ycombinator.com/user?id=skinkestek","authorImage":null,"authorSlug":null,"score":322,"views":null,"sharedCount":null,"likeCount":null,"sharedContent":null,"parent":{"__typename":"HnJson","localize":[{"title":"Mnm - 一个取代电子邮件和SMTP的开源项目。","locale":"zh"},{"title":"Mnm - 一個取代電子郵件和SMTP的開源項目。","locale":"zh-Hant"}]}},{"__typename":"SocialMediaPost","id":"HnPost-25801986","excerpt":"","slug":"/hn/25801986","title":"The Problem with Gradle","date":"January 17, 2021","dateISO":"2021-01-17T02:13:01.478Z","datetime":"2021-01-17 02:13","tags":["story","Hacker News"],"image":null,"imageAlt":null,"provider":"Hacker News","thirdPartyId":"25801986","url":"https://news.ycombinator.com/item?id=25801986","originalUrl":"https://www.bruceeckel.com/2021/01/02/the-problem-with-gradle/","imageRemote":null,"video":null,"channel":null,"channelUrl":null,"author":"wheresvic4","authorUrl":"https://news.ycombinator.com/user?id=wheresvic4","authorImage":null,"authorSlug":null,"score":269,"views":null,"sharedCount":null,"likeCount":null,"sharedContent":null,"parent":{"__typename":"HnJson","localize":[{"title":"与Gradle的问题","locale":"zh"},{"title":"與Gradle的問題","locale":"zh-Hant"}]}},{"__typename":"SocialMediaPost","id":"HnPost-25803288","excerpt":"","slug":"/hn/25803288","title":"Big O Notation – Explained as Easily as Possible","date":"January 16, 2021","dateISO":"2021-01-16T21:35:34.695Z","datetime":"2021-01-16 21:35","tags":["story","Hacker News"],"image":null,"imageAlt":null,"provider":"Hacker News","thirdPartyId":"25803288","url":"https://news.ycombinator.com/item?id=25803288","originalUrl":"https://thatcomputerscientist.com/big-o-notation-explained-as-easily-as-possible","imageRemote":"https://hashnode.com/utility/r?url=https%3A%2F%2Fcdn.hashnode.com%2Fres%2Fhashnode%2Fimage%2Fupload%2Fv1610789606012%2FMGgIIOjkr.jpeg%3Fw%3D1200%26h%3D630%26fit%3Dcrop%26crop%3Dentropy%26auto%3Dcompress","video":null,"channel":null,"channelUrl":null,"author":"optimalsolver","authorUrl":"https://news.ycombinator.com/user?id=optimalsolver","authorImage":null,"authorSlug":null,"score":488,"views":null,"sharedCount":null,"likeCount":null,"sharedContent":null,"parent":{"__typename":"HnJson","localize":[{"title":"大O记事法--尽可能简单的解释。","locale":"zh"},{"title":"大O記事法--儘可能簡單的解釋。","locale":"zh-Hant"}]}},{"__typename":"SocialMediaPost","id":"HnPost-25789336","excerpt":"","slug":"/hn/25789336","title":"How to join a team and learn a codebase (2020)","date":"January 16, 2021","dateISO":"2021-01-16T17:30:12.160Z","datetime":"2021-01-16 17:30","tags":["story","Hacker News"],"image":null,"imageAlt":null,"provider":"Hacker News","thirdPartyId":"25789336","url":"https://news.ycombinator.com/item?id=25789336","originalUrl":"https://www.samueltaylor.org/articles/how-to-learn-a-codebase.html","imageRemote":null,"video":null,"channel":null,"channelUrl":null,"author":"minicaionut","authorUrl":"https://news.ycombinator.com/user?id=minicaionut","authorImage":null,"authorSlug":null,"score":249,"views":null,"sharedCount":null,"likeCount":null,"sharedContent":null,"parent":{"__typename":"HnJson","localize":[{"title":"如何加入一个团队，学习一个代码库（2020年","locale":"zh"},{"title":"如何加入一個團隊，學習一個代碼庫（2020年","locale":"zh-Hant"}]}},{"__typename":"SocialMediaPost","id":"HnPost-25800858","excerpt":"","slug":"/hn/25800858","title":"Computer System Engineering","date":"January 16, 2021","dateISO":"2021-01-16T17:30:12.160Z","datetime":"2021-01-16 17:30","tags":["story","Hacker News"],"image":null,"imageAlt":null,"provider":"Hacker News","thirdPartyId":"25800858","url":"https://news.ycombinator.com/item?id=25800858","originalUrl":"https://ocw.mit.edu/courses/electrical-engineering-and-computer-science/6-033-computer-system-engineering-spring-2018/","imageRemote":"https://ocw.mit.edu/courses/electrical-engineering-and-computer-science/6-033-computer-system-engineering-spring-2018/6-033s18.png","video":null,"channel":null,"channelUrl":null,"author":"hackitup7","authorUrl":"https://news.ycombinator.com/user?id=hackitup7","authorImage":null,"authorSlug":null,"score":323,"views":null,"sharedCount":null,"likeCount":null,"sharedContent":null,"parent":{"__typename":"HnJson","localize":[{"title":"计算机系统工程","locale":"zh"},{"title":"計算機系統工程","locale":"zh-Hant"}]}},{"__typename":"SocialMediaPost","id":"HnPost-25802366","excerpt":"","slug":"/hn/25802366","title":"Google Safe Browsing can kill a startup","date":"January 16, 2021","dateISO":"2021-01-16T16:09:26.880Z","datetime":"2021-01-16 16:09","tags":["story","Hacker News"],"image":null,"imageAlt":null,"provider":"Hacker News","thirdPartyId":"25802366","url":"https://news.ycombinator.com/item?id=25802366","originalUrl":"https://gomox.medium.com/google-safe-browsing-can-kill-your-startup-7d73c474b98d","imageRemote":"https://miro.medium.com/max/1200/1*5mudWNIzqA8WptZxwZxpOQ.png","video":null,"channel":null,"channelUrl":null,"author":"gomox","authorUrl":"https://news.ycombinator.com/user?id=gomox","authorImage":null,"authorSlug":null,"score":1702,"views":null,"sharedCount":null,"likeCount":null,"sharedContent":null,"parent":{"__typename":"HnJson","localize":[{"title":"谷歌安全浏览可以杀死一家创业公司。","locale":"zh"},{"title":"谷歌安全瀏覽可以殺死一家創業公司。","locale":"zh-Hant"}]}},{"__typename":"SocialMediaPost","id":"HnPost-25801426","excerpt":"","slug":"/hn/25801426","title":"Running a fake power plant on the internet for a month","date":"January 16, 2021","dateISO":"2021-01-16T15:28:36.370Z","datetime":"2021-01-16 15:28","tags":["story","Hacker News"],"image":null,"imageAlt":null,"provider":"Hacker News","thirdPartyId":"25801426","url":"https://news.ycombinator.com/item?id=25801426","originalUrl":"https://grimminck.medium.com/running-a-fake-power-plant-on-the-internet-for-a-month-4a624f685aaa","imageRemote":"https://miro.medium.com/max/1024/1*fe1jmBrEL0AsXcJNfcuNlg.jpeg","video":null,"channel":null,"channelUrl":null,"author":"tutfbhuf","authorUrl":"https://news.ycombinator.com/user?id=tutfbhuf","authorImage":null,"authorSlug":null,"score":427,"views":null,"sharedCount":null,"likeCount":null,"sharedContent":null,"parent":{"__typename":"HnJson","localize":[{"title":"在互联网上经营假电厂一个月。","locale":"zh"},{"title":"在互聯網上經營假電廠一個月。","locale":"zh-Hant"}]}}]}},"pageContext":{"basePath":"/","pageType":"home","tagsFilter":{"id":{"glob":"!*Post-1"}},"filter":{"id":{"glob":"!*Post-1"}},"limit":25,"skip":2125,"totalPages":125,"total":3105,"currentPage":86,"maxWidth":1024,"maxHeight":512,"locale":"en","hrefLang":"en-US","originalPath":"/page/86","dateFormat":"MM/DD/YYYY"}},"staticQueryHashes":["1239077767","2506312863","2744905544","3025052997","3493603132","3493603132","3513215887","386998304"]}