{"componentChunkName":"component---gatsby-theme-buzzing-src-gatsby-theme-timeline-templates-posts-query-js","path":"/tags/story/page/121","result":{"data":{"site":{"siteMetadata":{"title":"Reddit 热门","description":"用中文浏览Reddit热门内容","social":[{"name":"Twitter","url":"https://twitter.com/gatsbyjs","external":null,"prefetch":null},{"name":"GitHub","url":"https://github.com/gatsbyjs","external":null,"prefetch":null}],"menuLinks":[],"localize":[{"locale":"en","title":"Buzzing on Reddit","description":"See what's buzzing on Reddit in your native language","social":[{"name":"Reddit","url":"https://www.reddit.com/","external":true,"prefetch":null}],"menuLinks":[{"name":"Weekly Selection","url":"/issues","external":null,"prefetch":null},{"name":"RSS","url":"/rss.xml","external":null,"prefetch":false}]},{"locale":"zh-Hant","title":"Reddit 熱門","description":"用中文瀏覽Reddit熱門內容","social":null,"menuLinks":null}]}},"tagsGroup":{"group":[{"fieldValue":"ASK HN","totalCount":54},{"fieldValue":"Hacker News","totalCount":3105},{"fieldValue":"Poll","totalCount":1},{"fieldValue":"Show HN","totalCount":100},{"fieldValue":"poll","totalCount":1},{"fieldValue":"story","totalCount":3104}]},"allBlogPost":{"nodes":[{"__typename":"SocialMediaPost","id":"HnPost-25465579","excerpt":"","slug":"/hn/25465579","title":"John Carmack: Career Advice","date":"December 18, 2020","dateISO":"2020-12-18T15:25:51.582Z","datetime":"2020-12-18 15:25","tags":["story","Hacker News"],"image":null,"imageAlt":null,"provider":"Hacker News","thirdPartyId":"25465579","url":"https://news.ycombinator.com/item?id=25465579","originalUrl":"https://twitter.com/id_aa_carmack/status/1339777933871865857","imageRemote":null,"video":null,"channel":null,"channelUrl":null,"author":"tosh","authorUrl":"https://news.ycombinator.com/user?id=tosh","authorImage":null,"authorSlug":null,"score":274,"views":null,"sharedCount":null,"likeCount":null,"sharedContent":null,"parent":{"__typename":"HnJson","localize":[{"title":"约翰·卡马克：职业建议","locale":"zh"},{"title":"約翰·卡馬克：職業建議","locale":"zh-Hant"}]}},{"__typename":"SocialMediaPost","id":"HnPost-25466854","excerpt":"","slug":"/hn/25466854","title":"I've walked away from software development","date":"December 18, 2020","dateISO":"2020-12-18T15:25:51.582Z","datetime":"2020-12-18 15:25","tags":["story","Hacker News"],"image":null,"imageAlt":null,"provider":"Hacker News","thirdPartyId":"25466854","url":"https://news.ycombinator.com/item?id=25466854","originalUrl":"https://old.reddit.com/r/cscareerquestions/comments/kfcmbj/ive_walked_away_from_software_development/","imageRemote":"https://www.redditstatic.com/new-icon.png","video":null,"channel":null,"channelUrl":null,"author":"mrfusion","authorUrl":"https://news.ycombinator.com/user?id=mrfusion","authorImage":null,"authorSlug":null,"score":182,"views":null,"sharedCount":null,"likeCount":null,"sharedContent":null,"parent":{"__typename":"HnJson","localize":[{"title":"我已经离开了软件开发","locale":"zh"},{"title":"我已經離開了軟件開發","locale":"zh-Hant"}]}},{"__typename":"SocialMediaPost","id":"HnPost-25462717","excerpt":"","slug":"/hn/25462717","title":"Cyberpunk 2077 Refunds","date":"December 18, 2020","dateISO":"2020-12-18T14:48:42.862Z","datetime":"2020-12-18 14:48","tags":["story","Hacker News"],"image":null,"imageAlt":null,"provider":"Hacker News","thirdPartyId":"25462717","url":"https://news.ycombinator.com/item?id=25462717","originalUrl":"https://www.playstation.com/en-us/cyberpunk-2077-refunds/","imageRemote":"https://gmedia.playstation.com/is/image/SIEPDC/cyberpunk-2077-listing-thumb-01-ps4-en-08sep20?$facebook$","video":null,"channel":null,"channelUrl":null,"author":"Kapura","authorUrl":"https://news.ycombinator.com/user?id=Kapura","authorImage":null,"authorSlug":null,"score":379,"views":null,"sharedCount":null,"likeCount":null,"sharedContent":null,"parent":{"__typename":"HnJson","localize":[{"title":"赛博朋克2077退款","locale":"zh"},{"title":"賽博朋克2077退款","locale":"zh-Hant"}]}},{"__typename":"SocialMediaPost","id":"HnPost-25463521","excerpt":"","slug":"/hn/25463521","title":"Big Sur bug prevents upgrades to the next version","date":"December 18, 2020","dateISO":"2020-12-18T14:33:24.942Z","datetime":"2020-12-18 14:33","tags":["story","Hacker News"],"image":null,"imageAlt":null,"provider":"Hacker News","thirdPartyId":"25463521","url":"https://news.ycombinator.com/item?id=25463521","originalUrl":"https://micromdm.io/blog/big-sur-softwareupdate/","imageRemote":"https://micromdm.io/images/logo.svg","video":null,"channel":null,"channelUrl":null,"author":"groobongithub","authorUrl":"https://news.ycombinator.com/user?id=groobongithub","authorImage":null,"authorSlug":null,"score":132,"views":null,"sharedCount":null,"likeCount":null,"sharedContent":null,"parent":{"__typename":"HnJson","localize":[{"title":"大Sur错误阻止升级到下一个版本","locale":"zh"},{"title":"大Sur錯誤阻止升級到下一個版本","locale":"zh-Hant"}]}},{"__typename":"SocialMediaPost","id":"HnPost-25466063","excerpt":"","slug":"/hn/25466063","title":"The Ampere Altra Review: 2x 80 Cores Arm Server Performance Monster","date":"December 18, 2020","dateISO":"2020-12-18T14:33:24.942Z","datetime":"2020-12-18 14:33","tags":["story","Hacker News"],"image":null,"imageAlt":null,"provider":"Hacker News","thirdPartyId":"25466063","url":"https://news.ycombinator.com/item?id=25466063","originalUrl":"https://www.anandtech.com/show/16315/the-ampere-altra-review","imageRemote":"https://images.anandtech.com/doci/16315/X-T30_DSF3751_678x452.jpg","video":null,"channel":null,"channelUrl":null,"author":"sien","authorUrl":"https://news.ycombinator.com/user?id=sien","authorImage":null,"authorSlug":null,"score":274,"views":null,"sharedCount":null,"likeCount":null,"sharedContent":null,"parent":{"__typename":"HnJson","localize":[{"title":"安培Altra评论：2个80核ARM服务器性能怪兽","locale":"zh"},{"title":"安培Altra評論：2個80核ARM服務器性能怪獸","locale":"zh-Hant"}]}},{"__typename":"SocialMediaPost","id":"HnPost-25466416","excerpt":"","slug":"/hn/25466416","title":"I Have Resigned from the Google AMP Advisory Committee","date":"December 18, 2020","dateISO":"2020-12-18T13:54:08.413Z","datetime":"2020-12-18 13:54","tags":["story","Hacker News"],"image":null,"imageAlt":null,"provider":"Hacker News","thirdPartyId":"25466416","url":"https://news.ycombinator.com/item?id=25466416","originalUrl":"https://shkspr.mobi/blog/2020/12/i-have-resigned-from-the-google-amp-advisory-committee/","imageRemote":"https://shkspr.mobi/blog/wp-content/uploads/2018/09/AMP.png","video":null,"channel":null,"channelUrl":null,"author":"edent","authorUrl":"https://news.ycombinator.com/user?id=edent","authorImage":null,"authorSlug":null,"score":744,"views":null,"sharedCount":null,"likeCount":null,"sharedContent":null,"parent":{"__typename":"HnJson","localize":[{"title":"我已经辞去了谷歌AMP咨询委员会的职务","locale":"zh"},{"title":"我已經辭去了谷歌AMP諮詢委員會的職務","locale":"zh-Hant"}]}},{"__typename":"SocialMediaPost","id":"HnPost-25457085","excerpt":"","slug":"/hn/25457085","title":"Launch HN: ShareWith (YC W21) – Easily share internal websites securely","date":"December 18, 2020","dateISO":"2020-12-18T13:46:09.233Z","datetime":"2020-12-18 13:46","tags":["story","Hacker News"],"image":null,"imageAlt":null,"provider":"Hacker News","thirdPartyId":"25457085","url":"https://news.ycombinator.com/item?id=25457085","originalUrl":"https://news.ycombinator.com/item?id=25457085","imageRemote":null,"video":null,"channel":null,"channelUrl":null,"author":"jakemoshenko","authorUrl":"https://news.ycombinator.com/user?id=jakemoshenko","authorImage":null,"authorSlug":null,"score":112,"views":null,"sharedCount":null,"likeCount":null,"sharedContent":null,"parent":{"__typename":"HnJson","localize":[{"title":"发布HN：共享(YC W21)-轻松安全地共享内部网站","locale":"zh"},{"title":"發佈HN：共享(YC W21)-輕鬆安全地共享內部網站","locale":"zh-Hant"}]}},{"__typename":"SocialMediaPost","id":"HnPost-25460439","excerpt":"","slug":"/hn/25460439","title":"The black market in stolen antiquities on Facebook","date":"December 18, 2020","dateISO":"2020-12-18T13:46:09.233Z","datetime":"2020-12-18 13:46","tags":["story","Hacker News"],"image":null,"imageAlt":null,"provider":"Hacker News","thirdPartyId":"25460439","url":"https://news.ycombinator.com/item?id=25460439","originalUrl":"https://slate.com/technology/2020/12/facebook-stolen-antiquities-art-black-market.html","imageRemote":"https://compote.slate.com/images/769c5ace-8849-4d68-b726-ce80e39ed362.jpeg?width=780&height=520&rect=3200x2133&offset=0x0","video":null,"channel":null,"channelUrl":null,"author":"laurex","authorUrl":"https://news.ycombinator.com/user?id=laurex","authorImage":null,"authorSlug":null,"score":104,"views":null,"sharedCount":null,"likeCount":null,"sharedContent":null,"parent":{"__typename":"HnJson","localize":[{"title":"Facebook上的被盗古董黑市","locale":"zh"},{"title":"Facebook上的被盜古董黑市","locale":"zh-Hant"}]}},{"__typename":"SocialMediaPost","id":"HnPost-25454747","excerpt":"","slug":"/hn/25454747","title":"Physicists Create Time-Reversed Waves of Optical Light","date":"December 18, 2020","dateISO":"2020-12-18T13:00:46.453Z","datetime":"2020-12-18 13:00","tags":["story","Hacker News"],"image":null,"imageAlt":null,"provider":"Hacker News","thirdPartyId":"25454747","url":"https://news.ycombinator.com/item?id=25454747","originalUrl":"https://www.sciencealert.com/physicists-have-created-time-reversed-waves-of-light","imageRemote":"https://www.sciencealert.com/images/2020-12/processed/time-beam_1024.jpg","video":null,"channel":null,"channelUrl":null,"author":"bookofjoe","authorUrl":"https://news.ycombinator.com/user?id=bookofjoe","authorImage":null,"authorSlug":null,"score":119,"views":null,"sharedCount":null,"likeCount":null,"sharedContent":null,"parent":{"__typename":"HnJson","localize":[{"title":"物理学家创造了时间反转的光波","locale":"zh"},{"title":"物理學家創造了時間反轉的光波","locale":"zh-Hant"}]}},{"__typename":"SocialMediaPost","id":"HnPost-25459731","excerpt":"","slug":"/hn/25459731","title":"Playing chess is a life lesson in concentration","date":"December 18, 2020","dateISO":"2020-12-18T13:00:46.453Z","datetime":"2020-12-18 13:00","tags":["story","Hacker News"],"image":null,"imageAlt":null,"provider":"Hacker News","thirdPartyId":"25459731","url":"https://news.ycombinator.com/item?id=25459731","originalUrl":"https://aeon.co/essays/playing-chess-is-an-essential-life-lesson-in-concentration","imageRemote":"https://alpha.aeon.co/images/e905da2e-8ab0-489f-aa9a-950ed31c0632/header_essay-panos_00171315.jpg","video":null,"channel":null,"channelUrl":null,"author":"agronaut","authorUrl":"https://news.ycombinator.com/user?id=agronaut","authorImage":null,"authorSlug":null,"score":228,"views":null,"sharedCount":null,"likeCount":null,"sharedContent":null,"parent":{"__typename":"HnJson","localize":[{"title":"下国际象棋是集中注意力的人生课程。","locale":"zh"},{"title":"下國際象棋是集中注意力的人生課程。","locale":"zh-Hant"}]}},{"__typename":"SocialMediaPost","id":"HnPost-25466304","excerpt":"","slug":"/hn/25466304","title":"Czech startup (JetBrains) founders turn billionaires without VC help","date":"December 18, 2020","dateISO":"2020-12-18T13:00:46.453Z","datetime":"2020-12-18 13:00","tags":["story","Hacker News"],"image":null,"imageAlt":null,"provider":"Hacker News","thirdPartyId":"25466304","url":"https://news.ycombinator.com/item?id=25466304","originalUrl":"https://www.bloomberg.com/news/articles/2020-12-18/czech-startup-founders-turn-billionaires-without-vc-help","imageRemote":null,"video":null,"channel":null,"channelUrl":null,"author":"OJFord","authorUrl":"https://news.ycombinator.com/user?id=OJFord","authorImage":null,"authorSlug":null,"score":1243,"views":null,"sharedCount":null,"likeCount":null,"sharedContent":null,"parent":{"__typename":"HnJson","localize":[{"title":"捷克初创公司(JetBrains)创始人在没有风投帮助的情况下成为亿万富翁","locale":"zh"},{"title":"捷克初創公司(JetBrains)創始人在沒有風投幫助的情況下成爲億萬富翁","locale":"zh-Hant"}]}},{"__typename":"SocialMediaPost","id":"HnPost-25464280","excerpt":"","slug":"/hn/25464280","title":"Twitter cut off the ability to read a tweet by fetching its URL with a HTTP GET","date":"December 18, 2020","dateISO":"2020-12-18T09:02:24.863Z","datetime":"2020-12-18 09:02","tags":["story","Hacker News"],"image":null,"imageAlt":null,"provider":"Hacker News","thirdPartyId":"25464280","url":"https://news.ycombinator.com/item?id=25464280","originalUrl":"https://twitter.com/zarfeblong/status/1339742840142872577","imageRemote":null,"video":null,"channel":null,"channelUrl":null,"author":"LyalinDotCom","authorUrl":"https://news.ycombinator.com/user?id=LyalinDotCom","authorImage":null,"authorSlug":null,"score":326,"views":null,"sharedCount":null,"likeCount":null,"sharedContent":null,"parent":{"__typename":"HnJson","localize":[{"title":"Twitter通过使用HTTP get获取URL来切断阅读推文的功能","locale":"zh"},{"title":"Twitter通過使用HTTP get獲取URL來切斷閱讀推文的功能","locale":"zh-Hant"}]}},{"__typename":"SocialMediaPost","id":"HnPost-25464475","excerpt":"","slug":"/hn/25464475","title":"Facebook's Hypocrisy on Apple's New iOS 14 Privacy Feature","date":"December 18, 2020","dateISO":"2020-12-18T08:52:09.648Z","datetime":"2020-12-18 08:52","tags":["story","Hacker News"],"image":null,"imageAlt":null,"provider":"Hacker News","thirdPartyId":"25464475","url":"https://news.ycombinator.com/item?id=25464475","originalUrl":"https://thebigtech.substack.com/p/facebook-criticising-apples-ios-14","imageRemote":"https://cdn.substack.com/image/fetch/h_600,c_limit,f_auto,q_auto:good,fl_progressive:steep/https%3A%2F%2Fbucketeer-e05bbc84-baa3-437e-9518-adb32be77984.s3.amazonaws.com%2Fpublic%2Fimages%2F70618a47-3206-4c78-9831-c42405fd4fd9_1400x933.jpeg","video":null,"channel":null,"channelUrl":null,"author":"anupamchugh","authorUrl":"https://news.ycombinator.com/user?id=anupamchugh","authorImage":null,"authorSlug":null,"score":671,"views":null,"sharedCount":null,"likeCount":null,"sharedContent":null,"parent":{"__typename":"HnJson","localize":[{"title":"Facebook对苹果iOS 14新隐私功能的伪善","locale":"zh"},{"title":"Facebook對蘋果iOS 14新隱私功能的僞善","locale":"zh-Hant"}]}},{"__typename":"SocialMediaPost","id":"HnPost-25461760","excerpt":"","slug":"/hn/25461760","title":"The Smalltalk Zoo","date":"December 18, 2020","dateISO":"2020-12-18T07:12:18.404Z","datetime":"2020-12-18 07:12","tags":["story","Hacker News"],"image":null,"imageAlt":null,"provider":"Hacker News","thirdPartyId":"25461760","url":"https://news.ycombinator.com/item?id=25461760","originalUrl":"https://computerhistory.org/blog/introducing-the-smalltalk-zoo-48-years-of-smalltalk-history-at-chm/","imageRemote":"https://computerhistory.org/wp-content/uploads/2020/12/Smalltalk-hero.jpg","video":null,"channel":null,"channelUrl":null,"author":"fniephaus","authorUrl":"https://news.ycombinator.com/user?id=fniephaus","authorImage":null,"authorSlug":null,"score":163,"views":null,"sharedCount":null,"likeCount":null,"sharedContent":null,"parent":{"__typename":"HnJson","localize":[{"title":"Smalltalk动物园","locale":"zh"},{"title":"Smalltalk動物園","locale":"zh-Hant"}]}},{"__typename":"SocialMediaPost","id":"HnPost-25462168","excerpt":"","slug":"/hn/25462168","title":"Python at Scale: Strict Modules","date":"December 18, 2020","dateISO":"2020-12-18T06:31:40.125Z","datetime":"2020-12-18 06:31","tags":["story","Hacker News"],"image":null,"imageAlt":null,"provider":"Hacker News","thirdPartyId":"25462168","url":"https://news.ycombinator.com/item?id=25462168","originalUrl":"https://instagram-engineering.com/python-at-scale-strict-modules-c0bb9245c834?source=social.tw","imageRemote":"https://miro.medium.com/proxy/1*3sela1OADrJr7dJk_CXaEQ.png","video":null,"channel":null,"channelUrl":null,"author":"rbanffy","authorUrl":"https://news.ycombinator.com/user?id=rbanffy","authorImage":null,"authorSlug":null,"score":225,"views":null,"sharedCount":null,"likeCount":null,"sharedContent":null,"parent":{"__typename":"HnJson","localize":[{"title":"Python at Scale：严格模块","locale":"zh"},{"title":"Python at Scale：嚴格模塊","locale":"zh-Hant"}]}},{"__typename":"SocialMediaPost","id":"HnPost-25461367","excerpt":"","slug":"/hn/25461367","title":"Show HN: StumblingOn – Randomly find indie websites – recreating StumbleUpon","date":"December 18, 2020","dateISO":"2020-12-18T05:30:33.771Z","datetime":"2020-12-18 05:30","tags":["story","Show HN","Hacker News"],"image":null,"imageAlt":null,"provider":"Hacker News","thirdPartyId":"25461367","url":"https://news.ycombinator.com/item?id=25461367","originalUrl":"https://stumblingon.com","imageRemote":null,"video":null,"channel":"Show HN","channelUrl":"https://news.ycombinator.com/show","author":"ALittleLight","authorUrl":"https://news.ycombinator.com/user?id=ALittleLight","authorImage":null,"authorSlug":null,"score":138,"views":null,"sharedCount":null,"likeCount":null,"sharedContent":null,"parent":{"__typename":"HnJson","localize":[{"title":"HN新产品：StumblingOn-随机查找独立网站-重新创建StumbleUpon","locale":"zh"},{"title":"show HN：StumblingOn-隨機查找獨立網站-重新創建StumbleUpon","locale":"zh-Hant"}]}},{"__typename":"SocialMediaPost","id":"HnPost-25462132","excerpt":"","slug":"/hn/25462132","title":"Toxic fumes seep into the air you breathe on planes","date":"December 18, 2020","dateISO":"2020-12-18T04:52:11.133Z","datetime":"2020-12-18 04:52","tags":["story","Hacker News"],"image":null,"imageAlt":null,"provider":"Hacker News","thirdPartyId":"25462132","url":"https://news.ycombinator.com/item?id=25462132","originalUrl":"https://www.latimes.com/projects/toxic-chemicals-planes-covid-19-travel-woes/","imageRemote":"https://www.latimes.com/projects/toxic-chemicals-planes-covid-19-travel-woes/assets/meta/social-image.d1c8afd5.jpg","video":null,"channel":null,"channelUrl":null,"author":"clumsysmurf","authorUrl":"https://news.ycombinator.com/user?id=clumsysmurf","authorImage":null,"authorSlug":null,"score":170,"views":null,"sharedCount":null,"likeCount":null,"sharedContent":null,"parent":{"__typename":"HnJson","localize":[{"title":"有毒烟雾渗入你在飞机上呼吸的空气中","locale":"zh"},{"title":"有毒煙霧滲入你在飛機上呼吸的空氣中","locale":"zh-Hant"}]}},{"__typename":"SocialMediaPost","id":"HnPost-25462814","excerpt":"","slug":"/hn/25462814","title":"What If OpenDocument Used SQLite?","date":"December 18, 2020","dateISO":"2020-12-18T04:52:11.133Z","datetime":"2020-12-18 04:52","tags":["story","Hacker News"],"image":null,"imageAlt":null,"provider":"Hacker News","thirdPartyId":"25462814","url":"https://news.ycombinator.com/item?id=25462814","originalUrl":"https://www.sqlite.org/affcase1.html","imageRemote":"https://www.sqlite.org/images/sqlite370_banner.gif","video":null,"channel":null,"channelUrl":null,"author":"timeoperator","authorUrl":"https://news.ycombinator.com/user?id=timeoperator","authorImage":null,"authorSlug":null,"score":269,"views":null,"sharedCount":null,"likeCount":null,"sharedContent":null,"parent":{"__typename":"HnJson","localize":[{"title":"如果OpenDocument使用SQLite怎么办？","locale":"zh"},{"title":"如果OpenDocument使用SQLite怎麼辦？","locale":"zh-Hant"}]}},{"__typename":"SocialMediaPost","id":"HnPost-25463449","excerpt":"","slug":"/hn/25463449","title":"U.S. has evidence hackers accessed its nuclear networks","date":"December 18, 2020","dateISO":"2020-12-18T04:27:11.536Z","datetime":"2020-12-18 04:27","tags":["story","Hacker News"],"image":null,"imageAlt":null,"provider":"Hacker News","thirdPartyId":"25463449","url":"https://news.ycombinator.com/item?id=25463449","originalUrl":"https://www.reuters.com/article/idUSKBN28R34N","imageRemote":"https://s1.reutersmedia.net/resources_v2/images/rcom-default.png?w=800","video":null,"channel":null,"channelUrl":null,"author":"plankers","authorUrl":"https://news.ycombinator.com/user?id=plankers","authorImage":null,"authorSlug":null,"score":295,"views":null,"sharedCount":null,"likeCount":null,"sharedContent":null,"parent":{"__typename":"HnJson","localize":[{"title":"美国有证据表明黑客访问了其核网络","locale":"zh"},{"title":"美國有證據表明黑客訪問了其核網絡","locale":"zh-Hant"}]}},{"__typename":"SocialMediaPost","id":"HnPost-25461954","excerpt":"","slug":"/hn/25461954","title":"Hacking Spree Reached into Microsoft","date":"December 18, 2020","dateISO":"2020-12-18T03:24:32.368Z","datetime":"2020-12-18 03:24","tags":["story","Hacker News"],"image":null,"imageAlt":null,"provider":"Hacker News","thirdPartyId":"25461954","url":"https://news.ycombinator.com/item?id=25461954","originalUrl":"https://www.reuters.com/article/usa-cyber-breach-exclusive-int-idUSKBN28R3E2","imageRemote":"https://static.reuters.com/resources/r/?m=02&d=20201217&t=2&i=1544963772&r=LYNXMPEGBG1XP&w=800","video":null,"channel":null,"channelUrl":null,"author":"theBashShell","authorUrl":"https://news.ycombinator.com/user?id=theBashShell","authorImage":null,"authorSlug":null,"score":219,"views":null,"sharedCount":null,"likeCount":null,"sharedContent":null,"parent":{"__typename":"HnJson","localize":[{"title":"侵入微软的黑客狂潮","locale":"zh"},{"title":"侵入微軟的黑客狂潮","locale":"zh-Hant"}]}},{"__typename":"SocialMediaPost","id":"HnPost-25457181","excerpt":"","slug":"/hn/25457181","title":"Stop Silencing Critics from MiddleEast and NorthAfrica","date":"December 18, 2020","dateISO":"2020-12-18T02:40:06.636Z","datetime":"2020-12-18 02:40","tags":["story","Hacker News"],"image":null,"imageAlt":null,"provider":"Hacker News","thirdPartyId":"25457181","url":"https://news.ycombinator.com/item?id=25457181","originalUrl":"https://www.accessnow.org/facebook-twitter-youtube-stop-silencing-critical-voices-mena/","imageRemote":"https://www.accessnow.org/cms/assets/uploads/2020/12/Arab-spring-10-anniversary-platform-responsibility-post-header.jpg","video":null,"channel":null,"channelUrl":null,"author":"giuliomagnifico","authorUrl":"https://news.ycombinator.com/user?id=giuliomagnifico","authorImage":null,"authorSlug":null,"score":105,"views":null,"sharedCount":null,"likeCount":null,"sharedContent":null,"parent":{"__typename":"HnJson","localize":[{"title":"停止压制来自中东和北非的批评者","locale":"zh"},{"title":"停止壓制來自中東和北非的批評者","locale":"zh-Hant"}]}},{"__typename":"SocialMediaPost","id":"HnPost-25457978","excerpt":"","slug":"/hn/25457978","title":"Software breakthrough radically boosts the speed of nanopore DNA sequencers","date":"December 18, 2020","dateISO":"2020-12-18T02:40:06.636Z","datetime":"2020-12-18 02:40","tags":["story","Hacker News"],"image":null,"imageAlt":null,"provider":"Hacker News","thirdPartyId":"25457978","url":"https://news.ycombinator.com/item?id=25457978","originalUrl":"https://newatlas.com/medical/uncalled-faster-dna-sequencing-nanopore/","imageRemote":"https://assets.newatlas.com/dims4/default/7c4c3ce/2147483647/strip/true/crop/1366x717+34+0/resize/1200x630!/quality/90/?url=http%3A%2F%2Fnewatlas-brightspot.s3.amazonaws.com%2F0d%2Fde%2F38fc29a74f4899e141c4404b8123%2F92532763-10163519867120247-6191644494799044608-o.jpg","video":null,"channel":null,"channelUrl":null,"author":"olvy0","authorUrl":"https://news.ycombinator.com/user?id=olvy0","authorImage":null,"authorSlug":null,"score":134,"views":null,"sharedCount":null,"likeCount":null,"sharedContent":null,"parent":{"__typename":"HnJson","localize":[{"title":"软件突破从根本上提高了纳米孔DNA测序仪的速度","locale":"zh"},{"title":"軟件突破從根本上提高了納米孔DNA測序儀的速度","locale":"zh-Hant"}]}},{"__typename":"SocialMediaPost","id":"HnPost-25457876","excerpt":"","slug":"/hn/25457876","title":"Airflow 2.0","date":"December 18, 2020","dateISO":"2020-12-18T02:00:40.826Z","datetime":"2020-12-18 02:00","tags":["story","Hacker News"],"image":null,"imageAlt":null,"provider":"Hacker News","thirdPartyId":"25457876","url":"https://news.ycombinator.com/item?id=25457876","originalUrl":"http://airflow.apache.org/blog/airflow-two-point-oh-is-here/","imageRemote":"http://airflow.apache.org/images/feature-image.png","video":null,"channel":null,"channelUrl":null,"author":"jamestimmins","authorUrl":"https://news.ycombinator.com/user?id=jamestimmins","authorImage":null,"authorSlug":null,"score":129,"views":null,"sharedCount":null,"likeCount":null,"sharedContent":null,"parent":{"__typename":"HnJson","localize":[{"title":"气流2.0","locale":"zh"},{"title":"氣流2.0","locale":"zh-Hant"}]}},{"__typename":"SocialMediaPost","id":"HnPost-25458230","excerpt":"","slug":"/hn/25458230","title":"Commits are shapshots, not diffs","date":"December 18, 2020","dateISO":"2020-12-18T02:00:40.826Z","datetime":"2020-12-18 02:00","tags":["story","Hacker News"],"image":null,"imageAlt":null,"provider":"Hacker News","thirdPartyId":"25458230","url":"https://news.ycombinator.com/item?id=25458230","originalUrl":"https://github.blog/2020-12-17-commits-are-shapshots-not-diffs/","imageRemote":"https://github.blog/wp-content/uploads/2020/12/commits-are-snapshots-not-diffs.png?fit=1200%2C630","video":null,"channel":null,"channelUrl":null,"author":"todsacerdoti","authorUrl":"https://news.ycombinator.com/user?id=todsacerdoti","authorImage":null,"authorSlug":null,"score":136,"views":null,"sharedCount":null,"likeCount":null,"sharedContent":null,"parent":{"__typename":"HnJson","localize":[{"title":"提交是Shapshot，而不是不同","locale":"zh"},{"title":"提交是Shapshot，而不是不同","locale":"zh-Hant"}]}},{"__typename":"SocialMediaPost","id":"HnPost-25460544","excerpt":"","slug":"/hn/25460544","title":"FreeBSD src repository is transitioning from Subversion to Git this weekend","date":"December 18, 2020","dateISO":"2020-12-18T02:00:40.826Z","datetime":"2020-12-18 02:00","tags":["story","Hacker News"],"image":null,"imageAlt":null,"provider":"Hacker News","thirdPartyId":"25460544","url":"https://news.ycombinator.com/item?id=25460544","originalUrl":"https://lists.freebsd.org/pipermail/freebsd-current/2020-December/077858.html","imageRemote":null,"video":null,"channel":null,"channelUrl":null,"author":"cnst","authorUrl":"https://news.ycombinator.com/user?id=cnst","authorImage":null,"authorSlug":null,"score":212,"views":null,"sharedCount":null,"likeCount":null,"sharedContent":null,"parent":{"__typename":"HnJson","localize":[{"title":"FreeBSD src存储库本周末将从Subversion过渡到Git","locale":"zh"},{"title":"FreeBSD src存儲庫本週末將從Subversion過渡到Git","locale":"zh-Hant"}]}}]}},"pageContext":{"basePath":"/","pageType":"tag","tag":"story","tagsFilter":{"id":{"glob":"!*Post-1"}},"filter":{"id":{"glob":"!*Post-1"},"tags":{"eq":"story"}},"limit":25,"skip":3000,"total":3104,"totalPages":125,"currentPage":121,"maxWidth":1024,"maxHeight":512,"locale":"zh","hrefLang":"zh-Hans","originalPath":"/tags/story/page/121","dateFormat":"YYYY-MM-DD"}},"staticQueryHashes":["1239077767","2506312863","2744905544","3025052997","3493603132","3493603132","3513215887","386998304"]}