{"componentChunkName":"component---gatsby-theme-buzzing-src-gatsby-theme-timeline-templates-posts-query-js","path":"/page/120","result":{"data":{"site":{"siteMetadata":{"title":"Reddit 热门","description":"用中文浏览Reddit热门内容","social":[{"name":"Twitter","url":"https://twitter.com/gatsbyjs","external":null,"prefetch":null},{"name":"GitHub","url":"https://github.com/gatsbyjs","external":null,"prefetch":null}],"menuLinks":[],"localize":[{"locale":"en","title":"Buzzing on Reddit","description":"See what's buzzing on Reddit in your native language","social":[{"name":"Reddit","url":"https://www.reddit.com/","external":true,"prefetch":null}],"menuLinks":[{"name":"Weekly Selection","url":"/issues","external":null,"prefetch":null},{"name":"RSS","url":"/rss.xml","external":null,"prefetch":false}]},{"locale":"zh-Hant","title":"Reddit 熱門","description":"用中文瀏覽Reddit熱門內容","social":null,"menuLinks":null}]}},"tagsGroup":{"group":[{"fieldValue":"ASK HN","totalCount":54},{"fieldValue":"Hacker News","totalCount":3107},{"fieldValue":"Poll","totalCount":1},{"fieldValue":"Show HN","totalCount":100},{"fieldValue":"poll","totalCount":1},{"fieldValue":"story","totalCount":3106}]},"allBlogPost":{"nodes":[{"__typename":"SocialMediaPost","id":"HnPost-25473302","excerpt":"","slug":"/hn/25473302","title":"AWS Joins the Blender Development Fund","date":"December 19, 2020","dateISO":"2020-12-19T07:34:05.686Z","datetime":"2020-12-19 07:34","tags":["story","Hacker News"],"image":null,"imageAlt":null,"provider":"Hacker News","thirdPartyId":"25473302","url":"https://news.ycombinator.com/item?id=25473302","originalUrl":"https://www.blender.org/press/aws-joins-the-blender-development-fund/","imageRemote":"https://www.blender.org/wp-content/uploads/2020/12/aws_dev_fund_blender_16x9-480x270.png","video":null,"channel":null,"channelUrl":null,"author":"EMIRELADERO","authorUrl":"https://news.ycombinator.com/user?id=EMIRELADERO","authorImage":null,"authorSlug":null,"score":137,"views":null,"sharedCount":null,"likeCount":null,"sharedContent":null,"parent":{"__typename":"HnJson","localize":[{"title":"AWS加入搅拌机发展基金","locale":"zh"},{"title":"AWS加入攪拌機發展基金","locale":"zh-Hant"}]}},{"__typename":"SocialMediaPost","id":"HnPost-25474066","excerpt":"","slug":"/hn/25474066","title":"FDA grants authorization to Moderna's Covid-19 vaccine","date":"December 19, 2020","dateISO":"2020-12-19T05:45:56.512Z","datetime":"2020-12-19 05:45","tags":["story","Hacker News"],"image":null,"imageAlt":null,"provider":"Hacker News","thirdPartyId":"25474066","url":"https://news.ycombinator.com/item?id=25474066","originalUrl":"https://www.statnews.com/2020/12/18/fda-eua-moderna-vaccine-covid19/","imageRemote":"https://www.statnews.com/wp-content/uploads/2020/12/GettyImages-1228042510-1024x576.jpg","video":null,"channel":null,"channelUrl":null,"author":"wh-uws","authorUrl":"https://news.ycombinator.com/user?id=wh-uws","authorImage":null,"authorSlug":null,"score":176,"views":null,"sharedCount":null,"likeCount":null,"sharedContent":null,"parent":{"__typename":"HnJson","localize":[{"title":"FDA批准现代冠状病毒疫苗","locale":"zh"},{"title":"FDA批准現代冠狀病毒疫苗","locale":"zh-Hant"}]}},{"__typename":"SocialMediaPost","id":"HnPost-25470678","excerpt":"","slug":"/hn/25470678","title":"The CPUs of Spacecraft Computers in Space","date":"December 19, 2020","dateISO":"2020-12-19T04:34:02.011Z","datetime":"2020-12-19 04:34","tags":["story","Hacker News"],"image":null,"imageAlt":null,"provider":"Hacker News","thirdPartyId":"25470678","url":"https://news.ycombinator.com/item?id=25470678","originalUrl":"http://www.cpushack.com/space-craft-cpu.html","imageRemote":"http://www.cpushack.com/images/piece_01.gif","video":null,"channel":null,"channelUrl":null,"author":"muunbo","authorUrl":"https://news.ycombinator.com/user?id=muunbo","authorImage":null,"authorSlug":null,"score":179,"views":null,"sharedCount":null,"likeCount":null,"sharedContent":null,"parent":{"__typename":"HnJson","localize":[{"title":"空间航天器计算机的CPU","locale":"zh"},{"title":"空間航天器計算機的CPU","locale":"zh-Hant"}]}},{"__typename":"SocialMediaPost","id":"HnPost-25473964","excerpt":"","slug":"/hn/25473964","title":"Show HN: I have found the world's greatest landing page","date":"December 19, 2020","dateISO":"2020-12-19T04:34:02.011Z","datetime":"2020-12-19 04:34","tags":["story","Show HN","Hacker News"],"image":null,"imageAlt":null,"provider":"Hacker News","thirdPartyId":"25473964","url":"https://news.ycombinator.com/item?id=25473964","originalUrl":"https://muzzleapp.com","imageRemote":"https://muzzleapp.com/muzzle_image.jpg","video":null,"channel":"Show HN","channelUrl":"https://news.ycombinator.com/show","author":"CPLX","authorUrl":"https://news.ycombinator.com/user?id=CPLX","authorImage":null,"authorSlug":null,"score":119,"views":null,"sharedCount":null,"likeCount":null,"sharedContent":null,"parent":{"__typename":"HnJson","localize":[{"title":"HN新产品：我找到了世界上最棒的登录页","locale":"zh"},{"title":"SHOW HN：我找到了世界上最棒的登錄頁","locale":"zh-Hant"}]}},{"__typename":"SocialMediaPost","id":"HnPost-25474668","excerpt":"","slug":"/hn/25474668","title":"Boeing 'inappropriately coached' pilots in 737 Max testing -U.S. Senate report","date":"December 19, 2020","dateISO":"2020-12-19T04:34:02.011Z","datetime":"2020-12-19 04:34","tags":["story","Hacker News"],"image":null,"imageAlt":null,"provider":"Hacker News","thirdPartyId":"25474668","url":"https://news.ycombinator.com/item?id=25474668","originalUrl":"https://www.reuters.com/article/us-boeing-737-max/boeing-inappropriately-coached-pilots-in-737-max-testing-u-s-senate-report-idUSKBN28S314","imageRemote":"https://static.reuters.com/resources/r/?m=02&d=20201219&t=2&i=1545115470&r=LYNXMPEGBH1O3&w=800","video":null,"channel":null,"channelUrl":null,"author":"nabla9","authorUrl":"https://news.ycombinator.com/user?id=nabla9","authorImage":null,"authorSlug":null,"score":168,"views":null,"sharedCount":null,"likeCount":null,"sharedContent":null,"parent":{"__typename":"HnJson","localize":[{"title":"波音公司在波音737 MAX测试中“不适当地指导”飞行员-美国参议院报告","locale":"zh"},{"title":"波音公司在波音737 MAX測試中“不適當地指導”飛行員-美國參議院報告","locale":"zh-Hant"}]}},{"__typename":"SocialMediaPost","id":"HnPost-25472322","excerpt":"","slug":"/hn/25472322","title":"Microsoft Designing Its Own Chips for Servers, Surface PCs","date":"December 19, 2020","dateISO":"2020-12-19T03:29:51.088Z","datetime":"2020-12-19 03:29","tags":["story","Hacker News"],"image":null,"imageAlt":null,"provider":"Hacker News","thirdPartyId":"25472322","url":"https://news.ycombinator.com/item?id=25472322","originalUrl":"https://www.bloomberg.com/news/articles/2020-12-18/microsoft-is-designing-its-own-chips-for-servers-surface-pcs","imageRemote":null,"video":null,"channel":null,"channelUrl":null,"author":"slyall","authorUrl":"https://news.ycombinator.com/user?id=slyall","authorImage":null,"authorSlug":null,"score":133,"views":null,"sharedCount":null,"likeCount":null,"sharedContent":null,"parent":{"__typename":"HnJson","localize":[{"title":"微软为服务器、Surface PC设计自己的芯片","locale":"zh"},{"title":"微軟爲服務器、Surface PC設計自己的芯片","locale":"zh-Hant"}]}},{"__typename":"SocialMediaPost","id":"HnPost-25474372","excerpt":"","slug":"/hn/25474372","title":"Zoom executive charged with disrupting meetings commemorating Tiananmen Square","date":"December 19, 2020","dateISO":"2020-12-19T03:29:51.088Z","datetime":"2020-12-19 03:29","tags":["story","Hacker News"],"image":null,"imageAlt":null,"provider":"Hacker News","thirdPartyId":"25474372","url":"https://news.ycombinator.com/item?id=25474372","originalUrl":"https://www.justice.gov/opa/pr/china-based-executive-us-telecommunications-company-charged-disrupting-video-meetings","imageRemote":"https://www.justice.gov/sites/all/modules/features/doj_sharing/images/doj-seal-fb.jpg","video":null,"channel":null,"channelUrl":null,"author":"imraj96","authorUrl":"https://news.ycombinator.com/user?id=imraj96","authorImage":null,"authorSlug":null,"score":685,"views":null,"sharedCount":null,"likeCount":null,"sharedContent":null,"parent":{"__typename":"HnJson","localize":[{"title":"Zoom一名高管被控扰乱天安门广场纪念会议","locale":"zh"},{"title":"Zoom一名高管被控擾亂天安門廣場紀念會議","locale":"zh-Hant"}]}},{"__typename":"SocialMediaPost","id":"HnPost-25470094","excerpt":"","slug":"/hn/25470094","title":"Brian Chesky on Ron Conway","date":"December 19, 2020","dateISO":"2020-12-19T02:12:56.467Z","datetime":"2020-12-19 02:12","tags":["story","Hacker News"],"image":null,"imageAlt":null,"provider":"Hacker News","thirdPartyId":"25470094","url":"https://news.ycombinator.com/item?id=25470094","originalUrl":"https://news.airbnb.com/ron-conway-and-the-economic-empowerment-award/","imageRemote":"https://news.airbnb.com/wp-content/uploads/sites/4/2020/04/BeloRauschDarkNewsroomFeatured_200316.png?resize=1024,683","video":null,"channel":null,"channelUrl":null,"author":"simonebrunozzi","authorUrl":"https://news.ycombinator.com/user?id=simonebrunozzi","authorImage":null,"authorSlug":null,"score":117,"views":null,"sharedCount":null,"likeCount":null,"sharedContent":null,"parent":{"__typename":"HnJson","localize":[{"title":"布莱恩·切斯基谈罗恩·康威","locale":"zh"},{"title":"布萊恩·切斯基談羅恩·康威","locale":"zh-Hant"}]}},{"__typename":"SocialMediaPost","id":"HnPost-25471046","excerpt":"","slug":"/hn/25471046","title":"Ganja.js: Geometric Algebra Generator for JavaScript, C++, C#, Rust, Python","date":"December 19, 2020","dateISO":"2020-12-19T02:12:56.467Z","datetime":"2020-12-19 02:12","tags":["story","Hacker News"],"image":null,"imageAlt":null,"provider":"Hacker News","thirdPartyId":"25471046","url":"https://news.ycombinator.com/item?id=25471046","originalUrl":"https://github.com/enkimute/ganja.js","imageRemote":"https://avatars2.githubusercontent.com/u/5666339?s=400&v=4","video":null,"channel":null,"channelUrl":null,"author":"pizza","authorUrl":"https://news.ycombinator.com/user?id=pizza","authorImage":null,"authorSlug":null,"score":212,"views":null,"sharedCount":null,"likeCount":null,"sharedContent":null,"parent":{"__typename":"HnJson","localize":[{"title":"js：JavaScript、C++、C#、Rust、Python几何代数生成器","locale":"zh"},{"title":"js：JavaScript、C++、C#、Rust、Python幾何代數生成器","locale":"zh-Hant"}]}},{"__typename":"SocialMediaPost","id":"HnPost-25459506","excerpt":"","slug":"/hn/25459506","title":"DRY Is a Trade-Off","date":"December 19, 2020","dateISO":"2020-12-19T01:41:48.070Z","datetime":"2020-12-19 01:41","tags":["story","Hacker News"],"image":null,"imageAlt":null,"provider":"Hacker News","thirdPartyId":"25459506","url":"https://news.ycombinator.com/item?id=25459506","originalUrl":"https://orbifold.xyz/dry-trade-off.html","imageRemote":null,"video":null,"channel":null,"channelUrl":null,"author":"soopurman","authorUrl":"https://news.ycombinator.com/user?id=soopurman","authorImage":null,"authorSlug":null,"score":216,"views":null,"sharedCount":null,"likeCount":null,"sharedContent":null,"parent":{"__typename":"HnJson","localize":[{"title":"干燥是一种权衡","locale":"zh"},{"title":"乾燥是一種權衡","locale":"zh-Hant"}]}},{"__typename":"SocialMediaPost","id":"HnPost-25470672","excerpt":"","slug":"/hn/25470672","title":"Show HN: Sqwok – A low-cruft, minimalist alternative to Reddit and Twitter","date":"December 19, 2020","dateISO":"2020-12-19T01:41:48.070Z","datetime":"2020-12-19 01:41","tags":["story","Show HN","Hacker News"],"image":null,"imageAlt":null,"provider":"Hacker News","thirdPartyId":"25470672","url":"https://news.ycombinator.com/item?id=25470672","originalUrl":"https://sqwok.im/","imageRemote":null,"video":null,"channel":"Show HN","channelUrl":"https://news.ycombinator.com/show","author":"holler","authorUrl":"https://news.ycombinator.com/user?id=holler","authorImage":null,"authorSlug":null,"score":185,"views":null,"sharedCount":null,"likeCount":null,"sharedContent":null,"parent":{"__typename":"HnJson","localize":[{"title":"HN新产品：Sqwok-Reddit和Twitter的低调、简约的替代品","locale":"zh"},{"title":"show HN：Sqwok-Reddit和Twitter的低調、簡約的替代品","locale":"zh-Hant"}]}},{"__typename":"SocialMediaPost","id":"HnPost-25472370","excerpt":"","slug":"/hn/25472370","title":"I Bought Apple Silicon","date":"December 19, 2020","dateISO":"2020-12-19T01:41:48.070Z","datetime":"2020-12-19 01:41","tags":["story","Hacker News"],"image":null,"imageAlt":null,"provider":"Hacker News","thirdPartyId":"25472370","url":"https://news.ycombinator.com/item?id=25472370","originalUrl":"https://honzajavorek.cz/blog/i-bought-apple-silicon/","imageRemote":"https://honzajavorek.cz/images/apple-silicon.jpg","video":null,"channel":null,"channelUrl":null,"author":"honzajavorek","authorUrl":"https://news.ycombinator.com/user?id=honzajavorek","authorImage":null,"authorSlug":null,"score":196,"views":null,"sharedCount":null,"likeCount":null,"sharedContent":null,"parent":{"__typename":"HnJson","localize":[{"title":"我买了苹果硅","locale":"zh"},{"title":"我買了蘋果硅","locale":"zh-Hant"}]}},{"__typename":"SocialMediaPost","id":"HnPost-25472970","excerpt":"","slug":"/hn/25472970","title":"Surgery, the Ultimate Placebo","date":"December 19, 2020","dateISO":"2020-12-19T01:41:48.070Z","datetime":"2020-12-19 01:41","tags":["story","Hacker News"],"image":null,"imageAlt":null,"provider":"Hacker News","thirdPartyId":"25472970","url":"https://news.ycombinator.com/item?id=25472970","originalUrl":"https://www.skepdoc.info/ian-harris-on-surgery-the-ultimate-placebo/","imageRemote":"https://sciencebasedmedicine.org/wp-content/uploads/2020/10/surgery-surgeon-ongoing-operate.jpg","video":null,"channel":null,"channelUrl":null,"author":"cpncrunch","authorUrl":"https://news.ycombinator.com/user?id=cpncrunch","authorImage":null,"authorSlug":null,"score":261,"views":null,"sharedCount":null,"likeCount":null,"sharedContent":null,"parent":{"__typename":"HnJson","localize":[{"title":"外科手术，终极安慰剂","locale":"zh"},{"title":"外科手術，終極安慰劑","locale":"zh-Hant"}]}},{"__typename":"SocialMediaPost","id":"HnPost-25466385","excerpt":"","slug":"/hn/25466385","title":"A swarm of drones flying through heavy forest–while staying in formation","date":"December 18, 2020","dateISO":"2020-12-18T23:56:50.860Z","datetime":"2020-12-18 23:56","tags":["story","Hacker News"],"image":null,"imageAlt":null,"provider":"Hacker News","thirdPartyId":"25466385","url":"https://news.ycombinator.com/item?id=25466385","originalUrl":"https://www.sciencemag.org/news/2020/12/watch-swarm-drones-fly-through-heavy-forest-while-staying-formation","imageRemote":"https://www.sciencemag.org/sites/default/files/swarm-thumb.png","video":null,"channel":null,"channelUrl":null,"author":"giuliomagnifico","authorUrl":"https://news.ycombinator.com/user?id=giuliomagnifico","authorImage":null,"authorSlug":null,"score":139,"views":null,"sharedCount":null,"likeCount":null,"sharedContent":null,"parent":{"__typename":"HnJson","localize":[{"title":"一群无人机在茂密的森林中飞行-同时保持队形","locale":"zh"},{"title":"一羣無人機在茂密的森林中飛行-同時保持隊形","locale":"zh-Hant"}]}},{"__typename":"SocialMediaPost","id":"HnPost-25472455","excerpt":"","slug":"/hn/25472455","title":"Post Mortem of Google Outage on 14 December 2020","date":"December 18, 2020","dateISO":"2020-12-18T22:45:20.867Z","datetime":"2020-12-18 22:45","tags":["story","Hacker News"],"image":null,"imageAlt":null,"provider":"Hacker News","thirdPartyId":"25472455","url":"https://news.ycombinator.com/item?id=25472455","originalUrl":"http://status.cloud.google.com/incident/zall/20013#20013004","imageRemote":null,"video":null,"channel":null,"channelUrl":null,"author":"saifulwebid","authorUrl":"https://news.ycombinator.com/user?id=saifulwebid","authorImage":null,"authorSlug":null,"score":729,"views":null,"sharedCount":null,"likeCount":null,"sharedContent":null,"parent":{"__typename":"HnJson","localize":[{"title":"2020年12月14日谷歌停机尸检","locale":"zh"},{"title":"2020年12月14日谷歌停機屍檢","locale":"zh-Hant"}]}},{"__typename":"SocialMediaPost","id":"HnPost-25471404","excerpt":"","slug":"/hn/25471404","title":"Microsoft says it found malicious software in its systems","date":"December 18, 2020","dateISO":"2020-12-18T21:31:57.520Z","datetime":"2020-12-18 21:31","tags":["story","Hacker News"],"image":null,"imageAlt":null,"provider":"Hacker News","thirdPartyId":"25471404","url":"https://news.ycombinator.com/item?id=25471404","originalUrl":"https://www.reuters.com/article/us-usa-cyber-breach-idUSKBN28R2ZJ","imageRemote":"https://static.reuters.com/resources/r/?m=02&d=20201217&t=2&i=1544963772&r=LYNXMPEGBG1XP&w=800","video":null,"channel":null,"channelUrl":null,"author":"alacombe","authorUrl":"https://news.ycombinator.com/user?id=alacombe","authorImage":null,"authorSlug":null,"score":194,"views":null,"sharedCount":null,"likeCount":null,"sharedContent":null,"parent":{"__typename":"HnJson","localize":[{"title":"微软称在其系统中发现恶意软件","locale":"zh"},{"title":"微軟稱在其系統中發現惡意軟件","locale":"zh-Hant"}]}},{"__typename":"SocialMediaPost","id":"HnPost-25469997","excerpt":"","slug":"/hn/25469997","title":"mRNA's next challenge: Will it work as a drug?","date":"December 18, 2020","dateISO":"2020-12-18T21:14:09.386Z","datetime":"2020-12-18 21:14","tags":["story","Hacker News"],"image":null,"imageAlt":null,"provider":"Hacker News","thirdPartyId":"25469997","url":"https://news.ycombinator.com/item?id=25469997","originalUrl":"https://science.sciencemag.org/content/370/6523/1388.full","imageRemote":"https://science.sciencemag.org/content/370/6523/1388/F1.large.jpg","video":null,"channel":null,"channelUrl":null,"author":"mudil","authorUrl":"https://news.ycombinator.com/user?id=mudil","authorImage":null,"authorSlug":null,"score":201,"views":null,"sharedCount":null,"likeCount":null,"sharedContent":null,"parent":{"__typename":"HnJson","localize":[{"title":"mRNA的下一个挑战：它会作为一种药物发挥作用吗？","locale":"zh"},{"title":"mRNA的下一個挑戰：它會作爲一種藥物發揮作用嗎？","locale":"zh-Hant"}]}},{"__typename":"SocialMediaPost","id":"HnPost-25468199","excerpt":"","slug":"/hn/25468199","title":"California nurses union plans holiday strike over PPE","date":"December 18, 2020","dateISO":"2020-12-18T20:40:08.860Z","datetime":"2020-12-18 20:40","tags":["story","Hacker News"],"image":null,"imageAlt":null,"provider":"Hacker News","thirdPartyId":"25468199","url":"https://news.ycombinator.com/item?id=25468199","originalUrl":"https://californiaglobe.com/section-2/california-nurses-union-plans-holiday-strike-over-ppe-shortage/","imageRemote":"https://californiaglobe.com/wp-content/uploads/2019/09/Image-39.jpg","video":null,"channel":null,"channelUrl":null,"author":"nimbius","authorUrl":"https://news.ycombinator.com/user?id=nimbius","authorImage":null,"authorSlug":null,"score":109,"views":null,"sharedCount":null,"likeCount":null,"sharedContent":null,"parent":{"__typename":"HnJson","localize":[{"title":"加州护士工会计划因个人防护用品问题举行假日罢工","locale":"zh"},{"title":"加州護士工會計劃因個人防護用品問題舉行假日罷工","locale":"zh-Hant"}]}},{"__typename":"SocialMediaPost","id":"HnPost-25469535","excerpt":"","slug":"/hn/25469535","title":"Rust 2021 Roadmap","date":"December 18, 2020","dateISO":"2020-12-18T20:25:54.763Z","datetime":"2020-12-18 20:25","tags":["story","Hacker News"],"image":null,"imageAlt":null,"provider":"Hacker News","thirdPartyId":"25469535","url":"https://news.ycombinator.com/item?id=25469535","originalUrl":"https://github.com/rust-lang/rfcs/pull/3037","imageRemote":"https://avatars1.githubusercontent.com/u/5430905?s=400&v=4","video":null,"channel":null,"channelUrl":null,"author":"praveenperera","authorUrl":"https://news.ycombinator.com/user?id=praveenperera","authorImage":null,"authorSlug":null,"score":178,"views":null,"sharedCount":null,"likeCount":null,"sharedContent":null,"parent":{"__typename":"HnJson","localize":[{"title":"Rust 2021路线图","locale":"zh"},{"title":"Rust 2021路線圖","locale":"zh-Hant"}]}},{"__typename":"SocialMediaPost","id":"HnPost-25466561","excerpt":"","slug":"/hn/25466561","title":"When important components become scarce: CPUs, GPUs","date":"December 18, 2020","dateISO":"2020-12-18T19:51:15.167Z","datetime":"2020-12-18 19:51","tags":["story","Hacker News"],"image":null,"imageAlt":null,"provider":"Hacker News","thirdPartyId":"25466561","url":"https://news.ycombinator.com/item?id=25466561","originalUrl":"https://www.igorslab.de/en/if-important-components-will-become-shortage-cpus-gpus-console-chips-and-other-components-as-complex-handle-object/","imageRemote":"https://www.igorslab.de/wp-content/uploads/2020/12/CPU.jpg","video":null,"channel":null,"channelUrl":null,"author":"monkeydust","authorUrl":"https://news.ycombinator.com/user?id=monkeydust","authorImage":null,"authorSlug":null,"score":123,"views":null,"sharedCount":null,"likeCount":null,"sharedContent":null,"parent":{"__typename":"HnJson","localize":[{"title":"当重要组件变得稀缺时：CPU、GPU","locale":"zh"},{"title":"當重要組件變得稀缺時：CPU、GPU","locale":"zh-Hant"}]}},{"__typename":"SocialMediaPost","id":"HnPost-25465010","excerpt":"","slug":"/hn/25465010","title":"Tech giants will block Kazakhstan’s web surveillance efforts again","date":"December 18, 2020","dateISO":"2020-12-18T19:00:20.456Z","datetime":"2020-12-18 19:00","tags":["story","Hacker News"],"image":null,"imageAlt":null,"provider":"Hacker News","thirdPartyId":"25465010","url":"https://news.ycombinator.com/item?id=25465010","originalUrl":"https://www.engadget.com/tech-giants-browsers-block-kazakhstan-web-surveillance-080031499.html","imageRemote":"https://o.aolcdn.com/images/dims?resize=1200%2C630&crop=1200%2C630%2C0%2C0&quality=95&image_uri=https%3A%2F%2Fs.yimg.com%2Fos%2Fcreatr-uploaded-images%2F2020-12%2F1733c1a0-4102-11eb-bbfc-df8a3eea970f&client=amp-blogside-v2&signature=17ea157c12eaf4f41f3895c4842988387e8077ef","video":null,"channel":null,"channelUrl":null,"author":"alexrustic","authorUrl":"https://news.ycombinator.com/user?id=alexrustic","authorImage":null,"authorSlug":null,"score":134,"views":null,"sharedCount":null,"likeCount":null,"sharedContent":null,"parent":{"__typename":"HnJson","localize":[{"title":"科技巨头将再次挡路哈萨克斯坦的网络监控努力","locale":"zh"},{"title":"科技巨頭將再次擋路哈薩克斯坦的網絡監控努力","locale":"zh-Hant"}]}},{"__typename":"SocialMediaPost","id":"HnPost-25467545","excerpt":"","slug":"/hn/25467545","title":"Cerulean: Experimental micro-blogging app for Matrix","date":"December 18, 2020","dateISO":"2020-12-18T19:00:20.456Z","datetime":"2020-12-18 19:00","tags":["story","Hacker News"],"image":null,"imageAlt":null,"provider":"Hacker News","thirdPartyId":"25467545","url":"https://news.ycombinator.com/item?id=25467545","originalUrl":"https://matrix.org/blog/2020/12/18/introducing-cerulean","imageRemote":"https://matrix.org/blog/img/2020-12-18-cerulean.png","video":null,"channel":null,"channelUrl":null,"author":"ignoramous","authorUrl":"https://news.ycombinator.com/user?id=ignoramous","authorImage":null,"authorSlug":null,"score":206,"views":null,"sharedCount":null,"likeCount":null,"sharedContent":null,"parent":{"__typename":"HnJson","localize":[{"title":"Cerulean：Matrix的实验性微博应用","locale":"zh"},{"title":"Cerulean：Matrix的實驗性微博應用","locale":"zh-Hant"}]}},{"__typename":"SocialMediaPost","id":"HnPost-25466836","excerpt":"","slug":"/hn/25466836","title":"Fermilab and partners achieve sustained, high-fidelity quantum teleportation","date":"December 18, 2020","dateISO":"2020-12-18T18:40:29.575Z","datetime":"2020-12-18 18:40","tags":["story","Hacker News"],"image":null,"imageAlt":null,"provider":"Hacker News","thirdPartyId":"25466836","url":"https://news.ycombinator.com/item?id=25466836","originalUrl":"https://news.fnal.gov/2020/12/fermilab-and-partners-achieve-sustained-high-fidelity-quantum-teleportation/","imageRemote":"https://news.fnal.gov/wp-content/uploads/2020/12/inqnet-quantum-teleportation.jpg","video":null,"channel":null,"channelUrl":null,"author":"spurgu","authorUrl":"https://news.ycombinator.com/user?id=spurgu","authorImage":null,"authorSlug":null,"score":198,"views":null,"sharedCount":null,"likeCount":null,"sharedContent":null,"parent":{"__typename":"HnJson","localize":[{"title":"费米实验室及其合作伙伴实现持续、高保真的量子隐形传态","locale":"zh"},{"title":"費米實驗室及其合作伙伴實現持續、高保真的量子隱形傳態","locale":"zh-Hant"}]}},{"__typename":"SocialMediaPost","id":"HnPost-25466764","excerpt":"","slug":"/hn/25466764","title":"How to Find Focus","date":"December 18, 2020","dateISO":"2020-12-18T18:11:42.911Z","datetime":"2020-12-18 18:11","tags":["story","Hacker News"],"image":null,"imageAlt":null,"provider":"Hacker News","thirdPartyId":"25466764","url":"https://news.ycombinator.com/item?id=25466764","originalUrl":"https://thesephist.com/posts/focus/","imageRemote":null,"video":null,"channel":null,"channelUrl":null,"author":"mdeira","authorUrl":"https://news.ycombinator.com/user?id=mdeira","authorImage":null,"authorSlug":null,"score":212,"views":null,"sharedCount":null,"likeCount":null,"sharedContent":null,"parent":{"__typename":"HnJson","localize":[{"title":"如何找到焦点","locale":"zh"},{"title":"如何找到焦點","locale":"zh-Hant"}]}},{"__typename":"SocialMediaPost","id":"HnPost-25467721","excerpt":"","slug":"/hn/25467721","title":"It Took Two Days to Develop Moderna’s Vaccine","date":"December 18, 2020","dateISO":"2020-12-18T17:52:46.723Z","datetime":"2020-12-18 17:52","tags":["story","Hacker News"],"image":null,"imageAlt":null,"provider":"Hacker News","thirdPartyId":"25467721","url":"https://news.ycombinator.com/item?id=25467721","originalUrl":"https://theness.com/neurologicablog/index.php/it-took-two-days-to-develop-modernas-vaccine/","imageRemote":"https://theness.com/neurologicablog/wp-content/uploads/sites/3/2020/12/moderna-vaccine-1024x577.jpg","video":null,"channel":null,"channelUrl":null,"author":"CapitalistCartr","authorUrl":"https://news.ycombinator.com/user?id=CapitalistCartr","authorImage":null,"authorSlug":null,"score":360,"views":null,"sharedCount":null,"likeCount":null,"sharedContent":null,"parent":{"__typename":"HnJson","localize":[{"title":"研制现代纳疫苗花了两天时间","locale":"zh"},{"title":"研製現代納疫苗花了兩天時間","locale":"zh-Hant"}]}}]}},"pageContext":{"basePath":"/","pageType":"home","tagsFilter":{"id":{"glob":"!*Post-1"}},"filter":{"id":{"glob":"!*Post-1"}},"limit":25,"skip":2975,"totalPages":125,"total":3107,"currentPage":120,"maxWidth":1024,"maxHeight":512,"locale":"zh","hrefLang":"zh-Hans","originalPath":"/page/120","dateFormat":"YYYY-MM-DD"}},"staticQueryHashes":["1239077767","2506312863","2744905544","3025052997","3493603132","3493603132","3513215887","386998304"]}