{"componentChunkName":"component---gatsby-theme-buzzing-src-gatsby-theme-timeline-templates-posts-query-js","path":"/en/tags/show-hn/page/4","result":{"data":{"site":{"siteMetadata":{"title":"Reddit 热门","description":"用中文浏览Reddit热门内容","social":[{"name":"Twitter","url":"https://twitter.com/gatsbyjs","external":null,"prefetch":null},{"name":"GitHub","url":"https://github.com/gatsbyjs","external":null,"prefetch":null}],"menuLinks":[],"localize":[{"locale":"en","title":"Buzzing on Reddit","description":"See what's buzzing on Reddit in your native language","social":[{"name":"Reddit","url":"https://www.reddit.com/","external":true,"prefetch":null}],"menuLinks":[{"name":"Weekly Selection","url":"/issues","external":null,"prefetch":null},{"name":"RSS","url":"/rss.xml","external":null,"prefetch":false}]},{"locale":"zh-Hant","title":"Reddit 熱門","description":"用中文瀏覽Reddit熱門內容","social":null,"menuLinks":null}]}},"tagsGroup":{"group":[{"fieldValue":"ASK HN","totalCount":42},{"fieldValue":"Bitcoin","totalCount":4},{"fieldValue":"Hacker News","totalCount":2407},{"fieldValue":"Poll","totalCount":1},{"fieldValue":"SaveAMC","totalCount":1},{"fieldValue":"Show HN","totalCount":81},{"fieldValue":"bitcoin","totalCount":3},{"fieldValue":"investing","totalCount":753},{"fieldValue":"poll","totalCount":1},{"fieldValue":"reddit","totalCount":4523},{"fieldValue":"science","totalCount":1},{"fieldValue":"stocks","totalCount":1482},{"fieldValue":"story","totalCount":2406},{"fieldValue":"tweet","totalCount":767},{"fieldValue":"wallstreetbets","totalCount":2288}]},"allBlogPost":{"nodes":[{"__typename":"SocialMediaPost","id":"HnPost-25481772","excerpt":"","slug":"/hn/25481772","title":"Show HN: Create a QR code with text in the code pattern","date":"December 20, 2020","dateISO":"2020-12-20T14:34:06.027Z","datetime":"2020-12-20 14:34","tags":["story","Show HN","Hacker News"],"image":null,"imageAlt":null,"provider":"Hacker News","thirdPartyId":"25481772","url":"https://news.ycombinator.com/item?id=25481772","originalUrl":"http://qr.new","imageRemote":null,"video":null,"channel":"Show HN","channelUrl":"https://news.ycombinator.com/show","author":"koch","authorUrl":"https://news.ycombinator.com/user?id=koch","authorImage":null,"authorSlug":null,"score":126,"views":null,"sharedCount":null,"likeCount":null,"sharedContent":null,"parent":{"__typename":"HnJson","localize":[{"title":"HN新产品：使用代码模式中的文本创建二维码","locale":"zh"},{"title":"show HN：使用代碼模式中的文本創建二維碼","locale":"zh-Hant"}]}},{"__typename":"SocialMediaPost","id":"HnPost-25481837","excerpt":"","slug":"/hn/25481837","title":"Show HN: I wrote a book on implementing DDD, CQRS and Event Sourcing","date":"December 20, 2020","dateISO":"2020-12-20T14:34:06.027Z","datetime":"2020-12-20 14:34","tags":["story","Show HN","Hacker News"],"image":null,"imageAlt":null,"provider":"Hacker News","thirdPartyId":"25481837","url":"https://news.ycombinator.com/item?id=25481837","originalUrl":"https://leanpub.com/implementing-ddd-cqrs-and-event-sourcing","imageRemote":"https://d2sofvawe08yqg.cloudfront.net/implementing-ddd-cqrs-and-event-sourcing/medium?1607341766","video":null,"channel":"Show HN","channelUrl":"https://news.ycombinator.com/show","author":"alex-lawrence","authorUrl":"https://news.ycombinator.com/user?id=alex-lawrence","authorImage":null,"authorSlug":null,"score":168,"views":null,"sharedCount":null,"likeCount":null,"sharedContent":null,"parent":{"__typename":"HnJson","localize":[{"title":"HN新产品：我写了一本关于实现DDD、CQRS和事件源的书","locale":"zh"},{"title":"show HN：我寫了一本關於實現DDD、CQRS和事件源的書","locale":"zh-Hant"}]}},{"__typename":"SocialMediaPost","id":"HnPost-25473964","excerpt":"","slug":"/hn/25473964","title":"Show HN: I have found the world's greatest landing page","date":"December 19, 2020","dateISO":"2020-12-19T04:34:02.011Z","datetime":"2020-12-19 04:34","tags":["story","Show HN","Hacker News"],"image":null,"imageAlt":null,"provider":"Hacker News","thirdPartyId":"25473964","url":"https://news.ycombinator.com/item?id=25473964","originalUrl":"https://muzzleapp.com","imageRemote":"https://muzzleapp.com/muzzle_image.jpg","video":null,"channel":"Show HN","channelUrl":"https://news.ycombinator.com/show","author":"CPLX","authorUrl":"https://news.ycombinator.com/user?id=CPLX","authorImage":null,"authorSlug":null,"score":119,"views":null,"sharedCount":null,"likeCount":null,"sharedContent":null,"parent":{"__typename":"HnJson","localize":[{"title":"HN新产品：我找到了世界上最棒的登录页","locale":"zh"},{"title":"SHOW HN：我找到了世界上最棒的登錄頁","locale":"zh-Hant"}]}},{"__typename":"SocialMediaPost","id":"HnPost-25470672","excerpt":"","slug":"/hn/25470672","title":"Show HN: Sqwok – A low-cruft, minimalist alternative to Reddit and Twitter","date":"December 19, 2020","dateISO":"2020-12-19T01:41:48.070Z","datetime":"2020-12-19 01:41","tags":["story","Show HN","Hacker News"],"image":null,"imageAlt":null,"provider":"Hacker News","thirdPartyId":"25470672","url":"https://news.ycombinator.com/item?id=25470672","originalUrl":"https://sqwok.im/","imageRemote":null,"video":null,"channel":"Show HN","channelUrl":"https://news.ycombinator.com/show","author":"holler","authorUrl":"https://news.ycombinator.com/user?id=holler","authorImage":null,"authorSlug":null,"score":185,"views":null,"sharedCount":null,"likeCount":null,"sharedContent":null,"parent":{"__typename":"HnJson","localize":[{"title":"HN新产品：Sqwok-Reddit和Twitter的低调、简约的替代品","locale":"zh"},{"title":"show HN：Sqwok-Reddit和Twitter的低調、簡約的替代品","locale":"zh-Hant"}]}},{"__typename":"SocialMediaPost","id":"HnPost-25461367","excerpt":"","slug":"/hn/25461367","title":"Show HN: StumblingOn – Randomly find indie websites – recreating StumbleUpon","date":"December 18, 2020","dateISO":"2020-12-18T05:30:33.771Z","datetime":"2020-12-18 05:30","tags":["story","Show HN","Hacker News"],"image":null,"imageAlt":null,"provider":"Hacker News","thirdPartyId":"25461367","url":"https://news.ycombinator.com/item?id=25461367","originalUrl":"https://stumblingon.com","imageRemote":null,"video":null,"channel":"Show HN","channelUrl":"https://news.ycombinator.com/show","author":"ALittleLight","authorUrl":"https://news.ycombinator.com/user?id=ALittleLight","authorImage":null,"authorSlug":null,"score":138,"views":null,"sharedCount":null,"likeCount":null,"sharedContent":null,"parent":{"__typename":"HnJson","localize":[{"title":"HN新产品：StumblingOn-随机查找独立网站-重新创建StumbleUpon","locale":"zh"},{"title":"show HN：StumblingOn-隨機查找獨立網站-重新創建StumbleUpon","locale":"zh-Hant"}]}},{"__typename":"SocialMediaPost","id":"HnPost-25455659","excerpt":"","slug":"/hn/25455659","title":"Show HN: Make comic book layouts in the browser","date":"December 17, 2020","dateISO":"2020-12-17T19:00:03.709Z","datetime":"2020-12-17 19:00","tags":["story","Show HN","Hacker News"],"image":null,"imageAlt":null,"provider":"Hacker News","thirdPartyId":"25455659","url":"https://news.ycombinator.com/item?id=25455659","originalUrl":"https://andrewfulrich.gitlab.io/panelle/","imageRemote":"https://andrewfulrich.gitlab.io/panelle/images/pointerIcon.svg","video":null,"channel":"Show HN","channelUrl":"https://news.ycombinator.com/show","author":"TiredGuy","authorUrl":"https://news.ycombinator.com/user?id=TiredGuy","authorImage":null,"authorSlug":null,"score":192,"views":null,"sharedCount":null,"likeCount":null,"sharedContent":null,"parent":{"__typename":"HnJson","localize":[{"title":"HN新产品：在浏览器中进行漫画书布局","locale":"zh"},{"title":"HN新产品：在瀏覽器中進行漫畫書佈局","locale":"zh-Hant"}]}}]}},"pageContext":{"basePath":"/","pageType":"tag","tag":"Show HN","tagsFilter":{"id":{"glob":"!*Post-1"}},"filter":{"id":{"glob":"!*Post-1"},"tags":{"eq":"Show HN"}},"limit":25,"skip":75,"total":81,"totalPages":4,"currentPage":4,"maxWidth":1024,"maxHeight":512,"locale":"en","hrefLang":"en-US","originalPath":"/tags/show-hn/page/4","dateFormat":"MM/DD/YYYY"}},"staticQueryHashes":["1239077767","2506312863","2744905544","3025052997","3493603132","3493603132","3513215887","386998304"]}