{"componentChunkName":"component---gatsby-theme-buzzing-src-gatsby-theme-timeline-templates-posts-query-js","path":"/tags/i-phone/page/11","result":{"data":{"site":{"siteMetadata":{"title":"Reddit 热门","description":"用中文浏览Reddit热门内容","social":[{"name":"Twitter","url":"https://twitter.com/gatsbyjs","external":null,"prefetch":null},{"name":"GitHub","url":"https://github.com/gatsbyjs","external":null,"prefetch":null}],"menuLinks":[],"localize":[{"locale":"en","title":"Buzzing on Reddit","description":"See what's buzzing on Reddit in your native language","social":[{"name":"Reddit","url":"https://www.reddit.com/","external":true,"prefetch":null}],"menuLinks":[{"name":"Weekly Selection","url":"/issues","external":null,"prefetch":null},{"name":"RSS","url":"/rss.xml","external":null,"prefetch":false}]},{"locale":"zh-Hant","title":"Reddit 熱門","description":"用中文瀏覽Reddit熱門內容","social":null,"menuLinks":null}]}},"tagsGroup":{"group":[{"fieldValue":"3D Printing","totalCount":4},{"fieldValue":"A/B Testing","totalCount":8},{"fieldValue":"APIs","totalCount":56},{"fieldValue":"Action Games","totalCount":2},{"fieldValue":"Ad Blockers","totalCount":2},{"fieldValue":"Adventure Games","totalCount":2},{"fieldValue":"Advertising","totalCount":19},{"fieldValue":"Airbnb","totalCount":1},{"fieldValue":"Alexa Skills","totalCount":2},{"fieldValue":"Amazon","totalCount":5},{"fieldValue":"Analytics","totalCount":79},{"fieldValue":"Android","totalCount":128},{"fieldValue":"Anonymous","totalCount":2},{"fieldValue":"Apple","totalCount":39},{"fieldValue":"Apple Watch","totalCount":5},{"fieldValue":"Art","totalCount":21},{"fieldValue":"Artificial Intelligence","totalCount":177},{"fieldValue":"Audio and Voice ","totalCount":30},{"fieldValue":"Augmented Reality","totalCount":13},{"fieldValue":"Backpacks","totalCount":1},{"fieldValue":"Beauty","totalCount":1},{"fieldValue":"Biohacking","totalCount":2},{"fieldValue":"Bitcoin","totalCount":4},{"fieldValue":"Blockstack","totalCount":1},{"fieldValue":"Board Games","totalCount":5},{"fieldValue":"Books","totalCount":14},{"fieldValue":"Bots","totalCount":19},{"fieldValue":"Branding","totalCount":12},{"fieldValue":"CSM Tools","totalCount":1},{"fieldValue":"Calendar and Scheduling","totalCount":39},{"fieldValue":"Cannabis","totalCount":1},{"fieldValue":"Card Games","totalCount":2},{"fieldValue":"Cars","totalCount":2},{"fieldValue":"Chrome Extensions","totalCount":62},{"fieldValue":"Coffee","totalCount":2},{"fieldValue":"Comics and Graphic Novels","totalCount":1},{"fieldValue":"Cooking","totalCount":3},{"fieldValue":"Cooking Books","totalCount":1},{"fieldValue":"Couples","totalCount":2},{"fieldValue":"Crafting games","totalCount":1},{"fieldValue":"Crowdfunding","totalCount":22},{"fieldValue":"Crypto","totalCount":46},{"fieldValue":"Customer communication","totalCount":33},{"fieldValue":"Dating","totalCount":6},{"fieldValue":"Delivery","totalCount":3},{"fieldValue":"Design Books","totalCount":5},{"fieldValue":"Design Tools","totalCount":250},{"fieldValue":"Developer Tools","totalCount":341},{"fieldValue":"Diversity and Inclusion","totalCount":6},{"fieldValue":"Dogs","totalCount":3},{"fieldValue":"Drinking","totalCount":3},{"fieldValue":"Drones","totalCount":2},{"fieldValue":"Dropbox","totalCount":1},{"fieldValue":"E-Commerce","totalCount":49},{"fieldValue":"Education","totalCount":91},{"fieldValue":"Email","totalCount":29},{"fieldValue":"Email Marketing","totalCount":26},{"fieldValue":"Email Newsletters","totalCount":35},{"fieldValue":"Emoji","totalCount":5},{"fieldValue":"Events","totalCount":17},{"fieldValue":"Facebook","totalCount":4},{"fieldValue":"Facebook Messenger","totalCount":3},{"fieldValue":"Fashion","totalCount":5},{"fieldValue":"FemTech","totalCount":4},{"fieldValue":"Fintech","totalCount":97},{"fieldValue":"Firefox Extensions","totalCount":8},{"fieldValue":"Free Games","totalCount":11},{"fieldValue":"Freelance","totalCount":13},{"fieldValue":"Funny","totalCount":27},{"fieldValue":"Funny Games","totalCount":3},{"fieldValue":"GIFs","totalCount":2},{"fieldValue":"Games","totalCount":48},{"fieldValue":"GitHub","totalCount":40},{"fieldValue":"Google","totalCount":12},{"fieldValue":"Google Home","totalCount":1},{"fieldValue":"Green Tech","totalCount":6},{"fieldValue":"Growth Hacking","totalCount":53},{"fieldValue":"Growth Hacks ","totalCount":6},{"fieldValue":"Hardware","totalCount":14},{"fieldValue":"Health and Fitness","totalCount":83},{"fieldValue":"Hiring and Recruiting","totalCount":32},{"fieldValue":"Home","totalCount":13},{"fieldValue":"Icons","totalCount":13},{"fieldValue":"Indie Games","totalCount":11},{"fieldValue":"Instagram","totalCount":19},{"fieldValue":"Internet of Things","totalCount":22},{"fieldValue":"Investing","totalCount":36},{"fieldValue":"Kids","totalCount":7},{"fieldValue":"Learn a Language","totalCount":13},{"fieldValue":"Legal","totalCount":9},{"fieldValue":"LinkedIn","totalCount":3},{"fieldValue":"Linux","totalCount":4},{"fieldValue":"Mac","totalCount":51},{"fieldValue":"Mac Menu Bar Apps","totalCount":17},{"fieldValue":"Maker Tools ","totalCount":28},{"fieldValue":"Maps","totalCount":7},{"fieldValue":"Marketing","totalCount":297},{"fieldValue":"Meditation","totalCount":10},{"fieldValue":"Medtech","totalCount":11},{"fieldValue":"Meetings","totalCount":26},{"fieldValue":"Messaging","totalCount":35},{"fieldValue":"Money ","totalCount":20},{"fieldValue":"Movies","totalCount":8},{"fieldValue":"Moving and Storage","totalCount":1},{"fieldValue":"Music","totalCount":25},{"fieldValue":"Netflix","totalCount":4},{"fieldValue":"News","totalCount":19},{"fieldValue":"No-Code","totalCount":41},{"fieldValue":"Nomad Lifestyle","totalCount":14},{"fieldValue":"Note","totalCount":15},{"fieldValue":"On-Demand","totalCount":5},{"fieldValue":"Open Source","totalCount":41},{"fieldValue":"Open World Games","totalCount":1},{"fieldValue":"Outdoors","totalCount":2},{"fieldValue":"PC","totalCount":4},{"fieldValue":"Parenting","totalCount":2},{"fieldValue":"Party","totalCount":5},{"fieldValue":"Payment","totalCount":20},{"fieldValue":"Pets","totalCount":3},{"fieldValue":"Photography","totalCount":30},{"fieldValue":"Photoshop","totalCount":6},{"fieldValue":"Politics","totalCount":6},{"fieldValue":"Privacy","totalCount":33},{"fieldValue":"Product Hunt","totalCount":13},{"fieldValue":"ProductHunt","totalCount":1855},{"fieldValue":"Productivity","totalCount":704},{"fieldValue":"Prototyping","totalCount":18},{"fieldValue":"Public Relations","totalCount":3},{"fieldValue":"Puzzle Games","totalCount":5},{"fieldValue":"Quantified Self","totalCount":7},{"fieldValue":"Remote Work Tools","totalCount":55},{"fieldValue":"Robots","totalCount":3},{"fieldValue":"SEO Tools","totalCount":21},{"fieldValue":"SaaS","totalCount":165},{"fieldValue":"Safari Extensions","totalCount":3},{"fieldValue":"Sales","totalCount":43},{"fieldValue":"SaveAMC","totalCount":1},{"fieldValue":"Sci-fi Games","totalCount":1},{"fieldValue":"Science Books","totalCount":2},{"fieldValue":"Side Projects","totalCount":32},{"fieldValue":"Sketch","totalCount":8},{"fieldValue":"Slack","totalCount":22},{"fieldValue":"Snapchat","totalCount":1},{"fieldValue":"Social Impact ","totalCount":17},{"fieldValue":"Social Media Tools","totalCount":131},{"fieldValue":"Software Engineering","totalCount":44},{"fieldValue":"Space","totalCount":2},{"fieldValue":"Sports","totalCount":8},{"fieldValue":"Sports Games","totalCount":1},{"fieldValue":"Spotify","totalCount":5},{"fieldValue":"Spreadsheets","totalCount":7},{"fieldValue":"Squarespace","totalCount":1},{"fieldValue":"Standing Desks","totalCount":1},{"fieldValue":"Startup Books","totalCount":7},{"fieldValue":"Startup Lessons ","totalCount":14},{"fieldValue":"Strategy games","totalCount":3},{"fieldValue":"Surfing","totalCount":1},{"fieldValue":"TV","totalCount":5},{"fieldValue":"Task Management","totalCount":51},{"fieldValue":"Tech","totalCount":541},{"fieldValue":"Telegram","totalCount":2},{"fieldValue":"Text Editors","totalCount":9},{"fieldValue":"Time Tracking","totalCount":11},{"fieldValue":"Travel","totalCount":20},{"fieldValue":"Twitter","totalCount":21},{"fieldValue":"Typography","totalCount":4},{"fieldValue":"User Experience","totalCount":187},{"fieldValue":"Venture Capital","totalCount":14},{"fieldValue":"Video Streaming","totalCount":41},{"fieldValue":"Virtual Assistants","totalCount":9},{"fieldValue":"Virtual Reality","totalCount":7},{"fieldValue":"Wallpaper","totalCount":2},{"fieldValue":"Wearables","totalCount":8},{"fieldValue":"Weather Apps","totalCount":2},{"fieldValue":"Web App","totalCount":225},{"fieldValue":"Windows","totalCount":8},{"fieldValue":"Wine","totalCount":1},{"fieldValue":"Word Games","totalCount":1},{"fieldValue":"WordPress","totalCount":7},{"fieldValue":"Work In Progress ","totalCount":3},{"fieldValue":"Writing Tools","totalCount":42},{"fieldValue":"YouTube","totalCount":9},{"fieldValue":"bitcoin","totalCount":3},{"fieldValue":"iMessage Apps","totalCount":2},{"fieldValue":"iPad","totalCount":22},{"fieldValue":"iPhone","totalCount":252},{"fieldValue":"reddit","totalCount":1},{"fieldValue":"science","totalCount":1},{"fieldValue":"tweet","totalCount":907}]},"allBlogPost":{"nodes":[{"__typename":"SocialMediaPost","id":"PhPost-278423","excerpt":"EduDo is a mobile learning platform with short user-generated interactive videos to watch on the go","slug":"/ph/edudo","title":"EduDo - Social learning platform","date":"December 18, 2020","dateISO":"2020-12-18T08:47:54.485Z","datetime":"2020-12-18 08:47","tags":["iPhone","Education","ProductHunt"],"image":null,"imageAlt":null,"provider":"Product Hunt","thirdPartyId":"278423","url":"https://www.producthunt.com/posts/edudo?utm_campaign=producthunt-api&utm_medium=api-v2&utm_source=Application%3A+Buzzing+%28ID%3A+41381%29","originalUrl":"https://www.producthunt.com/r/dc88f6ffbb58f7?utm_campaign=producthunt-api&utm_medium=api-v2&utm_source=Application%3A+Buzzing+%28ID%3A+41381%29","imageRemote":null,"video":{"url":"https://www.youtube.com/watch?v=rJbnVxHpG9M","embed":null,"width":null,"height":null},"channel":null,"channelUrl":null,"author":"Ilya Hets","authorUrl":"https://www.producthunt.com/@hetsman?utm_campaign=producthunt-api&utm_medium=api-v2&utm_source=Application%3A+Buzzing+%28ID%3A+41381%29","authorImage":null,"authorSlug":null,"score":2608,"views":null,"sharedCount":null,"likeCount":null,"sharedContent":null,"parent":{"__typename":"PhJson","localize":[{"description":"EduDo是一个移动学习平台，提供短的用户生成的互动视频供您随时随地观看","tagline":"社交学习平台","locale":"zh"},{"description":"EduDo是一個移動學習平臺，提供短的用戶生成的互動視頻供您隨時隨地觀看","tagline":"社交學習平臺","locale":"zh-Hant"}]}},{"__typename":"SocialMediaPost","id":"PhPost-278365","excerpt":"ProStyles is an AI camera app that edits your photos & videos in the style of pro photographers as you shoot them. The built-in Style Store features AI style models created by some of the best photographers out there.","slug":"/ph/prostyle-camera-by-neuralcam","title":"ProStyle Camera by NeuralCam - AI Cam App - Photos auto-edited in the style of pros","date":"December 18, 2020","dateISO":"2020-12-18T08:47:54.485Z","datetime":"2020-12-18 08:47","tags":["iPhone","Photography","Artificial Intelligence","Tech","ProductHunt"],"image":null,"imageAlt":null,"provider":"Product Hunt","thirdPartyId":"278365","url":"https://www.producthunt.com/posts/prostyle-camera-by-neuralcam?utm_campaign=producthunt-api&utm_medium=api-v2&utm_source=Application%3A+Buzzing+%28ID%3A+41381%29","originalUrl":"https://www.producthunt.com/r/94c5e9cf98d225?utm_campaign=producthunt-api&utm_medium=api-v2&utm_source=Application%3A+Buzzing+%28ID%3A+41381%29","imageRemote":"https://ph-files.imgix.net/a3c0cf78-a59c-44c9-93e2-9505eee2b71a.png?auto=format&fit=crop","video":null,"channel":null,"channelUrl":null,"author":"Bram Kanstein (@bramk)","authorUrl":"https://www.producthunt.com/@bramk?utm_campaign=producthunt-api&utm_medium=api-v2&utm_source=Application%3A+Buzzing+%28ID%3A+41381%29","authorImage":null,"authorSlug":null,"score":253,"views":null,"sharedCount":null,"likeCount":null,"sharedContent":null,"parent":{"__typename":"PhJson","localize":[{"description":"ProStyles是一款人工智能相机应用程序，在你拍摄照片和视频时，它会以专业摄影师的风格编辑它们。内置风格商店的特色是由一些最好的摄影师创建的人工智能风格模型。","tagline":"AI Cam App-照片以专业风格自动编辑","locale":"zh"},{"description":"ProStyles是一款人工智能相機應用程序，在你拍攝照片和視頻時，它會以專業攝影師的風格編輯它們。內置風格商店的特色是由一些最好的攝影師創建的人工智能風格模型。","tagline":"AI Cam App-照片以專業風格自動編輯","locale":"zh-Hant"}]}}]}},"pageContext":{"basePath":"/","pageType":"tag","tag":"iPhone","tagsFilter":{"id":{"glob":"!*Post-1"}},"filter":{"id":{"glob":"!*Post-1"},"tags":{"eq":"iPhone"}},"limit":25,"skip":250,"total":252,"totalPages":11,"currentPage":11,"maxWidth":1024,"maxHeight":512,"locale":"zh","hrefLang":"zh-Hans","originalPath":"/tags/i-phone/page/11","dateFormat":"YYYY-MM-DD"}},"staticQueryHashes":["1239077767","2506312863","2744905544","3025052997","3493603132","3493603132","3513215887","386998304"]}