{"componentChunkName":"component---gatsby-theme-buzzing-src-gatsby-theme-timeline-templates-posts-query-js","path":"/en/tags/hacker-news/page/63","result":{"data":{"site":{"siteMetadata":{"title":"Reddit 热门","description":"用中文浏览Reddit热门内容","social":[{"name":"Twitter","url":"https://twitter.com/gatsbyjs","external":null,"prefetch":null},{"name":"GitHub","url":"https://github.com/gatsbyjs","external":null,"prefetch":null}],"menuLinks":[],"localize":[{"locale":"en","title":"Buzzing on Reddit","description":"See what's buzzing on Reddit in your native language","social":[{"name":"Reddit","url":"https://www.reddit.com/","external":true,"prefetch":null}],"menuLinks":[{"name":"Weekly Selection","url":"/issues","external":null,"prefetch":null},{"name":"RSS","url":"/rss.xml","external":null,"prefetch":false}]},{"locale":"zh-Hant","title":"Reddit 熱門","description":"用中文瀏覽Reddit熱門內容","social":null,"menuLinks":null}]}},"tagsGroup":{"group":[{"fieldValue":"ASK HN","totalCount":36},{"fieldValue":"Bitcoin","totalCount":4},{"fieldValue":"Hacker News","totalCount":2185},{"fieldValue":"Poll","totalCount":1},{"fieldValue":"SaveAMC","totalCount":1},{"fieldValue":"Show HN","totalCount":76},{"fieldValue":"bitcoin","totalCount":3},{"fieldValue":"investing","totalCount":686},{"fieldValue":"poll","totalCount":1},{"fieldValue":"reddit","totalCount":4012},{"fieldValue":"science","totalCount":1},{"fieldValue":"stocks","totalCount":1322},{"fieldValue":"story","totalCount":2184},{"fieldValue":"tweet","totalCount":697},{"fieldValue":"wallstreetbets","totalCount":2004}]},"allBlogPost":{"nodes":[{"__typename":"SocialMediaPost","id":"HnPost-25620448","excerpt":"","slug":"/hn/25620448","title":"A new release for GNU Octave","date":"January 03, 2021","dateISO":"2021-01-03T16:00:51.470Z","datetime":"2021-01-03 16:00","tags":["story","Hacker News"],"image":null,"imageAlt":null,"provider":"Hacker News","thirdPartyId":"25620448","url":"https://news.ycombinator.com/item?id=25620448","originalUrl":"https://lwn.net/Articles/840050/","imageRemote":"https://static.lwn.net/images/logo/barepenguin-70.png","video":null,"channel":null,"channelUrl":null,"author":"signa11","authorUrl":"https://news.ycombinator.com/user?id=signa11","authorImage":null,"authorSlug":null,"score":197,"views":null,"sharedCount":null,"likeCount":null,"sharedContent":null,"parent":{"__typename":"HnJson","localize":[{"title":"GNU Octave的新版本","locale":"zh"},{"title":"GNU Octave的新版本","locale":"zh-Hant"}]}},{"__typename":"SocialMediaPost","id":"HnPost-25620372","excerpt":"","slug":"/hn/25620372","title":"2021 GPS Accuracy Issue Impacting Some Garmin, Suunto, other GPS Devices","date":"January 03, 2021","dateISO":"2021-01-03T15:30:07.723Z","datetime":"2021-01-03 15:30","tags":["story","Hacker News"],"image":null,"imageAlt":null,"provider":"Hacker News","thirdPartyId":"25620372","url":"https://news.ycombinator.com/item?id=25620372","originalUrl":"https://www.dcrainmaker.com/2021/01/gps-accuracy-impacting-devices.html","imageRemote":"https://media.dcrainmaker.com/images/2021/01/SatelliteSonyIssue.jpg","video":null,"channel":null,"channelUrl":null,"author":"dll","authorUrl":"https://news.ycombinator.com/user?id=dll","authorImage":null,"authorSlug":null,"score":227,"views":null,"sharedCount":null,"likeCount":null,"sharedContent":null,"parent":{"__typename":"HnJson","localize":[{"title":"2021年GPS精度问题影响一些Garmin、Suinto和其他GPS设备","locale":"zh"},{"title":"2021年GPS精度問題影響一些Garmin、Suinto和其他GPS設備","locale":"zh-Hant"}]}},{"__typename":"SocialMediaPost","id":"HnPost-25620110","excerpt":"","slug":"/hn/25620110","title":"Rust Design Patterns as a Book","date":"January 03, 2021","dateISO":"2021-01-03T14:42:51.450Z","datetime":"2021-01-03 14:42","tags":["story","Hacker News"],"image":null,"imageAlt":null,"provider":"Hacker News","thirdPartyId":"25620110","url":"https://news.ycombinator.com/item?id=25620110","originalUrl":"https://rust-unofficial.github.io/patterns/","imageRemote":null,"video":null,"channel":null,"channelUrl":null,"author":"WnZ39p0Dgydaz1","authorUrl":"https://news.ycombinator.com/user?id=WnZ39p0Dgydaz1","authorImage":null,"authorSlug":null,"score":236,"views":null,"sharedCount":null,"likeCount":null,"sharedContent":null,"parent":{"__typename":"HnJson","localize":[{"title":"把生锈的设计模式当成一本书","locale":"zh"},{"title":"把生鏽的設計模式當成一本書","locale":"zh-Hant"}]}},{"__typename":"SocialMediaPost","id":"HnPost-25618302","excerpt":"","slug":"/hn/25618302","title":"Zig in 30 Minutes","date":"January 03, 2021","dateISO":"2021-01-03T11:36:29.591Z","datetime":"2021-01-03 11:36","tags":["story","Hacker News"],"image":null,"imageAlt":null,"provider":"Hacker News","thirdPartyId":"25618302","url":"https://news.ycombinator.com/item?id=25618302","originalUrl":"https://gist.github.com/ityonemo/769532c2017ed9143f3571e5ac104e50","imageRemote":"https://github.githubassets.com/images/modules/gists/gist-og-image.png","video":null,"channel":null,"channelUrl":null,"author":"dnautics","authorUrl":"https://news.ycombinator.com/user?id=dnautics","authorImage":null,"authorSlug":null,"score":279,"views":null,"sharedCount":null,"likeCount":null,"sharedContent":null,"parent":{"__typename":"HnJson","localize":[{"title":"30分钟后呈之字形","locale":"zh"},{"title":"30分鐘後呈之字形","locale":"zh-Hant"}]}},{"__typename":"SocialMediaPost","id":"HnPost-25618346","excerpt":"","slug":"/hn/25618346","title":"Encrypted Backup Shootout","date":"January 03, 2021","dateISO":"2021-01-03T11:36:29.591Z","datetime":"2021-01-03 11:36","tags":["story","Hacker News"],"image":null,"imageAlt":null,"provider":"Hacker News","thirdPartyId":"25618346","url":"https://news.ycombinator.com/item?id=25618346","originalUrl":"https://acha.ninja/blog/encrypted_backup_shootout/","imageRemote":"https://acha.ninja/img/Test_Snapshot_Size.svg","video":null,"channel":null,"channelUrl":null,"author":"andrewchambers","authorUrl":"https://news.ycombinator.com/user?id=andrewchambers","authorImage":null,"authorSlug":null,"score":207,"views":null,"sharedCount":null,"likeCount":null,"sharedContent":null,"parent":{"__typename":"HnJson","localize":[{"title":"加密备份快照","locale":"zh"},{"title":"加密備份快照","locale":"zh-Hant"}]}},{"__typename":"SocialMediaPost","id":"HnPost-25616682","excerpt":"","slug":"/hn/25616682","title":"France Hits Record 19.2% EV Share in December – Up Almost 6× Year on Year","date":"January 03, 2021","dateISO":"2021-01-03T10:08:18.031Z","datetime":"2021-01-03 10:08","tags":["story","Hacker News"],"image":null,"imageAlt":null,"provider":"Hacker News","thirdPartyId":"25616682","url":"https://news.ycombinator.com/item?id=25616682","originalUrl":"https://cleantechnica.com/2021/01/02/france-hits-record-19-2-ev-share-in-december-up-almost-6x-year-on-year/","imageRemote":"https://cleantechnica.com/files/2021/01/December-2020-France-Passenger-Auto-Registrations-Tidy.png","video":null,"channel":null,"channelUrl":null,"author":"finphil","authorUrl":"https://news.ycombinator.com/user?id=finphil","authorImage":null,"authorSlug":null,"score":164,"views":null,"sharedCount":null,"likeCount":null,"sharedContent":null,"parent":{"__typename":"HnJson","localize":[{"title":"法国12月份电动汽车份额达到创纪录的19.2%-同比增长近6倍","locale":"zh"},{"title":"法國12月份電動汽車份額達到創紀錄的19.2%-同比增長近6倍","locale":"zh-Hant"}]}},{"__typename":"SocialMediaPost","id":"HnPost-25618245","excerpt":"","slug":"/hn/25618245","title":"Apple reverses stance on Amphetamine App","date":"January 03, 2021","dateISO":"2021-01-03T10:08:18.031Z","datetime":"2021-01-03 10:08","tags":["story","Hacker News"],"image":null,"imageAlt":null,"provider":"Hacker News","thirdPartyId":"25618245","url":"https://news.ycombinator.com/item?id=25618245","originalUrl":"https://www.engadget.com/apple-will-not-ban-mac-app-amphetamine-from-store-224919743.html","imageRemote":"https://o.aolcdn.com/images/dims?resize=1200%2C630&crop=1200%2C630%2C0%2C0&quality=95&image_uri=https%3A%2F%2Fs.yimg.com%2Fos%2Fcreatr-uploaded-images%2F2021-01%2F98f529c0-4d48-11eb-b62f-1321a8b0204b&client=amp-blogside-v2&signature=41f2eeec2577c63d347dbbcf6dd8a0461f713006","video":null,"channel":null,"channelUrl":null,"author":"camhart","authorUrl":"https://news.ycombinator.com/user?id=camhart","authorImage":null,"authorSlug":null,"score":287,"views":null,"sharedCount":null,"likeCount":null,"sharedContent":null,"parent":{"__typename":"HnJson","localize":[{"title":"苹果逆转对安非他明应用的立场","locale":"zh"},{"title":"蘋果逆轉對安非他明應用的立場","locale":"zh-Hant"}]}},{"__typename":"SocialMediaPost","id":"HnPost-25617029","excerpt":"","slug":"/hn/25617029","title":"The Eerie Beauty of the Apple Watch Solar Face, and the Anatomy of Nightfall","date":"January 03, 2021","dateISO":"2021-01-03T08:03:23.901Z","datetime":"2021-01-03 08:03","tags":["story","Hacker News"],"image":null,"imageAlt":null,"provider":"Hacker News","thirdPartyId":"25617029","url":"https://news.ycombinator.com/item?id=25617029","originalUrl":"https://www.hodinkee.com/articles/the-eerie-beauty-of-the-apple-watch-solar-face-and-the-anatomy-of-nightfall","imageRemote":"https://hodinkee.imgix.net/uploads/images/1586204216446-a85tzyldlzw-07b0e1ecf80a72480564672754d2cf6b/hero.jpg?ixlib=rails-1.1.0&fm=jpg&q=55&auto=format&usm=12&w=1000","video":null,"channel":null,"channelUrl":null,"author":"janniks","authorUrl":"https://news.ycombinator.com/user?id=janniks","authorImage":null,"authorSlug":null,"score":238,"views":null,"sharedCount":null,"likeCount":null,"sharedContent":null,"parent":{"__typename":"HnJson","localize":[{"title":"苹果手表太阳面的怪异之美，以及夜幕的解剖","locale":"zh"},{"title":"蘋果手錶太陽面的怪異之美，以及夜幕的解剖","locale":"zh-Hant"}]}},{"__typename":"SocialMediaPost","id":"HnPost-25617601","excerpt":"","slug":"/hn/25617601","title":"Apple Backtracks After Popular Mac App 'Amphetamine' Threatened with Removal","date":"January 03, 2021","dateISO":"2021-01-03T05:16:30.218Z","datetime":"2021-01-03 05:16","tags":["story","Hacker News"],"image":null,"imageAlt":null,"provider":"Hacker News","thirdPartyId":"25617601","url":"https://news.ycombinator.com/item?id=25617601","originalUrl":"https://www.macrumors.com/2021/01/02/amphetamine-app-store-removal-threat/","imageRemote":"https://images.macrumors.com/t/tcXbijFGnxajsX7d7TiTVxxLsEg=/1890x/https://images.macrumors.com/article-new/2021/01/amphetamine.jpg","video":null,"channel":null,"channelUrl":null,"author":"jordigg","authorUrl":"https://news.ycombinator.com/user?id=jordigg","authorImage":null,"authorSlug":null,"score":236,"views":null,"sharedCount":null,"likeCount":null,"sharedContent":null,"parent":{"__typename":"HnJson","localize":[{"title":"苹果在广受欢迎的Mac应用程序“安非他命”威胁要下架后走回头路","locale":"zh"},{"title":"蘋果在廣受歡迎的Mac應用程序“安非他命”威脅要下架後走回頭路","locale":"zh-Hant"}]}},{"__typename":"SocialMediaPost","id":"HnPost-25618724","excerpt":"","slug":"/hn/25618724","title":"DOJ Argues: US can kill own citizens without review when state secrets involved","date":"January 03, 2021","dateISO":"2021-01-03T03:48:06.958Z","datetime":"2021-01-03 03:48","tags":["story","Hacker News"],"image":null,"imageAlt":null,"provider":"Hacker News","thirdPartyId":"25618724","url":"https://news.ycombinator.com/item?id=25618724","originalUrl":"https://www.abajournal.com/news/article/doj-lawyer-argues-us-can-kill-its-own-citizens-without-review-when-state-secrets-are-involved","imageRemote":"https://www.abajournal.com/images/main_images/shutterstock_316081508.jpg","video":null,"channel":null,"channelUrl":null,"author":"SQL2219","authorUrl":"https://news.ycombinator.com/user?id=SQL2219","authorImage":null,"authorSlug":null,"score":311,"views":null,"sharedCount":null,"likeCount":null,"sharedContent":null,"parent":{"__typename":"HnJson","localize":[{"title":"美国司法部辩称：当涉及国家机密时，美国可以未经审查杀害自己的公民","locale":"zh"},{"title":"美國司法部辯稱：當涉及國家機密時，美國可以未經審查殺害自己的公民","locale":"zh-Hant"}]}},{"__typename":"SocialMediaPost","id":"HnPost-25615394","excerpt":"","slug":"/hn/25615394","title":"Why Openstreetmap’s product fails to compete with Google Maps","date":"January 03, 2021","dateISO":"2021-01-03T01:36:07.340Z","datetime":"2021-01-03 01:36","tags":["story","Hacker News"],"image":null,"imageAlt":null,"provider":"Hacker News","thirdPartyId":"25615394","url":"https://news.ycombinator.com/item?id=25615394","originalUrl":"https://bedogged.substack.com/p/the-mobile-map-app-part-i-the-void","imageRemote":"https://bucketeer-e05bbc84-baa3-437e-9518-adb32be77984.s3.amazonaws.com/public/images/cf465a58-739f-40fb-952b-8b9f3339635a_2243x2219.jpeg","video":null,"channel":null,"channelUrl":null,"author":"liotier","authorUrl":"https://news.ycombinator.com/user?id=liotier","authorImage":null,"authorSlug":null,"score":260,"views":null,"sharedCount":null,"likeCount":null,"sharedContent":null,"parent":{"__typename":"HnJson","localize":[{"title":"为什么OpenStreetMap的产品无法与谷歌地图竞争","locale":"zh"},{"title":"爲什麼OpenStreetMap的產品無法與谷歌地圖競爭","locale":"zh-Hant"}]}},{"__typename":"SocialMediaPost","id":"HnPost-25616472","excerpt":"","slug":"/hn/25616472","title":"Phone addiction linked to over a dozen psychological and physical problems","date":"January 02, 2021","dateISO":"2021-01-02T23:10:32.223Z","datetime":"2021-01-02 23:10","tags":["story","Hacker News"],"image":null,"imageAlt":null,"provider":"Hacker News","thirdPartyId":"25616472","url":"https://news.ycombinator.com/item?id=25616472","originalUrl":"https://cognitiontoday.com/phone-addiction-coping-solutions-research-statistics/","imageRemote":"https://cognitiontoday.com/wp-content/uploads/2020/08/pexels-roman-odintsov-4555321.jpg","video":null,"channel":null,"channelUrl":null,"author":"Shred77","authorUrl":"https://news.ycombinator.com/user?id=Shred77","authorImage":null,"authorSlug":null,"score":740,"views":null,"sharedCount":null,"likeCount":null,"sharedContent":null,"parent":{"__typename":"HnJson","localize":[{"title":"手机成瘾与十几种心理和身体问题有关","locale":"zh"},{"title":"手機成癮與十幾種心理和身體問題有關","locale":"zh-Hant"}]}},{"__typename":"SocialMediaPost","id":"HnPost-25614966","excerpt":"","slug":"/hn/25614966","title":"Ask HN: Successful one-person online businesses in 2021?","date":"January 02, 2021","dateISO":"2021-01-02T22:07:14.143Z","datetime":"2021-01-02 22:07","tags":["story","ASK HN","Hacker News"],"image":null,"imageAlt":null,"provider":"Hacker News","thirdPartyId":"25614966","url":"https://news.ycombinator.com/item?id=25614966","originalUrl":"https://news.ycombinator.com/item?id=25614966","imageRemote":null,"video":null,"channel":"ASK HN","channelUrl":"https://news.ycombinator.com/ask","author":"codesternews","authorUrl":"https://news.ycombinator.com/user?id=codesternews","authorImage":null,"authorSlug":null,"score":314,"views":null,"sharedCount":null,"likeCount":null,"sharedContent":null,"parent":{"__typename":"HnJson","localize":[{"title":"HN提问：2021年成功的一人在线业务？","locale":"zh"},{"title":"HN提問：2021年成功的一人在線業務？","locale":"zh-Hant"}]}},{"__typename":"SocialMediaPost","id":"HnPost-25615888","excerpt":"","slug":"/hn/25615888","title":"Pixar's Render Farm","date":"January 02, 2021","dateISO":"2021-01-02T22:07:14.143Z","datetime":"2021-01-02 22:07","tags":["story","Hacker News"],"image":null,"imageAlt":null,"provider":"Hacker News","thirdPartyId":"25615888","url":"https://news.ycombinator.com/item?id=25615888","originalUrl":"https://twitter.com/pixprin/status/1345146328058269696","imageRemote":null,"video":null,"channel":null,"channelUrl":null,"author":"brundolf","authorUrl":"https://news.ycombinator.com/user?id=brundolf","authorImage":null,"authorSlug":null,"score":379,"views":null,"sharedCount":null,"likeCount":null,"sharedContent":null,"parent":{"__typename":"HnJson","localize":[{"title":"皮克斯的渲染场","locale":"zh"},{"title":"皮克斯的渲染場","locale":"zh-Hant"}]}},{"__typename":"SocialMediaPost","id":"HnPost-25612176","excerpt":"","slug":"/hn/25612176","title":"Lets talk about changelogs (how I loathe 'bugfixes and performance improvements)","date":"January 02, 2021","dateISO":"2021-01-02T20:01:57.445Z","datetime":"2021-01-02 20:01","tags":["story","Hacker News"],"image":null,"imageAlt":null,"provider":"Hacker News","thirdPartyId":"25612176","url":"https://news.ycombinator.com/item?id=25612176","originalUrl":"https://raymii.org/s/blog/Rant_Lets_talk_about_changelogs.html","imageRemote":null,"video":null,"channel":null,"channelUrl":null,"author":"jandeboevrie","authorUrl":"https://news.ycombinator.com/user?id=jandeboevrie","authorImage":null,"authorSlug":null,"score":241,"views":null,"sharedCount":null,"likeCount":null,"sharedContent":null,"parent":{"__typename":"HnJson","localize":[{"title":"让我们讨论一下更改日志(我多么讨厌错误修复和性能改进)","locale":"zh"},{"title":"讓我們討論一下更改日誌(我多麼討厭錯誤修復和性能改進)","locale":"zh-Hant"}]}},{"__typename":"SocialMediaPost","id":"HnPost-25613294","excerpt":"","slug":"/hn/25613294","title":"The Yale Manual for Psilocybin-Assisted Therapy of Depression","date":"January 02, 2021","dateISO":"2021-01-02T19:41:59.845Z","datetime":"2021-01-02 19:41","tags":["story","Hacker News"],"image":null,"imageAlt":null,"provider":"Hacker News","thirdPartyId":"25613294","url":"https://news.ycombinator.com/item?id=25613294","originalUrl":"https://psyarxiv.com/u6v9y","imageRemote":null,"video":null,"channel":null,"channelUrl":null,"author":"say_it_as_it_is","authorUrl":"https://news.ycombinator.com/user?id=say_it_as_it_is","authorImage":null,"authorSlug":null,"score":335,"views":null,"sharedCount":null,"likeCount":null,"sharedContent":null,"parent":{"__typename":"HnJson","localize":[{"title":"耶鲁大学裸盖菇素辅助治疗抑郁症手册","locale":"zh"},{"title":"耶魯大學裸蓋菇素輔助治療抑鬱症手冊","locale":"zh-Hant"}]}},{"__typename":"SocialMediaPost","id":"HnPost-25613937","excerpt":"","slug":"/hn/25613937","title":"Atlassian Cloud ToS section 3.3(I) prohibits discussing performance issues","date":"January 02, 2021","dateISO":"2021-01-02T19:41:59.845Z","datetime":"2021-01-02 19:41","tags":["story","Hacker News"],"image":null,"imageAlt":null,"provider":"Hacker News","thirdPartyId":"25613937","url":"https://news.ycombinator.com/item?id=25613937","originalUrl":"https://www.atlassian.com/legal/cloud-terms-of-service","imageRemote":"https://wac-cdn.atlassian.com/dam/jcr:616e6748-ad8c-48d9-ae93-e49019ed5259/Atlassian-horizontal-blue-rgb.svg?cdnVersion=1386","video":null,"channel":null,"channelUrl":null,"author":"dmitriid","authorUrl":"https://news.ycombinator.com/user?id=dmitriid","authorImage":null,"authorSlug":null,"score":417,"views":null,"sharedCount":null,"likeCount":null,"sharedContent":null,"parent":{"__typename":"HnJson","localize":[{"title":"Atlassian Cloud ToS第3.3(I)节禁止讨论性能问题","locale":"zh"},{"title":"Atlassian Cloud ToS第3.3(I)節禁止討論性能問題","locale":"zh-Hant"}]}},{"__typename":"SocialMediaPost","id":"HnPost-25612429","excerpt":"","slug":"/hn/25612429","title":"CVE Stuffing","date":"January 02, 2021","dateISO":"2021-01-02T19:14:54.465Z","datetime":"2021-01-02 19:14","tags":["story","Hacker News"],"image":null,"imageAlt":null,"provider":"Hacker News","thirdPartyId":"25612429","url":"https://news.ycombinator.com/item?id=25612429","originalUrl":"https://jerrygamblin.com/2020/12/17/cve-stuffing/","imageRemote":"https://i2.wp.com/jerrygamblin.com/wp-content/uploads/2015/11/cropped-logo.jpg?fit=512%2C512&ssl=1","video":null,"channel":null,"channelUrl":null,"author":"CapacitorSet","authorUrl":"https://news.ycombinator.com/user?id=CapacitorSet","authorImage":null,"authorSlug":null,"score":289,"views":null,"sharedCount":null,"likeCount":null,"sharedContent":null,"parent":{"__typename":"HnJson","localize":[{"title":"CVE填料","locale":"zh"},{"title":"CVE填料","locale":"zh-Hant"}]}},{"__typename":"SocialMediaPost","id":"HnPost-25614167","excerpt":"","slug":"/hn/25614167","title":"Show HN: I shot high-res stitched panoramas in Iceland using a thermal camera","date":"January 02, 2021","dateISO":"2021-01-02T19:14:54.465Z","datetime":"2021-01-02 19:14","tags":["story","Show HN","Hacker News"],"image":null,"imageAlt":null,"provider":"Hacker News","thirdPartyId":"25614167","url":"https://news.ycombinator.com/item?id=25614167","originalUrl":"https://petapixel.com/2019/07/13/shooting-high-res-thermal-photos-of-iceland-to-show-nature-at-work/?q=5","imageRemote":"https://petapixel.com/assets/uploads/2019/07/icelandthermalfeattt.jpg","video":null,"channel":"Show HN","channelUrl":"https://news.ycombinator.com/show","author":"dheera","authorUrl":"https://news.ycombinator.com/user?id=dheera","authorImage":null,"authorSlug":null,"score":747,"views":null,"sharedCount":null,"likeCount":null,"sharedContent":null,"parent":{"__typename":"HnJson","localize":[{"title":"HN新产品：我在冰岛用热像仪拍摄了高分辨率的缝合全景","locale":"zh"},{"title":"HN新產品：我在冰島用熱像儀拍攝了高分辨率的縫合全景","locale":"zh-Hant"}]}},{"__typename":"SocialMediaPost","id":"HnPost-25612786","excerpt":"","slug":"/hn/25612786","title":"Facebook's advertising integrity chief leaves company","date":"January 02, 2021","dateISO":"2021-01-02T18:21:55.782Z","datetime":"2021-01-02 18:21","tags":["story","Hacker News"],"image":null,"imageAlt":null,"provider":"Hacker News","thirdPartyId":"25612786","url":"https://news.ycombinator.com/item?id=25612786","originalUrl":"https://www.reuters.com/article/us-facebook-executive-idUSKBN2962M6","imageRemote":"https://static.reuters.com/resources/r/?m=02&d=20210101&t=2&i=1546367047&r=LYNXMPEH001AH&w=800","video":null,"channel":null,"channelUrl":null,"author":"elsewhen","authorUrl":"https://news.ycombinator.com/user?id=elsewhen","authorImage":null,"authorSlug":null,"score":368,"views":null,"sharedCount":null,"likeCount":null,"sharedContent":null,"parent":{"__typename":"HnJson","localize":[{"title":"Facebook广告诚信主管离职","locale":"zh"},{"title":"Facebook廣告誠信主管離職","locale":"zh-Hant"}]}},{"__typename":"SocialMediaPost","id":"HnPost-25611053","excerpt":"","slug":"/hn/25611053","title":"How Graphviz thinks the USA is laid out","date":"January 02, 2021","dateISO":"2021-01-02T17:45:00.849Z","datetime":"2021-01-02 17:45","tags":["story","Hacker News"],"image":null,"imageAlt":null,"provider":"Hacker News","thirdPartyId":"25611053","url":"https://news.ycombinator.com/item?id=25611053","originalUrl":"https://shitpost.plover.com/g/graphviz-usa.html","imageRemote":"https://pic.blog.plover.com/shitpost/TOP.png","video":null,"channel":null,"channelUrl":null,"author":"signa11","authorUrl":"https://news.ycombinator.com/user?id=signa11","authorImage":null,"authorSlug":null,"score":234,"views":null,"sharedCount":null,"likeCount":null,"sharedContent":null,"parent":{"__typename":"HnJson","localize":[{"title":"Graphviz认为美国是如何布局的","locale":"zh"},{"title":"Graphviz認爲美國是如何佈局的","locale":"zh-Hant"}]}},{"__typename":"SocialMediaPost","id":"HnPost-25612962","excerpt":"","slug":"/hn/25612962","title":"WSL2 corrupting Git repositories and shell history","date":"January 02, 2021","dateISO":"2021-01-02T16:55:16.364Z","datetime":"2021-01-02 16:55","tags":["story","Hacker News"],"image":null,"imageAlt":null,"provider":"Hacker News","thirdPartyId":"25612962","url":"https://news.ycombinator.com/item?id=25612962","originalUrl":"https://github.com/microsoft/WSL2-Linux-Kernel/issues/168","imageRemote":"https://avatars2.githubusercontent.com/u/6154722?s=400&v=4","video":null,"channel":null,"channelUrl":null,"author":"delduca","authorUrl":"https://news.ycombinator.com/user?id=delduca","authorImage":null,"authorSlug":null,"score":611,"views":null,"sharedCount":null,"likeCount":null,"sharedContent":null,"parent":{"__typename":"HnJson","localize":[{"title":"WSL2破坏Git存储库和shell历史记录","locale":"zh"},{"title":"WSL2破壞Git存儲庫和shell歷史記錄","locale":"zh-Hant"}]}},{"__typename":"SocialMediaPost","id":"HnPost-25612223","excerpt":"","slug":"/hn/25612223","title":"Open Source Smartwatch","date":"January 02, 2021","dateISO":"2021-01-02T14:51:41.800Z","datetime":"2021-01-02 14:51","tags":["story","Hacker News"],"image":null,"imageAlt":null,"provider":"Hacker News","thirdPartyId":"25612223","url":"https://news.ycombinator.com/item?id=25612223","originalUrl":"https://www.pine64.org/pinetime/","imageRemote":"https://www.pine64.org/wp-content/uploads/2019/10/PineTime_leaflet.jpg","video":null,"channel":null,"channelUrl":null,"author":"sytelus","authorUrl":"https://news.ycombinator.com/user?id=sytelus","authorImage":null,"authorSlug":null,"score":697,"views":null,"sharedCount":null,"likeCount":null,"sharedContent":null,"parent":{"__typename":"HnJson","localize":[{"title":"开源智能手表","locale":"zh"},{"title":"開源智能手錶","locale":"zh-Hant"}]}},{"__typename":"SocialMediaPost","id":"HnPost-25611883","excerpt":"","slug":"/hn/25611883","title":"US passes anti-corruption law that effectively bans anonymous shell companies","date":"January 02, 2021","dateISO":"2021-01-02T14:33:39.115Z","datetime":"2021-01-02 14:33","tags":["story","Hacker News"],"image":null,"imageAlt":null,"provider":"Hacker News","thirdPartyId":"25611883","url":"https://news.ycombinator.com/item?id=25611883","originalUrl":"https://www.independent.co.uk/news/world/americas/us-passes-historic-anti-corruption-legislation-that-effectively-bans-anonymous-shell-companies-b1781380.html","imageRemote":"https://static.independent.co.uk/2020/11/13/19/Contested_Election_Wall_Street_57312.jpg","video":null,"channel":null,"channelUrl":null,"author":"gscott","authorUrl":"https://news.ycombinator.com/user?id=gscott","authorImage":null,"authorSlug":null,"score":552,"views":null,"sharedCount":null,"likeCount":null,"sharedContent":null,"parent":{"__typename":"HnJson","localize":[{"title":"美国通过反腐败法，有效禁止匿名空壳公司","locale":"zh"},{"title":"美國通過反腐敗法，有效禁止匿名空殼公司","locale":"zh-Hant"}]}},{"__typename":"SocialMediaPost","id":"HnPost-25609669","excerpt":"","slug":"/hn/25609669","title":"F# for fun and profit: Terms and Conditions","date":"January 02, 2021","dateISO":"2021-01-02T12:40:38.340Z","datetime":"2021-01-02 12:40","tags":["story","Hacker News"],"image":null,"imageAlt":null,"provider":"Hacker News","thirdPartyId":"25609669","url":"https://news.ycombinator.com/item?id=25609669","originalUrl":"https://fsharpforfunandprofit.com/about/terms/","imageRemote":"https://fsharpforfunandprofit.com/assets/img/Twitter_logo_blue_25x20.png","video":null,"channel":null,"channelUrl":null,"author":"cratermoon","authorUrl":"https://news.ycombinator.com/user?id=cratermoon","authorImage":null,"authorSlug":null,"score":209,"views":null,"sharedCount":null,"likeCount":null,"sharedContent":null,"parent":{"__typename":"HnJson","localize":[{"title":"F#为娱乐和利润：条款和条件","locale":"zh"},{"title":"F#爲娛樂和利潤：條款和條件","locale":"zh-Hant"}]}}]}},"pageContext":{"basePath":"/","pageType":"tag","tag":"Hacker News","tagsFilter":{"id":{"glob":"!*Post-1"}},"filter":{"id":{"glob":"!*Post-1"},"tags":{"eq":"Hacker News"}},"limit":25,"skip":1550,"total":2185,"totalPages":88,"currentPage":63,"maxWidth":1024,"maxHeight":512,"locale":"en","hrefLang":"en-US","originalPath":"/tags/hacker-news/page/63","dateFormat":"MM/DD/YYYY"}},"staticQueryHashes":["1239077767","2506312863","2744905544","3025052997","3493603132","3493603132","3513215887","386998304"]}