{"componentChunkName":"component---gatsby-theme-buzzing-src-gatsby-theme-timeline-templates-posts-query-js","path":"/zh-Hant/tags/hacker-news/page/11","result":{"data":{"site":{"siteMetadata":{"title":"Reddit 热门","description":"用中文浏览Reddit热门内容","social":[{"name":"Reddit","url":"https://www.reddit.com/","external":true,"prefetch":null},{"name":"GitHub","url":"https://github.com/gatsbyjs","external":null,"prefetch":null}],"menuLinks":[{"name":"每周精选","url":"/issues","external":null,"prefetch":null},{"name":"RSS","url":"/rss.xml","external":null,"prefetch":false}],"localize":[{"locale":"en","title":"Buzzing on Reddit","description":"See what's buzzing on Reddit in your native language","social":[{"name":"Reddit","url":"https://www.reddit.com/","external":true,"prefetch":null}],"menuLinks":[{"name":"Weekly Selection","url":"/issues","external":null,"prefetch":null},{"name":"RSS","url":"/rss.xml","external":null,"prefetch":false}]},{"locale":"zh-Hant","title":"Reddit 熱門","description":"用中文瀏覽Reddit熱門內容","social":null,"menuLinks":null}]}},"tagsGroup":{"group":[{"fieldValue":"ASK HN","totalCount":19},{"fieldValue":"Bitcoin","totalCount":3},{"fieldValue":"Hacker News","totalCount":801},{"fieldValue":"Poll","totalCount":1},{"fieldValue":"Show HN","totalCount":31},{"fieldValue":"investing","totalCount":166},{"fieldValue":"poll","totalCount":1},{"fieldValue":"reddit","totalCount":594},{"fieldValue":"science","totalCount":1},{"fieldValue":"stocks","totalCount":277},{"fieldValue":"story","totalCount":800},{"fieldValue":"tweet","totalCount":243},{"fieldValue":"wallstreetbets","totalCount":151}]},"allBlogPost":{"nodes":[{"__typename":"SocialMediaPost","id":"HnPost-25586565","excerpt":"","slug":"/hn/25586565","title":"Learn Quantum Computation","date":"December 31, 2020","dateISO":"2020-12-31T10:45:45.987Z","datetime":"2020-12-31 10:45","tags":["story","Hacker News"],"image":null,"imageAlt":null,"provider":"Hacker News","thirdPartyId":"25586565","url":"https://news.ycombinator.com/item?id=25586565","originalUrl":"https://qiskit.org/textbook/preface.html","imageRemote":"https://community.qiskit.org/textbook/images/preface_illustration.svg","video":null,"channel":null,"channelUrl":null,"author":"headalgorithm","authorUrl":"https://news.ycombinator.com/user?id=headalgorithm","authorImage":null,"authorSlug":null,"score":177,"views":null,"sharedCount":null,"likeCount":null,"sharedContent":null,"parent":{"__typename":"HnJson","localize":[{"title":"学习量子计算","locale":"zh"},{"title":"學習量子計算","locale":"zh-Hant"}]}},{"__typename":"SocialMediaPost","id":"HnPost-25590079","excerpt":"","slug":"/hn/25590079","title":"Linux Hardening Guide","date":"December 31, 2020","dateISO":"2020-12-31T09:46:21.527Z","datetime":"2020-12-31 09:46","tags":["story","Hacker News"],"image":null,"imageAlt":null,"provider":"Hacker News","thirdPartyId":"25590079","url":"https://news.ycombinator.com/item?id=25590079","originalUrl":"https://madaidans-insecurities.github.io/guides/linux-hardening.html","imageRemote":null,"video":null,"channel":null,"channelUrl":null,"author":"FlyMoreRockets","authorUrl":"https://news.ycombinator.com/user?id=FlyMoreRockets","authorImage":null,"authorSlug":null,"score":440,"views":null,"sharedCount":null,"likeCount":null,"sharedContent":null,"parent":{"__typename":"HnJson","localize":[{"title":"Linux强化指南","locale":"zh"},{"title":"Linux強化指南","locale":"zh-Hant"}]}},{"__typename":"SocialMediaPost","id":"HnPost-25579236","excerpt":"","slug":"/hn/25579236","title":"SBCL: New in Version 2.1.0","date":"December 31, 2020","dateISO":"2020-12-31T09:08:55.902Z","datetime":"2020-12-31 09:08","tags":["story","Hacker News"],"image":null,"imageAlt":null,"provider":"Hacker News","thirdPartyId":"25579236","url":"https://news.ycombinator.com/item?id=25579236","originalUrl":"http://www.sbcl.org/all-news.html#2.1.0","imageRemote":"http://sourceforge.net/sflogo.php?group_id=1373","video":null,"channel":null,"channelUrl":null,"author":"susam","authorUrl":"https://news.ycombinator.com/user?id=susam","authorImage":null,"authorSlug":null,"score":169,"views":null,"sharedCount":null,"likeCount":null,"sharedContent":null,"parent":{"__typename":"HnJson","localize":[{"title":"SBCL：2.1.0版中的新功能","locale":"zh"},{"title":"SBCL：2.1.0版中的新功能","locale":"zh-Hant"}]}},{"__typename":"SocialMediaPost","id":"HnPost-25588898","excerpt":"","slug":"/hn/25588898","title":"AWS Lambda Terraform Cookbook with working examples","date":"December 31, 2020","dateISO":"2020-12-31T07:48:04.036Z","datetime":"2020-12-31 07:48","tags":["story","Hacker News"],"image":null,"imageAlt":null,"provider":"Hacker News","thirdPartyId":"25588898","url":"https://news.ycombinator.com/item?id=25588898","originalUrl":"https://github.com/nsriram/lambda-the-terraform-way","imageRemote":"https://avatars3.githubusercontent.com/u/319714?s=400&v=4","video":null,"channel":null,"channelUrl":null,"author":"sriram_iyengar","authorUrl":"https://news.ycombinator.com/user?id=sriram_iyengar","authorImage":null,"authorSlug":null,"score":294,"views":null,"sharedCount":null,"likeCount":null,"sharedContent":null,"parent":{"__typename":"HnJson","localize":[{"title":"AWS Lambda Terraform Cookbook(带工作示例)","locale":"zh"},{"title":"AWS Lambda Terraform Cookbook(帶工作示例)","locale":"zh-Hant"}]}},{"__typename":"SocialMediaPost","id":"HnPost-25582979","excerpt":"","slug":"/hn/25582979","title":"The Cruise Ship Suicides","date":"December 31, 2020","dateISO":"2020-12-31T06:42:56.530Z","datetime":"2020-12-31 06:42","tags":["story","Hacker News"],"image":null,"imageAlt":null,"provider":"Hacker News","thirdPartyId":"25582979","url":"https://news.ycombinator.com/item?id=25582979","originalUrl":"https://www.bloomberg.com/features/2020-cruise-ship-suicides/","imageRemote":null,"video":null,"channel":null,"channelUrl":null,"author":"danso","authorUrl":"https://news.ycombinator.com/user?id=danso","authorImage":null,"authorSlug":null,"score":177,"views":null,"sharedCount":null,"likeCount":null,"sharedContent":null,"parent":{"__typename":"HnJson","localize":[{"title":"邮轮自杀事件","locale":"zh"},{"title":"郵輪自殺事件","locale":"zh-Hant"}]}},{"__typename":"SocialMediaPost","id":"HnPost-25582269","excerpt":"","slug":"/hn/25582269","title":"Things I Learnt in 2020","date":"December 31, 2020","dateISO":"2020-12-31T06:06:16.504Z","datetime":"2020-12-31 06:06","tags":["story","Hacker News"],"image":null,"imageAlt":null,"provider":"Hacker News","thirdPartyId":"25582269","url":"https://news.ycombinator.com/item?id=25582269","originalUrl":"https://drobinin.com/posts/things-i-learnt-in-2020/","imageRemote":"https://drobinin.com/assets/previews/things-i-learnt-in-2020.png","video":null,"channel":null,"channelUrl":null,"author":"valzevul","authorUrl":"https://news.ycombinator.com/user?id=valzevul","authorImage":null,"authorSlug":null,"score":212,"views":null,"sharedCount":null,"likeCount":null,"sharedContent":null,"parent":{"__typename":"HnJson","localize":[{"title":"我在2020年学到的东西","locale":"zh"},{"title":"我在2020年學到的東西","locale":"zh-Hant"}]}},{"__typename":"SocialMediaPost","id":"HnPost-25587765","excerpt":"","slug":"/hn/25587765","title":"HTML5 still doesn't replicate what mattered about Flash","date":"December 31, 2020","dateISO":"2020-12-31T05:49:03.546Z","datetime":"2020-12-31 05:49","tags":["story","Hacker News"],"image":null,"imageAlt":null,"provider":"Hacker News","thirdPartyId":"25587765","url":"https://news.ycombinator.com/item?id=25587765","originalUrl":"https://twitter.com/larsiusprime/status/1344404336252768257","imageRemote":null,"video":null,"channel":null,"channelUrl":null,"author":"tosh","authorUrl":"https://news.ycombinator.com/user?id=tosh","authorImage":null,"authorSlug":null,"score":365,"views":null,"sharedCount":null,"likeCount":null,"sharedContent":null,"parent":{"__typename":"HnJson","localize":[{"title":"HTML5仍然不能复制Flash的重要功能","locale":"zh"},{"title":"HTML5仍然不能複製Flash的重要功能","locale":"zh-Hant"}]}},{"__typename":"SocialMediaPost","id":"HnPost-25586063","excerpt":"","slug":"/hn/25586063","title":"Ditching Excel for Python in a legacy industry","date":"December 31, 2020","dateISO":"2020-12-31T04:51:30.058Z","datetime":"2020-12-31 04:51","tags":["story","Hacker News"],"image":null,"imageAlt":null,"provider":"Hacker News","thirdPartyId":"25586063","url":"https://news.ycombinator.com/item?id=25586063","originalUrl":"https://amypeniston.com/ditching-excel-for-python/","imageRemote":"https://amypeniston.com/downloads/ditching-excel-social-share.jpg","video":null,"channel":null,"channelUrl":null,"author":"afkmango","authorUrl":"https://news.ycombinator.com/user?id=afkmango","authorImage":null,"authorSlug":null,"score":296,"views":null,"sharedCount":null,"likeCount":null,"sharedContent":null,"parent":{"__typename":"HnJson","localize":[{"title":"在遗留行业中抛弃Excel，转而使用Python","locale":"zh"},{"title":"在遺留行業中拋棄Excel，轉而使用Python","locale":"zh-Hant"}]}},{"__typename":"SocialMediaPost","id":"HnPost-25586220","excerpt":"","slug":"/hn/25586220","title":"Flash Player is about to stop working on Windows 10","date":"December 31, 2020","dateISO":"2020-12-31T03:06:56.876Z","datetime":"2020-12-31 03:06","tags":["story","Hacker News"],"image":null,"imageAlt":null,"provider":"Hacker News","thirdPartyId":"25586220","url":"https://news.ycombinator.com/item?id=25586220","originalUrl":"https://www.windowslatest.com/2020/12/27/adobe-flash-player-is-about-to-stop-working-on-windows-10/","imageRemote":"https://www.windowslatest.com/wp-content/uploads/2020/12/Windows-10-Flash-Player.jpg","video":null,"channel":null,"channelUrl":null,"author":"muhahue","authorUrl":"https://news.ycombinator.com/user?id=muhahue","authorImage":null,"authorSlug":null,"score":210,"views":null,"sharedCount":null,"likeCount":null,"sharedContent":null,"parent":{"__typename":"HnJson","localize":[{"title":"Flash Player即将停止在Windows 10上运行","locale":"zh"},{"title":"Flash Player即將停止在Windows 10上運行","locale":"zh-Hant"}]}},{"__typename":"SocialMediaPost","id":"HnPost-25582962","excerpt":"","slug":"/hn/25582962","title":"Don't Use Protobuf for Telemetry","date":"December 31, 2020","dateISO":"2020-12-31T02:30:46.552Z","datetime":"2020-12-31 02:30","tags":["story","Hacker News"],"image":null,"imageAlt":null,"provider":"Hacker News","thirdPartyId":"25582962","url":"https://news.ycombinator.com/item?id=25582962","originalUrl":"https://richardstartin.github.io/posts/dont-use-protobuf-for-telemetry","imageRemote":null,"video":null,"channel":null,"channelUrl":null,"author":"simonpure","authorUrl":"https://news.ycombinator.com/user?id=simonpure","authorImage":null,"authorSlug":null,"score":222,"views":null,"sharedCount":null,"likeCount":null,"sharedContent":null,"parent":{"__typename":"HnJson","localize":[{"title":"请勿将Protobuf用于遥测","locale":"zh"},{"title":"請勿將Protobuf用於遙測","locale":"zh-Hant"}]}},{"__typename":"SocialMediaPost","id":"HnPost-25586861","excerpt":"","slug":"/hn/25586861","title":"Clams filter the water and check whether the water is polluted or clean","date":"December 31, 2020","dateISO":"2020-12-31T02:30:46.551Z","datetime":"2020-12-31 02:30","tags":["story","Hacker News"],"image":null,"imageAlt":null,"provider":"Hacker News","thirdPartyId":"25586861","url":"https://news.ycombinator.com/item?id=25586861","originalUrl":"https://www.polishnews.co.uk/poznan-the-clams-filter-the-water-they-check-whether-the-water-is-polluted-or-clean/","imageRemote":"https://www.polishnews.co.uk/wp-content/uploads/2020/09/1599995893_LANDSCAPE_1280.jpeg","video":null,"channel":null,"channelUrl":null,"author":"ta988","authorUrl":"https://news.ycombinator.com/user?id=ta988","authorImage":null,"authorSlug":null,"score":311,"views":null,"sharedCount":null,"likeCount":null,"sharedContent":null,"parent":{"__typename":"HnJson","localize":[{"title":"用蛤蜊将过滤放入水中，并检查水是污染的还是干净的","locale":"zh"},{"title":"用蛤蜊將過濾放入水中，並檢查水是污染的還是乾淨的","locale":"zh-Hant"}]}},{"__typename":"SocialMediaPost","id":"HnPost-25581064","excerpt":"","slug":"/hn/25581064","title":"Emotional headlines have an impact regardless of the credibility of the source","date":"December 31, 2020","dateISO":"2020-12-31T01:29:42.614Z","datetime":"2020-12-31 01:29","tags":["story","Hacker News"],"image":null,"imageAlt":null,"provider":"Hacker News","thirdPartyId":"25581064","url":"https://news.ycombinator.com/item?id=25581064","originalUrl":"https://www.hu-berlin.de/en/press-portal/nachrichten-en/december-2020/nr-201221","imageRemote":"https://www.hu-berlin.de/++resource++humboldt.logo.Logo.png","video":null,"channel":null,"channelUrl":null,"author":"rustoo","authorUrl":"https://news.ycombinator.com/user?id=rustoo","authorImage":null,"authorSlug":null,"score":230,"views":null,"sharedCount":null,"likeCount":null,"sharedContent":null,"parent":{"__typename":"HnJson","localize":[{"title":"不管消息来源的可信度如何，情绪化的标题都会产生影响","locale":"zh"},{"title":"不管消息來源的可信度如何，情緒化的標題都會產生影響","locale":"zh-Hant"}]}},{"__typename":"SocialMediaPost","id":"HnPost-25585833","excerpt":"","slug":"/hn/25585833","title":"Israeli startup claims Covid-19 likely originated in a lab, willing to bet on it","date":"December 31, 2020","dateISO":"2020-12-31T00:06:13.186Z","datetime":"2020-12-31 00:06","tags":["story","Hacker News"],"image":null,"imageAlt":null,"provider":"Hacker News","thirdPartyId":"25585833","url":"https://news.ycombinator.com/item?id=25585833","originalUrl":"https://www.rootclaim.com/analysis/what-is-the-source-of-covid-19-sars-cov-2","imageRemote":null,"video":null,"channel":null,"channelUrl":null,"author":"delbarital","authorUrl":"https://news.ycombinator.com/user?id=delbarital","authorImage":null,"authorSlug":null,"score":347,"views":null,"sharedCount":null,"likeCount":null,"sharedContent":null,"parent":{"__typename":"HnJson","localize":[{"title":"以色列初创公司声称冠状病毒可能起源于实验室，愿意押注于此","locale":"zh"},{"title":"以色列初創公司聲稱冠狀病毒可能起源於實驗室，願意押注於此","locale":"zh-Hant"}]}},{"__typename":"SocialMediaPost","id":"HnPost-25584720","excerpt":"","slug":"/hn/25584720","title":"How We Built the GitHub Globe","date":"December 30, 2020","dateISO":"2020-12-30T23:06:49.046Z","datetime":"2020-12-30 23:06","tags":["story","Hacker News"],"image":null,"imageAlt":null,"provider":"Hacker News","thirdPartyId":"25584720","url":"https://news.ycombinator.com/item?id=25584720","originalUrl":"https://github.blog/2020-12-21-how-we-built-the-github-globe/","imageRemote":"https://github.blog/wp-content/uploads/2020/12/102393310-07478b80-3f8d-11eb-84eb-392d555ebd29.png?fit=1200%2C630","video":null,"channel":null,"channelUrl":null,"author":"scalableUnicon","authorUrl":"https://news.ycombinator.com/user?id=scalableUnicon","authorImage":null,"authorSlug":null,"score":360,"views":null,"sharedCount":null,"likeCount":null,"sharedContent":null,"parent":{"__typename":"HnJson","localize":[{"title":"我们是如何建设GitHub Globe的","locale":"zh"},{"title":"我們是如何建設GitHub Globe的","locale":"zh-Hant"}]}},{"__typename":"SocialMediaPost","id":"HnPost-25585624","excerpt":"","slug":"/hn/25585624","title":"Baltimore police lied about almost every aspect of its spy plane program","date":"December 30, 2020","dateISO":"2020-12-30T23:06:49.046Z","datetime":"2020-12-30 23:06","tags":["story","Hacker News"],"image":null,"imageAlt":null,"provider":"Hacker News","thirdPartyId":"25585624","url":"https://news.ycombinator.com/item?id=25585624","originalUrl":"https://www.vice.com/en/article/qjpjqd/baltimore-police-lied-about-almost-every-aspect-of-its-spy-plane-program","imageRemote":"https://video-images.vice.com/articles/5fd03eb33490fb009b570498/lede/1607533021588-gettyimages-628396218.jpeg?image-resize-opts=Y3JvcD0xeHc6MC44NDM2NDQ1NDQ0MzE5NDZ4aDtjZW50ZXIsY2VudGVyJnJlc2l6ZT0xMjAwOiomcmVzaXplPTEyMDA6Kg","video":null,"channel":null,"channelUrl":null,"author":"jbegley","authorUrl":"https://news.ycombinator.com/user?id=jbegley","authorImage":null,"authorSlug":null,"score":218,"views":null,"sharedCount":null,"likeCount":null,"sharedContent":null,"parent":{"__typename":"HnJson","localize":[{"title":"巴尔的摩警方几乎在间谍飞机计划的每一个方面都撒了谎","locale":"zh"},{"title":"巴爾的摩警方几乎在間諜飛機計劃的每一個方面都撒了謊","locale":"zh-Hant"}]}},{"__typename":"SocialMediaPost","id":"HnPost-25580637","excerpt":"","slug":"/hn/25580637","title":"Ask HN: What's a side project you built to make money that hasn't?","date":"December 30, 2020","dateISO":"2020-12-30T22:01:41.712Z","datetime":"2020-12-30 22:01","tags":["story","ASK HN","Hacker News"],"image":null,"imageAlt":null,"provider":"Hacker News","thirdPartyId":"25580637","url":"https://news.ycombinator.com/item?id=25580637","originalUrl":"https://news.ycombinator.com/item?id=25580637","imageRemote":null,"video":null,"channel":"ASK HN","channelUrl":"https://news.ycombinator.com/ask","author":"notoriousarun","authorUrl":"https://news.ycombinator.com/user?id=notoriousarun","authorImage":null,"authorSlug":null,"score":418,"views":null,"sharedCount":null,"likeCount":null,"sharedContent":null,"parent":{"__typename":"HnJson","localize":[{"title":"HN提问：你为了赚钱而建造的副业是什么？","locale":"zh"},{"title":"HN提問：你爲了賺錢而建造的副業是什麼？","locale":"zh-Hant"}]}},{"__typename":"SocialMediaPost","id":"HnPost-25582746","excerpt":"","slug":"/hn/25582746","title":"GHC 9.0, supporting linear types","date":"December 30, 2020","dateISO":"2020-12-30T22:01:41.712Z","datetime":"2020-12-30 22:01","tags":["story","Hacker News"],"image":null,"imageAlt":null,"provider":"Hacker News","thirdPartyId":"25582746","url":"https://news.ycombinator.com/item?id=25582746","originalUrl":"https://discourse.haskell.org/t/glasgow-haskell-compiler-9-0-1-rc1-now-available/1706","imageRemote":"https://discourse.haskell.org/uploads/default/original/1X/89166504e40f4869ea825dd70048017861ec8578.png","video":null,"channel":null,"channelUrl":null,"author":"cosmic_quanta","authorUrl":"https://news.ycombinator.com/user?id=cosmic_quanta","authorImage":null,"authorSlug":null,"score":299,"views":null,"sharedCount":null,"likeCount":null,"sharedContent":null,"parent":{"__typename":"HnJson","localize":[{"title":"GHC 9.0，支持线性类型","locale":"zh"},{"title":"GHC 9.0，支持線性類型","locale":"zh-Hant"}]}},{"__typename":"SocialMediaPost","id":"HnPost-25584449","excerpt":"","slug":"/hn/25584449","title":"Scammers siphoned $36B in fraudulent unemployment payments from US","date":"December 30, 2020","dateISO":"2020-12-30T21:23:56.349Z","datetime":"2020-12-30 21:23","tags":["story","Hacker News"],"image":null,"imageAlt":null,"provider":"Hacker News","thirdPartyId":"25584449","url":"https://news.ycombinator.com/item?id=25584449","originalUrl":"https://www.usatoday.com/in-depth/news/investigations/2020/12/30/unemployment-fraud-how-international-scammers-took-36-b-us/3960263001/","imageRemote":"https://www.gannett-cdn.com/-mm-/d8d0774057d19139d16e6ede624d76e89947662d/c=1-0-1365-767/local/-/media/2020/12/11/USATODAY/usatsports/imageforentry20-a4t.jpg?width=1200","video":null,"channel":null,"channelUrl":null,"author":"andygcook","authorUrl":"https://news.ycombinator.com/user?id=andygcook","authorImage":null,"authorSlug":null,"score":216,"views":null,"sharedCount":null,"likeCount":null,"sharedContent":null,"parent":{"__typename":"HnJson","localize":[{"title":"骗子从美国骗取了360亿美元的欺诈性失业救济金","locale":"zh"},{"title":"騙子從美國騙取了360億美元的欺詐性失業救濟金","locale":"zh-Hant"}]}},{"__typename":"SocialMediaPost","id":"HnPost-25582356","excerpt":"","slug":"/hn/25582356","title":"The Impossible Mirror Scene in 'Contact'","date":"December 30, 2020","dateISO":"2020-12-30T20:05:39.901Z","datetime":"2020-12-30 20:05","tags":["story","Hacker News"],"image":null,"imageAlt":null,"provider":"Hacker News","thirdPartyId":"25582356","url":"https://news.ycombinator.com/item?id=25582356","originalUrl":"https://filmschoolrejects.com/contact-mirror-scene/","imageRemote":"https://filmschoolrejects.com/wp-content/uploads/2020/08/Contact-Young-Ellie-Mirror.png","video":null,"channel":null,"channelUrl":null,"author":"blindm","authorUrl":"https://news.ycombinator.com/user?id=blindm","authorImage":null,"authorSlug":null,"score":213,"views":null,"sharedCount":null,"likeCount":null,"sharedContent":null,"parent":{"__typename":"HnJson","localize":[{"title":"“接触”中不可能的镜子场景","locale":"zh"},{"title":"“接觸”中不可能的鏡子場景","locale":"zh-Hant"}]}},{"__typename":"SocialMediaPost","id":"HnPost-25583775","excerpt":"","slug":"/hn/25583775","title":"Four-day week means 'I don't waste holidays on chores'","date":"December 30, 2020","dateISO":"2020-12-30T19:12:21.651Z","datetime":"2020-12-30 19:12","tags":["story","Hacker News"],"image":null,"imageAlt":null,"provider":"Hacker News","thirdPartyId":"25583775","url":"https://news.ycombinator.com/item?id=25583775","originalUrl":"https://www.bbc.co.uk/news/business-55485010","imageRemote":"https://ichef.bbci.co.uk/news/1024/branded_news/16D0A/production/_116305439_philitworker.jpg","video":null,"channel":null,"channelUrl":null,"author":"edward","authorUrl":"https://news.ycombinator.com/user?id=edward","authorImage":null,"authorSlug":null,"score":554,"views":null,"sharedCount":null,"likeCount":null,"sharedContent":null,"parent":{"__typename":"HnJson","localize":[{"title":"每周工作四天意味着“我不会把假期浪费在家务上”","locale":"zh"},{"title":"每週工作四天意味着“我不會把假期浪費在家務上”","locale":"zh-Hant"}]}},{"__typename":"SocialMediaPost","id":"HnPost-25580701","excerpt":"","slug":"/hn/25580701","title":"“Find Satoshi” PerplexCity puzzle solved","date":"December 30, 2020","dateISO":"2020-12-30T18:25:59.320Z","datetime":"2020-12-30 18:25","tags":["story","Hacker News"],"image":null,"imageAlt":null,"provider":"Hacker News","thirdPartyId":"25580701","url":"https://news.ycombinator.com/item?id=25580701","originalUrl":"https://findsatoshi.com/","imageRemote":"https://findsatoshi.files.wordpress.com/2011/04/satoshi.jpg","video":null,"channel":null,"channelUrl":null,"author":"teamonkey","authorUrl":"https://news.ycombinator.com/user?id=teamonkey","authorImage":null,"authorSlug":null,"score":246,"views":null,"sharedCount":null,"likeCount":null,"sharedContent":null,"parent":{"__typename":"HnJson","localize":[{"title":"“寻找智者”之谜破解","locale":"zh"},{"title":"“尋找智者”之謎破解","locale":"zh-Hant"}]}},{"__typename":"SocialMediaPost","id":"HnPost-25581487","excerpt":"","slug":"/hn/25581487","title":"IntelliJ Idea 2020.3.1 Is Out with Apple Silicon Support","date":"December 30, 2020","dateISO":"2020-12-30T18:25:59.320Z","datetime":"2020-12-30 18:25","tags":["story","Hacker News"],"image":null,"imageAlt":null,"provider":"Hacker News","thirdPartyId":"25581487","url":"https://news.ycombinator.com/item?id=25581487","originalUrl":"https://blog.jetbrains.com/idea/2020/12/intellij-idea-2020-3-1/","imageRemote":"https://blog.jetbrains.com/wp-content/uploads/2019/02/intellij-idea_social.png","video":null,"channel":null,"channelUrl":null,"author":"jmnicolas","authorUrl":"https://news.ycombinator.com/user?id=jmnicolas","authorImage":null,"authorSlug":null,"score":220,"views":null,"sharedCount":null,"likeCount":null,"sharedContent":null,"parent":{"__typename":"HnJson","localize":[{"title":"IntelliJ IDEA 2020.3.1推出Apple Silicon支持","locale":"zh"},{"title":"IntelliJ IDEA 2020.3.1推出Apple Silicon支持","locale":"zh-Hant"}]}},{"__typename":"SocialMediaPost","id":"HnPost-25581727","excerpt":"","slug":"/hn/25581727","title":"Amazon still hasn’t fixed its problem with bait-and-switch reviews","date":"December 30, 2020","dateISO":"2020-12-30T16:56:26.186Z","datetime":"2020-12-30 16:56","tags":["story","Hacker News"],"image":null,"imageAlt":null,"provider":"Hacker News","thirdPartyId":"25581727","url":"https://news.ycombinator.com/item?id=25581727","originalUrl":"https://arstechnica.com/tech-policy/2020/12/amazon-still-hasnt-fixed-its-problem-with-bait-and-switch-reviews","imageRemote":"https://cdn.arstechnica.net/wp-content/uploads/2020/12/PXL_20201228_214755210-760x380.jpg","video":null,"channel":null,"channelUrl":null,"author":"Carducci","authorUrl":"https://news.ycombinator.com/user?id=Carducci","authorImage":null,"authorSlug":null,"score":496,"views":null,"sharedCount":null,"likeCount":null,"sharedContent":null,"parent":{"__typename":"HnJson","localize":[{"title":"亚马逊仍然没有解决诱饵和切换评论的问题","locale":"zh"},{"title":"亞馬遜仍然沒有解決誘餌和切換評論的問題","locale":"zh-Hant"}]}},{"__typename":"SocialMediaPost","id":"HnPost-25582187","excerpt":"","slug":"/hn/25582187","title":"Show HN: PSX Party – Online Multiplayer Playstation 1 Emulator Using WebRTC","date":"December 30, 2020","dateISO":"2020-12-30T16:56:26.186Z","datetime":"2020-12-30 16:56","tags":["story","Show HN","Hacker News"],"image":null,"imageAlt":null,"provider":"Hacker News","thirdPartyId":"25582187","url":"https://news.ycombinator.com/item?id=25582187","originalUrl":"https://psxparty.kosmi.io/?ref=hn1","imageRemote":null,"video":null,"channel":"Show HN","channelUrl":"https://news.ycombinator.com/show","author":"hauxir","authorUrl":"https://news.ycombinator.com/user?id=hauxir","authorImage":null,"authorSlug":null,"score":655,"views":null,"sharedCount":null,"likeCount":null,"sharedContent":null,"parent":{"__typename":"HnJson","localize":[{"title":"HN新产品：PSXParty-使用WebRTC的在线多人PlayStation1仿真器","locale":"zh"},{"title":"HN新產品：PSXParty-使用WebRTC的在線多人PlayStation1仿真器","locale":"zh-Hant"}]}},{"__typename":"SocialMediaPost","id":"HnPost-25580861","excerpt":"","slug":"/hn/25580861","title":"Nintendo's use of surveillance and private investigators to target modders","date":"December 30, 2020","dateISO":"2020-12-30T16:00:53.882Z","datetime":"2020-12-30 16:00","tags":["story","Hacker News"],"image":null,"imageAlt":null,"provider":"Hacker News","thirdPartyId":"25580861","url":"https://news.ycombinator.com/item?id=25580861","originalUrl":"https://twitter.com/eclipse_tt/status/1341187958838321158","imageRemote":null,"video":null,"channel":null,"channelUrl":null,"author":"areoform","authorUrl":"https://news.ycombinator.com/user?id=areoform","authorImage":null,"authorSlug":null,"score":263,"views":null,"sharedCount":null,"likeCount":null,"sharedContent":null,"parent":{"__typename":"HnJson","localize":[{"title":"任天堂使用监控和私家侦探瞄准改造者","locale":"zh"},{"title":"任天堂使用監控和私家偵探瞄準改造者","locale":"zh-Hant"}]}}]}},"pageContext":{"basePath":"/","pageType":"tag","tag":"Hacker News","tagsFilter":{"id":{"glob":"!*Post-1"}},"filter":{"id":{"glob":"!*Post-1"},"tags":{"eq":"Hacker News"}},"limit":25,"skip":250,"total":801,"totalPages":33,"currentPage":11,"maxWidth":1024,"maxHeight":512,"locale":"zh-Hant","hrefLang":"zh-Hant","originalPath":"/tags/hacker-news/page/11","dateFormat":"YYYY-MM-DD"}},"staticQueryHashes":["1239077767","1684688348","2506312863","2744905544","3493603132","3493603132","386998304"]}