{"componentChunkName":"component---gatsby-theme-buzzing-src-gatsby-theme-timeline-templates-posts-query-js","path":"/zh-Hant/tags/ask-hn/page/3","result":{"data":{"site":{"siteMetadata":{"title":"Reddit 热门","description":"用中文浏览Reddit热门内容","social":[{"name":"Twitter","url":"https://twitter.com/gatsbyjs","external":null,"prefetch":null},{"name":"GitHub","url":"https://github.com/gatsbyjs","external":null,"prefetch":null}],"menuLinks":[],"localize":[{"locale":"en","title":"Buzzing on Reddit","description":"See what's buzzing on Reddit in your native language","social":[{"name":"Reddit","url":"https://www.reddit.com/","external":true,"prefetch":null}],"menuLinks":[{"name":"Weekly Selection","url":"/issues","external":null,"prefetch":null},{"name":"RSS","url":"/rss.xml","external":null,"prefetch":false}]},{"locale":"zh-Hant","title":"Reddit 熱門","description":"用中文瀏覽Reddit熱門內容","social":null,"menuLinks":null}]}},"tagsGroup":{"group":[{"fieldValue":"ASK HN","totalCount":54},{"fieldValue":"Hacker News","totalCount":3105},{"fieldValue":"Poll","totalCount":1},{"fieldValue":"Show HN","totalCount":100},{"fieldValue":"poll","totalCount":1},{"fieldValue":"story","totalCount":3104}]},"allBlogPost":{"nodes":[{"__typename":"SocialMediaPost","id":"HnPost-25537230","excerpt":"","slug":"/hn/25537230","title":"Ask HN: Best Talks of 2020?","date":"December 25, 2020","dateISO":"2020-12-25T17:16:20.999Z","datetime":"2020-12-25 17:16","tags":["story","ASK HN","Hacker News"],"image":null,"imageAlt":null,"provider":"Hacker News","thirdPartyId":"25537230","url":"https://news.ycombinator.com/item?id=25537230","originalUrl":"https://news.ycombinator.com/item?id=25537230","imageRemote":null,"video":null,"channel":"ASK HN","channelUrl":"https://news.ycombinator.com/ask","author":"sid6376","authorUrl":"https://news.ycombinator.com/user?id=sid6376","authorImage":null,"authorSlug":null,"score":726,"views":null,"sharedCount":null,"likeCount":null,"sharedContent":null,"parent":{"__typename":"HnJson","localize":[{"title":"HN提问：2020年最佳演讲？","locale":"zh"},{"title":"HN提問：2020年最佳演講？","locale":"zh-Hant"}]}},{"__typename":"SocialMediaPost","id":"HnPost-25525457","excerpt":"","slug":"/hn/25525457","title":"Ask HN: What Lived Up to the Hype?","date":"December 24, 2020","dateISO":"2020-12-24T16:04:47.202Z","datetime":"2020-12-24 16:04","tags":["story","ASK HN","Hacker News"],"image":null,"imageAlt":null,"provider":"Hacker News","thirdPartyId":"25525457","url":"https://news.ycombinator.com/item?id=25525457","originalUrl":"https://news.ycombinator.com/item?id=25525457","imageRemote":null,"video":null,"channel":"ASK HN","channelUrl":"https://news.ycombinator.com/ask","author":"karamazov","authorUrl":"https://news.ycombinator.com/user?id=karamazov","authorImage":null,"authorSlug":null,"score":423,"views":null,"sharedCount":null,"likeCount":null,"sharedContent":null,"parent":{"__typename":"HnJson","localize":[{"title":"HN提问：是什么没有辜负炒作？","locale":"zh"},{"title":"HN提問：是什麼沒有辜負炒作？","locale":"zh-Hant"}]}},{"__typename":"SocialMediaPost","id":"HnPost-25506593","excerpt":"","slug":"/hn/25506593","title":"Ask HN: Co-founder wants me to leave but won't entertain a buy out offer","date":"December 22, 2020","dateISO":"2020-12-22T19:06:11.852Z","datetime":"2020-12-22 19:06","tags":["story","ASK HN","Hacker News"],"image":null,"imageAlt":null,"provider":"Hacker News","thirdPartyId":"25506593","url":"https://news.ycombinator.com/item?id=25506593","originalUrl":"https://news.ycombinator.com/item?id=25506593","imageRemote":null,"video":null,"channel":"ASK HN","channelUrl":"https://news.ycombinator.com/ask","author":"fortydegrees","authorUrl":"https://news.ycombinator.com/user?id=fortydegrees","authorImage":null,"authorSlug":null,"score":399,"views":null,"sharedCount":null,"likeCount":null,"sharedContent":null,"parent":{"__typename":"HnJson","localize":[{"title":"HN提问：联合创始人希望我离开，但不会考虑收购要约","locale":"zh"},{"title":"HN提問：聯合創始人希望我離開，但不會考慮收購要約","locale":"zh-Hant"}]}},{"__typename":"SocialMediaPost","id":"HnPost-25441664","excerpt":"","slug":"/hn/25441664","title":"Ask HN: I want to start learning Lisp. Where do I begin?","date":"December 17, 2020","dateISO":"2020-12-17T12:17:48.070Z","datetime":"2020-12-17 12:17","tags":["story","ASK HN","Hacker News"],"image":null,"imageAlt":null,"provider":"Hacker News","thirdPartyId":"25441664","url":"https://news.ycombinator.com/item?id=25441664","originalUrl":"https://news.ycombinator.com/item?id=25441664","imageRemote":null,"video":null,"channel":"ASK HN","channelUrl":"https://news.ycombinator.com/ask","author":"priyanshuraj","authorUrl":"https://news.ycombinator.com/user?id=priyanshuraj","authorImage":null,"authorSlug":null,"score":222,"views":null,"sharedCount":null,"likeCount":null,"sharedContent":null,"parent":{"__typename":"HnJson","localize":[{"title":"问HN：我想开始学习Lisp。我该从哪里开始呢？","locale":"zh"},{"title":"問HN：我想開始學習Lisp。我該從哪裏開始呢？","locale":"zh-Hant"}]}}]}},"pageContext":{"basePath":"/","pageType":"tag","tag":"ASK HN","tagsFilter":{"id":{"glob":"!*Post-1"}},"filter":{"id":{"glob":"!*Post-1"},"tags":{"eq":"ASK HN"}},"limit":25,"skip":50,"total":54,"totalPages":3,"currentPage":3,"maxWidth":1024,"maxHeight":512,"locale":"zh-Hant","hrefLang":"zh-Hant","originalPath":"/tags/ask-hn/page/3","dateFormat":"YYYY-MM-DD"}},"staticQueryHashes":["1239077767","2506312863","2744905544","3025052997","3493603132","3493603132","3513215887","386998304"]}