{"componentChunkName":"component---gatsby-theme-buzzing-src-gatsby-theme-timeline-templates-posts-query-js","path":"/tags/hacker-news/page/34","result":{"data":{"site":{"siteMetadata":{"title":"Reddit 热门","description":"用中文浏览Reddit热门内容","social":[{"name":"Reddit","url":"https://www.reddit.com/","external":true,"prefetch":null},{"name":"GitHub","url":"https://github.com/gatsbyjs","external":null,"prefetch":null}],"menuLinks":[{"name":"每周精选","url":"/issues","external":null,"prefetch":null},{"name":"RSS","url":"/rss.xml","external":null,"prefetch":false}],"localize":[{"locale":"en","title":"Buzzing on Reddit","description":"See what's buzzing on Reddit in your native language","social":[{"name":"Reddit","url":"https://www.reddit.com/","external":true,"prefetch":null}],"menuLinks":[{"name":"Weekly Selection","url":"/issues","external":null,"prefetch":null},{"name":"RSS","url":"/rss.xml","external":null,"prefetch":false}]},{"locale":"zh-Hant","title":"Reddit 熱門","description":"用中文瀏覽Reddit熱門內容","social":null,"menuLinks":null}]}},"tagsGroup":{"group":[{"fieldValue":"ASK HN","totalCount":20},{"fieldValue":"Bitcoin","totalCount":3},{"fieldValue":"Hacker News","totalCount":896},{"fieldValue":"Poll","totalCount":1},{"fieldValue":"Show HN","totalCount":34},{"fieldValue":"investing","totalCount":189},{"fieldValue":"poll","totalCount":1},{"fieldValue":"reddit","totalCount":720},{"fieldValue":"science","totalCount":1},{"fieldValue":"stocks","totalCount":319},{"fieldValue":"story","totalCount":895},{"fieldValue":"tweet","totalCount":269},{"fieldValue":"wallstreetbets","totalCount":212}]},"allBlogPost":{"nodes":[{"__typename":"SocialMediaPost","id":"HnPost-25458873","excerpt":"","slug":"/hn/25458873","title":"Coinbase announces confidential submission of draft registration statement","date":"December 17, 2020","dateISO":"2020-12-17T20:57:24.768Z","datetime":"2020-12-17 20:57","tags":["story","Hacker News"],"image":null,"imageAlt":null,"provider":"Hacker News","thirdPartyId":"25458873","url":"https://news.ycombinator.com/item?id=25458873","originalUrl":"https://blog.coinbase.com/coinbase-announces-confidential-submission-of-draft-registration-statement-b140a9dfc9f5","imageRemote":null,"video":null,"channel":null,"channelUrl":null,"author":"sinak","authorUrl":"https://news.ycombinator.com/user?id=sinak","authorImage":null,"authorSlug":null,"score":182,"views":null,"sharedCount":null,"likeCount":null,"sharedContent":null,"parent":{"__typename":"HnJson","localize":[{"title":"Coinbase宣布保密的深渊翻滚注册声明草案","locale":"zh"},{"title":"Coinbase宣佈保密的深淵翻滾註冊聲明草案","locale":"zh-Hant"}]}},{"__typename":"SocialMediaPost","id":"HnPost-25459434","excerpt":"","slug":"/hn/25459434","title":"Amazon disallows pointing out paid reviews","date":"December 17, 2020","dateISO":"2020-12-17T20:57:24.768Z","datetime":"2020-12-17 20:57","tags":["story","Hacker News"],"image":null,"imageAlt":null,"provider":"Hacker News","thirdPartyId":"25459434","url":"https://news.ycombinator.com/item?id=25459434","originalUrl":"http://blog.kevmod.com/2020/12/amazon-disallows-pointing-out-paid-reviews/","imageRemote":"http://blog.kevmod.com/wp-content/uploads/2020/12/IMG_16902.jpg","video":null,"channel":null,"channelUrl":null,"author":"kmod","authorUrl":"https://news.ycombinator.com/user?id=kmod","authorImage":null,"authorSlug":null,"score":1085,"views":null,"sharedCount":null,"likeCount":null,"sharedContent":null,"parent":{"__typename":"HnJson","localize":[{"title":"亚马逊不允许指出付费评论","locale":"zh"},{"title":"亞馬遜不允許指出付費評論","locale":"zh-Hant"}]}},{"__typename":"SocialMediaPost","id":"HnPost-25455068","excerpt":"","slug":"/hn/25455068","title":"Emails show Navy's 'UFO' patents went through significant internal review","date":"December 17, 2020","dateISO":"2020-12-17T20:34:34.723Z","datetime":"2020-12-17 20:34","tags":["story","Hacker News"],"image":null,"imageAlt":null,"provider":"Hacker News","thirdPartyId":"25455068","url":"https://news.ycombinator.com/item?id=25455068","originalUrl":"https://www.thedrive.com/the-war-zone/37134/emails-show-navys-ufo-patents-went-through-significant-internal-review-resulted-in-a-demo","imageRemote":"https://api.thedrive.com/wp-content/uploads/2020/12/Pais-top-shot.jpg?quality=85","video":null,"channel":null,"channelUrl":null,"author":"weare138","authorUrl":"https://news.ycombinator.com/user?id=weare138","authorImage":null,"authorSlug":null,"score":155,"views":null,"sharedCount":null,"likeCount":null,"sharedContent":null,"parent":{"__typename":"HnJson","localize":[{"title":"电子邮件显示海军的“UFO”专利经过了重要的内部审查","locale":"zh"},{"title":"電子郵件顯示海軍的“UFO”專利經過了重要的內部審查","locale":"zh-Hant"}]}},{"__typename":"SocialMediaPost","id":"HnPost-25456002","excerpt":"","slug":"/hn/25456002","title":"Philosophy of the GNU Project (2018)","date":"December 17, 2020","dateISO":"2020-12-17T19:23:09.030Z","datetime":"2020-12-17 19:23","tags":["story","Hacker News"],"image":null,"imageAlt":null,"provider":"Hacker News","thirdPartyId":"25456002","url":"https://news.ycombinator.com/item?id=25456002","originalUrl":"https://www.gnu.org/philosophy/philosophy.html","imageRemote":"https://www.gnu.org/server/banners/fence.png","video":null,"channel":null,"channelUrl":null,"author":"crazypython","authorUrl":"https://news.ycombinator.com/user?id=crazypython","authorImage":null,"authorSlug":null,"score":138,"views":null,"sharedCount":null,"likeCount":null,"sharedContent":null,"parent":{"__typename":"HnJson","localize":[{"title":"GNU项目理念(2018)","locale":"zh"},{"title":"GNU項目理念(2018)","locale":"zh-Hant"}]}},{"__typename":"SocialMediaPost","id":"HnPost-25456778","excerpt":"","slug":"/hn/25456778","title":"Biomarker of Alzheimer's found to be regulated by sleep cycles","date":"December 17, 2020","dateISO":"2020-12-17T19:23:09.030Z","datetime":"2020-12-17 19:23","tags":["story","Hacker News"],"image":null,"imageAlt":null,"provider":"Hacker News","thirdPartyId":"25456778","url":"https://news.ycombinator.com/item?id=25456778","originalUrl":"https://newatlas.com/medical/biomarker-alzheimers-protein-sleep-cycles-rhythm/","imageRemote":"https://assets.newatlas.com/dims4/default/28623f4/2147483647/strip/true/crop/700x368+0+50/resize/1200x630!/quality/90/?url=http%3A%2F%2Fnewatlas-brightspot.s3.amazonaws.com%2F41%2F42%2F20f8ded24888ba0fa89e7212d85b%2Flananna-et-al-fig-5a-forweb-700x467.jpg","video":null,"channel":null,"channelUrl":null,"author":"CapitalistCartr","authorUrl":"https://news.ycombinator.com/user?id=CapitalistCartr","authorImage":null,"authorSlug":null,"score":270,"views":null,"sharedCount":null,"likeCount":null,"sharedContent":null,"parent":{"__typename":"HnJson","localize":[{"title":"阿尔茨海默氏症的生物标记物被发现受睡眠周期调节","locale":"zh"},{"title":"阿爾茨海默氏症的生物標記物被發現受睡眠週期調節","locale":"zh-Hant"}]}},{"__typename":"SocialMediaPost","id":"HnPost-25458033","excerpt":"","slug":"/hn/25458033","title":"Sick of spending time on Auth, we built an open source 'Stripe for Auth'","date":"December 17, 2020","dateISO":"2020-12-17T19:23:09.030Z","datetime":"2020-12-17 19:23","tags":["story","Hacker News"],"image":null,"imageAlt":null,"provider":"Hacker News","thirdPartyId":"25458033","url":"https://news.ycombinator.com/item?id=25458033","originalUrl":"https://news.ycombinator.com/item?id=25458033","imageRemote":null,"video":null,"channel":null,"channelUrl":null,"author":"advaitruia","authorUrl":"https://news.ycombinator.com/user?id=advaitruia","authorImage":null,"authorSlug":null,"score":545,"views":null,"sharedCount":null,"likeCount":null,"sharedContent":null,"parent":{"__typename":"HnJson","localize":[{"title":"厌倦了在Auth上花费时间，我们构建了一个开放源码的‘Strike for Auth’","locale":"zh"},{"title":"厭倦了在Auth上花費時間，我們構建了一個開放源碼的‘Strike for Auth’","locale":"zh-Hant"}]}},{"__typename":"SocialMediaPost","id":"HnPost-25455659","excerpt":"","slug":"/hn/25455659","title":"Show HN: Make comic book layouts in the browser","date":"December 17, 2020","dateISO":"2020-12-17T19:00:03.709Z","datetime":"2020-12-17 19:00","tags":["story","Show HN","Hacker News"],"image":null,"imageAlt":null,"provider":"Hacker News","thirdPartyId":"25455659","url":"https://news.ycombinator.com/item?id=25455659","originalUrl":"https://andrewfulrich.gitlab.io/panelle/","imageRemote":"https://andrewfulrich.gitlab.io/panelle/images/pointerIcon.svg","video":null,"channel":"Show HN","channelUrl":"https://news.ycombinator.com/show","author":"TiredGuy","authorUrl":"https://news.ycombinator.com/user?id=TiredGuy","authorImage":null,"authorSlug":null,"score":192,"views":null,"sharedCount":null,"likeCount":null,"sharedContent":null,"parent":{"__typename":"HnJson","localize":[{"title":"HN新产品：在浏览器中进行漫画书布局","locale":"zh"},{"title":"HN新产品：在瀏覽器中進行漫畫書佈局","locale":"zh-Hant"}]}},{"__typename":"SocialMediaPost","id":"HnPost-25457411","excerpt":"","slug":"/hn/25457411","title":"Global chip shortage threatens production of laptops, smartphones and more","date":"December 17, 2020","dateISO":"2020-12-17T19:00:03.709Z","datetime":"2020-12-17 19:00","tags":["story","Hacker News"],"image":null,"imageAlt":null,"provider":"Hacker News","thirdPartyId":"25457411","url":"https://news.ycombinator.com/item?id=25457411","originalUrl":"https://www.reuters.com/article/idUSKBN28R0ZL","imageRemote":"https://static.reuters.com/resources/r/?m=02&d=20201217&t=2&i=1544896623&r=LYNXMPEGBG0LH&w=800","video":null,"channel":null,"channelUrl":null,"author":"neogodless","authorUrl":"https://news.ycombinator.com/user?id=neogodless","authorImage":null,"authorSlug":null,"score":184,"views":null,"sharedCount":null,"likeCount":null,"sharedContent":null,"parent":{"__typename":"HnJson","localize":[{"title":"全球芯片短缺威胁到笔记本电脑、智能手机等的生产","locale":"zh"},{"title":"全球芯片短缺威脅到筆記本電腦、智能手機等的生產","locale":"zh-Hant"}]}},{"__typename":"SocialMediaPost","id":"HnPost-25454837","excerpt":"","slug":"/hn/25454837","title":"Lessons from building and growing an open source SaaS","date":"December 17, 2020","dateISO":"2020-12-17T17:46:09.555Z","datetime":"2020-12-17 17:46","tags":["story","Hacker News"],"image":null,"imageAlt":null,"provider":"Hacker News","thirdPartyId":"25454837","url":"https://news.ycombinator.com/item?id=25454837","originalUrl":"https://plausible.io/blog/building-open-source","imageRemote":"https://plausible.io/uploads/growing-open-source.png","video":null,"channel":null,"channelUrl":null,"author":"markosaric","authorUrl":"https://news.ycombinator.com/user?id=markosaric","authorImage":null,"authorSlug":null,"score":173,"views":null,"sharedCount":null,"likeCount":null,"sharedContent":null,"parent":{"__typename":"HnJson","localize":[{"title":"构建和发展开源SaaS的经验教训","locale":"zh"},{"title":"構建和發展開源SaaS的經驗教訓","locale":"zh-Hant"}]}},{"__typename":"SocialMediaPost","id":"HnPost-25457440","excerpt":"","slug":"/hn/25457440","title":"No Cookie for You","date":"December 17, 2020","dateISO":"2020-12-17T17:46:09.555Z","datetime":"2020-12-17 17:46","tags":["story","Hacker News"],"image":null,"imageAlt":null,"provider":"Hacker News","thirdPartyId":"25457440","url":"https://news.ycombinator.com/item?id=25457440","originalUrl":"https://github.blog/2020-12-17-no-cookie-for-you/","imageRemote":"https://github.blog/wp-content/uploads/2020/12/github-no-cookie.png?fit=2400%2C1260","video":null,"channel":null,"channelUrl":null,"author":"todsacerdoti","authorUrl":"https://news.ycombinator.com/user?id=todsacerdoti","authorImage":null,"authorSlug":null,"score":2940,"views":null,"sharedCount":null,"likeCount":null,"sharedContent":null,"parent":{"__typename":"HnJson","localize":[{"title":"没有曲奇给你","locale":"zh"},{"title":"沒有曲奇給你","locale":"zh-Hant"}]}},{"__typename":"SocialMediaPost","id":"HnPost-25453252","excerpt":"","slug":"/hn/25453252","title":"Creative Code-Generated Art","date":"December 17, 2020","dateISO":"2020-12-17T16:43:32.061Z","datetime":"2020-12-17 16:43","tags":["story","Hacker News"],"image":null,"imageAlt":null,"provider":"Hacker News","thirdPartyId":"25453252","url":"https://news.ycombinator.com/item?id=25453252","originalUrl":"https://www.editorx.com/shaping-design/article/creative-coding","imageRemote":"https://static.wixstatic.com/media/5e5a34_1448194c080d46cbaa05760797f920c3~mv2.png/v1/fit/w_768%2Ch_926%2Cal_c%2Cq_80/file.png","video":null,"channel":null,"channelUrl":null,"author":"dzink","authorUrl":"https://news.ycombinator.com/user?id=dzink","authorImage":null,"authorSlug":null,"score":134,"views":null,"sharedCount":null,"likeCount":null,"sharedContent":null,"parent":{"__typename":"HnJson","localize":[{"title":"创造性的代码生成艺术","locale":"zh"},{"title":"創造性的代碼生成藝術","locale":"zh-Hant"}]}},{"__typename":"SocialMediaPost","id":"HnPost-25455603","excerpt":"","slug":"/hn/25455603","title":"Cloudflare Pages: the best way to build JAMstack websites","date":"December 17, 2020","dateISO":"2020-12-17T16:43:32.061Z","datetime":"2020-12-17 16:43","tags":["story","Hacker News"],"image":null,"imageAlt":null,"provider":"Hacker News","thirdPartyId":"25455603","url":"https://news.ycombinator.com/item?id=25455603","originalUrl":"https://blog.cloudflare.com/cloudflare-pages/","imageRemote":"https://blog.cloudflare.com/content/images/2020/12/facebook-link-image-18.png","video":null,"channel":null,"channelUrl":null,"author":"adspedia","authorUrl":"https://news.ycombinator.com/user?id=adspedia","authorImage":null,"authorSlug":null,"score":265,"views":null,"sharedCount":null,"likeCount":null,"sharedContent":null,"parent":{"__typename":"HnJson","localize":[{"title":"CloudFlare Pages：构建JAMstack网站的最佳方式","locale":"zh"},{"title":"CloudFlare Pages：構建JAMstack網站的最佳方式","locale":"zh-Hant"}]}},{"__typename":"SocialMediaPost","id":"HnPost-25455638","excerpt":"","slug":"/hn/25455638","title":"Stripe’s payments APIs: the first ten years","date":"December 17, 2020","dateISO":"2020-12-17T16:43:32.061Z","datetime":"2020-12-17 16:43","tags":["story","Hacker News"],"image":null,"imageAlt":null,"provider":"Hacker News","thirdPartyId":"25455638","url":"https://news.ycombinator.com/item?id=25455638","originalUrl":"https://stripe.com/blog/payment-api-design","imageRemote":"https://images.ctfassets.net/fzn2n1nzq965/5h8QNXWBWr8KWrTp4bf5n8/750e16b114121455f473fb6b6c79c7ca/blog-payment-api-social-card.png?q=80","video":null,"channel":null,"channelUrl":null,"author":"dguo","authorUrl":"https://news.ycombinator.com/user?id=dguo","authorImage":null,"authorSlug":null,"score":309,"views":null,"sharedCount":null,"likeCount":null,"sharedContent":null,"parent":{"__typename":"HnJson","localize":[{"title":"Stripe的支付API：头十年","locale":"zh"},{"title":"Stripe的支付API：頭十年","locale":"zh-Hant"}]}},{"__typename":"SocialMediaPost","id":"HnPost-25452567","excerpt":"","slug":"/hn/25452567","title":"Tensions in Google's ethical AI group increase as it sends demands to CEO","date":"December 17, 2020","dateISO":"2020-12-17T15:59:54.031Z","datetime":"2020-12-17 15:59","tags":["story","Hacker News"],"image":null,"imageAlt":null,"provider":"Hacker News","thirdPartyId":"25452567","url":"https://news.ycombinator.com/item?id=25452567","originalUrl":"https://www.cnn.com/2020/12/16/tech/google-timnit-gebru-ethical-ai-letter/index.html","imageRemote":"https://cdn.cnn.com/cnnnext/dam/assets/201209162431-01-timnit-gebru-file-super-tease.jpg","video":null,"channel":null,"channelUrl":null,"author":"throwawaysea","authorUrl":"https://news.ycombinator.com/user?id=throwawaysea","authorImage":null,"authorSlug":null,"score":169,"views":null,"sharedCount":null,"likeCount":null,"sharedContent":null,"parent":{"__typename":"HnJson","localize":[{"title":"谷歌道德人工智能集团向首席执行官提出要求，紧张局势加剧","locale":"zh"},{"title":"谷歌道德人工智能集團向首席執行官提出要求，緊張局勢加劇","locale":"zh-Hant"}]}},{"__typename":"SocialMediaPost","id":"HnPost-25442165","excerpt":"","slug":"/hn/25442165","title":"Getting started with C programming a lightning-fast start for absolute beginners","date":"December 17, 2020","dateISO":"2020-12-17T15:49:13.584Z","datetime":"2020-12-17 15:49","tags":["story","Hacker News"],"image":null,"imageAlt":null,"provider":"Hacker News","thirdPartyId":"25442165","url":"https://news.ycombinator.com/item?id=25442165","originalUrl":"https://not.cafe/2020/10/12/getting-started-with-c-programming.html","imageRemote":"https://upload.wikimedia.org/wikipedia/commons/thumb/8/8f/Ken_Thompson_(sitting)_and_Dennis_Ritchie_at_PDP-11_(2876612463).jpg/599px-Ken_Thompson_(sitting)_and_Dennis_Ritchie_at_PDP-11_(2876612463).jpg","video":null,"channel":null,"channelUrl":null,"author":"hdante","authorUrl":"https://news.ycombinator.com/user?id=hdante","authorImage":null,"authorSlug":null,"score":175,"views":null,"sharedCount":null,"likeCount":null,"sharedContent":null,"parent":{"__typename":"HnJson","localize":[{"title":"C编程入门绝对是初学者的闪电入门","locale":"zh"},{"title":"C編程入門絕對是初學者的閃電入門","locale":"zh-Hant"}]}},{"__typename":"SocialMediaPost","id":"HnPost-25455314","excerpt":"","slug":"/hn/25455314","title":"Zstandard v1.4.7","date":"December 17, 2020","dateISO":"2020-12-17T15:49:13.584Z","datetime":"2020-12-17 15:49","tags":["story","Hacker News"],"image":null,"imageAlt":null,"provider":"Hacker News","thirdPartyId":"25455314","url":"https://news.ycombinator.com/item?id=25455314","originalUrl":"https://github.com/facebook/zstd/releases/tag/v1.4.7","imageRemote":"https://avatars0.githubusercontent.com/u/69631?s=400&v=4","video":null,"channel":null,"channelUrl":null,"author":"varbhat","authorUrl":"https://news.ycombinator.com/user?id=varbhat","authorImage":null,"authorSlug":null,"score":211,"views":null,"sharedCount":null,"likeCount":null,"sharedContent":null,"parent":{"__typename":"HnJson","localize":[{"title":"ZStandard v1.4.7","locale":"zh"},{"title":"ZStandard v1.4.7","locale":"zh-Hant"}]}},{"__typename":"SocialMediaPost","id":"HnPost-25454860","excerpt":"","slug":"/hn/25454860","title":"A New Satellite Can Peer Inside Buildings, Day or Night","date":"December 17, 2020","dateISO":"2020-12-17T15:27:08.522Z","datetime":"2020-12-17 15:27","tags":["story","Hacker News"],"image":null,"imageAlt":null,"provider":"Hacker News","thirdPartyId":"25454860","url":"https://news.ycombinator.com/item?id=25454860","originalUrl":"https://futurism.com/new-satellite-buildings-day-night","imageRemote":"https://wp-assets.futurism.com/2020/12/new-satellite-buildings-day-night-1-1200x675.jpg","video":null,"channel":null,"channelUrl":null,"author":"sbuttgereit","authorUrl":"https://news.ycombinator.com/user?id=sbuttgereit","authorImage":null,"authorSlug":null,"score":194,"views":null,"sharedCount":null,"likeCount":null,"sharedContent":null,"parent":{"__typename":"HnJson","localize":[{"title":"一颗新的卫星可以白天或黑夜在建筑物内进行对等","locale":"zh"},{"title":"一顆新的衛星可以白天或黑夜在建築物內進行對等","locale":"zh-Hant"}]}},{"__typename":"SocialMediaPost","id":"HnPost-25455624","excerpt":"","slug":"/hn/25455624","title":"SEC Charges Robinhood $65M for Misleading Customers About Revenue Sources","date":"December 17, 2020","dateISO":"2020-12-17T15:27:08.522Z","datetime":"2020-12-17 15:27","tags":["story","Hacker News"],"image":null,"imageAlt":null,"provider":"Hacker News","thirdPartyId":"25455624","url":"https://news.ycombinator.com/item?id=25455624","originalUrl":"https://www.sec.gov/news/press-release/2020-321#:~:text=Press%20Release-,SEC%20Charges%20Robinhood%20Financial%20With%20Misleading%20Customers%20About%20Revenue%20Sources,Satisfy%20Duty%20of%20Best%20Execution&text=The%20order%20finds%20that%20Robinhood,from%20not%20paying%20a%20commission.","imageRemote":"https://www.sec.gov/files/sec-logo.png","video":null,"channel":null,"channelUrl":null,"author":"ericliuche","authorUrl":"https://news.ycombinator.com/user?id=ericliuche","authorImage":null,"authorSlug":null,"score":457,"views":null,"sharedCount":null,"likeCount":null,"sharedContent":null,"parent":{"__typename":"HnJson","localize":[{"title":"SEC指控罗宾汉在收入来源方面误导客户6500万美元","locale":"zh"},{"title":"SEC指控羅賓漢在收入來源方面誤導客戶6500萬美元","locale":"zh-Hant"}]}},{"__typename":"SocialMediaPost","id":"HnPost-25454387","excerpt":"","slug":"/hn/25454387","title":"GWSL: Run graphical Linux apps in WSL","date":"December 17, 2020","dateISO":"2020-12-17T14:42:08.972Z","datetime":"2020-12-17 14:42","tags":["story","Hacker News"],"image":null,"imageAlt":null,"provider":"Hacker News","thirdPartyId":"25454387","url":"https://news.ycombinator.com/item?id=25454387","originalUrl":"https://github.com/Opticos/GWSL-Source","imageRemote":"https://repository-images.githubusercontent.com/288293986/f8089280-0586-11eb-801b-39748141a3f2","video":null,"channel":null,"channelUrl":null,"author":"magnio","authorUrl":"https://news.ycombinator.com/user?id=magnio","authorImage":null,"authorSlug":null,"score":223,"views":null,"sharedCount":null,"likeCount":null,"sharedContent":null,"parent":{"__typename":"HnJson","localize":[{"title":"GWSL：在WSL中运行图形化Linux应用程序","locale":"zh"},{"title":"GWSL：在WSL中運行圖形化Linux應用程序","locale":"zh-Hant"}]}},{"__typename":"SocialMediaPost","id":"HnPost-25454207","excerpt":"","slug":"/hn/25454207","title":"51% of 4M Docker images have critical vulnerabilities","date":"December 17, 2020","dateISO":"2020-12-17T14:13:34.468Z","datetime":"2020-12-17 14:13","tags":["story","Hacker News"],"image":null,"imageAlt":null,"provider":"Hacker News","thirdPartyId":"25454207","url":"https://news.ycombinator.com/item?id=25454207","originalUrl":"https://thechief.io/c/news/51-4-million-docker-images-have-critical-vulnerabilities/","imageRemote":"https://static.thechief.io/prod/images/A_dynamic_sandbox_system_was_used_by_Prevasio_t.original.png","video":null,"channel":null,"channelUrl":null,"author":"AnnieNma","authorUrl":"https://news.ycombinator.com/user?id=AnnieNma","authorImage":null,"authorSlug":null,"score":333,"views":null,"sharedCount":null,"likeCount":null,"sharedContent":null,"parent":{"__typename":"HnJson","localize":[{"title":"400万个Docker映像中有51%存在严重漏洞","locale":"zh"},{"title":"400萬個Docker映像中有51%存在嚴重漏洞","locale":"zh-Hant"}]}},{"__typename":"SocialMediaPost","id":"HnPost-25450782","excerpt":"","slug":"/hn/25450782","title":"A Book about Aircraft Scale Drawings Creating with Inkscape and Gimp","date":"December 17, 2020","dateISO":"2020-12-17T13:56:50.706Z","datetime":"2020-12-17 13:56","tags":["story","Hacker News"],"image":null,"imageAlt":null,"provider":"Hacker News","thirdPartyId":"25450782","url":"https://news.ycombinator.com/item?id=25450782","originalUrl":"https://airplanes3d.wordpress.com/2020/12/08/a-book-about-aircraft-scale-drawings/","imageRemote":"https://airplanes3d.files.wordpress.com/2020/12/0114-01.jpg","video":null,"channel":null,"channelUrl":null,"author":"app4soft","authorUrl":"https://news.ycombinator.com/user?id=app4soft","authorImage":null,"authorSlug":null,"score":126,"views":null,"sharedCount":null,"likeCount":null,"sharedContent":null,"parent":{"__typename":"HnJson","localize":[{"title":"使用Inkscape和Gimp创建飞机比例图的书籍","locale":"zh"},{"title":"使用Inkscape和Gimp創建飛機比例圖的書籍","locale":"zh-Hant"}]}},{"__typename":"SocialMediaPost","id":"HnPost-25439490","excerpt":"","slug":"/hn/25439490","title":"When will virtual reality take off? The $100 bet","date":"December 17, 2020","dateISO":"2020-12-17T12:17:48.070Z","datetime":"2020-12-17 12:17","tags":["story","Hacker News"],"image":null,"imageAlt":null,"provider":"Hacker News","thirdPartyId":"25439490","url":"https://news.ycombinator.com/item?id=25439490","originalUrl":"https://glinden.blogspot.com/2020/12/when-will-virtual-reality-take-off-100.html","imageRemote":"https://sites.google.com/site/glinden/Home/IMG_6330.JPG","video":null,"channel":null,"channelUrl":null,"author":"nkurz","authorUrl":"https://news.ycombinator.com/user?id=nkurz","authorImage":null,"authorSlug":null,"score":175,"views":null,"sharedCount":null,"likeCount":null,"sharedContent":null,"parent":{"__typename":"HnJson","localize":[{"title":"虚拟现实何时起飞？100美元的赌注","locale":"zh"},{"title":"虛擬現實何時起飛？100美元的賭注","locale":"zh-Hant"}]}},{"__typename":"SocialMediaPost","id":"HnPost-25439834","excerpt":"","slug":"/hn/25439834","title":"Google Analytics Opt Out","date":"December 17, 2020","dateISO":"2020-12-17T12:17:48.070Z","datetime":"2020-12-17 12:17","tags":["story","Hacker News"],"image":null,"imageAlt":null,"provider":"Hacker News","thirdPartyId":"25439834","url":"https://news.ycombinator.com/item?id=25439834","originalUrl":"https://tools.google.com/dlpage/gaoptout","imageRemote":"https://www.google.com/images/branding/googlelogo/2x/googlelogo_color_150x54dp.png","video":null,"channel":null,"channelUrl":null,"author":"sturza","authorUrl":"https://news.ycombinator.com/user?id=sturza","authorImage":null,"authorSlug":null,"score":206,"views":null,"sharedCount":null,"likeCount":null,"sharedContent":null,"parent":{"__typename":"HnJson","localize":[{"title":"谷歌分析选择退出","locale":"zh"},{"title":"谷歌分析選擇退出","locale":"zh-Hant"}]}},{"__typename":"SocialMediaPost","id":"HnPost-25439885","excerpt":"","slug":"/hn/25439885","title":"A tiny island nation just launched major effort to win back control of its ccTLD","date":"December 17, 2020","dateISO":"2020-12-17T12:17:48.070Z","datetime":"2020-12-17 12:17","tags":["story","Hacker News"],"image":null,"imageAlt":null,"provider":"Hacker News","thirdPartyId":"25439885","url":"https://news.ycombinator.com/item?id=25439885","originalUrl":"https://www.businessinsider.com.au/niue-nu-internet-domain-reclaim-2020-12","imageRemote":"https://edge.alluremedia.com.au/uploads/businessinsider/2020/12/GettyImages-585993988.jpg","video":null,"channel":null,"channelUrl":null,"author":"markdown","authorUrl":"https://news.ycombinator.com/user?id=markdown","authorImage":null,"authorSlug":null,"score":141,"views":null,"sharedCount":null,"likeCount":null,"sharedContent":null,"parent":{"__typename":"HnJson","localize":[{"title":"一个小小的岛国刚刚发起了重大努力，以夺回对其cctld的控制权。","locale":"zh"},{"title":"一個小小的島國剛剛發起了重大努力，以奪回對其cctld的控制權。","locale":"zh-Hant"}]}},{"__typename":"SocialMediaPost","id":"HnPost-25440078","excerpt":"","slug":"/hn/25440078","title":"Air-FI: Generating Covert Wi-Fi Signals from Air-Gapped Computers","date":"December 17, 2020","dateISO":"2020-12-17T12:17:48.070Z","datetime":"2020-12-17 12:17","tags":["story","Hacker News"],"image":null,"imageAlt":null,"provider":"Hacker News","thirdPartyId":"25440078","url":"https://news.ycombinator.com/item?id=25440078","originalUrl":"https://arxiv.org/abs/2012.06884","imageRemote":"https://static.arxiv.org/static/browse/0.3.2.6/images/icons/social/bibsonomy.png","video":null,"channel":null,"channelUrl":null,"author":"anigbrowl","authorUrl":"https://news.ycombinator.com/user?id=anigbrowl","authorImage":null,"authorSlug":null,"score":294,"views":null,"sharedCount":null,"likeCount":null,"sharedContent":null,"parent":{"__typename":"HnJson","localize":[{"title":"Air-Fi：从有气隙的计算机生成隐蔽Wi-Fi信号","locale":"zh"},{"title":"Air-Fi：從有氣隙的計算機生成隱蔽Wi-Fi信號","locale":"zh-Hant"}]}}]}},"pageContext":{"basePath":"/","pageType":"tag","tag":"Hacker News","tagsFilter":{"id":{"glob":"!*Post-1"}},"filter":{"id":{"glob":"!*Post-1"},"tags":{"eq":"Hacker News"}},"limit":25,"skip":825,"total":896,"totalPages":36,"currentPage":34,"maxWidth":1024,"maxHeight":512,"locale":"zh","hrefLang":"zh-Hans","originalPath":"/tags/hacker-news/page/34","dateFormat":"YYYY-MM-DD"}},"staticQueryHashes":["1239077767","2506312863","2744905544","3025052997","3493603132","3493603132","3513215887","386998304"]}