{"componentChunkName":"component---gatsby-theme-buzzing-src-gatsby-theme-timeline-templates-posts-query-js","path":"/zh-Hant/page/78","result":{"data":{"site":{"siteMetadata":{"title":"Reddit 热门","description":"用中文浏览Reddit热门内容","social":[{"name":"Twitter","url":"https://twitter.com/gatsbyjs","external":null,"prefetch":null},{"name":"GitHub","url":"https://github.com/gatsbyjs","external":null,"prefetch":null}],"menuLinks":[],"localize":[{"locale":"en","title":"Buzzing on Reddit","description":"See what's buzzing on Reddit in your native language","social":[{"name":"Reddit","url":"https://www.reddit.com/","external":true,"prefetch":null}],"menuLinks":[{"name":"Weekly Selection","url":"/issues","external":null,"prefetch":null},{"name":"RSS","url":"/rss.xml","external":null,"prefetch":false}]},{"locale":"zh-Hant","title":"Reddit 熱門","description":"用中文瀏覽Reddit熱門內容","social":null,"menuLinks":null}]}},"tagsGroup":{"group":[{"fieldValue":"ASK HN","totalCount":54},{"fieldValue":"Hacker News","totalCount":3107},{"fieldValue":"Poll","totalCount":1},{"fieldValue":"Show HN","totalCount":100},{"fieldValue":"poll","totalCount":1},{"fieldValue":"story","totalCount":3106}]},"allBlogPost":{"nodes":[{"__typename":"SocialMediaPost","id":"HnPost-25893171","excerpt":"","slug":"/hn/25893171","title":"All 104 amendments to the Constitution of India as Git commits","date":"January 24, 2021","dateISO":"2021-01-24T21:41:15.588Z","datetime":"2021-01-24 21:41","tags":["story","Hacker News"],"image":null,"imageAlt":null,"provider":"Hacker News","thirdPartyId":"25893171","url":"https://news.ycombinator.com/item?id=25893171","originalUrl":"https://github.com/prince-mishra/the-constitution-of-india","imageRemote":"https://avatars.githubusercontent.com/u/222814?s=400&v=4","video":null,"channel":null,"channelUrl":null,"author":"mishraprince","authorUrl":"https://news.ycombinator.com/user?id=mishraprince","authorImage":null,"authorSlug":null,"score":164,"views":null,"sharedCount":null,"likeCount":null,"sharedContent":null,"parent":{"__typename":"HnJson","localize":[{"title":"印度《宪法》的所有104项修正案，因为Git犯了。","locale":"zh"},{"title":"印度《憲法》的所有104項修正案，因爲Git犯了。","locale":"zh-Hant"}]}},{"__typename":"SocialMediaPost","id":"HnPost-25894245","excerpt":"","slug":"/hn/25894245","title":"Solar is now ‘cheapest electricity in history’, confirms IEA","date":"January 24, 2021","dateISO":"2021-01-24T21:01:55.891Z","datetime":"2021-01-24 21:01","tags":["story","Hacker News"],"image":null,"imageAlt":null,"provider":"Hacker News","thirdPartyId":"25894245","url":"https://news.ycombinator.com/item?id=25894245","originalUrl":"https://www.weforum.org/agenda/2020/10/solar-cheap-energy-coal-gas-renewables-climate-change-environment-sustainability","imageRemote":"https://assets.weforum.org/editor/3WlJUVJM_h_aPM6PPENLZhMMbNYqw7tgTGvViEwqbjA.png","video":null,"channel":null,"channelUrl":null,"author":"yk","authorUrl":"https://news.ycombinator.com/user?id=yk","authorImage":null,"authorSlug":null,"score":177,"views":null,"sharedCount":null,"likeCount":null,"sharedContent":null,"parent":{"__typename":"HnJson","localize":[{"title":"IEA证实，太阳能现在是 \"历史上最便宜的电力\"。","locale":"zh"},{"title":"IEA證實，太陽能現在是 \"歷史上最便宜的電力\"。","locale":"zh-Hant"}]}},{"__typename":"SocialMediaPost","id":"HnPost-25889420","excerpt":"","slug":"/hn/25889420","title":"Show HN: Full text search Project Gutenberg (60m paragraphs)","date":"January 24, 2021","dateISO":"2021-01-24T19:30:30.343Z","datetime":"2021-01-24 19:30","tags":["story","Show HN","Hacker News"],"image":null,"imageAlt":null,"provider":"Hacker News","thirdPartyId":"25889420","url":"https://news.ycombinator.com/item?id=25889420","originalUrl":"https://gutensearch.com/","imageRemote":null,"video":null,"channel":"Show HN","channelUrl":"https://news.ycombinator.com/show","author":"gutensearch","authorUrl":"https://news.ycombinator.com/user?id=gutensearch","authorImage":null,"authorSlug":null,"score":173,"views":null,"sharedCount":null,"likeCount":null,"sharedContent":null,"parent":{"__typename":"HnJson","localize":[{"title":"显示HN：全文检索Project Gutenberg(60m段)","locale":"zh"},{"title":"顯示HN：全文檢索Project Gutenberg(60m段)","locale":"zh-Hant"}]}},{"__typename":"SocialMediaPost","id":"HnPost-25890653","excerpt":"","slug":"/hn/25890653","title":"SoftBank’s plan to sell Arm to NVIDIA is hitting antitrust wall around the world","date":"January 24, 2021","dateISO":"2021-01-24T17:20:00.934Z","datetime":"2021-01-24 17:20","tags":["story","Hacker News"],"image":null,"imageAlt":null,"provider":"Hacker News","thirdPartyId":"25890653","url":"https://news.ycombinator.com/item?id=25890653","originalUrl":"https://asia.nikkei.com/Business/Technology/SoftBank-s-plan-to-sell-Arm-to-NVIDIA-is-hitting-antitrust-wall-around-the-world","imageRemote":"https://www.ft.com/__origami/service/image/v2/images/raw/https%3A%2F%2Fs3-ap-northeast-1.amazonaws.com%2Fpsh-ex-ftnikkei-3937bb4%2Fimages%2F1%2F3%2F5%2F5%2F31785531-10-eng-GB%2FCropped-1610687483A99I0002.JPG?width=1024&height=512&fit=cover&gravity=faces&source=nar-cms","video":null,"channel":null,"channelUrl":null,"author":"lawrenceyan","authorUrl":"https://news.ycombinator.com/user?id=lawrenceyan","authorImage":null,"authorSlug":null,"score":227,"views":null,"sharedCount":null,"likeCount":null,"sharedContent":null,"parent":{"__typename":"HnJson","localize":[{"title":"软银向英伟达出售Arm的计划在全球范围内遭遇反垄断墙。","locale":"zh"},{"title":"軟銀向英偉達出售Arm的計劃在全球範圍內遭遇反壟斷牆。","locale":"zh-Hant"}]}},{"__typename":"SocialMediaPost","id":"HnPost-25891464","excerpt":"","slug":"/hn/25891464","title":"Deskreen – Turn any device with a web browser to a second computer screen","date":"January 24, 2021","dateISO":"2021-01-24T17:20:00.933Z","datetime":"2021-01-24 17:20","tags":["story","Hacker News"],"image":null,"imageAlt":null,"provider":"Hacker News","thirdPartyId":"25891464","url":"https://news.ycombinator.com/item?id=25891464","originalUrl":"https://github.com/pavlobu/deskreen","imageRemote":"https://repository-images.githubusercontent.com/286047827/32761f80-592b-11eb-813c-65c4f8b2e6cc","video":null,"channel":null,"channelUrl":null,"author":"maydemir","authorUrl":"https://news.ycombinator.com/user?id=maydemir","authorImage":null,"authorSlug":null,"score":284,"views":null,"sharedCount":null,"likeCount":null,"sharedContent":null,"parent":{"__typename":"HnJson","localize":[{"title":"Deskreen - 将任何带有网络浏览器的设备变成第二个电脑屏幕。","locale":"zh"},{"title":"Deskreen - 將任何帶有網絡瀏覽器的設備變成第二個電腦屏幕。","locale":"zh-Hant"}]}},{"__typename":"SocialMediaPost","id":"HnPost-25891678","excerpt":"","slug":"/hn/25891678","title":"Lack of sleep, stress can lead to symptoms resembling concussion","date":"January 24, 2021","dateISO":"2021-01-24T17:20:00.933Z","datetime":"2021-01-24 17:20","tags":["story","Hacker News"],"image":null,"imageAlt":null,"provider":"Hacker News","thirdPartyId":"25891678","url":"https://news.ycombinator.com/item?id=25891678","originalUrl":"https://news.osu.edu/lack-of-sleep-stress-can-lead-to-symptoms-resembling-concussion/","imageRemote":"https://content.presspage.com/uploads/2170/1920_gettyimages-1201462136.jpg?10000","video":null,"channel":null,"channelUrl":null,"author":"rustoo","authorUrl":"https://news.ycombinator.com/user?id=rustoo","authorImage":null,"authorSlug":null,"score":169,"views":null,"sharedCount":null,"likeCount":null,"sharedContent":null,"parent":{"__typename":"HnJson","localize":[{"title":"睡眠不足、压力过大会导致类似脑震荡的症状。","locale":"zh"},{"title":"睡眠不足、壓力過大會導致類似腦震盪的症狀。","locale":"zh-Hant"}]}},{"__typename":"SocialMediaPost","id":"HnPost-25886066","excerpt":"","slug":"/hn/25886066","title":"Malware found on laptops given out by government","date":"January 24, 2021","dateISO":"2021-01-24T16:37:44.020Z","datetime":"2021-01-24 16:37","tags":["story","Hacker News"],"image":null,"imageAlt":null,"provider":"Hacker News","thirdPartyId":"25886066","url":"https://news.ycombinator.com/item?id=25886066","originalUrl":"https://www.bbc.com/news/technology-55749959","imageRemote":"https://ichef.bbci.co.uk/news/1024/branded_news/157D5/production/_116612088_homeschooling.jpg","video":null,"channel":null,"channelUrl":null,"author":"elorant","authorUrl":"https://news.ycombinator.com/user?id=elorant","authorImage":null,"authorSlug":null,"score":160,"views":null,"sharedCount":null,"likeCount":null,"sharedContent":null,"parent":{"__typename":"HnJson","localize":[{"title":"政府发放的笔记本电脑上发现恶意软件","locale":"zh"},{"title":"政府發放的筆記本電腦上發現惡意軟件","locale":"zh-Hant"}]}},{"__typename":"SocialMediaPost","id":"HnPost-25874108","excerpt":"","slug":"/hn/25874108","title":"Chipmaking Is Being Redesigned","date":"January 24, 2021","dateISO":"2021-01-24T11:51:29.778Z","datetime":"2021-01-24 11:51","tags":["story","Hacker News"],"image":null,"imageAlt":null,"provider":"Hacker News","thirdPartyId":"25874108","url":"https://news.ycombinator.com/item?id=25874108","originalUrl":"https://www.economist.com/business/2021/01/23/chipmaking-is-being-redesigned-effects-will-be-far-reaching","imageRemote":"https://www.economist.com/img/b/1280/720/90/sites/default/files/images/print-edition/20210123_WBD002_1.jpg","video":null,"channel":null,"channelUrl":null,"author":"klelatti","authorUrl":"https://news.ycombinator.com/user?id=klelatti","authorImage":null,"authorSlug":null,"score":160,"views":null,"sharedCount":null,"likeCount":null,"sharedContent":null,"parent":{"__typename":"HnJson","localize":[{"title":"芯片制造正在重新设计","locale":"zh"},{"title":"芯片製造正在重新設計","locale":"zh-Hant"}]}},{"__typename":"SocialMediaPost","id":"HnPost-25884338","excerpt":"","slug":"/hn/25884338","title":"Emails a browser extension developer gets from scammers","date":"January 24, 2021","dateISO":"2021-01-24T11:51:29.777Z","datetime":"2021-01-24 11:51","tags":["story","Hacker News"],"image":null,"imageAlt":null,"provider":"Hacker News","thirdPartyId":"25884338","url":"https://news.ycombinator.com/item?id=25884338","originalUrl":"https://sponsor.ajay.app/emails/","imageRemote":"https://sponsor.ajay.app/LogoSponsorBlockSimple256px.png","video":null,"channel":null,"channelUrl":null,"author":"ajayyy","authorUrl":"https://news.ycombinator.com/user?id=ajayyy","authorImage":null,"authorSlug":null,"score":161,"views":null,"sharedCount":null,"likeCount":null,"sharedContent":null,"parent":{"__typename":"HnJson","localize":[{"title":"浏览器扩展开发者收到骗子发来的电子邮件","locale":"zh"},{"title":"瀏覽器擴展開發者收到騙子發來的電子郵件","locale":"zh-Hant"}]}},{"__typename":"SocialMediaPost","id":"HnPost-25886500","excerpt":"","slug":"/hn/25886500","title":"Site.js: Small Web construction set","date":"January 24, 2021","dateISO":"2021-01-24T11:51:29.777Z","datetime":"2021-01-24 11:51","tags":["story","Hacker News"],"image":null,"imageAlt":null,"provider":"Hacker News","thirdPartyId":"25886500","url":"https://news.ycombinator.com/item?id=25886500","originalUrl":"https://sitejs.org/","imageRemote":null,"video":null,"channel":null,"channelUrl":null,"author":"thex10","authorUrl":"https://news.ycombinator.com/user?id=thex10","authorImage":null,"authorSlug":null,"score":162,"views":null,"sharedCount":null,"likeCount":null,"sharedContent":null,"parent":{"__typename":"HnJson","localize":[{"title":"Site.js：小型网站建设集","locale":"zh"},{"title":"Site.js：小型網站建設集","locale":"zh-Hant"}]}},{"__typename":"SocialMediaPost","id":"HnPost-25887385","excerpt":"","slug":"/hn/25887385","title":"Forever chemicals are widespread in U.S. drinking water","date":"January 24, 2021","dateISO":"2021-01-24T11:51:29.777Z","datetime":"2021-01-24 11:51","tags":["story","Hacker News"],"image":null,"imageAlt":null,"provider":"Hacker News","thirdPartyId":"25887385","url":"https://news.ycombinator.com/item?id=25887385","originalUrl":"https://www.scientificamerican.com/article/forever-chemicals-are-widespread-in-u-s-drinking-water/","imageRemote":"https://static.scientificamerican.com/sciam/cache/file/4F185D76-EE70-4908-809BB016DB663520.jpg","video":null,"channel":null,"channelUrl":null,"author":"ystad","authorUrl":"https://news.ycombinator.com/user?id=ystad","authorImage":null,"authorSlug":null,"score":164,"views":null,"sharedCount":null,"likeCount":null,"sharedContent":null,"parent":{"__typename":"HnJson","localize":[{"title":"美国饮用水中普遍存在永利国际化学成分","locale":"zh"},{"title":"美國飲用水中普遍存在永利國際化學成分","locale":"zh-Hant"}]}},{"__typename":"SocialMediaPost","id":"HnPost-25887200","excerpt":"","slug":"/hn/25887200","title":"How long does a bottle of wine last after it is opened?","date":"January 24, 2021","dateISO":"2021-01-24T10:00:01.186Z","datetime":"2021-01-24 10:00","tags":["story","Hacker News"],"image":null,"imageAlt":null,"provider":"Hacker News","thirdPartyId":"25887200","url":"https://news.ycombinator.com/item?id=25887200","originalUrl":"https://www.vinography.com/2020/12/how-long-does-a-bottle-of-wine-last-after-it-is-opened","imageRemote":"https://www.vinography.com/wp-content/uploads/2020/12/open_bottle_of_wine-1024x768.jpg","video":null,"channel":null,"channelUrl":null,"author":"devilcius","authorUrl":"https://news.ycombinator.com/user?id=devilcius","authorImage":null,"authorSlug":null,"score":162,"views":null,"sharedCount":null,"likeCount":null,"sharedContent":null,"parent":{"__typename":"HnJson","localize":[{"title":"一瓶酒开封后能用多久？","locale":"zh"},{"title":"一瓶酒開封后能用多久？","locale":"zh-Hant"}]}},{"__typename":"SocialMediaPost","id":"HnPost-25882704","excerpt":"","slug":"/hn/25882704","title":"Why Working from Home Will Stick [pdf]","date":"January 24, 2021","dateISO":"2021-01-24T08:07:54.476Z","datetime":"2021-01-24 08:07","tags":["story","Hacker News"],"image":null,"imageAlt":null,"provider":"Hacker News","thirdPartyId":"25882704","url":"https://news.ycombinator.com/item?id=25882704","originalUrl":"https://nbloom.people.stanford.edu/sites/g/files/sbiybj4746/f/why_wfh_stick1_0.pdf","imageRemote":null,"video":null,"channel":null,"channelUrl":null,"author":"troydavis","authorUrl":"https://news.ycombinator.com/user?id=troydavis","authorImage":null,"authorSlug":null,"score":186,"views":null,"sharedCount":null,"likeCount":null,"sharedContent":null,"parent":{"__typename":"HnJson","localize":[{"title":"为什么在家工作会坚持下去 [pdf]","locale":"zh"},{"title":"爲什麼在家工作會堅持下去 [pdf]","locale":"zh-Hant"}]}},{"__typename":"SocialMediaPost","id":"HnPost-25885244","excerpt":"","slug":"/hn/25885244","title":"Internet disrupted in Russia amid opposition protests","date":"January 24, 2021","dateISO":"2021-01-24T08:07:54.476Z","datetime":"2021-01-24 08:07","tags":["story","Hacker News"],"image":null,"imageAlt":null,"provider":"Hacker News","thirdPartyId":"25885244","url":"https://news.ycombinator.com/item?id=25885244","originalUrl":"https://netblocks.org/reports/internet-disrupted-in-russia-amid-opposition-protests-98aRXQAo","imageRemote":"https://netblocks.org/wp-content/uploads/sites/8/2021/01/netblocks-russia-internet-disruption-2021-01-23.png","video":null,"channel":null,"channelUrl":null,"author":"giuliomagnifico","authorUrl":"https://news.ycombinator.com/user?id=giuliomagnifico","authorImage":null,"authorSlug":null,"score":162,"views":null,"sharedCount":null,"likeCount":null,"sharedContent":null,"parent":{"__typename":"HnJson","localize":[{"title":"俄罗斯互联网因反对派抗议活动而中断","locale":"zh"},{"title":"俄羅斯互聯網因反對派抗議活動而中斷","locale":"zh-Hant"}]}},{"__typename":"SocialMediaPost","id":"HnPost-25882722","excerpt":"","slug":"/hn/25882722","title":"No one knows how much the government can borrow","date":"January 24, 2021","dateISO":"2021-01-24T05:25:47.043Z","datetime":"2021-01-24 05:25","tags":["story","Hacker News"],"image":null,"imageAlt":null,"provider":"Hacker News","thirdPartyId":"25882722","url":"https://news.ycombinator.com/item?id=25882722","originalUrl":"https://noahpinion.substack.com/p/no-one-knows-how-much-the-government","imageRemote":"https://cdn.substack.com/image/fetch/h_600,c_limit,f_auto,q_auto:good,fl_progressive:steep/https%3A%2F%2Fbucketeer-e05bbc84-baa3-437e-9518-adb32be77984.s3.amazonaws.com%2Fpublic%2Fimages%2F231f5127-22dc-4e89-a913-e522ee38ac9f_1024x680.jpeg","video":null,"channel":null,"channelUrl":null,"author":"jger15","authorUrl":"https://news.ycombinator.com/user?id=jger15","authorImage":null,"authorSlug":null,"score":170,"views":null,"sharedCount":null,"likeCount":null,"sharedContent":null,"parent":{"__typename":"HnJson","localize":[{"title":"没有人知道政府能借多少钱","locale":"zh"},{"title":"沒有人知道政府能借多少錢","locale":"zh-Hant"}]}},{"__typename":"SocialMediaPost","id":"HnPost-25885760","excerpt":"","slug":"/hn/25885760","title":"Show HN: Filmulator – a streamlined, open-source raw photo editor","date":"January 24, 2021","dateISO":"2021-01-24T05:25:47.043Z","datetime":"2021-01-24 05:25","tags":["story","Show HN","Hacker News"],"image":null,"imageAlt":null,"provider":"Hacker News","thirdPartyId":"25885760","url":"https://news.ycombinator.com/item?id=25885760","originalUrl":"https://filmulator.org/v0-11-0/","imageRemote":"https://filmulator.org/images/filmulator512icon.png","video":null,"channel":"Show HN","channelUrl":"https://news.ycombinator.com/show","author":"CarVac","authorUrl":"https://news.ycombinator.com/user?id=CarVac","authorImage":null,"authorSlug":null,"score":174,"views":null,"sharedCount":null,"likeCount":null,"sharedContent":null,"parent":{"__typename":"HnJson","localize":[{"title":"显示HN：Filmulator--一个精简的、开源的原始照片编辑器。","locale":"zh"},{"title":"顯示HN：Filmulator--一個精簡的、開源的原始照片編輯器。","locale":"zh-Hant"}]}},{"__typename":"SocialMediaPost","id":"HnPost-25887674","excerpt":"","slug":"/hn/25887674","title":"Whitehouse.gov Chooses WordPress, Again","date":"January 24, 2021","dateISO":"2021-01-24T05:25:47.043Z","datetime":"2021-01-24 05:25","tags":["story","Hacker News"],"image":null,"imageAlt":null,"provider":"Hacker News","thirdPartyId":"25887674","url":"https://news.ycombinator.com/item?id=25887674","originalUrl":"https://pagely.com/blog/whitehouse-gov-chooses-wordpress-again/","imageRemote":"https://pagely.com/wp-content/uploads/2021/01/whitehouse-header.jpg","video":null,"channel":null,"channelUrl":null,"author":"gmays","authorUrl":"https://news.ycombinator.com/user?id=gmays","authorImage":null,"authorSlug":null,"score":181,"views":null,"sharedCount":null,"likeCount":null,"sharedContent":null,"parent":{"__typename":"HnJson","localize":[{"title":"白宫政府再次选择WordPress","locale":"zh"},{"title":"白宮政府再次選擇WordPress","locale":"zh-Hant"}]}},{"__typename":"SocialMediaPost","id":"HnPost-25888249","excerpt":"","slug":"/hn/25888249","title":"Pip has dropped support for Python 2","date":"January 24, 2021","dateISO":"2021-01-24T05:25:47.043Z","datetime":"2021-01-24 05:25","tags":["story","Hacker News"],"image":null,"imageAlt":null,"provider":"Hacker News","thirdPartyId":"25888249","url":"https://news.ycombinator.com/item?id=25888249","originalUrl":"https://pip.pypa.io/en/stable/news/#id1","imageRemote":null,"video":null,"channel":null,"channelUrl":null,"author":"groodt","authorUrl":"https://news.ycombinator.com/user?id=groodt","authorImage":null,"authorSlug":null,"score":232,"views":null,"sharedCount":null,"likeCount":null,"sharedContent":null,"parent":{"__typename":"HnJson","localize":[{"title":"Pip已经放弃了对Python 2的支持","locale":"zh"},{"title":"Pip已經放棄了對Python 2的支持","locale":"zh-Hant"}]}},{"__typename":"SocialMediaPost","id":"HnPost-25887373","excerpt":"","slug":"/hn/25887373","title":"Software engineering topics I changed my mind on","date":"January 24, 2021","dateISO":"2021-01-24T03:46:44.990Z","datetime":"2021-01-24 03:46","tags":["story","Hacker News"],"image":null,"imageAlt":null,"provider":"Hacker News","thirdPartyId":"25887373","url":"https://news.ycombinator.com/item?id=25887373","originalUrl":"https://chriskiehl.com/article/thoughts-after-6-years","imageRemote":"https://s3.amazonaws.com/awsblogstore/articles/162da1cd/5cfd8e9f-image-1440px.jpeg","video":null,"channel":null,"channelUrl":null,"author":"goostavos","authorUrl":"https://news.ycombinator.com/user?id=goostavos","authorImage":null,"authorSlug":null,"score":224,"views":null,"sharedCount":null,"likeCount":null,"sharedContent":null,"parent":{"__typename":"HnJson","localize":[{"title":"我改变主意的软件工程课题","locale":"zh"},{"title":"我改變主意的軟件工程課題","locale":"zh-Hant"}]}},{"__typename":"SocialMediaPost","id":"HnPost-25887635","excerpt":"","slug":"/hn/25887635","title":"Overweight and healthy is a big fat lie, obesity study finds","date":"January 24, 2021","dateISO":"2021-01-24T03:46:44.990Z","datetime":"2021-01-24 03:46","tags":["story","Hacker News"],"image":null,"imageAlt":null,"provider":"Hacker News","thirdPartyId":"25887635","url":"https://news.ycombinator.com/item?id=25887635","originalUrl":"https://www.thetimes.co.uk/article/overweight-and-healthy-is-a-big-fat-lie-obesity-study-finds-pqc3bzjz7","imageRemote":"https://www.thetimes.co.uk/imageserver/image/%2Fmethode%2Ftimes%2Fprod%2Fweb%2Fbin%2F08e13b48-5c26-11eb-86f4-4fa0aa4e7fd3.jpg?crop=5520%2C3105%2C0%2C288&resize=685","video":null,"channel":null,"channelUrl":null,"author":"elorant","authorUrl":"https://news.ycombinator.com/user?id=elorant","authorImage":null,"authorSlug":null,"score":162,"views":null,"sharedCount":null,"likeCount":null,"sharedContent":null,"parent":{"__typename":"HnJson","localize":[{"title":"肥胖症研究发现，超重和健康是一个巨大的谎言。","locale":"zh"},{"title":"肥胖症研究發現，超重和健康是一個巨大的謊言。","locale":"zh-Hant"}]}},{"__typename":"SocialMediaPost","id":"HnPost-25886218","excerpt":"","slug":"/hn/25886218","title":"Google has turned off access to sync features for Chromium","date":"January 24, 2021","dateISO":"2021-01-24T02:29:15.164Z","datetime":"2021-01-24 02:29","tags":["story","Hacker News"],"image":null,"imageAlt":null,"provider":"Hacker News","thirdPartyId":"25886218","url":"https://news.ycombinator.com/item?id=25886218","originalUrl":"https://bodhi.fedoraproject.org/updates/FEDORA-2021-48866282e5","imageRemote":null,"video":null,"channel":null,"channelUrl":null,"author":"stsewd","authorUrl":"https://news.ycombinator.com/user?id=stsewd","authorImage":null,"authorSlug":null,"score":185,"views":null,"sharedCount":null,"likeCount":null,"sharedContent":null,"parent":{"__typename":"HnJson","localize":[{"title":"谷歌已经关闭了对Chromium的同步功能的访问。","locale":"zh"},{"title":"谷歌已經關閉了對Chromium的同步功能的訪問。","locale":"zh-Hant"}]}},{"__typename":"SocialMediaPost","id":"HnPost-25881911","excerpt":"","slug":"/hn/25881911","title":"But how, exactly, do databases use mmap?","date":"January 24, 2021","dateISO":"2021-01-24T00:29:26.476Z","datetime":"2021-01-24 00:29","tags":["story","Hacker News"],"image":null,"imageAlt":null,"provider":"Hacker News","thirdPartyId":"25881911","url":"https://news.ycombinator.com/item?id=25881911","originalUrl":"https://brunocalza.me/but-how-exactly-databases-use-mmap/","imageRemote":"https://brunocalza.me/content/images/size/w100/2021/01/qS9dgayo_400x400.jpg","video":null,"channel":null,"channelUrl":null,"author":"brunoac","authorUrl":"https://news.ycombinator.com/user?id=brunoac","authorImage":null,"authorSlug":null,"score":173,"views":null,"sharedCount":null,"likeCount":null,"sharedContent":null,"parent":{"__typename":"HnJson","localize":[{"title":"但是，数据库到底是如何使用mmap的呢？","locale":"zh"},{"title":"但是，數據庫到底是如何使用mmap的呢？","locale":"zh-Hant"}]}},{"__typename":"SocialMediaPost","id":"HnPost-25883858","excerpt":"","slug":"/hn/25883858","title":"Tell HN: 19yo, bootstrapped SaaS, 250k ARR after 10 months","date":"January 24, 2021","dateISO":"2021-01-24T00:29:26.476Z","datetime":"2021-01-24 00:29","tags":["story","Hacker News"],"image":null,"imageAlt":null,"provider":"Hacker News","thirdPartyId":"25883858","url":"https://news.ycombinator.com/item?id=25883858","originalUrl":"https://news.ycombinator.com/item?id=25883858","imageRemote":null,"video":null,"channel":null,"channelUrl":null,"author":"snerual","authorUrl":"https://news.ycombinator.com/user?id=snerual","authorImage":null,"authorSlug":null,"score":163,"views":null,"sharedCount":null,"likeCount":null,"sharedContent":null,"parent":{"__typename":"HnJson","localize":[{"title":"告诉HN：19岁，创业SaaS，10个月后25万ARR。","locale":"zh"},{"title":"告訴HN：19歲，創業SaaS，10個月後25萬ARR。","locale":"zh-Hant"}]}},{"__typename":"SocialMediaPost","id":"HnPost-25885348","excerpt":"","slug":"/hn/25885348","title":"I bought 200 Raspberry Pi Model B’s and I’m going to fix them","date":"January 23, 2021","dateISO":"2021-01-23T23:00:30.159Z","datetime":"2021-01-23 23:00","tags":["story","Hacker News"],"image":null,"imageAlt":null,"provider":"Hacker News","thirdPartyId":"25885348","url":"https://news.ycombinator.com/item?id=25885348","originalUrl":"https://blog.jmdawson.co.uk/i-bought-200-raspberry-pi-model-bs-and-im-going-to-fix-them-part-1/","imageRemote":"https://i2.wp.com/blog.jmdawson.co.uk/wp-content/uploads/2021/01/img_1426-scaled.jpg?fit=1920%2C2560&ssl=1","video":null,"channel":null,"channelUrl":null,"author":"stedaniels","authorUrl":"https://news.ycombinator.com/user?id=stedaniels","authorImage":null,"authorSlug":null,"score":184,"views":null,"sharedCount":null,"likeCount":null,"sharedContent":null,"parent":{"__typename":"HnJson","localize":[{"title":"我买了200个Raspberry Pi Model B，我要把它们修好。","locale":"zh"},{"title":"我買了200個Raspberry Pi Model B，我要把它們修好。","locale":"zh-Hant"}]}},{"__typename":"SocialMediaPost","id":"HnPost-25882688","excerpt":"","slug":"/hn/25882688","title":"FBI agents track cell phones that pinged near the Capitol","date":"January 23, 2021","dateISO":"2021-01-23T22:12:20.440Z","datetime":"2021-01-23 22:12","tags":["story","Hacker News"],"image":null,"imageAlt":null,"provider":"Hacker News","thirdPartyId":"25882688","url":"https://news.ycombinator.com/item?id=25882688","originalUrl":"https://www.wusa9.com/article/features/producers-picks/fbi-tracks-cell-phones-that-were-near-capitol-insurrection-and-riot/65-ca268165-a5c5-46a4-8b88-943a8517343a","imageRemote":"https://media.wusa9.com/assets/WUSA/images/c567c554-bdaa-4ba5-9cb9-6d84250c4f2d/c567c554-bdaa-4ba5-9cb9-6d84250c4f2d_1140x641.jpg","video":null,"channel":null,"channelUrl":null,"author":"danso","authorUrl":"https://news.ycombinator.com/user?id=danso","authorImage":null,"authorSlug":null,"score":175,"views":null,"sharedCount":null,"likeCount":null,"sharedContent":null,"parent":{"__typename":"HnJson","localize":[{"title":"联邦调查局探员追踪国会大厦附近的手机铃声","locale":"zh"},{"title":"聯邦調查局探員追蹤國會大廈附近的手機鈴聲","locale":"zh-Hant"}]}}]}},"pageContext":{"basePath":"/","pageType":"home","tagsFilter":{"id":{"glob":"!*Post-1"}},"filter":{"id":{"glob":"!*Post-1"}},"limit":25,"skip":1925,"totalPages":125,"total":3107,"currentPage":78,"maxWidth":1024,"maxHeight":512,"locale":"zh-Hant","hrefLang":"zh-Hant","originalPath":"/page/78","dateFormat":"YYYY-MM-DD"}},"staticQueryHashes":["1239077767","2506312863","2744905544","3025052997","3493603132","3493603132","3513215887","386998304"]}