{"componentChunkName":"component---gatsby-theme-buzzing-src-gatsby-theme-timeline-templates-posts-query-js","path":"/tags/hacker-news/page/7","result":{"data":{"site":{"siteMetadata":{"title":"Reddit 热门","description":"用中文浏览Reddit热门内容","social":[{"name":"Reddit","url":"https://www.reddit.com/","external":true,"prefetch":null},{"name":"GitHub","url":"https://github.com/gatsbyjs","external":null,"prefetch":null}],"menuLinks":[{"name":"每周精选","url":"/issues","external":null,"prefetch":null},{"name":"RSS","url":"/rss.xml","external":null,"prefetch":false}],"localize":[{"locale":"en","title":"Buzzing on Reddit","description":"See what's buzzing on Reddit in your native language","social":[{"name":"Reddit","url":"https://www.reddit.com/","external":true,"prefetch":null}],"menuLinks":[{"name":"Weekly Selection","url":"/issues","external":null,"prefetch":null},{"name":"RSS","url":"/rss.xml","external":null,"prefetch":false}]},{"locale":"zh-Hant","title":"Reddit 熱門","description":"用中文瀏覽Reddit熱門內容","social":null,"menuLinks":null}]}},"tagsGroup":{"group":[{"fieldValue":"ASK HN","totalCount":19},{"fieldValue":"Bitcoin","totalCount":3},{"fieldValue":"Hacker News","totalCount":801},{"fieldValue":"Poll","totalCount":1},{"fieldValue":"Show HN","totalCount":31},{"fieldValue":"investing","totalCount":166},{"fieldValue":"poll","totalCount":1},{"fieldValue":"reddit","totalCount":594},{"fieldValue":"science","totalCount":1},{"fieldValue":"stocks","totalCount":277},{"fieldValue":"story","totalCount":800},{"fieldValue":"tweet","totalCount":243},{"fieldValue":"wallstreetbets","totalCount":151}]},"allBlogPost":{"nodes":[{"__typename":"SocialMediaPost","id":"HnPost-25623305","excerpt":"","slug":"/hn/25623305","title":"AMD Patent Reveals Hybrid CPU-FPGA Design That Could Be Enabled by Xilinx Tech","date":"January 04, 2021","dateISO":"2021-01-04T00:05:48.246Z","datetime":"2021-01-04 00:05","tags":["story","Hacker News"],"image":null,"imageAlt":null,"provider":"Hacker News","thirdPartyId":"25623305","url":"https://news.ycombinator.com/item?id=25623305","originalUrl":"https://hothardware.com/news/amd-patent-hybrid-cpu-fpga-design-xilinx","imageRemote":"https://images.hothardware.com/contentimages/newsitem/53861/content/xilinx-office.jpg","video":null,"channel":null,"channelUrl":null,"author":"craigjb","authorUrl":"https://news.ycombinator.com/user?id=craigjb","authorImage":null,"authorSlug":null,"score":277,"views":null,"sharedCount":null,"likeCount":null,"sharedContent":null,"parent":{"__typename":"HnJson","localize":[{"title":"AMD专利揭示可由Xilinx技术实现的CPU-FPGA混合设计","locale":"zh"},{"title":"AMD專利揭示可由Xilinx技術實現的CPU-FPGA混合設計","locale":"zh-Hant"}]}},{"__typename":"SocialMediaPost","id":"HnPost-25620707","excerpt":"","slug":"/hn/25620707","title":"When Big Brands Stopped Spending on Digital Ads, Nothing Happened. Why?","date":"January 03, 2021","dateISO":"2021-01-03T23:39:50.972Z","datetime":"2021-01-03 23:39","tags":["story","Hacker News"],"image":null,"imageAlt":null,"provider":"Hacker News","thirdPartyId":"25620707","url":"https://news.ycombinator.com/item?id=25620707","originalUrl":"https://www.forbes.com/sites/augustinefou/2021/01/02/when-big-brands-stopped-spending-on-digital-ads-nothing-happened-why/","imageRemote":"https://thumbor.forbes.com/thumbor/fit-in/1200x0/filters%3Aformat(jpg)/https%3A%2F%2Fspecials-images.forbesimg.com%2Fimageserve%2F5ff07d45bcd52228b578e8e7%2F0x0.jpg%3FcropX1%3D235%26cropX2%3D4677%26cropY1%3D183%26cropY2%3D2265","video":null,"channel":null,"channelUrl":null,"author":"ZeljkoS","authorUrl":"https://news.ycombinator.com/user?id=ZeljkoS","authorImage":null,"authorSlug":null,"score":277,"views":null,"sharedCount":null,"likeCount":null,"sharedContent":null,"parent":{"__typename":"HnJson","localize":[{"title":"当大品牌停止在数字广告上投入资金时，什么也没有发生。为什么？","locale":"zh"},{"title":"當大品牌停止在數字廣告上投入資金時，什麼也沒有發生。爲什麼？","locale":"zh-Hant"}]}},{"__typename":"SocialMediaPost","id":"HnPost-25622756","excerpt":"","slug":"/hn/25622756","title":"How to open a file in Emacs: a story about Lisp, technology, and human progress","date":"January 03, 2021","dateISO":"2021-01-03T23:39:50.972Z","datetime":"2021-01-03 23:39","tags":["story","Hacker News"],"image":null,"imageAlt":null,"provider":"Hacker News","thirdPartyId":"25622756","url":"https://news.ycombinator.com/item?id=25622756","originalUrl":"https://www.murilopereira.com/how-to-open-a-file-in-emacs/","imageRemote":"https://www.murilopereira.com/tron.jpg","video":null,"channel":null,"channelUrl":null,"author":"mpereira","authorUrl":"https://news.ycombinator.com/user?id=mpereira","authorImage":null,"authorSlug":null,"score":249,"views":null,"sharedCount":null,"likeCount":null,"sharedContent":null,"parent":{"__typename":"HnJson","localize":[{"title":"如何在Emacs中打开文件：关于Lisp、技术和人类进步的故事","locale":"zh"},{"title":"如何在Emacs中打開文件：關於Lisp、技術和人類進步的故事","locale":"zh-Hant"}]}},{"__typename":"SocialMediaPost","id":"HnPost-25624112","excerpt":"","slug":"/hn/25624112","title":"URL shorteners set ad tracking cookies","date":"January 03, 2021","dateISO":"2021-01-03T23:04:52.459Z","datetime":"2021-01-03 23:04","tags":["story","Hacker News"],"image":null,"imageAlt":null,"provider":"Hacker News","thirdPartyId":"25624112","url":"https://news.ycombinator.com/item?id=25624112","originalUrl":"https://ylukem.com/blog/url-shorteners-set-ad-tracking-cookies","imageRemote":null,"video":null,"channel":null,"channelUrl":null,"author":"firloop","authorUrl":"https://news.ycombinator.com/user?id=firloop","authorImage":null,"authorSlug":null,"score":495,"views":null,"sharedCount":null,"likeCount":null,"sharedContent":null,"parent":{"__typename":"HnJson","localize":[{"title":"URL缩短器设置广告跟踪cookie","locale":"zh"},{"title":"URL縮短器設置廣告跟蹤cookie","locale":"zh-Hant"}]}},{"__typename":"SocialMediaPost","id":"HnPost-25624044","excerpt":"","slug":"/hn/25624044","title":"Unanswered user makes question their MS thesis and answers self 2 years later","date":"January 03, 2021","dateISO":"2021-01-03T22:34:17.811Z","datetime":"2021-01-03 22:34","tags":["story","Hacker News"],"image":null,"imageAlt":null,"provider":"Hacker News","thirdPartyId":"25624044","url":"https://news.ycombinator.com/item?id=25624044","originalUrl":"https://stackoverflow.com/questions/47444189/immediate-mode-gui-performance","imageRemote":"https://cdn.sstatic.net/Sites/stackoverflow/Img/apple-touch-icon@2.png?v=73d79a89bded","video":null,"channel":null,"channelUrl":null,"author":"anderspitman","authorUrl":"https://news.ycombinator.com/user?id=anderspitman","authorImage":null,"authorSlug":null,"score":417,"views":null,"sharedCount":null,"likeCount":null,"sharedContent":null,"parent":{"__typename":"HnJson","localize":[{"title":"2年后，未回答的用户将问题作为他们的硕士论文并自行回答","locale":"zh"},{"title":"2年後，未回答的用戶將問題作爲他們的碩士論文並自行回答","locale":"zh-Hant"}]}},{"__typename":"SocialMediaPost","id":"HnPost-25621519","excerpt":"","slug":"/hn/25621519","title":"Tell HN: Please update your DNS records when abandoning servers","date":"January 03, 2021","dateISO":"2021-01-03T21:35:47.047Z","datetime":"2021-01-03 21:35","tags":["story","Hacker News"],"image":null,"imageAlt":null,"provider":"Hacker News","thirdPartyId":"25621519","url":"https://news.ycombinator.com/item?id=25621519","originalUrl":"https://news.ycombinator.com/item?id=25621519","imageRemote":null,"video":null,"channel":null,"channelUrl":null,"author":"mwgarcia","authorUrl":"https://news.ycombinator.com/user?id=mwgarcia","authorImage":null,"authorSlug":null,"score":175,"views":null,"sharedCount":null,"likeCount":null,"sharedContent":null,"parent":{"__typename":"HnJson","localize":[{"title":"告诉HN：请在放弃服务器时更新您的DNS记录","locale":"zh"},{"title":"告訴HN：請在放棄服務器時更新您的DNS記錄","locale":"zh-Hant"}]}},{"__typename":"SocialMediaPost","id":"HnPost-25623634","excerpt":"","slug":"/hn/25623634","title":"Rust is now overall faster than C in benchmarks","date":"January 03, 2021","dateISO":"2021-01-03T21:11:16.141Z","datetime":"2021-01-03 21:11","tags":["story","Hacker News"],"image":null,"imageAlt":null,"provider":"Hacker News","thirdPartyId":"25623634","url":"https://news.ycombinator.com/item?id=25623634","originalUrl":"https://benchmarksgame-team.pages.debian.net/benchmarksgame/which-programs-are-fastest.html","imageRemote":"https://benchmarksgame-team.pages.debian.net/benchmarksgame/download/fastest-more.svg","video":null,"channel":null,"channelUrl":null,"author":"wiineeth","authorUrl":"https://news.ycombinator.com/user?id=wiineeth","authorImage":null,"authorSlug":null,"score":692,"views":null,"sharedCount":null,"likeCount":null,"sharedContent":null,"parent":{"__typename":"HnJson","localize":[{"title":"在基准测试中，铁锈现在总体上比C语言快","locale":"zh"},{"title":"在基準測試中，鐵鏽現在總體上比C語言快","locale":"zh-Hant"}]}},{"__typename":"SocialMediaPost","id":"HnPost-25607397","excerpt":"","slug":"/hn/25607397","title":"A megacorp is not your dream job","date":"January 03, 2021","dateISO":"2021-01-03T19:42:11.174Z","datetime":"2021-01-03 19:42","tags":["story","Hacker News"],"image":null,"imageAlt":null,"provider":"Hacker News","thirdPartyId":"25607397","url":"https://news.ycombinator.com/item?id=25607397","originalUrl":"https://drewdevault.com/2021/01/01/Megacorps-are-not-your-dream-job.html","imageRemote":null,"video":null,"channel":null,"channelUrl":null,"author":"ddevault","authorUrl":"https://news.ycombinator.com/user?id=ddevault","authorImage":null,"authorSlug":null,"score":154,"views":null,"sharedCount":null,"likeCount":null,"sharedContent":null,"parent":{"__typename":"HnJson","localize":[{"title":"大公司不是你梦想的工作","locale":"zh"},{"title":"大公司不是你夢想的工作","locale":"zh-Hant"}]}},{"__typename":"SocialMediaPost","id":"HnPost-25622149","excerpt":"","slug":"/hn/25622149","title":"How to Stop Endless Discussions","date":"January 03, 2021","dateISO":"2021-01-03T19:42:11.174Z","datetime":"2021-01-03 19:42","tags":["story","Hacker News"],"image":null,"imageAlt":null,"provider":"Hacker News","thirdPartyId":"25622149","url":"https://news.ycombinator.com/item?id=25622149","originalUrl":"https://candost.blog/how-to-stop-endless-discussions/","imageRemote":"https://candost.blog/content/images/2020/12/30daysreplay-marketingberatung-KpTZRPEpGC0-unsplash-1.jpg","video":null,"channel":null,"channelUrl":null,"author":"candost","authorUrl":"https://news.ycombinator.com/user?id=candost","authorImage":null,"authorSlug":null,"score":340,"views":null,"sharedCount":null,"likeCount":null,"sharedContent":null,"parent":{"__typename":"HnJson","localize":[{"title":"如何停止没完没了的讨论","locale":"zh"},{"title":"如何停止沒完沒了的討論","locale":"zh-Hant"}]}},{"__typename":"SocialMediaPost","id":"HnPost-25623010","excerpt":"","slug":"/hn/25623010","title":"I logged my activities at 15-minute intervals for the whole year","date":"January 03, 2021","dateISO":"2021-01-03T19:42:11.174Z","datetime":"2021-01-03 19:42","tags":["story","Hacker News"],"image":null,"imageAlt":null,"provider":"Hacker News","thirdPartyId":"25623010","url":"https://news.ycombinator.com/item?id=25623010","originalUrl":"https://samplesize.one/blog/posts/my_year_in_data/","imageRemote":"https://samplesize.one/img/spreadsheet_banner.png","video":null,"channel":null,"channelUrl":null,"author":"HuangYuSan","authorUrl":"https://news.ycombinator.com/user?id=HuangYuSan","authorImage":null,"authorSlug":null,"score":684,"views":null,"sharedCount":null,"likeCount":null,"sharedContent":null,"parent":{"__typename":"HnJson","localize":[{"title":"我全年每隔15分钟记录我的活动。","locale":"zh"},{"title":"我全年每隔15分鐘記錄我的活動。","locale":"zh-Hant"}]}},{"__typename":"SocialMediaPost","id":"HnPost-25623858","excerpt":"","slug":"/hn/25623858","title":"Uber discovered they’d been defrauded out of 2/3 of their ad spend","date":"January 03, 2021","dateISO":"2021-01-03T19:42:11.174Z","datetime":"2021-01-03 19:42","tags":["story","Hacker News"],"image":null,"imageAlt":null,"provider":"Hacker News","thirdPartyId":"25623858","url":"https://news.ycombinator.com/item?id=25623858","originalUrl":"https://twitter.com/nandoodles/status/1345774768746852353","imageRemote":null,"video":null,"channel":null,"channelUrl":null,"author":"rbanffy","authorUrl":"https://news.ycombinator.com/user?id=rbanffy","authorImage":null,"authorSlug":null,"score":1785,"views":null,"sharedCount":null,"likeCount":null,"sharedContent":null,"parent":{"__typename":"HnJson","localize":[{"title":"优步发现他们被骗走了三分之二的广告支出","locale":"zh"},{"title":"優步發現他們被騙走了三分之二的廣告支出","locale":"zh-Hant"}]}},{"__typename":"SocialMediaPost","id":"HnPost-25619319","excerpt":"","slug":"/hn/25619319","title":"Dockerfile Best Practices","date":"January 03, 2021","dateISO":"2021-01-03T18:21:09.170Z","datetime":"2021-01-03 18:21","tags":["story","Hacker News"],"image":null,"imageAlt":null,"provider":"Hacker News","thirdPartyId":"25619319","url":"https://news.ycombinator.com/item?id=25619319","originalUrl":"https://github.com/hexops/dockerfile","imageRemote":"https://avatars2.githubusercontent.com/u/19482899?s=400&v=4","video":null,"channel":null,"channelUrl":null,"author":"sidcool","authorUrl":"https://news.ycombinator.com/user?id=sidcool","authorImage":null,"authorSlug":null,"score":195,"views":null,"sharedCount":null,"likeCount":null,"sharedContent":null,"parent":{"__typename":"HnJson","localize":[{"title":"Dockerfile最佳实践","locale":"zh"},{"title":"Dockerfile最佳實踐","locale":"zh-Hant"}]}},{"__typename":"SocialMediaPost","id":"HnPost-25621809","excerpt":"","slug":"/hn/25621809","title":"Indian Govt to buy bulk subscription of scientific journals and give free access","date":"January 03, 2021","dateISO":"2021-01-03T17:41:25.110Z","datetime":"2021-01-03 17:41","tags":["story","Hacker News"],"image":null,"imageAlt":null,"provider":"Hacker News","thirdPartyId":"25621809","url":"https://news.ycombinator.com/item?id=25621809","originalUrl":"https://indianexpress.com/article/india/pune/one-nation-one-subscription-govt-draft-policy-7128799/lite/","imageRemote":"https://images.indianexpress.com/2021/01/research.jpg","video":null,"channel":null,"channelUrl":null,"author":"sandGorgon","authorUrl":"https://news.ycombinator.com/user?id=sandGorgon","authorImage":null,"authorSlug":null,"score":279,"views":null,"sharedCount":null,"likeCount":null,"sharedContent":null,"parent":{"__typename":"HnJson","localize":[{"title":"印度政府将购买批量订阅科学期刊并提供免费访问","locale":"zh"},{"title":"印度政府將購買批量訂閱科學期刊並提供免費訪問","locale":"zh-Hant"}]}},{"__typename":"SocialMediaPost","id":"HnPost-25622015","excerpt":"","slug":"/hn/25622015","title":"The Great Suspender: New maintainer is probably malicious","date":"January 03, 2021","dateISO":"2021-01-03T16:53:46.160Z","datetime":"2021-01-03 16:53","tags":["story","Hacker News"],"image":null,"imageAlt":null,"provider":"Hacker News","thirdPartyId":"25622015","url":"https://news.ycombinator.com/item?id=25622015","originalUrl":"https://github.com/greatsuspender/thegreatsuspender/issues/1263","imageRemote":"https://avatars0.githubusercontent.com/u/11603828?s=400&v=4","video":null,"channel":null,"channelUrl":null,"author":"AdamGibbins","authorUrl":"https://news.ycombinator.com/user?id=AdamGibbins","authorImage":null,"authorSlug":null,"score":381,"views":null,"sharedCount":null,"likeCount":null,"sharedContent":null,"parent":{"__typename":"HnJson","localize":[{"title":"伟大的悬挂者：新的维护者可能是恶意的","locale":"zh"},{"title":"偉大的懸掛者：新的維護者可能是惡意的","locale":"zh-Hant"}]}},{"__typename":"SocialMediaPost","id":"HnPost-25622322","excerpt":"","slug":"/hn/25622322","title":"Linus Torvalds: ECC matters","date":"January 03, 2021","dateISO":"2021-01-03T16:53:46.160Z","datetime":"2021-01-03 16:53","tags":["story","Hacker News"],"image":null,"imageAlt":null,"provider":"Hacker News","thirdPartyId":"25622322","url":"https://news.ycombinator.com/item?id=25622322","originalUrl":"https://www.realworldtech.com/forum/?threadid=198497&curpostid=198647","imageRemote":"https://www.realworldtech.com/wp-content/themes/child/images/facebook.png","video":null,"channel":null,"channelUrl":null,"author":"rajesh-s","authorUrl":"https://news.ycombinator.com/user?id=rajesh-s","authorImage":null,"authorSlug":null,"score":1045,"views":null,"sharedCount":null,"likeCount":null,"sharedContent":null,"parent":{"__typename":"HnJson","localize":[{"title":"莱纳斯·托瓦尔兹：ECC问题","locale":"zh"},{"title":"萊納斯·託瓦爾茲：ECC問題","locale":"zh-Hant"}]}},{"__typename":"SocialMediaPost","id":"HnPost-25613187","excerpt":"","slug":"/hn/25613187","title":"Setting up personal OKR (objectives and key-results)","date":"January 03, 2021","dateISO":"2021-01-03T16:00:51.470Z","datetime":"2021-01-03 16:00","tags":["story","Hacker News"],"image":null,"imageAlt":null,"provider":"Hacker News","thirdPartyId":"25613187","url":"https://news.ycombinator.com/item?id=25613187","originalUrl":"https://hackpravj.com/blog/personal-okr-2021-plan/","imageRemote":"https://hackpravj.com/images/pageimage-setting-up-personal-okr-jfm-2021.png","video":null,"channel":null,"channelUrl":null,"author":"pravj","authorUrl":"https://news.ycombinator.com/user?id=pravj","authorImage":null,"authorSlug":null,"score":161,"views":null,"sharedCount":null,"likeCount":null,"sharedContent":null,"parent":{"__typename":"HnJson","localize":[{"title":"设置个人OKR(目标和关键结果)","locale":"zh"},{"title":"設置個人OKR(目標和關鍵結果)","locale":"zh-Hant"}]}},{"__typename":"SocialMediaPost","id":"HnPost-25620448","excerpt":"","slug":"/hn/25620448","title":"A new release for GNU Octave","date":"January 03, 2021","dateISO":"2021-01-03T16:00:51.470Z","datetime":"2021-01-03 16:00","tags":["story","Hacker News"],"image":null,"imageAlt":null,"provider":"Hacker News","thirdPartyId":"25620448","url":"https://news.ycombinator.com/item?id=25620448","originalUrl":"https://lwn.net/Articles/840050/","imageRemote":"https://static.lwn.net/images/logo/barepenguin-70.png","video":null,"channel":null,"channelUrl":null,"author":"signa11","authorUrl":"https://news.ycombinator.com/user?id=signa11","authorImage":null,"authorSlug":null,"score":197,"views":null,"sharedCount":null,"likeCount":null,"sharedContent":null,"parent":{"__typename":"HnJson","localize":[{"title":"GNU Octave的新版本","locale":"zh"},{"title":"GNU Octave的新版本","locale":"zh-Hant"}]}},{"__typename":"SocialMediaPost","id":"HnPost-25620372","excerpt":"","slug":"/hn/25620372","title":"2021 GPS Accuracy Issue Impacting Some Garmin, Suunto, other GPS Devices","date":"January 03, 2021","dateISO":"2021-01-03T15:30:07.723Z","datetime":"2021-01-03 15:30","tags":["story","Hacker News"],"image":null,"imageAlt":null,"provider":"Hacker News","thirdPartyId":"25620372","url":"https://news.ycombinator.com/item?id=25620372","originalUrl":"https://www.dcrainmaker.com/2021/01/gps-accuracy-impacting-devices.html","imageRemote":"https://media.dcrainmaker.com/images/2021/01/SatelliteSonyIssue.jpg","video":null,"channel":null,"channelUrl":null,"author":"dll","authorUrl":"https://news.ycombinator.com/user?id=dll","authorImage":null,"authorSlug":null,"score":227,"views":null,"sharedCount":null,"likeCount":null,"sharedContent":null,"parent":{"__typename":"HnJson","localize":[{"title":"2021年GPS精度问题影响一些Garmin、Suinto和其他GPS设备","locale":"zh"},{"title":"2021年GPS精度問題影響一些Garmin、Suinto和其他GPS設備","locale":"zh-Hant"}]}},{"__typename":"SocialMediaPost","id":"HnPost-25620110","excerpt":"","slug":"/hn/25620110","title":"Rust Design Patterns as a Book","date":"January 03, 2021","dateISO":"2021-01-03T14:42:51.450Z","datetime":"2021-01-03 14:42","tags":["story","Hacker News"],"image":null,"imageAlt":null,"provider":"Hacker News","thirdPartyId":"25620110","url":"https://news.ycombinator.com/item?id=25620110","originalUrl":"https://rust-unofficial.github.io/patterns/","imageRemote":null,"video":null,"channel":null,"channelUrl":null,"author":"WnZ39p0Dgydaz1","authorUrl":"https://news.ycombinator.com/user?id=WnZ39p0Dgydaz1","authorImage":null,"authorSlug":null,"score":236,"views":null,"sharedCount":null,"likeCount":null,"sharedContent":null,"parent":{"__typename":"HnJson","localize":[{"title":"把生锈的设计模式当成一本书","locale":"zh"},{"title":"把生鏽的設計模式當成一本書","locale":"zh-Hant"}]}},{"__typename":"SocialMediaPost","id":"HnPost-25618302","excerpt":"","slug":"/hn/25618302","title":"Zig in 30 Minutes","date":"January 03, 2021","dateISO":"2021-01-03T11:36:29.591Z","datetime":"2021-01-03 11:36","tags":["story","Hacker News"],"image":null,"imageAlt":null,"provider":"Hacker News","thirdPartyId":"25618302","url":"https://news.ycombinator.com/item?id=25618302","originalUrl":"https://gist.github.com/ityonemo/769532c2017ed9143f3571e5ac104e50","imageRemote":"https://github.githubassets.com/images/modules/gists/gist-og-image.png","video":null,"channel":null,"channelUrl":null,"author":"dnautics","authorUrl":"https://news.ycombinator.com/user?id=dnautics","authorImage":null,"authorSlug":null,"score":279,"views":null,"sharedCount":null,"likeCount":null,"sharedContent":null,"parent":{"__typename":"HnJson","localize":[{"title":"30分钟后呈之字形","locale":"zh"},{"title":"30分鐘後呈之字形","locale":"zh-Hant"}]}},{"__typename":"SocialMediaPost","id":"HnPost-25618346","excerpt":"","slug":"/hn/25618346","title":"Encrypted Backup Shootout","date":"January 03, 2021","dateISO":"2021-01-03T11:36:29.591Z","datetime":"2021-01-03 11:36","tags":["story","Hacker News"],"image":null,"imageAlt":null,"provider":"Hacker News","thirdPartyId":"25618346","url":"https://news.ycombinator.com/item?id=25618346","originalUrl":"https://acha.ninja/blog/encrypted_backup_shootout/","imageRemote":"https://acha.ninja/img/Test_Snapshot_Size.svg","video":null,"channel":null,"channelUrl":null,"author":"andrewchambers","authorUrl":"https://news.ycombinator.com/user?id=andrewchambers","authorImage":null,"authorSlug":null,"score":207,"views":null,"sharedCount":null,"likeCount":null,"sharedContent":null,"parent":{"__typename":"HnJson","localize":[{"title":"加密备份快照","locale":"zh"},{"title":"加密備份快照","locale":"zh-Hant"}]}},{"__typename":"SocialMediaPost","id":"HnPost-25616682","excerpt":"","slug":"/hn/25616682","title":"France Hits Record 19.2% EV Share in December – Up Almost 6× Year on Year","date":"January 03, 2021","dateISO":"2021-01-03T10:08:18.031Z","datetime":"2021-01-03 10:08","tags":["story","Hacker News"],"image":null,"imageAlt":null,"provider":"Hacker News","thirdPartyId":"25616682","url":"https://news.ycombinator.com/item?id=25616682","originalUrl":"https://cleantechnica.com/2021/01/02/france-hits-record-19-2-ev-share-in-december-up-almost-6x-year-on-year/","imageRemote":"https://cleantechnica.com/files/2021/01/December-2020-France-Passenger-Auto-Registrations-Tidy.png","video":null,"channel":null,"channelUrl":null,"author":"finphil","authorUrl":"https://news.ycombinator.com/user?id=finphil","authorImage":null,"authorSlug":null,"score":164,"views":null,"sharedCount":null,"likeCount":null,"sharedContent":null,"parent":{"__typename":"HnJson","localize":[{"title":"法国12月份电动汽车份额达到创纪录的19.2%-同比增长近6倍","locale":"zh"},{"title":"法國12月份電動汽車份額達到創紀錄的19.2%-同比增長近6倍","locale":"zh-Hant"}]}},{"__typename":"SocialMediaPost","id":"HnPost-25618245","excerpt":"","slug":"/hn/25618245","title":"Apple reverses stance on Amphetamine App","date":"January 03, 2021","dateISO":"2021-01-03T10:08:18.031Z","datetime":"2021-01-03 10:08","tags":["story","Hacker News"],"image":null,"imageAlt":null,"provider":"Hacker News","thirdPartyId":"25618245","url":"https://news.ycombinator.com/item?id=25618245","originalUrl":"https://www.engadget.com/apple-will-not-ban-mac-app-amphetamine-from-store-224919743.html","imageRemote":"https://o.aolcdn.com/images/dims?resize=1200%2C630&crop=1200%2C630%2C0%2C0&quality=95&image_uri=https%3A%2F%2Fs.yimg.com%2Fos%2Fcreatr-uploaded-images%2F2021-01%2F98f529c0-4d48-11eb-b62f-1321a8b0204b&client=amp-blogside-v2&signature=41f2eeec2577c63d347dbbcf6dd8a0461f713006","video":null,"channel":null,"channelUrl":null,"author":"camhart","authorUrl":"https://news.ycombinator.com/user?id=camhart","authorImage":null,"authorSlug":null,"score":287,"views":null,"sharedCount":null,"likeCount":null,"sharedContent":null,"parent":{"__typename":"HnJson","localize":[{"title":"苹果逆转对安非他明应用的立场","locale":"zh"},{"title":"蘋果逆轉對安非他明應用的立場","locale":"zh-Hant"}]}},{"__typename":"SocialMediaPost","id":"HnPost-25617029","excerpt":"","slug":"/hn/25617029","title":"The Eerie Beauty of the Apple Watch Solar Face, and the Anatomy of Nightfall","date":"January 03, 2021","dateISO":"2021-01-03T08:03:23.901Z","datetime":"2021-01-03 08:03","tags":["story","Hacker News"],"image":null,"imageAlt":null,"provider":"Hacker News","thirdPartyId":"25617029","url":"https://news.ycombinator.com/item?id=25617029","originalUrl":"https://www.hodinkee.com/articles/the-eerie-beauty-of-the-apple-watch-solar-face-and-the-anatomy-of-nightfall","imageRemote":"https://hodinkee.imgix.net/uploads/images/1586204216446-a85tzyldlzw-07b0e1ecf80a72480564672754d2cf6b/hero.jpg?ixlib=rails-1.1.0&fm=jpg&q=55&auto=format&usm=12&w=1000","video":null,"channel":null,"channelUrl":null,"author":"janniks","authorUrl":"https://news.ycombinator.com/user?id=janniks","authorImage":null,"authorSlug":null,"score":238,"views":null,"sharedCount":null,"likeCount":null,"sharedContent":null,"parent":{"__typename":"HnJson","localize":[{"title":"苹果手表太阳面的怪异之美，以及夜幕的解剖","locale":"zh"},{"title":"蘋果手錶太陽面的怪異之美，以及夜幕的解剖","locale":"zh-Hant"}]}},{"__typename":"SocialMediaPost","id":"HnPost-25617601","excerpt":"","slug":"/hn/25617601","title":"Apple Backtracks After Popular Mac App 'Amphetamine' Threatened with Removal","date":"January 03, 2021","dateISO":"2021-01-03T05:16:30.218Z","datetime":"2021-01-03 05:16","tags":["story","Hacker News"],"image":null,"imageAlt":null,"provider":"Hacker News","thirdPartyId":"25617601","url":"https://news.ycombinator.com/item?id=25617601","originalUrl":"https://www.macrumors.com/2021/01/02/amphetamine-app-store-removal-threat/","imageRemote":"https://images.macrumors.com/t/tcXbijFGnxajsX7d7TiTVxxLsEg=/1890x/https://images.macrumors.com/article-new/2021/01/amphetamine.jpg","video":null,"channel":null,"channelUrl":null,"author":"jordigg","authorUrl":"https://news.ycombinator.com/user?id=jordigg","authorImage":null,"authorSlug":null,"score":236,"views":null,"sharedCount":null,"likeCount":null,"sharedContent":null,"parent":{"__typename":"HnJson","localize":[{"title":"苹果在广受欢迎的Mac应用程序“安非他命”威胁要下架后走回头路","locale":"zh"},{"title":"蘋果在廣受歡迎的Mac應用程序“安非他命”威脅要下架後走回頭路","locale":"zh-Hant"}]}}]}},"pageContext":{"basePath":"/","pageType":"tag","tag":"Hacker News","tagsFilter":{"id":{"glob":"!*Post-1"}},"filter":{"id":{"glob":"!*Post-1"},"tags":{"eq":"Hacker News"}},"limit":25,"skip":150,"total":801,"totalPages":33,"currentPage":7,"maxWidth":1024,"maxHeight":512,"locale":"zh","hrefLang":"zh-Hans","originalPath":"/tags/hacker-news/page/7","dateFormat":"YYYY-MM-DD"}},"staticQueryHashes":["1239077767","1684688348","2506312863","2744905544","3493603132","3493603132","386998304"]}