{"componentChunkName":"component---gatsby-theme-buzzing-src-gatsby-theme-timeline-templates-posts-query-js","path":"/tags/story/page/20","result":{"data":{"site":{"siteMetadata":{"title":"Reddit 热门","description":"用中文浏览Reddit热门内容","social":[{"name":"Twitter","url":"https://twitter.com/gatsbyjs","external":null,"prefetch":null},{"name":"GitHub","url":"https://github.com/gatsbyjs","external":null,"prefetch":null}],"menuLinks":[],"localize":[{"locale":"en","title":"Buzzing on Reddit","description":"See what's buzzing on Reddit in your native language","social":[{"name":"Reddit","url":"https://www.reddit.com/","external":true,"prefetch":null}],"menuLinks":[{"name":"Weekly Selection","url":"/issues","external":null,"prefetch":null},{"name":"RSS","url":"/rss.xml","external":null,"prefetch":false}]},{"locale":"zh-Hant","title":"Reddit 熱門","description":"用中文瀏覽Reddit熱門內容","social":null,"menuLinks":null}]}},"tagsGroup":{"group":[{"fieldValue":"ASK HN","totalCount":44},{"fieldValue":"Bitcoin","totalCount":4},{"fieldValue":"Hacker News","totalCount":2600},{"fieldValue":"Poll","totalCount":1},{"fieldValue":"SaveAMC","totalCount":1},{"fieldValue":"Show HN","totalCount":89},{"fieldValue":"bitcoin","totalCount":3},{"fieldValue":"investing","totalCount":797},{"fieldValue":"poll","totalCount":1},{"fieldValue":"reddit","totalCount":4938},{"fieldValue":"science","totalCount":1},{"fieldValue":"stocks","totalCount":1592},{"fieldValue":"story","totalCount":2599},{"fieldValue":"tweet","totalCount":814},{"fieldValue":"wallstreetbets","totalCount":2549}]},"allBlogPost":{"nodes":[{"__typename":"SocialMediaPost","id":"HnPost-26299778","excerpt":"","slug":"/hn/26299778","title":"Wikinews mourns loss of volunteer John Shutt","date":"March 01, 2021","dateISO":"2021-03-01T16:46:39.902Z","datetime":"2021-03-01 16:46","tags":["story","Hacker News"],"image":null,"imageAlt":null,"provider":"Hacker News","thirdPartyId":"26299778","url":"https://news.ycombinator.com/item?id=26299778","originalUrl":"https://en.wikinews.org/wiki/Wikinews_mourns_loss_of_volunteer_John_Shutt","imageRemote":"https://upload.wikimedia.org/wikipedia/commons/d/d6/Wikinews-logo-obituaries.png","video":null,"channel":null,"channelUrl":null,"author":"slondr","authorUrl":"https://news.ycombinator.com/user?id=slondr","authorImage":null,"authorSlug":null,"score":193,"views":null,"sharedCount":null,"likeCount":null,"sharedContent":null,"parent":{"__typename":"HnJson","localize":[{"title":"维基新闻哀悼志愿者约翰-舒特的去世","locale":"zh"},{"title":"維基新聞哀悼志願者約翰-舒特的去世","locale":"zh-Hant"}]}},{"__typename":"SocialMediaPost","id":"HnPost-26301030","excerpt":"","slug":"/hn/26301030","title":"Build a Business, Not an Audience","date":"March 01, 2021","dateISO":"2021-03-01T16:46:39.902Z","datetime":"2021-03-01 16:46","tags":["story","Hacker News"],"image":null,"imageAlt":null,"provider":"Hacker News","thirdPartyId":"26301030","url":"https://news.ycombinator.com/item?id=26301030","originalUrl":"https://jakobgreenfeld.com/build_an_audience","imageRemote":"http://jakobgreenfeld.com/images/build_an_audience.png","video":null,"channel":null,"channelUrl":null,"author":"jakobgreenfeld","authorUrl":"https://news.ycombinator.com/user?id=jakobgreenfeld","authorImage":null,"authorSlug":null,"score":208,"views":null,"sharedCount":null,"likeCount":null,"sharedContent":null,"parent":{"__typename":"HnJson","localize":[{"title":"建立一个业务，而不是一个观众","locale":"zh"},{"title":"建立一個業務，而不是一個觀衆","locale":"zh-Hant"}]}},{"__typename":"SocialMediaPost","id":"HnPost-26302744","excerpt":"","slug":"/hn/26302744","title":"Parsing can become accidentally quadratic because of sscanf","date":"March 01, 2021","dateISO":"2021-03-01T16:46:39.902Z","datetime":"2021-03-01 16:46","tags":["story","Hacker News"],"image":null,"imageAlt":null,"provider":"Hacker News","thirdPartyId":"26302744","url":"https://news.ycombinator.com/item?id=26302744","originalUrl":"https://github.com/biojppm/rapidyaml/issues/40","imageRemote":"https://avatars.githubusercontent.com/u/325344?s=400&v=4","video":null,"channel":null,"channelUrl":null,"author":"JdeBP","authorUrl":"https://news.ycombinator.com/user?id=JdeBP","authorImage":null,"authorSlug":null,"score":505,"views":null,"sharedCount":null,"likeCount":null,"sharedContent":null,"parent":{"__typename":"HnJson","localize":[{"title":"解析可能会因为sskanf的原因而意外地变成二次元。","locale":"zh"},{"title":"解析可能會因爲sskanf的原因而意外地變成二次元。","locale":"zh-Hant"}]}},{"__typename":"SocialMediaPost","id":"HnPost-26302139","excerpt":"","slug":"/hn/26302139","title":"Use Touch ID for Sudo on Mac","date":"March 01, 2021","dateISO":"2021-03-01T15:39:23.770Z","datetime":"2021-03-01 15:39","tags":["story","Hacker News"],"image":null,"imageAlt":null,"provider":"Hacker News","thirdPartyId":"26302139","url":"https://news.ycombinator.com/item?id=26302139","originalUrl":"https://davidwalsh.name/touch-sudo","imageRemote":"https://davidwalsh.name/wp-content/themes/punky/images/logo.png","video":null,"channel":null,"channelUrl":null,"author":"syck","authorUrl":"https://news.ycombinator.com/user?id=syck","authorImage":null,"authorSlug":null,"score":507,"views":null,"sharedCount":null,"likeCount":null,"sharedContent":null,"parent":{"__typename":"HnJson","localize":[{"title":"在 Mac 上使用 Touch ID 进行 Sudo","locale":"zh"},{"title":"在 Mac 上使用 Touch ID 進行 Sudo","locale":"zh-Hant"}]}},{"__typename":"SocialMediaPost","id":"HnPost-26301395","excerpt":"","slug":"/hn/26301395","title":"The Hijacking of Perl.com","date":"March 01, 2021","dateISO":"2021-03-01T14:35:50.150Z","datetime":"2021-03-01 14:35","tags":["story","Hacker News"],"image":null,"imageAlt":null,"provider":"Hacker News","thirdPartyId":"26301395","url":"https://news.ycombinator.com/item?id=26301395","originalUrl":"https://www.perl.com/article/the-hijacking-of-perl-com/","imageRemote":"https://perl.com/images/the_hijack_of_perldotcom/crime.jpg","video":null,"channel":null,"channelUrl":null,"author":"leejo","authorUrl":"https://news.ycombinator.com/user?id=leejo","authorImage":null,"authorSlug":null,"score":296,"views":null,"sharedCount":null,"likeCount":null,"sharedContent":null,"parent":{"__typename":"HnJson","localize":[{"title":"Perl.com的劫持","locale":"zh"},{"title":"Perl.com的劫持","locale":"zh-Hant"}]}},{"__typename":"SocialMediaPost","id":"HnPost-26300139","excerpt":"","slug":"/hn/26300139","title":"On the Experience of Being Poor-Ish, for People Who Aren't","date":"March 01, 2021","dateISO":"2021-03-01T13:44:55.015Z","datetime":"2021-03-01 13:44","tags":["story","Hacker News"],"image":null,"imageAlt":null,"provider":"Hacker News","thirdPartyId":"26300139","url":"https://news.ycombinator.com/item?id=26300139","originalUrl":"https://residentcontrarian.substack.com/p/on-the-experience-of-being-poor-ish","imageRemote":"https://cdn.substack.com/image/fetch/w_1200,c_limit,f_jpg,q_auto:good,fl_progressive:steep/https%3A%2F%2Fbucketeer-e05bbc84-baa3-437e-9518-adb32be77984.s3.amazonaws.com%2Fpublic%2Fimages%2F33df3846-bcbc-437b-b469-61cf37d20a24_893x544.png","video":null,"channel":null,"channelUrl":null,"author":"maxwelljoslyn","authorUrl":"https://news.ycombinator.com/user?id=maxwelljoslyn","authorImage":null,"authorSlug":null,"score":774,"views":null,"sharedCount":null,"likeCount":null,"sharedContent":null,"parent":{"__typename":"HnJson","localize":[{"title":"论 \"穷一什 \"的体验，给不穷的人看","locale":"zh"},{"title":"論 \"窮一什 \"的體驗，給不窮的人看","locale":"zh-Hant"}]}},{"__typename":"SocialMediaPost","id":"HnPost-26299212","excerpt":"","slug":"/hn/26299212","title":"152kb WebAssembly interpreter that runs on six OSs with Cosmopolitan","date":"March 01, 2021","dateISO":"2021-03-01T12:59:23.415Z","datetime":"2021-03-01 12:59","tags":["story","Hacker News"],"image":null,"imageAlt":null,"provider":"Hacker News","thirdPartyId":"26299212","url":"https://news.ycombinator.com/item?id=26299212","originalUrl":"https://github.com/wasm3/wasm3/releases/tag/v0.4.8","imageRemote":"https://avatars.githubusercontent.com/u/58013131?s=400&v=4","video":null,"channel":null,"channelUrl":null,"author":"tambourine_man","authorUrl":"https://news.ycombinator.com/user?id=tambourine_man","authorImage":null,"authorSlug":null,"score":252,"views":null,"sharedCount":null,"likeCount":null,"sharedContent":null,"parent":{"__typename":"HnJson","localize":[{"title":"152kb的WebAssembly解释器，可在6个操作系统上运行，具有Cosmopolitan功能。","locale":"zh"},{"title":"152kb的WebAssembly解釋器，可在6個操作系統上運行，具有Cosmopolitan功能。","locale":"zh-Hant"}]}},{"__typename":"SocialMediaPost","id":"HnPost-26299741","excerpt":"","slug":"/hn/26299741","title":"I built a 5K iMac Display on my own","date":"March 01, 2021","dateISO":"2021-03-01T12:32:45.801Z","datetime":"2021-03-01 12:32","tags":["story","Hacker News"],"image":null,"imageAlt":null,"provider":"Hacker News","thirdPartyId":"26299741","url":"https://news.ycombinator.com/item?id=26299741","originalUrl":"https://twitter.com/phillipcaudell/status/1352692104707919872","imageRemote":null,"video":null,"channel":null,"channelUrl":null,"author":"dsr12","authorUrl":"https://news.ycombinator.com/user?id=dsr12","authorImage":null,"authorSlug":null,"score":258,"views":null,"sharedCount":null,"likeCount":null,"sharedContent":null,"parent":{"__typename":"HnJson","localize":[{"title":"我自己做了一个5K iMac显示器。","locale":"zh"},{"title":"我自己做了一個5K iMac顯示器。","locale":"zh-Hant"}]}},{"__typename":"SocialMediaPost","id":"HnPost-26300266","excerpt":"","slug":"/hn/26300266","title":"The Last Message Sent on Aim","date":"March 01, 2021","dateISO":"2021-03-01T12:32:45.801Z","datetime":"2021-03-01 12:32","tags":["story","Hacker News"],"image":null,"imageAlt":null,"provider":"Hacker News","thirdPartyId":"26300266","url":"https://news.ycombinator.com/item?id=26300266","originalUrl":"https://justanman.org/posts/the-last-message-sent-on-aim/","imageRemote":"https://justanman.org/images/aol-instant-messenger-shuts-down.png","video":null,"channel":null,"channelUrl":null,"author":"luu","authorUrl":"https://news.ycombinator.com/user?id=luu","authorImage":null,"authorSlug":null,"score":407,"views":null,"sharedCount":null,"likeCount":null,"sharedContent":null,"parent":{"__typename":"HnJson","localize":[{"title":"瞄準的最後一則訊息","locale":"zh"},{"title":"瞄準的最後一則訊息","locale":"zh-Hant"}]}},{"__typename":"SocialMediaPost","id":"HnPost-26298462","excerpt":"","slug":"/hn/26298462","title":"JSON parser written in 6502 assembly language","date":"March 01, 2021","dateISO":"2021-03-01T11:45:21.101Z","datetime":"2021-03-01 11:45","tags":["story","Hacker News"],"image":null,"imageAlt":null,"provider":"Hacker News","thirdPartyId":"26298462","url":"https://news.ycombinator.com/item?id=26298462","originalUrl":"https://github.com/ppelleti/json65","imageRemote":"https://avatars.githubusercontent.com/u/1080008?s=400&v=4","video":null,"channel":null,"channelUrl":null,"author":"lifthrasiir","authorUrl":"https://news.ycombinator.com/user?id=lifthrasiir","authorImage":null,"authorSlug":null,"score":187,"views":null,"sharedCount":null,"likeCount":null,"sharedContent":null,"parent":{"__typename":"HnJson","localize":[{"title":"用6502汇编语言编写的JSON解析器。","locale":"zh"},{"title":"用6502彙編語言編寫的JSON解析器。","locale":"zh-Hant"}]}},{"__typename":"SocialMediaPost","id":"HnPost-26291975","excerpt":"","slug":"/hn/26291975","title":"Take a look at Nomad before jumping on Kubernetes","date":"March 01, 2021","dateISO":"2021-03-01T10:54:19.357Z","datetime":"2021-03-01 10:54","tags":["story","Hacker News"],"image":null,"imageAlt":null,"provider":"Hacker News","thirdPartyId":"26291975","url":"https://news.ycombinator.com/item?id=26291975","originalUrl":"https://atodorov.me/2021/02/27/why-you-should-take-a-look-at-nomad-before-jumping-on-kubernetes/","imageRemote":"https://atodorov.me/img/nomad/kubernetes.jpg#center","video":null,"channel":null,"channelUrl":null,"author":"sofixa","authorUrl":"https://news.ycombinator.com/user?id=sofixa","authorImage":null,"authorSlug":null,"score":180,"views":null,"sharedCount":null,"likeCount":null,"sharedContent":null,"parent":{"__typename":"HnJson","localize":[{"title":"在跳上Kubernetes之前，先看看Nomad。","locale":"zh"},{"title":"在跳上Kubernetes之前，先看看Nomad。","locale":"zh-Hant"}]}},{"__typename":"SocialMediaPost","id":"HnPost-26294259","excerpt":"","slug":"/hn/26294259","title":"Boston public schools suspend advanced learning classes","date":"March 01, 2021","dateISO":"2021-03-01T10:33:28.721Z","datetime":"2021-03-01 10:33","tags":["story","Hacker News"],"image":null,"imageAlt":null,"provider":"Hacker News","thirdPartyId":"26294259","url":"https://news.ycombinator.com/item?id=26294259","originalUrl":"https://www.wgbh.org/news/education/2021/02/26/citing-racial-inequities-boston-public-schools-suspend-advanced-learning-classes","imageRemote":"https://wgbh.brightspotcdn.com/dims4/default/0a27a4d/2147483647/strip/true/crop/2800x2889+0+0/resize/2800x2889!/quality/70/?url=https%3A%2F%2Fwgbh.brightspotcdn.com%2F0f%2F6d%2F0d131a1d4ffbbf79f2dac21a53ce%2Fcassellius-gettyimages-1140214513.jpg","video":null,"channel":null,"channelUrl":null,"author":"undefined1","authorUrl":"https://news.ycombinator.com/user?id=undefined1","authorImage":null,"authorSlug":null,"score":172,"views":null,"sharedCount":null,"likeCount":null,"sharedContent":null,"parent":{"__typename":"HnJson","localize":[{"title":"波士顿公立学校暂停高级学习班","locale":"zh"},{"title":"波士頓公立學校暫停高級學習班","locale":"zh-Hant"}]}},{"__typename":"SocialMediaPost","id":"HnPost-26295792","excerpt":"","slug":"/hn/26295792","title":"Get a Life","date":"March 01, 2021","dateISO":"2021-03-01T10:33:28.721Z","datetime":"2021-03-01 10:33","tags":["story","Hacker News"],"image":null,"imageAlt":null,"provider":"Hacker News","thirdPartyId":"26295792","url":"https://news.ycombinator.com/item?id=26295792","originalUrl":"http://crypto.stanford.edu/~blynn/haskell/life.html","imageRemote":null,"video":null,"channel":null,"channelUrl":null,"author":"akkartik","authorUrl":"https://news.ycombinator.com/user?id=akkartik","authorImage":null,"authorSlug":null,"score":174,"views":null,"sharedCount":null,"likeCount":null,"sharedContent":null,"parent":{"__typename":"HnJson","localize":[{"title":"获取生活","locale":"zh"},{"title":"獲取生活","locale":"zh-Hant"}]}},{"__typename":"SocialMediaPost","id":"HnPost-26291145","excerpt":"","slug":"/hn/26291145","title":"Multi-User Dungeons (MUDs): What Are They? and How to Play","date":"March 01, 2021","dateISO":"2021-03-01T05:25:29.789Z","datetime":"2021-03-01 05:25","tags":["story","Hacker News"],"image":null,"imageAlt":null,"provider":"Hacker News","thirdPartyId":"26291145","url":"https://news.ycombinator.com/item?id=26291145","originalUrl":"https://medium.com/@williamson.f93/multi-user-dungeons-muds-what-are-they-and-how-to-play-af3ec0f29f4a","imageRemote":"https://miro.medium.com/max/593/1*-IUAnq582FEUBxR_SmwlZg.png","video":null,"channel":null,"channelUrl":null,"author":"niDistinct","authorUrl":"https://news.ycombinator.com/user?id=niDistinct","authorImage":null,"authorSlug":null,"score":209,"views":null,"sharedCount":null,"likeCount":null,"sharedContent":null,"parent":{"__typename":"HnJson","localize":[{"title":"多用户地下城（MUDs）。多用户地下城：它们是什么？","locale":"zh"},{"title":"多用戶地下城（MUDs）。多用戶地下城：它們是什麼？","locale":"zh-Hant"}]}},{"__typename":"SocialMediaPost","id":"HnPost-26297040","excerpt":"","slug":"/hn/26297040","title":"Not Lisp again (2009)","date":"March 01, 2021","dateISO":"2021-03-01T05:25:29.789Z","datetime":"2021-03-01 05:25","tags":["story","Hacker News"],"image":null,"imageAlt":null,"provider":"Hacker News","thirdPartyId":"26297040","url":"https://news.ycombinator.com/item?id=26297040","originalUrl":"https://funcall.blogspot.com/2009/03/not-lisp-again.html","imageRemote":"https://resources.blogblog.com/img/icon18_email.gif","video":null,"channel":null,"channelUrl":null,"author":"caslon","authorUrl":"https://news.ycombinator.com/user?id=caslon","authorImage":null,"authorSlug":null,"score":245,"views":null,"sharedCount":null,"likeCount":null,"sharedContent":null,"parent":{"__typename":"HnJson","localize":[{"title":"不再是Lisp (2009)","locale":"zh"},{"title":"不再是Lisp (2009)","locale":"zh-Hant"}]}},{"__typename":"SocialMediaPost","id":"HnPost-26296845","excerpt":"","slug":"/hn/26296845","title":"Little League wants all your information","date":"March 01, 2021","dateISO":"2021-03-01T02:01:20.900Z","datetime":"2021-03-01 02:01","tags":["story","Hacker News"],"image":null,"imageAlt":null,"provider":"Hacker News","thirdPartyId":"26296845","url":"https://news.ycombinator.com/item?id=26296845","originalUrl":"https://honeypot.net/post/little-league-wants-all-your-information/","imageRemote":"https://honeypot.net/images/blueglasses.jpg","video":null,"channel":null,"channelUrl":null,"author":"ColinWright","authorUrl":"https://news.ycombinator.com/user?id=ColinWright","authorImage":null,"authorSlug":null,"score":395,"views":null,"sharedCount":null,"likeCount":null,"sharedContent":null,"parent":{"__typename":"HnJson","localize":[{"title":"小联盟想要你所有的信息","locale":"zh"},{"title":"小聯盟想要你所有的信息","locale":"zh-Hant"}]}},{"__typename":"SocialMediaPost","id":"HnPost-26295065","excerpt":"","slug":"/hn/26295065","title":"RIP Flynn.io","date":"February 28, 2021","dateISO":"2021-02-28T23:44:23.434Z","datetime":"2021-02-28 23:44","tags":["story","Hacker News"],"image":null,"imageAlt":null,"provider":"Hacker News","thirdPartyId":"26295065","url":"https://news.ycombinator.com/item?id=26295065","originalUrl":"https://github.com/flynn/flynn","imageRemote":"https://avatars.githubusercontent.com/u/4973613?s=400&v=4","video":null,"channel":null,"channelUrl":null,"author":"corobo","authorUrl":"https://news.ycombinator.com/user?id=corobo","authorImage":null,"authorSlug":null,"score":284,"views":null,"sharedCount":null,"likeCount":null,"sharedContent":null,"parent":{"__typename":"HnJson","localize":[{"title":"RIP Flynn.io","locale":"zh"},{"title":"RIP Flynn.io","locale":"zh-Hant"}]}},{"__typename":"SocialMediaPost","id":"HnPost-26295100","excerpt":"","slug":"/hn/26295100","title":"A Native Tiling Window Manager for Windows 10, Inspired by I3wm","date":"February 28, 2021","dateISO":"2021-02-28T22:00:02.553Z","datetime":"2021-02-28 22:00","tags":["story","Hacker News"],"image":null,"imageAlt":null,"provider":"Hacker News","thirdPartyId":"26295100","url":"https://news.ycombinator.com/item?id=26295100","originalUrl":"https://github.com/McYoloSwagHam/win3wm","imageRemote":"https://avatars.githubusercontent.com/u/37028601?s=400&v=4","video":null,"channel":null,"channelUrl":null,"author":"mcyoloswagham","authorUrl":"https://news.ycombinator.com/user?id=mcyoloswagham","authorImage":null,"authorSlug":null,"score":327,"views":null,"sharedCount":null,"likeCount":null,"sharedContent":null,"parent":{"__typename":"HnJson","localize":[{"title":"一个原生的Windows 10平铺窗口管理器，灵感来自于I3wm。","locale":"zh"},{"title":"一個原生的Windows 10平鋪窗口管理器，靈感來自於I3wm。","locale":"zh-Hant"}]}},{"__typename":"SocialMediaPost","id":"HnPost-26295177","excerpt":"","slug":"/hn/26295177","title":"Users are losing out against Big Sur’s sealed System","date":"February 28, 2021","dateISO":"2021-02-28T21:46:20.003Z","datetime":"2021-02-28 21:46","tags":["story","Hacker News"],"image":null,"imageAlt":null,"provider":"Hacker News","thirdPartyId":"26295177","url":"https://news.ycombinator.com/item?id=26295177","originalUrl":"https://eclecticlight.co/2021/02/28/last-week-on-my-mac-users-are-losing-out-against-big-surs-sealed-system/","imageRemote":"https://s0.wp.com/i/blank.jpg","video":null,"channel":null,"channelUrl":null,"author":"zdw","authorUrl":"https://news.ycombinator.com/user?id=zdw","authorImage":null,"authorSlug":null,"score":308,"views":null,"sharedCount":null,"likeCount":null,"sharedContent":null,"parent":{"__typename":"HnJson","localize":[{"title":"用户在与大苏尔的封号系统的竞争中节节败退。","locale":"zh"},{"title":"用戶在與大蘇爾的封號系統的競爭中節節敗退。","locale":"zh-Hant"}]}},{"__typename":"SocialMediaPost","id":"HnPost-26291756","excerpt":"","slug":"/hn/26291756","title":"Spaceprob.es catalogues all the probes that still communicate with Earth","date":"February 28, 2021","dateISO":"2021-02-28T21:02:09.128Z","datetime":"2021-02-28 21:02","tags":["story","Hacker News"],"image":null,"imageAlt":null,"provider":"Hacker News","thirdPartyId":"26291756","url":"https://news.ycombinator.com/item?id=26291756","originalUrl":"https://spaceprob.es/","imageRemote":"https://spaceprob.es/resources/img/grid.jpg","video":null,"channel":null,"channelUrl":null,"author":"input_sh","authorUrl":"https://news.ycombinator.com/user?id=input_sh","authorImage":null,"authorSlug":null,"score":182,"views":null,"sharedCount":null,"likeCount":null,"sharedContent":null,"parent":{"__typename":"HnJson","localize":[{"title":"Spaceprob.es将所有仍与地球通信的探测器编入目录。","locale":"zh"},{"title":"Spaceprob.es將所有仍與地球通信的探測器編入目錄。","locale":"zh-Hant"}]}},{"__typename":"SocialMediaPost","id":"HnPost-26293171","excerpt":"","slug":"/hn/26293171","title":"Gradient Free Optimizers: A collection of modern optimization methods in Python","date":"February 28, 2021","dateISO":"2021-02-28T20:37:05.754Z","datetime":"2021-02-28 20:37","tags":["story","Hacker News"],"image":null,"imageAlt":null,"provider":"Hacker News","thirdPartyId":"26293171","url":"https://news.ycombinator.com/item?id=26293171","originalUrl":"https://github.com/SimonBlanke/Gradient-Free-Optimizers","imageRemote":"https://repository-images.githubusercontent.com/252927263/9aa25580-5122-11eb-9d2e-f8879d82b1d5","video":null,"channel":null,"channelUrl":null,"author":"EntICOnc","authorUrl":"https://news.ycombinator.com/user?id=EntICOnc","authorImage":null,"authorSlug":null,"score":239,"views":null,"sharedCount":null,"likeCount":null,"sharedContent":null,"parent":{"__typename":"HnJson","localize":[{"title":"无梯度优化器。在Python中的现代优化方法的集合","locale":"zh"},{"title":"無梯度優化器。在Python中的現代優化方法的集合","locale":"zh-Hant"}]}},{"__typename":"SocialMediaPost","id":"HnPost-26294397","excerpt":"","slug":"/hn/26294397","title":"Weird architectures weren't supported to begin with","date":"February 28, 2021","dateISO":"2021-02-28T20:37:05.754Z","datetime":"2021-02-28 20:37","tags":["story","Hacker News"],"image":null,"imageAlt":null,"provider":"Hacker News","thirdPartyId":"26294397","url":"https://news.ycombinator.com/item?id=26294397","originalUrl":"https://blog.yossarian.net/2021/02/28/Weird-architectures-werent-supported-to-begin-with","imageRemote":null,"video":null,"channel":null,"channelUrl":null,"author":"woodruffw","authorUrl":"https://news.ycombinator.com/user?id=woodruffw","authorImage":null,"authorSlug":null,"score":350,"views":null,"sharedCount":null,"likeCount":null,"sharedContent":null,"parent":{"__typename":"HnJson","localize":[{"title":"一开始就不支持怪异的架构","locale":"zh"},{"title":"一開始就不支持怪異的架構","locale":"zh-Hant"}]}},{"__typename":"SocialMediaPost","id":"HnPost-26296339","excerpt":"","slug":"/hn/26296339","title":"How I cut GTA Online loading times by 70%","date":"February 28, 2021","dateISO":"2021-02-28T20:37:05.754Z","datetime":"2021-02-28 20:37","tags":["story","Hacker News"],"image":null,"imageAlt":null,"provider":"Hacker News","thirdPartyId":"26296339","url":"https://news.ycombinator.com/item?id=26296339","originalUrl":"https://nee.lv/2021/02/28/How-I-cut-GTA-Online-loading-times-by-70/","imageRemote":"https://nee.lv/images/pasted-0.png","video":null,"channel":null,"channelUrl":null,"author":"kuroguro","authorUrl":"https://news.ycombinator.com/user?id=kuroguro","authorImage":null,"authorSlug":null,"score":3842,"views":null,"sharedCount":null,"likeCount":null,"sharedContent":null,"parent":{"__typename":"HnJson","localize":[{"title":"我如何将《GTA Online》的加载时间缩短了70%。","locale":"zh"},{"title":"我如何將《GTA Online》的加載時間縮短了70%。","locale":"zh-Hant"}]}},{"__typename":"SocialMediaPost","id":"HnPost-26294052","excerpt":"","slug":"/hn/26294052","title":"Police misconduct settlements","date":"February 28, 2021","dateISO":"2021-02-28T19:46:07.403Z","datetime":"2021-02-28 19:46","tags":["story","Hacker News"],"image":null,"imageAlt":null,"provider":"Hacker News","thirdPartyId":"26294052","url":"https://news.ycombinator.com/item?id=26294052","originalUrl":"https://github.com/fivethirtyeight/police-settlements","imageRemote":"https://avatars.githubusercontent.com/u/6267336?s=400&v=4","video":null,"channel":null,"channelUrl":null,"author":"IfOnlyYouKnew","authorUrl":"https://news.ycombinator.com/user?id=IfOnlyYouKnew","authorImage":null,"authorSlug":null,"score":221,"views":null,"sharedCount":null,"likeCount":null,"sharedContent":null,"parent":{"__typename":"HnJson","localize":[{"title":"警察不当行为和解","locale":"zh"},{"title":"警察不當行爲和解","locale":"zh-Hant"}]}},{"__typename":"SocialMediaPost","id":"HnPost-26294552","excerpt":"","slug":"/hn/26294552","title":"The Mars Helicopter Is Online and Getting Ready to Fly","date":"February 28, 2021","dateISO":"2021-02-28T19:18:01.829Z","datetime":"2021-02-28 19:18","tags":["story","Hacker News"],"image":null,"imageAlt":null,"provider":"Hacker News","thirdPartyId":"26294552","url":"https://news.ycombinator.com/item?id=26294552","originalUrl":"https://www.universetoday.com/150224/the-mars-helicopter-is-online-and-getting-ready-to-fly/","imageRemote":"https://www.universetoday.com/wp-content/uploads/2021/02/jpegPIA23720-1024x601.jpg","video":null,"channel":null,"channelUrl":null,"author":"CapitalistCartr","authorUrl":"https://news.ycombinator.com/user?id=CapitalistCartr","authorImage":null,"authorSlug":null,"score":571,"views":null,"sharedCount":null,"likeCount":null,"sharedContent":null,"parent":{"__typename":"HnJson","localize":[{"title":"火星直升机已上线并准备飞行","locale":"zh"},{"title":"火星直升機已上線並準備飛行","locale":"zh-Hant"}]}}]}},"pageContext":{"basePath":"/","pageType":"tag","tag":"story","tagsFilter":{"id":{"glob":"!*Post-1"}},"filter":{"id":{"glob":"!*Post-1"},"tags":{"eq":"story"}},"limit":25,"skip":475,"total":2599,"totalPages":104,"currentPage":20,"maxWidth":1024,"maxHeight":512,"locale":"zh","hrefLang":"zh-Hans","originalPath":"/tags/story/page/20","dateFormat":"YYYY-MM-DD"}},"staticQueryHashes":["1239077767","2506312863","2744905544","3025052997","3493603132","3493603132","3513215887","386998304"]}