{"componentChunkName":"component---gatsby-theme-buzzing-src-gatsby-theme-timeline-templates-posts-query-js","path":"/ja/tags/hacker-news/page/89","result":{"data":{"site":{"siteMetadata":{"title":"Reddit 热门","description":"用中文浏览Reddit热门内容","social":[{"name":"Twitter","url":"https://twitter.com/gatsbyjs","external":null,"prefetch":null},{"name":"GitHub","url":"https://github.com/gatsbyjs","external":null,"prefetch":null}],"menuLinks":[],"localize":[{"locale":"en","title":"Buzzing on Reddit","description":"See what's buzzing on Reddit in your native language","social":[{"name":"Reddit","url":"https://www.reddit.com/","external":true,"prefetch":null}],"menuLinks":[{"name":"Weekly Selection","url":"/issues","external":null,"prefetch":null},{"name":"RSS","url":"/rss.xml","external":null,"prefetch":false}]},{"locale":"zh-Hant","title":"Reddit 熱門","description":"用中文瀏覽Reddit熱門內容","social":null,"menuLinks":null}]}},"tagsGroup":{"group":[{"fieldValue":"ASK HN","totalCount":54},{"fieldValue":"Hacker News","totalCount":3105},{"fieldValue":"Poll","totalCount":1},{"fieldValue":"Show HN","totalCount":100},{"fieldValue":"poll","totalCount":1},{"fieldValue":"story","totalCount":3104}]},"allBlogPost":{"nodes":[{"__typename":"SocialMediaPost","id":"HnPost-25766884","excerpt":"","slug":"/hn/25766884","title":"Ask HN: How to increase SWE salaries in Europe?","date":"January 14, 2021","dateISO":"2021-01-14T07:41:00.674Z","datetime":"2021-01-14 07:41","tags":["story","ASK HN","Hacker News"],"image":null,"imageAlt":null,"provider":"Hacker News","thirdPartyId":"25766884","url":"https://news.ycombinator.com/item?id=25766884","originalUrl":"https://news.ycombinator.com/item?id=25766884","imageRemote":null,"video":null,"channel":"ASK HN","channelUrl":"https://news.ycombinator.com/ask","author":"euengthrowaway","authorUrl":"https://news.ycombinator.com/user?id=euengthrowaway","authorImage":null,"authorSlug":null,"score":383,"views":null,"sharedCount":null,"likeCount":null,"sharedContent":null,"parent":{"__typename":"HnJson","localize":[{"title":"HN提问：如何提高欧洲SWE的工资？","locale":"zh"},{"title":"HN提問：如何提高歐洲SWE的工資？","locale":"zh-Hant"}]}},{"__typename":"SocialMediaPost","id":"HnPost-25760066","excerpt":"","slug":"/hn/25760066","title":"Foam: A personal knowledge management and sharing system for VSCode","date":"January 14, 2021","dateISO":"2021-01-14T06:55:12.371Z","datetime":"2021-01-14 06:55","tags":["story","Hacker News"],"image":null,"imageAlt":null,"provider":"Hacker News","thirdPartyId":"25760066","url":"https://news.ycombinator.com/item?id=25760066","originalUrl":"https://foambubble.github.io/foam/","imageRemote":"https://foambubble.github.io/foam/assets/images/foam-features-dark-mode-demo.png","video":null,"channel":null,"channelUrl":null,"author":"lelf","authorUrl":"https://news.ycombinator.com/user?id=lelf","authorImage":null,"authorSlug":null,"score":388,"views":null,"sharedCount":null,"likeCount":null,"sharedContent":null,"parent":{"__typename":"HnJson","localize":[{"title":"泡沫。VSCode个人知识管理和共享系统","locale":"zh"},{"title":"泡沫。VSCode個人知識管理和共享系統","locale":"zh-Hant"}]}},{"__typename":"SocialMediaPost","id":"HnPost-25767627","excerpt":"","slug":"/hn/25767627","title":"McDonald’s Theory on How Best to Rescue Conversations","date":"January 14, 2021","dateISO":"2021-01-14T06:55:12.371Z","datetime":"2021-01-14 06:55","tags":["story","Hacker News"],"image":null,"imageAlt":null,"provider":"Hacker News","thirdPartyId":"25767627","url":"https://news.ycombinator.com/item?id=25767627","originalUrl":"https://karthrajan.medium.com/mcdonalds-theory-on-how-best-to-rescue-conversations-e65c23ad41b9","imageRemote":"https://miro.medium.com/max/1200/1*Ss5mkm7cirn80IbWpq0HeA.jpeg","video":null,"channel":null,"channelUrl":null,"author":"omalya890","authorUrl":"https://news.ycombinator.com/user?id=omalya890","authorImage":null,"authorSlug":null,"score":297,"views":null,"sharedCount":null,"likeCount":null,"sharedContent":null,"parent":{"__typename":"HnJson","localize":[{"title":"麦当劳关于如何最好地拯救对话的理论","locale":"zh"},{"title":"麥當勞關於如何最好地拯救對話的理論","locale":"zh-Hant"}]}},{"__typename":"SocialMediaPost","id":"HnPost-25771022","excerpt":"","slug":"/hn/25771022","title":"Apple removes first-party firewall exemption in macOS 11.2 beta 2","date":"January 14, 2021","dateISO":"2021-01-14T05:02:50.394Z","datetime":"2021-01-14 05:02","tags":["story","Hacker News"],"image":null,"imageAlt":null,"provider":"Hacker News","thirdPartyId":"25771022","url":"https://news.ycombinator.com/item?id=25771022","originalUrl":"https://twitter.com/patrickwardle/status/1349488392732491776","imageRemote":null,"video":null,"channel":null,"channelUrl":null,"author":"mortenjorck","authorUrl":"https://news.ycombinator.com/user?id=mortenjorck","authorImage":null,"authorSlug":null,"score":781,"views":null,"sharedCount":null,"likeCount":null,"sharedContent":null,"parent":{"__typename":"HnJson","localize":[{"title":"苹果在macOS 11.2 beta 2中取消了第一方防火墙的豁免。","locale":"zh"},{"title":"蘋果在macOS 11.2 beta 2中取消了第一方防火牆的豁免。","locale":"zh-Hant"}]}},{"__typename":"SocialMediaPost","id":"HnPost-25769730","excerpt":"","slug":"/hn/25769730","title":"Pirate Bay Founder Thinks Parler’s Inability to Stay Online Is 'Embarrassing'","date":"January 14, 2021","dateISO":"2021-01-14T04:07:41.587Z","datetime":"2021-01-14 04:07","tags":["story","Hacker News"],"image":null,"imageAlt":null,"provider":"Hacker News","thirdPartyId":"25769730","url":"https://news.ycombinator.com/item?id=25769730","originalUrl":"https://www.vice.com/en/article/3an7pn/pirate-bay-founder-thinks-parlers-inability-to-stay-online-is-embarrassing","imageRemote":"https://video-images.vice.com/articles/5ffefc67abd6330096bfad55/lede/1610546280194-gettyimages-495014911.jpeg?image-resize-opts=Y3JvcD0xeHc6MC44NDUzMzg5ODMwNTA4NDc0eGg7Y2VudGVyLGNlbnRlciZyZXNpemU9MTIwMDoqJnJlc2l6ZT0xMjAwOio","video":null,"channel":null,"channelUrl":null,"author":"weare138","authorUrl":"https://news.ycombinator.com/user?id=weare138","authorImage":null,"authorSlug":null,"score":600,"views":null,"sharedCount":null,"likeCount":null,"sharedContent":null,"parent":{"__typename":"HnJson","localize":[{"title":"海盗湾创始人认为PARLER无法保持在线是 \"尴尬的\"。","locale":"zh"},{"title":"海盜灣創始人認爲PARLER無法保持在線是 \"尷尬的\"。","locale":"zh-Hant"}]}},{"__typename":"SocialMediaPost","id":"HnPost-25764142","excerpt":"","slug":"/hn/25764142","title":"Ask HN: How do we know Signal or Telegram don't store our data on their servers?","date":"January 14, 2021","dateISO":"2021-01-14T01:50:48.476Z","datetime":"2021-01-14 01:50","tags":["story","ASK HN","Hacker News"],"image":null,"imageAlt":null,"provider":"Hacker News","thirdPartyId":"25764142","url":"https://news.ycombinator.com/item?id=25764142","originalUrl":"https://news.ycombinator.com/item?id=25764142","imageRemote":null,"video":null,"channel":"ASK HN","channelUrl":"https://news.ycombinator.com/ask","author":"smoqadam","authorUrl":"https://news.ycombinator.com/user?id=smoqadam","authorImage":null,"authorSlug":null,"score":257,"views":null,"sharedCount":null,"likeCount":null,"sharedContent":null,"parent":{"__typename":"HnJson","localize":[{"title":"HN提问：我们怎么知道Signal或Telegram不在他们的服务器上存储我们的数据？","locale":"zh"},{"title":"HN提問：我們怎麼知道Signal或Telegram不在他們的服務器上存儲我們的數據？","locale":"zh-Hant"}]}},{"__typename":"SocialMediaPost","id":"HnPost-25759576","excerpt":"","slug":"/hn/25759576","title":"The J1 Forth CPU","date":"January 14, 2021","dateISO":"2021-01-14T00:03:21.756Z","datetime":"2021-01-14 00:03","tags":["story","Hacker News"],"image":null,"imageAlt":null,"provider":"Hacker News","thirdPartyId":"25759576","url":"https://news.ycombinator.com/item?id=25759576","originalUrl":"https://www.excamera.com/sphinx/fpga-j1.html","imageRemote":"https://www.excamera.com/sphinx/_images/timing.jpg","video":null,"channel":null,"channelUrl":null,"author":"Cieplak","authorUrl":"https://news.ycombinator.com/user?id=Cieplak","authorImage":null,"authorSlug":null,"score":213,"views":null,"sharedCount":null,"likeCount":null,"sharedContent":null,"parent":{"__typename":"HnJson","localize":[{"title":"J1 Forth CPU","locale":"zh"},{"title":"J1 Forth CPU","locale":"zh-Hant"}]}},{"__typename":"SocialMediaPost","id":"HnPost-25767128","excerpt":"","slug":"/hn/25767128","title":"An Unlikely Database Migration","date":"January 14, 2021","dateISO":"2021-01-14T00:03:21.756Z","datetime":"2021-01-14 00:03","tags":["story","Hacker News"],"image":null,"imageAlt":null,"provider":"Hacker News","thirdPartyId":"25767128","url":"https://news.ycombinator.com/item?id=25767128","originalUrl":"https://tailscale.com/blog/an-unlikely-database-migration/","imageRemote":"https://tailscale.com/blog/an-unlikely-database-migration/social.png","video":null,"channel":null,"channelUrl":null,"author":"ifcologne","authorUrl":"https://news.ycombinator.com/user?id=ifcologne","authorImage":null,"authorSlug":null,"score":354,"views":null,"sharedCount":null,"likeCount":null,"sharedContent":null,"parent":{"__typename":"HnJson","localize":[{"title":"一个不太可能的数据库迁移","locale":"zh"},{"title":"一個不太可能的數據庫遷移","locale":"zh-Hant"}]}},{"__typename":"SocialMediaPost","id":"HnPost-25765128","excerpt":"","slug":"/hn/25765128","title":"Superconducting Microprocessors? Turns Out They're Ultra-Efficient","date":"January 13, 2021","dateISO":"2021-01-13T23:08:07.047Z","datetime":"2021-01-13 23:08","tags":["story","Hacker News"],"image":null,"imageAlt":null,"provider":"Hacker News","thirdPartyId":"25765128","url":"https://news.ycombinator.com/item?id=25765128","originalUrl":"https://spectrum.ieee.org/tech-talk/computing/hardware/new-superconductor-microprocessor-yields-a-substantial-boost-in-efficiency","imageRemote":null,"video":null,"channel":null,"channelUrl":null,"author":"f00zz","authorUrl":"https://news.ycombinator.com/user?id=f00zz","authorImage":null,"authorSlug":null,"score":321,"views":null,"sharedCount":null,"likeCount":null,"sharedContent":null,"parent":{"__typename":"HnJson","localize":[{"title":"超导微处理器？原来它们是超高效的","locale":"zh"},{"title":"超導微處理器？原來它們是超高效的","locale":"zh-Hant"}]}},{"__typename":"SocialMediaPost","id":"HnPost-25761068","excerpt":"","slug":"/hn/25761068","title":"How Huawei controls its employees in Europe","date":"January 13, 2021","dateISO":"2021-01-13T21:02:41.259Z","datetime":"2021-01-13 21:02","tags":["story","Hacker News"],"image":null,"imageAlt":null,"provider":"Hacker News","thirdPartyId":"25761068","url":"https://news.ycombinator.com/item?id=25761068","originalUrl":"https://netzpolitik.org/2021/wolf-culture-how-huawei-controls-its-employees-in-europe/","imageRemote":"https://cdn.netzpolitik.org/wp-upload/2021/01/hw_6en.jpg","video":null,"channel":null,"channelUrl":null,"author":"imartin2k","authorUrl":"https://news.ycombinator.com/user?id=imartin2k","authorImage":null,"authorSlug":null,"score":254,"views":null,"sharedCount":null,"likeCount":null,"sharedContent":null,"parent":{"__typename":"HnJson","localize":[{"title":"华为如何控制其在欧洲的员工","locale":"zh"},{"title":"華爲如何控制其在歐洲的員工","locale":"zh-Hant"}]}},{"__typename":"SocialMediaPost","id":"HnPost-25759563","excerpt":"","slug":"/hn/25759563","title":"2020 Game","date":"January 13, 2021","dateISO":"2021-01-13T19:40:33.626Z","datetime":"2021-01-13 19:40","tags":["story","Hacker News"],"image":null,"imageAlt":null,"provider":"Hacker News","thirdPartyId":"25759563","url":"https://news.ycombinator.com/item?id=25759563","originalUrl":"https://2020game.io/","imageRemote":"https://3ad68020-4d43-4164-8772-43d3de9c78fd.akamaized.net/logo/200x200.png","video":null,"channel":null,"channelUrl":null,"author":"BerislavLopac","authorUrl":"https://news.ycombinator.com/user?id=BerislavLopac","authorImage":null,"authorSlug":null,"score":241,"views":null,"sharedCount":null,"likeCount":null,"sharedContent":null,"parent":{"__typename":"HnJson","localize":[{"title":"2020年游戏","locale":"zh"},{"title":"2020年遊戲","locale":"zh-Hant"}]}},{"__typename":"SocialMediaPost","id":"HnPost-25762383","excerpt":"","slug":"/hn/25762383","title":"Dropbox to cut 11% of its global workforce","date":"January 13, 2021","dateISO":"2021-01-13T19:40:33.626Z","datetime":"2021-01-13 19:40","tags":["story","Hacker News"],"image":null,"imageAlt":null,"provider":"Hacker News","thirdPartyId":"25762383","url":"https://news.ycombinator.com/item?id=25762383","originalUrl":"https://www.cnbc.com/2021/01/13/dropbox-to-cut-11percent-of-its-global-workforce.html","imageRemote":"https://image.cnbcfm.com/api/v1/image/105086496-RTS1OZ4R.jpg?v=1529517209","video":null,"channel":null,"channelUrl":null,"author":"champagnepapi","authorUrl":"https://news.ycombinator.com/user?id=champagnepapi","authorImage":null,"authorSlug":null,"score":476,"views":null,"sharedCount":null,"likeCount":null,"sharedContent":null,"parent":{"__typename":"HnJson","localize":[{"title":"Dropbox将削减11%的全球员工数量","locale":"zh"},{"title":"Dropbox將削減11%的全球員工數量","locale":"zh-Hant"}]}},{"__typename":"SocialMediaPost","id":"HnPost-25747215","excerpt":"","slug":"/hn/25747215","title":"A distributed Posix file system built on top of Redis and S3","date":"January 13, 2021","dateISO":"2021-01-13T18:41:35.869Z","datetime":"2021-01-13 18:41","tags":["story","Hacker News"],"image":null,"imageAlt":null,"provider":"Hacker News","thirdPartyId":"25747215","url":"https://news.ycombinator.com/item?id=25747215","originalUrl":"https://github.com/juicedata/juicefs","imageRemote":"https://avatars3.githubusercontent.com/u/27241737?s=400&v=4","video":null,"channel":null,"channelUrl":null,"author":"jerodsanto","authorUrl":"https://news.ycombinator.com/user?id=jerodsanto","authorImage":null,"authorSlug":null,"score":217,"views":null,"sharedCount":null,"likeCount":null,"sharedContent":null,"parent":{"__typename":"HnJson","localize":[{"title":"一个建立在Redis和S3之上的分布式Posix文件系统。","locale":"zh"},{"title":"一個建立在Redis和S3之上的分佈式Posix文件系統。","locale":"zh-Hant"}]}},{"__typename":"SocialMediaPost","id":"HnPost-25762047","excerpt":"","slug":"/hn/25762047","title":"Intel CEO Bob Swan to Step Down in Feb, VMware CEO Pat Gelsinger to Replace Him","date":"January 13, 2021","dateISO":"2021-01-13T18:41:35.869Z","datetime":"2021-01-13 18:41","tags":["story","Hacker News"],"image":null,"imageAlt":null,"provider":"Hacker News","thirdPartyId":"25762047","url":"https://news.ycombinator.com/item?id=25762047","originalUrl":"https://www.cnbc.com/2021/01/13/intel-ceo-bob-swan-to-step-down-in-february.html","imageRemote":"https://image.cnbcfm.com/api/v1/image/106755085-1603311208426-gettyimages-1192401571-urn_newsml_dpa_com_20090101_200107-99-381133-2.jpeg?v=1609337495","video":null,"channel":null,"channelUrl":null,"author":"totalZero","authorUrl":"https://news.ycombinator.com/user?id=totalZero","authorImage":null,"authorSlug":null,"score":568,"views":null,"sharedCount":null,"likeCount":null,"sharedContent":null,"parent":{"__typename":"HnJson","localize":[{"title":"英特尔CEO鲍勃-斯旺将于2月卸任，VMware CEO帕特-格尔辛格将接替他的位置。","locale":"zh"},{"title":"英特爾CEO鮑勃-斯旺將於2月卸任，VMware CEO帕特-格爾辛格將接替他的位置。","locale":"zh-Hant"}]}},{"__typename":"SocialMediaPost","id":"HnPost-25762407","excerpt":"","slug":"/hn/25762407","title":"WRT54G History: The Router That Accidentally Went Open Source","date":"January 13, 2021","dateISO":"2021-01-13T18:41:35.869Z","datetime":"2021-01-13 18:41","tags":["story","Hacker News"],"image":null,"imageAlt":null,"provider":"Hacker News","thirdPartyId":"25762407","url":"https://news.ycombinator.com/item?id=25762407","originalUrl":"https://tedium.co/2021/01/13/linksys-wrt54g-router-history/","imageRemote":"https://images.tedium.co/uploads/tedium011321.gif","video":null,"channel":null,"channelUrl":null,"author":"uptown","authorUrl":"https://news.ycombinator.com/user?id=uptown","authorImage":null,"authorSlug":null,"score":665,"views":null,"sharedCount":null,"likeCount":null,"sharedContent":null,"parent":{"__typename":"HnJson","localize":[{"title":"WRT54G的历史。意外开源的路由器","locale":"zh"},{"title":"WRT54G的歷史。意外開源的路由器","locale":"zh-Hant"}]}},{"__typename":"SocialMediaPost","id":"HnPost-25763863","excerpt":"","slug":"/hn/25763863","title":"Workaholism Leads to Mental and Physical Health Problems","date":"January 13, 2021","dateISO":"2021-01-13T18:41:35.869Z","datetime":"2021-01-13 18:41","tags":["story","Hacker News"],"image":null,"imageAlt":null,"provider":"Hacker News","thirdPartyId":"25763863","url":"https://news.ycombinator.com/item?id=25763863","originalUrl":"https://www.hse.ru/en/news/research/433782660.html","imageRemote":"https://www.hse.ru/data/2021/01/13/1347222870/iStock-1180554582.jpg.(1000x1000x1).jpg","video":null,"channel":null,"channelUrl":null,"author":"rustoo","authorUrl":"https://news.ycombinator.com/user?id=rustoo","authorImage":null,"authorSlug":null,"score":438,"views":null,"sharedCount":null,"likeCount":null,"sharedContent":null,"parent":{"__typename":"HnJson","localize":[{"title":"工作狂导致心理和身体健康问题","locale":"zh"},{"title":"工作狂導致心理和身體健康問題","locale":"zh-Hant"}]}},{"__typename":"SocialMediaPost","id":"HnPost-25760750","excerpt":"","slug":"/hn/25760750","title":"Ask HN: Do we need a Google Customers Union? Could it work?","date":"January 13, 2021","dateISO":"2021-01-13T17:21:36.397Z","datetime":"2021-01-13 17:21","tags":["story","ASK HN","Hacker News"],"image":null,"imageAlt":null,"provider":"Hacker News","thirdPartyId":"25760750","url":"https://news.ycombinator.com/item?id=25760750","originalUrl":"https://news.ycombinator.com/item?id=25760750","imageRemote":null,"video":null,"channel":"ASK HN","channelUrl":"https://news.ycombinator.com/ask","author":"CaptainJustin","authorUrl":"https://news.ycombinator.com/user?id=CaptainJustin","authorImage":null,"authorSlug":null,"score":333,"views":null,"sharedCount":null,"likeCount":null,"sharedContent":null,"parent":{"__typename":"HnJson","localize":[{"title":"HN提问：我们需要一个谷歌客户联盟吗？能否行得通？","locale":"zh"},{"title":"HN提問：我們需要一個谷歌客戶聯盟嗎？能否行得通？","locale":"zh-Hant"}]}},{"__typename":"SocialMediaPost","id":"HnPost-25761469","excerpt":"","slug":"/hn/25761469","title":"BeagleV – An affordable RISC-V computer designed to run Linux","date":"January 13, 2021","dateISO":"2021-01-13T16:07:49.538Z","datetime":"2021-01-13 16:07","tags":["story","Hacker News"],"image":null,"imageAlt":null,"provider":"Hacker News","thirdPartyId":"25761469","url":"https://news.ycombinator.com/item?id=25761469","originalUrl":"https://beaglev.seeed.cc/","imageRemote":"https://beaglev.seeed.cc/img/s1-bg-V.png","video":null,"channel":null,"channelUrl":null,"author":"pathompong","authorUrl":"https://news.ycombinator.com/user?id=pathompong","authorImage":null,"authorSlug":null,"score":609,"views":null,"sharedCount":null,"likeCount":null,"sharedContent":null,"parent":{"__typename":"HnJson","localize":[{"title":"BeagleV - 一台经济实惠的RISC-V电脑，设计用于运行Linux。","locale":"zh"},{"title":"BeagleV - 一臺經濟實惠的RISC-V電腦，設計用於運行Linux。","locale":"zh-Hant"}]}},{"__typename":"SocialMediaPost","id":"HnPost-25759430","excerpt":"","slug":"/hn/25759430","title":"The neural network of the Stockfish chess engine","date":"January 13, 2021","dateISO":"2021-01-13T14:07:57.302Z","datetime":"2021-01-13 14:07","tags":["story","Hacker News"],"image":null,"imageAlt":null,"provider":"Hacker News","thirdPartyId":"25759430","url":"https://news.ycombinator.com/item?id=25759430","originalUrl":"https://cp4space.hatsya.com/2021/01/08/the-neural-network-of-the-stockfish-chess-engine/","imageRemote":"https://cp4space.hatsya.com/wp-content/uploads/2021/01/nnue-initial.png","video":null,"channel":null,"channelUrl":null,"author":"c1ccccc1","authorUrl":"https://news.ycombinator.com/user?id=c1ccccc1","authorImage":null,"authorSlug":null,"score":354,"views":null,"sharedCount":null,"likeCount":null,"sharedContent":null,"parent":{"__typename":"HnJson","localize":[{"title":"股票鱼棋牌引擎的神经网络","locale":"zh"},{"title":"股票魚棋牌引擎的神經網絡","locale":"zh-Hant"}]}},{"__typename":"SocialMediaPost","id":"HnPost-25757228","excerpt":"","slug":"/hn/25757228","title":"Distributing Mac apps outside the App Store, a quick start guide","date":"January 13, 2021","dateISO":"2021-01-13T13:12:40.652Z","datetime":"2021-01-13 13:12","tags":["story","Hacker News"],"image":null,"imageAlt":null,"provider":"Hacker News","thirdPartyId":"25757228","url":"https://news.ycombinator.com/item?id=25757228","originalUrl":"https://rambo.codes/posts/2021-01-08-distributing-mac-apps-outside-the-app-store","imageRemote":"https://rambo.codes/assets/img/16/opengraph.png","video":null,"channel":null,"channelUrl":null,"author":"tosh","authorUrl":"https://news.ycombinator.com/user?id=tosh","authorImage":null,"authorSlug":null,"score":306,"views":null,"sharedCount":null,"likeCount":null,"sharedContent":null,"parent":{"__typename":"HnJson","localize":[{"title":"在 App Store 以外分发 Mac 应用程序，快速入门指南","locale":"zh"},{"title":"在 App Store 以外分發 Mac 應用程序，快速入門指南","locale":"zh-Hant"}]}},{"__typename":"SocialMediaPost","id":"HnPost-25746131","excerpt":"","slug":"/hn/25746131","title":"What Is Social Cooling?","date":"January 13, 2021","dateISO":"2021-01-13T12:13:43.070Z","datetime":"2021-01-13 12:13","tags":["story","Hacker News"],"image":null,"imageAlt":null,"provider":"Hacker News","thirdPartyId":"25746131","url":"https://news.ycombinator.com/item?id=25746131","originalUrl":"https://reasonandmeaning.com/2017/10/31/what-is-social-cooling/","imageRemote":"https://i2.wp.com/reasonandmeaning.com/wp-content/uploads/2015/01/theThinkerIcon-54b03aa4v1_site_icon.png?fit=512%2C512&ssl=1","video":null,"channel":null,"channelUrl":null,"author":"dev_by_day","authorUrl":"https://news.ycombinator.com/user?id=dev_by_day","authorImage":null,"authorSlug":null,"score":342,"views":null,"sharedCount":null,"likeCount":null,"sharedContent":null,"parent":{"__typename":"HnJson","localize":[{"title":"什么是社交冷却？","locale":"zh"},{"title":"什麼是社交冷卻？","locale":"zh-Hant"}]}},{"__typename":"SocialMediaPost","id":"HnPost-25759477","excerpt":"","slug":"/hn/25759477","title":"Developer’s response to “WireGuard: great protocol, but skip the Mac app”","date":"January 13, 2021","dateISO":"2021-01-13T12:13:43.070Z","datetime":"2021-01-13 12:13","tags":["story","Hacker News"],"image":null,"imageAlt":null,"provider":"Hacker News","thirdPartyId":"25759477","url":"https://news.ycombinator.com/item?id=25759477","originalUrl":"https://lists.zx2c4.com/pipermail/wireguard/2020-December/006226.html","imageRemote":null,"video":null,"channel":null,"channelUrl":null,"author":"motiejus","authorUrl":"https://news.ycombinator.com/user?id=motiejus","authorImage":null,"authorSlug":null,"score":919,"views":null,"sharedCount":null,"likeCount":null,"sharedContent":null,"parent":{"__typename":"HnJson","localize":[{"title":"开发者对 \"WireGuard：伟大的协议，但跳过Mac应用 \"的回应。","locale":"zh"},{"title":"開發者對 \"WireGuard：偉大的協議，但跳過Mac應用 \"的迴應。","locale":"zh-Hant"}]}},{"__typename":"SocialMediaPost","id":"HnPost-25750807","excerpt":"","slug":"/hn/25750807","title":"Show HN: Vantage – An alternative AWS console focused on developer experience","date":"January 13, 2021","dateISO":"2021-01-13T09:58:11.490Z","datetime":"2021-01-13 09:58","tags":["story","Show HN","Hacker News"],"image":null,"imageAlt":null,"provider":"Hacker News","thirdPartyId":"25750807","url":"https://news.ycombinator.com/item?id=25750807","originalUrl":"https://www.vantage.sh/","imageRemote":"https://uploads-ssl.webflow.com/5f9ba05ba40d6414f341df34/5ffce71e4734200665f6f876_Vantage.svg","video":null,"channel":"Show HN","channelUrl":"https://news.ycombinator.com/show","author":"StratusBen","authorUrl":"https://news.ycombinator.com/user?id=StratusBen","authorImage":null,"authorSlug":null,"score":221,"views":null,"sharedCount":null,"likeCount":null,"sharedContent":null,"parent":{"__typename":"HnJson","localize":[{"title":"HN新产品：Vantage - 一个专注于开发者体验的替代性AWS控制台。","locale":"zh"},{"title":"HN新產品：Vantage - 一個專注於開發者體驗的替代性AWS控制檯。","locale":"zh-Hant"}]}},{"__typename":"SocialMediaPost","id":"HnPost-25757275","excerpt":"","slug":"/hn/25757275","title":"Huawei patent mentions use of Uighur-spotting tech","date":"January 13, 2021","dateISO":"2021-01-13T09:58:11.490Z","datetime":"2021-01-13 09:58","tags":["story","Hacker News"],"image":null,"imageAlt":null,"provider":"Hacker News","thirdPartyId":"25757275","url":"https://news.ycombinator.com/item?id=25757275","originalUrl":"https://www.bbc.co.uk/news/technology-55634388","imageRemote":"https://ichef.bbci.co.uk/news/1024/branded_news/1078C/production/_116486476_huawei.jpg","video":null,"channel":null,"channelUrl":null,"author":"mellosouls","authorUrl":"https://news.ycombinator.com/user?id=mellosouls","authorImage":null,"authorSlug":null,"score":278,"views":null,"sharedCount":null,"likeCount":null,"sharedContent":null,"parent":{"__typename":"HnJson","localize":[{"title":"华为专利提到使用维吾尔族点穴技术","locale":"zh"},{"title":"華爲專利提到使用維吾爾族點穴技術","locale":"zh-Hant"}]}},{"__typename":"SocialMediaPost","id":"HnPost-25753908","excerpt":"","slug":"/hn/25753908","title":"Beaker Browser – experimental peer to peer web browser","date":"January 13, 2021","dateISO":"2021-01-13T08:59:07.030Z","datetime":"2021-01-13 08:59","tags":["story","Hacker News"],"image":null,"imageAlt":null,"provider":"Hacker News","thirdPartyId":"25753908","url":"https://news.ycombinator.com/item?id=25753908","originalUrl":"https://beakerbrowser.com/","imageRemote":"https://beakerbrowser.com/img/logo/logo.png","video":null,"channel":null,"channelUrl":null,"author":"rayrag","authorUrl":"https://news.ycombinator.com/user?id=rayrag","authorImage":null,"authorSlug":null,"score":256,"views":null,"sharedCount":null,"likeCount":null,"sharedContent":null,"parent":{"__typename":"HnJson","localize":[{"title":"贝克浏览器--实验性的点对点网络浏览器。","locale":"zh"},{"title":"貝克瀏覽器--實驗性的點對點網絡瀏覽器。","locale":"zh-Hant"}]}}]}},"pageContext":{"basePath":"/","pageType":"tag","tag":"Hacker News","tagsFilter":{"id":{"glob":"!*Post-1"}},"filter":{"id":{"glob":"!*Post-1"},"tags":{"eq":"Hacker News"}},"limit":25,"skip":2200,"total":3105,"totalPages":125,"currentPage":89,"maxWidth":1024,"maxHeight":512,"locale":"ja","hrefLang":"ja-JA","originalPath":"/tags/hacker-news/page/89","dateFormat":"YYYY-MM-DD"}},"staticQueryHashes":["1239077767","2506312863","2744905544","3025052997","3493603132","3493603132","3513215887","386998304"]}