{"componentChunkName":"component---gatsby-theme-buzzing-src-gatsby-theme-timeline-templates-posts-query-js","path":"/en/tags/story/page/45","result":{"data":{"site":{"siteMetadata":{"title":"Reddit 热门","description":"用中文浏览Reddit热门内容","social":[{"name":"Twitter","url":"https://twitter.com/gatsbyjs","external":null,"prefetch":null},{"name":"GitHub","url":"https://github.com/gatsbyjs","external":null,"prefetch":null}],"menuLinks":[],"localize":[{"locale":"en","title":"Buzzing on Reddit","description":"See what's buzzing on Reddit in your native language","social":[{"name":"Reddit","url":"https://www.reddit.com/","external":true,"prefetch":null}],"menuLinks":[{"name":"Weekly Selection","url":"/issues","external":null,"prefetch":null},{"name":"RSS","url":"/rss.xml","external":null,"prefetch":false}]},{"locale":"zh-Hant","title":"Reddit 熱門","description":"用中文瀏覽Reddit熱門內容","social":null,"menuLinks":null}]}},"tagsGroup":{"group":[{"fieldValue":"ASK HN","totalCount":44},{"fieldValue":"Bitcoin","totalCount":4},{"fieldValue":"Hacker News","totalCount":2600},{"fieldValue":"Poll","totalCount":1},{"fieldValue":"SaveAMC","totalCount":1},{"fieldValue":"Show HN","totalCount":89},{"fieldValue":"bitcoin","totalCount":3},{"fieldValue":"investing","totalCount":797},{"fieldValue":"poll","totalCount":1},{"fieldValue":"reddit","totalCount":4938},{"fieldValue":"science","totalCount":1},{"fieldValue":"stocks","totalCount":1592},{"fieldValue":"story","totalCount":2599},{"fieldValue":"tweet","totalCount":814},{"fieldValue":"wallstreetbets","totalCount":2549}]},"allBlogPost":{"nodes":[{"__typename":"SocialMediaPost","id":"HnPost-26012459","excerpt":"","slug":"/hn/26012459","title":"Where's the fastest place to put my server? How much does it matter?","date":"February 05, 2021","dateISO":"2021-02-05T08:40:16.622Z","datetime":"2021-02-05 08:40","tags":["story","Hacker News"],"image":null,"imageAlt":null,"provider":"Hacker News","thirdPartyId":"26012459","url":"https://news.ycombinator.com/item?id=26012459","originalUrl":"http://calpaterson.com/latency.html","imageRemote":"http://calpaterson.com/assets/network-transit-times.png","video":null,"channel":null,"channelUrl":null,"author":"todsacerdoti","authorUrl":"https://news.ycombinator.com/user?id=todsacerdoti","authorImage":null,"authorSlug":null,"score":194,"views":null,"sharedCount":null,"likeCount":null,"sharedContent":null,"parent":{"__typename":"HnJson","localize":[{"title":"我的服务器放在哪里最快？这有多重要？","locale":"zh"},{"title":"我的服務器放在哪裏最快？這有多重要？","locale":"zh-Hant"}]}},{"__typename":"SocialMediaPost","id":"HnPost-26030519","excerpt":"","slug":"/hn/26030519","title":"New report on Apple’s VR headset: 8K in each eye, potential $3k price tag","date":"February 05, 2021","dateISO":"2021-02-05T05:19:59.926Z","datetime":"2021-02-05 05:19","tags":["story","Hacker News"],"image":null,"imageAlt":null,"provider":"Hacker News","thirdPartyId":"26030519","url":"https://news.ycombinator.com/item?id=26030519","originalUrl":"https://arstechnica.com/gadgets/2021/02/new-report-on-apples-vr-headset-8k-in-each-eye-potential-3000-price-tag/","imageRemote":"https://cdn.arstechnica.net/wp-content/uploads/2015/03/swordofdamocles-640x215.jpg","video":null,"channel":null,"channelUrl":null,"author":"CharlesW","authorUrl":"https://news.ycombinator.com/user?id=CharlesW","authorImage":null,"authorSlug":null,"score":306,"views":null,"sharedCount":null,"likeCount":null,"sharedContent":null,"parent":{"__typename":"HnJson","localize":[{"title":"苹果VR头显新报告：每只眼睛都有8K，潜在售价3千。","locale":"zh"},{"title":"蘋果VR頭顯新報告：每隻眼睛都有8K，潛在售價3千。","locale":"zh-Hant"}]}},{"__typename":"SocialMediaPost","id":"HnPost-26025339","excerpt":"","slug":"/hn/26025339","title":"Collection of Human Interface and Software Design Guides","date":"February 05, 2021","dateISO":"2021-02-05T04:35:00.443Z","datetime":"2021-02-05 04:35","tags":["story","Hacker News"],"image":null,"imageAlt":null,"provider":"Hacker News","thirdPartyId":"26025339","url":"https://news.ycombinator.com/item?id=26025339","originalUrl":"http://www.geofcrowl.com/blog/articles/2020/2/17/collection-higs/","imageRemote":null,"video":null,"channel":null,"channelUrl":null,"author":"ingve","authorUrl":"https://news.ycombinator.com/user?id=ingve","authorImage":null,"authorSlug":null,"score":177,"views":null,"sharedCount":null,"likeCount":null,"sharedContent":null,"parent":{"__typename":"HnJson","localize":[{"title":"人机界面和软件设计指南集","locale":"zh"},{"title":"人機界面和軟件設計指南集","locale":"zh-Hant"}]}},{"__typename":"SocialMediaPost","id":"HnPost-26032307","excerpt":"","slug":"/hn/26032307","title":"Zero arrests in 6 months of health care professionals replacing police officers","date":"February 05, 2021","dateISO":"2021-02-05T03:48:16.767Z","datetime":"2021-02-05 03:48","tags":["story","Hacker News"],"image":null,"imageAlt":null,"provider":"Hacker News","thirdPartyId":"26032307","url":"https://news.ycombinator.com/item?id=26032307","originalUrl":"https://denverite.com/2021/02/02/in-the-first-six-months-of-health-care-professionals-replacing-police-officers-no-one-they-encountered-was-arrested/","imageRemote":"https://i1.wp.com/wp-denverite.s3.amazonaws.com/wp-content/uploads/sites/4/2020/06/200608-STAR-POLICE-911-DIVERSION-PROGRAM-MENTAL-HEALTH-CENTER-OF-DENVER-KEVINJBEATY-05.jpg?resize=1200%2C630&ssl=1","video":null,"channel":null,"channelUrl":null,"author":"ryanwhitney","authorUrl":"https://news.ycombinator.com/user?id=ryanwhitney","authorImage":null,"authorSlug":null,"score":675,"views":null,"sharedCount":null,"likeCount":null,"sharedContent":null,"parent":{"__typename":"HnJson","localize":[{"title":"卫生保健专业人员取代警察的6个月内没有人被捕","locale":"zh"},{"title":"衛生保健專業人員取代警察的6個月內沒有人被捕","locale":"zh-Hant"}]}},{"__typename":"SocialMediaPost","id":"HnPost-26012007","excerpt":"","slug":"/hn/26012007","title":"Writing high performance F# code","date":"February 05, 2021","dateISO":"2021-02-05T03:36:18.343Z","datetime":"2021-02-05 03:36","tags":["story","Hacker News"],"image":null,"imageAlt":null,"provider":"Hacker News","thirdPartyId":"26012007","url":"https://news.ycombinator.com/item?id=26012007","originalUrl":"https://bartoszsypytkowski.com/writing-high-performance-f-code/","imageRemote":"https://bartoszsypytkowski.com/content/images/2021/02/class-vs-struct-layout.png","video":null,"channel":null,"channelUrl":null,"author":"pjmlp","authorUrl":"https://news.ycombinator.com/user?id=pjmlp","authorImage":null,"authorSlug":null,"score":243,"views":null,"sharedCount":null,"likeCount":null,"sharedContent":null,"parent":{"__typename":"HnJson","localize":[{"title":"编写高性能的F#代码","locale":"zh"},{"title":"編寫高性能的F#代碼","locale":"zh-Hant"}]}},{"__typename":"SocialMediaPost","id":"HnPost-26027448","excerpt":"","slug":"/hn/26027448","title":"Peter Naur's view of programming","date":"February 04, 2021","dateISO":"2021-02-04T22:51:48.378Z","datetime":"2021-02-04 22:51","tags":["story","Hacker News"],"image":null,"imageAlt":null,"provider":"Hacker News","thirdPartyId":"26027448","url":"https://news.ycombinator.com/item?id=26027448","originalUrl":"https://hiringengineersbook.com/post/autonomy","imageRemote":"https://hiringengineersbook.com/book.jpg","video":null,"channel":null,"channelUrl":null,"author":"cloogshicer","authorUrl":"https://news.ycombinator.com/user?id=cloogshicer","authorImage":null,"authorSlug":null,"score":292,"views":null,"sharedCount":null,"likeCount":null,"sharedContent":null,"parent":{"__typename":"HnJson","localize":[{"title":"Peter Naur的编程观","locale":"zh"},{"title":"Peter Naur的編程觀","locale":"zh-Hant"}]}},{"__typename":"SocialMediaPost","id":"HnPost-26025742","excerpt":"","slug":"/hn/26025742","title":"Godot Shaders: View and Share Shaders for Godot","date":"February 04, 2021","dateISO":"2021-02-04T22:42:18.971Z","datetime":"2021-02-04 22:42","tags":["story","Hacker News"],"image":null,"imageAlt":null,"provider":"Hacker News","thirdPartyId":"26025742","url":"https://news.ycombinator.com/item?id=26025742","originalUrl":"https://godotshaders.com/","imageRemote":"https://godotshaders.com/wp-content/uploads/2021/01/conifer-179-1.png","video":null,"channel":null,"channelUrl":null,"author":"bananaoomarang","authorUrl":"https://news.ycombinator.com/user?id=bananaoomarang","authorImage":null,"authorSlug":null,"score":222,"views":null,"sharedCount":null,"likeCount":null,"sharedContent":null,"parent":{"__typename":"HnJson","localize":[{"title":"Godot Shaders。查看和分享Godot的着色器","locale":"zh"},{"title":"Godot Shaders。查看和分享Godot的着色器","locale":"zh-Hant"}]}},{"__typename":"SocialMediaPost","id":"HnPost-26024049","excerpt":"","slug":"/hn/26024049","title":"Localize your cat at home with BLE beacon, ESP32s, and Machine Learning","date":"February 04, 2021","dateISO":"2021-02-04T21:19:08.892Z","datetime":"2021-02-04 21:19","tags":["story","Hacker News"],"image":null,"imageAlt":null,"provider":"Hacker News","thirdPartyId":"26024049","url":"https://news.ycombinator.com/item?id=26024049","originalUrl":"https://github.com/filipsPL/cat-localizer","imageRemote":"https://avatars.githubusercontent.com/u/11406606?s=400&v=4","video":null,"channel":null,"channelUrl":null,"author":"lormayna","authorUrl":"https://news.ycombinator.com/user?id=lormayna","authorImage":null,"authorSlug":null,"score":255,"views":null,"sharedCount":null,"likeCount":null,"sharedContent":null,"parent":{"__typename":"HnJson","localize":[{"title":"通过BLE beacon、ESP32和机器学习，将家中的猫咪本地化。","locale":"zh"},{"title":"通過BLE beacon、ESP32和機器學習，將家中的貓咪本地化。","locale":"zh-Hant"}]}},{"__typename":"SocialMediaPost","id":"HnPost-26024085","excerpt":"","slug":"/hn/26024085","title":"The visitor pattern is essentially the same thing as Church encoding","date":"February 04, 2021","dateISO":"2021-02-04T20:47:44.854Z","datetime":"2021-02-04 20:47","tags":["story","Hacker News"],"image":null,"imageAlt":null,"provider":"Hacker News","thirdPartyId":"26024085","url":"https://news.ycombinator.com/item?id=26024085","originalUrl":"https://www.haskellforall.com/2021/01/the-visitor-pattern-is-essentially-same.html","imageRemote":"https://resources.blogblog.com/img/icon18_edit_allbkg.gif","video":null,"channel":null,"channelUrl":null,"author":"lelf","authorUrl":"https://news.ycombinator.com/user?id=lelf","authorImage":null,"authorSlug":null,"score":177,"views":null,"sharedCount":null,"likeCount":null,"sharedContent":null,"parent":{"__typename":"HnJson","localize":[{"title":"访客模式与教会编码基本一致","locale":"zh"},{"title":"訪客模式與教會編碼基本一致","locale":"zh-Hant"}]}},{"__typename":"SocialMediaPost","id":"HnPost-26026309","excerpt":"","slug":"/hn/26026309","title":"Rust-Analyzer Architecture","date":"February 04, 2021","dateISO":"2021-02-04T20:00:08.006Z","datetime":"2021-02-04 20:00","tags":["story","Hacker News"],"image":null,"imageAlt":null,"provider":"Hacker News","thirdPartyId":"26026309","url":"https://news.ycombinator.com/item?id=26026309","originalUrl":"https://github.com/rust-analyzer/rust-analyzer/blob/master/docs/dev/architecture.md","imageRemote":"https://avatars.githubusercontent.com/u/43985197?s=400&v=4","video":null,"channel":null,"channelUrl":null,"author":"ibraheemdev","authorUrl":"https://news.ycombinator.com/user?id=ibraheemdev","authorImage":null,"authorSlug":null,"score":287,"views":null,"sharedCount":null,"likeCount":null,"sharedContent":null,"parent":{"__typename":"HnJson","localize":[{"title":"Rust-Analyzer架构","locale":"zh"},{"title":"Rust-Analyzer架構","locale":"zh-Hant"}]}},{"__typename":"SocialMediaPost","id":"HnPost-26024316","excerpt":"","slug":"/hn/26024316","title":"An open-source AirPlay mirroring server for the Raspberry Pi","date":"February 04, 2021","dateISO":"2021-02-04T19:48:23.463Z","datetime":"2021-02-04 19:48","tags":["story","Hacker News"],"image":null,"imageAlt":null,"provider":"Hacker News","thirdPartyId":"26024316","url":"https://news.ycombinator.com/item?id=26024316","originalUrl":"https://github.com/FD-/RPiPlay","imageRemote":"https://avatars.githubusercontent.com/u/3320822?s=400&v=4","video":null,"channel":null,"channelUrl":null,"author":"chetangoti","authorUrl":"https://news.ycombinator.com/user?id=chetangoti","authorImage":null,"authorSlug":null,"score":258,"views":null,"sharedCount":null,"likeCount":null,"sharedContent":null,"parent":{"__typename":"HnJson","localize":[{"title":"一个用于树莓派的开源AirPlay镜像服务器。","locale":"zh"},{"title":"一個用於樹莓派的開源AirPlay鏡像服務器。","locale":"zh-Hant"}]}},{"__typename":"SocialMediaPost","id":"HnPost-26026896","excerpt":"","slug":"/hn/26026896","title":"Native Mac APIs for Go","date":"February 04, 2021","dateISO":"2021-02-04T19:18:19.537Z","datetime":"2021-02-04 19:18","tags":["story","Hacker News"],"image":null,"imageAlt":null,"provider":"Hacker News","thirdPartyId":"26026896","url":"https://news.ycombinator.com/item?id=26026896","originalUrl":"https://github.com/progrium/macdriver","imageRemote":"https://avatars.githubusercontent.com/u/647?s=400&v=4","video":null,"channel":null,"channelUrl":null,"author":"maydemir","authorUrl":"https://news.ycombinator.com/user?id=maydemir","authorImage":null,"authorSlug":null,"score":480,"views":null,"sharedCount":null,"likeCount":null,"sharedContent":null,"parent":{"__typename":"HnJson","localize":[{"title":"原生Mac APIs for Go","locale":"zh"},{"title":"原生Mac APIs for Go","locale":"zh-Hant"}]}},{"__typename":"SocialMediaPost","id":"HnPost-26024917","excerpt":"","slug":"/hn/26024917","title":"Newly Active 250Tbps Subsea Cable – The Google Cloud Dunant Cable","date":"February 04, 2021","dateISO":"2021-02-04T17:54:12.432Z","datetime":"2021-02-04 17:54","tags":["story","Hacker News"],"image":null,"imageAlt":null,"provider":"Hacker News","thirdPartyId":"26024917","url":"https://news.ycombinator.com/item?id=26024917","originalUrl":"https://cloud.google.com/blog/products/infrastructure/googles-dunant-subsea-cable-is-now-ready-for-service","imageRemote":"https://storage.googleapis.com/gweb-cloudblog-publish/original_images/world_map1.jpg","video":null,"channel":null,"channelUrl":null,"author":"johannesboyne","authorUrl":"https://news.ycombinator.com/user?id=johannesboyne","authorImage":null,"authorSlug":null,"score":262,"views":null,"sharedCount":null,"likeCount":null,"sharedContent":null,"parent":{"__typename":"HnJson","localize":[{"title":"新上线的250Tbps海底电缆--谷歌云盾电缆。","locale":"zh"},{"title":"新上線的250Tbps海底電纜--谷歌雲盾電纜。","locale":"zh-Hant"}]}},{"__typename":"SocialMediaPost","id":"HnPost-26026994","excerpt":"","slug":"/hn/26026994","title":"Help users in Iran reconnect to Signal","date":"February 04, 2021","dateISO":"2021-02-04T17:54:12.432Z","datetime":"2021-02-04 17:54","tags":["story","Hacker News"],"image":null,"imageAlt":null,"provider":"Hacker News","thirdPartyId":"26026994","url":"https://news.ycombinator.com/item?id=26026994","originalUrl":"https://signal.org/blog/help-iran-reconnect/","imageRemote":"https://signal.org/assets/og/og-image-ff2096df535eee499356de64b19fa8cebb9681ab1e78cca7330e7f8b8d5ec6d5.png","video":null,"channel":null,"channelUrl":null,"author":"arkadiyt","authorUrl":"https://news.ycombinator.com/user?id=arkadiyt","authorImage":null,"authorSlug":null,"score":1171,"views":null,"sharedCount":null,"likeCount":null,"sharedContent":null,"parent":{"__typename":"HnJson","localize":[{"title":"帮助伊朗的用户重新连接到Signal","locale":"zh"},{"title":"幫助伊朗的用戶重新連接到Signal","locale":"zh-Hant"}]}},{"__typename":"SocialMediaPost","id":"HnPost-26012623","excerpt":"","slug":"/hn/26012623","title":"Spanish crew shot an alternative Dracula after Bela Lugosi had gone to bed","date":"February 04, 2021","dateISO":"2021-02-04T17:00:13.152Z","datetime":"2021-02-04 17:00","tags":["story","Hacker News"],"image":null,"imageAlt":null,"provider":"Hacker News","thirdPartyId":"26012623","url":"https://news.ycombinator.com/item?id=26012623","originalUrl":"https://www.theguardian.com/film/2021/feb/03/they-came-at-night-how-a-spanish-crew-shot-an-alternative-dracula-after-bela-lugosi-had-gone-to-bed","imageRemote":"https://i.guim.co.uk/img/media/8d7256adf1d7d4d97e725653e463317b6a038aa8/79_516_5812_3487/master/5812.jpg?width=1200&height=630&quality=85&auto=format&fit=crop&overlay-align=bottom%2Cleft&overlay-width=100p&overlay-base64=L2ltZy9zdGF0aWMvb3ZlcmxheXMvdGctZGVmYXVsdC5wbmc&enable=upscale&s=639bf7dad674a123818827eca56f357c","video":null,"channel":null,"channelUrl":null,"author":"samizdis","authorUrl":"https://news.ycombinator.com/user?id=samizdis","authorImage":null,"authorSlug":null,"score":169,"views":null,"sharedCount":null,"likeCount":null,"sharedContent":null,"parent":{"__typename":"HnJson","localize":[{"title":"西班牙摄制组在贝拉-卢戈西睡觉后拍摄了一个另类的德古拉。","locale":"zh"},{"title":"西班牙攝製組在貝拉-盧戈西睡覺後拍攝了一個另類的德古拉。","locale":"zh-Hant"}]}},{"__typename":"SocialMediaPost","id":"HnPost-26024719","excerpt":"","slug":"/hn/26024719","title":"Waiting for PostgreSQL 14 – SEARCH and CYCLE clauses","date":"February 04, 2021","dateISO":"2021-02-04T17:00:13.152Z","datetime":"2021-02-04 17:00","tags":["story","Hacker News"],"image":null,"imageAlt":null,"provider":"Hacker News","thirdPartyId":"26024719","url":"https://news.ycombinator.com/item?id=26024719","originalUrl":"https://www.depesz.com/2021/02/04/waiting-for-postgresql-14-search-and-cycle-clauses/","imageRemote":"https://www.depesz.com/wp-content/uploads/2021/02/ttr-map.png","video":null,"channel":null,"channelUrl":null,"author":"todsacerdoti","authorUrl":"https://news.ycombinator.com/user?id=todsacerdoti","authorImage":null,"authorSlug":null,"score":315,"views":null,"sharedCount":null,"likeCount":null,"sharedContent":null,"parent":{"__typename":"HnJson","localize":[{"title":"等待PostgreSQL 14 - SEARCH和CYCLE子句。","locale":"zh"},{"title":"等待PostgreSQL 14 - SEARCH和CYCLE子句。","locale":"zh-Hant"}]}},{"__typename":"SocialMediaPost","id":"HnPost-26024768","excerpt":"","slug":"/hn/26024768","title":"McKinsey to pay $573M to settle claims over opioid crisis role: source","date":"February 04, 2021","dateISO":"2021-02-04T15:54:13.992Z","datetime":"2021-02-04 15:54","tags":["story","Hacker News"],"image":null,"imageAlt":null,"provider":"Hacker News","thirdPartyId":"26024768","url":"https://news.ycombinator.com/item?id=26024768","originalUrl":"https://www.reuters.com/article/us-usa-mckinsey-idUSKBN2A405Q","imageRemote":"https://static.reuters.com/resources/r/?m=02&d=20210204&t=2&i=1550301215&r=LYNXMPEH1303A&w=800","video":null,"channel":null,"channelUrl":null,"author":"onetimemanytime","authorUrl":"https://news.ycombinator.com/user?id=onetimemanytime","authorImage":null,"authorSlug":null,"score":508,"views":null,"sharedCount":null,"likeCount":null,"sharedContent":null,"parent":{"__typename":"HnJson","localize":[{"title":"麦肯锡将支付5.73亿美元解决阿片类药物危机作用的索赔：消息人士说。","locale":"zh"},{"title":"麥肯錫將支付5.73億美元解決阿片類藥物危機作用的索賠：消息人士說。","locale":"zh-Hant"}]}},{"__typename":"SocialMediaPost","id":"HnPost-26022289","excerpt":"","slug":"/hn/26022289","title":"Monkey.org","date":"February 04, 2021","dateISO":"2021-02-04T15:42:09.794Z","datetime":"2021-02-04 15:42","tags":["story","Hacker News"],"image":null,"imageAlt":null,"provider":"Hacker News","thirdPartyId":"26022289","url":"https://news.ycombinator.com/item?id=26022289","originalUrl":"https://monkey.org/","imageRemote":null,"video":null,"channel":null,"channelUrl":null,"author":"kvathupo","authorUrl":"https://news.ycombinator.com/user?id=kvathupo","authorImage":null,"authorSlug":null,"score":201,"views":null,"sharedCount":null,"likeCount":null,"sharedContent":null,"parent":{"__typename":"HnJson","localize":[{"title":"Monkey.org","locale":"zh"},{"title":"Monkey.org","locale":"zh-Hant"}]}},{"__typename":"SocialMediaPost","id":"HnPost-26018098","excerpt":"","slug":"/hn/26018098","title":"Show HN: YTT Tech – My curated database of instructional YouTube Videos","date":"February 04, 2021","dateISO":"2021-02-04T11:00:44.770Z","datetime":"2021-02-04 11:00","tags":["story","Show HN","Hacker News"],"image":null,"imageAlt":null,"provider":"Hacker News","thirdPartyId":"26018098","url":"https://news.ycombinator.com/item?id=26018098","originalUrl":"https://ytt-tech.com","imageRemote":null,"video":null,"channel":"Show HN","channelUrl":"https://news.ycombinator.com/show","author":"jrowen","authorUrl":"https://news.ycombinator.com/user?id=jrowen","authorImage":null,"authorSlug":null,"score":205,"views":null,"sharedCount":null,"likeCount":null,"sharedContent":null,"parent":{"__typename":"HnJson","localize":[{"title":"显示 HN：YTT Tech - 我策划的YouTube教学视频数据库。","locale":"zh"},{"title":"顯示 HN：YTT Tech - 我策劃的YouTube教學視頻數據庫。","locale":"zh-Hant"}]}},{"__typename":"SocialMediaPost","id":"HnPost-25999692","excerpt":"","slug":"/hn/25999692","title":"Bill Evans – The Creative Process and Self-Teaching (2007) [video]","date":"February 04, 2021","dateISO":"2021-02-04T09:32:24.207Z","datetime":"2021-02-04 09:32","tags":["story","Hacker News"],"image":null,"imageAlt":null,"provider":"Hacker News","thirdPartyId":"25999692","url":"https://news.ycombinator.com/item?id=25999692","originalUrl":"https://www.youtube.com/watch?v=YEHWaGuurUk","imageRemote":"https://i.ytimg.com/vi/YEHWaGuurUk/hqdefault.jpg","video":null,"channel":null,"channelUrl":null,"author":"jeremiecoullon","authorUrl":"https://news.ycombinator.com/user?id=jeremiecoullon","authorImage":null,"authorSlug":null,"score":186,"views":null,"sharedCount":null,"likeCount":null,"sharedContent":null,"parent":{"__typename":"HnJson","localize":[{"title":"比尔-埃文斯--创作过程与自我教学（2007年）[视频]。","locale":"zh"},{"title":"比爾-埃文斯--創作過程與自我教學（2007年）[視頻]。","locale":"zh-Hant"}]}},{"__typename":"SocialMediaPost","id":"HnPost-26012189","excerpt":"","slug":"/hn/26012189","title":"My product is my garden","date":"February 04, 2021","dateISO":"2021-02-04T08:47:21.993Z","datetime":"2021-02-04 08:47","tags":["story","Hacker News"],"image":null,"imageAlt":null,"provider":"Hacker News","thirdPartyId":"26012189","url":"https://news.ycombinator.com/item?id=26012189","originalUrl":"https://herman.bearblog.dev/my-product-is-my-garden/","imageRemote":"https://i.imgur.com/b499n4R.png","video":null,"channel":null,"channelUrl":null,"author":"square_usual","authorUrl":"https://news.ycombinator.com/user?id=square_usual","authorImage":null,"authorSlug":null,"score":687,"views":null,"sharedCount":null,"likeCount":null,"sharedContent":null,"parent":{"__typename":"HnJson","localize":[{"title":"我的产品就是我的花园","locale":"zh"},{"title":"我的產品就是我的花園","locale":"zh-Hant"}]}},{"__typename":"SocialMediaPost","id":"HnPost-26022159","excerpt":"","slug":"/hn/26022159","title":"Amazon shortchanged drivers $61.7M in tips","date":"February 04, 2021","dateISO":"2021-02-04T06:24:38.043Z","datetime":"2021-02-04 06:24","tags":["story","Hacker News"],"image":null,"imageAlt":null,"provider":"Hacker News","thirdPartyId":"26022159","url":"https://news.ycombinator.com/item?id=26022159","originalUrl":"https://www.washingtonpost.com/technology/2021/02/02/amazon-ftc-tip-settlement/","imageRemote":"https://www.washingtonpost.com/wp-apps/imrs.php?src=https://arc-anglerfish-washpost-prod-washpost.s3.amazonaws.com/public/GE7LJNCQ7AI6XIPV7WXSRT6KSA.jpg&w=1440","video":null,"channel":null,"channelUrl":null,"author":"ummonk","authorUrl":"https://news.ycombinator.com/user?id=ummonk","authorImage":null,"authorSlug":null,"score":294,"views":null,"sharedCount":null,"likeCount":null,"sharedContent":null,"parent":{"__typename":"HnJson","localize":[{"title":"亚马逊亏空司机6170万美元小费","locale":"zh"},{"title":"亞馬遜虧空司機6170萬美元小費","locale":"zh-Hant"}]}},{"__typename":"SocialMediaPost","id":"HnPost-26019479","excerpt":"","slug":"/hn/26019479","title":"I converted my demoscene font collection to PNG and put it on GitHub","date":"February 04, 2021","dateISO":"2021-02-04T05:50:52.909Z","datetime":"2021-02-04 05:50","tags":["story","Hacker News"],"image":null,"imageAlt":null,"provider":"Hacker News","thirdPartyId":"26019479","url":"https://news.ycombinator.com/item?id=26019479","originalUrl":"https://github.com/ianhan/BitmapFonts","imageRemote":"https://avatars.githubusercontent.com/u/6833412?s=400&v=4","video":null,"channel":null,"channelUrl":null,"author":"ianhanschen","authorUrl":"https://news.ycombinator.com/user?id=ianhanschen","authorImage":null,"authorSlug":null,"score":359,"views":null,"sharedCount":null,"likeCount":null,"sharedContent":null,"parent":{"__typename":"HnJson","localize":[{"title":"我将我的demoscene字体集合转换为PNG，并将其放在GitHub上。","locale":"zh"},{"title":"我將我的demoscene字體集合轉換爲PNG，並將其放在GitHub上。","locale":"zh-Hant"}]}},{"__typename":"SocialMediaPost","id":"HnPost-26021191","excerpt":"","slug":"/hn/26021191","title":"Parler CEO says he was fired by board","date":"February 04, 2021","dateISO":"2021-02-04T05:42:51.161Z","datetime":"2021-02-04 05:42","tags":["story","Hacker News"],"image":null,"imageAlt":null,"provider":"Hacker News","thirdPartyId":"26021191","url":"https://news.ycombinator.com/item?id=26021191","originalUrl":"https://www.reuters.com/article/ctech-us-parler-ceo-idCAKBN2A33B0-OCATC","imageRemote":"https://static.reuters.com/resources/r/?m=02&d=20210204&t=2&i=1550258318&r=LYNXMPEH1300X-OCATC&w=800","video":null,"channel":null,"channelUrl":null,"author":"mrzimmerman","authorUrl":"https://news.ycombinator.com/user?id=mrzimmerman","authorImage":null,"authorSlug":null,"score":296,"views":null,"sharedCount":null,"likeCount":null,"sharedContent":null,"parent":{"__typename":"HnJson","localize":[{"title":"帕勒CEO称被董事会解雇","locale":"zh"},{"title":"帕勒CEO稱被董事會解僱","locale":"zh-Hant"}]}},{"__typename":"SocialMediaPost","id":"HnPost-26018684","excerpt":"","slug":"/hn/26018684","title":"Asdf – An Extendable Version Manager","date":"February 04, 2021","dateISO":"2021-02-04T03:42:22.488Z","datetime":"2021-02-04 03:42","tags":["story","Hacker News"],"image":null,"imageAlt":null,"provider":"Hacker News","thirdPartyId":"26018684","url":"https://news.ycombinator.com/item?id=26018684","originalUrl":"https://asdf-vm.com/","imageRemote":null,"video":null,"channel":null,"channelUrl":null,"author":"BerislavLopac","authorUrl":"https://news.ycombinator.com/user?id=BerislavLopac","authorImage":null,"authorSlug":null,"score":235,"views":null,"sharedCount":null,"likeCount":null,"sharedContent":null,"parent":{"__typename":"HnJson","localize":[{"title":"Asdf - 一个可扩展的版本管理器","locale":"zh"},{"title":"Asdf - 一個可擴展的版本管理器","locale":"zh-Hant"}]}}]}},"pageContext":{"basePath":"/","pageType":"tag","tag":"story","tagsFilter":{"id":{"glob":"!*Post-1"}},"filter":{"id":{"glob":"!*Post-1"},"tags":{"eq":"story"}},"limit":25,"skip":1100,"total":2599,"totalPages":104,"currentPage":45,"maxWidth":1024,"maxHeight":512,"locale":"en","hrefLang":"en-US","originalPath":"/tags/story/page/45","dateFormat":"MM/DD/YYYY"}},"staticQueryHashes":["1239077767","2506312863","2744905544","3025052997","3493603132","3493603132","3513215887","386998304"]}