{"componentChunkName":"component---gatsby-theme-buzzing-src-gatsby-theme-timeline-templates-posts-query-js","path":"/zh-Hant/tags/story/page/2","result":{"data":{"site":{"siteMetadata":{"title":"Reddit 热门","description":"用中文浏览Reddit热门内容","social":[{"name":"Twitter","url":"https://twitter.com/gatsbyjs","external":null,"prefetch":null},{"name":"GitHub","url":"https://github.com/gatsbyjs","external":null,"prefetch":null}],"menuLinks":[],"localize":[{"locale":"en","title":"Buzzing on Reddit","description":"See what's buzzing on Reddit in your native language","social":[{"name":"Reddit","url":"https://www.reddit.com/","external":true,"prefetch":null}],"menuLinks":[{"name":"Weekly Selection","url":"/issues","external":null,"prefetch":null},{"name":"RSS","url":"/rss.xml","external":null,"prefetch":false}]},{"locale":"zh-Hant","title":"Reddit 熱門","description":"用中文瀏覽Reddit熱門內容","social":null,"menuLinks":null}]}},"tagsGroup":{"group":[{"fieldValue":"ASK HN","totalCount":22},{"fieldValue":"Bitcoin","totalCount":3},{"fieldValue":"Hacker News","totalCount":920},{"fieldValue":"Poll","totalCount":1},{"fieldValue":"Show HN","totalCount":34},{"fieldValue":"investing","totalCount":197},{"fieldValue":"poll","totalCount":1},{"fieldValue":"reddit","totalCount":777},{"fieldValue":"science","totalCount":1},{"fieldValue":"stocks","totalCount":336},{"fieldValue":"story","totalCount":919},{"fieldValue":"tweet","totalCount":275},{"fieldValue":"wallstreetbets","totalCount":244}]},"allBlogPost":{"nodes":[{"__typename":"SocialMediaPost","id":"HnPost-25759563","excerpt":"","slug":"/hn/25759563","title":"2020 Game","date":"January 13, 2021","dateISO":"2021-01-13T19:40:33.626Z","datetime":"2021-01-13 19:40","tags":["story","Hacker News"],"image":null,"imageAlt":null,"provider":"Hacker News","thirdPartyId":"25759563","url":"https://news.ycombinator.com/item?id=25759563","originalUrl":"https://2020game.io/","imageRemote":"https://3ad68020-4d43-4164-8772-43d3de9c78fd.akamaized.net/logo/200x200.png","video":null,"channel":null,"channelUrl":null,"author":"BerislavLopac","authorUrl":"https://news.ycombinator.com/user?id=BerislavLopac","authorImage":null,"authorSlug":null,"score":202,"views":null,"sharedCount":null,"likeCount":null,"sharedContent":null,"parent":{"__typename":"HnJson","localize":[{"title":"2020年游戏","locale":"zh"},{"title":"2020年遊戲","locale":"zh-Hant"}]}},{"__typename":"SocialMediaPost","id":"HnPost-25762383","excerpt":"","slug":"/hn/25762383","title":"Dropbox to cut 11% of its global workforce","date":"January 13, 2021","dateISO":"2021-01-13T19:40:33.626Z","datetime":"2021-01-13 19:40","tags":["story","Hacker News"],"image":null,"imageAlt":null,"provider":"Hacker News","thirdPartyId":"25762383","url":"https://news.ycombinator.com/item?id=25762383","originalUrl":"https://www.cnbc.com/2021/01/13/dropbox-to-cut-11percent-of-its-global-workforce.html","imageRemote":"https://image.cnbcfm.com/api/v1/image/105086496-RTS1OZ4R.jpg?v=1529517209","video":null,"channel":null,"channelUrl":null,"author":"champagnepapi","authorUrl":"https://news.ycombinator.com/user?id=champagnepapi","authorImage":null,"authorSlug":null,"score":236,"views":null,"sharedCount":null,"likeCount":null,"sharedContent":null,"parent":{"__typename":"HnJson","localize":[{"title":"Dropbox将削减11%的全球员工数量","locale":"zh"},{"title":"Dropbox將削減11%的全球員工數量","locale":"zh-Hant"}]}},{"__typename":"SocialMediaPost","id":"HnPost-25747215","excerpt":"","slug":"/hn/25747215","title":"A distributed Posix file system built on top of Redis and S3","date":"January 13, 2021","dateISO":"2021-01-13T18:41:35.869Z","datetime":"2021-01-13 18:41","tags":["story","Hacker News"],"image":null,"imageAlt":null,"provider":"Hacker News","thirdPartyId":"25747215","url":"https://news.ycombinator.com/item?id=25747215","originalUrl":"https://github.com/juicedata/juicefs","imageRemote":"https://avatars3.githubusercontent.com/u/27241737?s=400&v=4","video":null,"channel":null,"channelUrl":null,"author":"jerodsanto","authorUrl":"https://news.ycombinator.com/user?id=jerodsanto","authorImage":null,"authorSlug":null,"score":200,"views":null,"sharedCount":null,"likeCount":null,"sharedContent":null,"parent":{"__typename":"HnJson","localize":[{"title":"一个建立在Redis和S3之上的分布式Posix文件系统。","locale":"zh"},{"title":"一個建立在Redis和S3之上的分佈式Posix文件系統。","locale":"zh-Hant"}]}},{"__typename":"SocialMediaPost","id":"HnPost-25762047","excerpt":"","slug":"/hn/25762047","title":"Intel CEO Bob Swan to Step Down in Feb, VMware CEO Pat Gelsinger to Replace Him","date":"January 13, 2021","dateISO":"2021-01-13T18:41:35.869Z","datetime":"2021-01-13 18:41","tags":["story","Hacker News"],"image":null,"imageAlt":null,"provider":"Hacker News","thirdPartyId":"25762047","url":"https://news.ycombinator.com/item?id=25762047","originalUrl":"https://www.cnbc.com/2021/01/13/intel-ceo-bob-swan-to-step-down-in-february.html","imageRemote":"https://image.cnbcfm.com/api/v1/image/106755085-1603311208426-gettyimages-1192401571-urn_newsml_dpa_com_20090101_200107-99-381133-2.jpeg?v=1609337495","video":null,"channel":null,"channelUrl":null,"author":"totalZero","authorUrl":"https://news.ycombinator.com/user?id=totalZero","authorImage":null,"authorSlug":null,"score":225,"views":null,"sharedCount":null,"likeCount":null,"sharedContent":null,"parent":{"__typename":"HnJson","localize":[{"title":"英特尔CEO鲍勃-斯旺将于2月卸任，VMware CEO帕特-格尔辛格将接替他的位置。","locale":"zh"},{"title":"英特爾CEO鮑勃-斯旺將於2月卸任，VMware CEO帕特-格爾辛格將接替他的位置。","locale":"zh-Hant"}]}},{"__typename":"SocialMediaPost","id":"HnPost-25762407","excerpt":"","slug":"/hn/25762407","title":"WRT54G History: The Router That Accidentally Went Open Source","date":"January 13, 2021","dateISO":"2021-01-13T18:41:35.869Z","datetime":"2021-01-13 18:41","tags":["story","Hacker News"],"image":null,"imageAlt":null,"provider":"Hacker News","thirdPartyId":"25762407","url":"https://news.ycombinator.com/item?id=25762407","originalUrl":"https://tedium.co/2021/01/13/linksys-wrt54g-router-history/","imageRemote":"https://images.tedium.co/uploads/tedium011321.gif","video":null,"channel":null,"channelUrl":null,"author":"uptown","authorUrl":"https://news.ycombinator.com/user?id=uptown","authorImage":null,"authorSlug":null,"score":271,"views":null,"sharedCount":null,"likeCount":null,"sharedContent":null,"parent":{"__typename":"HnJson","localize":[{"title":"WRT54G的历史。意外开源的路由器","locale":"zh"},{"title":"WRT54G的歷史。意外開源的路由器","locale":"zh-Hant"}]}},{"__typename":"SocialMediaPost","id":"HnPost-25763863","excerpt":"","slug":"/hn/25763863","title":"Workaholism Leads to Mental and Physical Health Problems","date":"January 13, 2021","dateISO":"2021-01-13T18:41:35.869Z","datetime":"2021-01-13 18:41","tags":["story","Hacker News"],"image":null,"imageAlt":null,"provider":"Hacker News","thirdPartyId":"25763863","url":"https://news.ycombinator.com/item?id=25763863","originalUrl":"https://www.hse.ru/en/news/research/433782660.html","imageRemote":"https://www.hse.ru/data/2021/01/13/1347222870/iStock-1180554582.jpg.(1000x1000x1).jpg","video":null,"channel":null,"channelUrl":null,"author":"rustoo","authorUrl":"https://news.ycombinator.com/user?id=rustoo","authorImage":null,"authorSlug":null,"score":214,"views":null,"sharedCount":null,"likeCount":null,"sharedContent":null,"parent":{"__typename":"HnJson","localize":[{"title":"工作狂导致心理和身体健康问题","locale":"zh"},{"title":"工作狂導致心理和身體健康問題","locale":"zh-Hant"}]}},{"__typename":"SocialMediaPost","id":"HnPost-25760750","excerpt":"","slug":"/hn/25760750","title":"Ask HN: Do we need a Google Customers Union? Could it work?","date":"January 13, 2021","dateISO":"2021-01-13T17:21:36.397Z","datetime":"2021-01-13 17:21","tags":["story","ASK HN","Hacker News"],"image":null,"imageAlt":null,"provider":"Hacker News","thirdPartyId":"25760750","url":"https://news.ycombinator.com/item?id=25760750","originalUrl":"https://news.ycombinator.com/item?id=25760750","imageRemote":null,"video":null,"channel":"ASK HN","channelUrl":"https://news.ycombinator.com/ask","author":"CaptainJustin","authorUrl":"https://news.ycombinator.com/user?id=CaptainJustin","authorImage":null,"authorSlug":null,"score":212,"views":null,"sharedCount":null,"likeCount":null,"sharedContent":null,"parent":{"__typename":"HnJson","localize":[{"title":"HN提问：我们需要一个谷歌客户联盟吗？能否行得通？","locale":"zh"},{"title":"HN提問：我們需要一個谷歌客戶聯盟嗎？能否行得通？","locale":"zh-Hant"}]}},{"__typename":"SocialMediaPost","id":"HnPost-25761469","excerpt":"","slug":"/hn/25761469","title":"BeagleV – An affordable RISC-V computer designed to run Linux","date":"January 13, 2021","dateISO":"2021-01-13T16:07:49.538Z","datetime":"2021-01-13 16:07","tags":["story","Hacker News"],"image":null,"imageAlt":null,"provider":"Hacker News","thirdPartyId":"25761469","url":"https://news.ycombinator.com/item?id=25761469","originalUrl":"https://beaglev.seeed.cc/","imageRemote":"https://beaglev.seeed.cc/img/s1-bg-V.png","video":null,"channel":null,"channelUrl":null,"author":"pathompong","authorUrl":"https://news.ycombinator.com/user?id=pathompong","authorImage":null,"authorSlug":null,"score":222,"views":null,"sharedCount":null,"likeCount":null,"sharedContent":null,"parent":{"__typename":"HnJson","localize":[{"title":"BeagleV - 一台经济实惠的RISC-V电脑，设计用于运行Linux。","locale":"zh"},{"title":"BeagleV - 一臺經濟實惠的RISC-V電腦，設計用於運行Linux。","locale":"zh-Hant"}]}},{"__typename":"SocialMediaPost","id":"HnPost-25759430","excerpt":"","slug":"/hn/25759430","title":"The neural network of the Stockfish chess engine","date":"January 13, 2021","dateISO":"2021-01-13T14:07:57.302Z","datetime":"2021-01-13 14:07","tags":["story","Hacker News"],"image":null,"imageAlt":null,"provider":"Hacker News","thirdPartyId":"25759430","url":"https://news.ycombinator.com/item?id=25759430","originalUrl":"https://cp4space.hatsya.com/2021/01/08/the-neural-network-of-the-stockfish-chess-engine/","imageRemote":"https://cp4space.hatsya.com/wp-content/uploads/2021/01/nnue-initial.png","video":null,"channel":null,"channelUrl":null,"author":"c1ccccc1","authorUrl":"https://news.ycombinator.com/user?id=c1ccccc1","authorImage":null,"authorSlug":null,"score":205,"views":null,"sharedCount":null,"likeCount":null,"sharedContent":null,"parent":{"__typename":"HnJson","localize":[{"title":"股票鱼棋牌引擎的神经网络","locale":"zh"},{"title":"股票魚棋牌引擎的神經網絡","locale":"zh-Hant"}]}},{"__typename":"SocialMediaPost","id":"HnPost-25757228","excerpt":"","slug":"/hn/25757228","title":"Distributing Mac apps outside the App Store, a quick start guide","date":"January 13, 2021","dateISO":"2021-01-13T13:12:40.652Z","datetime":"2021-01-13 13:12","tags":["story","Hacker News"],"image":null,"imageAlt":null,"provider":"Hacker News","thirdPartyId":"25757228","url":"https://news.ycombinator.com/item?id=25757228","originalUrl":"https://rambo.codes/posts/2021-01-08-distributing-mac-apps-outside-the-app-store","imageRemote":"https://rambo.codes/assets/img/16/opengraph.png","video":null,"channel":null,"channelUrl":null,"author":"tosh","authorUrl":"https://news.ycombinator.com/user?id=tosh","authorImage":null,"authorSlug":null,"score":209,"views":null,"sharedCount":null,"likeCount":null,"sharedContent":null,"parent":{"__typename":"HnJson","localize":[{"title":"在 App Store 以外分发 Mac 应用程序，快速入门指南","locale":"zh"},{"title":"在 App Store 以外分發 Mac 應用程序，快速入門指南","locale":"zh-Hant"}]}},{"__typename":"SocialMediaPost","id":"HnPost-25746131","excerpt":"","slug":"/hn/25746131","title":"What Is Social Cooling?","date":"January 13, 2021","dateISO":"2021-01-13T12:13:43.070Z","datetime":"2021-01-13 12:13","tags":["story","Hacker News"],"image":null,"imageAlt":null,"provider":"Hacker News","thirdPartyId":"25746131","url":"https://news.ycombinator.com/item?id=25746131","originalUrl":"https://reasonandmeaning.com/2017/10/31/what-is-social-cooling/","imageRemote":"https://i2.wp.com/reasonandmeaning.com/wp-content/uploads/2015/01/theThinkerIcon-54b03aa4v1_site_icon.png?fit=512%2C512&ssl=1","video":null,"channel":null,"channelUrl":null,"author":"dev_by_day","authorUrl":"https://news.ycombinator.com/user?id=dev_by_day","authorImage":null,"authorSlug":null,"score":204,"views":null,"sharedCount":null,"likeCount":null,"sharedContent":null,"parent":{"__typename":"HnJson","localize":[{"title":"什么是社交冷却？","locale":"zh"},{"title":"什麼是社交冷卻？","locale":"zh-Hant"}]}},{"__typename":"SocialMediaPost","id":"HnPost-25759477","excerpt":"","slug":"/hn/25759477","title":"Developer’s response to “WireGuard: great protocol, but skip the Mac app”","date":"January 13, 2021","dateISO":"2021-01-13T12:13:43.070Z","datetime":"2021-01-13 12:13","tags":["story","Hacker News"],"image":null,"imageAlt":null,"provider":"Hacker News","thirdPartyId":"25759477","url":"https://news.ycombinator.com/item?id=25759477","originalUrl":"https://lists.zx2c4.com/pipermail/wireguard/2020-December/006226.html","imageRemote":null,"video":null,"channel":null,"channelUrl":null,"author":"motiejus","authorUrl":"https://news.ycombinator.com/user?id=motiejus","authorImage":null,"authorSlug":null,"score":262,"views":null,"sharedCount":null,"likeCount":null,"sharedContent":null,"parent":{"__typename":"HnJson","localize":[{"title":"开发者对 \"WireGuard：伟大的协议，但跳过Mac应用 \"的回应。","locale":"zh"},{"title":"開發者對 \"WireGuard：偉大的協議，但跳過Mac應用 \"的迴應。","locale":"zh-Hant"}]}},{"__typename":"SocialMediaPost","id":"HnPost-25750807","excerpt":"","slug":"/hn/25750807","title":"Show HN: Vantage – An alternative AWS console focused on developer experience","date":"January 13, 2021","dateISO":"2021-01-13T09:58:11.490Z","datetime":"2021-01-13 09:58","tags":["story","Show HN","Hacker News"],"image":null,"imageAlt":null,"provider":"Hacker News","thirdPartyId":"25750807","url":"https://news.ycombinator.com/item?id=25750807","originalUrl":"https://www.vantage.sh/","imageRemote":"https://uploads-ssl.webflow.com/5f9ba05ba40d6414f341df34/5ffce71e4734200665f6f876_Vantage.svg","video":null,"channel":"Show HN","channelUrl":"https://news.ycombinator.com/show","author":"StratusBen","authorUrl":"https://news.ycombinator.com/user?id=StratusBen","authorImage":null,"authorSlug":null,"score":207,"views":null,"sharedCount":null,"likeCount":null,"sharedContent":null,"parent":{"__typename":"HnJson","localize":[{"title":"HN新产品：Vantage - 一个专注于开发者体验的替代性AWS控制台。","locale":"zh"},{"title":"HN新產品：Vantage - 一個專注於開發者體驗的替代性AWS控制檯。","locale":"zh-Hant"}]}},{"__typename":"SocialMediaPost","id":"HnPost-25757275","excerpt":"","slug":"/hn/25757275","title":"Huawei patent mentions use of Uighur-spotting tech","date":"January 13, 2021","dateISO":"2021-01-13T09:58:11.490Z","datetime":"2021-01-13 09:58","tags":["story","Hacker News"],"image":null,"imageAlt":null,"provider":"Hacker News","thirdPartyId":"25757275","url":"https://news.ycombinator.com/item?id=25757275","originalUrl":"https://www.bbc.co.uk/news/technology-55634388","imageRemote":"https://ichef.bbci.co.uk/news/1024/branded_news/1078C/production/_116486476_huawei.jpg","video":null,"channel":null,"channelUrl":null,"author":"mellosouls","authorUrl":"https://news.ycombinator.com/user?id=mellosouls","authorImage":null,"authorSlug":null,"score":208,"views":null,"sharedCount":null,"likeCount":null,"sharedContent":null,"parent":{"__typename":"HnJson","localize":[{"title":"华为专利提到使用维吾尔族点穴技术","locale":"zh"},{"title":"華爲專利提到使用維吾爾族點穴技術","locale":"zh-Hant"}]}},{"__typename":"SocialMediaPost","id":"HnPost-25753908","excerpt":"","slug":"/hn/25753908","title":"Beaker Browser – experimental peer to peer web browser","date":"January 13, 2021","dateISO":"2021-01-13T08:59:07.030Z","datetime":"2021-01-13 08:59","tags":["story","Hacker News"],"image":null,"imageAlt":null,"provider":"Hacker News","thirdPartyId":"25753908","url":"https://news.ycombinator.com/item?id=25753908","originalUrl":"https://beakerbrowser.com/","imageRemote":"https://beakerbrowser.com/img/logo/logo.png","video":null,"channel":null,"channelUrl":null,"author":"rayrag","authorUrl":"https://news.ycombinator.com/user?id=rayrag","authorImage":null,"authorSlug":null,"score":203,"views":null,"sharedCount":null,"likeCount":null,"sharedContent":null,"parent":{"__typename":"HnJson","localize":[{"title":"贝克浏览器--实验性的点对点网络浏览器。","locale":"zh"},{"title":"貝克瀏覽器--實驗性的點對點網絡瀏覽器。","locale":"zh-Hant"}]}},{"__typename":"SocialMediaPost","id":"HnPost-25748820","excerpt":"","slug":"/hn/25748820","title":"India’s “plantain man” has traveled widely to collect unusual banana varieties","date":"January 13, 2021","dateISO":"2021-01-13T06:22:26.266Z","datetime":"2021-01-13 06:22","tags":["story","Hacker News"],"image":null,"imageAlt":null,"provider":"Hacker News","thirdPartyId":"25748820","url":"https://news.ycombinator.com/item?id=25748820","originalUrl":"https://www.atlasobscura.com/articles/how-many-kinds-bananas-are-there","imageRemote":"https://assets.atlasobscura.com/media/W1siZiIsInVwbG9hZHMvYXNzZXRzLzUzZGM0YmE2MTcyMGYxYTU5M19CYW5hbmEgRmFybWVyIGluIEluZGlhX19UaG91c2FuZCBmaW5nZXItMy5qcGciXSxbInAiLCJjb252ZXJ0IiwiIl0sWyJwIiwiY29udmVydCIsIi1xdWFsaXR5IDgxIC1hdXRvLW9yaWVudCJdLFsicCIsInRodW1iIiwiNjAweD4iXV0/Banana%20Farmer%20in%20India__Thousand%20finger-3.jpg","video":null,"channel":null,"channelUrl":null,"author":"fortran77","authorUrl":"https://news.ycombinator.com/user?id=fortran77","authorImage":null,"authorSlug":null,"score":200,"views":null,"sharedCount":null,"likeCount":null,"sharedContent":null,"parent":{"__typename":"HnJson","localize":[{"title":"印度 \"芭蕉人 \"走南闯北收集寻常香蕉品种","locale":"zh"},{"title":"印度 \"芭蕉人 \"走南闖北收集尋常香蕉品種","locale":"zh-Hant"}]}},{"__typename":"SocialMediaPost","id":"HnPost-25754437","excerpt":"","slug":"/hn/25754437","title":"Learn X by Doing Y – A project-based learning search engine","date":"January 13, 2021","dateISO":"2021-01-13T06:22:26.266Z","datetime":"2021-01-13 06:22","tags":["story","Hacker News"],"image":null,"imageAlt":null,"provider":"Hacker News","thirdPartyId":"25754437","url":"https://news.ycombinator.com/item?id=25754437","originalUrl":"https://aquadzn.github.io/learn-x-by-doing-y/","imageRemote":"https://raw.githubusercontent.com/aquadzn/learn-x-by-doing-y/main/docs/preview.png","video":null,"channel":null,"channelUrl":null,"author":"didizaja","authorUrl":"https://news.ycombinator.com/user?id=didizaja","authorImage":null,"authorSlug":null,"score":201,"views":null,"sharedCount":null,"likeCount":null,"sharedContent":null,"parent":{"__typename":"HnJson","localize":[{"title":"通过做Y学习X - 一个基于项目的学习搜索引擎。","locale":"zh"},{"title":"通過做Y學習X - 一個基於項目的學習搜索引擎。","locale":"zh-Hant"}]}},{"__typename":"SocialMediaPost","id":"HnPost-25757398","excerpt":"","slug":"/hn/25757398","title":"Signal community: Reminder: Please be nice","date":"January 13, 2021","dateISO":"2021-01-13T06:22:26.265Z","datetime":"2021-01-13 06:22","tags":["story","Hacker News"],"image":null,"imageAlt":null,"provider":"Hacker News","thirdPartyId":"25757398","url":"https://news.ycombinator.com/item?id=25757398","originalUrl":"https://community.signalusers.org/t/reminder-please-be-nice/21217","imageRemote":"https://community.signalusers.org/uploads/db3609/original/2X/6/6fb659f2a4924b34c11c850c5aef0c13a73af0f0.png","video":null,"channel":null,"channelUrl":null,"author":"decrypt","authorUrl":"https://news.ycombinator.com/user?id=decrypt","authorImage":null,"authorSlug":null,"score":207,"views":null,"sharedCount":null,"likeCount":null,"sharedContent":null,"parent":{"__typename":"HnJson","localize":[{"title":"信号社区。提醒： 请对我好一点","locale":"zh"},{"title":"信號社區。提醒： 請對我好一點","locale":"zh-Hant"}]}},{"__typename":"SocialMediaPost","id":"HnPost-25754895","excerpt":"","slug":"/hn/25754895","title":"Solarwind, Fireeye, Microsoft and Cisco leaks are offered for sale","date":"January 13, 2021","dateISO":"2021-01-13T05:50:10.597Z","datetime":"2021-01-13 05:50","tags":["story","Hacker News"],"image":null,"imageAlt":null,"provider":"Hacker News","thirdPartyId":"25754895","url":"https://news.ycombinator.com/item?id=25754895","originalUrl":"http://solarleaks.net/","imageRemote":null,"video":null,"channel":null,"channelUrl":null,"author":"autoro","authorUrl":"https://news.ycombinator.com/user?id=autoro","authorImage":null,"authorSlug":null,"score":201,"views":null,"sharedCount":null,"likeCount":null,"sharedContent":null,"parent":{"__typename":"HnJson","localize":[{"title":"Solarwind、火眼金睛、微软和思科泄漏的信息被提供出售。","locale":"zh"},{"title":"Solarwind、火眼金睛、微軟和思科泄漏的信息被提供出售。","locale":"zh-Hant"}]}},{"__typename":"SocialMediaPost","id":"HnPost-25742883","excerpt":"","slug":"/hn/25742883","title":"Ron Paul locked out of his Facebook page","date":"January 13, 2021","dateISO":"2021-01-13T02:58:43.187Z","datetime":"2021-01-13 02:58","tags":["story","Hacker News"],"image":null,"imageAlt":null,"provider":"Hacker News","thirdPartyId":"25742883","url":"https://news.ycombinator.com/item?id=25742883","originalUrl":"https://twitter.com/ronpaul/status/1348694943905308672","imageRemote":null,"video":null,"channel":null,"channelUrl":null,"author":"drak0n1c","authorUrl":"https://news.ycombinator.com/user?id=drak0n1c","authorImage":null,"authorSlug":null,"score":205,"views":null,"sharedCount":null,"likeCount":null,"sharedContent":null,"parent":{"__typename":"HnJson","localize":[{"title":"罗恩-保罗被锁定在他的Facebook页面上","locale":"zh"},{"title":"羅恩-保羅被鎖定在他的Facebook頁面上","locale":"zh-Hant"}]}},{"__typename":"SocialMediaPost","id":"HnPost-25750582","excerpt":"","slug":"/hn/25750582","title":"A Proposal for Adding Generics to Go","date":"January 13, 2021","dateISO":"2021-01-13T02:58:43.187Z","datetime":"2021-01-13 02:58","tags":["story","Hacker News"],"image":null,"imageAlt":null,"provider":"Hacker News","thirdPartyId":"25750582","url":"https://news.ycombinator.com/item?id=25750582","originalUrl":"https://blog.golang.org/generics-proposal","imageRemote":"https://blog.golang.org/lib/godoc/images/go-logo-blue.svg","video":null,"channel":null,"channelUrl":null,"author":"jparise","authorUrl":"https://news.ycombinator.com/user?id=jparise","authorImage":null,"authorSlug":null,"score":200,"views":null,"sharedCount":null,"likeCount":null,"sharedContent":null,"parent":{"__typename":"HnJson","localize":[{"title":"关于在围棋中增加通用名称的建议。","locale":"zh"},{"title":"關於在圍棋中增加通用名稱的建議。","locale":"zh-Hant"}]}},{"__typename":"SocialMediaPost","id":"HnPost-25745304","excerpt":"","slug":"/hn/25745304","title":"Facebook to staff: Avoid company-branded clothing for own safety","date":"January 13, 2021","dateISO":"2021-01-13T01:55:07.168Z","datetime":"2021-01-13 01:55","tags":["story","Hacker News"],"image":null,"imageAlt":null,"provider":"Hacker News","thirdPartyId":"25745304","url":"https://news.ycombinator.com/item?id=25745304","originalUrl":"https://www.businessinsider.com/facebook-trump-ban-staff-company-branded-clothing-safety-concerns-2021-1","imageRemote":"https://i.insider.com/5ffd71aed184b30018aae3b3?width=1200&format=jpeg","video":null,"channel":null,"channelUrl":null,"author":"pera","authorUrl":"https://news.ycombinator.com/user?id=pera","authorImage":null,"authorSlug":null,"score":227,"views":null,"sharedCount":null,"likeCount":null,"sharedContent":null,"parent":{"__typename":"HnJson","localize":[{"title":"脸书对员工。为了自身安全，避免穿公司品牌的衣服","locale":"zh"},{"title":"臉書對員工。爲了自身安全，避免穿公司品牌的衣服","locale":"zh-Hant"}]}},{"__typename":"SocialMediaPost","id":"HnPost-25749492","excerpt":"","slug":"/hn/25749492","title":"Show HN: Amplication – Instantly Generate Node.js Apps with GraphQL and REST API","date":"January 13, 2021","dateISO":"2021-01-13T01:55:07.168Z","datetime":"2021-01-13 01:55","tags":["story","Show HN","Hacker News"],"image":null,"imageAlt":null,"provider":"Hacker News","thirdPartyId":"25749492","url":"https://news.ycombinator.com/item?id=25749492","originalUrl":"https://github.com/amplication/amplication","imageRemote":"https://repository-images.githubusercontent.com/262862475/89475900-2730-11eb-8f1f-bdb1b9648403","video":null,"channel":"Show HN","channelUrl":"https://news.ycombinator.com/show","author":"yuvalhazaz","authorUrl":"https://news.ycombinator.com/user?id=yuvalhazaz","authorImage":null,"authorSlug":null,"score":203,"views":null,"sharedCount":null,"likeCount":null,"sharedContent":null,"parent":{"__typename":"HnJson","localize":[{"title":"HN新产品：Amplication - 使用GraphQL和REST API即时生成Node.js应用。","locale":"zh"},{"title":"HN新產品：Amplication - 使用GraphQL和REST API即時生成Node.js應用。","locale":"zh-Hant"}]}},{"__typename":"SocialMediaPost","id":"HnPost-25753166","excerpt":"","slug":"/hn/25753166","title":"Computer Science Curriculum in 1000 YouTube Videos","date":"January 13, 2021","dateISO":"2021-01-13T00:11:33.256Z","datetime":"2021-01-13 00:11","tags":["story","Hacker News"],"image":null,"imageAlt":null,"provider":"Hacker News","thirdPartyId":"25753166","url":"https://news.ycombinator.com/item?id=25753166","originalUrl":"https://laconicml.com/computer-science-curriculum-youtube-videos/","imageRemote":"https://laconicml.com/wp-content/uploads/2020/12/post_58_naslovna.jpg","video":null,"channel":null,"channelUrl":null,"author":"nixass","authorUrl":"https://news.ycombinator.com/user?id=nixass","authorImage":null,"authorSlug":null,"score":211,"views":null,"sharedCount":null,"likeCount":null,"sharedContent":null,"parent":{"__typename":"HnJson","localize":[{"title":"计算机科学课程在1000个YouTube视频中","locale":"zh"},{"title":"計算機科學課程在1000個YouTube視頻中","locale":"zh-Hant"}]}},{"__typename":"SocialMediaPost","id":"HnPost-25752000","excerpt":"","slug":"/hn/25752000","title":"U.S. to require negative Covid-19 tests for international air passengers","date":"January 12, 2021","dateISO":"2021-01-12T21:42:57.714Z","datetime":"2021-01-12 21:42","tags":["story","Hacker News"],"image":null,"imageAlt":null,"provider":"Hacker News","thirdPartyId":"25752000","url":"https://news.ycombinator.com/item?id=25752000","originalUrl":"https://www.reuters.com/article/us-health-coronavirus-airlines/u-s-to-require-negative-covid-19-tests-for-international-air-passengers-sources-idUSKBN29H2KD","imageRemote":"https://static.reuters.com/resources/r/?m=02&d=20210112&t=2&i=1547531421&r=LYNXMPEH0B1CR&w=800","video":null,"channel":null,"channelUrl":null,"author":"Element_","authorUrl":"https://news.ycombinator.com/user?id=Element_","authorImage":null,"authorSlug":null,"score":205,"views":null,"sharedCount":null,"likeCount":null,"sharedContent":null,"parent":{"__typename":"HnJson","localize":[{"title":"美国将要求国际航空旅客进行Covid-19阴性检测。","locale":"zh"},{"title":"美國將要求國際航空旅客進行Covid-19陰性檢測。","locale":"zh-Hant"}]}}]}},"pageContext":{"basePath":"/","pageType":"tag","tag":"story","tagsFilter":{"id":{"glob":"!*Post-1"}},"filter":{"id":{"glob":"!*Post-1"},"tags":{"eq":"story"}},"limit":25,"skip":25,"total":919,"totalPages":37,"currentPage":2,"maxWidth":1024,"maxHeight":512,"locale":"zh-Hant","hrefLang":"zh-Hant","originalPath":"/tags/story/page/2","dateFormat":"YYYY-MM-DD"}},"staticQueryHashes":["1239077767","2506312863","2744905544","3025052997","3493603132","3493603132","3513215887","386998304"]}