{"componentChunkName":"component---gatsby-theme-buzzing-src-gatsby-theme-timeline-templates-posts-query-js","path":"/tags/story/page/2","result":{"data":{"site":{"siteMetadata":{"title":"Reddit 热门","description":"用中文浏览Reddit热门内容","social":[{"name":"Twitter","url":"https://twitter.com/gatsbyjs","external":null,"prefetch":null},{"name":"GitHub","url":"https://github.com/gatsbyjs","external":null,"prefetch":null}],"menuLinks":[],"localize":[{"locale":"en","title":"Buzzing on Reddit","description":"See what's buzzing on Reddit in your native language","social":[{"name":"Reddit","url":"https://www.reddit.com/","external":true,"prefetch":null}],"menuLinks":[{"name":"Weekly Selection","url":"/issues","external":null,"prefetch":null},{"name":"RSS","url":"/rss.xml","external":null,"prefetch":false}]},{"locale":"zh-Hant","title":"Reddit 熱門","description":"用中文瀏覽Reddit熱門內容","social":null,"menuLinks":null}]}},"tagsGroup":{"group":[{"fieldValue":"ASK HN","totalCount":42},{"fieldValue":"Bitcoin","totalCount":4},{"fieldValue":"Hacker News","totalCount":2409},{"fieldValue":"Poll","totalCount":1},{"fieldValue":"SaveAMC","totalCount":1},{"fieldValue":"Show HN","totalCount":81},{"fieldValue":"bitcoin","totalCount":3},{"fieldValue":"investing","totalCount":755},{"fieldValue":"poll","totalCount":1},{"fieldValue":"reddit","totalCount":4525},{"fieldValue":"science","totalCount":1},{"fieldValue":"stocks","totalCount":1482},{"fieldValue":"story","totalCount":2408},{"fieldValue":"tweet","totalCount":767},{"fieldValue":"wallstreetbets","totalCount":2288}]},"allBlogPost":{"nodes":[{"__typename":"SocialMediaPost","id":"HnPost-26416531","excerpt":"","slug":"/hn/26416531","title":"Zig, parser combinators, and why they're awesome","date":"March 11, 2021","dateISO":"2021-03-11T01:19:27.716Z","datetime":"2021-03-11 01:19","tags":["story","Hacker News"],"image":null,"imageAlt":null,"provider":"Hacker News","thirdPartyId":"26416531","url":"https://news.ycombinator.com/item?id=26416531","originalUrl":"https://devlog.hexops.com/2021/zig-parser-combinators-and-why-theyre-awesome","imageRemote":"https://raw.githubusercontent.com/hexops/website/master/media/png/square_logo.png","video":null,"channel":null,"channelUrl":null,"author":"todsacerdoti","authorUrl":"https://news.ycombinator.com/user?id=todsacerdoti","authorImage":null,"authorSlug":null,"score":160,"views":null,"sharedCount":null,"likeCount":null,"sharedContent":null,"parent":{"__typename":"HnJson","localize":[{"title":"Zig，解析器组合器，以及它们为什么很厉害？","locale":"zh"},{"title":"Zig，解析器組合器，以及它們爲什麼很厲害？","locale":"zh-Hant"}]}},{"__typename":"SocialMediaPost","id":"HnPost-26406981","excerpt":"","slug":"/hn/26406981","title":"Japan to stage Tokyo Olympics without overseas spectators","date":"March 10, 2021","dateISO":"2021-03-10T22:52:59.946Z","datetime":"2021-03-10 22:52","tags":["story","Hacker News"],"image":null,"imageAlt":null,"provider":"Hacker News","thirdPartyId":"26406981","url":"https://news.ycombinator.com/item?id=26406981","originalUrl":"https://japantoday.com/category/tokyo-2020-olympics/update1-japan-to-stage-tokyo-olympics-without-overseas-spectators","imageRemote":"https://japantoday-asset.scdn3.secure.raxcdn.com/img/store/01/24/798995546cd42715690b24f3d7ff833d6ab3/AP20336371702348_4.jpg","video":null,"channel":null,"channelUrl":null,"author":"curmudgeon22","authorUrl":"https://news.ycombinator.com/user?id=curmudgeon22","authorImage":null,"authorSlug":null,"score":160,"views":null,"sharedCount":null,"likeCount":null,"sharedContent":null,"parent":{"__typename":"HnJson","localize":[{"title":"日本将举办没有海外观众的东京奥运会","locale":"zh"},{"title":"日本將舉辦沒有海外觀衆的東京奧運會","locale":"zh-Hant"}]}},{"__typename":"SocialMediaPost","id":"HnPost-26404675","excerpt":"","slug":"/hn/26404675","title":"Zapier reached a $5B valuation with $1.3M of funding","date":"March 10, 2021","dateISO":"2021-03-10T22:37:42.943Z","datetime":"2021-03-10 22:37","tags":["story","Hacker News"],"image":null,"imageAlt":null,"provider":"Hacker News","thirdPartyId":"26404675","url":"https://news.ycombinator.com/item?id=26404675","originalUrl":"https://www.forbes.com/sites/alexkonrad/2021/03/08/zapier-bootstraps-to-5-billion-valuation/","imageRemote":"https://thumbor.forbes.com/thumbor/fit-in/1200x0/filters%3Aformat(jpg)/https%3A%2F%2Fspecials-images.forbesimg.com%2Fimageserve%2F60469c1d476c5825c44db9e5%2F0x0.jpg","video":null,"channel":null,"channelUrl":null,"author":"gmays","authorUrl":"https://news.ycombinator.com/user?id=gmays","authorImage":null,"authorSlug":null,"score":170,"views":null,"sharedCount":null,"likeCount":null,"sharedContent":null,"parent":{"__typename":"HnJson","localize":[{"title":"Zapier估值达到50亿美元，融资额为130万美元","locale":"zh"},{"title":"Zapier估值達到50億美元，融資額爲130萬美元","locale":"zh-Hant"}]}},{"__typename":"SocialMediaPost","id":"HnPost-26413343","excerpt":"","slug":"/hn/26413343","title":"What does any of this have to do with physics? (2016)","date":"March 10, 2021","dateISO":"2021-03-10T21:49:09.515Z","datetime":"2021-03-10 21:49","tags":["story","Hacker News"],"image":null,"imageAlt":null,"provider":"Hacker News","thirdPartyId":"26413343","url":"https://news.ycombinator.com/item?id=26413343","originalUrl":"https://nautil.us/issue/43/heroes/what-does-any-of-this-have-to-do-with-physics","imageRemote":"http://static.nautil.us/11272_dbdc69ea6ccbdea0ca2d796e1af24ebf.jpg","video":null,"channel":null,"channelUrl":null,"author":"telotortium","authorUrl":"https://news.ycombinator.com/user?id=telotortium","authorImage":null,"authorSlug":null,"score":164,"views":null,"sharedCount":null,"likeCount":null,"sharedContent":null,"parent":{"__typename":"HnJson","localize":[{"title":"这些和物理学有什么关系？(2016)","locale":"zh"},{"title":"這些和物理學有什麼關係？(2016)","locale":"zh-Hant"}]}},{"__typename":"SocialMediaPost","id":"HnPost-26415657","excerpt":"","slug":"/hn/26415657","title":"U.S. senators reintroduce bill to make daylight saving time permanent","date":"March 10, 2021","dateISO":"2021-03-10T21:36:04.723Z","datetime":"2021-03-10 21:36","tags":["story","Hacker News"],"image":null,"imageAlt":null,"provider":"Hacker News","thirdPartyId":"26415657","url":"https://news.ycombinator.com/item?id=26415657","originalUrl":"https://fox8.com/news/u-s-senators-reintroduce-bill-to-make-daylight-saving-time-permanent/","imageRemote":"https://fox8.com/wp-content/uploads/sites/12/2021/03/Daylight20saving20time20generic_1552402208720.JPG_76943959_ver1.0.jpg?w=1280","video":null,"channel":null,"channelUrl":null,"author":"prostoalex","authorUrl":"https://news.ycombinator.com/user?id=prostoalex","authorImage":null,"authorSlug":null,"score":206,"views":null,"sharedCount":null,"likeCount":null,"sharedContent":null,"parent":{"__typename":"HnJson","localize":[{"title":"美参议员重提法案将夏令时永久化","locale":"zh"},{"title":"美參議員重提法案將夏令時永久化","locale":"zh-Hant"}]}},{"__typename":"SocialMediaPost","id":"HnPost-26412624","excerpt":"","slug":"/hn/26412624","title":"Launch HN: Remora (YC W21) – Carbon capture for semi trucks","date":"March 10, 2021","dateISO":"2021-03-10T20:46:11.264Z","datetime":"2021-03-10 20:46","tags":["story","Hacker News"],"image":null,"imageAlt":null,"provider":"Hacker News","thirdPartyId":"26412624","url":"https://news.ycombinator.com/item?id=26412624","originalUrl":"https://news.ycombinator.com/item?id=26412624","imageRemote":null,"video":null,"channel":null,"channelUrl":null,"author":"paulgross","authorUrl":"https://news.ycombinator.com/user?id=paulgross","authorImage":null,"authorSlug":null,"score":162,"views":null,"sharedCount":null,"likeCount":null,"sharedContent":null,"parent":{"__typename":"HnJson","localize":[{"title":"发射 HN：Remora (YC W21)--半挂车的碳捕集","locale":"zh"},{"title":"發射 HN：Remora (YC W21)--半掛車的碳捕集","locale":"zh-Hant"}]}},{"__typename":"SocialMediaPost","id":"HnPost-26411908","excerpt":"","slug":"/hn/26411908","title":"Decoded GNU coreutils: Exploring the design of GNU utilities","date":"March 10, 2021","dateISO":"2021-03-10T20:31:19.020Z","datetime":"2021-03-10 20:31","tags":["story","Hacker News"],"image":null,"imageAlt":null,"provider":"Hacker News","thirdPartyId":"26411908","url":"https://news.ycombinator.com/item?id=26411908","originalUrl":"http://maizure.org/projects/decoded-gnu-coreutils/","imageRemote":"http://maizure.org/projects/decoded-gnu-coreutils/GNU.png","video":null,"channel":null,"channelUrl":null,"author":"pcr910303","authorUrl":"https://news.ycombinator.com/user?id=pcr910303","authorImage":null,"authorSlug":null,"score":160,"views":null,"sharedCount":null,"likeCount":null,"sharedContent":null,"parent":{"__typename":"HnJson","localize":[{"title":"解码的GNU coreutils。探索GNU实用程序的设计","locale":"zh"},{"title":"解碼的GNU coreutils。探索GNU實用程序的設計","locale":"zh-Hant"}]}},{"__typename":"SocialMediaPost","id":"HnPost-26414741","excerpt":"","slug":"/hn/26414741","title":"Apple has gone to extraordinary lengths to make scroll bars invisible, I hate it","date":"March 10, 2021","dateISO":"2021-03-10T19:55:04.784Z","datetime":"2021-03-10 19:55","tags":["story","Hacker News"],"image":null,"imageAlt":null,"provider":"Hacker News","thirdPartyId":"26414741","url":"https://news.ycombinator.com/item?id=26414741","originalUrl":"https://twitter.com/simonw/status/1369708900216270849","imageRemote":null,"video":null,"channel":null,"channelUrl":null,"author":"edward","authorUrl":"https://news.ycombinator.com/user?id=edward","authorImage":null,"authorSlug":null,"score":161,"views":null,"sharedCount":null,"likeCount":null,"sharedContent":null,"parent":{"__typename":"HnJson","localize":[{"title":"苹果为了让滚动条隐形，可谓是煞费苦心，我恨死它了","locale":"zh"},{"title":"蘋果爲了讓滾動條隱形，可謂是煞費苦心，我恨死它了","locale":"zh-Hant"}]}},{"__typename":"SocialMediaPost","id":"HnPost-26412331","excerpt":"","slug":"/hn/26412331","title":"Facebook and Twitter algorithms incentivize 'people to get enraged'","date":"March 10, 2021","dateISO":"2021-03-10T18:00:11.491Z","datetime":"2021-03-10 18:00","tags":["story","Hacker News"],"image":null,"imageAlt":null,"provider":"Hacker News","thirdPartyId":"26412331","url":"https://news.ycombinator.com/item?id=26412331","originalUrl":"https://www.yahoo.com/entertainment/facebook-and-twitter-algorithms-incentivize-people-to-get-enraged-walter-isaacson-145710378.html","imageRemote":"https://s.yimg.com/ny/api/res/1.2/TEDrUSu0Vq52rMgPPcSawQ--/YXBwaWQ9aGlnaGxhbmRlcjt3PTIwMDA7aD0xNTMy/https://s.yimg.com/os/creatr-uploaded-images/2021-03/175905c0-81a1-11eb-9fcf-46f9b361612d","video":null,"channel":null,"channelUrl":null,"author":"garraeth","authorUrl":"https://news.ycombinator.com/user?id=garraeth","authorImage":null,"authorSlug":null,"score":168,"views":null,"sharedCount":null,"likeCount":null,"sharedContent":null,"parent":{"__typename":"HnJson","localize":[{"title":"Facebook和Twitter的算法激励 \"人们被激怒","locale":"zh"},{"title":"Facebook和Twitter的算法激勵 \"人們被激怒","locale":"zh-Hant"}]}},{"__typename":"SocialMediaPost","id":"HnPost-26408822","excerpt":"","slug":"/hn/26408822","title":"Emacs org-mode examples and cookbook (2017)","date":"March 10, 2021","dateISO":"2021-03-10T17:07:46.509Z","datetime":"2021-03-10 17:07","tags":["story","Hacker News"],"image":null,"imageAlt":null,"provider":"Hacker News","thirdPartyId":"26408822","url":"https://news.ycombinator.com/item?id=26408822","originalUrl":"http://ehneilsen.net/notebook/orgExamples/org-examples.html","imageRemote":"http://ehneilsen.net/notebook/orgExamples/ditaa-simpleboxes.png","video":null,"channel":null,"channelUrl":null,"author":"ddtaylor","authorUrl":"https://news.ycombinator.com/user?id=ddtaylor","authorImage":null,"authorSlug":null,"score":172,"views":null,"sharedCount":null,"likeCount":null,"sharedContent":null,"parent":{"__typename":"HnJson","localize":[{"title":"Emacs org-mode范例和食谱（2017年）","locale":"zh"},{"title":"Emacs org-mode範例和食譜（2017年）","locale":"zh-Hant"}]}},{"__typename":"SocialMediaPost","id":"HnPost-26408941","excerpt":"","slug":"/hn/26408941","title":"UK 'Right to repair' law to come in this summer","date":"March 10, 2021","dateISO":"2021-03-10T17:07:46.509Z","datetime":"2021-03-10 17:07","tags":["story","Hacker News"],"image":null,"imageAlt":null,"provider":"Hacker News","thirdPartyId":"26408941","url":"https://news.ycombinator.com/item?id=26408941","originalUrl":"https://www.bbc.co.uk/news/business-56340077","imageRemote":"https://ichef.bbci.co.uk/news/1024/branded_news/6299/production/_105114252_gettyimages-614860180_crop.jpg","video":null,"channel":null,"channelUrl":null,"author":"djaychela","authorUrl":"https://news.ycombinator.com/user?id=djaychela","authorImage":null,"authorSlug":null,"score":181,"views":null,"sharedCount":null,"likeCount":null,"sharedContent":null,"parent":{"__typename":"HnJson","localize":[{"title":"英国 \"维修权 \"法将于今夏出台","locale":"zh"},{"title":"英國 \"維修權 \"法將於今夏出臺","locale":"zh-Hant"}]}},{"__typename":"SocialMediaPost","id":"HnPost-26409820","excerpt":"","slug":"/hn/26409820","title":"Authelia is an open-source authentication/authorization server with 2FA/SSO","date":"March 10, 2021","dateISO":"2021-03-10T17:07:46.509Z","datetime":"2021-03-10 17:07","tags":["story","Hacker News"],"image":null,"imageAlt":null,"provider":"Hacker News","thirdPartyId":"26409820","url":"https://news.ycombinator.com/item?id=26409820","originalUrl":"https://github.com/authelia/authelia","imageRemote":"https://repository-images.githubusercontent.com/75785240/724ca480-396f-11ea-874f-d39c6900e14d","video":null,"channel":null,"channelUrl":null,"author":"thunderbong","authorUrl":"https://news.ycombinator.com/user?id=thunderbong","authorImage":null,"authorSlug":null,"score":163,"views":null,"sharedCount":null,"likeCount":null,"sharedContent":null,"parent":{"__typename":"HnJson","localize":[{"title":"Authelia是一个开源的认证/授权服务器，具有2FA/SSO功能。","locale":"zh"},{"title":"Authelia是一個開源的認證/授權服務器，具有2FA/SSO功能。","locale":"zh-Hant"}]}},{"__typename":"SocialMediaPost","id":"HnPost-26410047","excerpt":"","slug":"/hn/26410047","title":"I don't want to learn your query language (2018)","date":"March 10, 2021","dateISO":"2021-03-10T16:20:14.974Z","datetime":"2021-03-10 16:20","tags":["story","Hacker News"],"image":null,"imageAlt":null,"provider":"Hacker News","thirdPartyId":"26410047","url":"https://news.ycombinator.com/item?id=26410047","originalUrl":"https://erikbern.com/2018/08/30/i-dont-want-to-learn-your-garbage-query-language.html","imageRemote":"https://erikbern.com/assets/dsls.png","video":null,"channel":null,"channelUrl":null,"author":"nudpiedo","authorUrl":"https://news.ycombinator.com/user?id=nudpiedo","authorImage":null,"authorSlug":null,"score":169,"views":null,"sharedCount":null,"likeCount":null,"sharedContent":null,"parent":{"__typename":"HnJson","localize":[{"title":"我不想学你的疑问语言(2018)","locale":"zh"},{"title":"我不想學你的疑問語言(2018)","locale":"zh-Hant"}]}},{"__typename":"SocialMediaPost","id":"HnPost-26410135","excerpt":"","slug":"/hn/26410135","title":"Lou Ottens, inventor of cassette tape, has died","date":"March 10, 2021","dateISO":"2021-03-10T15:26:19.799Z","datetime":"2021-03-10 15:26","tags":["story","Hacker News"],"image":null,"imageAlt":null,"provider":"Hacker News","thirdPartyId":"26410135","url":"https://news.ycombinator.com/item?id=26410135","originalUrl":"https://netherlandsnewslive.com/inventor-of-cassette-tape-lou-ottens-passed-away-financial/107722/","imageRemote":"https://www.telegraaf.nl/images/1200x630/filters:format(jpeg):quality(80)/cdn-kiosk-api.telegraaf.nl/e34ff7c0-811e-11eb-b351-02c309bc01c1.jpg","video":null,"channel":null,"channelUrl":null,"author":"Anon84","authorUrl":"https://news.ycombinator.com/user?id=Anon84","authorImage":null,"authorSlug":null,"score":174,"views":null,"sharedCount":null,"likeCount":null,"sharedContent":null,"parent":{"__typename":"HnJson","localize":[{"title":"录音带的发明者Lou Ottens去世了。","locale":"zh"},{"title":"錄音帶的發明者Lou Ottens去世了。","locale":"zh-Hant"}]}},{"__typename":"SocialMediaPost","id":"HnPost-26408181","excerpt":"","slug":"/hn/26408181","title":"We created a fake language to root out resume liars","date":"March 10, 2021","dateISO":"2021-03-10T12:10:57.239Z","datetime":"2021-03-10 12:10","tags":["story","Hacker News"],"image":null,"imageAlt":null,"provider":"Hacker News","thirdPartyId":"26408181","url":"https://news.ycombinator.com/item?id=26408181","originalUrl":"https://www.facebook.com/groups/CFprogrammers/permalink/10158154545285036/","imageRemote":"https://lookaside.fbsbx.com/lookaside/crawler/media/?media_id=10158154545285036","video":null,"channel":null,"channelUrl":null,"author":"rmason","authorUrl":"https://news.ycombinator.com/user?id=rmason","authorImage":null,"authorSlug":null,"score":160,"views":null,"sharedCount":null,"likeCount":null,"sharedContent":null,"parent":{"__typename":"HnJson","localize":[{"title":"我们创造了一种假语言，以根除简历骗子。","locale":"zh"},{"title":"我們創造了一種假語言，以根除簡歷騙子。","locale":"zh-Hant"}]}},{"__typename":"SocialMediaPost","id":"HnPost-26407560","excerpt":"","slug":"/hn/26407560","title":"Ask HN: Those who quit their jobs to travel the world, how did it go?","date":"March 10, 2021","dateISO":"2021-03-10T11:27:17.376Z","datetime":"2021-03-10 11:27","tags":["story","ASK HN","Hacker News"],"image":null,"imageAlt":null,"provider":"Hacker News","thirdPartyId":"26407560","url":"https://news.ycombinator.com/item?id=26407560","originalUrl":"https://news.ycombinator.com/item?id=26407560","imageRemote":null,"video":null,"channel":"ASK HN","channelUrl":"https://news.ycombinator.com/ask","author":"cercatrova","authorUrl":"https://news.ycombinator.com/user?id=cercatrova","authorImage":null,"authorSlug":null,"score":163,"views":null,"sharedCount":null,"likeCount":null,"sharedContent":null,"parent":{"__typename":"HnJson","localize":[{"title":"问HN：那些辞职去环游世界的人，过得怎么样？","locale":"zh"},{"title":"問HN：那些辭職去環遊世界的人，過得怎麼樣？","locale":"zh-Hant"}]}},{"__typename":"SocialMediaPost","id":"HnPost-26400239","excerpt":"","slug":"/hn/26400239","title":"The Roblox Microverse","date":"March 10, 2021","dateISO":"2021-03-10T08:21:32.711Z","datetime":"2021-03-10 08:21","tags":["story","Hacker News"],"image":null,"imageAlt":null,"provider":"Hacker News","thirdPartyId":"26400239","url":"https://news.ycombinator.com/item?id=26400239","originalUrl":"https://stratechery.com/2021/the-roblox-microverse/","imageRemote":"https://stratechery.com/wp-content/uploads/2021/03/roblox-2.png","video":null,"channel":null,"channelUrl":null,"author":"Kinrany","authorUrl":"https://news.ycombinator.com/user?id=Kinrany","authorImage":null,"authorSlug":null,"score":160,"views":null,"sharedCount":null,"likeCount":null,"sharedContent":null,"parent":{"__typename":"HnJson","localize":[{"title":"Roblox微观世界","locale":"zh"},{"title":"Roblox微觀世界","locale":"zh-Hant"}]}},{"__typename":"SocialMediaPost","id":"HnPost-26405919","excerpt":"","slug":"/hn/26405919","title":"Flipper Zero: Tamagochi for Hackers","date":"March 10, 2021","dateISO":"2021-03-10T07:56:54.723Z","datetime":"2021-03-10 07:56","tags":["story","Hacker News"],"image":null,"imageAlt":null,"provider":"Hacker News","thirdPartyId":"26405919","url":"https://news.ycombinator.com/item?id=26405919","originalUrl":"https://flipperzero.one/","imageRemote":"https://static.tildacdn.com/tild3038-3932-4065-a163-656631323038/main-2500-2.jpg","video":null,"channel":null,"channelUrl":null,"author":"tarsiec","authorUrl":"https://news.ycombinator.com/user?id=tarsiec","authorImage":null,"authorSlug":null,"score":162,"views":null,"sharedCount":null,"likeCount":null,"sharedContent":null,"parent":{"__typename":"HnJson","localize":[{"title":"Flipper Zero: Tamagochi for Hackers(黑客)","locale":"zh"},{"title":"Flipper Zero: Tamagochi for Hackers(黑客)","locale":"zh-Hant"}]}},{"__typename":"SocialMediaPost","id":"HnPost-26403669","excerpt":"","slug":"/hn/26403669","title":"RSS as a Facebook alternative","date":"March 10, 2021","dateISO":"2021-03-10T07:28:07.254Z","datetime":"2021-03-10 07:28","tags":["story","Hacker News"],"image":null,"imageAlt":null,"provider":"Hacker News","thirdPartyId":"26403669","url":"https://news.ycombinator.com/item?id=26403669","originalUrl":"https://thenewleafjournal.com/around-the-web-rss-as-a-facebook-alternative/","imageRemote":"https://thenewleafjournal.com/wp-content/uploads/2021/02/rss-article-thumb.png","video":null,"channel":null,"channelUrl":null,"author":"dgrin91","authorUrl":"https://news.ycombinator.com/user?id=dgrin91","authorImage":null,"authorSlug":null,"score":166,"views":null,"sharedCount":null,"likeCount":null,"sharedContent":null,"parent":{"__typename":"HnJson","localize":[{"title":"RSS作为Facebook的替代品","locale":"zh"},{"title":"RSS作爲Facebook的替代品","locale":"zh-Hant"}]}},{"__typename":"SocialMediaPost","id":"HnPost-26406969","excerpt":"","slug":"/hn/26406969","title":"Cloudflare, OKTA Hacked","date":"March 10, 2021","dateISO":"2021-03-10T06:37:08.381Z","datetime":"2021-03-10 06:37","tags":["story","Hacker News"],"image":null,"imageAlt":null,"provider":"Hacker News","thirdPartyId":"26406969","url":"https://news.ycombinator.com/item?id=26406969","originalUrl":"https://twitter.com/nyancrimew/status/1369437256193343496","imageRemote":null,"video":null,"channel":null,"channelUrl":null,"author":"marianov","authorUrl":"https://news.ycombinator.com/user?id=marianov","authorImage":null,"authorSlug":null,"score":161,"views":null,"sharedCount":null,"likeCount":null,"sharedContent":null,"parent":{"__typename":"HnJson","localize":[{"title":"Cloudflare、OKTA被黑客攻击？","locale":"zh"},{"title":"Cloudflare、OKTA被黑客攻擊？","locale":"zh-Hant"}]}},{"__typename":"SocialMediaPost","id":"HnPost-26399672","excerpt":"","slug":"/hn/26399672","title":"Show HN: Diahook – Webhooks as a Service","date":"March 10, 2021","dateISO":"2021-03-10T05:55:43.810Z","datetime":"2021-03-10 05:55","tags":["story","Show HN","Hacker News"],"image":null,"imageAlt":null,"provider":"Hacker News","thirdPartyId":"26399672","url":"https://news.ycombinator.com/item?id=26399672","originalUrl":"https://www.diahook.com/?r=hn","imageRemote":"https://www.diahook.com/_next/static/images/brand-4755c28ace829276a612067e4524aa35.svg","video":null,"channel":"Show HN","channelUrl":"https://news.ycombinator.com/show","author":"tasn","authorUrl":"https://news.ycombinator.com/user?id=tasn","authorImage":null,"authorSlug":null,"score":161,"views":null,"sharedCount":null,"likeCount":null,"sharedContent":null,"parent":{"__typename":"HnJson","localize":[{"title":"显示HN：Diahook - Webhooks作为一项服务。","locale":"zh"},{"title":"顯示HN：Diahook - Webhooks作爲一項服務。","locale":"zh-Hant"}]}},{"__typename":"SocialMediaPost","id":"HnPost-26385413","excerpt":"","slug":"/hn/26385413","title":"The Mathematical Engineering of Deep Learning","date":"March 10, 2021","dateISO":"2021-03-10T05:37:39.915Z","datetime":"2021-03-10 05:37","tags":["story","Hacker News"],"image":null,"imageAlt":null,"provider":"Hacker News","thirdPartyId":"26385413","url":"https://news.ycombinator.com/item?id=26385413","originalUrl":"https://deeplearningmath.org/","imageRemote":"https://deeplearningmath.org/deeplearningmath.png","video":null,"channel":null,"channelUrl":null,"author":"yonin","authorUrl":"https://news.ycombinator.com/user?id=yonin","authorImage":null,"authorSlug":null,"score":160,"views":null,"sharedCount":null,"likeCount":null,"sharedContent":null,"parent":{"__typename":"HnJson","localize":[{"title":"深度学习的数学工程","locale":"zh"},{"title":"深度學習的數學工程","locale":"zh-Hant"}]}},{"__typename":"SocialMediaPost","id":"HnPost-26407323","excerpt":"","slug":"/hn/26407323","title":"Fire declared in OVH SBG2 datacentre building","date":"March 10, 2021","dateISO":"2021-03-10T05:21:56.845Z","datetime":"2021-03-10 05:21","tags":["story","Hacker News"],"image":null,"imageAlt":null,"provider":"Hacker News","thirdPartyId":"26407323","url":"https://news.ycombinator.com/item?id=26407323","originalUrl":"http://travaux.ovh.net/?do=details&id=49471&","imageRemote":"http://travaux.ovh.net/themes/Bluey/percent-0.png","video":null,"channel":null,"channelUrl":null,"author":"finniananderson","authorUrl":"https://news.ycombinator.com/user?id=finniananderson","authorImage":null,"authorSlug":null,"score":160,"views":null,"sharedCount":null,"likeCount":null,"sharedContent":null,"parent":{"__typename":"HnJson","localize":[{"title":"OVH SBG2数据中心大楼宣布发生火灾。","locale":"zh"},{"title":"OVH SBG2數據中心大樓宣佈發生火災。","locale":"zh-Hant"}]}},{"__typename":"SocialMediaPost","id":"HnPost-26406989","excerpt":"","slug":"/hn/26406989","title":"Why asynchronous Rust doesn't work","date":"March 10, 2021","dateISO":"2021-03-10T04:57:30.683Z","datetime":"2021-03-10 04:57","tags":["story","Hacker News"],"image":null,"imageAlt":null,"provider":"Hacker News","thirdPartyId":"26406989","url":"https://news.ycombinator.com/item?id=26406989","originalUrl":"https://theta.eu.org/2021/03/08/async-rust-2.html","imageRemote":"https://theta.eu.org/assets/img/rust-async/msql-srv.png","video":null,"channel":null,"channelUrl":null,"author":"tazjin","authorUrl":"https://news.ycombinator.com/user?id=tazjin","authorImage":null,"authorSlug":null,"score":160,"views":null,"sharedCount":null,"likeCount":null,"sharedContent":null,"parent":{"__typename":"HnJson","localize":[{"title":"为什么异步Rust不能工作？","locale":"zh"},{"title":"爲什麼異步Rust不能工作？","locale":"zh-Hant"}]}},{"__typename":"SocialMediaPost","id":"HnPost-26387100","excerpt":"","slug":"/hn/26387100","title":"Hertz, the original meme stock, is turning out to be worthless","date":"March 10, 2021","dateISO":"2021-03-10T01:55:35.643Z","datetime":"2021-03-10 01:55","tags":["story","Hacker News"],"image":null,"imageAlt":null,"provider":"Hacker News","thirdPartyId":"26387100","url":"https://news.ycombinator.com/item?id=26387100","originalUrl":"https://www.bloomberg.com/news/articles/2021-03-02/hertz-the-original-meme-stock-is-turning-out-to-be-worthless","imageRemote":null,"video":null,"channel":null,"channelUrl":null,"author":"prostoalex","authorUrl":"https://news.ycombinator.com/user?id=prostoalex","authorImage":null,"authorSlug":null,"score":162,"views":null,"sharedCount":null,"likeCount":null,"sharedContent":null,"parent":{"__typename":"HnJson","localize":[{"title":"赫兹，原来的记忆股，正在变成一文不值的东西","locale":"zh"},{"title":"赫茲，原來的記憶股，正在變成一文不值的東西","locale":"zh-Hant"}]}}]}},"pageContext":{"basePath":"/","pageType":"tag","tag":"story","tagsFilter":{"id":{"glob":"!*Post-1"}},"filter":{"id":{"glob":"!*Post-1"},"tags":{"eq":"story"}},"limit":25,"skip":25,"total":2408,"totalPages":97,"currentPage":2,"maxWidth":1024,"maxHeight":512,"locale":"zh","hrefLang":"zh-Hans","originalPath":"/tags/story/page/2","dateFormat":"YYYY-MM-DD"}},"staticQueryHashes":["1239077767","2506312863","2744905544","3025052997","3493603132","3493603132","3513215887","386998304"]}