{"componentChunkName":"component---gatsby-theme-buzzing-src-gatsby-theme-timeline-templates-posts-query-js","path":"/zh-Hant/tags/hacker-news/page/4","result":{"data":{"site":{"siteMetadata":{"title":"Reddit 热门","description":"用中文浏览Reddit热门内容","social":[{"name":"Twitter","url":"https://twitter.com/gatsbyjs","external":null,"prefetch":null},{"name":"GitHub","url":"https://github.com/gatsbyjs","external":null,"prefetch":null}],"menuLinks":[],"localize":[{"locale":"en","title":"Buzzing on Reddit","description":"See what's buzzing on Reddit in your native language","social":[{"name":"Reddit","url":"https://www.reddit.com/","external":true,"prefetch":null}],"menuLinks":[{"name":"Weekly Selection","url":"/issues","external":null,"prefetch":null},{"name":"RSS","url":"/rss.xml","external":null,"prefetch":false}]},{"locale":"zh-Hant","title":"Reddit 熱門","description":"用中文瀏覽Reddit熱門內容","social":null,"menuLinks":null}]}},"tagsGroup":{"group":[{"fieldValue":"ASK HN","totalCount":36},{"fieldValue":"Bitcoin","totalCount":4},{"fieldValue":"Hacker News","totalCount":2185},{"fieldValue":"Poll","totalCount":1},{"fieldValue":"SaveAMC","totalCount":1},{"fieldValue":"Show HN","totalCount":76},{"fieldValue":"bitcoin","totalCount":3},{"fieldValue":"investing","totalCount":686},{"fieldValue":"poll","totalCount":1},{"fieldValue":"reddit","totalCount":4012},{"fieldValue":"science","totalCount":1},{"fieldValue":"stocks","totalCount":1322},{"fieldValue":"story","totalCount":2184},{"fieldValue":"tweet","totalCount":697},{"fieldValue":"wallstreetbets","totalCount":2004}]},"allBlogPost":{"nodes":[{"__typename":"SocialMediaPost","id":"HnPost-26296845","excerpt":"","slug":"/hn/26296845","title":"Little League wants all your information","date":"March 01, 2021","dateISO":"2021-03-01T02:01:20.900Z","datetime":"2021-03-01 02:01","tags":["story","Hacker News"],"image":null,"imageAlt":null,"provider":"Hacker News","thirdPartyId":"26296845","url":"https://news.ycombinator.com/item?id=26296845","originalUrl":"https://honeypot.net/post/little-league-wants-all-your-information/","imageRemote":"https://honeypot.net/images/blueglasses.jpg","video":null,"channel":null,"channelUrl":null,"author":"ColinWright","authorUrl":"https://news.ycombinator.com/user?id=ColinWright","authorImage":null,"authorSlug":null,"score":191,"views":null,"sharedCount":null,"likeCount":null,"sharedContent":null,"parent":{"__typename":"HnJson","localize":[{"title":"小联盟想要你所有的信息","locale":"zh"},{"title":"小聯盟想要你所有的信息","locale":"zh-Hant"}]}},{"__typename":"SocialMediaPost","id":"HnPost-26295065","excerpt":"","slug":"/hn/26295065","title":"RIP Flynn.io","date":"February 28, 2021","dateISO":"2021-02-28T23:44:23.434Z","datetime":"2021-02-28 23:44","tags":["story","Hacker News"],"image":null,"imageAlt":null,"provider":"Hacker News","thirdPartyId":"26295065","url":"https://news.ycombinator.com/item?id=26295065","originalUrl":"https://github.com/flynn/flynn","imageRemote":"https://avatars.githubusercontent.com/u/4973613?s=400&v=4","video":null,"channel":null,"channelUrl":null,"author":"corobo","authorUrl":"https://news.ycombinator.com/user?id=corobo","authorImage":null,"authorSlug":null,"score":163,"views":null,"sharedCount":null,"likeCount":null,"sharedContent":null,"parent":{"__typename":"HnJson","localize":[{"title":"RIP Flynn.io","locale":"zh"},{"title":"RIP Flynn.io","locale":"zh-Hant"}]}},{"__typename":"SocialMediaPost","id":"HnPost-26295100","excerpt":"","slug":"/hn/26295100","title":"A Native Tiling Window Manager for Windows 10, Inspired by I3wm","date":"February 28, 2021","dateISO":"2021-02-28T22:00:02.553Z","datetime":"2021-02-28 22:00","tags":["story","Hacker News"],"image":null,"imageAlt":null,"provider":"Hacker News","thirdPartyId":"26295100","url":"https://news.ycombinator.com/item?id=26295100","originalUrl":"https://github.com/McYoloSwagHam/win3wm","imageRemote":"https://avatars.githubusercontent.com/u/37028601?s=400&v=4","video":null,"channel":null,"channelUrl":null,"author":"mcyoloswagham","authorUrl":"https://news.ycombinator.com/user?id=mcyoloswagham","authorImage":null,"authorSlug":null,"score":160,"views":null,"sharedCount":null,"likeCount":null,"sharedContent":null,"parent":{"__typename":"HnJson","localize":[{"title":"一个原生的Windows 10平铺窗口管理器，灵感来自于I3wm。","locale":"zh"},{"title":"一個原生的Windows 10平鋪窗口管理器，靈感來自於I3wm。","locale":"zh-Hant"}]}},{"__typename":"SocialMediaPost","id":"HnPost-26295177","excerpt":"","slug":"/hn/26295177","title":"Users are losing out against Big Sur’s sealed System","date":"February 28, 2021","dateISO":"2021-02-28T21:46:20.003Z","datetime":"2021-02-28 21:46","tags":["story","Hacker News"],"image":null,"imageAlt":null,"provider":"Hacker News","thirdPartyId":"26295177","url":"https://news.ycombinator.com/item?id=26295177","originalUrl":"https://eclecticlight.co/2021/02/28/last-week-on-my-mac-users-are-losing-out-against-big-surs-sealed-system/","imageRemote":"https://s0.wp.com/i/blank.jpg","video":null,"channel":null,"channelUrl":null,"author":"zdw","authorUrl":"https://news.ycombinator.com/user?id=zdw","authorImage":null,"authorSlug":null,"score":160,"views":null,"sharedCount":null,"likeCount":null,"sharedContent":null,"parent":{"__typename":"HnJson","localize":[{"title":"用户在与大苏尔的封号系统的竞争中节节败退。","locale":"zh"},{"title":"用戶在與大蘇爾的封號系統的競爭中節節敗退。","locale":"zh-Hant"}]}},{"__typename":"SocialMediaPost","id":"HnPost-26291756","excerpt":"","slug":"/hn/26291756","title":"Spaceprob.es catalogues all the probes that still communicate with Earth","date":"February 28, 2021","dateISO":"2021-02-28T21:02:09.128Z","datetime":"2021-02-28 21:02","tags":["story","Hacker News"],"image":null,"imageAlt":null,"provider":"Hacker News","thirdPartyId":"26291756","url":"https://news.ycombinator.com/item?id=26291756","originalUrl":"https://spaceprob.es/","imageRemote":"https://spaceprob.es/resources/img/grid.jpg","video":null,"channel":null,"channelUrl":null,"author":"input_sh","authorUrl":"https://news.ycombinator.com/user?id=input_sh","authorImage":null,"authorSlug":null,"score":163,"views":null,"sharedCount":null,"likeCount":null,"sharedContent":null,"parent":{"__typename":"HnJson","localize":[{"title":"Spaceprob.es将所有仍与地球通信的探测器编入目录。","locale":"zh"},{"title":"Spaceprob.es將所有仍與地球通信的探測器編入目錄。","locale":"zh-Hant"}]}},{"__typename":"SocialMediaPost","id":"HnPost-26293171","excerpt":"","slug":"/hn/26293171","title":"Gradient Free Optimizers: A collection of modern optimization methods in Python","date":"February 28, 2021","dateISO":"2021-02-28T20:37:05.754Z","datetime":"2021-02-28 20:37","tags":["story","Hacker News"],"image":null,"imageAlt":null,"provider":"Hacker News","thirdPartyId":"26293171","url":"https://news.ycombinator.com/item?id=26293171","originalUrl":"https://github.com/SimonBlanke/Gradient-Free-Optimizers","imageRemote":"https://repository-images.githubusercontent.com/252927263/9aa25580-5122-11eb-9d2e-f8879d82b1d5","video":null,"channel":null,"channelUrl":null,"author":"EntICOnc","authorUrl":"https://news.ycombinator.com/user?id=EntICOnc","authorImage":null,"authorSlug":null,"score":162,"views":null,"sharedCount":null,"likeCount":null,"sharedContent":null,"parent":{"__typename":"HnJson","localize":[{"title":"无梯度优化器。在Python中的现代优化方法的集合","locale":"zh"},{"title":"無梯度優化器。在Python中的現代優化方法的集合","locale":"zh-Hant"}]}},{"__typename":"SocialMediaPost","id":"HnPost-26294397","excerpt":"","slug":"/hn/26294397","title":"Weird architectures weren't supported to begin with","date":"February 28, 2021","dateISO":"2021-02-28T20:37:05.754Z","datetime":"2021-02-28 20:37","tags":["story","Hacker News"],"image":null,"imageAlt":null,"provider":"Hacker News","thirdPartyId":"26294397","url":"https://news.ycombinator.com/item?id=26294397","originalUrl":"https://blog.yossarian.net/2021/02/28/Weird-architectures-werent-supported-to-begin-with","imageRemote":null,"video":null,"channel":null,"channelUrl":null,"author":"woodruffw","authorUrl":"https://news.ycombinator.com/user?id=woodruffw","authorImage":null,"authorSlug":null,"score":167,"views":null,"sharedCount":null,"likeCount":null,"sharedContent":null,"parent":{"__typename":"HnJson","localize":[{"title":"一开始就不支持怪异的架构","locale":"zh"},{"title":"一開始就不支持怪異的架構","locale":"zh-Hant"}]}},{"__typename":"SocialMediaPost","id":"HnPost-26296339","excerpt":"","slug":"/hn/26296339","title":"How I cut GTA Online loading times by 70%","date":"February 28, 2021","dateISO":"2021-02-28T20:37:05.754Z","datetime":"2021-02-28 20:37","tags":["story","Hacker News"],"image":null,"imageAlt":null,"provider":"Hacker News","thirdPartyId":"26296339","url":"https://news.ycombinator.com/item?id=26296339","originalUrl":"https://nee.lv/2021/02/28/How-I-cut-GTA-Online-loading-times-by-70/","imageRemote":"https://nee.lv/images/pasted-0.png","video":null,"channel":null,"channelUrl":null,"author":"kuroguro","authorUrl":"https://news.ycombinator.com/user?id=kuroguro","authorImage":null,"authorSlug":null,"score":185,"views":null,"sharedCount":null,"likeCount":null,"sharedContent":null,"parent":{"__typename":"HnJson","localize":[{"title":"我如何将《GTA Online》的加载时间缩短了70%。","locale":"zh"},{"title":"我如何將《GTA Online》的加載時間縮短了70%。","locale":"zh-Hant"}]}},{"__typename":"SocialMediaPost","id":"HnPost-26294052","excerpt":"","slug":"/hn/26294052","title":"Police misconduct settlements","date":"February 28, 2021","dateISO":"2021-02-28T19:46:07.403Z","datetime":"2021-02-28 19:46","tags":["story","Hacker News"],"image":null,"imageAlt":null,"provider":"Hacker News","thirdPartyId":"26294052","url":"https://news.ycombinator.com/item?id=26294052","originalUrl":"https://github.com/fivethirtyeight/police-settlements","imageRemote":"https://avatars.githubusercontent.com/u/6267336?s=400&v=4","video":null,"channel":null,"channelUrl":null,"author":"IfOnlyYouKnew","authorUrl":"https://news.ycombinator.com/user?id=IfOnlyYouKnew","authorImage":null,"authorSlug":null,"score":161,"views":null,"sharedCount":null,"likeCount":null,"sharedContent":null,"parent":{"__typename":"HnJson","localize":[{"title":"警察不当行为和解","locale":"zh"},{"title":"警察不當行爲和解","locale":"zh-Hant"}]}},{"__typename":"SocialMediaPost","id":"HnPost-26294552","excerpt":"","slug":"/hn/26294552","title":"The Mars Helicopter Is Online and Getting Ready to Fly","date":"February 28, 2021","dateISO":"2021-02-28T19:18:01.829Z","datetime":"2021-02-28 19:18","tags":["story","Hacker News"],"image":null,"imageAlt":null,"provider":"Hacker News","thirdPartyId":"26294552","url":"https://news.ycombinator.com/item?id=26294552","originalUrl":"https://www.universetoday.com/150224/the-mars-helicopter-is-online-and-getting-ready-to-fly/","imageRemote":"https://www.universetoday.com/wp-content/uploads/2021/02/jpegPIA23720-1024x601.jpg","video":null,"channel":null,"channelUrl":null,"author":"CapitalistCartr","authorUrl":"https://news.ycombinator.com/user?id=CapitalistCartr","authorImage":null,"authorSlug":null,"score":182,"views":null,"sharedCount":null,"likeCount":null,"sharedContent":null,"parent":{"__typename":"HnJson","localize":[{"title":"火星直升机已上线并准备飞行","locale":"zh"},{"title":"火星直升機已上線並準備飛行","locale":"zh-Hant"}]}},{"__typename":"SocialMediaPost","id":"HnPost-26273027","excerpt":"","slug":"/hn/26273027","title":"TLD Graveyard","date":"February 28, 2021","dateISO":"2021-02-28T18:50:05.720Z","datetime":"2021-02-28 18:50","tags":["story","Hacker News"],"image":null,"imageAlt":null,"provider":"Hacker News","thirdPartyId":"26273027","url":"https://news.ycombinator.com/item?id=26273027","originalUrl":"https://dzdb.caida.org/tlds/graveyard","imageRemote":null,"video":null,"channel":null,"channelUrl":null,"author":"pjf","authorUrl":"https://news.ycombinator.com/user?id=pjf","authorImage":null,"authorSlug":null,"score":164,"views":null,"sharedCount":null,"likeCount":null,"sharedContent":null,"parent":{"__typename":"HnJson","localize":[{"title":"TLD墓地","locale":"zh"},{"title":"TLD墓地","locale":"zh-Hant"}]}},{"__typename":"SocialMediaPost","id":"HnPost-26289200","excerpt":"","slug":"/hn/26289200","title":"Cinder – a C++ library for programming with aesthetic intent","date":"February 28, 2021","dateISO":"2021-02-28T18:50:05.720Z","datetime":"2021-02-28 18:50","tags":["story","Hacker News"],"image":null,"imageAlt":null,"provider":"Hacker News","thirdPartyId":"26289200","url":"https://news.ycombinator.com/item?id=26289200","originalUrl":"https://libcinder.org/","imageRemote":null,"video":null,"channel":null,"channelUrl":null,"author":"gjvc","authorUrl":"https://news.ycombinator.com/user?id=gjvc","authorImage":null,"authorSlug":null,"score":160,"views":null,"sharedCount":null,"likeCount":null,"sharedContent":null,"parent":{"__typename":"HnJson","localize":[{"title":"Cinder--一个以美学为目的的C++编程库。","locale":"zh"},{"title":"Cinder--一個以美學爲目的的C++編程庫。","locale":"zh-Hant"}]}},{"__typename":"SocialMediaPost","id":"HnPost-26289621","excerpt":"","slug":"/hn/26289621","title":"A 'Lamborghini' of Chariots Is Discovered at Pompeii","date":"February 28, 2021","dateISO":"2021-02-28T17:54:04.638Z","datetime":"2021-02-28 17:54","tags":["story","Hacker News"],"image":null,"imageAlt":null,"provider":"Hacker News","thirdPartyId":"26289621","url":"https://news.ycombinator.com/item?id=26289621","originalUrl":"https://www.npr.org/2021/02/27/972118983/a-lamborghini-of-chariots-is-discovered-at-pompeii-archaeologists-are-wowed","imageRemote":"https://media.npr.org/assets/img/2021/02/27/pompeii-chariot-1_wide-4da8bd216db8ef028ff0e61a4495cd6bae903ccf.jpg?s=1400","video":null,"channel":null,"channelUrl":null,"author":"protomyth","authorUrl":"https://news.ycombinator.com/user?id=protomyth","authorImage":null,"authorSlug":null,"score":160,"views":null,"sharedCount":null,"likeCount":null,"sharedContent":null,"parent":{"__typename":"HnJson","localize":[{"title":"庞贝城发现了一辆战车的 \"兰博基尼","locale":"zh"},{"title":"龐貝城發現了一輛戰車的 \"蘭博基尼","locale":"zh-Hant"}]}},{"__typename":"SocialMediaPost","id":"HnPost-26290309","excerpt":"","slug":"/hn/26290309","title":"Try the new try.haxe","date":"February 28, 2021","dateISO":"2021-02-28T15:49:27.312Z","datetime":"2021-02-28 15:49","tags":["story","Hacker News"],"image":null,"imageAlt":null,"provider":"Hacker News","thirdPartyId":"26290309","url":"https://news.ycombinator.com/item?id=26290309","originalUrl":"https://community.haxe.org/t/try-the-new-try-haxe/2921","imageRemote":"https://community.haxe.org/uploads/default/original/1X/6f43c594828df00125c10a5a89df995731ddaa5c.png","video":null,"channel":null,"channelUrl":null,"author":"MokaAkashiya","authorUrl":"https://news.ycombinator.com/user?id=MokaAkashiya","authorImage":null,"authorSlug":null,"score":162,"views":null,"sharedCount":null,"likeCount":null,"sharedContent":null,"parent":{"__typename":"HnJson","localize":[{"title":"试试新的try.haxe","locale":"zh"},{"title":"試試新的try.haxe","locale":"zh-Hant"}]}},{"__typename":"SocialMediaPost","id":"HnPost-26290705","excerpt":"","slug":"/hn/26290705","title":"Universal Radio Hacker: Investigate Wireless Protocols Like a Boss","date":"February 28, 2021","dateISO":"2021-02-28T15:35:11.150Z","datetime":"2021-02-28 15:35","tags":["story","Hacker News"],"image":null,"imageAlt":null,"provider":"Hacker News","thirdPartyId":"26290705","url":"https://news.ycombinator.com/item?id=26290705","originalUrl":"https://github.com/jopohl/urh","imageRemote":"https://repository-images.githubusercontent.com/55258005/ac386780-768f-11ea-88a6-7956ca1b62ba","video":null,"channel":null,"channelUrl":null,"author":"mindcrime","authorUrl":"https://news.ycombinator.com/user?id=mindcrime","authorImage":null,"authorSlug":null,"score":164,"views":null,"sharedCount":null,"likeCount":null,"sharedContent":null,"parent":{"__typename":"HnJson","localize":[{"title":"通用无线电黑客：像老板一样调查无线协议。","locale":"zh"},{"title":"通用無線電黑客：像老闆一樣調查無線協議。","locale":"zh-Hant"}]}},{"__typename":"SocialMediaPost","id":"HnPost-26292299","excerpt":"","slug":"/hn/26292299","title":"Signal Desktop is corrupting its database","date":"February 28, 2021","dateISO":"2021-02-28T15:16:50.337Z","datetime":"2021-02-28 15:16","tags":["story","Hacker News"],"image":null,"imageAlt":null,"provider":"Hacker News","thirdPartyId":"26292299","url":"https://news.ycombinator.com/item?id=26292299","originalUrl":"https://github.com/signalapp/Signal-Desktop/issues/4513","imageRemote":"https://avatars.githubusercontent.com/u/702459?s=400&v=4","video":null,"channel":null,"channelUrl":null,"author":"miduil","authorUrl":"https://news.ycombinator.com/user?id=miduil","authorImage":null,"authorSlug":null,"score":167,"views":null,"sharedCount":null,"likeCount":null,"sharedContent":null,"parent":{"__typename":"HnJson","localize":[{"title":"信号桌面损坏了它的数据库","locale":"zh"},{"title":"信號桌面損壞了它的數據庫","locale":"zh-Hant"}]}},{"__typename":"SocialMediaPost","id":"HnPost-26292310","excerpt":"","slug":"/hn/26292310","title":"Facebook Execs Silenced an Enemy of Turkey to Prevent a Hit to the Company","date":"February 28, 2021","dateISO":"2021-02-28T14:12:21.838Z","datetime":"2021-02-28 14:12","tags":["story","Hacker News"],"image":null,"imageAlt":null,"provider":"Hacker News","thirdPartyId":"26292310","url":"https://news.ycombinator.com/item?id=26292310","originalUrl":"https://www.propublica.org/article/sheryl-sandberg-and-top-facebook-execs-silenced-an-enemy-of-turkey-to-prevent-a-hit-to-their-business","imageRemote":"https://img.assets-d.propublica.org/v5/images/20210223_gillum-facebook-turkey-I-am-fine-with-this-3000x2000.jpg?crop=focalpoint&fit=crop&fp-x=0.5&fp-y=0.5&h=630&q=90&w=1200&s=a27945f943f1d3c2c9b0e9d9f749a2ae","video":null,"channel":null,"channelUrl":null,"author":"maltalex","authorUrl":"https://news.ycombinator.com/user?id=maltalex","authorImage":null,"authorSlug":null,"score":161,"views":null,"sharedCount":null,"likeCount":null,"sharedContent":null,"parent":{"__typename":"HnJson","localize":[{"title":"Facebook高管为防止公司受到打击，让土耳其的一个敌人沉默不语","locale":"zh"},{"title":"Facebook高管爲防止公司受到打擊，讓土耳其的一個敵人沉默不語","locale":"zh-Hant"}]}},{"__typename":"SocialMediaPost","id":"HnPost-26287879","excerpt":"","slug":"/hn/26287879","title":"Amazon rainforest plots sold via Facebook Marketplace ads","date":"February 28, 2021","dateISO":"2021-02-28T12:37:08.539Z","datetime":"2021-02-28 12:37","tags":["story","Hacker News"],"image":null,"imageAlt":null,"provider":"Hacker News","thirdPartyId":"26287879","url":"https://news.ycombinator.com/item?id=26287879","originalUrl":"https://www.bbc.com/news/technology-56168844","imageRemote":"https://ichef.bbci.co.uk/news/1024/branded_news/13CB8/production/_117308018_mediaitem117308015.jpg","video":null,"channel":null,"channelUrl":null,"author":"bbirnbaum","authorUrl":"https://news.ycombinator.com/user?id=bbirnbaum","authorImage":null,"authorSlug":null,"score":161,"views":null,"sharedCount":null,"likeCount":null,"sharedContent":null,"parent":{"__typename":"HnJson","localize":[{"title":"亚马逊雨林地块通过Facebook市场广告出售","locale":"zh"},{"title":"亞馬遜雨林地塊通過Facebook市場廣告出售","locale":"zh-Hant"}]}},{"__typename":"SocialMediaPost","id":"HnPost-26292166","excerpt":"","slug":"/hn/26292166","title":"Actually Portable Executables","date":"February 28, 2021","dateISO":"2021-02-28T12:37:08.539Z","datetime":"2021-02-28 12:37","tags":["story","Hacker News"],"image":null,"imageAlt":null,"provider":"Hacker News","thirdPartyId":"26292166","url":"https://news.ycombinator.com/item?id=26292166","originalUrl":"https://ahgamut.github.io/c/2021/02/27/ape-cosmo/","imageRemote":"https://ahgamut.github.io/assets/images/linux_screen.png","video":null,"channel":null,"channelUrl":null,"author":"krab","authorUrl":"https://news.ycombinator.com/user?id=krab","authorImage":null,"authorSlug":null,"score":183,"views":null,"sharedCount":null,"likeCount":null,"sharedContent":null,"parent":{"__typename":"HnJson","localize":[{"title":"实际上是便携式可执行文件","locale":"zh"},{"title":"實際上是便攜式可執行文件","locale":"zh-Hant"}]}},{"__typename":"SocialMediaPost","id":"HnPost-26284635","excerpt":"","slug":"/hn/26284635","title":"A new chapter – full-time working from a van in a forest","date":"February 28, 2021","dateISO":"2021-02-28T10:10:53.888Z","datetime":"2021-02-28 10:10","tags":["story","Hacker News"],"image":null,"imageAlt":null,"provider":"Hacker News","thirdPartyId":"26284635","url":"https://news.ycombinator.com/item?id=26284635","originalUrl":"https://ghuntley.com/a-new-chapter","imageRemote":"https://ghuntley.com/content/images/2021/02/Et-SRziUYAA7XzP-1.jpg","video":null,"channel":null,"channelUrl":null,"author":"ghuntley","authorUrl":"https://news.ycombinator.com/user?id=ghuntley","authorImage":null,"authorSlug":null,"score":165,"views":null,"sharedCount":null,"likeCount":null,"sharedContent":null,"parent":{"__typename":"HnJson","localize":[{"title":"新的篇章--在森林里的货车上全职工作。","locale":"zh"},{"title":"新的篇章--在森林裏的貨車上全職工作。","locale":"zh-Hant"}]}},{"__typename":"SocialMediaPost","id":"HnPost-26285926","excerpt":"","slug":"/hn/26285926","title":"A single cell slime mold makes decisions without a central nervous system","date":"February 28, 2021","dateISO":"2021-02-28T10:10:53.888Z","datetime":"2021-02-28 10:10","tags":["story","Hacker News"],"image":null,"imageAlt":null,"provider":"Hacker News","thirdPartyId":"26285926","url":"https://news.ycombinator.com/item?id=26285926","originalUrl":"https://www.tum.de/nc/en/about-tum/news/press-releases/details/36462/","imageRemote":"https://www.tum.de/fileadmin/_processed_/f/7/csm_2102xx_Karen_Alim_lab_2100_65c51f8217.jpg","video":null,"channel":null,"channelUrl":null,"author":"gmays","authorUrl":"https://news.ycombinator.com/user?id=gmays","authorImage":null,"authorSlug":null,"score":160,"views":null,"sharedCount":null,"likeCount":null,"sharedContent":null,"parent":{"__typename":"HnJson","localize":[{"title":"单细胞粘液霉菌在没有中枢神经系统的情况下做出决策","locale":"zh"},{"title":"單細胞粘液黴菌在沒有中樞神經系統的情況下做出決策","locale":"zh-Hant"}]}},{"__typename":"SocialMediaPost","id":"HnPost-26289933","excerpt":"","slug":"/hn/26289933","title":"How fighting games use delay-based and rollback netcode (2019)","date":"February 28, 2021","dateISO":"2021-02-28T08:27:47.323Z","datetime":"2021-02-28 08:27","tags":["story","Hacker News"],"image":null,"imageAlt":null,"provider":"Hacker News","thirdPartyId":"26289933","url":"https://news.ycombinator.com/item?id=26289933","originalUrl":"https://ki.infil.net/w02-netcode.html","imageRemote":"https://ki.infil.net/images/words/header.gif","video":null,"channel":null,"channelUrl":null,"author":"Kinrany","authorUrl":"https://news.ycombinator.com/user?id=Kinrany","authorImage":null,"authorSlug":null,"score":166,"views":null,"sharedCount":null,"likeCount":null,"sharedContent":null,"parent":{"__typename":"HnJson","localize":[{"title":"格斗游戏如何使用基于延迟和回滚的网码(2019)","locale":"zh"},{"title":"格鬥遊戲如何使用基於延遲和回滾的網碼(2019)","locale":"zh-Hant"}]}},{"__typename":"SocialMediaPost","id":"HnPost-26273169","excerpt":"","slug":"/hn/26273169","title":"In Defense of Dumb TVs","date":"February 28, 2021","dateISO":"2021-02-28T06:32:07.986Z","datetime":"2021-02-28 06:32","tags":["story","Hacker News"],"image":null,"imageAlt":null,"provider":"Hacker News","thirdPartyId":"26273169","url":"https://news.ycombinator.com/item?id=26273169","originalUrl":"https://frame.work/blog/in-defense-of-dumb-tvs","imageRemote":"https://images.prismic.io/frameworkmarketplace/ada9bdb3-b7f2-4ac9-8005-85b5523ec9a7_pasted+image+0.png?auto=compress,format&rect=69,0,1462,1067&w=1600&h=1168","video":null,"channel":null,"channelUrl":null,"author":"rbanffy","authorUrl":"https://news.ycombinator.com/user?id=rbanffy","authorImage":null,"authorSlug":null,"score":160,"views":null,"sharedCount":null,"likeCount":null,"sharedContent":null,"parent":{"__typename":"HnJson","localize":[{"title":"为哑巴电视辩护","locale":"zh"},{"title":"爲啞巴電視辯護","locale":"zh-Hant"}]}},{"__typename":"SocialMediaPost","id":"HnPost-26285655","excerpt":"","slug":"/hn/26285655","title":"The curious case of the handlebar bag scam","date":"February 28, 2021","dateISO":"2021-02-28T02:44:49.018Z","datetime":"2021-02-28 02:44","tags":["story","Hacker News"],"image":null,"imageAlt":null,"provider":"Hacker News","thirdPartyId":"26285655","url":"https://news.ycombinator.com/item?id=26285655","originalUrl":"https://cyclingtips.com/2021/02/route-werks-handlebar-bag-scam/","imageRemote":"https://cdn-ctstaging.pressidium.com/wp-content/uploads/2021/02/Urban-1.jpg","video":null,"channel":null,"channelUrl":null,"author":"Zhenya","authorUrl":"https://news.ycombinator.com/user?id=Zhenya","authorImage":null,"authorSlug":null,"score":161,"views":null,"sharedCount":null,"likeCount":null,"sharedContent":null,"parent":{"__typename":"HnJson","localize":[{"title":"车把包骗局的奇葩案例","locale":"zh"},{"title":"車把包騙局的奇葩案例","locale":"zh-Hant"}]}},{"__typename":"SocialMediaPost","id":"HnPost-26284294","excerpt":"","slug":"/hn/26284294","title":"Alternative shell with native support for JSON, YAML, TOML, CSV, etc.","date":"February 28, 2021","dateISO":"2021-02-28T02:19:20.175Z","datetime":"2021-02-28 02:19","tags":["story","Hacker News"],"image":null,"imageAlt":null,"provider":"Hacker News","thirdPartyId":"26284294","url":"https://news.ycombinator.com/item?id=26284294","originalUrl":"https://github.com/lmorg/murex","imageRemote":"https://avatars.githubusercontent.com/u/12153701?s=400&v=4","video":null,"channel":null,"channelUrl":null,"author":"hnlmorg","authorUrl":"https://news.ycombinator.com/user?id=hnlmorg","authorImage":null,"authorSlug":null,"score":161,"views":null,"sharedCount":null,"likeCount":null,"sharedContent":null,"parent":{"__typename":"HnJson","localize":[{"title":"支持JSON、YAML、TOML、CSV等原生的备选shell。","locale":"zh"},{"title":"支持JSON、YAML、TOML、CSV等原生的備選shell。","locale":"zh-Hant"}]}}]}},"pageContext":{"basePath":"/","pageType":"tag","tag":"Hacker News","tagsFilter":{"id":{"glob":"!*Post-1"}},"filter":{"id":{"glob":"!*Post-1"},"tags":{"eq":"Hacker News"}},"limit":25,"skip":75,"total":2185,"totalPages":88,"currentPage":4,"maxWidth":1024,"maxHeight":512,"locale":"zh-Hant","hrefLang":"zh-Hant","originalPath":"/tags/hacker-news/page/4","dateFormat":"YYYY-MM-DD"}},"staticQueryHashes":["1239077767","2506312863","2744905544","3025052997","3493603132","3493603132","3513215887","386998304"]}