{"componentChunkName":"component---gatsby-theme-buzzing-src-gatsby-theme-timeline-templates-posts-query-js","path":"/en/tags/hacker-news/page/31","result":{"data":{"site":{"siteMetadata":{"title":"Reddit 热门","description":"用中文浏览Reddit热门内容","social":[{"name":"Twitter","url":"https://twitter.com/gatsbyjs","external":null,"prefetch":null},{"name":"GitHub","url":"https://github.com/gatsbyjs","external":null,"prefetch":null}],"menuLinks":[],"localize":[{"locale":"en","title":"Buzzing on Reddit","description":"See what's buzzing on Reddit in your native language","social":[{"name":"Reddit","url":"https://www.reddit.com/","external":true,"prefetch":null}],"menuLinks":[{"name":"Weekly Selection","url":"/issues","external":null,"prefetch":null},{"name":"RSS","url":"/rss.xml","external":null,"prefetch":false}]},{"locale":"zh-Hant","title":"Reddit 熱門","description":"用中文瀏覽Reddit熱門內容","social":null,"menuLinks":null}]}},"tagsGroup":{"group":[{"fieldValue":"ASK HN","totalCount":54},{"fieldValue":"Hacker News","totalCount":3107},{"fieldValue":"Poll","totalCount":1},{"fieldValue":"Show HN","totalCount":100},{"fieldValue":"poll","totalCount":1},{"fieldValue":"story","totalCount":3106}]},"allBlogPost":{"nodes":[{"__typename":"SocialMediaPost","id":"HnPost-26404830","excerpt":"","slug":"/hn/26404830","title":"Git: Malicious repositories can execute remote code while cloning","date":"March 09, 2021","dateISO":"2021-03-09T23:58:29.258Z","datetime":"2021-03-09 23:58","tags":["story","Hacker News"],"image":null,"imageAlt":null,"provider":"Hacker News","thirdPartyId":"26404830","url":"https://news.ycombinator.com/item?id=26404830","originalUrl":"https://www.openwall.com/lists/oss-security/2021/03/09/3","imageRemote":"https://www.openwall.com/logo.png","video":null,"channel":null,"channelUrl":null,"author":"todsacerdoti","authorUrl":"https://news.ycombinator.com/user?id=todsacerdoti","authorImage":null,"authorSlug":null,"score":624,"views":null,"sharedCount":null,"likeCount":null,"sharedContent":null,"parent":{"__typename":"HnJson","localize":[{"title":"Git 恶意仓库可以在克隆时执行远程代码。","locale":"zh"},{"title":"Git 惡意倉庫可以在克隆時執行遠程代碼。","locale":"zh-Hant"}]}},{"__typename":"SocialMediaPost","id":"HnPost-26401568","excerpt":"","slug":"/hn/26401568","title":"Internet Archive Scholar: Search Millions of Research Papers","date":"March 09, 2021","dateISO":"2021-03-09T23:51:19.481Z","datetime":"2021-03-09 23:51","tags":["story","Hacker News"],"image":null,"imageAlt":null,"provider":"Hacker News","thirdPartyId":"26401568","url":"https://news.ycombinator.com/item?id=26401568","originalUrl":"http://blog.archive.org/2021/03/09/search-scholarly-materials-preserved-in-the-internet-archive/","imageRemote":"https://scholar-qa.archive.org/static/scholar-vaporwave-logo.png","video":null,"channel":null,"channelUrl":null,"author":"bnewbold","authorUrl":"https://news.ycombinator.com/user?id=bnewbold","authorImage":null,"authorSlug":null,"score":340,"views":null,"sharedCount":null,"likeCount":null,"sharedContent":null,"parent":{"__typename":"HnJson","localize":[{"title":"互联网档案馆学者。搜索数以百万计的研究论文","locale":"zh"},{"title":"互聯網檔案館學者。搜索數以百萬計的研究論文","locale":"zh-Hant"}]}},{"__typename":"SocialMediaPost","id":"HnPost-26403614","excerpt":"","slug":"/hn/26403614","title":"T-Mobile to share customers' data with advertisers unless they opt out","date":"March 09, 2021","dateISO":"2021-03-09T23:34:50.335Z","datetime":"2021-03-09 23:34","tags":["story","Hacker News"],"image":null,"imageAlt":null,"provider":"Hacker News","thirdPartyId":"26403614","url":"https://news.ycombinator.com/item?id=26403614","originalUrl":"https://thehill.com/policy/technology/542303-t-mobile-to-share-customers-web-mobile-app-data-with-advertisers-unless","imageRemote":"https://thehill.com/sites/default/files/tmobile_032410getty_lead.jpg","video":null,"channel":null,"channelUrl":null,"author":"34679","authorUrl":"https://news.ycombinator.com/user?id=34679","authorImage":null,"authorSlug":null,"score":368,"views":null,"sharedCount":null,"likeCount":null,"sharedContent":null,"parent":{"__typename":"HnJson","localize":[{"title":"T-Mobile将与广告商共享客户数据，除非他们选择退出。","locale":"zh"},{"title":"T-Mobile將與廣告商共享客戶數據，除非他們選擇退出。","locale":"zh-Hant"}]}},{"__typename":"SocialMediaPost","id":"HnPost-26399377","excerpt":"","slug":"/hn/26399377","title":"Esbuild 0.9","date":"March 09, 2021","dateISO":"2021-03-09T22:42:17.721Z","datetime":"2021-03-09 22:42","tags":["story","Hacker News"],"image":null,"imageAlt":null,"provider":"Hacker News","thirdPartyId":"26399377","url":"https://news.ycombinator.com/item?id=26399377","originalUrl":"https://github.com/evanw/esbuild/releases/tag/v0.9.0","imageRemote":"https://repository-images.githubusercontent.com/61137153/980bce80-192f-11eb-98b7-d06ecb974e52","video":null,"channel":null,"channelUrl":null,"author":"swyx","authorUrl":"https://news.ycombinator.com/user?id=swyx","authorImage":null,"authorSlug":null,"score":253,"views":null,"sharedCount":null,"likeCount":null,"sharedContent":null,"parent":{"__typename":"HnJson","localize":[{"title":"Esbuild 0.9","locale":"zh"},{"title":"Esbuild 0.9","locale":"zh-Hant"}]}},{"__typename":"SocialMediaPost","id":"HnPost-26402682","excerpt":"","slug":"/hn/26402682","title":"UK businesses caught buying five-star Google reviews","date":"March 09, 2021","dateISO":"2021-03-09T22:17:39.383Z","datetime":"2021-03-09 22:17","tags":["story","Hacker News"],"image":null,"imageAlt":null,"provider":"Hacker News","thirdPartyId":"26402682","url":"https://news.ycombinator.com/item?id=26402682","originalUrl":"https://www.bbc.com/news/technology-56321576","imageRemote":"https://ichef.bbci.co.uk/news/1024/branded_news/154EF/production/_117497278_gettyimages-1174370345-1.jpg","video":null,"channel":null,"channelUrl":null,"author":"leephillips","authorUrl":"https://news.ycombinator.com/user?id=leephillips","authorImage":null,"authorSlug":null,"score":375,"views":null,"sharedCount":null,"likeCount":null,"sharedContent":null,"parent":{"__typename":"HnJson","localize":[{"title":"英国企业购买谷歌五星评价被抓","locale":"zh"},{"title":"英國企業購買谷歌五星評價被抓","locale":"zh-Hant"}]}},{"__typename":"SocialMediaPost","id":"HnPost-26401786","excerpt":"","slug":"/hn/26401786","title":"Girls perform better academically in almost all countries (2015)","date":"March 09, 2021","dateISO":"2021-03-09T20:54:22.960Z","datetime":"2021-03-09 20:54","tags":["story","Hacker News"],"image":null,"imageAlt":null,"provider":"Hacker News","thirdPartyId":"26401786","url":"https://news.ycombinator.com/item?id=26401786","originalUrl":"http://www.economist.com/news/international/21645759-boys-are-being-outclassed-girls-both-school-and-university-and-gap","imageRemote":"https://www.economist.com/img/b/595/335/90/sites/default/files/images/print-edition/20150307_IRP002_2.jpg","video":null,"channel":null,"channelUrl":null,"author":"ddtaylor","authorUrl":"https://news.ycombinator.com/user?id=ddtaylor","authorImage":null,"authorSlug":null,"score":264,"views":null,"sharedCount":null,"likeCount":null,"sharedContent":null,"parent":{"__typename":"HnJson","localize":[{"title":"几乎所有国家的女孩都在学业上表现更好(2015年)","locale":"zh"},{"title":"幾乎所有國家的女孩都在學業上表現更好(2015年)","locale":"zh-Hant"}]}},{"__typename":"SocialMediaPost","id":"HnPost-26401955","excerpt":"","slug":"/hn/26401955","title":"Webmention.io","date":"March 09, 2021","dateISO":"2021-03-09T20:47:37.624Z","datetime":"2021-03-09 20:47","tags":["story","Hacker News"],"image":null,"imageAlt":null,"provider":"Hacker News","thirdPartyId":"26401955","url":"https://news.ycombinator.com/item?id=26401955","originalUrl":"https://webmention.io/","imageRemote":"https://webmention.io/img/webmention-logo-380.png","video":null,"channel":null,"channelUrl":null,"author":"bezelbuttons","authorUrl":"https://news.ycombinator.com/user?id=bezelbuttons","authorImage":null,"authorSlug":null,"score":387,"views":null,"sharedCount":null,"likeCount":null,"sharedContent":null,"parent":{"__typename":"HnJson","localize":[{"title":"Webmention.io","locale":"zh"},{"title":"Webmention.io","locale":"zh-Hant"}]}},{"__typename":"SocialMediaPost","id":"HnPost-26398870","excerpt":"","slug":"/hn/26398870","title":"Inspired by Alabama’s union battle, Amazon workers elsewhere consider organizing","date":"March 09, 2021","dateISO":"2021-03-09T19:43:10.151Z","datetime":"2021-03-09 19:43","tags":["story","Hacker News"],"image":null,"imageAlt":null,"provider":"Hacker News","thirdPartyId":"26398870","url":"https://news.ycombinator.com/item?id=26398870","originalUrl":"https://www.washingtonpost.com/technology/2021/03/09/amazon-union-bessemer-history/","imageRemote":"https://www.washingtonpost.com/wp-apps/imrs.php?src=https://arc-anglerfish-washpost-prod-washpost.s3.amazonaws.com/public/2KZ4M7D2VMI6XDC6GLSHWQVVDM.jpg&w=1440","video":null,"channel":null,"channelUrl":null,"author":"blinding-streak","authorUrl":"https://news.ycombinator.com/user?id=blinding-streak","authorImage":null,"authorSlug":null,"score":210,"views":null,"sharedCount":null,"likeCount":null,"sharedContent":null,"parent":{"__typename":"HnJson","localize":[{"title":"受阿拉巴马州工会之争的启发，亚马逊其他地方的工人考虑组织起来。","locale":"zh"},{"title":"受阿拉巴馬州工會之爭的啓發，亞馬遜其他地方的工人考慮組織起來。","locale":"zh-Hant"}]}},{"__typename":"SocialMediaPost","id":"HnPost-26401715","excerpt":"","slug":"/hn/26401715","title":"The Uyghur Genocide: An examination of breaches of the 1948 Genocide Convention","date":"March 09, 2021","dateISO":"2021-03-09T19:17:49.153Z","datetime":"2021-03-09 19:17","tags":["story","Hacker News"],"image":null,"imageAlt":null,"provider":"Hacker News","thirdPartyId":"26401715","url":"https://news.ycombinator.com/item?id=26401715","originalUrl":"https://newlinesinstitute.org/uyghurs/the-uyghur-genocide-an-examination-of-chinas-breaches-of-the-1948-genocide-convention/","imageRemote":"https://newlinesinstitute.org/wp-content/uploads/Newlines-Institute-Report.png","video":null,"channel":null,"channelUrl":null,"author":"lawrenceyan","authorUrl":"https://news.ycombinator.com/user?id=lawrenceyan","authorImage":null,"authorSlug":null,"score":299,"views":null,"sharedCount":null,"likeCount":null,"sharedContent":null,"parent":{"__typename":"HnJson","localize":[{"title":"维吾尔种族灭绝。对违反1948年《灭绝种族罪公约》行为的审查","locale":"zh"},{"title":"維吾爾種族滅絕。對違反1948年《滅絕種族罪公約》行爲的審查","locale":"zh-Hant"}]}},{"__typename":"SocialMediaPost","id":"HnPost-26398767","excerpt":"","slug":"/hn/26398767","title":"Israel’s lucrative and secretive cybersurveillance industry","date":"March 09, 2021","dateISO":"2021-03-09T18:53:41.860Z","datetime":"2021-03-09 18:53","tags":["story","Hacker News"],"image":null,"imageAlt":null,"provider":"Hacker News","thirdPartyId":"26398767","url":"https://news.ycombinator.com/item?id=26398767","originalUrl":"https://restofworld.org/2021/inside-israels-lucrative-and-secretive-cybersurveillance-talent-pipeline/","imageRemote":"https://149346090.v2.pressablecdn.com/wp-content/uploads/2021/03/cropped-rest_HAT_8501-scaled-1.jpg","video":null,"channel":null,"channelUrl":null,"author":"leoschwartz","authorUrl":"https://news.ycombinator.com/user?id=leoschwartz","authorImage":null,"authorSlug":null,"score":347,"views":null,"sharedCount":null,"likeCount":null,"sharedContent":null,"parent":{"__typename":"HnJson","localize":[{"title":"以色列有利可图的秘密网络监控行业","locale":"zh"},{"title":"以色列有利可圖的祕密網絡監控行業","locale":"zh-Hant"}]}},{"__typename":"SocialMediaPost","id":"HnPost-26400089","excerpt":"","slug":"/hn/26400089","title":"ISO-8601 date format reference not publicly available","date":"March 09, 2021","dateISO":"2021-03-09T18:53:41.860Z","datetime":"2021-03-09 18:53","tags":["story","Hacker News"],"image":null,"imageAlt":null,"provider":"Hacker News","thirdPartyId":"26400089","url":"https://news.ycombinator.com/item?id=26400089","originalUrl":"https://twitter.com/isostandards/status/1367138676162105344","imageRemote":null,"video":null,"channel":null,"channelUrl":null,"author":"tosh","authorUrl":"https://news.ycombinator.com/user?id=tosh","authorImage":null,"authorSlug":null,"score":379,"views":null,"sharedCount":null,"likeCount":null,"sharedContent":null,"parent":{"__typename":"HnJson","localize":[{"title":"ISO-8601日期格式参考资料未公开","locale":"zh"},{"title":"ISO-8601日期格式參考資料未公開","locale":"zh-Hant"}]}},{"__typename":"SocialMediaPost","id":"HnPost-26396978","excerpt":"","slug":"/hn/26396978","title":"The Quirks of Gmail UI","date":"March 09, 2021","dateISO":"2021-03-09T18:33:17.037Z","datetime":"2021-03-09 18:33","tags":["story","Hacker News"],"image":null,"imageAlt":null,"provider":"Hacker News","thirdPartyId":"26396978","url":"https://news.ycombinator.com/item?id=26396978","originalUrl":"https://hanami.run/blog/posts/the-quirks-of-gmail-ui/","imageRemote":"https://hanami.run/blog/hanami-og.png","video":null,"channel":null,"channelUrl":null,"author":"todsacerdoti","authorUrl":"https://news.ycombinator.com/user?id=todsacerdoti","authorImage":null,"authorSlug":null,"score":197,"views":null,"sharedCount":null,"likeCount":null,"sharedContent":null,"parent":{"__typename":"HnJson","localize":[{"title":"Gmail用户界面的怪癖","locale":"zh"},{"title":"Gmail用戶界面的怪癖","locale":"zh-Hant"}]}},{"__typename":"SocialMediaPost","id":"HnPost-26396594","excerpt":"","slug":"/hn/26396594","title":"5k Year Old Bog Oak Table: Digging up 4k-year-old trees for furniture","date":"March 09, 2021","dateISO":"2021-03-09T17:51:24.246Z","datetime":"2021-03-09 17:51","tags":["story","Hacker News"],"image":null,"imageAlt":null,"provider":"Hacker News","thirdPartyId":"26396594","url":"https://news.ycombinator.com/item?id=26396594","originalUrl":"https://blog.lostartpress.com/2021/02/21/adamson-low-treasure-out-of-the-bog/","imageRemote":"https://blog.lostartpress.com/wp-content/uploads/2021/02/j4j-XJVg.jpeg","video":null,"channel":null,"channelUrl":null,"author":"WuTangCFO","authorUrl":"https://news.ycombinator.com/user?id=WuTangCFO","authorImage":null,"authorSlug":null,"score":328,"views":null,"sharedCount":null,"likeCount":null,"sharedContent":null,"parent":{"__typename":"HnJson","localize":[{"title":"5千岁的沼泽橡木桌。挖出4千岁的老树做家具","locale":"zh"},{"title":"5千歲的沼澤橡木桌。挖出4千歲的老樹做傢俱","locale":"zh-Hant"}]}},{"__typename":"SocialMediaPost","id":"HnPost-26395361","excerpt":"","slug":"/hn/26395361","title":"Generalists vs specialists – Who has a greater chance of success? (2019)","date":"March 09, 2021","dateISO":"2021-03-09T15:55:39.932Z","datetime":"2021-03-09 15:55","tags":["story","Hacker News"],"image":null,"imageAlt":null,"provider":"Hacker News","thirdPartyId":"26395361","url":"https://news.ycombinator.com/item?id=26395361","originalUrl":"https://www.abhijitbhaduri.com/2019/08/15/generalists-specialists/","imageRemote":"http://static1.squarespace.com/static/5f46167eae4b0e51ca68dbb0/5fb4c52830801175553b7ae3/5fb4c95230801175553bcf5e/1608528131320/?format=1500w","video":null,"channel":null,"channelUrl":null,"author":"dcu","authorUrl":"https://news.ycombinator.com/user?id=dcu","authorImage":null,"authorSlug":null,"score":226,"views":null,"sharedCount":null,"likeCount":null,"sharedContent":null,"parent":{"__typename":"HnJson","localize":[{"title":"通才VS专才--谁的成功机会更大？(2019)","locale":"zh"},{"title":"通才VS專才--誰的成功機會更大？(2019)","locale":"zh-Hant"}]}},{"__typename":"SocialMediaPost","id":"HnPost-26396671","excerpt":"","slug":"/hn/26396671","title":"`three = 1` in the Linux sourcecode (2014)","date":"March 09, 2021","dateISO":"2021-03-09T15:55:39.932Z","datetime":"2021-03-09 15:55","tags":["story","Hacker News"],"image":null,"imageAlt":null,"provider":"Hacker News","thirdPartyId":"26396671","url":"https://news.ycombinator.com/item?id=26396671","originalUrl":"https://github.com/torvalds/linux/blob/d158fc7f36a25e19791d25a55da5623399a2644f/fs/ext4/resize.c#L698","imageRemote":"https://avatars.githubusercontent.com/u/1024025?s=400&v=4","video":null,"channel":null,"channelUrl":null,"author":"ddtaylor","authorUrl":"https://news.ycombinator.com/user?id=ddtaylor","authorImage":null,"authorSlug":null,"score":238,"views":null,"sharedCount":null,"likeCount":null,"sharedContent":null,"parent":{"__typename":"HnJson","localize":[{"title":"Linux源码中的 \"three = 1\"(2014年)","locale":"zh"},{"title":"Linux源碼中的 \"three = 1\"(2014年)","locale":"zh-Hant"}]}},{"__typename":"SocialMediaPost","id":"HnPost-26394564","excerpt":"","slug":"/hn/26394564","title":"I self-published a paperback and eBook using LaTeX and Pandoc","date":"March 09, 2021","dateISO":"2021-03-09T13:39:30.092Z","datetime":"2021-03-09 13:39","tags":["story","Hacker News"],"image":null,"imageAlt":null,"provider":"Hacker News","thirdPartyId":"26394564","url":"https://news.ycombinator.com/item?id=26394564","originalUrl":"http://theroadchoseme.com/how-i-self-published-a-professional-paperback-and-ebook-using-latex-and-pandoc/?1","imageRemote":"http://static4.theroadchoseme.com/wp-content/uploads/2021/01/book-cover-fire-lg-720x480.jpg","video":null,"channel":null,"channelUrl":null,"author":"grecy","authorUrl":"https://news.ycombinator.com/user?id=grecy","authorImage":null,"authorSlug":null,"score":254,"views":null,"sharedCount":null,"likeCount":null,"sharedContent":null,"parent":{"__typename":"HnJson","localize":[{"title":"我使用LaTeX和Pandoc自助出版了平装书和电子书。","locale":"zh"},{"title":"我使用LaTeX和Pandoc自助出版了平裝書和電子書。","locale":"zh-Hant"}]}},{"__typename":"SocialMediaPost","id":"HnPost-26396798","excerpt":"","slug":"/hn/26396798","title":"Debian Running on Rust Coreutils","date":"March 09, 2021","dateISO":"2021-03-09T12:32:04.331Z","datetime":"2021-03-09 12:32","tags":["story","Hacker News"],"image":null,"imageAlt":null,"provider":"Hacker News","thirdPartyId":"26396798","url":"https://news.ycombinator.com/item?id=26396798","originalUrl":"https://sylvestre.ledru.info/blog/2021/03/09/debian-running-on-rust-coreutils","imageRemote":"https://www.gravatar.com/avatar/34bf3b81aaee5cd2f0f5c4270c3bf05d?size=32&default=https%3A%2F%2Fsylvestre.ledru.info%2Fblog%2Fmedia%2Fshared%2Fglobal%2Favatars%2Fdefault_avatar_unknown.jpg%3Fmtime%3D1615108205","video":null,"channel":null,"channelUrl":null,"author":"todsacerdoti","authorUrl":"https://news.ycombinator.com/user?id=todsacerdoti","authorImage":null,"authorSlug":null,"score":489,"views":null,"sharedCount":null,"likeCount":null,"sharedContent":null,"parent":{"__typename":"HnJson","localize":[{"title":"Debian运行在Rust Coreutils上","locale":"zh"},{"title":"Debian運行在Rust Coreutils上","locale":"zh-Hant"}]}},{"__typename":"SocialMediaPost","id":"HnPost-26395138","excerpt":"","slug":"/hn/26395138","title":"A bug related to handling of authenticated sessions","date":"March 09, 2021","dateISO":"2021-03-09T11:33:51.229Z","datetime":"2021-03-09 11:33","tags":["story","Hacker News"],"image":null,"imageAlt":null,"provider":"Hacker News","thirdPartyId":"26395138","url":"https://news.ycombinator.com/item?id=26395138","originalUrl":"https://github.blog/2021-03-08-github-security-update-a-bug-related-to-handling-of-authenticated-sessions/","imageRemote":"https://github.blog/wp-content/uploads/2019/09/security-1200-630.png?fit=1200%2C630","video":null,"channel":null,"channelUrl":null,"author":"todsacerdoti","authorUrl":"https://news.ycombinator.com/user?id=todsacerdoti","authorImage":null,"authorSlug":null,"score":212,"views":null,"sharedCount":null,"likeCount":null,"sharedContent":null,"parent":{"__typename":"HnJson","localize":[{"title":"一个与处理认证会话有关的错误","locale":"zh"},{"title":"一個與處理認證會話有關的錯誤","locale":"zh-Hant"}]}},{"__typename":"SocialMediaPost","id":"HnPost-26385270","excerpt":"","slug":"/hn/26385270","title":"Amazon Assistant lets Amazon track your every move on the web","date":"March 09, 2021","dateISO":"2021-03-09T10:37:41.290Z","datetime":"2021-03-09 10:37","tags":["story","Hacker News"],"image":null,"imageAlt":null,"provider":"Hacker News","thirdPartyId":"26385270","url":"https://news.ycombinator.com/item?id=26385270","originalUrl":"https://palant.info/2021/03/08/how-amazon-assistant-lets-amazon-track-your-every-move-on-the-web/","imageRemote":"https://palant.info/2021/03/08/how-amazon-assistant-lets-amazon-track-your-every-move-on-the-web/amazon_assistant.png","video":null,"channel":null,"channelUrl":null,"author":"staktrace","authorUrl":"https://news.ycombinator.com/user?id=staktrace","authorImage":null,"authorSlug":null,"score":177,"views":null,"sharedCount":null,"likeCount":null,"sharedContent":null,"parent":{"__typename":"HnJson","localize":[{"title":"亚马逊助手让亚马逊追踪你在网络上的一举一动。","locale":"zh"},{"title":"亞馬遜助手讓亞馬遜追蹤你在網絡上的一舉一動。","locale":"zh-Hant"}]}},{"__typename":"SocialMediaPost","id":"HnPost-26381768","excerpt":"","slug":"/hn/26381768","title":"Fuckin' user interface design, I swear","date":"March 09, 2021","dateISO":"2021-03-09T10:13:33.483Z","datetime":"2021-03-09 10:13","tags":["story","Hacker News"],"image":null,"imageAlt":null,"provider":"Hacker News","thirdPartyId":"26381768","url":"https://news.ycombinator.com/item?id=26381768","originalUrl":"https://blog.plover.com/tech/ui.html","imageRemote":"https://pic.blog.plover.com/tech/ui/fugu-th.png","video":null,"channel":null,"channelUrl":null,"author":"luu","authorUrl":"https://news.ycombinator.com/user?id=luu","authorImage":null,"authorSlug":null,"score":807,"views":null,"sharedCount":null,"likeCount":null,"sharedContent":null,"parent":{"__typename":"HnJson","localize":[{"title":"他妈的用户界面设计，我发誓","locale":"zh"},{"title":"他媽的用戶界面設計，我發誓","locale":"zh-Hant"}]}},{"__typename":"SocialMediaPost","id":"HnPost-26385572","excerpt":"","slug":"/hn/26385572","title":"Interview with Patrick Collison","date":"March 09, 2021","dateISO":"2021-03-09T05:46:09.016Z","datetime":"2021-03-09 05:46","tags":["story","Hacker News"],"image":null,"imageAlt":null,"provider":"Hacker News","thirdPartyId":"26385572","url":"https://news.ycombinator.com/item?id=26385572","originalUrl":"https://noahpinion.substack.com/p/interview-patrick-collison-co-founder","imageRemote":"https://cdn.substack.com/image/fetch/w_1200,c_limit,f_jpg,q_auto:good,fl_progressive:steep/https%3A%2F%2Fbucketeer-e05bbc84-baa3-437e-9518-adb32be77984.s3.amazonaws.com%2Fpublic%2Fimages%2F9a49c605-2f86-488d-85b6-69a9c09ba7d8_400x400.jpeg","video":null,"channel":null,"channelUrl":null,"author":"jger15","authorUrl":"https://news.ycombinator.com/user?id=jger15","authorImage":null,"authorSlug":null,"score":185,"views":null,"sharedCount":null,"likeCount":null,"sharedContent":null,"parent":{"__typename":"HnJson","localize":[{"title":"采访Patrick Collison","locale":"zh"},{"title":"採訪Patrick Collison","locale":"zh-Hant"}]}},{"__typename":"SocialMediaPost","id":"HnPost-26390835","excerpt":"","slug":"/hn/26390835","title":"The Unstoppable Momentum of Outdated Science","date":"March 09, 2021","dateISO":"2021-03-09T05:46:09.016Z","datetime":"2021-03-09 05:46","tags":["story","Hacker News"],"image":null,"imageAlt":null,"provider":"Hacker News","thirdPartyId":"26390835","url":"https://news.ycombinator.com/item?id=26390835","originalUrl":"https://rogerpielkejr.substack.com/p/the-unstoppable-momentum-of-outdated","imageRemote":"https://cdn.substack.com/image/fetch/w_1200,c_limit,f_jpg,q_auto:good,fl_progressive:steep/https%3A%2F%2Fbucketeer-e05bbc84-baa3-437e-9518-adb32be77984.s3.amazonaws.com%2Fpublic%2Fimages%2F8645a4d3-0412-4bfb-a72c-c02b5e904e64_1736x1073.png","video":null,"channel":null,"channelUrl":null,"author":"zmaten","authorUrl":"https://news.ycombinator.com/user?id=zmaten","authorImage":null,"authorSlug":null,"score":209,"views":null,"sharedCount":null,"likeCount":null,"sharedContent":null,"parent":{"__typename":"HnJson","localize":[{"title":"过时科学的势不可挡。","locale":"zh"},{"title":"過時科學的勢不可擋。","locale":"zh-Hant"}]}},{"__typename":"SocialMediaPost","id":"HnPost-26374143","excerpt":"","slug":"/hn/26374143","title":"A Year at Google Brain","date":"March 09, 2021","dateISO":"2021-03-09T05:29:39.335Z","datetime":"2021-03-09 05:29","tags":["story","Hacker News"],"image":null,"imageAlt":null,"provider":"Hacker News","thirdPartyId":"26374143","url":"https://news.ycombinator.com/item?id=26374143","originalUrl":"https://www.debugmind.com/2020/01/04/paths-to-the-future-a-year-at-google-brain/","imageRemote":"https://www.debugmind.com/wp-content/themes/undiscovered/svg/standard.php?color=%2300a6d8","video":null,"channel":null,"channelUrl":null,"author":"sytelus","authorUrl":"https://news.ycombinator.com/user?id=sytelus","authorImage":null,"authorSlug":null,"score":322,"views":null,"sharedCount":null,"likeCount":null,"sharedContent":null,"parent":{"__typename":"HnJson","localize":[{"title":"谷歌大脑的一年","locale":"zh"},{"title":"谷歌大腦的一年","locale":"zh-Hant"}]}},{"__typename":"SocialMediaPost","id":"HnPost-26391254","excerpt":"","slug":"/hn/26391254","title":"Ask HN: Do you create music? let's hear it","date":"March 09, 2021","dateISO":"2021-03-09T05:29:39.335Z","datetime":"2021-03-09 05:29","tags":["story","ASK HN","Hacker News"],"image":null,"imageAlt":null,"provider":"Hacker News","thirdPartyId":"26391254","url":"https://news.ycombinator.com/item?id=26391254","originalUrl":"https://news.ycombinator.com/item?id=26391254","imageRemote":null,"video":null,"channel":"ASK HN","channelUrl":"https://news.ycombinator.com/ask","author":"saadalem","authorUrl":"https://news.ycombinator.com/user?id=saadalem","authorImage":null,"authorSlug":null,"score":258,"views":null,"sharedCount":null,"likeCount":null,"sharedContent":null,"parent":{"__typename":"HnJson","localize":[{"title":"问HN：你会创作音乐吗，让我们听听吧","locale":"zh"},{"title":"問HN：你會創作音樂嗎，讓我們聽聽吧","locale":"zh-Hant"}]}},{"__typename":"SocialMediaPost","id":"HnPost-26393795","excerpt":"","slug":"/hn/26393795","title":"New Algorithm Breaks Speed Limit for Solving Linear Equations","date":"March 09, 2021","dateISO":"2021-03-09T04:33:00.612Z","datetime":"2021-03-09 04:33","tags":["story","Hacker News"],"image":null,"imageAlt":null,"provider":"Hacker News","thirdPartyId":"26393795","url":"https://news.ycombinator.com/item?id=26393795","originalUrl":"https://www.quantamagazine.org/new-algorithm-breaks-speed-limit-for-solving-linear-equations-20210308/","imageRemote":"https://d2r55xnwy6nx47.cloudfront.net/uploads/2021/03/Forest-Matrices_1200_Social.jpg","video":null,"channel":null,"channelUrl":null,"author":"ot","authorUrl":"https://news.ycombinator.com/user?id=ot","authorImage":null,"authorSlug":null,"score":549,"views":null,"sharedCount":null,"likeCount":null,"sharedContent":null,"parent":{"__typename":"HnJson","localize":[{"title":"新算法突破解线性方程的速度极限","locale":"zh"},{"title":"新算法突破解線性方程的速度極限","locale":"zh-Hant"}]}}]}},"pageContext":{"basePath":"/","pageType":"tag","tag":"Hacker News","tagsFilter":{"id":{"glob":"!*Post-1"}},"filter":{"id":{"glob":"!*Post-1"},"tags":{"eq":"Hacker News"}},"limit":25,"skip":750,"total":3107,"totalPages":125,"currentPage":31,"maxWidth":1024,"maxHeight":512,"locale":"en","hrefLang":"en-US","originalPath":"/tags/hacker-news/page/31","dateFormat":"MM/DD/YYYY"}},"staticQueryHashes":["1239077767","2506312863","2744905544","3025052997","3493603132","3493603132","3513215887","386998304"]}