{"componentChunkName":"component---gatsby-theme-buzzing-src-gatsby-theme-timeline-templates-posts-query-js","path":"/zh-Hant/tags/hacker-news/page/19","result":{"data":{"site":{"siteMetadata":{"title":"Reddit 热门","description":"用中文浏览Reddit热门内容","social":[{"name":"Reddit","url":"https://www.reddit.com/","external":true,"prefetch":null},{"name":"GitHub","url":"https://github.com/gatsbyjs","external":null,"prefetch":null}],"menuLinks":[{"name":"每周精选","url":"/issues","external":null,"prefetch":null},{"name":"RSS","url":"/rss.xml","external":null,"prefetch":false}],"localize":[{"locale":"en","title":"Buzzing on Reddit","description":"See what's buzzing on Reddit in your native language","social":[{"name":"Reddit","url":"https://www.reddit.com/","external":true,"prefetch":null}],"menuLinks":[{"name":"Weekly Selection","url":"/issues","external":null,"prefetch":null},{"name":"RSS","url":"/rss.xml","external":null,"prefetch":false}]},{"locale":"zh-Hant","title":"Reddit 熱門","description":"用中文瀏覽Reddit熱門內容","social":null,"menuLinks":null}]}},"tagsGroup":{"group":[{"fieldValue":"ASK HN","totalCount":19},{"fieldValue":"Bitcoin","totalCount":3},{"fieldValue":"Hacker News","totalCount":801},{"fieldValue":"Poll","totalCount":1},{"fieldValue":"Show HN","totalCount":31},{"fieldValue":"investing","totalCount":166},{"fieldValue":"poll","totalCount":1},{"fieldValue":"reddit","totalCount":594},{"fieldValue":"science","totalCount":1},{"fieldValue":"stocks","totalCount":277},{"fieldValue":"story","totalCount":800},{"fieldValue":"tweet","totalCount":243},{"fieldValue":"wallstreetbets","totalCount":151}]},"allBlogPost":{"nodes":[{"__typename":"SocialMediaPost","id":"HnPost-25528493","excerpt":"","slug":"/hn/25528493","title":"The Google Fitbit Deal: Hazardous to competition, privacy, and our health [pdf]","date":"December 24, 2020","dateISO":"2020-12-24T18:30:17.609Z","datetime":"2020-12-24 18:30","tags":["story","Hacker News"],"image":null,"imageAlt":null,"provider":"Hacker News","thirdPartyId":"25528493","url":"https://news.ycombinator.com/item?id=25528493","originalUrl":"https://www.democraticmedia.org/sites/default/files/field/public-files/2020/googlefitbitdeal020820.pdf","imageRemote":null,"video":null,"channel":null,"channelUrl":null,"author":"lawrenceyan","authorUrl":"https://news.ycombinator.com/user?id=lawrenceyan","authorImage":null,"authorSlug":null,"score":110,"views":null,"sharedCount":null,"likeCount":null,"sharedContent":null,"parent":{"__typename":"HnJson","localize":[{"title":"谷歌Fitbit交易：对竞争、隐私和我们的健康有害[pdf]","locale":"zh"},{"title":"谷歌Fitbit交易：對競爭、隱私和我們的健康有害[pdf]","locale":"zh-Hant"}]}},{"__typename":"SocialMediaPost","id":"HnPost-25527448","excerpt":"","slug":"/hn/25527448","title":"Magician-turned-mathematician uncovers bias in coin flipping (2004)","date":"December 24, 2020","dateISO":"2020-12-24T17:55:32.930Z","datetime":"2020-12-24 17:55","tags":["story","Hacker News"],"image":null,"imageAlt":null,"provider":"Hacker News","thirdPartyId":"25527448","url":"https://news.ycombinator.com/item?id=25527448","originalUrl":"https://news.stanford.edu/pr/2004/diaconis-69.html","imageRemote":"http://www.stanford.edu/images/spacer.gif","video":null,"channel":null,"channelUrl":null,"author":"keithwhor","authorUrl":"https://news.ycombinator.com/user?id=keithwhor","authorImage":null,"authorSlug":null,"score":240,"views":null,"sharedCount":null,"likeCount":null,"sharedContent":null,"parent":{"__typename":"HnJson","localize":[{"title":"魔术师出身的数学家揭开了抛硬币的偏见(2004)","locale":"zh"},{"title":"魔術師出身的數學家揭開了拋硬幣的偏見(2004)","locale":"zh-Hant"}]}},{"__typename":"SocialMediaPost","id":"HnPost-25526104","excerpt":"","slug":"/hn/25526104","title":"The Mystery of Deceased Hiker ‘Mostly Harmless’ Is at Long Last Solved","date":"December 24, 2020","dateISO":"2020-12-24T16:59:43.006Z","datetime":"2020-12-24 16:59","tags":["story","Hacker News"],"image":null,"imageAlt":null,"provider":"Hacker News","thirdPartyId":"25526104","url":"https://news.ycombinator.com/item?id=25526104","originalUrl":"https://www.adventure-journal.com/2020/12/the-mystery-of-deceased-hiker-mostly-harmless-is-at-long-last-solved/","imageRemote":"https://www.adventure-journal.com/wp-content/uploads/2020/12/Screen-Shot-2020-12-17-at-1.32.32-PM-1.png","video":null,"channel":null,"channelUrl":null,"author":"rdegges","authorUrl":"https://news.ycombinator.com/user?id=rdegges","authorImage":null,"authorSlug":null,"score":179,"views":null,"sharedCount":null,"likeCount":null,"sharedContent":null,"parent":{"__typename":"HnJson","localize":[{"title":"已故徒步旅行者“基本无害”之谜终于揭开","locale":"zh"},{"title":"已故徒步旅行者“基本無害”之謎終於揭開","locale":"zh-Hant"}]}},{"__typename":"SocialMediaPost","id":"HnPost-25525457","excerpt":"","slug":"/hn/25525457","title":"Ask HN: What Lived Up to the Hype?","date":"December 24, 2020","dateISO":"2020-12-24T16:04:47.202Z","datetime":"2020-12-24 16:04","tags":["story","ASK HN","Hacker News"],"image":null,"imageAlt":null,"provider":"Hacker News","thirdPartyId":"25525457","url":"https://news.ycombinator.com/item?id=25525457","originalUrl":"https://news.ycombinator.com/item?id=25525457","imageRemote":null,"video":null,"channel":"ASK HN","channelUrl":"https://news.ycombinator.com/ask","author":"karamazov","authorUrl":"https://news.ycombinator.com/user?id=karamazov","authorImage":null,"authorSlug":null,"score":423,"views":null,"sharedCount":null,"likeCount":null,"sharedContent":null,"parent":{"__typename":"HnJson","localize":[{"title":"HN提问：是什么没有辜负炒作？","locale":"zh"},{"title":"HN提問：是什麼沒有辜負炒作？","locale":"zh-Hant"}]}},{"__typename":"SocialMediaPost","id":"HnPost-25517411","excerpt":"","slug":"/hn/25517411","title":"Octopuses Like to Punch Fish","date":"December 24, 2020","dateISO":"2020-12-24T14:54:57.007Z","datetime":"2020-12-24 14:54","tags":["story","Hacker News"],"image":null,"imageAlt":null,"provider":"Hacker News","thirdPartyId":"25517411","url":"https://news.ycombinator.com/item?id=25517411","originalUrl":"https://gizmodo.com/octopuses-like-to-punch-fish-new-research-suggests-1845929379","imageRemote":"https://i.kinja-img.com/gawker-media/image/upload/c_fill,f_auto,fl_progressive,g_center,h_675,pg_1,q_80,w_1200/xvtwcg0kb0nwz6vhvfiu.gif","video":null,"channel":null,"channelUrl":null,"author":"CapitalistCartr","authorUrl":"https://news.ycombinator.com/user?id=CapitalistCartr","authorImage":null,"authorSlug":null,"score":160,"views":null,"sharedCount":null,"likeCount":null,"sharedContent":null,"parent":{"__typename":"HnJson","localize":[{"title":"章鱼喜欢打鱼","locale":"zh"},{"title":"章魚喜歡打魚","locale":"zh-Hant"}]}},{"__typename":"SocialMediaPost","id":"HnPost-25526675","excerpt":"","slug":"/hn/25526675","title":"The Mayron Cole Piano Method is now free","date":"December 24, 2020","dateISO":"2020-12-24T14:38:53.835Z","datetime":"2020-12-24 14:38","tags":["story","Hacker News"],"image":null,"imageAlt":null,"provider":"Hacker News","thirdPartyId":"25526675","url":"https://news.ycombinator.com/item?id=25526675","originalUrl":"https://www.freepianomethod.com/","imageRemote":"https://www.freepianomethod.com/images/girl%20in%20swing%20color.jpg?crc=169254206","video":null,"channel":null,"channelUrl":null,"author":"jacquesm","authorUrl":"https://news.ycombinator.com/user?id=jacquesm","authorImage":null,"authorSlug":null,"score":412,"views":null,"sharedCount":null,"likeCount":null,"sharedContent":null,"parent":{"__typename":"HnJson","localize":[{"title":"梅朗·科尔钢琴方法现在是免费的","locale":"zh"},{"title":"梅朗·科爾鋼琴方法現在是免費的","locale":"zh-Hant"}]}},{"__typename":"SocialMediaPost","id":"HnPost-25527121","excerpt":"","slug":"/hn/25527121","title":"BMW to shame out-of-warranty UK drivers with smart billboards","date":"December 24, 2020","dateISO":"2020-12-24T14:38:53.835Z","datetime":"2020-12-24 14:38","tags":["story","Hacker News"],"image":null,"imageAlt":null,"provider":"Hacker News","thirdPartyId":"25527121","url":"https://news.ycombinator.com/item?id=25527121","originalUrl":"https://www.thedrive.com/news/38406/bmw-will-publicly-shame-out-of-warranty-drivers-with-smart-billboards-and-license-plate-readers","imageRemote":"https://api.thedrive.com/wp-content/uploads/2020/12/bmw_970x546.jpg?quality=85","video":null,"channel":null,"channelUrl":null,"author":"samizdis","authorUrl":"https://news.ycombinator.com/user?id=samizdis","authorImage":null,"authorSlug":null,"score":267,"views":null,"sharedCount":null,"likeCount":null,"sharedContent":null,"parent":{"__typename":"HnJson","localize":[{"title":"宝马将用智能广告牌羞辱超过保修期的英国司机","locale":"zh"},{"title":"寶馬將用智能廣告牌羞辱超過保修期的英國司機","locale":"zh-Hant"}]}},{"__typename":"SocialMediaPost","id":"HnPost-25525726","excerpt":"","slug":"/hn/25525726","title":"A perceptual color space for image processing","date":"December 24, 2020","dateISO":"2020-12-24T13:54:35.849Z","datetime":"2020-12-24 13:54","tags":["story","Hacker News"],"image":null,"imageAlt":null,"provider":"Hacker News","thirdPartyId":"25525726","url":"https://news.ycombinator.com/item?id=25525726","originalUrl":"https://bottosson.github.io/posts/oklab/","imageRemote":"https://bottosson.github.io/img/oklab/hue_oklab.png,https://bottosson.github.io/img/oklab/hue_hsv.png,https://bottosson.github.io/img/oklab/hue_hsv_lightness.png,https://bottosson.github.io/img/oklab/oklab_munsell.png,https://bottosson.github.io/img/oklab/cielab_munsell.png,https://bottosson.github.io/img/oklab/cieluv_munsell.png,https://bottosson.github.io/img/oklab/osa_munsell.png,https://bottosson.github.io/img/oklab/ipt_munsell.png,https://bottosson.github.io/img/oklab/jzazbz_munsell.png,https://bottosson.github.io/img/oklab/hsv_munsell.png,https://bottosson.github.io/img/oklab/cam16_munsell.png,https://bottosson.github.io/img/oklab/oklab_luo_rigg.png,https://bottosson.github.io/img/oklab/cielab_luo_rigg.png,https://bottosson.github.io/img/oklab/cieluv_luo_rigg.png,https://bottosson.github.io/img/oklab/osa_luo_rigg.png,https://bottosson.github.io/img/oklab/ipt_luo_rigg.png,https://bottosson.github.io/img/oklab/jzazbz_luo_rigg.png,https://bottosson.github.io/img/oklab/cam16_luo_rigg.png,https://bottosson.github.io/img/oklab/oklab_blend.png,https://bottosson.github.io/img/oklab/cielab_blend.png,https://bottosson.github.io/img/oklab/cieluv_blend.png,https://bottosson.github.io/img/oklab/osa_blend.png,https://bottosson.github.io/img/oklab/ipt_blend.png,https://bottosson.github.io/img/oklab/jzazbz_blend.png,https://bottosson.github.io/img/oklab/hsv_blend.png,https://bottosson.github.io/img/oklab/cam16_blend.png","video":null,"channel":null,"channelUrl":null,"author":"ingve","authorUrl":"https://news.ycombinator.com/user?id=ingve","authorImage":null,"authorSlug":null,"score":234,"views":null,"sharedCount":null,"likeCount":null,"sharedContent":null,"parent":{"__typename":"HnJson","localize":[{"title":"一种用于图像处理的感知颜色空间","locale":"zh"},{"title":"一種用於圖像處理的感知顏色空間","locale":"zh-Hant"}]}},{"__typename":"SocialMediaPost","id":"HnPost-25522395","excerpt":"","slug":"/hn/25522395","title":"Visions of Alt-Berlin in “Man in the High Castle” (2017)","date":"December 24, 2020","dateISO":"2020-12-24T13:39:33.276Z","datetime":"2020-12-24 13:39","tags":["story","Hacker News"],"image":null,"imageAlt":null,"provider":"Hacker News","thirdPartyId":"25522395","url":"https://news.ycombinator.com/item?id=25522395","originalUrl":"https://mitsap.medium.com/visions-of-alt-berlin-in-man-in-the-high-castle-no-spoilers-b3beaba77984","imageRemote":"https://miro.medium.com/max/1200/1*5LuSjQTpicLwyLU2rD8Hwg.png","video":null,"channel":null,"channelUrl":null,"author":"tintinnabula","authorUrl":"https://news.ycombinator.com/user?id=tintinnabula","authorImage":null,"authorSlug":null,"score":108,"views":null,"sharedCount":null,"likeCount":null,"sharedContent":null,"parent":{"__typename":"HnJson","localize":[{"title":"《高堡里的人》(2017)中阿尔特-柏林的愿景","locale":"zh"},{"title":"《高堡裏的人》(2017)中阿爾特-柏林的願景","locale":"zh-Hant"}]}},{"__typename":"SocialMediaPost","id":"HnPost-25526237","excerpt":"","slug":"/hn/25526237","title":"Fish is not operational on a vt220 terminal (2015)","date":"December 24, 2020","dateISO":"2020-12-24T13:39:33.276Z","datetime":"2020-12-24 13:39","tags":["story","Hacker News"],"image":null,"imageAlt":null,"provider":"Hacker News","thirdPartyId":"25526237","url":"https://news.ycombinator.com/item?id=25526237","originalUrl":"https://github.com/fish-shell/fish-shell/issues/2559","imageRemote":"https://avatars0.githubusercontent.com/u/1828073?s=400&v=4","video":null,"channel":null,"channelUrl":null,"author":"harporoeder","authorUrl":"https://news.ycombinator.com/user?id=harporoeder","authorImage":null,"authorSlug":null,"score":226,"views":null,"sharedCount":null,"likeCount":null,"sharedContent":null,"parent":{"__typename":"HnJson","localize":[{"title":"VT220终端上的FISH无法运行(2015)","locale":"zh"},{"title":"VT220終端上的FISH無法運行(2015)","locale":"zh-Hant"}]}},{"__typename":"SocialMediaPost","id":"HnPost-25517043","excerpt":"","slug":"/hn/25517043","title":"BlocklySQL: A new block-based editor for SQL","date":"December 24, 2020","dateISO":"2020-12-24T12:31:34.700Z","datetime":"2020-12-24 12:31","tags":["story","Hacker News"],"image":null,"imageAlt":null,"provider":"Hacker News","thirdPartyId":"25517043","url":"https://news.ycombinator.com/item?id=25517043","originalUrl":"https://www.dbinf.informatik.uni-wuerzburg.de/google-blockly-4efa0da/sql/index.html","imageRemote":"https://www.dbinf.informatik.uni-wuerzburg.de/classicmodels/classicmodels.JPG","video":null,"channel":null,"channelUrl":null,"author":"leeuw01","authorUrl":"https://news.ycombinator.com/user?id=leeuw01","authorImage":null,"authorSlug":null,"score":128,"views":null,"sharedCount":null,"likeCount":null,"sharedContent":null,"parent":{"__typename":"HnJson","localize":[{"title":"BlocklySQL：一个新的基于挡路的SQL编辑器","locale":"zh"},{"title":"BlocklySQL：一個新的基於擋路的SQL編輯器","locale":"zh-Hant"}]}},{"__typename":"SocialMediaPost","id":"HnPost-25525400","excerpt":"","slug":"/hn/25525400","title":"Covid: France rewards frontline immigrant workers with citizenship","date":"December 24, 2020","dateISO":"2020-12-24T12:31:34.699Z","datetime":"2020-12-24 12:31","tags":["story","Hacker News"],"image":null,"imageAlt":null,"provider":"Hacker News","thirdPartyId":"25525400","url":"https://news.ycombinator.com/item?id=25525400","originalUrl":"https://www.bbc.com/news/world-europe-55423257","imageRemote":"https://ichef.bbci.co.uk/news/1024/branded_news/148C2/production/_116226148_gettyimages-1229825407.jpg","video":null,"channel":null,"channelUrl":null,"author":"williamsharris","authorUrl":"https://news.ycombinator.com/user?id=williamsharris","authorImage":null,"authorSlug":null,"score":124,"views":null,"sharedCount":null,"likeCount":null,"sharedContent":null,"parent":{"__typename":"HnJson","localize":[{"title":"Covid：法国奖励一线移民工人公民身份","locale":"zh"},{"title":"Covid：法國獎勵一線移民工人公民身份","locale":"zh-Hant"}]}},{"__typename":"SocialMediaPost","id":"HnPost-25516430","excerpt":"","slug":"/hn/25516430","title":"Building My Own Chess Engine","date":"December 24, 2020","dateISO":"2020-12-24T10:58:19.693Z","datetime":"2020-12-24 10:58","tags":["story","Hacker News"],"image":null,"imageAlt":null,"provider":"Hacker News","thirdPartyId":"25516430","url":"https://news.ycombinator.com/item?id=25516430","originalUrl":"https://healeycodes.com/building-my-own-chess-engine/","imageRemote":"https://healeycodes.com/static/16badfa7b5cd2a0f9976e6df8e06d313/6050d/og-image.png","video":null,"channel":null,"channelUrl":null,"author":"rbanffy","authorUrl":"https://news.ycombinator.com/user?id=rbanffy","authorImage":null,"authorSlug":null,"score":189,"views":null,"sharedCount":null,"likeCount":null,"sharedContent":null,"parent":{"__typename":"HnJson","localize":[{"title":"打造自己的国际象棋引擎","locale":"zh"},{"title":"打造自己的國際象棋引擎","locale":"zh-Hant"}]}},{"__typename":"SocialMediaPost","id":"HnPost-25522835","excerpt":"","slug":"/hn/25522835","title":"PureOS: Freedom, Privacy, and Security","date":"December 24, 2020","dateISO":"2020-12-24T10:58:19.692Z","datetime":"2020-12-24 10:58","tags":["story","Hacker News"],"image":null,"imageAlt":null,"provider":"Hacker News","thirdPartyId":"25522835","url":"https://news.ycombinator.com/item?id=25522835","originalUrl":"https://lwn.net/SubscriberLink/841105/d99c445b4aca536f/","imageRemote":"https://static.lwn.net/images/logo/barepenguin-70.png","video":null,"channel":null,"channelUrl":null,"author":"leephillips","authorUrl":"https://news.ycombinator.com/user?id=leephillips","authorImage":null,"authorSlug":null,"score":131,"views":null,"sharedCount":null,"likeCount":null,"sharedContent":null,"parent":{"__typename":"HnJson","localize":[{"title":"PureOS：自由、隐私和安全","locale":"zh"},{"title":"PureOS：自由、隱私和安全","locale":"zh-Hant"}]}},{"__typename":"SocialMediaPost","id":"HnPost-25516459","excerpt":"","slug":"/hn/25516459","title":"PC DOS Reimagined","date":"December 24, 2020","dateISO":"2020-12-24T10:03:26.665Z","datetime":"2020-12-24 10:03","tags":["story","Hacker News"],"image":null,"imageAlt":null,"provider":"Hacker News","thirdPartyId":"25516459","url":"https://news.ycombinator.com/item?id=25516459","originalUrl":"https://www.pcjs.org/blog/2020/12/22/","imageRemote":"https://basicdos.com/assets/images/BASIC-DOS-Cover.gif","video":null,"channel":null,"channelUrl":null,"author":"ingve","authorUrl":"https://news.ycombinator.com/user?id=ingve","authorImage":null,"authorSlug":null,"score":115,"views":null,"sharedCount":null,"likeCount":null,"sharedContent":null,"parent":{"__typename":"HnJson","localize":[{"title":"PC DOS重塑","locale":"zh"},{"title":"PC DOS重塑","locale":"zh-Hant"}]}},{"__typename":"SocialMediaPost","id":"HnPost-25525290","excerpt":"","slug":"/hn/25525290","title":"Fantasy UI","date":"December 24, 2020","dateISO":"2020-12-24T09:42:12.726Z","datetime":"2020-12-24 09:42","tags":["story","Hacker News"],"image":null,"imageAlt":null,"provider":"Hacker News","thirdPartyId":"25525290","url":"https://news.ycombinator.com/item?id=25525290","originalUrl":"https://www.pushing-pixels.org/fui/","imageRemote":"https://www.pushing-pixels.org/fui/images/primary/steven-bussey.jpg","video":null,"channel":null,"channelUrl":null,"author":"ujeezy","authorUrl":"https://news.ycombinator.com/user?id=ujeezy","authorImage":null,"authorSlug":null,"score":459,"views":null,"sharedCount":null,"likeCount":null,"sharedContent":null,"parent":{"__typename":"HnJson","localize":[{"title":"梦幻用户界面","locale":"zh"},{"title":"夢幻用戶界面","locale":"zh-Hant"}]}},{"__typename":"SocialMediaPost","id":"HnPost-25515905","excerpt":"","slug":"/hn/25515905","title":"Real Time Continuous Blood Monitoring","date":"December 24, 2020","dateISO":"2020-12-24T07:00:48.341Z","datetime":"2020-12-24 07:00","tags":["story","Hacker News"],"image":null,"imageAlt":null,"provider":"Hacker News","thirdPartyId":"25515905","url":"https://news.ycombinator.com/item?id=25515905","originalUrl":"https://news.stanford.edu/2020/12/21/new-blood-test-device-monitors-blood-chemistry-continually/","imageRemote":"https://news-media.stanford.edu/wp-content/uploads/2020/12/08114359/proteinator.jpg","video":null,"channel":null,"channelUrl":null,"author":"KukiAirani","authorUrl":"https://news.ycombinator.com/user?id=KukiAirani","authorImage":null,"authorSlug":null,"score":121,"views":null,"sharedCount":null,"likeCount":null,"sharedContent":null,"parent":{"__typename":"HnJson","localize":[{"title":"实时连续血液监测","locale":"zh"},{"title":"實時連續血液監測","locale":"zh-Hant"}]}},{"__typename":"SocialMediaPost","id":"HnPost-25524472","excerpt":"","slug":"/hn/25524472","title":"Snapdrop – AirDrop equivalent through a web browser using WebRTC","date":"December 24, 2020","dateISO":"2020-12-24T06:32:33.009Z","datetime":"2020-12-24 06:32","tags":["story","Hacker News"],"image":null,"imageAlt":null,"provider":"Hacker News","thirdPartyId":"25524472","url":"https://news.ycombinator.com/item?id=25524472","originalUrl":"https://snapdrop.net","imageRemote":"https://snapdrop.net/images/twitter-stream.jpg","video":null,"channel":null,"channelUrl":null,"author":"gjsman-1000","authorUrl":"https://news.ycombinator.com/user?id=gjsman-1000","authorImage":null,"authorSlug":null,"score":525,"views":null,"sharedCount":null,"likeCount":null,"sharedContent":null,"parent":{"__typename":"HnJson","localize":[{"title":"SnapDrop-通过使用WebRTC的Web浏览器实现的AirDrop等效物","locale":"zh"},{"title":"SnapDrop-通過使用WebRTC的Web瀏覽器實現的AirDrop等效物","locale":"zh-Hant"}]}},{"__typename":"SocialMediaPost","id":"HnPost-25523768","excerpt":"","slug":"/hn/25523768","title":"Datasette.io, an official project website for Datasette","date":"December 24, 2020","dateISO":"2020-12-24T05:43:17.890Z","datetime":"2020-12-24 05:43","tags":["story","Hacker News"],"image":null,"imageAlt":null,"provider":"Hacker News","thirdPartyId":"25523768","url":"https://news.ycombinator.com/item?id=25523768","originalUrl":"https://simonwillison.net/2020/Dec/13/datasette-io/","imageRemote":"https://static.simonwillison.net/static/2020/datasette-io.png","video":null,"channel":null,"channelUrl":null,"author":"tosh","authorUrl":"https://news.ycombinator.com/user?id=tosh","authorImage":null,"authorSlug":null,"score":206,"views":null,"sharedCount":null,"likeCount":null,"sharedContent":null,"parent":{"__typename":"HnJson","localize":[{"title":"Datasette.io，Datasette.io是Datasette的官方项目网站","locale":"zh"},{"title":"Datasette.io，Datasette.io是Datasette的官方項目網站","locale":"zh-Hant"}]}},{"__typename":"SocialMediaPost","id":"HnPost-25520639","excerpt":"","slug":"/hn/25520639","title":"Build a tiny certificate authority for your homelab","date":"December 24, 2020","dateISO":"2020-12-24T04:49:43.180Z","datetime":"2020-12-24 04:49","tags":["story","Hacker News"],"image":null,"imageAlt":null,"provider":"Hacker News","thirdPartyId":"25520639","url":"https://news.ycombinator.com/item?id=25520639","originalUrl":"https://smallstep.com/blog/build-a-tiny-ca-with-raspberry-pi-yubikey/","imageRemote":"https://smallstep.com/images/blog/tiny-ca-unfurl.png","video":null,"channel":null,"channelUrl":null,"author":"fanf2","authorUrl":"https://news.ycombinator.com/user?id=fanf2","authorImage":null,"authorSlug":null,"score":193,"views":null,"sharedCount":null,"likeCount":null,"sharedContent":null,"parent":{"__typename":"HnJson","localize":[{"title":"为您的家庭实验室构建一个小型证书颁发机构","locale":"zh"},{"title":"爲您的家庭實驗室構建一個小型證書頒發機構","locale":"zh-Hant"}]}},{"__typename":"SocialMediaPost","id":"HnPost-25521679","excerpt":"","slug":"/hn/25521679","title":"Going All in on the Mac App Store","date":"December 24, 2020","dateISO":"2020-12-24T03:49:41.585Z","datetime":"2020-12-24 03:49","tags":["story","Hacker News"],"image":null,"imageAlt":null,"provider":"Hacker News","thirdPartyId":"25521679","url":"https://news.ycombinator.com/item?id=25521679","originalUrl":"https://www.unboundapp.com/blog/mac-app-store/","imageRemote":"https://www.unboundapp.com/images/la-jolla-web.jpg","video":null,"channel":null,"channelUrl":null,"author":"s3cur3","authorUrl":"https://news.ycombinator.com/user?id=s3cur3","authorImage":null,"authorSlug":null,"score":127,"views":null,"sharedCount":null,"likeCount":null,"sharedContent":null,"parent":{"__typename":"HnJson","localize":[{"title":"全力以赴在Mac应用商店上下注","locale":"zh"},{"title":"全力以赴在Mac應用商店上下注","locale":"zh-Hant"}]}},{"__typename":"SocialMediaPost","id":"HnPost-25521138","excerpt":"","slug":"/hn/25521138","title":"Jepsen: Scylla 4.2-rc3","date":"December 24, 2020","dateISO":"2020-12-24T02:16:59.834Z","datetime":"2020-12-24 02:16","tags":["story","Hacker News"],"image":null,"imageAlt":null,"provider":"Hacker News","thirdPartyId":"25521138","url":"https://news.ycombinator.com/item?id=25521138","originalUrl":"https://jepsen.io/analyses/scylla-4.2-rc3","imageRemote":"https://jepsen.io/images/file-pdf.svg","video":null,"channel":null,"channelUrl":null,"author":"aphyr","authorUrl":"https://news.ycombinator.com/user?id=aphyr","authorImage":null,"authorSlug":null,"score":171,"views":null,"sharedCount":null,"likeCount":null,"sharedContent":null,"parent":{"__typename":"HnJson","localize":[{"title":"杰普森：“锡拉4.2-RC3”","locale":"zh"},{"title":"傑普森：“錫拉4.2-RC3”","locale":"zh-Hant"}]}},{"__typename":"SocialMediaPost","id":"HnPost-25517050","excerpt":"","slug":"/hn/25517050","title":"Interactive C++ for Data Science","date":"December 24, 2020","dateISO":"2020-12-24T01:14:38.345Z","datetime":"2020-12-24 01:14","tags":["story","Hacker News"],"image":null,"imageAlt":null,"provider":"Hacker News","thirdPartyId":"25517050","url":"https://news.ycombinator.com/item?id=25517050","originalUrl":"https://blog.llvm.org/posts/2020-12-21-interactive-cpp-for-data-science/","imageRemote":"https://blog.llvm.org/img/cling-2020-12-21-figure1.png","video":null,"channel":null,"channelUrl":null,"author":"Bootvis","authorUrl":"https://news.ycombinator.com/user?id=Bootvis","authorImage":null,"authorSlug":null,"score":156,"views":null,"sharedCount":null,"likeCount":null,"sharedContent":null,"parent":{"__typename":"HnJson","localize":[{"title":"用于数据科学的交互式C++","locale":"zh"},{"title":"用於數據科學的交互式C++","locale":"zh-Hant"}]}},{"__typename":"SocialMediaPost","id":"HnPost-25520549","excerpt":"","slug":"/hn/25520549","title":"Web Authentication Methods Compared","date":"December 24, 2020","dateISO":"2020-12-24T01:14:38.345Z","datetime":"2020-12-24 01:14","tags":["story","Hacker News"],"image":null,"imageAlt":null,"provider":"Hacker News","thirdPartyId":"25520549","url":"https://news.ycombinator.com/item?id=25520549","originalUrl":"https://testdriven.io/blog/web-authentication-methods/","imageRemote":"https://testdriven.io/static/images/blog/web-authentication-methods/web_authentication_methods.png","video":null,"channel":null,"channelUrl":null,"author":"luord","authorUrl":"https://news.ycombinator.com/user?id=luord","authorImage":null,"authorSlug":null,"score":180,"views":null,"sharedCount":null,"likeCount":null,"sharedContent":null,"parent":{"__typename":"HnJson","localize":[{"title":"比较Web身份验证方法","locale":"zh"},{"title":"比較Web身份驗證方法","locale":"zh-Hant"}]}},{"__typename":"SocialMediaPost","id":"HnPost-25519176","excerpt":"","slug":"/hn/25519176","title":"MuZero: Mastering Go, chess, shogi and Atari without rules","date":"December 23, 2020","dateISO":"2020-12-23T23:35:56.001Z","datetime":"2020-12-23 23:35","tags":["story","Hacker News"],"image":null,"imageAlt":null,"provider":"Hacker News","thirdPartyId":"25519176","url":"https://news.ycombinator.com/item?id=25519176","originalUrl":"https://deepmind.com/blog/article/muzero-mastering-go-chess-shogi-and-atari-without-rules","imageRemote":"https://lh3.googleusercontent.com/1_D5dKtTSzSN2-CemHJHMiQzJVV5slBcVZMkBQKZQUV80JvlsKPRpuInNpCoxg5uMSNB3k0lg1ZmmSRQ-sq5THfQJW5VcqovJVKXMw","video":null,"channel":null,"channelUrl":null,"author":"johannesha","authorUrl":"https://news.ycombinator.com/user?id=johannesha","authorImage":null,"authorSlug":null,"score":196,"views":null,"sharedCount":null,"likeCount":null,"sharedContent":null,"parent":{"__typename":"HnJson","localize":[{"title":"MuZero：在没有规则的情况下掌握围棋、国际象棋、幕府和雅达利","locale":"zh"},{"title":"MuZero：在沒有規則的情況下掌握圍棋、國際象棋、幕府和雅達利","locale":"zh-Hant"}]}}]}},"pageContext":{"basePath":"/","pageType":"tag","tag":"Hacker News","tagsFilter":{"id":{"glob":"!*Post-1"}},"filter":{"id":{"glob":"!*Post-1"},"tags":{"eq":"Hacker News"}},"limit":25,"skip":450,"total":801,"totalPages":33,"currentPage":19,"maxWidth":1024,"maxHeight":512,"locale":"zh-Hant","hrefLang":"zh-Hant","originalPath":"/tags/hacker-news/page/19","dateFormat":"YYYY-MM-DD"}},"staticQueryHashes":["1239077767","2506312863","2744905544","3493603132","3493603132","3513215887","386998304"]}