{"componentChunkName":"component---gatsby-theme-buzzing-src-gatsby-theme-timeline-templates-posts-query-js","path":"/en/tags/story/page/12","result":{"data":{"site":{"siteMetadata":{"title":"Reddit 热门","description":"用中文浏览Reddit热门内容","social":[{"name":"Twitter","url":"https://twitter.com/gatsbyjs","external":null,"prefetch":null},{"name":"GitHub","url":"https://github.com/gatsbyjs","external":null,"prefetch":null}],"menuLinks":[],"localize":[{"locale":"en","title":"Buzzing on Reddit","description":"See what's buzzing on Reddit in your native language","social":[{"name":"Reddit","url":"https://www.reddit.com/","external":true,"prefetch":null}],"menuLinks":[{"name":"Weekly Selection","url":"/issues","external":null,"prefetch":null},{"name":"RSS","url":"/rss.xml","external":null,"prefetch":false}]},{"locale":"zh-Hant","title":"Reddit 熱門","description":"用中文瀏覽Reddit熱門內容","social":null,"menuLinks":null}]}},"tagsGroup":{"group":[{"fieldValue":"ASK HN","totalCount":23},{"fieldValue":"Bitcoin","totalCount":3},{"fieldValue":"Hacker News","totalCount":974},{"fieldValue":"Poll","totalCount":1},{"fieldValue":"Show HN","totalCount":35},{"fieldValue":"investing","totalCount":209},{"fieldValue":"poll","totalCount":1},{"fieldValue":"reddit","totalCount":891},{"fieldValue":"science","totalCount":1},{"fieldValue":"stocks","totalCount":370},{"fieldValue":"story","totalCount":973},{"fieldValue":"tweet","totalCount":285},{"fieldValue":"wallstreetbets","totalCount":312}]},"allBlogPost":{"nodes":[{"__typename":"SocialMediaPost","id":"HnPost-25642062","excerpt":"","slug":"/hn/25642062","title":"A distributed key value store in under 1000 lines","date":"January 05, 2021","dateISO":"2021-01-05T17:09:01.959Z","datetime":"2021-01-05 17:09","tags":["story","Hacker News"],"image":null,"imageAlt":null,"provider":"Hacker News","thirdPartyId":"25642062","url":"https://news.ycombinator.com/item?id=25642062","originalUrl":"https://github.com/geohot/minikeyvalue","imageRemote":"https://avatars2.githubusercontent.com/u/72895?s=400&v=4","video":null,"channel":null,"channelUrl":null,"author":"Triv888","authorUrl":"https://news.ycombinator.com/user?id=Triv888","authorImage":null,"authorSlug":null,"score":187,"views":null,"sharedCount":null,"likeCount":null,"sharedContent":null,"parent":{"__typename":"HnJson","localize":[{"title":"分布式密钥值存储在1000行以下","locale":"zh"},{"title":"分佈式密鑰值存儲在1000行以下","locale":"zh-Hant"}]}},{"__typename":"SocialMediaPost","id":"HnPost-25644964","excerpt":"","slug":"/hn/25644964","title":"Termux no longer updated on Google Play","date":"January 05, 2021","dateISO":"2021-01-05T17:09:01.958Z","datetime":"2021-01-05 17:09","tags":["story","Hacker News"],"image":null,"imageAlt":null,"provider":"Hacker News","thirdPartyId":"25644964","url":"https://news.ycombinator.com/item?id=25644964","originalUrl":"https://wiki.termux.com/wiki/Termux_Google_Play","imageRemote":null,"video":null,"channel":null,"channelUrl":null,"author":"martinlaz","authorUrl":"https://news.ycombinator.com/user?id=martinlaz","authorImage":null,"authorSlug":null,"score":361,"views":null,"sharedCount":null,"likeCount":null,"sharedContent":null,"parent":{"__typename":"HnJson","localize":[{"title":"Termux在Google Play上不再更新","locale":"zh"},{"title":"Termux在Google Play上不再更新","locale":"zh-Hant"}]}},{"__typename":"SocialMediaPost","id":"HnPost-25641205","excerpt":"","slug":"/hn/25641205","title":"Descript – A collaborative audio/video editor that works like a doc","date":"January 05, 2021","dateISO":"2021-01-05T15:32:13.088Z","datetime":"2021-01-05 15:32","tags":["story","Hacker News"],"image":null,"imageAlt":null,"provider":"Hacker News","thirdPartyId":"25641205","url":"https://news.ycombinator.com/item?id=25641205","originalUrl":"https://www.descript.com/","imageRemote":"https://assets-global.website-files.com/5d761d627a6dfa6a5b28ab12/5d761d627a6dfa6c3f28ab40_descript-logo.svg","video":null,"channel":null,"channelUrl":null,"author":"zaroth","authorUrl":"https://news.ycombinator.com/user?id=zaroth","authorImage":null,"authorSlug":null,"score":208,"views":null,"sharedCount":null,"likeCount":null,"sharedContent":null,"parent":{"__typename":"HnJson","localize":[{"title":"描述-像文档一样工作的协作式音频/视频编辑器","locale":"zh"},{"title":"描述-像文檔一樣工作的協作式音頻/視頻編輯器","locale":"zh-Hant"}]}},{"__typename":"SocialMediaPost","id":"HnPost-25642486","excerpt":"","slug":"/hn/25642486","title":"EFF to FinCEN: Stop Pushing for More Financial Surveillance","date":"January 05, 2021","dateISO":"2021-01-05T14:41:31.036Z","datetime":"2021-01-05 14:41","tags":["story","Hacker News"],"image":null,"imageAlt":null,"provider":"Hacker News","thirdPartyId":"25642486","url":"https://news.ycombinator.com/item?id=25642486","originalUrl":"https://www.eff.org/deeplinks/2021/01/eff-fincen-stop-pushing-more-financial-surveillance","imageRemote":"https://www.eff.org/files/banner_library/block-chain-1.png","video":null,"channel":null,"channelUrl":null,"author":"panarky","authorUrl":"https://news.ycombinator.com/user?id=panarky","authorImage":null,"authorSlug":null,"score":194,"views":null,"sharedCount":null,"likeCount":null,"sharedContent":null,"parent":{"__typename":"HnJson","localize":[{"title":"EFF to FinCEN：停止推动更多的金融监管","locale":"zh"},{"title":"EFF to FinCEN：停止推動更多的金融監管","locale":"zh-Hant"}]}},{"__typename":"SocialMediaPost","id":"HnPost-25640323","excerpt":"","slug":"/hn/25640323","title":"The Lab Leak Hypothesis","date":"January 05, 2021","dateISO":"2021-01-05T13:16:51.897Z","datetime":"2021-01-05 13:16","tags":["story","Hacker News"],"image":null,"imageAlt":null,"provider":"Hacker News","thirdPartyId":"25640323","url":"https://news.ycombinator.com/item?id=25640323","originalUrl":"https://nymag.com/intelligencer/article/coronavirus-lab-escape-theory.html","imageRemote":"https://pyxis.nymag.com/v1/imgs/ebd/8ee/f519e633a0a5a723459d46eb33888358f8-Covid-LabLeak-Art-only-16x9.1x.rsocial.w1200.jpg","video":null,"channel":null,"channelUrl":null,"author":"api","authorUrl":"https://news.ycombinator.com/user?id=api","authorImage":null,"authorSlug":null,"score":209,"views":null,"sharedCount":null,"likeCount":null,"sharedContent":null,"parent":{"__typename":"HnJson","localize":[{"title":"实验室泄漏假说","locale":"zh"},{"title":"實驗室泄漏假說","locale":"zh-Hant"}]}},{"__typename":"SocialMediaPost","id":"HnPost-25644056","excerpt":"","slug":"/hn/25644056","title":"GitHub blocks entire company because one employee was in Iran","date":"January 05, 2021","dateISO":"2021-01-05T13:16:51.897Z","datetime":"2021-01-05 13:16","tags":["story","Hacker News"],"image":null,"imageAlt":null,"provider":"Hacker News","thirdPartyId":"25644056","url":"https://news.ycombinator.com/item?id=25644056","originalUrl":"https://twitter.com/sebslomski/status/1344219609923276801","imageRemote":null,"video":null,"channel":null,"channelUrl":null,"author":"PhilipTrauner","authorUrl":"https://news.ycombinator.com/user?id=PhilipTrauner","authorImage":null,"authorSlug":null,"score":602,"views":null,"sharedCount":null,"likeCount":null,"sharedContent":null,"parent":{"__typename":"HnJson","localize":[{"title":"GitHub封锁了整个公司，因为有一名员工在伊朗","locale":"zh"},{"title":"GitHub封鎖了整個公司，因爲有一名員工在伊朗","locale":"zh-Hant"}]}},{"__typename":"SocialMediaPost","id":"HnPost-25640658","excerpt":"","slug":"/hn/25640658","title":"Reddit user invents a new way to build a memristor, shares it","date":"January 05, 2021","dateISO":"2021-01-05T05:42:32.979Z","datetime":"2021-01-05 05:42","tags":["story","Hacker News"],"image":null,"imageAlt":null,"provider":"Hacker News","thirdPartyId":"25640658","url":"https://news.ycombinator.com/item?id=25640658","originalUrl":"https://www.reddit.com/r/electronics/comments/kqbgnn/i_believe_ive_created_a_memristor_and_im_to_open/","imageRemote":"https://www.redditstatic.com/desktop2x/img/renderTimingPixel.png","video":null,"channel":null,"channelUrl":null,"author":"psawaya","authorUrl":"https://news.ycombinator.com/user?id=psawaya","authorImage":null,"authorSlug":null,"score":257,"views":null,"sharedCount":null,"likeCount":null,"sharedContent":null,"parent":{"__typename":"HnJson","localize":[{"title":"Reddit用户发明了一种制造忆阻器的新方法，并将其共享","locale":"zh"},{"title":"Reddit用戶發明了一種製造憶阻器的新方法，並將其共享","locale":"zh-Hant"}]}},{"__typename":"SocialMediaPost","id":"HnPost-25641399","excerpt":"","slug":"/hn/25641399","title":"Telegram publishes users' locations online","date":"January 05, 2021","dateISO":"2021-01-05T05:01:36.763Z","datetime":"2021-01-05 05:01","tags":["story","Hacker News"],"image":null,"imageAlt":null,"provider":"Hacker News","thirdPartyId":"25641399","url":"https://news.ycombinator.com/item?id=25641399","originalUrl":"https://blog.ahmed.nyc/2021/01/if-you-use-this-feature-on-telegram.html","imageRemote":"https://lh3.googleusercontent.com/JbKyjueKloPEbmeyE9ZbcVkATBhRNlY4hjl8NZZOhHn4lgt56UnjR3HjAVP2Z5MNSAAe0jzL3rKNjfLI3QCueXXe6inocEKB5RwX9b6A3kIydvA74fjzmfZlEjkH0bNrfQUYR80I=w1200-h630-p-k-no-nu","video":null,"channel":null,"channelUrl":null,"author":"Nullslash","authorUrl":"https://news.ycombinator.com/user?id=Nullslash","authorImage":null,"authorSlug":null,"score":487,"views":null,"sharedCount":null,"likeCount":null,"sharedContent":null,"parent":{"__typename":"HnJson","localize":[{"title":"Telegram在线发布用户的位置","locale":"zh"},{"title":"Telegram在線發佈用戶的位置","locale":"zh-Hant"}]}},{"__typename":"SocialMediaPost","id":"HnPost-25640217","excerpt":"","slug":"/hn/25640217","title":"My Google Traffic Has Fallen to Zero","date":"January 05, 2021","dateISO":"2021-01-05T02:38:56.887Z","datetime":"2021-01-05 02:38","tags":["story","Hacker News"],"image":null,"imageAlt":null,"provider":"Hacker News","thirdPartyId":"25640217","url":"https://news.ycombinator.com/item?id=25640217","originalUrl":"https://www.goodcheapandfast.com/2020","imageRemote":"http://static1.squarespace.com/static/5bbe4cb0d745625c9d104763/t/5fd3a6272273ff1c1141a1ec/1607706153880/Eo9bZOCWMAARRGD.jpeg?format=1500w","video":null,"channel":null,"channelUrl":null,"author":"josephjrobison","authorUrl":"https://news.ycombinator.com/user?id=josephjrobison","authorImage":null,"authorSlug":null,"score":489,"views":null,"sharedCount":null,"likeCount":null,"sharedContent":null,"parent":{"__typename":"HnJson","localize":[{"title":"我的谷歌流量已降至零","locale":"zh"},{"title":"我的谷歌流量已降至零","locale":"zh-Hant"}]}},{"__typename":"SocialMediaPost","id":"HnPost-25629058","excerpt":"","slug":"/hn/25629058","title":"Verified Programming in F*: A Tutorial","date":"January 05, 2021","dateISO":"2021-01-05T01:39:29.887Z","datetime":"2021-01-05 01:39","tags":["story","Hacker News"],"image":null,"imageAlt":null,"provider":"Hacker News","thirdPartyId":"25629058","url":"https://news.ycombinator.com/item?id=25629058","originalUrl":"http://fstar-lang.org/tutorial/","imageRemote":null,"video":null,"channel":null,"channelUrl":null,"author":"jstrieb","authorUrl":"https://news.ycombinator.com/user?id=jstrieb","authorImage":null,"authorSlug":null,"score":159,"views":null,"sharedCount":null,"likeCount":null,"sharedContent":null,"parent":{"__typename":"HnJson","localize":[{"title":"经过验证的F*编程：教程","locale":"zh"},{"title":"經過驗證的F*編程：教程","locale":"zh-Hant"}]}},{"__typename":"SocialMediaPost","id":"HnPost-25632642","excerpt":"","slug":"/hn/25632642","title":"A comparison of city building games","date":"January 05, 2021","dateISO":"2021-01-05T01:39:29.887Z","datetime":"2021-01-05 01:39","tags":["story","Hacker News"],"image":null,"imageAlt":null,"provider":"Hacker News","thirdPartyId":"25632642","url":"https://news.ycombinator.com/item?id=25632642","originalUrl":"https://twitter.com/alfred_twu/status/1345955063353597954","imageRemote":null,"video":null,"channel":null,"channelUrl":null,"author":"fanf2","authorUrl":"https://news.ycombinator.com/user?id=fanf2","authorImage":null,"authorSlug":null,"score":205,"views":null,"sharedCount":null,"likeCount":null,"sharedContent":null,"parent":{"__typename":"HnJson","localize":[{"title":"城市建设类游戏的比较研究","locale":"zh"},{"title":"城市建設類遊戲的比較研究","locale":"zh-Hant"}]}},{"__typename":"SocialMediaPost","id":"HnPost-25637598","excerpt":"","slug":"/hn/25637598","title":"SolarWinds: The more we learn, the worse it looks","date":"January 05, 2021","dateISO":"2021-01-05T01:39:29.887Z","datetime":"2021-01-05 01:39","tags":["story","Hacker News"],"image":null,"imageAlt":null,"provider":"Hacker News","thirdPartyId":"25637598","url":"https://news.ycombinator.com/item?id=25637598","originalUrl":"https://www.zdnet.com/article/solarwinds-the-more-we-learn-the-worse-it-looks/","imageRemote":"https://zdnet2.cbsistatic.com/hub/i/r/2020/12/16/dc42246f-3837-4adc-a3e5-42589943ca8a/thumbnail/770x578/b05abf3285126a09518492e0ea524ee2/solarwinds-hq.jpg","video":null,"channel":null,"channelUrl":null,"author":"LinuxBender","authorUrl":"https://news.ycombinator.com/user?id=LinuxBender","authorImage":null,"authorSlug":null,"score":256,"views":null,"sharedCount":null,"likeCount":null,"sharedContent":null,"parent":{"__typename":"HnJson","localize":[{"title":"SolarWinds：我们学得越多，看起来就越糟糕","locale":"zh"},{"title":"SolarWinds：我們學得越多，看起來就越糟糕","locale":"zh-Hant"}]}},{"__typename":"SocialMediaPost","id":"HnPost-25639435","excerpt":"","slug":"/hn/25639435","title":"Neofeudalism and the Digital Manor","date":"January 05, 2021","dateISO":"2021-01-05T01:39:29.886Z","datetime":"2021-01-05 01:39","tags":["story","Hacker News"],"image":null,"imageAlt":null,"provider":"Hacker News","thirdPartyId":"25639435","url":"https://news.ycombinator.com/item?id=25639435","originalUrl":"https://locusmag.com/2021/01/cory-doctorow-neofeudalism-and-the-digital-manor/","imageRemote":"https://locusmag.com/wp-content/uploads/2017/11/Doctorow3_800x400.jpg","video":null,"channel":null,"channelUrl":null,"author":"walterbell","authorUrl":"https://news.ycombinator.com/user?id=walterbell","authorImage":null,"authorSlug":null,"score":286,"views":null,"sharedCount":null,"likeCount":null,"sharedContent":null,"parent":{"__typename":"HnJson","localize":[{"title":"新封建主义与数字庄园","locale":"zh"},{"title":"新封建主義與數字莊園","locale":"zh-Hant"}]}},{"__typename":"SocialMediaPost","id":"HnPost-25635115","excerpt":"","slug":"/hn/25635115","title":"Ask HN: Is HN slow today?","date":"January 05, 2021","dateISO":"2021-01-05T00:09:37.592Z","datetime":"2021-01-05 00:09","tags":["story","ASK HN","Hacker News"],"image":null,"imageAlt":null,"provider":"Hacker News","thirdPartyId":"25635115","url":"https://news.ycombinator.com/item?id=25635115","originalUrl":"https://news.ycombinator.com/item?id=25635115","imageRemote":null,"video":null,"channel":"ASK HN","channelUrl":"https://news.ycombinator.com/ask","author":"brundolf","authorUrl":"https://news.ycombinator.com/user?id=brundolf","authorImage":null,"authorSlug":null,"score":155,"views":null,"sharedCount":null,"likeCount":null,"sharedContent":null,"parent":{"__typename":"HnJson","localize":[{"title":"HN提问：HN今天慢吗？","locale":"zh"},{"title":"HN提問：HN今天慢嗎？","locale":"zh-Hant"}]}},{"__typename":"SocialMediaPost","id":"HnPost-25637922","excerpt":"","slug":"/hn/25637922","title":"Quitting a New Job","date":"January 04, 2021","dateISO":"2021-01-04T23:47:52.916Z","datetime":"2021-01-04 23:47","tags":["story","Hacker News"],"image":null,"imageAlt":null,"provider":"Hacker News","thirdPartyId":"25637922","url":"https://news.ycombinator.com/item?id=25637922","originalUrl":"https://yolken.net/blog/quitting-a-new-job","imageRemote":null,"video":null,"channel":null,"channelUrl":null,"author":"fullung","authorUrl":"https://news.ycombinator.com/user?id=fullung","authorImage":null,"authorSlug":null,"score":190,"views":null,"sharedCount":null,"likeCount":null,"sharedContent":null,"parent":{"__typename":"HnJson","localize":[{"title":"辞去新工作","locale":"zh"},{"title":"辭去新工作","locale":"zh-Hant"}]}},{"__typename":"SocialMediaPost","id":"HnPost-25634192","excerpt":"","slug":"/hn/25634192","title":"Show HN: I made an alternative platform for professional profiles","date":"January 04, 2021","dateISO":"2021-01-04T21:39:58.090Z","datetime":"2021-01-04 21:39","tags":["story","Show HN","Hacker News"],"image":null,"imageAlt":null,"provider":"Hacker News","thirdPartyId":"25634192","url":"https://news.ycombinator.com/item?id=25634192","originalUrl":"https://read.cv","imageRemote":"https://read.cv/og-image.png","video":null,"channel":"Show HN","channelUrl":"https://news.ycombinator.com/show","author":"_andychung","authorUrl":"https://news.ycombinator.com/user?id=_andychung","authorImage":null,"authorSlug":null,"score":930,"views":null,"sharedCount":null,"likeCount":null,"sharedContent":null,"parent":{"__typename":"HnJson","localize":[{"title":"HN新产品：我做了一个职业简介的替代平台","locale":"zh"},{"title":"HN新產品：我做了一個職業簡介的替代平臺","locale":"zh-Hant"}]}},{"__typename":"SocialMediaPost","id":"HnPost-25632847","excerpt":"","slug":"/hn/25632847","title":"Open source RGB lighting control for keyboards, fans, etc.","date":"January 04, 2021","dateISO":"2021-01-04T20:01:59.447Z","datetime":"2021-01-04 20:01","tags":["story","Hacker News"],"image":null,"imageAlt":null,"provider":"Hacker News","thirdPartyId":"25632847","url":"https://news.ycombinator.com/item?id=25632847","originalUrl":"https://gitlab.com/CalcProgrammer1/OpenRGB","imageRemote":"https://assets.gitlab-static.net/uploads/-/system/project/avatar/10582521/OpenRGB.png","video":null,"channel":null,"channelUrl":null,"author":"apatap","authorUrl":"https://news.ycombinator.com/user?id=apatap","authorImage":null,"authorSlug":null,"score":315,"views":null,"sharedCount":null,"likeCount":null,"sharedContent":null,"parent":{"__typename":"HnJson","localize":[{"title":"用于键盘、风扇等的开源RGB照明控件。","locale":"zh"},{"title":"用於鍵盤、風扇等的開源RGB照明控件。","locale":"zh-Hant"}]}},{"__typename":"SocialMediaPost","id":"HnPost-25632982","excerpt":"","slug":"/hn/25632982","title":"Ask HN: Who is hiring? (January 2021)","date":"January 04, 2021","dateISO":"2021-01-04T20:01:59.447Z","datetime":"2021-01-04 20:01","tags":["story","ASK HN","Hacker News"],"image":null,"imageAlt":null,"provider":"Hacker News","thirdPartyId":"25632982","url":"https://news.ycombinator.com/item?id=25632982","originalUrl":"https://news.ycombinator.com/item?id=25632982","imageRemote":null,"video":null,"channel":"ASK HN","channelUrl":"https://news.ycombinator.com/ask","author":"whoishiring","authorUrl":"https://news.ycombinator.com/user?id=whoishiring","authorImage":null,"authorSlug":null,"score":403,"views":null,"sharedCount":null,"likeCount":null,"sharedContent":null,"parent":{"__typename":"HnJson","localize":[{"title":"HN提问：谁在招聘？(2021年1月)","locale":"zh"},{"title":"HN提問：誰在招聘？(2021年1月)","locale":"zh-Hant"}]}},{"__typename":"SocialMediaPost","id":"HnPost-25633483","excerpt":"","slug":"/hn/25633483","title":"Ditherpunk: The article I wish I had about monochrome image dithering","date":"January 04, 2021","dateISO":"2021-01-04T20:01:59.447Z","datetime":"2021-01-04 20:01","tags":["story","Hacker News"],"image":null,"imageAlt":null,"provider":"Hacker News","thirdPartyId":"25633483","url":"https://news.ycombinator.com/item?id=25633483","originalUrl":"https://surma.dev/things/ditherpunk/","imageRemote":"https://surma.dev/social.a2bf066d.png","video":null,"channel":null,"channelUrl":null,"author":"todsacerdoti","authorUrl":"https://news.ycombinator.com/user?id=todsacerdoti","authorImage":null,"authorSlug":null,"score":1276,"views":null,"sharedCount":null,"likeCount":null,"sharedContent":null,"parent":{"__typename":"HnJson","localize":[{"title":"迪瑟朋克：我希望我有一篇关于单色图像抖动的文章。","locale":"zh"},{"title":"迪瑟朋克：我希望我有一篇關於單色圖像抖動的文章。","locale":"zh-Hant"}]}},{"__typename":"SocialMediaPost","id":"HnPost-25632566","excerpt":"","slug":"/hn/25632566","title":"Moderna raises 2021 vaccine output forecast to at least 600M doses","date":"January 04, 2021","dateISO":"2021-01-04T18:16:27.182Z","datetime":"2021-01-04 18:16","tags":["story","Hacker News"],"image":null,"imageAlt":null,"provider":"Hacker News","thirdPartyId":"25632566","url":"https://news.ycombinator.com/item?id=25632566","originalUrl":"https://www.reuters.com/article/health-coronavirus-vaccines-moderna/update-1-moderna-raises-2021-vaccine-output-forecast-to-at-least-600-mln-doses-idUSL4N2JF30F","imageRemote":"https://static.reuters.com/resources/r/?m=02&d=20210104&t=2&i=1546548001&r=LYNXMPEH030QP&w=800","video":null,"channel":null,"channelUrl":null,"author":"KoftaBob","authorUrl":"https://news.ycombinator.com/user?id=KoftaBob","authorImage":null,"authorSlug":null,"score":201,"views":null,"sharedCount":null,"likeCount":null,"sharedContent":null,"parent":{"__typename":"HnJson","localize":[{"title":"现代将2021年疫苗产量预测上调至至少6亿剂","locale":"zh"},{"title":"現代將2021年疫苗產量預測上調至至少6億劑","locale":"zh-Hant"}]}},{"__typename":"SocialMediaPost","id":"HnPost-25633876","excerpt":"","slug":"/hn/25633876","title":"Slack Down Completely","date":"January 04, 2021","dateISO":"2021-01-04T18:16:27.182Z","datetime":"2021-01-04 18:16","tags":["story","Hacker News"],"image":null,"imageAlt":null,"provider":"Hacker News","thirdPartyId":"25633876","url":"https://news.ycombinator.com/item?id=25633876","originalUrl":"https://status.slack.com/#","imageRemote":"https://status.slack.com/img/v2_rebrand/slack_hash_256.png","video":null,"channel":null,"channelUrl":null,"author":"oblio","authorUrl":"https://news.ycombinator.com/user?id=oblio","authorImage":null,"authorSlug":null,"score":563,"views":null,"sharedCount":null,"likeCount":null,"sharedContent":null,"parent":{"__typename":"HnJson","localize":[{"title":"完全松弛下来","locale":"zh"},{"title":"完全鬆弛下來","locale":"zh-Hant"}]}},{"__typename":"SocialMediaPost","id":"HnPost-25626315","excerpt":"","slug":"/hn/25626315","title":"MIT 6.172: Performance Engineering of Software Systems","date":"January 04, 2021","dateISO":"2021-01-04T17:14:40.535Z","datetime":"2021-01-04 17:14","tags":["story","Hacker News"],"image":null,"imageAlt":null,"provider":"Hacker News","thirdPartyId":"25626315","url":"https://news.ycombinator.com/item?id=25626315","originalUrl":"https://ocw.mit.edu/courses/electrical-engineering-and-computer-science/6-172-performance-engineering-of-software-systems-fall-2018/","imageRemote":"https://ocw.mit.edu/courses/electrical-engineering-and-computer-science/6-172-performance-engineering-of-software-systems-fall-2018/6-172f18.jpg","video":null,"channel":null,"channelUrl":null,"author":"roperzh","authorUrl":"https://news.ycombinator.com/user?id=roperzh","authorImage":null,"authorSlug":null,"score":173,"views":null,"sharedCount":null,"likeCount":null,"sharedContent":null,"parent":{"__typename":"HnJson","localize":[{"title":"麻省理工学院6.172：软件系统性能工程","locale":"zh"},{"title":"麻省理工學院6.172：軟件系統性能工程","locale":"zh-Hant"}]}},{"__typename":"SocialMediaPost","id":"HnPost-25626532","excerpt":"","slug":"/hn/25626532","title":"Britney Spears' Guide to Semiconductor Physics (2007)","date":"January 04, 2021","dateISO":"2021-01-04T17:14:40.535Z","datetime":"2021-01-04 17:14","tags":["story","Hacker News"],"image":null,"imageAlt":null,"provider":"Hacker News","thirdPartyId":"25626532","url":"https://news.ycombinator.com/item?id=25626532","originalUrl":"http://britneyspears.ac/lasers.htm","imageRemote":"http://britneyspears.ac/images/bs2.jpg","video":null,"channel":null,"channelUrl":null,"author":"doener","authorUrl":"https://news.ycombinator.com/user?id=doener","authorImage":null,"authorSlug":null,"score":168,"views":null,"sharedCount":null,"likeCount":null,"sharedContent":null,"parent":{"__typename":"HnJson","localize":[{"title":"布兰妮·斯皮尔斯的半导体物理指南(2007)","locale":"zh"},{"title":"布蘭妮·斯皮爾斯的半導體物理指南(2007)","locale":"zh-Hant"}]}},{"__typename":"SocialMediaPost","id":"HnPost-25632811","excerpt":"","slug":"/hn/25632811","title":"After spending $57M on Facebook ads, I was kicked off without explanation","date":"January 04, 2021","dateISO":"2021-01-04T17:14:40.535Z","datetime":"2021-01-04 17:14","tags":["story","Hacker News"],"image":null,"imageAlt":null,"provider":"Hacker News","thirdPartyId":"25632811","url":"https://news.ycombinator.com/item?id=25632811","originalUrl":"https://jordan-shared.medium.com/after-spending-over-57-million-on-facebook-ads-they-kicked-me-and-my-pages-off-without-warning-c6d7e611b01c","imageRemote":"https://miro.medium.com/max/975/1*Ehi4OG6a9620U002y_GKMQ.jpeg","video":null,"channel":null,"channelUrl":null,"author":"CPLX","authorUrl":"https://news.ycombinator.com/user?id=CPLX","authorImage":null,"authorSlug":null,"score":393,"views":null,"sharedCount":null,"likeCount":null,"sharedContent":null,"parent":{"__typename":"HnJson","localize":[{"title":"在Facebook广告上花费了5700万美元后，我在没有任何解释的情况下被踢走了","locale":"zh"},{"title":"在Facebook廣告上花費了5700萬美元后，我在沒有任何解釋的情況下被踢走了","locale":"zh-Hant"}]}},{"__typename":"SocialMediaPost","id":"HnPost-25632048","excerpt":"","slug":"/hn/25632048","title":"Slack Running Slow / Hanging?","date":"January 04, 2021","dateISO":"2021-01-04T15:52:20.660Z","datetime":"2021-01-04 15:52","tags":["story","Hacker News"],"image":null,"imageAlt":null,"provider":"Hacker News","thirdPartyId":"25632048","url":"https://news.ycombinator.com/item?id=25632048","originalUrl":"https://news.ycombinator.com/item?id=25632048","imageRemote":null,"video":null,"channel":null,"channelUrl":null,"author":"seibelj","authorUrl":"https://news.ycombinator.com/user?id=seibelj","authorImage":null,"authorSlug":null,"score":186,"views":null,"sharedCount":null,"likeCount":null,"sharedContent":null,"parent":{"__typename":"HnJson","localize":[{"title":"慢跑/悬吊？","locale":"zh"},{"title":"慢跑/懸吊？","locale":"zh-Hant"}]}}]}},"pageContext":{"basePath":"/","pageType":"tag","tag":"story","tagsFilter":{"id":{"glob":"!*Post-1"}},"filter":{"id":{"glob":"!*Post-1"},"tags":{"eq":"story"}},"limit":25,"skip":275,"total":973,"totalPages":39,"currentPage":12,"maxWidth":1024,"maxHeight":512,"locale":"en","hrefLang":"en-US","originalPath":"/tags/story/page/12","dateFormat":"MM/DD/YYYY"}},"staticQueryHashes":["1239077767","2506312863","2744905544","3025052997","3493603132","3493603132","3513215887","386998304"]}