{"componentChunkName":"component---gatsby-theme-buzzing-src-gatsby-theme-timeline-templates-posts-query-js","path":"/en/tags/hacker-news/page/25","result":{"data":{"site":{"siteMetadata":{"title":"Reddit 热门","description":"用中文浏览Reddit热门内容","social":[{"name":"Twitter","url":"https://twitter.com/gatsbyjs","external":null,"prefetch":null},{"name":"GitHub","url":"https://github.com/gatsbyjs","external":null,"prefetch":null}],"menuLinks":[],"localize":[{"locale":"en","title":"Buzzing on Reddit","description":"See what's buzzing on Reddit in your native language","social":[{"name":"Reddit","url":"https://www.reddit.com/","external":true,"prefetch":null}],"menuLinks":[{"name":"Weekly Selection","url":"/issues","external":null,"prefetch":null},{"name":"RSS","url":"/rss.xml","external":null,"prefetch":false}]},{"locale":"zh-Hant","title":"Reddit 熱門","description":"用中文瀏覽Reddit熱門內容","social":null,"menuLinks":null}]}},"tagsGroup":{"group":[{"fieldValue":"ASK HN","totalCount":42},{"fieldValue":"Bitcoin","totalCount":4},{"fieldValue":"Hacker News","totalCount":2409},{"fieldValue":"Poll","totalCount":1},{"fieldValue":"SaveAMC","totalCount":1},{"fieldValue":"Show HN","totalCount":81},{"fieldValue":"bitcoin","totalCount":3},{"fieldValue":"investing","totalCount":755},{"fieldValue":"poll","totalCount":1},{"fieldValue":"reddit","totalCount":4525},{"fieldValue":"science","totalCount":1},{"fieldValue":"stocks","totalCount":1482},{"fieldValue":"story","totalCount":2408},{"fieldValue":"tweet","totalCount":767},{"fieldValue":"wallstreetbets","totalCount":2288}]},"allBlogPost":{"nodes":[{"__typename":"SocialMediaPost","id":"HnPost-26159680","excerpt":"","slug":"/hn/26159680","title":"What went wrong with the Texas power grid?","date":"February 17, 2021","dateISO":"2021-02-17T01:34:02.415Z","datetime":"2021-02-17 01:34","tags":["story","Hacker News"],"image":null,"imageAlt":null,"provider":"Hacker News","thirdPartyId":"26159680","url":"https://news.ycombinator.com/item?id=26159680","originalUrl":"https://www.houstonchronicle.com/business/energy/article/Wholesale-power-prices-spiking-across-Texas-15951684.php","imageRemote":"https://s.hdnux.com/photos/01/16/50/65/20614497/5/rawImage.jpg","video":null,"channel":null,"channelUrl":null,"author":"daenney","authorUrl":"https://news.ycombinator.com/user?id=daenney","authorImage":null,"authorSlug":null,"score":613,"views":null,"sharedCount":null,"likeCount":null,"sharedContent":null,"parent":{"__typename":"HnJson","localize":[{"title":"德州电网出了什么问题？","locale":"zh"},{"title":"德州電網出了什麼問題？","locale":"zh-Hant"}]}},{"__typename":"SocialMediaPost","id":"HnPost-26158090","excerpt":"","slug":"/hn/26158090","title":"Go 1.16 Release Notes","date":"February 16, 2021","dateISO":"2021-02-16T22:40:53.318Z","datetime":"2021-02-16 22:40","tags":["story","Hacker News"],"image":null,"imageAlt":null,"provider":"Hacker News","thirdPartyId":"26158090","url":"https://news.ycombinator.com/item?id=26158090","originalUrl":"https://golang.org/doc/go1.16","imageRemote":"https://golang.org/lib/godoc/images/go-logo-blue.svg","video":null,"channel":null,"channelUrl":null,"author":"ra7","authorUrl":"https://news.ycombinator.com/user?id=ra7","authorImage":null,"authorSlug":null,"score":289,"views":null,"sharedCount":null,"likeCount":null,"sharedContent":null,"parent":{"__typename":"HnJson","localize":[{"title":"Go 1.16 发行说明","locale":"zh"},{"title":"Go 1.16 發行說明","locale":"zh-Hant"}]}},{"__typename":"SocialMediaPost","id":"HnPost-26156901","excerpt":"","slug":"/hn/26156901","title":"Umberto Eco: Ur-Fascism (1995) [pdf]","date":"February 16, 2021","dateISO":"2021-02-16T22:25:00.751Z","datetime":"2021-02-16 22:25","tags":["story","Hacker News"],"image":null,"imageAlt":null,"provider":"Hacker News","thirdPartyId":"26156901","url":"https://news.ycombinator.com/item?id=26156901","originalUrl":"https://theanarchistlibrary.org/library/umberto-eco-ur-fascism.pdf","imageRemote":null,"video":null,"channel":null,"channelUrl":null,"author":"asterialite","authorUrl":"https://news.ycombinator.com/user?id=asterialite","authorImage":null,"authorSlug":null,"score":237,"views":null,"sharedCount":null,"likeCount":null,"sharedContent":null,"parent":{"__typename":"HnJson","localize":[{"title":"翁贝托-埃科: 乌尔-法西斯主义（1995年） [pdf]","locale":"zh"},{"title":"翁貝託-埃科: 烏爾-法西斯主義（1995年） [pdf]","locale":"zh-Hant"}]}},{"__typename":"SocialMediaPost","id":"HnPost-26157969","excerpt":"","slug":"/hn/26157969","title":"Functorio","date":"February 16, 2021","dateISO":"2021-02-16T21:45:25.598Z","datetime":"2021-02-16 21:45","tags":["story","Hacker News"],"image":null,"imageAlt":null,"provider":"Hacker News","thirdPartyId":"26157969","url":"https://news.ycombinator.com/item?id=26157969","originalUrl":"https://bartoszmilewski.com/2021/02/16/functorio/.","imageRemote":"https://bartoszmilewski.files.wordpress.com/2020/12/redscienceassembler.png","video":null,"channel":null,"channelUrl":null,"author":"ibobev","authorUrl":"https://news.ycombinator.com/user?id=ibobev","authorImage":null,"authorSlug":null,"score":694,"views":null,"sharedCount":null,"likeCount":null,"sharedContent":null,"parent":{"__typename":"HnJson","localize":[{"title":"Functorio","locale":"zh"},{"title":"Functorio","locale":"zh-Hant"}]}},{"__typename":"SocialMediaPost","id":"HnPost-26142510","excerpt":"","slug":"/hn/26142510","title":"WhatsApp alternatives that respect privacy","date":"February 16, 2021","dateISO":"2021-02-16T20:36:46.890Z","datetime":"2021-02-16 20:36","tags":["story","Hacker News"],"image":null,"imageAlt":null,"provider":"Hacker News","thirdPartyId":"26142510","url":"https://news.ycombinator.com/item?id=26142510","originalUrl":"https://protonmail.com/blog/whatsapp-alternatives/","imageRemote":"https://protonmail.com/blog/wp-content/uploads/2021/02/2021-02-PM-blog-whatsapp-alt.png","video":null,"channel":null,"channelUrl":null,"author":"giuliomagnifico","authorUrl":"https://news.ycombinator.com/user?id=giuliomagnifico","authorImage":null,"authorSlug":null,"score":166,"views":null,"sharedCount":null,"likeCount":null,"sharedContent":null,"parent":{"__typename":"HnJson","localize":[{"title":"尊重隐私的WhatsApp替代品","locale":"zh"},{"title":"尊重隱私的WhatsApp替代品","locale":"zh-Hant"}]}},{"__typename":"SocialMediaPost","id":"HnPost-26154509","excerpt":"","slug":"/hn/26154509","title":"Why Is Esbuild Fast?","date":"February 16, 2021","dateISO":"2021-02-16T20:01:19.791Z","datetime":"2021-02-16 20:01","tags":["story","Hacker News"],"image":null,"imageAlt":null,"provider":"Hacker News","thirdPartyId":"26154509","url":"https://news.ycombinator.com/item?id=26154509","originalUrl":"https://esbuild.github.io/faq/#why-is-esbuild-fast","imageRemote":"https://esbuild.github.io/index.png","video":null,"channel":null,"channelUrl":null,"author":"mef","authorUrl":"https://news.ycombinator.com/user?id=mef","authorImage":null,"authorSlug":null,"score":318,"views":null,"sharedCount":null,"likeCount":null,"sharedContent":null,"parent":{"__typename":"HnJson","localize":[{"title":"为什么Esbuild速度快？","locale":"zh"},{"title":"爲什麼Esbuild速度快？","locale":"zh-Hant"}]}},{"__typename":"SocialMediaPost","id":"HnPost-26154608","excerpt":"","slug":"/hn/26154608","title":"TikTok hit with consumer law breaches complaints across Europe","date":"February 16, 2021","dateISO":"2021-02-16T19:40:07.660Z","datetime":"2021-02-16 19:40","tags":["story","Hacker News"],"image":null,"imageAlt":null,"provider":"Hacker News","thirdPartyId":"26154608","url":"https://news.ycombinator.com/item?id=26154608","originalUrl":"https://www.reuters.com/article/us-tiktok-eu/tiktok-hit-with-consumer-law-breaches-complaints-across-europe-idUSKBN2AG0S8","imageRemote":"https://static.reuters.com/resources/r/?m=02&d=20210216&t=2&i=1551684838&r=LYNXMPEH1F0G4&w=800","video":null,"channel":null,"channelUrl":null,"author":"giuliomagnifico","authorUrl":"https://news.ycombinator.com/user?id=giuliomagnifico","authorImage":null,"authorSlug":null,"score":220,"views":null,"sharedCount":null,"likeCount":null,"sharedContent":null,"parent":{"__typename":"HnJson","localize":[{"title":"TikTok在欧洲各地遭遇消费者法律违规投诉","locale":"zh"},{"title":"TikTok在歐洲各地遭遇消費者法律違規投訴","locale":"zh-Hant"}]}},{"__typename":"SocialMediaPost","id":"HnPost-26154466","excerpt":"","slug":"/hn/26154466","title":"'New Car Smell' Is the Scent of Carcinogens. Even Short Trips May Overexpose Us","date":"February 16, 2021","dateISO":"2021-02-16T18:21:49.239Z","datetime":"2021-02-16 18:21","tags":["story","Hacker News"],"image":null,"imageAlt":null,"provider":"Hacker News","thirdPartyId":"26154466","url":"https://news.ycombinator.com/item?id=26154466","originalUrl":"https://www.sciencealert.com/a-20-minute-commute-puts-you-at-risk-of-unacceptably-high-levels-of-carcinogens","imageRemote":"https://www.sciencealert.com/images/2021-02/processed/j-torres-o1eDaWJanpA-unsplash-Edit_1024.jpg","video":null,"channel":null,"channelUrl":null,"author":"samizdis","authorUrl":"https://news.ycombinator.com/user?id=samizdis","authorImage":null,"authorSlug":null,"score":497,"views":null,"sharedCount":null,"likeCount":null,"sharedContent":null,"parent":{"__typename":"HnJson","localize":[{"title":"新车气味 \"是致癌物的气味。即使是短途旅行也可能使我们过度暴露于此","locale":"zh"},{"title":"新車氣味 \"是致癌物的氣味。即使是短途旅行也可能使我們過度暴露於此","locale":"zh-Hant"}]}},{"__typename":"SocialMediaPost","id":"HnPost-26155350","excerpt":"","slug":"/hn/26155350","title":"What I Worked On","date":"February 16, 2021","dateISO":"2021-02-16T17:57:14.809Z","datetime":"2021-02-16 17:57","tags":["story","Hacker News"],"image":null,"imageAlt":null,"provider":"Hacker News","thirdPartyId":"26155350","url":"https://news.ycombinator.com/item?id=26155350","originalUrl":"http://paulgraham.com/worked.html","imageRemote":"https://s.yimg.com/aah/paulgraham/quotes-1.gif","video":null,"channel":null,"channelUrl":null,"author":"tosh","authorUrl":"https://news.ycombinator.com/user?id=tosh","authorImage":null,"authorSlug":null,"score":964,"views":null,"sharedCount":null,"likeCount":null,"sharedContent":null,"parent":{"__typename":"HnJson","localize":[{"title":"我的工作内容","locale":"zh"},{"title":"我的工作內容","locale":"zh-Hant"}]}},{"__typename":"SocialMediaPost","id":"HnPost-26153845","excerpt":"","slug":"/hn/26153845","title":"Changes to LastPass Free","date":"February 16, 2021","dateISO":"2021-02-16T17:39:26.032Z","datetime":"2021-02-16 17:39","tags":["story","Hacker News"],"image":null,"imageAlt":null,"provider":"Hacker News","thirdPartyId":"26153845","url":"https://news.ycombinator.com/item?id=26153845","originalUrl":"https://blog.lastpass.com/2021/02/changes-to-lastpass-free/","imageRemote":"https://blog.lastpass.com/wp-content/uploads/sites/20/2021/02/paywall3.jpg","video":null,"channel":null,"channelUrl":null,"author":"seng","authorUrl":"https://news.ycombinator.com/user?id=seng","authorImage":null,"authorSlug":null,"score":357,"views":null,"sharedCount":null,"likeCount":null,"sharedContent":null,"parent":{"__typename":"HnJson","localize":[{"title":"对LastPass免费的改变","locale":"zh"},{"title":"對LastPass免費的改變","locale":"zh-Hant"}]}},{"__typename":"SocialMediaPost","id":"HnPost-26154038","excerpt":"","slug":"/hn/26154038","title":"Show HN: Endgame – An AWS Pentesting tool to backdoor or expose AWS resources","date":"February 16, 2021","dateISO":"2021-02-16T17:39:26.032Z","datetime":"2021-02-16 17:39","tags":["story","Show HN","Hacker News"],"image":null,"imageAlt":null,"provider":"Hacker News","thirdPartyId":"26154038","url":"https://news.ycombinator.com/item?id=26154038","originalUrl":"https://github.com/salesforce/endgame","imageRemote":"https://avatars.githubusercontent.com/u/453694?s=400&v=4","video":null,"channel":"Show HN","channelUrl":"https://news.ycombinator.com/show","author":"kmcquade","authorUrl":"https://news.ycombinator.com/user?id=kmcquade","authorImage":null,"authorSlug":null,"score":366,"views":null,"sharedCount":null,"likeCount":null,"sharedContent":null,"parent":{"__typename":"HnJson","localize":[{"title":"显示 HN: Endgame - 一个 AWS Pentesting 工具，用于后门或暴露 AWS 资源。","locale":"zh"},{"title":"顯示 HN: Endgame - 一個 AWS Pentesting 工具，用於後門或暴露 AWS 資源。","locale":"zh-Hant"}]}},{"__typename":"SocialMediaPost","id":"HnPost-26151575","excerpt":"","slug":"/hn/26151575","title":"Learning Ruby: Things I Like, Things I Miss from Python","date":"February 16, 2021","dateISO":"2021-02-16T16:30:37.077Z","datetime":"2021-02-16 16:30","tags":["story","Hacker News"],"image":null,"imageAlt":null,"provider":"Hacker News","thirdPartyId":"26151575","url":"https://news.ycombinator.com/item?id=26151575","originalUrl":"https://medium.com/workpath-thewaywework/learning-ruby-2-things-i-like-2-things-i-miss-from-python-6f60af8ed16c","imageRemote":"https://miro.medium.com/max/1023/1*mBxi-Z-PVgmE3SSJ08z4Jw.jpeg","video":null,"channel":null,"channelUrl":null,"author":"OKRHero","authorUrl":"https://news.ycombinator.com/user?id=OKRHero","authorImage":null,"authorSlug":null,"score":205,"views":null,"sharedCount":null,"likeCount":null,"sharedContent":null,"parent":{"__typename":"HnJson","localize":[{"title":"学习Ruby。从Python中我喜欢的东西，我错过的东西","locale":"zh"},{"title":"學習Ruby。從Python中我喜歡的東西，我錯過的東西","locale":"zh-Hant"}]}},{"__typename":"SocialMediaPost","id":"HnPost-26153070","excerpt":"","slug":"/hn/26153070","title":"“Silicon Valley’s Safe Space” has misinformed readers","date":"February 16, 2021","dateISO":"2021-02-16T16:30:37.077Z","datetime":"2021-02-16 16:30","tags":["story","Hacker News"],"image":null,"imageAlt":null,"provider":"Hacker News","thirdPartyId":"26153070","url":"https://news.ycombinator.com/item?id=26153070","originalUrl":"https://reason.com/2021/02/15/what-the-new-york-times-hit-piece-on-slate-star-codex-says-about-media-gatekeeping/","imageRemote":"https://reason.com/wp-content/uploads/2021/02/Freedom_Of_Speech_256854761-1200x630.jpeg","video":null,"channel":null,"channelUrl":null,"author":"Bostonian","authorUrl":"https://news.ycombinator.com/user?id=Bostonian","authorImage":null,"authorSlug":null,"score":179,"views":null,"sharedCount":null,"likeCount":null,"sharedContent":null,"parent":{"__typename":"HnJson","localize":[{"title":"\"硅谷的安全空间 \"误导了读者","locale":"zh"},{"title":"\"硅谷的安全空間 \"誤導了讀者","locale":"zh-Hant"}]}},{"__typename":"SocialMediaPost","id":"HnPost-26148333","excerpt":"","slug":"/hn/26148333","title":"Are the New M1 Macbooks Any Good for Deep Learning?","date":"February 16, 2021","dateISO":"2021-02-16T14:09:06.338Z","datetime":"2021-02-16 14:09","tags":["story","Hacker News"],"image":null,"imageAlt":null,"provider":"Hacker News","thirdPartyId":"26148333","url":"https://news.ycombinator.com/item?id=26148333","originalUrl":"https://www.betterdatascience.com/m1-deep-learning/","imageRemote":"https://www.betterdatascience.com/wp-content/uploads/2021/01/MAIN_IMAGE-8-scaled.jpg","video":null,"channel":null,"channelUrl":null,"author":"syntaxing","authorUrl":"https://news.ycombinator.com/user?id=syntaxing","authorImage":null,"authorSlug":null,"score":168,"views":null,"sharedCount":null,"likeCount":null,"sharedContent":null,"parent":{"__typename":"HnJson","localize":[{"title":"新款M1 Macbook对深度学习有好处吗？","locale":"zh"},{"title":"新款M1 Macbook對深度學習有好處嗎？","locale":"zh-Hant"}]}},{"__typename":"SocialMediaPost","id":"HnPost-26153331","excerpt":"","slug":"/hn/26153331","title":"“User Engagement” Is Code for “Addiction”","date":"February 16, 2021","dateISO":"2021-02-16T14:09:06.338Z","datetime":"2021-02-16 14:09","tags":["story","Hacker News"],"image":null,"imageAlt":null,"provider":"Hacker News","thirdPartyId":"26153331","url":"https://news.ycombinator.com/item?id=26153331","originalUrl":"https://craigwritescode.medium.com/user-engagement-is-code-for-addiction-a2f50d36d7ac","imageRemote":"https://miro.medium.com/max/1200/0*lhrtMVRvjz4tsDi6.jpg","video":null,"channel":null,"channelUrl":null,"author":"wilsocr88","authorUrl":"https://news.ycombinator.com/user?id=wilsocr88","authorImage":null,"authorSlug":null,"score":728,"views":null,"sharedCount":null,"likeCount":null,"sharedContent":null,"parent":{"__typename":"HnJson","localize":[{"title":"\"用户参与度 \"是 \"上瘾 \"的代码","locale":"zh"},{"title":"\"用戶參與度 \"是 \"上癮 \"的代碼","locale":"zh-Hant"}]}},{"__typename":"SocialMediaPost","id":"HnPost-26152335","excerpt":"","slug":"/hn/26152335","title":"Arranging Invisible Icons in Quadratic Time","date":"February 16, 2021","dateISO":"2021-02-16T13:41:21.481Z","datetime":"2021-02-16 13:41","tags":["story","Hacker News"],"image":null,"imageAlt":null,"provider":"Hacker News","thirdPartyId":"26152335","url":"https://news.ycombinator.com/item?id=26152335","originalUrl":"https://randomascii.wordpress.com/2021/02/16/arranging-invisible-icons-in-quadratic-time/","imageRemote":"https://randomascii.files.wordpress.com/2021/02/image.png","video":null,"channel":null,"channelUrl":null,"author":"ingve","authorUrl":"https://news.ycombinator.com/user?id=ingve","authorImage":null,"authorSlug":null,"score":371,"views":null,"sharedCount":null,"likeCount":null,"sharedContent":null,"parent":{"__typename":"HnJson","localize":[{"title":"在二次元时间内排列不可见图标","locale":"zh"},{"title":"在二次元時間內排列不可見圖標","locale":"zh-Hant"}]}},{"__typename":"SocialMediaPost","id":"HnPost-26150629","excerpt":"","slug":"/hn/26150629","title":"How They SRE","date":"February 16, 2021","dateISO":"2021-02-16T11:55:44.928Z","datetime":"2021-02-16 11:55","tags":["story","Hacker News"],"image":null,"imageAlt":null,"provider":"Hacker News","thirdPartyId":"26150629","url":"https://news.ycombinator.com/item?id=26150629","originalUrl":"https://github.com/upgundecha/howtheysre","imageRemote":"https://repository-images.githubusercontent.com/338818430/42285a00-6f11-11eb-8957-fa55f362814f","video":null,"channel":null,"channelUrl":null,"author":"zdw","authorUrl":"https://news.ycombinator.com/user?id=zdw","authorImage":null,"authorSlug":null,"score":270,"views":null,"sharedCount":null,"likeCount":null,"sharedContent":null,"parent":{"__typename":"HnJson","localize":[{"title":"他们如何SRE","locale":"zh"},{"title":"他們如何SRE","locale":"zh-Hant"}]}},{"__typename":"SocialMediaPost","id":"HnPost-26149885","excerpt":"","slug":"/hn/26149885","title":"Supermicro Hack: China Exploited a US Tech Supplier over Years [2021 Follow-Up]","date":"February 16, 2021","dateISO":"2021-02-16T10:57:41.681Z","datetime":"2021-02-16 10:57","tags":["story","Hacker News"],"image":null,"imageAlt":null,"provider":"Hacker News","thirdPartyId":"26149885","url":"https://news.ycombinator.com/item?id=26149885","originalUrl":"https://www.bloomberg.com/features/2021-supermicro/#","imageRemote":null,"video":null,"channel":null,"channelUrl":null,"author":"kenneth","authorUrl":"https://news.ycombinator.com/user?id=kenneth","authorImage":null,"authorSlug":null,"score":402,"views":null,"sharedCount":null,"likeCount":null,"sharedContent":null,"parent":{"__typename":"HnJson","localize":[{"title":"超微黑客。中国多年来利用美国一家科技供应商[2021年后续报道]。","locale":"zh"},{"title":"超微黑客。中國多年來利用美國一家科技供應商[2021年後續報道]。","locale":"zh-Hant"}]}},{"__typename":"SocialMediaPost","id":"HnPost-26151207","excerpt":"","slug":"/hn/26151207","title":"Kanban board in one HTML using localstorage","date":"February 16, 2021","dateISO":"2021-02-16T10:57:41.681Z","datetime":"2021-02-16 10:57","tags":["story","Hacker News"],"image":null,"imageAlt":null,"provider":"Hacker News","thirdPartyId":"26151207","url":"https://news.ycombinator.com/item?id=26151207","originalUrl":"https://github.com/apankrat/nullboard","imageRemote":"https://avatars.githubusercontent.com/u/957994?s=400&v=4","video":null,"channel":null,"channelUrl":null,"author":"synergy20","authorUrl":"https://news.ycombinator.com/user?id=synergy20","authorImage":null,"authorSlug":null,"score":398,"views":null,"sharedCount":null,"likeCount":null,"sharedContent":null,"parent":{"__typename":"HnJson","localize":[{"title":"在一个HTML中使用本地存储的看板。","locale":"zh"},{"title":"在一個HTML中使用本地存儲的看板。","locale":"zh-Hant"}]}},{"__typename":"SocialMediaPost","id":"HnPost-26151302","excerpt":"","slug":"/hn/26151302","title":"Many Small Queries Are Efficient in SQLite","date":"February 16, 2021","dateISO":"2021-02-16T09:30:08.603Z","datetime":"2021-02-16 09:30","tags":["story","Hacker News"],"image":null,"imageAlt":null,"provider":"Hacker News","thirdPartyId":"26151302","url":"https://news.ycombinator.com/item?id=26151302","originalUrl":"https://sqlite.org/np1queryprob.html","imageRemote":"https://sqlite.org/images/sqlite370_banner.gif","video":null,"channel":null,"channelUrl":null,"author":"ArtTimeInvestor","authorUrl":"https://news.ycombinator.com/user?id=ArtTimeInvestor","authorImage":null,"authorSlug":null,"score":537,"views":null,"sharedCount":null,"likeCount":null,"sharedContent":null,"parent":{"__typename":"HnJson","localize":[{"title":"在SQLite中，许多小的查询都是高效的","locale":"zh"},{"title":"在SQLite中，許多小的查詢都是高效的","locale":"zh-Hant"}]}},{"__typename":"SocialMediaPost","id":"HnPost-26145775","excerpt":"","slug":"/hn/26145775","title":"Python strings are immutable, but only sometimes","date":"February 16, 2021","dateISO":"2021-02-16T08:41:54.578Z","datetime":"2021-02-16 08:41","tags":["story","Hacker News"],"image":null,"imageAlt":null,"provider":"Hacker News","thirdPartyId":"26145775","url":"https://news.ycombinator.com/item?id=26145775","originalUrl":"https://web.eecs.utk.edu/~azh/blog/pythonstringsaremutable.html","imageRemote":"https://web.eecs.utk.edu/~azh/blog/images/cpythonappend.png","video":null,"channel":null,"channelUrl":null,"author":"jermaustin1","authorUrl":"https://news.ycombinator.com/user?id=jermaustin1","authorImage":null,"authorSlug":null,"score":174,"views":null,"sharedCount":null,"likeCount":null,"sharedContent":null,"parent":{"__typename":"HnJson","localize":[{"title":"Python字符串是不可变的，但只是有时候","locale":"zh"},{"title":"Python字符串是不可變的，但只是有時候","locale":"zh-Hant"}]}},{"__typename":"SocialMediaPost","id":"HnPost-26130763","excerpt":"","slug":"/hn/26130763","title":"Sourcetrail: Free and open-source interactive source explorer","date":"February 16, 2021","dateISO":"2021-02-16T07:34:09.600Z","datetime":"2021-02-16 07:34","tags":["story","Hacker News"],"image":null,"imageAlt":null,"provider":"Hacker News","thirdPartyId":"26130763","url":"https://news.ycombinator.com/item?id=26130763","originalUrl":"https://github.com/CoatiSoftware/Sourcetrail","imageRemote":"https://avatars.githubusercontent.com/u/16224233?s=400&v=4","video":null,"channel":null,"channelUrl":null,"author":"yagizdegirmenci","authorUrl":"https://news.ycombinator.com/user?id=yagizdegirmenci","authorImage":null,"authorSlug":null,"score":222,"views":null,"sharedCount":null,"likeCount":null,"sharedContent":null,"parent":{"__typename":"HnJson","localize":[{"title":"Sourcetrail。免费和开源的交互式源码探索器","locale":"zh"},{"title":"Sourcetrail。免費和開源的交互式源碼探索器","locale":"zh-Hant"}]}},{"__typename":"SocialMediaPost","id":"HnPost-26131123","excerpt":"","slug":"/hn/26131123","title":"Show HN: Jam, an Open Source Clubhouse (w/ WebRTC)","date":"February 16, 2021","dateISO":"2021-02-16T06:16:09.715Z","datetime":"2021-02-16 06:16","tags":["story","Show HN","Hacker News"],"image":null,"imageAlt":null,"provider":"Hacker News","thirdPartyId":"26131123","url":"https://news.ycombinator.com/item?id=26131123","originalUrl":"https://jam.systems","imageRemote":"https://jam.systems/img/jam-illustration.png","video":null,"channel":"Show HN","channelUrl":"https://news.ycombinator.com/show","author":"tosh","authorUrl":"https://news.ycombinator.com/user?id=tosh","authorImage":null,"authorSlug":null,"score":312,"views":null,"sharedCount":null,"likeCount":null,"sharedContent":null,"parent":{"__typename":"HnJson","localize":[{"title":"显示HN：Jam，一个开放源码的会所(W/WebRTC)","locale":"zh"},{"title":"顯示HN：Jam，一個開放源碼的會所(W/WebRTC)","locale":"zh-Hant"}]}},{"__typename":"SocialMediaPost","id":"HnPost-26149376","excerpt":"","slug":"/hn/26149376","title":"Windows Refund Day","date":"February 16, 2021","dateISO":"2021-02-16T05:33:24.214Z","datetime":"2021-02-16 05:33","tags":["story","Hacker News"],"image":null,"imageAlt":null,"provider":"Hacker News","thirdPartyId":"26149376","url":"https://news.ycombinator.com/item?id=26149376","originalUrl":"http://marc.merlins.org/linux/refundday/#:~:text=For%20those%20who%20hadn%27t,with%20the%20machine%20they%20bought","imageRemote":"http://marc.merlins.org/gifs/people/smile.happy.gif","video":null,"channel":null,"channelUrl":null,"author":"ransom_rs","authorUrl":"https://news.ycombinator.com/user?id=ransom_rs","authorImage":null,"authorSlug":null,"score":370,"views":null,"sharedCount":null,"likeCount":null,"sharedContent":null,"parent":{"__typename":"HnJson","localize":[{"title":"窗口退款日","locale":"zh"},{"title":"窗口退款日","locale":"zh-Hant"}]}},{"__typename":"SocialMediaPost","id":"HnPost-26149754","excerpt":"","slug":"/hn/26149754","title":"Fake Amazon reviews 'being sold in bulk' online","date":"February 16, 2021","dateISO":"2021-02-16T05:14:32.910Z","datetime":"2021-02-16 05:14","tags":["story","Hacker News"],"image":null,"imageAlt":null,"provider":"Hacker News","thirdPartyId":"26149754","url":"https://news.ycombinator.com/item?id=26149754","originalUrl":"https://www.bbc.com/news/business-56069472","imageRemote":"https://ichef.bbci.co.uk/news/1024/branded_news/12E74/production/_116782477_mediaitem116782476.jpg","video":null,"channel":null,"channelUrl":null,"author":"_wldu","authorUrl":"https://news.ycombinator.com/user?id=_wldu","authorImage":null,"authorSlug":null,"score":568,"views":null,"sharedCount":null,"likeCount":null,"sharedContent":null,"parent":{"__typename":"HnJson","localize":[{"title":"亚马逊的假评论在网上 \"被大量出售","locale":"zh"},{"title":"亞馬遜的假評論在網上 \"被大量出售","locale":"zh-Hant"}]}}]}},"pageContext":{"basePath":"/","pageType":"tag","tag":"Hacker News","tagsFilter":{"id":{"glob":"!*Post-1"}},"filter":{"id":{"glob":"!*Post-1"},"tags":{"eq":"Hacker News"}},"limit":25,"skip":600,"total":2409,"totalPages":97,"currentPage":25,"maxWidth":1024,"maxHeight":512,"locale":"en","hrefLang":"en-US","originalPath":"/tags/hacker-news/page/25","dateFormat":"MM/DD/YYYY"}},"staticQueryHashes":["1239077767","2506312863","2744905544","3025052997","3493603132","3493603132","3513215887","386998304"]}