{"componentChunkName":"component---gatsby-theme-buzzing-src-gatsby-theme-timeline-templates-posts-query-js","path":"/tags/story/page/108","result":{"data":{"site":{"siteMetadata":{"title":"Reddit 热门","description":"用中文浏览Reddit热门内容","social":[{"name":"Twitter","url":"https://twitter.com/gatsbyjs","external":null,"prefetch":null},{"name":"GitHub","url":"https://github.com/gatsbyjs","external":null,"prefetch":null}],"menuLinks":[],"localize":[{"locale":"en","title":"Buzzing on Reddit","description":"See what's buzzing on Reddit in your native language","social":[{"name":"Reddit","url":"https://www.reddit.com/","external":true,"prefetch":null}],"menuLinks":[{"name":"Weekly Selection","url":"/issues","external":null,"prefetch":null},{"name":"RSS","url":"/rss.xml","external":null,"prefetch":false}]},{"locale":"zh-Hant","title":"Reddit 熱門","description":"用中文瀏覽Reddit熱門內容","social":null,"menuLinks":null}]}},"tagsGroup":{"group":[{"fieldValue":"ASK HN","totalCount":54},{"fieldValue":"Hacker News","totalCount":3105},{"fieldValue":"Poll","totalCount":1},{"fieldValue":"Show HN","totalCount":100},{"fieldValue":"poll","totalCount":1},{"fieldValue":"story","totalCount":3104}]},"allBlogPost":{"nodes":[{"__typename":"SocialMediaPost","id":"HnPost-25545967","excerpt":"","slug":"/hn/25545967","title":"Cursed IP Address Representations","date":"December 26, 2020","dateISO":"2020-12-26T21:39:42.602Z","datetime":"2020-12-26 21:39","tags":["story","Hacker News"],"image":null,"imageAlt":null,"provider":"Hacker News","thirdPartyId":"25545967","url":"https://news.ycombinator.com/item?id=25545967","originalUrl":"https://blog.dave.tf/post/ip-addr-parsing/","imageRemote":null,"video":null,"channel":null,"channelUrl":null,"author":"mr_tyzic","authorUrl":"https://news.ycombinator.com/user?id=mr_tyzic","authorImage":null,"authorSlug":null,"score":502,"views":null,"sharedCount":null,"likeCount":null,"sharedContent":null,"parent":{"__typename":"HnJson","localize":[{"title":"受诅咒的IP地址表示","locale":"zh"},{"title":"受詛咒的IP地址表示","locale":"zh-Hant"}]}},{"__typename":"SocialMediaPost","id":"HnPost-25544397","excerpt":"","slug":"/hn/25544397","title":"Show HN: Simple-graph – a graph database in SQLite","date":"December 26, 2020","dateISO":"2020-12-26T21:23:34.476Z","datetime":"2020-12-26 21:23","tags":["story","Show HN","Hacker News"],"image":null,"imageAlt":null,"provider":"Hacker News","thirdPartyId":"25544397","url":"https://news.ycombinator.com/item?id=25544397","originalUrl":"https://github.com/dpapathanasiou/simple-graph","imageRemote":"https://avatars2.githubusercontent.com/u/1387395?s=400&v=4","video":null,"channel":"Show HN","channelUrl":"https://news.ycombinator.com/show","author":"dpapathanasiou","authorUrl":"https://news.ycombinator.com/user?id=dpapathanasiou","authorImage":null,"authorSlug":null,"score":235,"views":null,"sharedCount":null,"likeCount":null,"sharedContent":null,"parent":{"__typename":"HnJson","localize":[{"title":"HN新产品：SIMPLE-GRAPH-SQLITE中的图形数据库","locale":"zh"},{"title":"HN新產品：SIMPLE-GRAPH-SQLITE中的圖形數據庫","locale":"zh-Hant"}]}},{"__typename":"SocialMediaPost","id":"HnPost-25534794","excerpt":"","slug":"/hn/25534794","title":"Learning to Play the Chaos Game","date":"December 26, 2020","dateISO":"2020-12-26T20:05:06.332Z","datetime":"2020-12-26 20:05","tags":["story","Hacker News"],"image":null,"imageAlt":null,"provider":"Hacker News","thirdPartyId":"25534794","url":"https://news.ycombinator.com/item?id=25534794","originalUrl":"https://hardmath123.github.io/chaos-game-fractal-foliage.html","imageRemote":"https://hardmath123.github.io/static/chaos-game/tree-building.gif","video":null,"channel":null,"channelUrl":null,"author":"hardmath123","authorUrl":"https://news.ycombinator.com/user?id=hardmath123","authorImage":null,"authorSlug":null,"score":148,"views":null,"sharedCount":null,"likeCount":null,"sharedContent":null,"parent":{"__typename":"HnJson","localize":[{"title":"学会玩混沌游戏","locale":"zh"},{"title":"學會玩混沌遊戲","locale":"zh-Hant"}]}},{"__typename":"SocialMediaPost","id":"HnPost-25543890","excerpt":"","slug":"/hn/25543890","title":"Mass die-off of birds in south-western US 'caused by starvation'","date":"December 26, 2020","dateISO":"2020-12-26T20:05:06.332Z","datetime":"2020-12-26 20:05","tags":["story","Hacker News"],"image":null,"imageAlt":null,"provider":"Hacker News","thirdPartyId":"25543890","url":"https://news.ycombinator.com/item?id=25543890","originalUrl":"https://www.theguardian.com/environment/2020/dec/26/mass-die-off-of-birds-in-south-western-us-caused-by-starvation-aoe","imageRemote":"https://i.guim.co.uk/img/media/2651b5ceec89bc6ad083d0bdfc623b83c400195a/155_0_3242_1945/master/3242.jpg?width=1200&height=630&quality=85&auto=format&fit=crop&overlay-align=bottom%2Cleft&overlay-width=100p&overlay-base64=L2ltZy9zdGF0aWMvb3ZlcmxheXMvdGctZGVmYXVsdC5wbmc&enable=upscale&s=ed41d6d8c291136751734dbf739bfe02","video":null,"channel":null,"channelUrl":null,"author":"wyldfire","authorUrl":"https://news.ycombinator.com/user?id=wyldfire","authorImage":null,"authorSlug":null,"score":184,"views":null,"sharedCount":null,"likeCount":null,"sharedContent":null,"parent":{"__typename":"HnJson","localize":[{"title":"美国西南部鸟类大规模死亡“是由饥饿造成的”","locale":"zh"},{"title":"美國西南部鳥類大規模死亡“是由飢餓造成的”","locale":"zh-Hant"}]}},{"__typename":"SocialMediaPost","id":"HnPost-25543958","excerpt":"","slug":"/hn/25543958","title":"Domino’s Pizza Drove a 90x Increase in Stock Value by Acting Like a Startup","date":"December 26, 2020","dateISO":"2020-12-26T20:05:06.332Z","datetime":"2020-12-26 20:05","tags":["story","Hacker News"],"image":null,"imageAlt":null,"provider":"Hacker News","thirdPartyId":"25543958","url":"https://news.ycombinator.com/item?id=25543958","originalUrl":"https://producthabits.com/dominos-pizza-drove-90x-increase-stock-value-acting-like-tech-startup/","imageRemote":"https://producthabits.com/wp-content/uploads/2019/02/Product-Habits-Share@2x.png","video":null,"channel":null,"channelUrl":null,"author":"swyx","authorUrl":"https://news.ycombinator.com/user?id=swyx","authorImage":null,"authorSlug":null,"score":122,"views":null,"sharedCount":null,"likeCount":null,"sharedContent":null,"parent":{"__typename":"HnJson","localize":[{"title":"Domino‘s Pizza像创业公司一样推动股票价值增加90倍","locale":"zh"},{"title":"Domino‘s Pizza像創業公司一樣推動股票價值增加90倍","locale":"zh-Hant"}]}},{"__typename":"SocialMediaPost","id":"HnPost-25544831","excerpt":"","slug":"/hn/25544831","title":"What’s the Best Non-Smart TV Sold Today?","date":"December 26, 2020","dateISO":"2020-12-26T20:05:06.332Z","datetime":"2020-12-26 20:05","tags":["story","Hacker News"],"image":null,"imageAlt":null,"provider":"Hacker News","thirdPartyId":"25544831","url":"https://news.ycombinator.com/item?id=25544831","originalUrl":"https://helpatmyhome.com/best-non-smart-tv/","imageRemote":"https://helpatmyhome.com/wp-content/uploads/2020/12/tvtvtvtvtvtvtv.jpg","video":null,"channel":null,"channelUrl":null,"author":"thomas","authorUrl":"https://news.ycombinator.com/user?id=thomas","authorImage":null,"authorSlug":null,"score":223,"views":null,"sharedCount":null,"likeCount":null,"sharedContent":null,"parent":{"__typename":"HnJson","localize":[{"title":"今天卖得最好的非智能电视是什么？","locale":"zh"},{"title":"今天賣得最好的非智能電視是什麼？","locale":"zh-Hant"}]}},{"__typename":"SocialMediaPost","id":"HnPost-25545361","excerpt":"","slug":"/hn/25545361","title":"I reverse engineered Google docs (2014)","date":"December 26, 2020","dateISO":"2020-12-26T19:38:14.935Z","datetime":"2020-12-26 19:38","tags":["story","Hacker News"],"image":null,"imageAlt":null,"provider":"Hacker News","thirdPartyId":"25545361","url":"https://news.ycombinator.com/item?id=25545361","originalUrl":"http://features.jsomers.net/how-i-reverse-engineered-google-docs/","imageRemote":"https://cloud.githubusercontent.com/assets/21294/4930884/70fe3062-656c-11e4-9ce6-f83cfa84f095.png","video":null,"channel":null,"channelUrl":null,"author":"flurly","authorUrl":"https://news.ycombinator.com/user?id=flurly","authorImage":null,"authorSlug":null,"score":411,"views":null,"sharedCount":null,"likeCount":null,"sharedContent":null,"parent":{"__typename":"HnJson","localize":[{"title":"我对谷歌文档(Google Docs)进行了反向工程(2014)","locale":"zh"},{"title":"我對谷歌文檔(Google Docs)進行了反向工程(2014)","locale":"zh-Hant"}]}},{"__typename":"SocialMediaPost","id":"HnPost-25541919","excerpt":"","slug":"/hn/25541919","title":"Manga Guide to Lisp","date":"December 26, 2020","dateISO":"2020-12-26T18:50:07.709Z","datetime":"2020-12-26 18:50","tags":["story","Hacker News"],"image":null,"imageAlt":null,"provider":"Hacker News","thirdPartyId":"25541919","url":"https://news.ycombinator.com/item?id=25541919","originalUrl":"http://lambda.bugyo.tk/cdr/mwl/","imageRemote":"http://lambda.bugyo.tk/cdr/mwl/d_lico.png","video":null,"channel":null,"channelUrl":null,"author":"joubert","authorUrl":"https://news.ycombinator.com/user?id=joubert","authorImage":null,"authorSlug":null,"score":137,"views":null,"sharedCount":null,"likeCount":null,"sharedContent":null,"parent":{"__typename":"HnJson","localize":[{"title":"Lisp漫画指南","locale":"zh"},{"title":"Lisp漫畫指南","locale":"zh-Hant"}]}},{"__typename":"SocialMediaPost","id":"HnPost-25535893","excerpt":"","slug":"/hn/25535893","title":"Redox OS 0.6, the micro-kernel based Rust-written operating system","date":"December 26, 2020","dateISO":"2020-12-26T17:42:41.602Z","datetime":"2020-12-26 17:42","tags":["story","Hacker News"],"image":null,"imageAlt":null,"provider":"Hacker News","thirdPartyId":"25535893","url":"https://news.ycombinator.com/item?id=25535893","originalUrl":"https://www.phoronix.com/scan.php?page=news_item&px=Redox-OS-0.6-Released","imageRemote":"https://www.phoronix.com/assets/categories/operatingsystems.jpg","video":null,"channel":null,"channelUrl":null,"author":"cassepipe","authorUrl":"https://news.ycombinator.com/user?id=cassepipe","authorImage":null,"authorSlug":null,"score":104,"views":null,"sharedCount":null,"likeCount":null,"sharedContent":null,"parent":{"__typename":"HnJson","localize":[{"title":"Redox OS 0.6，基于微内核的锈写操作系统","locale":"zh"},{"title":"Redox OS 0.6，基於微內核的鏽寫操作系統","locale":"zh-Hant"}]}},{"__typename":"SocialMediaPost","id":"HnPost-25543086","excerpt":"","slug":"/hn/25543086","title":"Apple iCloud Account and Sign In outage affecting some users for over 24 hours","date":"December 26, 2020","dateISO":"2020-12-26T17:42:41.602Z","datetime":"2020-12-26 17:42","tags":["story","Hacker News"],"image":null,"imageAlt":null,"provider":"Hacker News","thirdPartyId":"25543086","url":"https://news.ycombinator.com/item?id=25543086","originalUrl":"https://www.apple.com/support/systemstatus?down","imageRemote":null,"video":null,"channel":null,"channelUrl":null,"author":"reimertz","authorUrl":"https://news.ycombinator.com/user?id=reimertz","authorImage":null,"authorSlug":null,"score":161,"views":null,"sharedCount":null,"likeCount":null,"sharedContent":null,"parent":{"__typename":"HnJson","localize":[{"title":"影响某些用户的Apple iCloud帐户和登录中断超过24小时","locale":"zh"},{"title":"影響某些用戶的Apple iCloud帳戶和登錄中斷超過24小時","locale":"zh-Hant"}]}},{"__typename":"SocialMediaPost","id":"HnPost-25543191","excerpt":"","slug":"/hn/25543191","title":"Executable PNGs","date":"December 26, 2020","dateISO":"2020-12-26T17:42:41.602Z","datetime":"2020-12-26 17:42","tags":["story","Hacker News"],"image":null,"imageAlt":null,"provider":"Hacker News","thirdPartyId":"25543191","url":"https://news.ycombinator.com/item?id=25543191","originalUrl":"https://djharper.dev/post/2020/12/26/executable-pngs/","imageRemote":"https://djharper.dev/img/byte-replace1.png","video":null,"channel":null,"channelUrl":null,"author":"todsacerdoti","authorUrl":"https://news.ycombinator.com/user?id=todsacerdoti","authorImage":null,"authorSlug":null,"score":234,"views":null,"sharedCount":null,"likeCount":null,"sharedContent":null,"parent":{"__typename":"HnJson","localize":[{"title":"可执行的PNG","locale":"zh"},{"title":"可執行的PNG","locale":"zh-Hant"}]}},{"__typename":"SocialMediaPost","id":"HnPost-25543386","excerpt":"","slug":"/hn/25543386","title":"Print this file, your printer will jam (2008)","date":"December 26, 2020","dateISO":"2020-12-26T16:56:13.446Z","datetime":"2020-12-26 16:56","tags":["story","Hacker News"],"image":null,"imageAlt":null,"provider":"Hacker News","thirdPartyId":"25543386","url":"https://news.ycombinator.com/item?id=25543386","originalUrl":"https://nedbatchelder.com/blog/200811/print_this_file_your_printer_will_jam.html","imageRemote":"https://www.gravatar.com/avatar/c508768a33e3bee9999ec30421df030c.jpg?default=https%3A%2F%2Fnedbatchelder.com%2Fpix%2Favatar%2Fa20.jpg&size=80","video":null,"channel":null,"channelUrl":null,"author":"segfaultbuserr","authorUrl":"https://news.ycombinator.com/user?id=segfaultbuserr","authorImage":null,"authorSlug":null,"score":491,"views":null,"sharedCount":null,"likeCount":null,"sharedContent":null,"parent":{"__typename":"HnJson","localize":[{"title":"打印此文件，您的打印机将卡纸(2008)","locale":"zh"},{"title":"打印此文件，您的打印機將卡紙(2008)","locale":"zh-Hant"}]}},{"__typename":"SocialMediaPost","id":"HnPost-25543818","excerpt":"","slug":"/hn/25543818","title":"They want us to be compliant, not secure","date":"December 26, 2020","dateISO":"2020-12-26T16:56:13.446Z","datetime":"2020-12-26 16:56","tags":["story","Hacker News"],"image":null,"imageAlt":null,"provider":"Hacker News","thirdPartyId":"25543818","url":"https://news.ycombinator.com/item?id=25543818","originalUrl":"https://www.go350.com/posts/they-want-us-to-be-compliant-not-secure/","imageRemote":null,"video":null,"channel":null,"channelUrl":null,"author":"_wldu","authorUrl":"https://news.ycombinator.com/user?id=_wldu","authorImage":null,"authorSlug":null,"score":198,"views":null,"sharedCount":null,"likeCount":null,"sharedContent":null,"parent":{"__typename":"HnJson","localize":[{"title":"他们想让我们顺从，而不是安全","locale":"zh"},{"title":"他們想讓我們順從，而不是安全","locale":"zh-Hant"}]}},{"__typename":"SocialMediaPost","id":"HnPost-25542487","excerpt":"","slug":"/hn/25542487","title":"How much math you need for programming? (2014)","date":"December 26, 2020","dateISO":"2020-12-26T16:04:17.771Z","datetime":"2020-12-26 16:04","tags":["story","Hacker News"],"image":null,"imageAlt":null,"provider":"Hacker News","thirdPartyId":"25542487","url":"https://news.ycombinator.com/item?id=25542487","originalUrl":"https://lispmachine.wordpress.com/2014/12/05/how-much-math-you-need-for-programming/","imageRemote":"https://lispmachine.files.wordpress.com/2014/12/math-4.jpg","video":null,"channel":null,"channelUrl":null,"author":"kathe","authorUrl":"https://news.ycombinator.com/user?id=kathe","authorImage":null,"authorSlug":null,"score":210,"views":null,"sharedCount":null,"likeCount":null,"sharedContent":null,"parent":{"__typename":"HnJson","localize":[{"title":"编程需要多少数学？(2014)","locale":"zh"},{"title":"編程需要多少數學？(2014)","locale":"zh-Hant"}]}},{"__typename":"SocialMediaPost","id":"HnPost-25530312","excerpt":"","slug":"/hn/25530312","title":"Someone is stealing unpublished book manuscripts in a phishing scam","date":"December 26, 2020","dateISO":"2020-12-26T15:48:41.969Z","datetime":"2020-12-26 15:48","tags":["story","Hacker News"],"image":null,"imageAlt":null,"provider":"Hacker News","thirdPartyId":"25530312","url":"https://news.ycombinator.com/item?id=25530312","originalUrl":"https://www.nytimes.com/2020/12/21/books/publishing-manuscripts-phishing-scam.html","imageRemote":"https://static01.nyt.com/images/2020/12/14/books/00book_phishing1/00book_phishing1-facebookJumbo.jpg","video":null,"channel":null,"channelUrl":null,"author":"ruddct","authorUrl":"https://news.ycombinator.com/user?id=ruddct","authorImage":null,"authorSlug":null,"score":147,"views":null,"sharedCount":null,"likeCount":null,"sharedContent":null,"parent":{"__typename":"HnJson","localize":[{"title":"有人在网络钓鱼诈骗中窃取未出版的书稿","locale":"zh"},{"title":"有人在網絡釣魚詐騙中竊取未出版的書稿","locale":"zh-Hant"}]}},{"__typename":"SocialMediaPost","id":"HnPost-25542624","excerpt":"","slug":"/hn/25542624","title":"1937 Film Perfectly Explains How a Car Differential Works","date":"December 26, 2020","dateISO":"2020-12-26T15:48:41.968Z","datetime":"2020-12-26 15:48","tags":["story","Hacker News"],"image":null,"imageAlt":null,"provider":"Hacker News","thirdPartyId":"25542624","url":"https://news.ycombinator.com/item?id=25542624","originalUrl":"https://www.roadandtrack.com/car-culture/classic-cars/a25833/1937-film-perfectly-explains-how-a-car-differential-works/","imageRemote":"https://hips.hearstapps.com/roa.h-cdn.co/assets/15/23/1600x800/landscape-1433190845-spokes.jpg?resize=1200:*","video":null,"channel":null,"channelUrl":null,"author":"oedmarap","authorUrl":"https://news.ycombinator.com/user?id=oedmarap","authorImage":null,"authorSlug":null,"score":498,"views":null,"sharedCount":null,"likeCount":null,"sharedContent":null,"parent":{"__typename":"HnJson","localize":[{"title":"1937年的电影完美地解释了汽车差速器是如何工作的","locale":"zh"},{"title":"1937年的電影完美地解釋了汽車差速器是如何工作的","locale":"zh-Hant"}]}},{"__typename":"SocialMediaPost","id":"HnPost-25533563","excerpt":"","slug":"/hn/25533563","title":"Redox OS 0.6.0","date":"December 26, 2020","dateISO":"2020-12-26T12:47:21.498Z","datetime":"2020-12-26 12:47","tags":["story","Hacker News"],"image":null,"imageAlt":null,"provider":"Hacker News","thirdPartyId":"25533563","url":"https://news.ycombinator.com/item?id=25533563","originalUrl":"https://www.redox-os.org/news/release-0.6.0/","imageRemote":"https://www.redox-os.org/img/icon.png","video":null,"channel":null,"channelUrl":null,"author":"jackpot51","authorUrl":"https://news.ycombinator.com/user?id=jackpot51","authorImage":null,"authorSlug":null,"score":109,"views":null,"sharedCount":null,"likeCount":null,"sharedContent":null,"parent":{"__typename":"HnJson","localize":[{"title":"氧化还原OS 0.6.0","locale":"zh"},{"title":"氧化還原OS 0.6.0","locale":"zh-Hant"}]}},{"__typename":"SocialMediaPost","id":"HnPost-25542505","excerpt":"","slug":"/hn/25542505","title":"Photocatalyst splits water into H and O2 at quantum efficiency near 100%","date":"December 26, 2020","dateISO":"2020-12-26T12:47:21.498Z","datetime":"2020-12-26 12:47","tags":["story","Hacker News"],"image":null,"imageAlt":null,"provider":"Hacker News","thirdPartyId":"25542505","url":"https://news.ycombinator.com/item?id=25542505","originalUrl":"https://fuelcellsworks.com/news/photocatalyst-that-can-split-water-into-hydrogen-and-oxygen-at-a-quantum-efficiency-close-to-100/","imageRemote":"https://img.fuelcellsworks.com/wp-content/uploads/2020/12/H2-FCW.jpg","video":null,"channel":null,"channelUrl":null,"author":"bookofjoe","authorUrl":"https://news.ycombinator.com/user?id=bookofjoe","authorImage":null,"authorSlug":null,"score":566,"views":null,"sharedCount":null,"likeCount":null,"sharedContent":null,"parent":{"__typename":"HnJson","localize":[{"title":"光催化剂以接近100%的量子效率将水分裂为H和O2","locale":"zh"},{"title":"光催化劑以接近100%的量子效率將水分裂爲H和O2","locale":"zh-Hant"}]}},{"__typename":"SocialMediaPost","id":"HnPost-25535366","excerpt":"","slug":"/hn/25535366","title":"Trading Time for Money","date":"December 26, 2020","dateISO":"2020-12-26T11:29:33.059Z","datetime":"2020-12-26 11:29","tags":["story","Hacker News"],"image":null,"imageAlt":null,"provider":"Hacker News","thirdPartyId":"25535366","url":"https://news.ycombinator.com/item?id=25535366","originalUrl":"https://nicolasbouliane.com/blog/trading-time-for-money","imageRemote":"https://nicolasbouliane.com/images/_fullWidth2x/good-time.jpg","video":null,"channel":null,"channelUrl":null,"author":"nicbou","authorUrl":"https://news.ycombinator.com/user?id=nicbou","authorImage":null,"authorSlug":null,"score":189,"views":null,"sharedCount":null,"likeCount":null,"sharedContent":null,"parent":{"__typename":"HnJson","localize":[{"title":"用时间换取金钱","locale":"zh"},{"title":"用時間換取金錢","locale":"zh-Hant"}]}},{"__typename":"SocialMediaPost","id":"HnPost-25540753","excerpt":"","slug":"/hn/25540753","title":"Dev-C++ Is a Low Memory Windows Native C++ IDE Built in Delphi","date":"December 26, 2020","dateISO":"2020-12-26T10:23:41.300Z","datetime":"2020-12-26 10:23","tags":["story","Hacker News"],"image":null,"imageAlt":null,"provider":"Hacker News","thirdPartyId":"25540753","url":"https://news.ycombinator.com/item?id=25540753","originalUrl":"https://blogs.embarcadero.com/dev-c-is-a-low-memory-windows-native-c-ide-built-in-delphi/","imageRemote":"https://i2.wp.com/blogs.embarcadero.com/wp-content/uploads/2020/10/devcppblue.jpg?fit=1024%2C706&ssl=1","video":null,"channel":null,"channelUrl":null,"author":"xeeeeeeeeeeenu","authorUrl":"https://news.ycombinator.com/user?id=xeeeeeeeeeeenu","authorImage":null,"authorSlug":null,"score":154,"views":null,"sharedCount":null,"likeCount":null,"sharedContent":null,"parent":{"__typename":"HnJson","localize":[{"title":"Dev-C++是在Delphi中构建的低内存Windows Native C++IDE","locale":"zh"},{"title":"Dev-C++是在Delphi中構建的低內存Windows Native C++IDE","locale":"zh-Hant"}]}},{"__typename":"SocialMediaPost","id":"HnPost-25538764","excerpt":"","slug":"/hn/25538764","title":"NixOS on ARM/Raspberry Pi","date":"December 26, 2020","dateISO":"2020-12-26T09:31:22.536Z","datetime":"2020-12-26 09:31","tags":["story","Hacker News"],"image":null,"imageAlt":null,"provider":"Hacker News","thirdPartyId":"25538764","url":"https://news.ycombinator.com/item?id=25538764","originalUrl":"https://nixos.wiki/wiki/NixOS_on_ARM/Raspberry_Pi","imageRemote":"https://nixos.wiki/images/thumb/4/40/Raspberry_pi_3_glamour.jpg/x256px-Raspberry_pi_3_glamour.jpg.pagespeed.ic.oggU_vQtmX.jpg","video":null,"channel":null,"channelUrl":null,"author":"botayhard","authorUrl":"https://news.ycombinator.com/user?id=botayhard","authorImage":null,"authorSlug":null,"score":116,"views":null,"sharedCount":null,"likeCount":null,"sharedContent":null,"parent":{"__typename":"HnJson","localize":[{"title":"ARM/Raspberry PI上的NixOS","locale":"zh"},{"title":"ARM/Raspberry PI上的NixOS","locale":"zh-Hant"}]}},{"__typename":"SocialMediaPost","id":"HnPost-25539876","excerpt":"","slug":"/hn/25539876","title":"Backdoor in Zyxel Products","date":"December 26, 2020","dateISO":"2020-12-26T09:31:22.536Z","datetime":"2020-12-26 09:31","tags":["story","Hacker News"],"image":null,"imageAlt":null,"provider":"Hacker News","thirdPartyId":"25539876","url":"https://news.ycombinator.com/item?id=25539876","originalUrl":"https://www.eyecontrol.nl/blog/undocumented-user-account-in-zyxel-products.html","imageRemote":"https://upload.wikimedia.org/wikipedia/commons/d/d8/%D0%9B%D0%BE%D0%B3%D0%BE%D1%82%D0%B8%D0%BF_Zyxel.png","video":null,"channel":null,"channelUrl":null,"author":"ta988","authorUrl":"https://news.ycombinator.com/user?id=ta988","authorImage":null,"authorSlug":null,"score":166,"views":null,"sharedCount":null,"likeCount":null,"sharedContent":null,"parent":{"__typename":"HnJson","localize":[{"title":"Zyxel产品中的后门","locale":"zh"},{"title":"Zyxel產品中的後門","locale":"zh-Hant"}]}},{"__typename":"SocialMediaPost","id":"HnPost-25540870","excerpt":"","slug":"/hn/25540870","title":"In study, acetaminophen makes risky moves seem less dangerous","date":"December 26, 2020","dateISO":"2020-12-26T09:31:22.536Z","datetime":"2020-12-26 09:31","tags":["story","Hacker News"],"image":null,"imageAlt":null,"provider":"Hacker News","thirdPartyId":"25540870","url":"https://news.ycombinator.com/item?id=25540870","originalUrl":"https://news.osu.edu/a-pain-reliever-that-alters-perceptions-of-risk","imageRemote":"https://content.presspage.com/uploads/2170/1920_extremely-unusual-conditions-664132-1920.jpg?10000","video":null,"channel":null,"channelUrl":null,"author":"hliyan","authorUrl":"https://news.ycombinator.com/user?id=hliyan","authorImage":null,"authorSlug":null,"score":157,"views":null,"sharedCount":null,"likeCount":null,"sharedContent":null,"parent":{"__typename":"HnJson","localize":[{"title":"在研究中，扑热息痛使危险的动作看起来不那么危险","locale":"zh"},{"title":"在研究中，撲熱息痛使危險的動作看起來不那麼危險","locale":"zh-Hant"}]}},{"__typename":"SocialMediaPost","id":"HnPost-25529126","excerpt":"","slug":"/hn/25529126","title":"Anticipatory Procastrination [pdf]","date":"December 26, 2020","dateISO":"2020-12-26T07:00:05.357Z","datetime":"2020-12-26 07:00","tags":["story","Hacker News"],"image":null,"imageAlt":null,"provider":"Hacker News","thirdPartyId":"25529126","url":"https://news.ycombinator.com/item?id=25529126","originalUrl":"http://pages.cs.wisc.edu/~elder/stuff/ant-proc.pdf","imageRemote":null,"video":null,"channel":null,"channelUrl":null,"author":"dedalus","authorUrl":"https://news.ycombinator.com/user?id=dedalus","authorImage":null,"authorSlug":null,"score":171,"views":null,"sharedCount":null,"likeCount":null,"sharedContent":null,"parent":{"__typename":"HnJson","localize":[{"title":"预期性阉割[pdf]","locale":"zh"},{"title":"預期性閹割[pdf]","locale":"zh-Hant"}]}},{"__typename":"SocialMediaPost","id":"HnPost-25540583","excerpt":"","slug":"/hn/25540583","title":"Ask HN: What startup/technology is on your 'to watch' list?","date":"December 26, 2020","dateISO":"2020-12-26T07:00:05.356Z","datetime":"2020-12-26 07:00","tags":["story","ASK HN","Hacker News"],"image":null,"imageAlt":null,"provider":"Hacker News","thirdPartyId":"25540583","url":"https://news.ycombinator.com/item?id=25540583","originalUrl":"https://news.ycombinator.com/item?id=25540583","imageRemote":null,"video":null,"channel":"ASK HN","channelUrl":"https://news.ycombinator.com/ask","author":"snowisgone","authorUrl":"https://news.ycombinator.com/user?id=snowisgone","authorImage":null,"authorSlug":null,"score":324,"views":null,"sharedCount":null,"likeCount":null,"sharedContent":null,"parent":{"__typename":"HnJson","localize":[{"title":"HN提问：你的“值得关注”名单上有哪些创业公司/技术？","locale":"zh"},{"title":"HN提問：你的“值得關注”名單上有哪些創業公司/技術？","locale":"zh-Hant"}]}}]}},"pageContext":{"basePath":"/","pageType":"tag","tag":"story","tagsFilter":{"id":{"glob":"!*Post-1"}},"filter":{"id":{"glob":"!*Post-1"},"tags":{"eq":"story"}},"limit":25,"skip":2675,"total":3104,"totalPages":125,"currentPage":108,"maxWidth":1024,"maxHeight":512,"locale":"zh","hrefLang":"zh-Hans","originalPath":"/tags/story/page/108","dateFormat":"YYYY-MM-DD"}},"staticQueryHashes":["1239077767","2506312863","2744905544","3025052997","3493603132","3493603132","3513215887","386998304"]}