{"componentChunkName":"component---gatsby-theme-buzzing-src-gatsby-theme-timeline-templates-posts-query-js","path":"/en/page/69","result":{"data":{"site":{"siteMetadata":{"title":"Reddit 热门","description":"用中文浏览Reddit热门内容","social":[{"name":"Twitter","url":"https://twitter.com/gatsbyjs","external":null,"prefetch":null},{"name":"GitHub","url":"https://github.com/gatsbyjs","external":null,"prefetch":null}],"menuLinks":[],"localize":[{"locale":"en","title":"Buzzing on Reddit","description":"See what's buzzing on Reddit in your native language","social":[{"name":"Reddit","url":"https://www.reddit.com/","external":true,"prefetch":null}],"menuLinks":[{"name":"Weekly Selection","url":"/issues","external":null,"prefetch":null},{"name":"RSS","url":"/rss.xml","external":null,"prefetch":false}]},{"locale":"zh-Hant","title":"Reddit 熱門","description":"用中文瀏覽Reddit熱門內容","social":null,"menuLinks":null}]}},"tagsGroup":{"group":[{"fieldValue":"ASK HN","totalCount":22},{"fieldValue":"Bitcoin","totalCount":3},{"fieldValue":"Hacker News","totalCount":906},{"fieldValue":"Poll","totalCount":1},{"fieldValue":"Show HN","totalCount":34},{"fieldValue":"investing","totalCount":194},{"fieldValue":"poll","totalCount":1},{"fieldValue":"reddit","totalCount":752},{"fieldValue":"science","totalCount":1},{"fieldValue":"stocks","totalCount":330},{"fieldValue":"story","totalCount":905},{"fieldValue":"tweet","totalCount":272},{"fieldValue":"wallstreetbets","totalCount":228}]},"allBlogPost":{"nodes":[{"__typename":"SocialMediaPost","id":"HnPost-25458770","excerpt":"","slug":"/hn/25458770","title":"Apple has stopped providing standalone installers for macOS updates","date":"December 18, 2020","dateISO":"2020-12-18T01:05:14.509Z","datetime":"2020-12-18 01:05","tags":["story","Hacker News"],"image":null,"imageAlt":null,"provider":"Hacker News","thirdPartyId":"25458770","url":"https://news.ycombinator.com/item?id=25458770","originalUrl":"https://eclecticlight.co/2020/12/17/apple-has-stopped-providing-standalone-installers-for-macos-updates/","imageRemote":"https://s0.wp.com/i/blank.jpg","video":null,"channel":null,"channelUrl":null,"author":"mrzool","authorUrl":"https://news.ycombinator.com/user?id=mrzool","authorImage":null,"authorSlug":null,"score":289,"views":null,"sharedCount":null,"likeCount":null,"sharedContent":null,"parent":{"__typename":"HnJson","localize":[{"title":"苹果已停止为MacOS更新提供独立安装程序","locale":"zh"},{"title":"蘋果已停止爲MacOS更新提供獨立安裝程序","locale":"zh-Hant"}]}},{"__typename":"SocialMediaPost","id":"HnPost-25459873","excerpt":"","slug":"/hn/25459873","title":"How I Met My Wife (1994)","date":"December 18, 2020","dateISO":"2020-12-18T01:05:14.509Z","datetime":"2020-12-18 01:05","tags":["story","Hacker News"],"image":null,"imageAlt":null,"provider":"Hacker News","thirdPartyId":"25459873","url":"https://news.ycombinator.com/item?id=25459873","originalUrl":"https://www.newyorker.com/magazine/1994/07/25/how-i-met-my-wife","imageRemote":"https://static.cdn.realviewdigital.com/global/content/GetImage.aspx?pguid=FC9071DC-DD99-441F-A727-1B74670350BC&i=1994-07-25&folio=082","video":null,"channel":null,"channelUrl":null,"author":"Lammy","authorUrl":"https://news.ycombinator.com/user?id=Lammy","authorImage":null,"authorSlug":null,"score":217,"views":null,"sharedCount":null,"likeCount":null,"sharedContent":null,"parent":{"__typename":"HnJson","localize":[{"title":"“我是如何认识我的妻子”(1994)","locale":"zh"},{"title":"“我是如何認識我的妻子”(1994)","locale":"zh-Hant"}]}},{"__typename":"SocialMediaPost","id":"HnPost-25460241","excerpt":"","slug":"/hn/25460241","title":"Advanced Persistent Threat Compromise of Government Agencies","date":"December 18, 2020","dateISO":"2020-12-18T01:05:14.509Z","datetime":"2020-12-18 01:05","tags":["story","Hacker News"],"image":null,"imageAlt":null,"provider":"Hacker News","thirdPartyId":"25460241","url":"https://news.ycombinator.com/item?id=25460241","originalUrl":"https://us-cert.cisa.gov/ncas/alerts/aa20-352a","imageRemote":"https://us-cert.cisa.gov/sites/default/files/cert/flag.png","video":null,"channel":null,"channelUrl":null,"author":"GrumpyNl","authorUrl":"https://news.ycombinator.com/user?id=GrumpyNl","authorImage":null,"authorSlug":null,"score":132,"views":null,"sharedCount":null,"likeCount":null,"sharedContent":null,"parent":{"__typename":"HnJson","localize":[{"title":"政府机构的高级持续威胁妥协","locale":"zh"},{"title":"政府機構的高級持續威脅妥協","locale":"zh-Hant"}]}},{"__typename":"SocialMediaPost","id":"RedditPost-kf6k4x","excerpt":"Palantir Technologies (NYSE:PLTR) today announced that it will hold its\ninaugural “Live Demo Day” on Tuesday, January 26, 2021 at 4:30pm ET.\n\nPalantir’s product demos will include its Foundry, Gotham, and Apollo platforms.\nProduct leads will show the latest releases of each platform, and describe…","slug":"/reddit/r/stocks/comments/kf6k4x/palantir_technologies_reports_will_hold_inaugural/","title":"Palantir Technologies Reports Will Hold Inaugural Live Demo Day On Tuesday, Jan. 26, 2021 To 4:30 p.m. EST","date":"December 17, 2020","dateISO":"2020-12-17T23:30:41.000Z","datetime":"2020-12-17 23:30","tags":["stocks","reddit"],"image":null,"imageAlt":null,"provider":"Reddit","thirdPartyId":"kf6k4x","url":"https://www.reddit.com/r/stocks/comments/kf6k4x/palantir_technologies_reports_will_hold_inaugural/","originalUrl":"https://www.reddit.com/r/stocks/comments/kf6k4x/palantir_technologies_reports_will_hold_inaugural/","imageRemote":null,"video":null,"channel":"stocks","channelUrl":"https://www.reddit.com/r/stocks","author":"Teraskikkeli","authorUrl":"https://www.reddit.com/user/Teraskikkeli","authorImage":null,"authorSlug":"Teraskikkeli","score":312,"views":null,"sharedCount":null,"likeCount":null,"sharedContent":null,"parent":{"__typename":"RedditJson","localize":[{"title":"Palantir Technologies Reports将于2021年1月26日(星期二)至下午4：30举行首届现场演示日。估计","the_new_excerpt":"Palantir Technologies(纽约证券交易所代码：PLTR)今天宣布，它将举行其\n2021年1月26日，星期二，美国东部时间下午4：30，首届“现场演示日”。\n\nPalantir的产品演示将包括其Foundry、Gotham和Apollo平台。\n产品销售线索将显示每个平台的最新版本，并介绍…","locale":"zh"},{"title":"Palantir Technologies Reports將於2021年1月26日(星期二)至下午4：30舉行首屆現場演示日。估計","the_new_excerpt":"Palantir Technologies(紐約證券交易所代碼：PLTR)今天宣佈，它將舉行其\n2021年1月26日，星期二，美國東部時間下午4：30，首屆“現場演示日”。\n\nPalantir的產品演示將包括其Foundry、Gotham和Apollo平臺。\n產品銷售線索將顯示每個平臺的最新版本，並介紹…","locale":"zh-Hant"}]}},{"__typename":"SocialMediaPost","id":"HnPost-25458777","excerpt":"","slug":"/hn/25458777","title":"A case study on strict null checks","date":"December 17, 2020","dateISO":"2020-12-17T23:28:44.071Z","datetime":"2020-12-17 23:28","tags":["story","Hacker News"],"image":null,"imageAlt":null,"provider":"Hacker News","thirdPartyId":"25458777","url":"https://news.ycombinator.com/item?id=25458777","originalUrl":"https://www.figma.com/blog/inside-figma-a-case-study-on-strict-null-checks/","imageRemote":"https://images.ctfassets.net/1khq4uysbvty/7IldSHJSuvFmdVql93FA3I/42953d8ace45048ac4e5b9db3cde1796/Tech_Deep_Dive__Strict_Null_Check_Header.png?w=1200&q=80","video":null,"channel":null,"channelUrl":null,"author":"rudi-c","authorUrl":"https://news.ycombinator.com/user?id=rudi-c","authorImage":null,"authorSlug":null,"score":166,"views":null,"sharedCount":null,"likeCount":null,"sharedContent":null,"parent":{"__typename":"HnJson","localize":[{"title":"关于严格空检查的案例研究","locale":"zh"},{"title":"關於嚴格空檢查的案例研究","locale":"zh-Hant"}]}},{"__typename":"SocialMediaPost","id":"HnPost-25456284","excerpt":"","slug":"/hn/25456284","title":"Ultra-processed foods and the corporate capture of nutrition","date":"December 17, 2020","dateISO":"2020-12-17T22:29:02.007Z","datetime":"2020-12-17 22:29","tags":["story","Hacker News"],"image":null,"imageAlt":null,"provider":"Hacker News","thirdPartyId":"25456284","url":"https://news.ycombinator.com/item?id=25456284","originalUrl":"https://www.bmj.com/content/371/bmj.m4601","imageRemote":"https://www.bmj.com/sites/default/files/sites/defautl/files/attachments/bmj-article/2020/12/fast_food_restaurant_chain_istock-1192094665.jpg","video":null,"channel":null,"channelUrl":null,"author":"CapitalistCartr","authorUrl":"https://news.ycombinator.com/user?id=CapitalistCartr","authorImage":null,"authorSlug":null,"score":193,"views":null,"sharedCount":null,"likeCount":null,"sharedContent":null,"parent":{"__typename":"HnJson","localize":[{"title":"超加工食品与企业获取营养","locale":"zh"},{"title":"超加工食品與企業獲取營養","locale":"zh-Hant"}]}},{"__typename":"SocialMediaPost","id":"HnPost-25460220","excerpt":"","slug":"/hn/25460220","title":"Hallucinations re: the rendering of Cyberpunk 2077","date":"December 17, 2020","dateISO":"2020-12-17T22:29:02.007Z","datetime":"2020-12-17 22:29","tags":["story","Hacker News"],"image":null,"imageAlt":null,"provider":"Hacker News","thirdPartyId":"25460220","url":"https://news.ycombinator.com/item?id=25460220","originalUrl":"http://c0de517e.blogspot.com/2020/12/hallucinations-re-rendering-of.html","imageRemote":"https://1.bp.blogspot.com/-Accm4KmCjcQ/X90IqbPkniI/AAAAAAAACO4/Y30F2-QUQuEN3oa44WvOhq4zrALKMpAHwCLcBGAsYHQ/w1200-h630-p-k-no-nu/Capture.PNG","video":null,"channel":null,"channelUrl":null,"author":"brundolf","authorUrl":"https://news.ycombinator.com/user?id=brundolf","authorImage":null,"authorSlug":null,"score":333,"views":null,"sharedCount":null,"likeCount":null,"sharedContent":null,"parent":{"__typename":"HnJson","localize":[{"title":"幻觉Re：赛博朋克2077的渲染","locale":"zh"},{"title":"幻覺Re：賽博朋克2077的渲染","locale":"zh-Hant"}]}},{"__typename":"SocialMediaPost","id":"RedditPost-kf409t","excerpt":"Link: https://decrypt.co/51846/crypto-exchange-coinbase-going-public-ipo\nTweet: https://twitter.com/coinbase/status/1339644445457752064","slug":"/reddit/r/investing/comments/kf409t/crypto_exchange_coinbase_is_officially_going/","title":"Crypto exchange Coinbase is officially going public","date":"December 17, 2020","dateISO":"2020-12-17T21:42:06.000Z","datetime":"2020-12-17 21:42","tags":["investing","reddit"],"image":null,"imageAlt":null,"provider":"Reddit","thirdPartyId":"kf409t","url":"https://www.reddit.com/r/investing/comments/kf409t/crypto_exchange_coinbase_is_officially_going/","originalUrl":"https://www.reddit.com/r/investing/comments/kf409t/crypto_exchange_coinbase_is_officially_going/","imageRemote":null,"video":null,"channel":"investing","channelUrl":"https://www.reddit.com/r/investing","author":"uxd","authorUrl":"https://www.reddit.com/user/uxd","authorImage":null,"authorSlug":"uxd","score":838,"views":null,"sharedCount":null,"likeCount":null,"sharedContent":null,"parent":{"__typename":"RedditJson","localize":[{"title":"密码交易所Coinbase正式上市","the_new_excerpt":"链接：https://decrypt.co/51846/crypto-exchange-coinbase-going-public-ipo\n推文：https://twitter.com/coinbase/status/1339644445457752064","locale":"zh"},{"title":"密碼交易所Coinbase正式上市","the_new_excerpt":"鏈接：https://decrypt.co/51846/crypto-exchange-coinbase-going-public-ipo\n推文：https://twitter.com/coinbase/status/1339644445457752064","locale":"zh-Hant"}]}},{"__typename":"SocialMediaPost","id":"HnPost-25457217","excerpt":"","slug":"/hn/25457217","title":"MindGeek: The secretive owner of Pornhub and RedTube","date":"December 17, 2020","dateISO":"2020-12-17T21:42:05.521Z","datetime":"2020-12-17 21:42","tags":["story","Hacker News"],"image":null,"imageAlt":null,"provider":"Hacker News","thirdPartyId":"25457217","url":"https://news.ycombinator.com/item?id=25457217","originalUrl":"https://arstechnica.com/?p=1730358","imageRemote":"https://cdn.arstechnica.net/wp-content/uploads/2020/12/bba9ccb3-0e1a-4858-8e00-a6cb81cd5e40-760x380.jpg","video":null,"channel":null,"channelUrl":null,"author":"feross","authorUrl":"https://news.ycombinator.com/user?id=feross","authorImage":null,"authorSlug":null,"score":191,"views":null,"sharedCount":null,"likeCount":null,"sharedContent":null,"parent":{"__typename":"HnJson","localize":[{"title":"Mindgeek：PornHub和RedTube的神秘所有者","locale":"zh"},{"title":"Mindgeek：PornHub和RedTube的神祕所有者","locale":"zh-Hant"}]}},{"__typename":"SocialMediaPost","id":"HnPost-25459119","excerpt":"","slug":"/hn/25459119","title":"50 years of tax cuts for the rich failed to trickle down, economics study says","date":"December 17, 2020","dateISO":"2020-12-17T21:20:18.479Z","datetime":"2020-12-17 21:20","tags":["story","Hacker News"],"image":null,"imageAlt":null,"provider":"Hacker News","thirdPartyId":"25459119","url":"https://news.ycombinator.com/item?id=25459119","originalUrl":"https://www.cbsnews.com/news/tax-cuts-rich-50-years-no-trickle-down/","imageRemote":"https://cbsnews3.cbsistatic.com/hub/i/r/2020/03/11/39975f4c-760a-4f18-a895-37e3196339e7/thumbnail/1200x630/d59d9f4aa1643fe4b2a5f2627fc4bfb1/9-polarizing-reagan.jpg","video":null,"channel":null,"channelUrl":null,"author":"NiceWayToDoIT","authorUrl":"https://news.ycombinator.com/user?id=NiceWayToDoIT","authorImage":null,"authorSlug":null,"score":134,"views":null,"sharedCount":null,"likeCount":null,"sharedContent":null,"parent":{"__typename":"HnJson","localize":[{"title":"经济学研究称，50年来为富人减税未能惠及民众","locale":"zh"},{"title":"經濟學研究稱，50年來爲富人減稅未能惠及民衆","locale":"zh-Hant"}]}},{"__typename":"SocialMediaPost","id":"HnPost-25458873","excerpt":"","slug":"/hn/25458873","title":"Coinbase announces confidential submission of draft registration statement","date":"December 17, 2020","dateISO":"2020-12-17T20:57:24.768Z","datetime":"2020-12-17 20:57","tags":["story","Hacker News"],"image":null,"imageAlt":null,"provider":"Hacker News","thirdPartyId":"25458873","url":"https://news.ycombinator.com/item?id=25458873","originalUrl":"https://blog.coinbase.com/coinbase-announces-confidential-submission-of-draft-registration-statement-b140a9dfc9f5","imageRemote":null,"video":null,"channel":null,"channelUrl":null,"author":"sinak","authorUrl":"https://news.ycombinator.com/user?id=sinak","authorImage":null,"authorSlug":null,"score":182,"views":null,"sharedCount":null,"likeCount":null,"sharedContent":null,"parent":{"__typename":"HnJson","localize":[{"title":"Coinbase宣布保密的深渊翻滚注册声明草案","locale":"zh"},{"title":"Coinbase宣佈保密的深淵翻滾註冊聲明草案","locale":"zh-Hant"}]}},{"__typename":"SocialMediaPost","id":"HnPost-25459434","excerpt":"","slug":"/hn/25459434","title":"Amazon disallows pointing out paid reviews","date":"December 17, 2020","dateISO":"2020-12-17T20:57:24.768Z","datetime":"2020-12-17 20:57","tags":["story","Hacker News"],"image":null,"imageAlt":null,"provider":"Hacker News","thirdPartyId":"25459434","url":"https://news.ycombinator.com/item?id=25459434","originalUrl":"http://blog.kevmod.com/2020/12/amazon-disallows-pointing-out-paid-reviews/","imageRemote":"http://blog.kevmod.com/wp-content/uploads/2020/12/IMG_16902.jpg","video":null,"channel":null,"channelUrl":null,"author":"kmod","authorUrl":"https://news.ycombinator.com/user?id=kmod","authorImage":null,"authorSlug":null,"score":1085,"views":null,"sharedCount":null,"likeCount":null,"sharedContent":null,"parent":{"__typename":"HnJson","localize":[{"title":"亚马逊不允许指出付费评论","locale":"zh"},{"title":"亞馬遜不允許指出付費評論","locale":"zh-Hant"}]}},{"__typename":"SocialMediaPost","id":"HnPost-25455068","excerpt":"","slug":"/hn/25455068","title":"Emails show Navy's 'UFO' patents went through significant internal review","date":"December 17, 2020","dateISO":"2020-12-17T20:34:34.723Z","datetime":"2020-12-17 20:34","tags":["story","Hacker News"],"image":null,"imageAlt":null,"provider":"Hacker News","thirdPartyId":"25455068","url":"https://news.ycombinator.com/item?id=25455068","originalUrl":"https://www.thedrive.com/the-war-zone/37134/emails-show-navys-ufo-patents-went-through-significant-internal-review-resulted-in-a-demo","imageRemote":"https://api.thedrive.com/wp-content/uploads/2020/12/Pais-top-shot.jpg?quality=85","video":null,"channel":null,"channelUrl":null,"author":"weare138","authorUrl":"https://news.ycombinator.com/user?id=weare138","authorImage":null,"authorSlug":null,"score":155,"views":null,"sharedCount":null,"likeCount":null,"sharedContent":null,"parent":{"__typename":"HnJson","localize":[{"title":"电子邮件显示海军的“UFO”专利经过了重要的内部审查","locale":"zh"},{"title":"電子郵件顯示海軍的“UFO”專利經過了重要的內部審查","locale":"zh-Hant"}]}},{"__typename":"SocialMediaPost","id":"RedditPost-kexnd7","excerpt":"Hi all, as the title suggests, what are your 2021 stock picks based on growth\n(stock price)? Based on a 3-5 year span (i.e., 2021-2026) rather than a\nconventional 1 or 10 year holding plan.\n\nPlease include your reasons (dd) on each stock if able. However, simple\nreasoning would suffice as to promote…","slug":"/reddit/r/stocks/comments/kexnd7/2021_stock_picks/","title":"2021 stock picks","date":"December 17, 2020","dateISO":"2020-12-17T19:34:59.000Z","datetime":"2020-12-17 19:34","tags":["stocks","reddit"],"image":null,"imageAlt":null,"provider":"Reddit","thirdPartyId":"kexnd7","url":"https://www.reddit.com/r/stocks/comments/kexnd7/2021_stock_picks/","originalUrl":"https://www.reddit.com/r/stocks/comments/kexnd7/2021_stock_picks/","imageRemote":null,"video":null,"channel":"stocks","channelUrl":"https://www.reddit.com/r/stocks","author":"PrincePhilthy","authorUrl":"https://www.reddit.com/user/PrincePhilthy","authorImage":null,"authorSlug":"PrincePhilthy","score":183,"views":null,"sharedCount":null,"likeCount":null,"sharedContent":null,"parent":{"__typename":"RedditJson","localize":[{"title":"2021年精选股票","the_new_excerpt":"大家好，正如标题所暗示的那样，根据增长情况，2021年你们会选择哪些股票？\n(股价)？基于3-5年的跨度(即2021-2026)，而不是\n常规的1年或10年持有计划。\n\n如果可以，请在每种库存上注明您的理由(Dd)。但是，简单地说，\n推理足以推动…","locale":"zh"},{"title":"2021年精選股票","the_new_excerpt":"大家好，正如標題所暗示的那樣，根據增長情況，2021年你們會選擇哪些股票？\n(股價)？基於3-5年的跨度(即2021-2026)，而不是\n常規的1年或10年持有計劃。\n\n如果可以，請在每種庫存上註明您的理由(Dd)。但是，簡單地說，\n推理足以推動…","locale":"zh-Hant"}]}},{"__typename":"SocialMediaPost","id":"HnPost-25456002","excerpt":"","slug":"/hn/25456002","title":"Philosophy of the GNU Project (2018)","date":"December 17, 2020","dateISO":"2020-12-17T19:23:09.030Z","datetime":"2020-12-17 19:23","tags":["story","Hacker News"],"image":null,"imageAlt":null,"provider":"Hacker News","thirdPartyId":"25456002","url":"https://news.ycombinator.com/item?id=25456002","originalUrl":"https://www.gnu.org/philosophy/philosophy.html","imageRemote":"https://www.gnu.org/server/banners/fence.png","video":null,"channel":null,"channelUrl":null,"author":"crazypython","authorUrl":"https://news.ycombinator.com/user?id=crazypython","authorImage":null,"authorSlug":null,"score":138,"views":null,"sharedCount":null,"likeCount":null,"sharedContent":null,"parent":{"__typename":"HnJson","localize":[{"title":"GNU项目理念(2018)","locale":"zh"},{"title":"GNU項目理念(2018)","locale":"zh-Hant"}]}},{"__typename":"SocialMediaPost","id":"HnPost-25456778","excerpt":"","slug":"/hn/25456778","title":"Biomarker of Alzheimer's found to be regulated by sleep cycles","date":"December 17, 2020","dateISO":"2020-12-17T19:23:09.030Z","datetime":"2020-12-17 19:23","tags":["story","Hacker News"],"image":null,"imageAlt":null,"provider":"Hacker News","thirdPartyId":"25456778","url":"https://news.ycombinator.com/item?id=25456778","originalUrl":"https://newatlas.com/medical/biomarker-alzheimers-protein-sleep-cycles-rhythm/","imageRemote":"https://assets.newatlas.com/dims4/default/28623f4/2147483647/strip/true/crop/700x368+0+50/resize/1200x630!/quality/90/?url=http%3A%2F%2Fnewatlas-brightspot.s3.amazonaws.com%2F41%2F42%2F20f8ded24888ba0fa89e7212d85b%2Flananna-et-al-fig-5a-forweb-700x467.jpg","video":null,"channel":null,"channelUrl":null,"author":"CapitalistCartr","authorUrl":"https://news.ycombinator.com/user?id=CapitalistCartr","authorImage":null,"authorSlug":null,"score":270,"views":null,"sharedCount":null,"likeCount":null,"sharedContent":null,"parent":{"__typename":"HnJson","localize":[{"title":"阿尔茨海默氏症的生物标记物被发现受睡眠周期调节","locale":"zh"},{"title":"阿爾茨海默氏症的生物標記物被發現受睡眠週期調節","locale":"zh-Hant"}]}},{"__typename":"SocialMediaPost","id":"HnPost-25458033","excerpt":"","slug":"/hn/25458033","title":"Sick of spending time on Auth, we built an open source 'Stripe for Auth'","date":"December 17, 2020","dateISO":"2020-12-17T19:23:09.030Z","datetime":"2020-12-17 19:23","tags":["story","Hacker News"],"image":null,"imageAlt":null,"provider":"Hacker News","thirdPartyId":"25458033","url":"https://news.ycombinator.com/item?id=25458033","originalUrl":"https://news.ycombinator.com/item?id=25458033","imageRemote":null,"video":null,"channel":null,"channelUrl":null,"author":"advaitruia","authorUrl":"https://news.ycombinator.com/user?id=advaitruia","authorImage":null,"authorSlug":null,"score":545,"views":null,"sharedCount":null,"likeCount":null,"sharedContent":null,"parent":{"__typename":"HnJson","localize":[{"title":"厌倦了在Auth上花费时间，我们构建了一个开放源码的‘Strike for Auth’","locale":"zh"},{"title":"厭倦了在Auth上花費時間，我們構建了一個開放源碼的‘Strike for Auth’","locale":"zh-Hant"}]}},{"__typename":"SocialMediaPost","id":"HnPost-25455659","excerpt":"","slug":"/hn/25455659","title":"Show HN: Make comic book layouts in the browser","date":"December 17, 2020","dateISO":"2020-12-17T19:00:03.709Z","datetime":"2020-12-17 19:00","tags":["story","Show HN","Hacker News"],"image":null,"imageAlt":null,"provider":"Hacker News","thirdPartyId":"25455659","url":"https://news.ycombinator.com/item?id=25455659","originalUrl":"https://andrewfulrich.gitlab.io/panelle/","imageRemote":"https://andrewfulrich.gitlab.io/panelle/images/pointerIcon.svg","video":null,"channel":"Show HN","channelUrl":"https://news.ycombinator.com/show","author":"TiredGuy","authorUrl":"https://news.ycombinator.com/user?id=TiredGuy","authorImage":null,"authorSlug":null,"score":192,"views":null,"sharedCount":null,"likeCount":null,"sharedContent":null,"parent":{"__typename":"HnJson","localize":[{"title":"HN新产品：在浏览器中进行漫画书布局","locale":"zh"},{"title":"HN新产品：在瀏覽器中進行漫畫書佈局","locale":"zh-Hant"}]}},{"__typename":"SocialMediaPost","id":"HnPost-25457411","excerpt":"","slug":"/hn/25457411","title":"Global chip shortage threatens production of laptops, smartphones and more","date":"December 17, 2020","dateISO":"2020-12-17T19:00:03.709Z","datetime":"2020-12-17 19:00","tags":["story","Hacker News"],"image":null,"imageAlt":null,"provider":"Hacker News","thirdPartyId":"25457411","url":"https://news.ycombinator.com/item?id=25457411","originalUrl":"https://www.reuters.com/article/idUSKBN28R0ZL","imageRemote":"https://static.reuters.com/resources/r/?m=02&d=20201217&t=2&i=1544896623&r=LYNXMPEGBG0LH&w=800","video":null,"channel":null,"channelUrl":null,"author":"neogodless","authorUrl":"https://news.ycombinator.com/user?id=neogodless","authorImage":null,"authorSlug":null,"score":184,"views":null,"sharedCount":null,"likeCount":null,"sharedContent":null,"parent":{"__typename":"HnJson","localize":[{"title":"全球芯片短缺威胁到笔记本电脑、智能手机等的生产","locale":"zh"},{"title":"全球芯片短缺威脅到筆記本電腦、智能手機等的生產","locale":"zh-Hant"}]}},{"__typename":"SocialMediaPost","id":"HnPost-25454837","excerpt":"","slug":"/hn/25454837","title":"Lessons from building and growing an open source SaaS","date":"December 17, 2020","dateISO":"2020-12-17T17:46:09.555Z","datetime":"2020-12-17 17:46","tags":["story","Hacker News"],"image":null,"imageAlt":null,"provider":"Hacker News","thirdPartyId":"25454837","url":"https://news.ycombinator.com/item?id=25454837","originalUrl":"https://plausible.io/blog/building-open-source","imageRemote":"https://plausible.io/uploads/growing-open-source.png","video":null,"channel":null,"channelUrl":null,"author":"markosaric","authorUrl":"https://news.ycombinator.com/user?id=markosaric","authorImage":null,"authorSlug":null,"score":173,"views":null,"sharedCount":null,"likeCount":null,"sharedContent":null,"parent":{"__typename":"HnJson","localize":[{"title":"构建和发展开源SaaS的经验教训","locale":"zh"},{"title":"構建和發展開源SaaS的經驗教訓","locale":"zh-Hant"}]}},{"__typename":"SocialMediaPost","id":"HnPost-25457440","excerpt":"","slug":"/hn/25457440","title":"No Cookie for You","date":"December 17, 2020","dateISO":"2020-12-17T17:46:09.555Z","datetime":"2020-12-17 17:46","tags":["story","Hacker News"],"image":null,"imageAlt":null,"provider":"Hacker News","thirdPartyId":"25457440","url":"https://news.ycombinator.com/item?id=25457440","originalUrl":"https://github.blog/2020-12-17-no-cookie-for-you/","imageRemote":"https://github.blog/wp-content/uploads/2020/12/github-no-cookie.png?fit=2400%2C1260","video":null,"channel":null,"channelUrl":null,"author":"todsacerdoti","authorUrl":"https://news.ycombinator.com/user?id=todsacerdoti","authorImage":null,"authorSlug":null,"score":2940,"views":null,"sharedCount":null,"likeCount":null,"sharedContent":null,"parent":{"__typename":"HnJson","localize":[{"title":"没有曲奇给你","locale":"zh"},{"title":"沒有曲奇給你","locale":"zh-Hant"}]}},{"__typename":"SocialMediaPost","id":"HnPost-25453252","excerpt":"","slug":"/hn/25453252","title":"Creative Code-Generated Art","date":"December 17, 2020","dateISO":"2020-12-17T16:43:32.061Z","datetime":"2020-12-17 16:43","tags":["story","Hacker News"],"image":null,"imageAlt":null,"provider":"Hacker News","thirdPartyId":"25453252","url":"https://news.ycombinator.com/item?id=25453252","originalUrl":"https://www.editorx.com/shaping-design/article/creative-coding","imageRemote":"https://static.wixstatic.com/media/5e5a34_1448194c080d46cbaa05760797f920c3~mv2.png/v1/fit/w_768%2Ch_926%2Cal_c%2Cq_80/file.png","video":null,"channel":null,"channelUrl":null,"author":"dzink","authorUrl":"https://news.ycombinator.com/user?id=dzink","authorImage":null,"authorSlug":null,"score":134,"views":null,"sharedCount":null,"likeCount":null,"sharedContent":null,"parent":{"__typename":"HnJson","localize":[{"title":"创造性的代码生成艺术","locale":"zh"},{"title":"創造性的代碼生成藝術","locale":"zh-Hant"}]}},{"__typename":"SocialMediaPost","id":"HnPost-25455603","excerpt":"","slug":"/hn/25455603","title":"Cloudflare Pages: the best way to build JAMstack websites","date":"December 17, 2020","dateISO":"2020-12-17T16:43:32.061Z","datetime":"2020-12-17 16:43","tags":["story","Hacker News"],"image":null,"imageAlt":null,"provider":"Hacker News","thirdPartyId":"25455603","url":"https://news.ycombinator.com/item?id=25455603","originalUrl":"https://blog.cloudflare.com/cloudflare-pages/","imageRemote":"https://blog.cloudflare.com/content/images/2020/12/facebook-link-image-18.png","video":null,"channel":null,"channelUrl":null,"author":"adspedia","authorUrl":"https://news.ycombinator.com/user?id=adspedia","authorImage":null,"authorSlug":null,"score":265,"views":null,"sharedCount":null,"likeCount":null,"sharedContent":null,"parent":{"__typename":"HnJson","localize":[{"title":"CloudFlare Pages：构建JAMstack网站的最佳方式","locale":"zh"},{"title":"CloudFlare Pages：構建JAMstack網站的最佳方式","locale":"zh-Hant"}]}},{"__typename":"SocialMediaPost","id":"HnPost-25455638","excerpt":"","slug":"/hn/25455638","title":"Stripe’s payments APIs: the first ten years","date":"December 17, 2020","dateISO":"2020-12-17T16:43:32.061Z","datetime":"2020-12-17 16:43","tags":["story","Hacker News"],"image":null,"imageAlt":null,"provider":"Hacker News","thirdPartyId":"25455638","url":"https://news.ycombinator.com/item?id=25455638","originalUrl":"https://stripe.com/blog/payment-api-design","imageRemote":"https://images.ctfassets.net/fzn2n1nzq965/5h8QNXWBWr8KWrTp4bf5n8/750e16b114121455f473fb6b6c79c7ca/blog-payment-api-social-card.png?q=80","video":null,"channel":null,"channelUrl":null,"author":"dguo","authorUrl":"https://news.ycombinator.com/user?id=dguo","authorImage":null,"authorSlug":null,"score":309,"views":null,"sharedCount":null,"likeCount":null,"sharedContent":null,"parent":{"__typename":"HnJson","localize":[{"title":"Stripe的支付API：头十年","locale":"zh"},{"title":"Stripe的支付API：頭十年","locale":"zh-Hant"}]}},{"__typename":"SocialMediaPost","id":"RedditPost-keya27","excerpt":"https://www.businessinsider.com/elon-musk-boring-company-texas-warehouse-austin-tesla-factory-site-2020-12\n\nDocuments filed with the Texas Department of Licensing and Regulation on\nDecember 7, first spotted by the Austin Business Journal Tuesday, show Elon\nMusk's tunneling venture seeking permission…","slug":"/reddit/r/stocks/comments/keya27/elon_musks_boring_company_buys_industrial_site/","title":"Elon Musk's Boring Company buys industrial site near Tesla's under-construction Texas factory","date":"December 17, 2020","dateISO":"2020-12-17T16:43:32.000Z","datetime":"2020-12-17 16:43","tags":["stocks","reddit"],"image":null,"imageAlt":null,"provider":"Reddit","thirdPartyId":"keya27","url":"https://www.reddit.com/r/stocks/comments/keya27/elon_musks_boring_company_buys_industrial_site/","originalUrl":"https://www.reddit.com/r/stocks/comments/keya27/elon_musks_boring_company_buys_industrial_site/","imageRemote":null,"video":null,"channel":"stocks","channelUrl":"https://www.reddit.com/r/stocks","author":"coolcomfort123","authorUrl":"https://www.reddit.com/user/coolcomfort123","authorImage":null,"authorSlug":"coolcomfort123","score":1386,"views":null,"sharedCount":null,"likeCount":null,"sharedContent":null,"parent":{"__typename":"RedditJson","localize":[{"title":"埃隆·马斯克的钻孔公司购买特斯拉在建德克萨斯州工厂附近的工业用地","the_new_excerpt":"https://www.businessinsider.com/elon-musk-boring-company-texas-warehouse-austin-tesla-factory-site-2020-12\n\n提交给德克萨斯州许可和规章部的文件\n12月7日，“奥斯汀商业日报”(Austin Business Journal)周二首次发现了埃隆(Elon)\n马斯克的隧道冒险寻求许可…","locale":"zh"},{"title":"埃隆·馬斯克的鑽孔公司購買特斯拉在建德克薩斯州工廠附近的工業用地","the_new_excerpt":"https://www.businessinsider.com/elon-musk-boring-company-texas-warehouse-austin-tesla-factory-site-2020-12\n\n提交給德克薩斯州許可和規章部的文件\n12月7日，“奧斯汀商業日報”(Austin Business Journal)週二首次發現了埃隆(Elon)\n馬斯克的隧道冒險尋求許可…","locale":"zh-Hant"}]}}]}},"pageContext":{"basePath":"/","pageType":"home","tagsFilter":{"id":{"glob":"!*Post-1"}},"filter":{"id":{"glob":"!*Post-1"}},"limit":25,"skip":1700,"totalPages":78,"total":1930,"currentPage":69,"maxWidth":1024,"maxHeight":512,"locale":"en","hrefLang":"en-US","originalPath":"/page/69","dateFormat":"MM/DD/YYYY"}},"staticQueryHashes":["1239077767","2506312863","2744905544","3025052997","3493603132","3493603132","3513215887","386998304"]}