{"componentChunkName":"component---gatsby-theme-buzzing-src-gatsby-theme-timeline-templates-posts-query-js","path":"/tags/hacker-news/page/49","result":{"data":{"site":{"siteMetadata":{"title":"Reddit 热门","description":"用中文浏览Reddit热门内容","social":[{"name":"Twitter","url":"https://twitter.com/gatsbyjs","external":null,"prefetch":null},{"name":"GitHub","url":"https://github.com/gatsbyjs","external":null,"prefetch":null}],"menuLinks":[],"localize":[{"locale":"en","title":"Buzzing on Reddit","description":"See what's buzzing on Reddit in your native language","social":[{"name":"Reddit","url":"https://www.reddit.com/","external":true,"prefetch":null}],"menuLinks":[{"name":"Weekly Selection","url":"/issues","external":null,"prefetch":null},{"name":"RSS","url":"/rss.xml","external":null,"prefetch":false}]},{"locale":"zh-Hant","title":"Reddit 熱門","description":"用中文瀏覽Reddit熱門內容","social":null,"menuLinks":null}]}},"tagsGroup":{"group":[{"fieldValue":"ASK HN","totalCount":44},{"fieldValue":"Bitcoin","totalCount":4},{"fieldValue":"Hacker News","totalCount":2600},{"fieldValue":"Poll","totalCount":1},{"fieldValue":"SaveAMC","totalCount":1},{"fieldValue":"Show HN","totalCount":89},{"fieldValue":"bitcoin","totalCount":3},{"fieldValue":"investing","totalCount":797},{"fieldValue":"poll","totalCount":1},{"fieldValue":"reddit","totalCount":4938},{"fieldValue":"science","totalCount":1},{"fieldValue":"stocks","totalCount":1592},{"fieldValue":"story","totalCount":2599},{"fieldValue":"tweet","totalCount":814},{"fieldValue":"wallstreetbets","totalCount":2549}]},"allBlogPost":{"nodes":[{"__typename":"SocialMediaPost","id":"HnPost-25984328","excerpt":"","slug":"/hn/25984328","title":"AMD vs. Intel vs. Nvidia: How Users Are Switching","date":"February 01, 2021","dateISO":"2021-02-01T10:58:31.895Z","datetime":"2021-02-01 10:58","tags":["story","Hacker News"],"image":null,"imageAlt":null,"provider":"Hacker News","thirdPartyId":"25984328","url":"https://news.ycombinator.com/item?id=25984328","originalUrl":"https://boilingsteam.com/amd-vs-nvidia-are-linux-gamers-switching-yet/","imageRemote":"https://boilingsteam.com/wp-content/uploads/amd-vs-nvidia-top.jpg","video":null,"channel":null,"channelUrl":null,"author":"ekianjo","authorUrl":"https://news.ycombinator.com/user?id=ekianjo","authorImage":null,"authorSlug":null,"score":224,"views":null,"sharedCount":null,"likeCount":null,"sharedContent":null,"parent":{"__typename":"HnJson","localize":[{"title":"AMD vs. 英特尔 vs. Nvidia：用户如何转换","locale":"zh"},{"title":"AMD vs. 英特爾 vs. Nvidia：用戶如何轉換","locale":"zh-Hant"}]}},{"__typename":"SocialMediaPost","id":"HnPost-25983759","excerpt":"","slug":"/hn/25983759","title":"Bedrock Linux – a meta Linux distribution","date":"February 01, 2021","dateISO":"2021-02-01T10:34:30.650Z","datetime":"2021-02-01 10:34","tags":["story","Hacker News"],"image":null,"imageAlt":null,"provider":"Hacker News","thirdPartyId":"25983759","url":"https://news.ycombinator.com/item?id=25983759","originalUrl":"https://bedrocklinux.org/","imageRemote":null,"video":null,"channel":null,"channelUrl":null,"author":"rhencke","authorUrl":"https://news.ycombinator.com/user?id=rhencke","authorImage":null,"authorSlug":null,"score":203,"views":null,"sharedCount":null,"likeCount":null,"sharedContent":null,"parent":{"__typename":"HnJson","localize":[{"title":"Bedrock Linux - 一个元Linux发行版","locale":"zh"},{"title":"Bedrock Linux - 一個元Linux發行版","locale":"zh-Hant"}]}},{"__typename":"SocialMediaPost","id":"HnPost-25986320","excerpt":"","slug":"/hn/25986320","title":"Counterfeiting Stock – Explaining illegal naked shorting and stock manipulation","date":"February 01, 2021","dateISO":"2021-02-01T10:34:30.650Z","datetime":"2021-02-01 10:34","tags":["story","Hacker News"],"image":null,"imageAlt":null,"provider":"Hacker News","thirdPartyId":"25986320","url":"https://news.ycombinator.com/item?id=25986320","originalUrl":"http://counterfeitingstock.com/CS2.0/CounterfeitingStock.html","imageRemote":"http://counterfeitingstock.com/CS2.0/diagram.png","video":null,"channel":null,"channelUrl":null,"author":"lelf","authorUrl":"https://news.ycombinator.com/user?id=lelf","authorImage":null,"authorSlug":null,"score":336,"views":null,"sharedCount":null,"likeCount":null,"sharedContent":null,"parent":{"__typename":"HnJson","localize":[{"title":"","locale":"zh"},{"title":"","locale":"zh-Hant"}]}},{"__typename":"SocialMediaPost","id":"HnPost-25986515","excerpt":"","slug":"/hn/25986515","title":"Apple watch keyboard developer put off by app store scammers","date":"February 01, 2021","dateISO":"2021-02-01T10:34:30.650Z","datetime":"2021-02-01 10:34","tags":["story","Hacker News"],"image":null,"imageAlt":null,"provider":"Hacker News","thirdPartyId":"25986515","url":"https://news.ycombinator.com/item?id=25986515","originalUrl":"https://twitter.com/keleftheriou/status/1356011069395755009","imageRemote":null,"video":null,"channel":null,"channelUrl":null,"author":"masalah","authorUrl":"https://news.ycombinator.com/user?id=masalah","authorImage":null,"authorSlug":null,"score":759,"views":null,"sharedCount":null,"likeCount":null,"sharedContent":null,"parent":{"__typename":"HnJson","localize":[{"title":"苹果手表键盘开发者被应用商店的骗子吓跑了","locale":"zh"},{"title":"蘋果手錶鍵盤開發者被應用商店的騙子嚇跑了","locale":"zh-Hant"}]}},{"__typename":"SocialMediaPost","id":"HnPost-25980901","excerpt":"","slug":"/hn/25980901","title":"A Collector of Math and Physics Surprises","date":"February 01, 2021","dateISO":"2021-02-01T08:57:19.878Z","datetime":"2021-02-01 08:57","tags":["story","Hacker News"],"image":null,"imageAlt":null,"provider":"Hacker News","thirdPartyId":"25980901","url":"https://news.ycombinator.com/item?id=25980901","originalUrl":"https://www.quantamagazine.org/tadashi-tokieda-collects-math-and-physics-surprises-20181127/","imageRemote":"https://d2r55xnwy6nx47.cloudfront.net/uploads/2018/11/Tokieda_1200x630_social.jpg","video":null,"channel":null,"channelUrl":null,"author":"haltingproblem","authorUrl":"https://news.ycombinator.com/user?id=haltingproblem","authorImage":null,"authorSlug":null,"score":179,"views":null,"sharedCount":null,"likeCount":null,"sharedContent":null,"parent":{"__typename":"HnJson","localize":[{"title":"数学和物理学惊喜的收藏家","locale":"zh"},{"title":"數學和物理學驚喜的收藏家","locale":"zh-Hant"}]}},{"__typename":"SocialMediaPost","id":"HnPost-25984998","excerpt":"","slug":"/hn/25984998","title":"Military seizes control in Myanmar","date":"February 01, 2021","dateISO":"2021-02-01T06:58:47.238Z","datetime":"2021-02-01 06:58","tags":["story","Hacker News"],"image":null,"imageAlt":null,"provider":"Hacker News","thirdPartyId":"25984998","url":"https://news.ycombinator.com/item?id=25984998","originalUrl":"https://www.bbc.com/news/world-asia-55882489","imageRemote":"https://ichef.bbci.co.uk/news/1024/branded_news/4E06/production/_116747991_hi065463059.jpg","video":null,"channel":null,"channelUrl":null,"author":"7d7n","authorUrl":"https://news.ycombinator.com/user?id=7d7n","authorImage":null,"authorSlug":null,"score":301,"views":null,"sharedCount":null,"likeCount":null,"sharedContent":null,"parent":{"__typename":"HnJson","localize":[{"title":"军方在缅甸夺取控制权","locale":"zh"},{"title":"軍方在緬甸奪取控制權","locale":"zh-Hant"}]}},{"__typename":"SocialMediaPost","id":"HnPost-25982302","excerpt":"","slug":"/hn/25982302","title":"Naked shorting: The curious incident of the shares that didn't exist (2005)","date":"January 31, 2021","dateISO":"2021-01-31T23:41:55.911Z","datetime":"2021-01-31 23:41","tags":["story","Hacker News"],"image":null,"imageAlt":null,"provider":"Hacker News","thirdPartyId":"25982302","url":"https://news.ycombinator.com/item?id=25982302","originalUrl":"https://web.archive.org/web/20160215135645/https://www.euromoney.com/Article/1001047/Naked-shorting-The-curious-incident-of-the-shares-that-didnt-.html","imageRemote":"https://web.archive.org/web/20160215135645im_/https://www.euromoney.com/App_Themes/em_com_2015/_app/img/euromoney_logo.png","video":null,"channel":null,"channelUrl":null,"author":"anaphor","authorUrl":"https://news.ycombinator.com/user?id=anaphor","authorImage":null,"authorSlug":null,"score":359,"views":null,"sharedCount":null,"likeCount":null,"sharedContent":null,"parent":{"__typename":"HnJson","localize":[{"title":"赤裸裸的做空。不存在的股票的奇怪事件(2005年)","locale":"zh"},{"title":"赤裸裸的做空。不存在的股票的奇怪事件(2005年)","locale":"zh-Hant"}]}},{"__typename":"SocialMediaPost","id":"HnPost-25978053","excerpt":"","slug":"/hn/25978053","title":"TeaVM: Build Fast, Modern Web Apps in Java","date":"January 31, 2021","dateISO":"2021-01-31T22:54:52.008Z","datetime":"2021-01-31 22:54","tags":["story","Hacker News"],"image":null,"imageAlt":null,"provider":"Hacker News","thirdPartyId":"25978053","url":"https://news.ycombinator.com/item?id=25978053","originalUrl":"http://teavm.org/","imageRemote":null,"video":null,"channel":null,"channelUrl":null,"author":"homarp","authorUrl":"https://news.ycombinator.com/user?id=homarp","authorImage":null,"authorSlug":null,"score":202,"views":null,"sharedCount":null,"likeCount":null,"sharedContent":null,"parent":{"__typename":"HnJson","localize":[{"title":"TeaVM。用Java构建快速、现代的Web应用","locale":"zh"},{"title":"TeaVM。用Java構建快速、現代的Web應用","locale":"zh-Hant"}]}},{"__typename":"SocialMediaPost","id":"HnPost-25976439","excerpt":"","slug":"/hn/25976439","title":"Drawbacks of P2P and a defense of Signal","date":"January 31, 2021","dateISO":"2021-01-31T21:33:29.642Z","datetime":"2021-01-31 21:33","tags":["story","Hacker News"],"image":null,"imageAlt":null,"provider":"Hacker News","thirdPartyId":"25976439","url":"https://news.ycombinator.com/item?id=25976439","originalUrl":"https://changelog.complete.org/archives/10216-the-hidden-drawbacks-of-p2p-and-a-defense-of-signal","imageRemote":"https://s0.wp.com/i/blank.jpg","video":null,"channel":null,"channelUrl":null,"author":"pabs3","authorUrl":"https://news.ycombinator.com/user?id=pabs3","authorImage":null,"authorSlug":null,"score":179,"views":null,"sharedCount":null,"likeCount":null,"sharedContent":null,"parent":{"__typename":"HnJson","localize":[{"title":"P2P的弊端与Signal的辩解","locale":"zh"},{"title":"P2P的弊端與Signal的辯解","locale":"zh-Hant"}]}},{"__typename":"SocialMediaPost","id":"HnPost-25971963","excerpt":"","slug":"/hn/25971963","title":"Why it’s usually crazier than you expect","date":"January 31, 2021","dateISO":"2021-01-31T21:18:12.896Z","datetime":"2021-01-31 21:18","tags":["story","Hacker News"],"image":null,"imageAlt":null,"provider":"Hacker News","thirdPartyId":"25971963","url":"https://news.ycombinator.com/item?id=25971963","originalUrl":"https://www.collaborativefund.com/blog/crazy/","imageRemote":"http://www.collaborativefund.com/uploads/lubo-minar-qRGuuVOzsTc-unsplash.jpg","video":null,"channel":null,"channelUrl":null,"author":"antdke","authorUrl":"https://news.ycombinator.com/user?id=antdke","authorImage":null,"authorSlug":null,"score":165,"views":null,"sharedCount":null,"likeCount":null,"sharedContent":null,"parent":{"__typename":"HnJson","localize":[{"title":"为什么它通常比你想象的更疯狂？","locale":"zh"},{"title":"爲什麼它通常比你想象的更瘋狂？","locale":"zh-Hant"}]}},{"__typename":"SocialMediaPost","id":"HnPost-25979584","excerpt":"","slug":"/hn/25979584","title":"The MIT License, Line by Line","date":"January 31, 2021","dateISO":"2021-01-31T19:51:31.541Z","datetime":"2021-01-31 19:51","tags":["story","Hacker News"],"image":null,"imageAlt":null,"provider":"Hacker News","thirdPartyId":"25979584","url":"https://news.ycombinator.com/item?id=25979584","originalUrl":"https://writing.kemitchell.com/2016/09/21/MIT-License-Line-by-Line.html","imageRemote":"https://writing.kemitchell.com/placeholder-on-white.png","video":null,"channel":null,"channelUrl":null,"author":"known","authorUrl":"https://news.ycombinator.com/user?id=known","authorImage":null,"authorSlug":null,"score":370,"views":null,"sharedCount":null,"likeCount":null,"sharedContent":null,"parent":{"__typename":"HnJson","localize":[{"title":"麻省理工学院的许可证，逐字逐句","locale":"zh"},{"title":"麻省理工學院的許可證，逐字逐句","locale":"zh-Hant"}]}},{"__typename":"SocialMediaPost","id":"HnPost-25968751","excerpt":"","slug":"/hn/25968751","title":"How to Increase Your Luck Surface Area (2010)","date":"January 31, 2021","dateISO":"2021-01-31T19:09:27.406Z","datetime":"2021-01-31 19:09","tags":["story","Hacker News"],"image":null,"imageAlt":null,"provider":"Hacker News","thirdPartyId":"25968751","url":"https://news.ycombinator.com/item?id=25968751","originalUrl":"https://www.codusoperandi.com/posts/increasing-your-luck-surface-area","imageRemote":"https://www.codusoperandi.com/posts/images/luck-surface-area.png","video":null,"channel":null,"channelUrl":null,"author":"deadcoder0904","authorUrl":"https://news.ycombinator.com/user?id=deadcoder0904","authorImage":null,"authorSlug":null,"score":352,"views":null,"sharedCount":null,"likeCount":null,"sharedContent":null,"parent":{"__typename":"HnJson","localize":[{"title":"如何增加你的运气表面积(2010)","locale":"zh"},{"title":"如何增加你的運氣表面積(2010)","locale":"zh-Hant"}]}},{"__typename":"SocialMediaPost","id":"HnPost-25978190","excerpt":"","slug":"/hn/25978190","title":"Why I still Lisp","date":"January 31, 2021","dateISO":"2021-01-31T18:43:58.228Z","datetime":"2021-01-31 18:43","tags":["story","Hacker News"],"image":null,"imageAlt":null,"provider":"Hacker News","thirdPartyId":"25978190","url":"https://news.ycombinator.com/item?id=25978190","originalUrl":"https://mendhekar.medium.com/why-i-still-lisp-and-you-should-too-18a2ae36bd8","imageRemote":"https://miro.medium.com/max/811/1*BBzSK02LI9pvIGtiT_1IbA.png","video":null,"channel":null,"channelUrl":null,"author":"lycopodiopsida","authorUrl":"https://news.ycombinator.com/user?id=lycopodiopsida","authorImage":null,"authorSlug":null,"score":282,"views":null,"sharedCount":null,"likeCount":null,"sharedContent":null,"parent":{"__typename":"HnJson","localize":[{"title":"为什么我还在说Lisp","locale":"zh"},{"title":"爲什麼我還在說Lisp","locale":"zh-Hant"}]}},{"__typename":"SocialMediaPost","id":"HnPost-25979673","excerpt":"","slug":"/hn/25979673","title":"Why Robinhood Disabled Buys but Not Sells","date":"January 31, 2021","dateISO":"2021-01-31T18:07:53.120Z","datetime":"2021-01-31 18:07","tags":["story","Hacker News"],"image":null,"imageAlt":null,"provider":"Hacker News","thirdPartyId":"25979673","url":"https://news.ycombinator.com/item?id=25979673","originalUrl":"https://stu2b50.dev/posts/why-robinhood-d3580b","imageRemote":"https://stu2b50.dev/public/logov1.svg","video":null,"channel":null,"channelUrl":null,"author":"stu2b50","authorUrl":"https://news.ycombinator.com/user?id=stu2b50","authorImage":null,"authorSlug":null,"score":704,"views":null,"sharedCount":null,"likeCount":null,"sharedContent":null,"parent":{"__typename":"HnJson","localize":[{"title":"为什么罗宾汉伤残买而不卖？","locale":"zh"},{"title":"爲什麼羅賓漢傷殘買而不賣？","locale":"zh-Hant"}]}},{"__typename":"SocialMediaPost","id":"HnPost-25979774","excerpt":"","slug":"/hn/25979774","title":"GitHub Should Start an App Store","date":"January 31, 2021","dateISO":"2021-01-31T17:30:29.589Z","datetime":"2021-01-31 17:30","tags":["story","Hacker News"],"image":null,"imageAlt":null,"provider":"Hacker News","thirdPartyId":"25979774","url":"https://news.ycombinator.com/item?id=25979774","originalUrl":"https://www.ankshilp.com/time_for_github_app_store/","imageRemote":"https://www.ankshilp.com/images/avatar.png","video":null,"channel":null,"channelUrl":null,"author":"quaintdev","authorUrl":"https://news.ycombinator.com/user?id=quaintdev","authorImage":null,"authorSlug":null,"score":814,"views":null,"sharedCount":null,"likeCount":null,"sharedContent":null,"parent":{"__typename":"HnJson","localize":[{"title":"GitHub应该建立一个应用商店","locale":"zh"},{"title":"GitHub應該建立一個應用商店","locale":"zh-Hant"}]}},{"__typename":"SocialMediaPost","id":"HnPost-25974757","excerpt":"","slug":"/hn/25974757","title":"RV64X: A Free, open-source GPU for RISC-V","date":"January 31, 2021","dateISO":"2021-01-31T15:17:25.559Z","datetime":"2021-01-31 15:17","tags":["story","Hacker News"],"image":null,"imageAlt":null,"provider":"Hacker News","thirdPartyId":"25974757","url":"https://news.ycombinator.com/item?id=25974757","originalUrl":"https://www.eetimes.com/rv64x-a-free-open-source-gpu-for-risc-v/","imageRemote":"https://www.eetimes.com/wp-content/uploads/GPU-2.png?fit=914%2C620","video":null,"channel":null,"channelUrl":null,"author":"mardiyah","authorUrl":"https://news.ycombinator.com/user?id=mardiyah","authorImage":null,"authorSlug":null,"score":188,"views":null,"sharedCount":null,"likeCount":null,"sharedContent":null,"parent":{"__typename":"HnJson","localize":[{"title":"RV64X：一个免费的、开源的RISC-V的GPU。","locale":"zh"},{"title":"RV64X：一個免費的、開源的RISC-V的GPU。","locale":"zh-Hant"}]}},{"__typename":"SocialMediaPost","id":"HnPost-25978013","excerpt":"","slug":"/hn/25978013","title":"How to Turn an IKEA Coffee Table into a DIY Server Rack","date":"January 31, 2021","dateISO":"2021-01-31T14:46:57.352Z","datetime":"2021-01-31 14:46","tags":["story","Hacker News"],"image":null,"imageAlt":null,"provider":"Hacker News","thirdPartyId":"25978013","url":"https://news.ycombinator.com/item?id=25978013","originalUrl":"https://wiki.eth0.nl/index.php/LackRack","imageRemote":"https://wiki.eth0.nl/images/3/33/Lackrack_manual_page_1_400x566.png","video":null,"channel":null,"channelUrl":null,"author":"thejokersthief","authorUrl":"https://news.ycombinator.com/user?id=thejokersthief","authorImage":null,"authorSlug":null,"score":414,"views":null,"sharedCount":null,"likeCount":null,"sharedContent":null,"parent":{"__typename":"HnJson","localize":[{"title":"如何把宜家的茶几变成DIY服务器支架","locale":"zh"},{"title":"如何把宜家的茶几變成DIY服務器支架","locale":"zh-Hant"}]}},{"__typename":"SocialMediaPost","id":"HnPost-25973242","excerpt":"","slug":"/hn/25973242","title":"Docker, Django, Traefik, and IntercoolerJS: My go-to stack for building a SaaS","date":"January 31, 2021","dateISO":"2021-01-31T08:34:20.168Z","datetime":"2021-01-31 08:34","tags":["story","Hacker News"],"image":null,"imageAlt":null,"provider":"Hacker News","thirdPartyId":"25973242","url":"https://news.ycombinator.com/item?id=25973242","originalUrl":"https://www.simplecto.com/docker-django-traefik-intercoolerjs-is-my-stack-for-2021/","imageRemote":"https://www.simplecto.com/content/images/2021/01/docker-django2021.jpg","video":null,"channel":null,"channelUrl":null,"author":"simplecto","authorUrl":"https://news.ycombinator.com/user?id=simplecto","authorImage":null,"authorSlug":null,"score":289,"views":null,"sharedCount":null,"likeCount":null,"sharedContent":null,"parent":{"__typename":"HnJson","localize":[{"title":"Docker、Django、Traefik和IntercoolerJS：我构建SaaS的首选栈。","locale":"zh"},{"title":"Docker、Django、Traefik和IntercoolerJS：我構建SaaS的首選棧。","locale":"zh-Hant"}]}},{"__typename":"SocialMediaPost","id":"HnPost-25972121","excerpt":"","slug":"/hn/25972121","title":"A vast web of vengeance","date":"January 31, 2021","dateISO":"2021-01-31T07:36:53.896Z","datetime":"2021-01-31 07:36","tags":["story","Hacker News"],"image":null,"imageAlt":null,"provider":"Hacker News","thirdPartyId":"25972121","url":"https://news.ycombinator.com/item?id=25972121","originalUrl":"https://www.nytimes.com/2021/01/30/technology/change-my-google-results.html","imageRemote":"https://static01.nyt.com/images/2021/01/31/business/31Grudge-p1/31Grudge-p1-facebookJumbo-v2.jpg","video":null,"channel":null,"channelUrl":null,"author":"tysone","authorUrl":"https://news.ycombinator.com/user?id=tysone","authorImage":null,"authorSlug":null,"score":228,"views":null,"sharedCount":null,"likeCount":null,"sharedContent":null,"parent":{"__typename":"HnJson","localize":[{"title":"一个庞大的复仇之网","locale":"zh"},{"title":"一個龐大的復仇之網","locale":"zh-Hant"}]}},{"__typename":"SocialMediaPost","id":"HnPost-25972620","excerpt":"","slug":"/hn/25972620","title":"India protests: Internet cut to hunger-striking farmers in Delhi","date":"January 31, 2021","dateISO":"2021-01-31T06:27:47.809Z","datetime":"2021-01-31 06:27","tags":["story","Hacker News"],"image":null,"imageAlt":null,"provider":"Hacker News","thirdPartyId":"25972620","url":"https://news.ycombinator.com/item?id=25972620","originalUrl":"https://www.bbc.co.uk/news/world-asia-india-55872480","imageRemote":"https://ichef.bbci.co.uk/news/1024/branded_news/1E67/production/_116738770_gettyimages-1230866035.jpg","video":null,"channel":null,"channelUrl":null,"author":"jfk13","authorUrl":"https://news.ycombinator.com/user?id=jfk13","authorImage":null,"authorSlug":null,"score":217,"views":null,"sharedCount":null,"likeCount":null,"sharedContent":null,"parent":{"__typename":"HnJson","localize":[{"title":"印度的抗议活动。新德里的绝食农民被切断互联网","locale":"zh"},{"title":"印度的抗議活動。新德里的絕食農民被切斷互聯網","locale":"zh-Hant"}]}},{"__typename":"SocialMediaPost","id":"HnPost-25969823","excerpt":"","slug":"/hn/25969823","title":"What Did We Lose When We Lost the Stars?","date":"January 31, 2021","dateISO":"2021-01-31T04:00:31.407Z","datetime":"2021-01-31 04:00","tags":["story","Hacker News"],"image":null,"imageAlt":null,"provider":"Hacker News","thirdPartyId":"25969823","url":"https://news.ycombinator.com/item?id=25969823","originalUrl":"https://theconvivialsociety.substack.com/p/what-did-we-lose-when-we-lost-the","imageRemote":"https://cdn.substack.com/image/fetch/h_600,c_limit,f_auto,q_auto:good,fl_progressive:steep/https%3A%2F%2Fbucketeer-e05bbc84-baa3-437e-9518-adb32be77984.s3.amazonaws.com%2Fpublic%2Fimages%2F9fb9f593-f890-4c46-b989-866331db14ac_1920x582.jpeg","video":null,"channel":null,"channelUrl":null,"author":"cetera","authorUrl":"https://news.ycombinator.com/user?id=cetera","authorImage":null,"authorSlug":null,"score":197,"views":null,"sharedCount":null,"likeCount":null,"sharedContent":null,"parent":{"__typename":"HnJson","localize":[{"title":"当我们失去了星星，我们失去了什么？","locale":"zh"},{"title":"當我們失去了星星，我們失去了什麼？","locale":"zh-Hant"}]}},{"__typename":"SocialMediaPost","id":"HnPost-25973955","excerpt":"","slug":"/hn/25973955","title":"My 90s TV: Browse 90s Television","date":"January 31, 2021","dateISO":"2021-01-31T04:00:31.407Z","datetime":"2021-01-31 04:00","tags":["story","Hacker News"],"image":null,"imageAlt":null,"provider":"Hacker News","thirdPartyId":"25973955","url":"https://news.ycombinator.com/item?id=25973955","originalUrl":"https://my90stv.com","imageRemote":"http://www.my90stv.com/share.jpg?v=5","video":null,"channel":null,"channelUrl":null,"author":"optimalsolver","authorUrl":"https://news.ycombinator.com/user?id=optimalsolver","authorImage":null,"authorSlug":null,"score":526,"views":null,"sharedCount":null,"likeCount":null,"sharedContent":null,"parent":{"__typename":"HnJson","localize":[{"title":"我的90年代电视：浏览90年代电视","locale":"zh"},{"title":"我的90年代電視：瀏覽90年代電視","locale":"zh-Hant"}]}},{"__typename":"SocialMediaPost","id":"HnPost-25969694","excerpt":"","slug":"/hn/25969694","title":"Electric cars are coming fast – is the nation’s grid up to it?","date":"January 31, 2021","dateISO":"2021-01-31T03:38:08.220Z","datetime":"2021-01-31 03:38","tags":["story","Hacker News"],"image":null,"imageAlt":null,"provider":"Hacker News","thirdPartyId":"25969694","url":"https://news.ycombinator.com/item?id=25969694","originalUrl":"https://www.nytimes.com/2021/01/29/climate/gm-electric-cars-power-grid.html","imageRemote":"https://static01.nyt.com/images/2021/01/30/climate/29CLI-ELECTRICCARS-print/29CLI-ELECTRICCARS1-facebookJumbo.jpg","video":null,"channel":null,"channelUrl":null,"author":"CapitalistCartr","authorUrl":"https://news.ycombinator.com/user?id=CapitalistCartr","authorImage":null,"authorSlug":null,"score":216,"views":null,"sharedCount":null,"likeCount":null,"sharedContent":null,"parent":{"__typename":"HnJson","localize":[{"title":"电动汽车来势迅猛--国家的电网能满足它吗？","locale":"zh"},{"title":"電動汽車來勢迅猛--國家的電網能滿足它嗎？","locale":"zh-Hant"}]}},{"__typename":"SocialMediaPost","id":"HnPost-25975110","excerpt":"","slug":"/hn/25975110","title":"CDC website built by Deloitte at a cost of $44M is abandoned due to bugs","date":"January 31, 2021","dateISO":"2021-01-31T03:38:08.220Z","datetime":"2021-01-31 03:38","tags":["story","Hacker News"],"image":null,"imageAlt":null,"provider":"Hacker News","thirdPartyId":"25975110","url":"https://news.ycombinator.com/item?id=25975110","originalUrl":"https://www.technologyreview.com/2021/01/30/1017086/cdc-44-million-vaccine-data-vams-problems/","imageRemote":"https://wp.technologyreview.com/wp-content/uploads/2021/01/Sad-covid-computer.jpeg?resize=1200,600","video":null,"channel":null,"channelUrl":null,"author":"donsupreme","authorUrl":"https://news.ycombinator.com/user?id=donsupreme","authorImage":null,"authorSlug":null,"score":1166,"views":null,"sharedCount":null,"likeCount":null,"sharedContent":null,"parent":{"__typename":"HnJson","localize":[{"title":"德勤耗资4400万美元打造的CDC网站因BUG被弃用。","locale":"zh"},{"title":"德勤耗資4400萬美元打造的CDC網站因BUG被棄用。","locale":"zh-Hant"}]}},{"__typename":"SocialMediaPost","id":"HnPost-25973844","excerpt":"","slug":"/hn/25973844","title":"Ecstasy and psilocybin are shaking up psychiatry","date":"January 31, 2021","dateISO":"2021-01-31T03:07:13.218Z","datetime":"2021-01-31 03:07","tags":["story","Hacker News"],"image":null,"imageAlt":null,"provider":"Hacker News","thirdPartyId":"25973844","url":"https://news.ycombinator.com/item?id=25973844","originalUrl":"https://www.nature.com/articles/d41586-021-00187-9","imageRemote":"https://media.nature.com/lw1024/magazine-assets/d41586-021-00187-9/d41586-021-00187-9_18797316.jpg","video":null,"channel":null,"channelUrl":null,"author":"nabla9","authorUrl":"https://news.ycombinator.com/user?id=nabla9","authorImage":null,"authorSlug":null,"score":233,"views":null,"sharedCount":null,"likeCount":null,"sharedContent":null,"parent":{"__typename":"HnJson","localize":[{"title":"摇头丸和迷幻药正在颠覆精神病学。","locale":"zh"},{"title":"搖頭丸和迷幻藥正在顛覆精神病學。","locale":"zh-Hant"}]}}]}},"pageContext":{"basePath":"/","pageType":"tag","tag":"Hacker News","tagsFilter":{"id":{"glob":"!*Post-1"}},"filter":{"id":{"glob":"!*Post-1"},"tags":{"eq":"Hacker News"}},"limit":25,"skip":1200,"total":2600,"totalPages":104,"currentPage":49,"maxWidth":1024,"maxHeight":512,"locale":"zh","hrefLang":"zh-Hans","originalPath":"/tags/hacker-news/page/49","dateFormat":"YYYY-MM-DD"}},"staticQueryHashes":["1239077767","2506312863","2744905544","3025052997","3493603132","3493603132","3513215887","386998304"]}