{"componentChunkName":"component---gatsby-theme-buzzing-src-gatsby-theme-timeline-templates-posts-query-js","path":"/zh-Hant/tags/hacker-news/page/29","result":{"data":{"site":{"siteMetadata":{"title":"Reddit 热门","description":"用中文浏览Reddit热门内容","social":[{"name":"Reddit","url":"https://www.reddit.com/","external":true,"prefetch":null},{"name":"GitHub","url":"https://github.com/gatsbyjs","external":null,"prefetch":null}],"menuLinks":[{"name":"每周精选","url":"/issues","external":null,"prefetch":null},{"name":"RSS","url":"/rss.xml","external":null,"prefetch":false}],"localize":[{"locale":"en","title":"Buzzing on Reddit","description":"See what's buzzing on Reddit in your native language","social":[{"name":"Reddit","url":"https://www.reddit.com/","external":true,"prefetch":null}],"menuLinks":[{"name":"Weekly Selection","url":"/issues","external":null,"prefetch":null},{"name":"RSS","url":"/rss.xml","external":null,"prefetch":false}]},{"locale":"zh-Hant","title":"Reddit 熱門","description":"用中文瀏覽Reddit熱門內容","social":null,"menuLinks":null}]}},"tagsGroup":{"group":[{"fieldValue":"ASK HN","totalCount":18},{"fieldValue":"Bitcoin","totalCount":3},{"fieldValue":"Hacker News","totalCount":796},{"fieldValue":"Poll","totalCount":1},{"fieldValue":"Show HN","totalCount":31},{"fieldValue":"investing","totalCount":166},{"fieldValue":"poll","totalCount":1},{"fieldValue":"reddit","totalCount":590},{"fieldValue":"science","totalCount":1},{"fieldValue":"stocks","totalCount":275},{"fieldValue":"story","totalCount":795},{"fieldValue":"tweet","totalCount":242},{"fieldValue":"wallstreetbets","totalCount":149}]},"allBlogPost":{"nodes":[{"__typename":"SocialMediaPost","id":"HnPost-25454747","excerpt":"","slug":"/hn/25454747","title":"Physicists Create Time-Reversed Waves of Optical Light","date":"December 18, 2020","dateISO":"2020-12-18T13:00:46.453Z","datetime":"2020-12-18 13:00","tags":["story","Hacker News"],"image":null,"imageAlt":null,"provider":"Hacker News","thirdPartyId":"25454747","url":"https://news.ycombinator.com/item?id=25454747","originalUrl":"https://www.sciencealert.com/physicists-have-created-time-reversed-waves-of-light","imageRemote":"https://www.sciencealert.com/images/2020-12/processed/time-beam_1024.jpg","video":null,"channel":null,"channelUrl":null,"author":"bookofjoe","authorUrl":"https://news.ycombinator.com/user?id=bookofjoe","authorImage":null,"authorSlug":null,"score":119,"views":null,"sharedCount":null,"likeCount":null,"sharedContent":null,"parent":{"__typename":"HnJson","localize":[{"title":"物理学家创造了时间反转的光波","locale":"zh"},{"title":"物理學家創造了時間反轉的光波","locale":"zh-Hant"}]}},{"__typename":"SocialMediaPost","id":"HnPost-25459731","excerpt":"","slug":"/hn/25459731","title":"Playing chess is a life lesson in concentration","date":"December 18, 2020","dateISO":"2020-12-18T13:00:46.453Z","datetime":"2020-12-18 13:00","tags":["story","Hacker News"],"image":null,"imageAlt":null,"provider":"Hacker News","thirdPartyId":"25459731","url":"https://news.ycombinator.com/item?id=25459731","originalUrl":"https://aeon.co/essays/playing-chess-is-an-essential-life-lesson-in-concentration","imageRemote":"https://alpha.aeon.co/images/e905da2e-8ab0-489f-aa9a-950ed31c0632/header_essay-panos_00171315.jpg","video":null,"channel":null,"channelUrl":null,"author":"agronaut","authorUrl":"https://news.ycombinator.com/user?id=agronaut","authorImage":null,"authorSlug":null,"score":228,"views":null,"sharedCount":null,"likeCount":null,"sharedContent":null,"parent":{"__typename":"HnJson","localize":[{"title":"下国际象棋是集中注意力的人生课程。","locale":"zh"},{"title":"下國際象棋是集中注意力的人生課程。","locale":"zh-Hant"}]}},{"__typename":"SocialMediaPost","id":"HnPost-25466304","excerpt":"","slug":"/hn/25466304","title":"Czech startup (JetBrains) founders turn billionaires without VC help","date":"December 18, 2020","dateISO":"2020-12-18T13:00:46.453Z","datetime":"2020-12-18 13:00","tags":["story","Hacker News"],"image":null,"imageAlt":null,"provider":"Hacker News","thirdPartyId":"25466304","url":"https://news.ycombinator.com/item?id=25466304","originalUrl":"https://www.bloomberg.com/news/articles/2020-12-18/czech-startup-founders-turn-billionaires-without-vc-help","imageRemote":null,"video":null,"channel":null,"channelUrl":null,"author":"OJFord","authorUrl":"https://news.ycombinator.com/user?id=OJFord","authorImage":null,"authorSlug":null,"score":1243,"views":null,"sharedCount":null,"likeCount":null,"sharedContent":null,"parent":{"__typename":"HnJson","localize":[{"title":"捷克初创公司(JetBrains)创始人在没有风投帮助的情况下成为亿万富翁","locale":"zh"},{"title":"捷克初創公司(JetBrains)創始人在沒有風投幫助的情況下成爲億萬富翁","locale":"zh-Hant"}]}},{"__typename":"SocialMediaPost","id":"HnPost-25464280","excerpt":"","slug":"/hn/25464280","title":"Twitter cut off the ability to read a tweet by fetching its URL with a HTTP GET","date":"December 18, 2020","dateISO":"2020-12-18T09:02:24.863Z","datetime":"2020-12-18 09:02","tags":["story","Hacker News"],"image":null,"imageAlt":null,"provider":"Hacker News","thirdPartyId":"25464280","url":"https://news.ycombinator.com/item?id=25464280","originalUrl":"https://twitter.com/zarfeblong/status/1339742840142872577","imageRemote":null,"video":null,"channel":null,"channelUrl":null,"author":"LyalinDotCom","authorUrl":"https://news.ycombinator.com/user?id=LyalinDotCom","authorImage":null,"authorSlug":null,"score":326,"views":null,"sharedCount":null,"likeCount":null,"sharedContent":null,"parent":{"__typename":"HnJson","localize":[{"title":"Twitter通过使用HTTP get获取URL来切断阅读推文的功能","locale":"zh"},{"title":"Twitter通過使用HTTP get獲取URL來切斷閱讀推文的功能","locale":"zh-Hant"}]}},{"__typename":"SocialMediaPost","id":"HnPost-25464475","excerpt":"","slug":"/hn/25464475","title":"Facebook's Hypocrisy on Apple's New iOS 14 Privacy Feature","date":"December 18, 2020","dateISO":"2020-12-18T08:52:09.648Z","datetime":"2020-12-18 08:52","tags":["story","Hacker News"],"image":null,"imageAlt":null,"provider":"Hacker News","thirdPartyId":"25464475","url":"https://news.ycombinator.com/item?id=25464475","originalUrl":"https://thebigtech.substack.com/p/facebook-criticising-apples-ios-14","imageRemote":"https://cdn.substack.com/image/fetch/h_600,c_limit,f_auto,q_auto:good,fl_progressive:steep/https%3A%2F%2Fbucketeer-e05bbc84-baa3-437e-9518-adb32be77984.s3.amazonaws.com%2Fpublic%2Fimages%2F70618a47-3206-4c78-9831-c42405fd4fd9_1400x933.jpeg","video":null,"channel":null,"channelUrl":null,"author":"anupamchugh","authorUrl":"https://news.ycombinator.com/user?id=anupamchugh","authorImage":null,"authorSlug":null,"score":671,"views":null,"sharedCount":null,"likeCount":null,"sharedContent":null,"parent":{"__typename":"HnJson","localize":[{"title":"Facebook对苹果iOS 14新隐私功能的伪善","locale":"zh"},{"title":"Facebook對蘋果iOS 14新隱私功能的僞善","locale":"zh-Hant"}]}},{"__typename":"SocialMediaPost","id":"HnPost-25461760","excerpt":"","slug":"/hn/25461760","title":"The Smalltalk Zoo","date":"December 18, 2020","dateISO":"2020-12-18T07:12:18.404Z","datetime":"2020-12-18 07:12","tags":["story","Hacker News"],"image":null,"imageAlt":null,"provider":"Hacker News","thirdPartyId":"25461760","url":"https://news.ycombinator.com/item?id=25461760","originalUrl":"https://computerhistory.org/blog/introducing-the-smalltalk-zoo-48-years-of-smalltalk-history-at-chm/","imageRemote":"https://computerhistory.org/wp-content/uploads/2020/12/Smalltalk-hero.jpg","video":null,"channel":null,"channelUrl":null,"author":"fniephaus","authorUrl":"https://news.ycombinator.com/user?id=fniephaus","authorImage":null,"authorSlug":null,"score":163,"views":null,"sharedCount":null,"likeCount":null,"sharedContent":null,"parent":{"__typename":"HnJson","localize":[{"title":"Smalltalk动物园","locale":"zh"},{"title":"Smalltalk動物園","locale":"zh-Hant"}]}},{"__typename":"SocialMediaPost","id":"HnPost-25462168","excerpt":"","slug":"/hn/25462168","title":"Python at Scale: Strict Modules","date":"December 18, 2020","dateISO":"2020-12-18T06:31:40.125Z","datetime":"2020-12-18 06:31","tags":["story","Hacker News"],"image":null,"imageAlt":null,"provider":"Hacker News","thirdPartyId":"25462168","url":"https://news.ycombinator.com/item?id=25462168","originalUrl":"https://instagram-engineering.com/python-at-scale-strict-modules-c0bb9245c834?source=social.tw","imageRemote":"https://miro.medium.com/proxy/1*3sela1OADrJr7dJk_CXaEQ.png","video":null,"channel":null,"channelUrl":null,"author":"rbanffy","authorUrl":"https://news.ycombinator.com/user?id=rbanffy","authorImage":null,"authorSlug":null,"score":225,"views":null,"sharedCount":null,"likeCount":null,"sharedContent":null,"parent":{"__typename":"HnJson","localize":[{"title":"Python at Scale：严格模块","locale":"zh"},{"title":"Python at Scale：嚴格模塊","locale":"zh-Hant"}]}},{"__typename":"SocialMediaPost","id":"HnPost-25461367","excerpt":"","slug":"/hn/25461367","title":"Show HN: StumblingOn – Randomly find indie websites – recreating StumbleUpon","date":"December 18, 2020","dateISO":"2020-12-18T05:30:33.771Z","datetime":"2020-12-18 05:30","tags":["story","Show HN","Hacker News"],"image":null,"imageAlt":null,"provider":"Hacker News","thirdPartyId":"25461367","url":"https://news.ycombinator.com/item?id=25461367","originalUrl":"https://stumblingon.com","imageRemote":null,"video":null,"channel":"Show HN","channelUrl":"https://news.ycombinator.com/show","author":"ALittleLight","authorUrl":"https://news.ycombinator.com/user?id=ALittleLight","authorImage":null,"authorSlug":null,"score":138,"views":null,"sharedCount":null,"likeCount":null,"sharedContent":null,"parent":{"__typename":"HnJson","localize":[{"title":"HN新产品：StumblingOn-随机查找独立网站-重新创建StumbleUpon","locale":"zh"},{"title":"show HN：StumblingOn-隨機查找獨立網站-重新創建StumbleUpon","locale":"zh-Hant"}]}},{"__typename":"SocialMediaPost","id":"HnPost-25462132","excerpt":"","slug":"/hn/25462132","title":"Toxic fumes seep into the air you breathe on planes","date":"December 18, 2020","dateISO":"2020-12-18T04:52:11.133Z","datetime":"2020-12-18 04:52","tags":["story","Hacker News"],"image":null,"imageAlt":null,"provider":"Hacker News","thirdPartyId":"25462132","url":"https://news.ycombinator.com/item?id=25462132","originalUrl":"https://www.latimes.com/projects/toxic-chemicals-planes-covid-19-travel-woes/","imageRemote":"https://www.latimes.com/projects/toxic-chemicals-planes-covid-19-travel-woes/assets/meta/social-image.d1c8afd5.jpg","video":null,"channel":null,"channelUrl":null,"author":"clumsysmurf","authorUrl":"https://news.ycombinator.com/user?id=clumsysmurf","authorImage":null,"authorSlug":null,"score":170,"views":null,"sharedCount":null,"likeCount":null,"sharedContent":null,"parent":{"__typename":"HnJson","localize":[{"title":"有毒烟雾渗入你在飞机上呼吸的空气中","locale":"zh"},{"title":"有毒煙霧滲入你在飛機上呼吸的空氣中","locale":"zh-Hant"}]}},{"__typename":"SocialMediaPost","id":"HnPost-25462814","excerpt":"","slug":"/hn/25462814","title":"What If OpenDocument Used SQLite?","date":"December 18, 2020","dateISO":"2020-12-18T04:52:11.133Z","datetime":"2020-12-18 04:52","tags":["story","Hacker News"],"image":null,"imageAlt":null,"provider":"Hacker News","thirdPartyId":"25462814","url":"https://news.ycombinator.com/item?id=25462814","originalUrl":"https://www.sqlite.org/affcase1.html","imageRemote":"https://www.sqlite.org/images/sqlite370_banner.gif","video":null,"channel":null,"channelUrl":null,"author":"timeoperator","authorUrl":"https://news.ycombinator.com/user?id=timeoperator","authorImage":null,"authorSlug":null,"score":269,"views":null,"sharedCount":null,"likeCount":null,"sharedContent":null,"parent":{"__typename":"HnJson","localize":[{"title":"如果OpenDocument使用SQLite怎么办？","locale":"zh"},{"title":"如果OpenDocument使用SQLite怎麼辦？","locale":"zh-Hant"}]}},{"__typename":"SocialMediaPost","id":"HnPost-25463449","excerpt":"","slug":"/hn/25463449","title":"U.S. has evidence hackers accessed its nuclear networks","date":"December 18, 2020","dateISO":"2020-12-18T04:27:11.536Z","datetime":"2020-12-18 04:27","tags":["story","Hacker News"],"image":null,"imageAlt":null,"provider":"Hacker News","thirdPartyId":"25463449","url":"https://news.ycombinator.com/item?id=25463449","originalUrl":"https://www.reuters.com/article/idUSKBN28R34N","imageRemote":"https://s1.reutersmedia.net/resources_v2/images/rcom-default.png?w=800","video":null,"channel":null,"channelUrl":null,"author":"plankers","authorUrl":"https://news.ycombinator.com/user?id=plankers","authorImage":null,"authorSlug":null,"score":295,"views":null,"sharedCount":null,"likeCount":null,"sharedContent":null,"parent":{"__typename":"HnJson","localize":[{"title":"美国有证据表明黑客访问了其核网络","locale":"zh"},{"title":"美國有證據表明黑客訪問了其核網絡","locale":"zh-Hant"}]}},{"__typename":"SocialMediaPost","id":"HnPost-25461954","excerpt":"","slug":"/hn/25461954","title":"Hacking Spree Reached into Microsoft","date":"December 18, 2020","dateISO":"2020-12-18T03:24:32.368Z","datetime":"2020-12-18 03:24","tags":["story","Hacker News"],"image":null,"imageAlt":null,"provider":"Hacker News","thirdPartyId":"25461954","url":"https://news.ycombinator.com/item?id=25461954","originalUrl":"https://www.reuters.com/article/usa-cyber-breach-exclusive-int-idUSKBN28R3E2","imageRemote":"https://static.reuters.com/resources/r/?m=02&d=20201217&t=2&i=1544963772&r=LYNXMPEGBG1XP&w=800","video":null,"channel":null,"channelUrl":null,"author":"theBashShell","authorUrl":"https://news.ycombinator.com/user?id=theBashShell","authorImage":null,"authorSlug":null,"score":219,"views":null,"sharedCount":null,"likeCount":null,"sharedContent":null,"parent":{"__typename":"HnJson","localize":[{"title":"侵入微软的黑客狂潮","locale":"zh"},{"title":"侵入微軟的黑客狂潮","locale":"zh-Hant"}]}},{"__typename":"SocialMediaPost","id":"HnPost-25457181","excerpt":"","slug":"/hn/25457181","title":"Stop Silencing Critics from MiddleEast and NorthAfrica","date":"December 18, 2020","dateISO":"2020-12-18T02:40:06.636Z","datetime":"2020-12-18 02:40","tags":["story","Hacker News"],"image":null,"imageAlt":null,"provider":"Hacker News","thirdPartyId":"25457181","url":"https://news.ycombinator.com/item?id=25457181","originalUrl":"https://www.accessnow.org/facebook-twitter-youtube-stop-silencing-critical-voices-mena/","imageRemote":"https://www.accessnow.org/cms/assets/uploads/2020/12/Arab-spring-10-anniversary-platform-responsibility-post-header.jpg","video":null,"channel":null,"channelUrl":null,"author":"giuliomagnifico","authorUrl":"https://news.ycombinator.com/user?id=giuliomagnifico","authorImage":null,"authorSlug":null,"score":105,"views":null,"sharedCount":null,"likeCount":null,"sharedContent":null,"parent":{"__typename":"HnJson","localize":[{"title":"停止压制来自中东和北非的批评者","locale":"zh"},{"title":"停止壓制來自中東和北非的批評者","locale":"zh-Hant"}]}},{"__typename":"SocialMediaPost","id":"HnPost-25457978","excerpt":"","slug":"/hn/25457978","title":"Software breakthrough radically boosts the speed of nanopore DNA sequencers","date":"December 18, 2020","dateISO":"2020-12-18T02:40:06.636Z","datetime":"2020-12-18 02:40","tags":["story","Hacker News"],"image":null,"imageAlt":null,"provider":"Hacker News","thirdPartyId":"25457978","url":"https://news.ycombinator.com/item?id=25457978","originalUrl":"https://newatlas.com/medical/uncalled-faster-dna-sequencing-nanopore/","imageRemote":"https://assets.newatlas.com/dims4/default/7c4c3ce/2147483647/strip/true/crop/1366x717+34+0/resize/1200x630!/quality/90/?url=http%3A%2F%2Fnewatlas-brightspot.s3.amazonaws.com%2F0d%2Fde%2F38fc29a74f4899e141c4404b8123%2F92532763-10163519867120247-6191644494799044608-o.jpg","video":null,"channel":null,"channelUrl":null,"author":"olvy0","authorUrl":"https://news.ycombinator.com/user?id=olvy0","authorImage":null,"authorSlug":null,"score":134,"views":null,"sharedCount":null,"likeCount":null,"sharedContent":null,"parent":{"__typename":"HnJson","localize":[{"title":"软件突破从根本上提高了纳米孔DNA测序仪的速度","locale":"zh"},{"title":"軟件突破從根本上提高了納米孔DNA測序儀的速度","locale":"zh-Hant"}]}},{"__typename":"SocialMediaPost","id":"HnPost-25457876","excerpt":"","slug":"/hn/25457876","title":"Airflow 2.0","date":"December 18, 2020","dateISO":"2020-12-18T02:00:40.826Z","datetime":"2020-12-18 02:00","tags":["story","Hacker News"],"image":null,"imageAlt":null,"provider":"Hacker News","thirdPartyId":"25457876","url":"https://news.ycombinator.com/item?id=25457876","originalUrl":"http://airflow.apache.org/blog/airflow-two-point-oh-is-here/","imageRemote":"http://airflow.apache.org/images/feature-image.png","video":null,"channel":null,"channelUrl":null,"author":"jamestimmins","authorUrl":"https://news.ycombinator.com/user?id=jamestimmins","authorImage":null,"authorSlug":null,"score":129,"views":null,"sharedCount":null,"likeCount":null,"sharedContent":null,"parent":{"__typename":"HnJson","localize":[{"title":"气流2.0","locale":"zh"},{"title":"氣流2.0","locale":"zh-Hant"}]}},{"__typename":"SocialMediaPost","id":"HnPost-25458230","excerpt":"","slug":"/hn/25458230","title":"Commits are shapshots, not diffs","date":"December 18, 2020","dateISO":"2020-12-18T02:00:40.826Z","datetime":"2020-12-18 02:00","tags":["story","Hacker News"],"image":null,"imageAlt":null,"provider":"Hacker News","thirdPartyId":"25458230","url":"https://news.ycombinator.com/item?id=25458230","originalUrl":"https://github.blog/2020-12-17-commits-are-shapshots-not-diffs/","imageRemote":"https://github.blog/wp-content/uploads/2020/12/commits-are-snapshots-not-diffs.png?fit=1200%2C630","video":null,"channel":null,"channelUrl":null,"author":"todsacerdoti","authorUrl":"https://news.ycombinator.com/user?id=todsacerdoti","authorImage":null,"authorSlug":null,"score":136,"views":null,"sharedCount":null,"likeCount":null,"sharedContent":null,"parent":{"__typename":"HnJson","localize":[{"title":"提交是Shapshot，而不是不同","locale":"zh"},{"title":"提交是Shapshot，而不是不同","locale":"zh-Hant"}]}},{"__typename":"SocialMediaPost","id":"HnPost-25460544","excerpt":"","slug":"/hn/25460544","title":"FreeBSD src repository is transitioning from Subversion to Git this weekend","date":"December 18, 2020","dateISO":"2020-12-18T02:00:40.826Z","datetime":"2020-12-18 02:00","tags":["story","Hacker News"],"image":null,"imageAlt":null,"provider":"Hacker News","thirdPartyId":"25460544","url":"https://news.ycombinator.com/item?id=25460544","originalUrl":"https://lists.freebsd.org/pipermail/freebsd-current/2020-December/077858.html","imageRemote":null,"video":null,"channel":null,"channelUrl":null,"author":"cnst","authorUrl":"https://news.ycombinator.com/user?id=cnst","authorImage":null,"authorSlug":null,"score":212,"views":null,"sharedCount":null,"likeCount":null,"sharedContent":null,"parent":{"__typename":"HnJson","localize":[{"title":"FreeBSD src存储库本周末将从Subversion过渡到Git","locale":"zh"},{"title":"FreeBSD src存儲庫本週末將從Subversion過渡到Git","locale":"zh-Hant"}]}},{"__typename":"SocialMediaPost","id":"HnPost-25458770","excerpt":"","slug":"/hn/25458770","title":"Apple has stopped providing standalone installers for macOS updates","date":"December 18, 2020","dateISO":"2020-12-18T01:05:14.509Z","datetime":"2020-12-18 01:05","tags":["story","Hacker News"],"image":null,"imageAlt":null,"provider":"Hacker News","thirdPartyId":"25458770","url":"https://news.ycombinator.com/item?id=25458770","originalUrl":"https://eclecticlight.co/2020/12/17/apple-has-stopped-providing-standalone-installers-for-macos-updates/","imageRemote":"https://s0.wp.com/i/blank.jpg","video":null,"channel":null,"channelUrl":null,"author":"mrzool","authorUrl":"https://news.ycombinator.com/user?id=mrzool","authorImage":null,"authorSlug":null,"score":289,"views":null,"sharedCount":null,"likeCount":null,"sharedContent":null,"parent":{"__typename":"HnJson","localize":[{"title":"苹果已停止为MacOS更新提供独立安装程序","locale":"zh"},{"title":"蘋果已停止爲MacOS更新提供獨立安裝程序","locale":"zh-Hant"}]}},{"__typename":"SocialMediaPost","id":"HnPost-25459873","excerpt":"","slug":"/hn/25459873","title":"How I Met My Wife (1994)","date":"December 18, 2020","dateISO":"2020-12-18T01:05:14.509Z","datetime":"2020-12-18 01:05","tags":["story","Hacker News"],"image":null,"imageAlt":null,"provider":"Hacker News","thirdPartyId":"25459873","url":"https://news.ycombinator.com/item?id=25459873","originalUrl":"https://www.newyorker.com/magazine/1994/07/25/how-i-met-my-wife","imageRemote":"https://static.cdn.realviewdigital.com/global/content/GetImage.aspx?pguid=FC9071DC-DD99-441F-A727-1B74670350BC&i=1994-07-25&folio=082","video":null,"channel":null,"channelUrl":null,"author":"Lammy","authorUrl":"https://news.ycombinator.com/user?id=Lammy","authorImage":null,"authorSlug":null,"score":217,"views":null,"sharedCount":null,"likeCount":null,"sharedContent":null,"parent":{"__typename":"HnJson","localize":[{"title":"“我是如何认识我的妻子”(1994)","locale":"zh"},{"title":"“我是如何認識我的妻子”(1994)","locale":"zh-Hant"}]}},{"__typename":"SocialMediaPost","id":"HnPost-25460241","excerpt":"","slug":"/hn/25460241","title":"Advanced Persistent Threat Compromise of Government Agencies","date":"December 18, 2020","dateISO":"2020-12-18T01:05:14.509Z","datetime":"2020-12-18 01:05","tags":["story","Hacker News"],"image":null,"imageAlt":null,"provider":"Hacker News","thirdPartyId":"25460241","url":"https://news.ycombinator.com/item?id=25460241","originalUrl":"https://us-cert.cisa.gov/ncas/alerts/aa20-352a","imageRemote":"https://us-cert.cisa.gov/sites/default/files/cert/flag.png","video":null,"channel":null,"channelUrl":null,"author":"GrumpyNl","authorUrl":"https://news.ycombinator.com/user?id=GrumpyNl","authorImage":null,"authorSlug":null,"score":132,"views":null,"sharedCount":null,"likeCount":null,"sharedContent":null,"parent":{"__typename":"HnJson","localize":[{"title":"政府机构的高级持续威胁妥协","locale":"zh"},{"title":"政府機構的高級持續威脅妥協","locale":"zh-Hant"}]}},{"__typename":"SocialMediaPost","id":"HnPost-25458777","excerpt":"","slug":"/hn/25458777","title":"A case study on strict null checks","date":"December 17, 2020","dateISO":"2020-12-17T23:28:44.071Z","datetime":"2020-12-17 23:28","tags":["story","Hacker News"],"image":null,"imageAlt":null,"provider":"Hacker News","thirdPartyId":"25458777","url":"https://news.ycombinator.com/item?id=25458777","originalUrl":"https://www.figma.com/blog/inside-figma-a-case-study-on-strict-null-checks/","imageRemote":"https://images.ctfassets.net/1khq4uysbvty/7IldSHJSuvFmdVql93FA3I/42953d8ace45048ac4e5b9db3cde1796/Tech_Deep_Dive__Strict_Null_Check_Header.png?w=1200&q=80","video":null,"channel":null,"channelUrl":null,"author":"rudi-c","authorUrl":"https://news.ycombinator.com/user?id=rudi-c","authorImage":null,"authorSlug":null,"score":166,"views":null,"sharedCount":null,"likeCount":null,"sharedContent":null,"parent":{"__typename":"HnJson","localize":[{"title":"关于严格空检查的案例研究","locale":"zh"},{"title":"關於嚴格空檢查的案例研究","locale":"zh-Hant"}]}},{"__typename":"SocialMediaPost","id":"HnPost-25456284","excerpt":"","slug":"/hn/25456284","title":"Ultra-processed foods and the corporate capture of nutrition","date":"December 17, 2020","dateISO":"2020-12-17T22:29:02.007Z","datetime":"2020-12-17 22:29","tags":["story","Hacker News"],"image":null,"imageAlt":null,"provider":"Hacker News","thirdPartyId":"25456284","url":"https://news.ycombinator.com/item?id=25456284","originalUrl":"https://www.bmj.com/content/371/bmj.m4601","imageRemote":"https://www.bmj.com/sites/default/files/sites/defautl/files/attachments/bmj-article/2020/12/fast_food_restaurant_chain_istock-1192094665.jpg","video":null,"channel":null,"channelUrl":null,"author":"CapitalistCartr","authorUrl":"https://news.ycombinator.com/user?id=CapitalistCartr","authorImage":null,"authorSlug":null,"score":193,"views":null,"sharedCount":null,"likeCount":null,"sharedContent":null,"parent":{"__typename":"HnJson","localize":[{"title":"超加工食品与企业获取营养","locale":"zh"},{"title":"超加工食品與企業獲取營養","locale":"zh-Hant"}]}},{"__typename":"SocialMediaPost","id":"HnPost-25460220","excerpt":"","slug":"/hn/25460220","title":"Hallucinations re: the rendering of Cyberpunk 2077","date":"December 17, 2020","dateISO":"2020-12-17T22:29:02.007Z","datetime":"2020-12-17 22:29","tags":["story","Hacker News"],"image":null,"imageAlt":null,"provider":"Hacker News","thirdPartyId":"25460220","url":"https://news.ycombinator.com/item?id=25460220","originalUrl":"http://c0de517e.blogspot.com/2020/12/hallucinations-re-rendering-of.html","imageRemote":"https://1.bp.blogspot.com/-Accm4KmCjcQ/X90IqbPkniI/AAAAAAAACO4/Y30F2-QUQuEN3oa44WvOhq4zrALKMpAHwCLcBGAsYHQ/w1200-h630-p-k-no-nu/Capture.PNG","video":null,"channel":null,"channelUrl":null,"author":"brundolf","authorUrl":"https://news.ycombinator.com/user?id=brundolf","authorImage":null,"authorSlug":null,"score":333,"views":null,"sharedCount":null,"likeCount":null,"sharedContent":null,"parent":{"__typename":"HnJson","localize":[{"title":"幻觉Re：赛博朋克2077的渲染","locale":"zh"},{"title":"幻覺Re：賽博朋克2077的渲染","locale":"zh-Hant"}]}},{"__typename":"SocialMediaPost","id":"HnPost-25457217","excerpt":"","slug":"/hn/25457217","title":"MindGeek: The secretive owner of Pornhub and RedTube","date":"December 17, 2020","dateISO":"2020-12-17T21:42:05.521Z","datetime":"2020-12-17 21:42","tags":["story","Hacker News"],"image":null,"imageAlt":null,"provider":"Hacker News","thirdPartyId":"25457217","url":"https://news.ycombinator.com/item?id=25457217","originalUrl":"https://arstechnica.com/?p=1730358","imageRemote":"https://cdn.arstechnica.net/wp-content/uploads/2020/12/bba9ccb3-0e1a-4858-8e00-a6cb81cd5e40-760x380.jpg","video":null,"channel":null,"channelUrl":null,"author":"feross","authorUrl":"https://news.ycombinator.com/user?id=feross","authorImage":null,"authorSlug":null,"score":191,"views":null,"sharedCount":null,"likeCount":null,"sharedContent":null,"parent":{"__typename":"HnJson","localize":[{"title":"Mindgeek：PornHub和RedTube的神秘所有者","locale":"zh"},{"title":"Mindgeek：PornHub和RedTube的神祕所有者","locale":"zh-Hant"}]}},{"__typename":"SocialMediaPost","id":"HnPost-25459119","excerpt":"","slug":"/hn/25459119","title":"50 years of tax cuts for the rich failed to trickle down, economics study says","date":"December 17, 2020","dateISO":"2020-12-17T21:20:18.479Z","datetime":"2020-12-17 21:20","tags":["story","Hacker News"],"image":null,"imageAlt":null,"provider":"Hacker News","thirdPartyId":"25459119","url":"https://news.ycombinator.com/item?id=25459119","originalUrl":"https://www.cbsnews.com/news/tax-cuts-rich-50-years-no-trickle-down/","imageRemote":"https://cbsnews3.cbsistatic.com/hub/i/r/2020/03/11/39975f4c-760a-4f18-a895-37e3196339e7/thumbnail/1200x630/d59d9f4aa1643fe4b2a5f2627fc4bfb1/9-polarizing-reagan.jpg","video":null,"channel":null,"channelUrl":null,"author":"NiceWayToDoIT","authorUrl":"https://news.ycombinator.com/user?id=NiceWayToDoIT","authorImage":null,"authorSlug":null,"score":134,"views":null,"sharedCount":null,"likeCount":null,"sharedContent":null,"parent":{"__typename":"HnJson","localize":[{"title":"经济学研究称，50年来为富人减税未能惠及民众","locale":"zh"},{"title":"經濟學研究稱，50年來爲富人減稅未能惠及民衆","locale":"zh-Hant"}]}}]}},"pageContext":{"basePath":"/","pageType":"tag","tag":"Hacker News","tagsFilter":{"id":{"glob":"!*Post-1"}},"filter":{"id":{"glob":"!*Post-1"},"tags":{"eq":"Hacker News"}},"limit":25,"skip":700,"total":796,"totalPages":32,"currentPage":29,"maxWidth":1024,"maxHeight":512,"locale":"zh-Hant","hrefLang":"zh-Hant","originalPath":"/tags/hacker-news/page/29","dateFormat":"YYYY-MM-DD"}},"staticQueryHashes":["1239077767","2506312863","2744905544","3493603132","3493603132","386998304","4203388852"]}