{"componentChunkName":"component---gatsby-theme-buzzing-src-gatsby-theme-timeline-templates-posts-query-js","path":"/tags/crypto-currency/page/9","result":{"data":{"site":{"siteMetadata":{"title":"Reddit 热门","description":"用中文浏览Reddit热门内容","social":[{"name":"Reddit","url":"https://www.reddit.com/","external":true,"prefetch":null},{"name":"GitHub","url":"https://github.com/gatsbyjs","external":null,"prefetch":null}],"menuLinks":[{"name":"每周精选","url":"/issues","external":null,"prefetch":null},{"name":"RSS","url":"/rss.xml","external":null,"prefetch":false}],"localize":[{"locale":"en","title":"Buzzing on Reddit","description":"See what's buzzing on Reddit in your native language","social":[{"name":"Reddit","url":"https://www.reddit.com/","external":true,"prefetch":null}],"menuLinks":[{"name":"Weekly Selection","url":"/issues","external":null,"prefetch":null},{"name":"RSS","url":"/rss.xml","external":null,"prefetch":false}]},{"locale":"zh-Hant","title":"Reddit 熱門","description":"用中文瀏覽Reddit熱門內容","social":null,"menuLinks":null}]}},"tagsGroup":{"group":[{"fieldValue":"BTC","totalCount":1},{"fieldValue":"Bitcoin","totalCount":261},{"fieldValue":"CryptoCurrency","totalCount":207},{"fieldValue":"bitcoin","totalCount":40},{"fieldValue":"btc","totalCount":1},{"fieldValue":"phase5","totalCount":7},{"fieldValue":"reddit","totalCount":455},{"fieldValue":"tweet","totalCount":97}]},"allBlogPost":{"nodes":[{"__typename":"SocialMediaPost","id":"RedditPost-kiu0kh","excerpt":"","slug":"/reddit/r/CryptoCurrency/comments/kiu0kh/congratulations_the_us_got_you_cryptocurrency/","title":"Congratulations, the US got you cryptocurrency regulation for Christmas","date":"December 24, 2020","dateISO":"2020-12-24T07:34:34.000Z","datetime":"2020-12-24 07:34","tags":["CryptoCurrency","reddit"],"image":null,"imageAlt":"Reddit Image","provider":"Reddit","thirdPartyId":"kiu0kh","url":"https://www.reddit.com/r/CryptoCurrency/comments/kiu0kh/congratulations_the_us_got_you_cryptocurrency/","originalUrl":"https://www.reddit.com/r/CryptoCurrency/comments/kiu0kh/congratulations_the_us_got_you_cryptocurrency/","imageRemote":"https://external-preview.redd.it/w3yRwPunLAFDr_oy4WF4mzrZ6NWe4A3q5Y5wrLmsdE8.jpg?width=1080&crop=smart&auto=webp&s=ad9fc8aa55163fddab91991dbc2f3c14aa5d498c","video":null,"channel":"CryptoCurrency","channelUrl":"https://www.reddit.com/r/CryptoCurrency","author":"Monster_Chief17","authorUrl":"https://www.reddit.com/user/Monster_Chief17","authorImage":null,"authorSlug":"Monster_Chief17","score":61,"views":null,"sharedCount":null,"likeCount":null,"sharedContent":null,"parent":{"__typename":"RedditJson","localize":[{"title":"祝贺你，美国为你准备了圣诞节的加密货币法规","the_new_excerpt":null,"locale":"zh"},{"title":"祝賀你，美國爲你準備了聖誕節的加密貨幣法規","the_new_excerpt":null,"locale":"zh-Hant"}]}},{"__typename":"SocialMediaPost","id":"RedditPost-kiucsh","excerpt":"Hey, I'm a crypto day trader and I've decided to make a series of posts related\nto trading, hopefully to give some advice to some of the new traders here. I\nmade my first thread a few days ago about the lesson that anything can…","slug":"/reddit/r/CryptoCurrency/comments/kiucsh/trading_advice_two_quick_tips_to_keep_you_out_of/","title":"Trading Advice: Two Quick Tips to Keep You out of Bad Trades","date":"December 24, 2020","dateISO":"2020-12-24T07:34:34.000Z","datetime":"2020-12-24 07:34","tags":["CryptoCurrency","reddit"],"image":null,"imageAlt":null,"provider":"Reddit","thirdPartyId":"kiucsh","url":"https://www.reddit.com/r/CryptoCurrency/comments/kiucsh/trading_advice_two_quick_tips_to_keep_you_out_of/","originalUrl":"https://www.reddit.com/r/CryptoCurrency/comments/kiucsh/trading_advice_two_quick_tips_to_keep_you_out_of/","imageRemote":null,"video":null,"channel":"CryptoCurrency","channelUrl":"https://www.reddit.com/r/CryptoCurrency","author":"Hasnotalent","authorUrl":"https://www.reddit.com/user/Hasnotalent","authorImage":null,"authorSlug":"Hasnotalent","score":257,"views":null,"sharedCount":null,"likeCount":null,"sharedContent":null,"parent":{"__typename":"RedditJson","localize":[{"title":"交易建议：两个让你远离不良交易的快速提示","the_new_excerpt":"嘿，我是一名密码日内交易员，我决定发布一系列与此相关的帖子\n对于交易，希望能给这里的一些新交易员一些建议。我\n几天前我写了我的第一个帖子，是关于任何东西都可以…这一课的。","locale":"zh"},{"title":"交易建議：兩個讓你遠離不良交易的快速提示","the_new_excerpt":"嘿，我是一名密碼日內交易員，我決定發佈一系列與此相關的帖子\n對於交易，希望能給這裏的一些新交易員一些建議。我\n幾天前我寫了我的第一個帖子，是關於任何東西都可以…這一課的。","locale":"zh-Hant"}]}},{"__typename":"SocialMediaPost","id":"RedditPost-kiuner","excerpt":"","slug":"/reddit/r/CryptoCurrency/comments/kiuner/send_a_letter_to_fincen_requesting_withdrawal_of/","title":"Send a letter to FinCEN requesting withdrawal of the new regulations. Monero Outreach has an example for you to consider (written to apply to all crypto).","date":"December 24, 2020","dateISO":"2020-12-24T07:34:34.000Z","datetime":"2020-12-24 07:34","tags":["CryptoCurrency","reddit"],"image":null,"imageAlt":"Reddit Image","provider":"Reddit","thirdPartyId":"kiuner","url":"https://www.reddit.com/r/CryptoCurrency/comments/kiuner/send_a_letter_to_fincen_requesting_withdrawal_of/","originalUrl":"https://www.reddit.com/r/CryptoCurrency/comments/kiuner/send_a_letter_to_fincen_requesting_withdrawal_of/","imageRemote":"https://external-preview.redd.it/V79PSUY4naK7M4ibJzEVK54uU-r4Pn8GF8xS1cJLZX4.jpg?width=1080&crop=smart&auto=webp&s=a4f1e231b2d973966fcd4004b41fef5d776887cf","video":null,"channel":"CryptoCurrency","channelUrl":"https://www.reddit.com/r/CryptoCurrency","author":"almutasim","authorUrl":"https://www.reddit.com/user/almutasim","authorImage":null,"authorSlug":"almutasim","score":183,"views":null,"sharedCount":null,"likeCount":null,"sharedContent":null,"parent":{"__typename":"RedditJson","localize":[{"title":"给FinCEN发一封信，要求撤回新规定。Monero Extreach有一个示例供您参考(编写以适用于所有加密)。","the_new_excerpt":null,"locale":"zh"},{"title":"給FinCEN發一封信，要求撤回新規定。Monero Extreach有一個示例供您參考(編寫以適用於所有加密)。","the_new_excerpt":null,"locale":"zh-Hant"}]}},{"__typename":"SocialMediaPost","id":"RedditPost-kiwgft","excerpt":"Direct link to comment form:\n\nhttps://www.regulations.gov/comment?D=FINCEN_FRDOC_0001-0121\n\nComments can be submitted anonymously. Government agencies are required by law\nto give consideration to each comment, and to respond to each unique comment in\nthe federal register. It is better to submit…","slug":"/reddit/r/CryptoCurrency/comments/kiwgft/it_is_now_possible_to_submit_comments_on_fincens/","title":"It is now possible to submit comments on FinCEN's proposed new rule","date":"December 24, 2020","dateISO":"2020-12-24T07:34:34.000Z","datetime":"2020-12-24 07:34","tags":["CryptoCurrency","reddit"],"image":null,"imageAlt":null,"provider":"Reddit","thirdPartyId":"kiwgft","url":"https://www.reddit.com/r/CryptoCurrency/comments/kiwgft/it_is_now_possible_to_submit_comments_on_fincens/","originalUrl":"https://www.reddit.com/r/CryptoCurrency/comments/kiwgft/it_is_now_possible_to_submit_comments_on_fincens/","imageRemote":null,"video":null,"channel":"CryptoCurrency","channelUrl":"https://www.reddit.com/r/CryptoCurrency","author":"Always_Question","authorUrl":"https://www.reddit.com/user/Always_Question","authorImage":null,"authorSlug":"Always_Question","score":181,"views":null,"sharedCount":null,"likeCount":null,"sharedContent":null,"parent":{"__typename":"RedditJson","localize":[{"title":"现在可以提交对FinCEN提议的新规则的评论","the_new_excerpt":"直接链接到评论表单：\n\nhttps://www.regulations.gov/comment?D=FINCEN_FRDOC_0001-0121\n\n评论可以匿名提交。法律要求政府机构\n要考虑每条评论，并回应中的每条独特评论，请执行以下操作\n联邦登记处。最好提交…","locale":"zh"},{"title":"現在可以提交對FinCEN提議的新規則的評論","the_new_excerpt":"直接鏈接到評論表單：\n\nhttps://www.regulations.gov/comment?D=FINCEN_FRDOC_0001-0121\n\n評論可以匿名提交。法律要求政府機構\n要考慮每條評論，並回應中的每條獨特評論，請執行以下操作\n聯邦登記處。最好提交…","locale":"zh-Hant"}]}},{"__typename":"SocialMediaPost","id":"RedditPost-kj00mi","excerpt":"","slug":"/reddit/r/CryptoCurrency/comments/kj00mi/sec_chairman_jay_clayton_resigns/","title":"SEC Chairman Jay Clayton resigns","date":"December 24, 2020","dateISO":"2020-12-24T07:34:34.000Z","datetime":"2020-12-24 07:34","tags":["CryptoCurrency","reddit"],"image":null,"imageAlt":"Reddit Image","provider":"Reddit","thirdPartyId":"kj00mi","url":"https://www.reddit.com/r/CryptoCurrency/comments/kj00mi/sec_chairman_jay_clayton_resigns/","originalUrl":"https://www.reddit.com/r/CryptoCurrency/comments/kj00mi/sec_chairman_jay_clayton_resigns/","imageRemote":"https://external-preview.redd.it/BvDuKqTcATOXkvzAdSuC0JzNuc2LUk87GS_ZjIYKTe0.jpg?width=108&crop=smart&auto=webp&s=a93ccc5e0879adf1d1f8ad2b7d930c13d9626fe6","video":null,"channel":"CryptoCurrency","channelUrl":"https://www.reddit.com/r/CryptoCurrency","author":"youni89","authorUrl":"https://www.reddit.com/user/youni89","authorImage":null,"authorSlug":"youni89","score":154,"views":null,"sharedCount":null,"likeCount":null,"sharedContent":null,"parent":{"__typename":"RedditJson","localize":[{"title":"SEC主席杰伊·克莱顿辞职","the_new_excerpt":null,"locale":"zh"},{"title":"SEC主席傑伊·克萊頓辭職","the_new_excerpt":null,"locale":"zh-Hant"}]}},{"__typename":"SocialMediaPost","id":"RedditPost-kj18h3","excerpt":"The dirty bastards at Financial Crimes Enforcement Network (“FinCEN”) US Dept of\nTreasury just posted on the Federal Registry a new regulation to require US\nExchanges to not let you send your crypto to an offline (re: address outside the\nexchange) address unless your tell them whom owns the…","slug":"/reddit/r/CryptoCurrency/comments/kj18h3/immediate_action_required_usa_fincen_tries_to/","title":"IMMEDIATE ACTION REQUIRED: USA FinCEN tries to sneak new \"Wallet Registration\" requirement in over the Holiday. This is the WORST.","date":"December 24, 2020","dateISO":"2020-12-24T07:34:34.000Z","datetime":"2020-12-24 07:34","tags":["CryptoCurrency","reddit"],"image":null,"imageAlt":"Reddit Image","provider":"Reddit","thirdPartyId":"kj18h3","url":"https://www.reddit.com/r/CryptoCurrency/comments/kj18h3/immediate_action_required_usa_fincen_tries_to/","originalUrl":"https://www.reddit.com/r/CryptoCurrency/comments/kj18h3/immediate_action_required_usa_fincen_tries_to/","imageRemote":"https://external-preview.redd.it/u6cXg_08kKaKsG5lDtNMpKApwQgt2P22t2tVJB40Cl8.jpg?width=640&crop=smart&auto=webp&s=1df29aa9e3b8874360f0f92d5c052ea53900104d","video":null,"channel":"CryptoCurrency","channelUrl":"https://www.reddit.com/r/CryptoCurrency","author":"hashratez","authorUrl":"https://www.reddit.com/user/hashratez","authorImage":null,"authorSlug":"hashratez","score":1351,"views":null,"sharedCount":null,"likeCount":null,"sharedContent":null,"parent":{"__typename":"RedditJson","localize":[{"title":"需要立即采取行动：美国FinCEN试图在假期期间偷偷提出新的“钱包注册”要求。这是最糟糕的。","the_new_excerpt":"金融犯罪执法网络(FinCEN)美国部门的肮脏混蛋\n财政部刚刚在联邦登记处发布了一项新规定，要求美国\n交换以不让您将加密发送到脱机(Re：地址在\n…)地址，除非您告诉他们谁拥有Exchange","locale":"zh"},{"title":"需要立即採取行動：美國FinCEN試圖在假期期間偷偷提出新的“錢包註冊”要求。這是最糟糕的。","the_new_excerpt":"金融犯罪執法網絡(FinCEN)美國部門的骯髒混蛋\n財政部剛剛在聯邦登記處發佈了一項新規定，要求美國\n交換以不讓您將加密發送到脫機(Re：地址在\n…)地址，除非您告訴他們誰擁有Exchange","locale":"zh-Hant"}]}},{"__typename":"SocialMediaPost","id":"RedditPost-kj6uvw","excerpt":"","slug":"/reddit/r/CryptoCurrency/comments/kj6uvw/microstrategy_ceo_says_flow_of_money_from/","title":"MicroStrategy CEO Says Flow of Money From Conventional Assets Into Bitcoin Not a Bubble","date":"December 24, 2020","dateISO":"2020-12-24T07:34:34.000Z","datetime":"2020-12-24 07:34","tags":["CryptoCurrency","reddit"],"image":null,"imageAlt":"Reddit Image","provider":"Reddit","thirdPartyId":"kj6uvw","url":"https://www.reddit.com/r/CryptoCurrency/comments/kj6uvw/microstrategy_ceo_says_flow_of_money_from/","originalUrl":"https://www.reddit.com/r/CryptoCurrency/comments/kj6uvw/microstrategy_ceo_says_flow_of_money_from/","imageRemote":"https://external-preview.redd.it/DN5AQhesTxC92tmhub94n200A8FNLuiDjaqMTzSf-s0.jpg?width=640&crop=smart&auto=webp&s=406202233474df839cb05dd0bd9fd363906a83bc","video":null,"channel":"CryptoCurrency","channelUrl":"https://www.reddit.com/r/CryptoCurrency","author":"patrickstar466","authorUrl":"https://www.reddit.com/user/patrickstar466","authorImage":null,"authorSlug":"patrickstar466","score":91,"views":null,"sharedCount":null,"likeCount":null,"sharedContent":null,"parent":{"__typename":"RedditJson","localize":[{"title":"微策略首席执行官表示，资金从传统资产流入比特币，而不是泡沫","the_new_excerpt":null,"locale":"zh"},{"title":"微策略首席執行官表示，資金從傳統資產流入比特幣，而不是泡沫","the_new_excerpt":null,"locale":"zh-Hant"}]}}]}},"pageContext":{"basePath":"/","pageType":"tag","tag":"CryptoCurrency","tagsFilter":{"id":{"glob":"!*Post-1"}},"filter":{"id":{"glob":"!*Post-1"},"tags":{"eq":"CryptoCurrency"}},"limit":25,"skip":200,"total":207,"totalPages":9,"currentPage":9,"maxWidth":1024,"maxHeight":512,"locale":"zh","hrefLang":"zh-Hans","originalPath":"/tags/crypto-currency/page/9","dateFormat":"YYYY-MM-DD"}},"staticQueryHashes":["1239077767","2506312863","2744905544","3493603132","3493603132","386998304","4203388852"]}