{"componentChunkName":"component---gatsby-theme-buzzing-src-gatsby-theme-timeline-templates-posts-query-js","path":"/en/page/52","result":{"data":{"site":{"siteMetadata":{"title":"Reddit 热门","description":"用中文浏览Reddit热门内容","social":[{"name":"Twitter","url":"https://twitter.com/gatsbyjs","external":null,"prefetch":null},{"name":"GitHub","url":"https://github.com/gatsbyjs","external":null,"prefetch":null}],"menuLinks":[],"localize":[{"locale":"en","title":"Buzzing on Reddit","description":"See what's buzzing on Reddit in your native language","social":[{"name":"Reddit","url":"https://www.reddit.com/","external":true,"prefetch":null}],"menuLinks":[{"name":"Weekly Selection","url":"/issues","external":null,"prefetch":null},{"name":"RSS","url":"/rss.xml","external":null,"prefetch":false}]},{"locale":"zh-Hant","title":"Reddit 熱門","description":"用中文瀏覽Reddit熱門內容","social":null,"menuLinks":null}]}},"tagsGroup":{"group":[{"fieldValue":"ASK HN","totalCount":54},{"fieldValue":"Hacker News","totalCount":3105},{"fieldValue":"Poll","totalCount":1},{"fieldValue":"Show HN","totalCount":100},{"fieldValue":"poll","totalCount":1},{"fieldValue":"story","totalCount":3104}]},"allBlogPost":{"nodes":[{"__typename":"SocialMediaPost","id":"HnPost-26167248","excerpt":"","slug":"/hn/26167248","title":"Kill the Newsletter – Convert email newsletters into Atom feeds","date":"February 17, 2021","dateISO":"2021-02-17T20:24:40.291Z","datetime":"2021-02-17 20:24","tags":["story","Hacker News"],"image":null,"imageAlt":null,"provider":"Hacker News","thirdPartyId":"26167248","url":"https://news.ycombinator.com/item?id=26167248","originalUrl":"https://kill-the-newsletter.com/","imageRemote":"https://kill-the-newsletter.com/logo.svg","video":null,"channel":null,"channelUrl":null,"author":"polm23","authorUrl":"https://news.ycombinator.com/user?id=polm23","authorImage":null,"authorSlug":null,"score":338,"views":null,"sharedCount":null,"likeCount":null,"sharedContent":null,"parent":{"__typename":"HnJson","localize":[{"title":"杀死通讯--将电子邮件通讯转换为Atom feeds。","locale":"zh"},{"title":"殺死通訊--將電子郵件通訊轉換爲Atom feeds。","locale":"zh-Hant"}]}},{"__typename":"SocialMediaPost","id":"HnPost-26168285","excerpt":"","slug":"/hn/26168285","title":"Show HN: Ray.so – Create beautiful images of your code","date":"February 17, 2021","dateISO":"2021-02-17T19:54:10.491Z","datetime":"2021-02-17 19:54","tags":["story","Show HN","Hacker News"],"image":null,"imageAlt":null,"provider":"Hacker News","thirdPartyId":"26168285","url":"https://news.ycombinator.com/item?id=26168285","originalUrl":"https://ray.so","imageRemote":null,"video":null,"channel":"Show HN","channelUrl":"https://news.ycombinator.com/show","author":"thomaspaulmann","authorUrl":"https://news.ycombinator.com/user?id=thomaspaulmann","authorImage":null,"authorSlug":null,"score":379,"views":null,"sharedCount":null,"likeCount":null,"sharedContent":null,"parent":{"__typename":"HnJson","localize":[{"title":"显示HN：Ray.so - 为您的代码创建美丽的图像。","locale":"zh"},{"title":"顯示HN：Ray.so - 爲您的代碼創建美麗的圖像。","locale":"zh-Hant"}]}},{"__typename":"SocialMediaPost","id":"HnPost-26163982","excerpt":"","slug":"/hn/26163982","title":"Pixar in a Box: the art of storytelling","date":"February 17, 2021","dateISO":"2021-02-17T18:08:47.242Z","datetime":"2021-02-17 18:08","tags":["story","Hacker News"],"image":null,"imageAlt":null,"provider":"Hacker News","thirdPartyId":"26163982","url":"https://news.ycombinator.com/item?id=26163982","originalUrl":"https://www.khanacademy.org/humanities/hass-storytelling/storytelling-pixar-in-a-box","imageRemote":"https://cdn.kastatic.org/images/khan-logo-dark-background-2.png","video":null,"channel":null,"channelUrl":null,"author":"aminozuur","authorUrl":"https://news.ycombinator.com/user?id=aminozuur","authorImage":null,"authorSlug":null,"score":237,"views":null,"sharedCount":null,"likeCount":null,"sharedContent":null,"parent":{"__typename":"HnJson","localize":[{"title":"皮克斯的盒子：讲故事的艺术。","locale":"zh"},{"title":"皮克斯的盒子：講故事的藝術。","locale":"zh-Hant"}]}},{"__typename":"SocialMediaPost","id":"HnPost-26164879","excerpt":"","slug":"/hn/26164879","title":"Python Programming and Numerical Methods: A Guide for Engineers and Scientists","date":"February 17, 2021","dateISO":"2021-02-17T17:53:49.304Z","datetime":"2021-02-17 17:53","tags":["story","Hacker News"],"image":null,"imageAlt":null,"provider":"Hacker News","thirdPartyId":"26164879","url":"https://news.ycombinator.com/item?id=26164879","originalUrl":"https://pythonnumericalmethods.berkeley.edu/notebooks/Index.html","imageRemote":null,"video":null,"channel":null,"channelUrl":null,"author":"happy-go-lucky","authorUrl":"https://news.ycombinator.com/user?id=happy-go-lucky","authorImage":null,"authorSlug":null,"score":264,"views":null,"sharedCount":null,"likeCount":null,"sharedContent":null,"parent":{"__typename":"HnJson","localize":[{"title":"Python编程和数值方法。工程师和科学家指南","locale":"zh"},{"title":"Python編程和數值方法。工程師和科學家指南","locale":"zh-Hant"}]}},{"__typename":"SocialMediaPost","id":"HnPost-26165966","excerpt":"","slug":"/hn/26165966","title":"Epic Games steps up Apple fight with EU antitrust complaint","date":"February 17, 2021","dateISO":"2021-02-17T16:58:39.192Z","datetime":"2021-02-17 16:58","tags":["story","Hacker News"],"image":null,"imageAlt":null,"provider":"Hacker News","thirdPartyId":"26165966","url":"https://news.ycombinator.com/item?id=26165966","originalUrl":"https://www.reuters.com/article/us-eu-apple-epic-games-antitrust/epic-games-takes-apple-fight-to-eu-antitrust-regulators-idUSKBN2AH0MO","imageRemote":"https://static.reuters.com/resources/r/?m=02&d=20210217&t=2&i=1551831472&r=LYNXMPEH1G0D8&w=800","video":null,"channel":null,"channelUrl":null,"author":"mikesabbagh","authorUrl":"https://news.ycombinator.com/user?id=mikesabbagh","authorImage":null,"authorSlug":null,"score":646,"views":null,"sharedCount":null,"likeCount":null,"sharedContent":null,"parent":{"__typename":"HnJson","localize":[{"title":"Epic Games向欧盟提出反垄断申诉，加大对苹果的打击力度。","locale":"zh"},{"title":"Epic Games向歐盟提出反壟斷申訴，加大對蘋果的打擊力度。","locale":"zh-Hant"}]}},{"__typename":"SocialMediaPost","id":"HnPost-26166204","excerpt":"","slug":"/hn/26166204","title":"Declassified spacecrafts and orbital weapons of the USSR","date":"February 17, 2021","dateISO":"2021-02-17T16:58:39.191Z","datetime":"2021-02-17 16:58","tags":["story","Hacker News"],"image":null,"imageAlt":null,"provider":"Hacker News","thirdPartyId":"26166204","url":"https://news.ycombinator.com/item?id=26166204","originalUrl":"https://www.xissufotoday.space/2018/04/declassified-spacecrafts-and-orbital.html","imageRemote":"https://1.bp.blogspot.com/-hR9EPgdNTO0/V6igmMBuAsI/AAAAAAAABPs/RyK0eKmYbkor6nNer0HytjJN5OsSST14QCLcB/w1200-h630-p-k-no-nu/skif-20.jpg","video":null,"channel":null,"channelUrl":null,"author":"eternalban","authorUrl":"https://news.ycombinator.com/user?id=eternalban","authorImage":null,"authorSlug":null,"score":306,"views":null,"sharedCount":null,"likeCount":null,"sharedContent":null,"parent":{"__typename":"HnJson","localize":[{"title":"苏联解密的航天器和轨道武器","locale":"zh"},{"title":"蘇聯解密的航天器和軌道武器","locale":"zh-Hant"}]}},{"__typename":"SocialMediaPost","id":"HnPost-26156391","excerpt":"","slug":"/hn/26156391","title":"Pine64 Unveils Quartz64 SBC","date":"February 17, 2021","dateISO":"2021-02-17T15:39:49.688Z","datetime":"2021-02-17 15:39","tags":["story","Hacker News"],"image":null,"imageAlt":null,"provider":"Hacker News","thirdPartyId":"26156391","url":"https://news.ycombinator.com/item?id=26156391","originalUrl":"https://www.cnx-software.com/2021/02/16/pine64-unveils-quartz64-sbc-powered-by-rockchip-rk3566-soc/","imageRemote":"https://www.cnx-software.com/wp-content/uploads/2021/02/Quartz64-RK3566-SBC.jpg","video":null,"channel":null,"channelUrl":null,"author":"stambros","authorUrl":"https://news.ycombinator.com/user?id=stambros","authorImage":null,"authorSlug":null,"score":164,"views":null,"sharedCount":null,"likeCount":null,"sharedContent":null,"parent":{"__typename":"HnJson","localize":[{"title":"Pine64推出Quartz64 SBC。","locale":"zh"},{"title":"Pine64推出Quartz64 SBC。","locale":"zh-Hant"}]}},{"__typename":"SocialMediaPost","id":"HnPost-26165809","excerpt":"","slug":"/hn/26165809","title":"Why did I leave Google or, why did I stay so long?","date":"February 17, 2021","dateISO":"2021-02-17T14:35:16.375Z","datetime":"2021-02-17 14:35","tags":["story","Hacker News"],"image":null,"imageAlt":null,"provider":"Hacker News","thirdPartyId":"26165809","url":"https://news.ycombinator.com/item?id=26165809","originalUrl":"https://paygo.media/p/25171","imageRemote":"https://paygo-public-prod.s3.amazonaws.com/articles/25171/kl5u2xqf.jpg","video":null,"channel":null,"channelUrl":null,"author":"mrowland","authorUrl":"https://news.ycombinator.com/user?id=mrowland","authorImage":null,"authorSlug":null,"score":788,"views":null,"sharedCount":null,"likeCount":null,"sharedContent":null,"parent":{"__typename":"HnJson","localize":[{"title":"我为什么要离开谷歌，或者说，我为什么要呆这么久？","locale":"zh"},{"title":"我爲什麼要離開谷歌，或者說，我爲什麼要呆這麼久？","locale":"zh-Hant"}]}},{"__typename":"SocialMediaPost","id":"HnPost-26162513","excerpt":"","slug":"/hn/26162513","title":"Spy pixels in emails 'have become endemic'","date":"February 17, 2021","dateISO":"2021-02-17T12:41:48.758Z","datetime":"2021-02-17 12:41","tags":["story","Hacker News"],"image":null,"imageAlt":null,"provider":"Hacker News","thirdPartyId":"26162513","url":"https://news.ycombinator.com/item?id=26162513","originalUrl":"https://www.bbc.co.uk/news/technology-56071437","imageRemote":"https://ichef.bbci.co.uk/news/1024/branded_news/34B1/production/_116998431_emails-leo.jpg","video":null,"channel":null,"channelUrl":null,"author":"dijksterhuis","authorUrl":"https://news.ycombinator.com/user?id=dijksterhuis","authorImage":null,"authorSlug":null,"score":282,"views":null,"sharedCount":null,"likeCount":null,"sharedContent":null,"parent":{"__typename":"HnJson","localize":[{"title":"电子邮件中的间谍像素 \"已经成为流行的\"。","locale":"zh"},{"title":"電子郵件中的間諜像素 \"已經成爲流行的\"。","locale":"zh-Hant"}]}},{"__typename":"SocialMediaPost","id":"HnPost-26162825","excerpt":"","slug":"/hn/26162825","title":"GitHub Deceased User Policy","date":"February 17, 2021","dateISO":"2021-02-17T12:41:48.758Z","datetime":"2021-02-17 12:41","tags":["story","Hacker News"],"image":null,"imageAlt":null,"provider":"Hacker News","thirdPartyId":"26162825","url":"https://news.ycombinator.com/item?id=26162825","originalUrl":"https://docs.github.com/en/github/site-policy/github-deceased-user-policy","imageRemote":null,"video":null,"channel":null,"channelUrl":null,"author":"bobbiechen","authorUrl":"https://news.ycombinator.com/user?id=bobbiechen","authorImage":null,"authorSlug":null,"score":240,"views":null,"sharedCount":null,"likeCount":null,"sharedContent":null,"parent":{"__typename":"HnJson","localize":[{"title":"GitHub已故用户政策","locale":"zh"},{"title":"GitHub已故用戶政策","locale":"zh-Hant"}]}},{"__typename":"SocialMediaPost","id":"HnPost-26164001","excerpt":"","slug":"/hn/26164001","title":"Always Bet on Text","date":"February 17, 2021","dateISO":"2021-02-17T12:41:48.758Z","datetime":"2021-02-17 12:41","tags":["story","Hacker News"],"image":null,"imageAlt":null,"provider":"Hacker News","thirdPartyId":"26164001","url":"https://news.ycombinator.com/item?id=26164001","originalUrl":"https://graydon2.dreamwidth.org/193447.html","imageRemote":"https://v.dreamwidth.org/709628/684470","video":null,"channel":null,"channelUrl":null,"author":"asyrafql","authorUrl":"https://news.ycombinator.com/user?id=asyrafql","authorImage":null,"authorSlug":null,"score":564,"views":null,"sharedCount":null,"likeCount":null,"sharedContent":null,"parent":{"__typename":"HnJson","localize":[{"title":"总是在文字上下注","locale":"zh"},{"title":"總是在文字上下注","locale":"zh-Hant"}]}},{"__typename":"SocialMediaPost","id":"HnPost-26143909","excerpt":"","slug":"/hn/26143909","title":"Clubhouse’s Inevitability","date":"February 17, 2021","dateISO":"2021-02-17T11:29:07.482Z","datetime":"2021-02-17 11:29","tags":["story","Hacker News"],"image":null,"imageAlt":null,"provider":"Hacker News","thirdPartyId":"26143909","url":"https://news.ycombinator.com/item?id=26143909","originalUrl":"https://stratechery.com/2021/clubhouses-inevitability/","imageRemote":"https://stratechery.com/wp-content/uploads/2021/02/WAclubhouse-9.png","video":null,"channel":null,"channelUrl":null,"author":"jger15","authorUrl":"https://news.ycombinator.com/user?id=jger15","authorImage":null,"authorSlug":null,"score":163,"views":null,"sharedCount":null,"likeCount":null,"sharedContent":null,"parent":{"__typename":"HnJson","localize":[{"title":"会所的必然性","locale":"zh"},{"title":"會所的必然性","locale":"zh-Hant"}]}},{"__typename":"SocialMediaPost","id":"HnPost-26163904","excerpt":"","slug":"/hn/26163904","title":"European Citizens' Initiative for a ban on biometric mass surveillance","date":"February 17, 2021","dateISO":"2021-02-17T11:29:07.482Z","datetime":"2021-02-17 11:29","tags":["story","Hacker News"],"image":null,"imageAlt":null,"provider":"Hacker News","thirdPartyId":"26163904","url":"https://news.ycombinator.com/item?id=26163904","originalUrl":"https://reclaimyourface.eu/","imageRemote":"https://reclaimyourface.eu/wp-content/uploads/2021/02/ECI-Launch_Sharepic_2.png","video":null,"channel":null,"channelUrl":null,"author":"hacka22","authorUrl":"https://news.ycombinator.com/user?id=hacka22","authorImage":null,"authorSlug":null,"score":276,"views":null,"sharedCount":null,"likeCount":null,"sharedContent":null,"parent":{"__typename":"HnJson","localize":[{"title":"欧洲公民关于禁止生物识别大规模监控的倡议。","locale":"zh"},{"title":"歐洲公民關於禁止生物識別大規模監控的倡議。","locale":"zh-Hant"}]}},{"__typename":"SocialMediaPost","id":"HnPost-26163346","excerpt":"","slug":"/hn/26163346","title":"IKEA to discontinue its annual catalog, ending a 70-year run","date":"February 17, 2021","dateISO":"2021-02-17T10:41:42.011Z","datetime":"2021-02-17 10:41","tags":["story","Hacker News"],"image":null,"imageAlt":null,"provider":"Hacker News","thirdPartyId":"26163346","url":"https://news.ycombinator.com/item?id=26163346","originalUrl":"https://www.architecturaldigest.com/story/ikea-catalog-to-be-discontinued","imageRemote":"https://media.architecturaldigest.com/photos/5fd247a65395673f547985cd/16:9/w_1280,c_limit/GettyImages-1290244802.jpg","video":null,"channel":null,"channelUrl":null,"author":"RankingMember","authorUrl":"https://news.ycombinator.com/user?id=RankingMember","authorImage":null,"authorSlug":null,"score":375,"views":null,"sharedCount":null,"likeCount":null,"sharedContent":null,"parent":{"__typename":"HnJson","localize":[{"title":"宜家家居将停产年度目录，结束70年的经营历史。","locale":"zh"},{"title":"宜家家居將停產年度目錄，結束70年的經營歷史。","locale":"zh-Hant"}]}},{"__typename":"SocialMediaPost","id":"HnPost-26160028","excerpt":"","slug":"/hn/26160028","title":"Malware in open-source web extensions","date":"February 17, 2021","dateISO":"2021-02-17T08:46:40.823Z","datetime":"2021-02-17 08:46","tags":["story","Hacker News"],"image":null,"imageAlt":null,"provider":"Hacker News","thirdPartyId":"26160028","url":"https://news.ycombinator.com/item?id=26160028","originalUrl":"https://lwn.net/SubscriberLink/846272/37d25507fa3e9cd3/","imageRemote":"https://static.lwn.net/images/logo/barepenguin-70.png","video":null,"channel":null,"channelUrl":null,"author":"chmaynard","authorUrl":"https://news.ycombinator.com/user?id=chmaynard","authorImage":null,"authorSlug":null,"score":234,"views":null,"sharedCount":null,"likeCount":null,"sharedContent":null,"parent":{"__typename":"HnJson","localize":[{"title":"开源网络扩展中的恶意软件","locale":"zh"},{"title":"開源網絡擴展中的惡意軟件","locale":"zh-Hant"}]}},{"__typename":"SocialMediaPost","id":"HnPost-26159405","excerpt":"","slug":"/hn/26159405","title":"Clubhouse Bio Generator","date":"February 17, 2021","dateISO":"2021-02-17T07:23:34.032Z","datetime":"2021-02-17 07:23","tags":["story","Hacker News"],"image":null,"imageAlt":null,"provider":"Hacker News","thirdPartyId":"26159405","url":"https://news.ycombinator.com/item?id=26159405","originalUrl":"https://perchance.org/owh9gelu4t","imageRemote":"https://perchance.org/api/getGeneratorScreenshot?generatorName=owh9gelu4t","video":null,"channel":null,"channelUrl":null,"author":"ChrisArchitect","authorUrl":"https://news.ycombinator.com/user?id=ChrisArchitect","authorImage":null,"authorSlug":null,"score":231,"views":null,"sharedCount":null,"likeCount":null,"sharedContent":null,"parent":{"__typename":"HnJson","localize":[{"title":"会所生物发生器","locale":"zh"},{"title":"會所生物發生器","locale":"zh-Hant"}]}},{"__typename":"SocialMediaPost","id":"HnPost-26157331","excerpt":"","slug":"/hn/26157331","title":"New Report Shows Cops Used Ring Cameras to Monitor Black Lives Matter Protests","date":"February 17, 2021","dateISO":"2021-02-17T05:57:36.232Z","datetime":"2021-02-17 05:57","tags":["story","Hacker News"],"image":null,"imageAlt":null,"provider":"Hacker News","thirdPartyId":"26157331","url":"https://news.ycombinator.com/item?id=26157331","originalUrl":"https://www.eff.org/press/releases/new-eff-report-shows-cops-used-ring-cameras-monitor-black-lives-matter-protests","imageRemote":"https://www.eff.org/files/banner_library/ring_banner.png","video":null,"channel":null,"channelUrl":null,"author":"DiabloD3","authorUrl":"https://news.ycombinator.com/user?id=DiabloD3","authorImage":null,"authorSlug":null,"score":172,"views":null,"sharedCount":null,"likeCount":null,"sharedContent":null,"parent":{"__typename":"HnJson","localize":[{"title":"新的报告显示，警察使用环形摄像机监控黑人生命至上的抗议活动。","locale":"zh"},{"title":"新的報告顯示，警察使用環形攝像機監控黑人生命至上的抗議活動。","locale":"zh-Hant"}]}},{"__typename":"SocialMediaPost","id":"HnPost-26158879","excerpt":"","slug":"/hn/26158879","title":"An anniversary for great justice: Remembering “All Your Base” 20 years later","date":"February 17, 2021","dateISO":"2021-02-17T05:15:41.684Z","datetime":"2021-02-17 05:15","tags":["story","Hacker News"],"image":null,"imageAlt":null,"provider":"Hacker News","thirdPartyId":"26158879","url":"https://news.ycombinator.com/item?id=26158879","originalUrl":"https://arstechnica.com/gaming/2021/02/get-ready-to-feel-old-the-all-your-base-music-video-turns-20-today/","imageRemote":"https://cdn.arstechnica.net/wp-content/uploads/2021/02/all-your-base-760x380.jpg","video":null,"channel":null,"channelUrl":null,"author":"samizdis","authorUrl":"https://news.ycombinator.com/user?id=samizdis","authorImage":null,"authorSlug":null,"score":273,"views":null,"sharedCount":null,"likeCount":null,"sharedContent":null,"parent":{"__typename":"HnJson","localize":[{"title":"大义凛然的纪念日。20年后纪念 \"你的所有基地\"","locale":"zh"},{"title":"大義凜然的紀念日。20年後紀念 \"你的所有基地\"","locale":"zh-Hant"}]}},{"__typename":"SocialMediaPost","id":"HnPost-26159106","excerpt":"","slug":"/hn/26159106","title":"NASA's Perseverance rover will attempt to land on Mars this week","date":"February 17, 2021","dateISO":"2021-02-17T04:47:01.695Z","datetime":"2021-02-17 04:47","tags":["story","Hacker News"],"image":null,"imageAlt":null,"provider":"Hacker News","thirdPartyId":"26159106","url":"https://news.ycombinator.com/item?id=26159106","originalUrl":"https://spectrum.ieee.org/automaton/aerospace/robotic-exploration/nasa-perseverance-rover-landing-on-mars-overview","imageRemote":null,"video":null,"channel":null,"channelUrl":null,"author":"quercusa","authorUrl":"https://news.ycombinator.com/user?id=quercusa","authorImage":null,"authorSlug":null,"score":298,"views":null,"sharedCount":null,"likeCount":null,"sharedContent":null,"parent":{"__typename":"HnJson","localize":[{"title":"美国宇航局的 \"锲而不舍 \"号探测器将在本周尝试登陆火星。","locale":"zh"},{"title":"美國宇航局的 \"鍥而不捨 \"號探測器將在本週嘗試登陸火星。","locale":"zh-Hant"}]}},{"__typename":"SocialMediaPost","id":"HnPost-26161846","excerpt":"","slug":"/hn/26161846","title":"Done Answering Questions Stack Overflow","date":"February 17, 2021","dateISO":"2021-02-17T04:47:01.695Z","datetime":"2021-02-17 04:47","tags":["story","Hacker News"],"image":null,"imageAlt":null,"provider":"Hacker News","thirdPartyId":"26161846","url":"https://news.ycombinator.com/item?id=26161846","originalUrl":"https://games.greggman.com/game/done-with-stackoverflow/","imageRemote":"https://games.greggman.com/images/misc/stackoverflow-no-points.png","video":null,"channel":null,"channelUrl":null,"author":"polm23","authorUrl":"https://news.ycombinator.com/user?id=polm23","authorImage":null,"authorSlug":null,"score":352,"views":null,"sharedCount":null,"likeCount":null,"sharedContent":null,"parent":{"__typename":"HnJson","localize":[{"title":"完成回答问题 Stack Overflow","locale":"zh"},{"title":"完成回答問題 Stack Overflow","locale":"zh-Hant"}]}},{"__typename":"SocialMediaPost","id":"HnPost-26153323","excerpt":"","slug":"/hn/26153323","title":"Bitcoin surpasses $50K as major companies jump into crypto","date":"February 17, 2021","dateISO":"2021-02-17T03:24:40.587Z","datetime":"2021-02-17 03:24","tags":["story","Hacker News"],"image":null,"imageAlt":null,"provider":"Hacker News","thirdPartyId":"26153323","url":"https://news.ycombinator.com/item?id=26153323","originalUrl":"https://www.cnbc.com/2021/02/16/bitcoin-btc-price-hits-50000-for-the-first-time.html","imageRemote":"https://image.cnbcfm.com/api/v1/image/106839898-1613138338892-gettyimages-1301210502-_e6w4385_2021020931151011.jpeg?v=1613138380","video":null,"channel":null,"channelUrl":null,"author":"koolba","authorUrl":"https://news.ycombinator.com/user?id=koolba","authorImage":null,"authorSlug":null,"score":258,"views":null,"sharedCount":null,"likeCount":null,"sharedContent":null,"parent":{"__typename":"HnJson","localize":[{"title":"比特币突破5万美元，各大公司纷纷跳入加密领域","locale":"zh"},{"title":"比特幣突破5萬美元，各大公司紛紛跳入加密領域","locale":"zh-Hant"}]}},{"__typename":"SocialMediaPost","id":"HnPost-26159680","excerpt":"","slug":"/hn/26159680","title":"What went wrong with the Texas power grid?","date":"February 17, 2021","dateISO":"2021-02-17T01:34:02.415Z","datetime":"2021-02-17 01:34","tags":["story","Hacker News"],"image":null,"imageAlt":null,"provider":"Hacker News","thirdPartyId":"26159680","url":"https://news.ycombinator.com/item?id=26159680","originalUrl":"https://www.houstonchronicle.com/business/energy/article/Wholesale-power-prices-spiking-across-Texas-15951684.php","imageRemote":"https://s.hdnux.com/photos/01/16/50/65/20614497/5/rawImage.jpg","video":null,"channel":null,"channelUrl":null,"author":"daenney","authorUrl":"https://news.ycombinator.com/user?id=daenney","authorImage":null,"authorSlug":null,"score":613,"views":null,"sharedCount":null,"likeCount":null,"sharedContent":null,"parent":{"__typename":"HnJson","localize":[{"title":"德州电网出了什么问题？","locale":"zh"},{"title":"德州電網出了什麼問題？","locale":"zh-Hant"}]}},{"__typename":"SocialMediaPost","id":"HnPost-26158090","excerpt":"","slug":"/hn/26158090","title":"Go 1.16 Release Notes","date":"February 16, 2021","dateISO":"2021-02-16T22:40:53.318Z","datetime":"2021-02-16 22:40","tags":["story","Hacker News"],"image":null,"imageAlt":null,"provider":"Hacker News","thirdPartyId":"26158090","url":"https://news.ycombinator.com/item?id=26158090","originalUrl":"https://golang.org/doc/go1.16","imageRemote":"https://golang.org/lib/godoc/images/go-logo-blue.svg","video":null,"channel":null,"channelUrl":null,"author":"ra7","authorUrl":"https://news.ycombinator.com/user?id=ra7","authorImage":null,"authorSlug":null,"score":289,"views":null,"sharedCount":null,"likeCount":null,"sharedContent":null,"parent":{"__typename":"HnJson","localize":[{"title":"Go 1.16 发行说明","locale":"zh"},{"title":"Go 1.16 發行說明","locale":"zh-Hant"}]}},{"__typename":"SocialMediaPost","id":"HnPost-26156901","excerpt":"","slug":"/hn/26156901","title":"Umberto Eco: Ur-Fascism (1995) [pdf]","date":"February 16, 2021","dateISO":"2021-02-16T22:25:00.751Z","datetime":"2021-02-16 22:25","tags":["story","Hacker News"],"image":null,"imageAlt":null,"provider":"Hacker News","thirdPartyId":"26156901","url":"https://news.ycombinator.com/item?id=26156901","originalUrl":"https://theanarchistlibrary.org/library/umberto-eco-ur-fascism.pdf","imageRemote":null,"video":null,"channel":null,"channelUrl":null,"author":"asterialite","authorUrl":"https://news.ycombinator.com/user?id=asterialite","authorImage":null,"authorSlug":null,"score":237,"views":null,"sharedCount":null,"likeCount":null,"sharedContent":null,"parent":{"__typename":"HnJson","localize":[{"title":"翁贝托-埃科: 乌尔-法西斯主义（1995年） [pdf]","locale":"zh"},{"title":"翁貝託-埃科: 烏爾-法西斯主義（1995年） [pdf]","locale":"zh-Hant"}]}},{"__typename":"SocialMediaPost","id":"HnPost-26157969","excerpt":"","slug":"/hn/26157969","title":"Functorio","date":"February 16, 2021","dateISO":"2021-02-16T21:45:25.598Z","datetime":"2021-02-16 21:45","tags":["story","Hacker News"],"image":null,"imageAlt":null,"provider":"Hacker News","thirdPartyId":"26157969","url":"https://news.ycombinator.com/item?id=26157969","originalUrl":"https://bartoszmilewski.com/2021/02/16/functorio/.","imageRemote":"https://bartoszmilewski.files.wordpress.com/2020/12/redscienceassembler.png","video":null,"channel":null,"channelUrl":null,"author":"ibobev","authorUrl":"https://news.ycombinator.com/user?id=ibobev","authorImage":null,"authorSlug":null,"score":694,"views":null,"sharedCount":null,"likeCount":null,"sharedContent":null,"parent":{"__typename":"HnJson","localize":[{"title":"Functorio","locale":"zh"},{"title":"Functorio","locale":"zh-Hant"}]}}]}},"pageContext":{"basePath":"/","pageType":"home","tagsFilter":{"id":{"glob":"!*Post-1"}},"filter":{"id":{"glob":"!*Post-1"}},"limit":25,"skip":1275,"totalPages":125,"total":3105,"currentPage":52,"maxWidth":1024,"maxHeight":512,"locale":"en","hrefLang":"en-US","originalPath":"/page/52","dateFormat":"MM/DD/YYYY"}},"staticQueryHashes":["1239077767","2506312863","2744905544","3025052997","3493603132","3493603132","3513215887","386998304"]}