{"componentChunkName":"component---gatsby-theme-buzzing-src-gatsby-theme-timeline-templates-posts-query-js","path":"/zh-Hant/tags/hacker-news/page/33","result":{"data":{"site":{"siteMetadata":{"title":"Reddit 热门","description":"用中文浏览Reddit热门内容","social":[{"name":"Twitter","url":"https://twitter.com/gatsbyjs","external":null,"prefetch":null},{"name":"GitHub","url":"https://github.com/gatsbyjs","external":null,"prefetch":null}],"menuLinks":[],"localize":[{"locale":"en","title":"Buzzing on Reddit","description":"See what's buzzing on Reddit in your native language","social":[{"name":"Reddit","url":"https://www.reddit.com/","external":true,"prefetch":null}],"menuLinks":[{"name":"Weekly Selection","url":"/issues","external":null,"prefetch":null},{"name":"RSS","url":"/rss.xml","external":null,"prefetch":false}]},{"locale":"zh-Hant","title":"Reddit 熱門","description":"用中文瀏覽Reddit熱門內容","social":null,"menuLinks":null}]}},"tagsGroup":{"group":[{"fieldValue":"ASK HN","totalCount":42},{"fieldValue":"Bitcoin","totalCount":4},{"fieldValue":"Hacker News","totalCount":2407},{"fieldValue":"Poll","totalCount":1},{"fieldValue":"SaveAMC","totalCount":1},{"fieldValue":"Show HN","totalCount":81},{"fieldValue":"bitcoin","totalCount":3},{"fieldValue":"investing","totalCount":753},{"fieldValue":"poll","totalCount":1},{"fieldValue":"reddit","totalCount":4523},{"fieldValue":"science","totalCount":1},{"fieldValue":"stocks","totalCount":1482},{"fieldValue":"story","totalCount":2406},{"fieldValue":"tweet","totalCount":767},{"fieldValue":"wallstreetbets","totalCount":2288}]},"allBlogPost":{"nodes":[{"__typename":"SocialMediaPost","id":"HnPost-26076680","excerpt":"","slug":"/hn/26076680","title":"José Valim Reveals “Project Nx” (Numerical Elixir)","date":"February 09, 2021","dateISO":"2021-02-09T17:50:54.192Z","datetime":"2021-02-09 17:50","tags":["story","Hacker News"],"image":null,"imageAlt":null,"provider":"Hacker News","thirdPartyId":"26076680","url":"https://news.ycombinator.com/item?id=26076680","originalUrl":"https://thinkingelixir.com/podcast-episodes/034-jose-valim-reveals-project-nx/","imageRemote":"https://thinkingelixir.com/wp-content/uploads/2020/05/podcast-graphic_3000px.png","video":null,"channel":null,"channelUrl":null,"author":"thibaut_barrere","authorUrl":"https://news.ycombinator.com/user?id=thibaut_barrere","authorImage":null,"authorSlug":null,"score":352,"views":null,"sharedCount":null,"likeCount":null,"sharedContent":null,"parent":{"__typename":"HnJson","localize":[{"title":"何塞-瓦里姆透露了 \"Project Nx\"（Numerical Elixir）。","locale":"zh"},{"title":"何塞-瓦里姆透露了 \"Project Nx\"（Numerical Elixir）。","locale":"zh-Hant"}]}},{"__typename":"SocialMediaPost","id":"HnPost-26075697","excerpt":"","slug":"/hn/26075697","title":"A Statement on Recent Events Between Signal and the Anti-Censorship Community","date":"February 09, 2021","dateISO":"2021-02-09T17:38:52.115Z","datetime":"2021-02-09 17:38","tags":["story","Hacker News"],"image":null,"imageAlt":null,"provider":"Hacker News","thirdPartyId":"26075697","url":"https://news.ycombinator.com/item?id=26075697","originalUrl":"https://github.com/net4people/bbs/issues/63","imageRemote":"https://avatars.githubusercontent.com/u/33761262?s=400&v=4","video":null,"channel":null,"channelUrl":null,"author":"1una","authorUrl":"https://news.ycombinator.com/user?id=1una","authorImage":null,"authorSlug":null,"score":242,"views":null,"sharedCount":null,"likeCount":null,"sharedContent":null,"parent":{"__typename":"HnJson","localize":[{"title":"关于Signal和反审查界最近事件的声明。","locale":"zh"},{"title":"關於Signal和反審查界最近事件的聲明。","locale":"zh-Hant"}]}},{"__typename":"SocialMediaPost","id":"HnPost-26078301","excerpt":"","slug":"/hn/26078301","title":"Facebook sued for ‘losing control’ of users’ data","date":"February 09, 2021","dateISO":"2021-02-09T17:38:52.115Z","datetime":"2021-02-09 17:38","tags":["story","Hacker News"],"image":null,"imageAlt":null,"provider":"Hacker News","thirdPartyId":"26078301","url":"https://news.ycombinator.com/item?id=26078301","originalUrl":"https://www.bbc.com/news/technology-55998588","imageRemote":"https://ichef.bbci.co.uk/news/1024/branded_news/13B39/production/_116879608_hi065358355.jpg","video":null,"channel":null,"channelUrl":null,"author":"bmcn2020","authorUrl":"https://news.ycombinator.com/user?id=bmcn2020","authorImage":null,"authorSlug":null,"score":327,"views":null,"sharedCount":null,"likeCount":null,"sharedContent":null,"parent":{"__typename":"HnJson","localize":[{"title":"Facebook因 \"失去对用户数据的控制 \"而被起诉。","locale":"zh"},{"title":"Facebook因 \"失去對用戶數據的控制 \"而被起訴。","locale":"zh-Hant"}]}},{"__typename":"SocialMediaPost","id":"HnPost-26075670","excerpt":"","slug":"/hn/26075670","title":"ReactOS Updates","date":"February 09, 2021","dateISO":"2021-02-09T16:51:40.391Z","datetime":"2021-02-09 16:51","tags":["story","Hacker News"],"image":null,"imageAlt":null,"provider":"Hacker News","thirdPartyId":"26075670","url":"https://news.ycombinator.com/item?id=26075670","originalUrl":"https://reactos.org/blogs/newsletter-100/","imageRemote":"https://reactos.org/sites/default/files/Mizu-Desktop.png","video":null,"channel":null,"channelUrl":null,"author":"jeditobe","authorUrl":"https://news.ycombinator.com/user?id=jeditobe","authorImage":null,"authorSlug":null,"score":225,"views":null,"sharedCount":null,"likeCount":null,"sharedContent":null,"parent":{"__typename":"HnJson","localize":[{"title":"ReactOS更新","locale":"zh"},{"title":"ReactOS更新","locale":"zh-Hant"}]}},{"__typename":"SocialMediaPost","id":"HnPost-26076391","excerpt":"","slug":"/hn/26076391","title":"Man to pay £25,000 ($34,000) damages over negative TrustPilot review","date":"February 09, 2021","dateISO":"2021-02-09T16:51:40.391Z","datetime":"2021-02-09 16:51","tags":["story","Hacker News"],"image":null,"imageAlt":null,"provider":"Hacker News","thirdPartyId":"26076391","url":"https://news.ycombinator.com/item?id=26076391","originalUrl":"https://www.bbc.com/news/technology-55981600","imageRemote":"https://ichef.bbci.co.uk/news/1024/branded_news/11C53/production/_116878727_gettyimages-1221327322.jpg","video":null,"channel":null,"channelUrl":null,"author":"pseudolus","authorUrl":"https://news.ycombinator.com/user?id=pseudolus","authorImage":null,"authorSlug":null,"score":291,"views":null,"sharedCount":null,"likeCount":null,"sharedContent":null,"parent":{"__typename":"HnJson","localize":[{"title":"男子因TrustPilot负面评论需赔偿2.5万英镑（3.4万美元）的损失。","locale":"zh"},{"title":"男子因TrustPilot負面評論需賠償2.5萬英鎊（3.4萬美元）的損失。","locale":"zh-Hant"}]}},{"__typename":"SocialMediaPost","id":"HnPost-26074188","excerpt":"","slug":"/hn/26074188","title":"The World’s Aging Dams","date":"February 09, 2021","dateISO":"2021-02-09T16:04:45.777Z","datetime":"2021-02-09 16:04","tags":["story","Hacker News"],"image":null,"imageAlt":null,"provider":"Hacker News","thirdPartyId":"26074188","url":"https://news.ycombinator.com/item?id=26074188","originalUrl":"https://e360.yale.edu/features/water-warning-the-looming-threat-of-the-worlds-aging-dams","imageRemote":"https://e360.yale.edu/assets/site/shutterstock_1376116481_Kariba-Dam_web2.jpg","video":null,"channel":null,"channelUrl":null,"author":"robbybaron","authorUrl":"https://news.ycombinator.com/user?id=robbybaron","authorImage":null,"authorSlug":null,"score":219,"views":null,"sharedCount":null,"likeCount":null,"sharedContent":null,"parent":{"__typename":"HnJson","localize":[{"title":"世界上老化的水坝","locale":"zh"},{"title":"世界上老化的水壩","locale":"zh-Hant"}]}},{"__typename":"SocialMediaPost","id":"HnPost-26076050","excerpt":"","slug":"/hn/26076050","title":"No support Linux hosting shutting down from hack","date":"February 09, 2021","dateISO":"2021-02-09T14:40:40.845Z","datetime":"2021-02-09 14:40","tags":["story","Hacker News"],"image":null,"imageAlt":null,"provider":"Hacker News","thirdPartyId":"26076050","url":"https://news.ycombinator.com/item?id=26076050","originalUrl":"https://www.nosupportlinuxhosting.com/","imageRemote":null,"video":null,"channel":null,"channelUrl":null,"author":"ourmandave","authorUrl":"https://news.ycombinator.com/user?id=ourmandave","authorImage":null,"authorSlug":null,"score":352,"views":null,"sharedCount":null,"likeCount":null,"sharedContent":null,"parent":{"__typename":"HnJson","localize":[{"title":"不支持Linux主机从黑客手中关机","locale":"zh"},{"title":"不支持Linux主機從黑客手中關機","locale":"zh-Hant"}]}},{"__typename":"SocialMediaPost","id":"HnPost-26061637","excerpt":"","slug":"/hn/26061637","title":"Stop defacing quotes with brackets","date":"February 09, 2021","dateISO":"2021-02-09T13:07:32.664Z","datetime":"2021-02-09 13:07","tags":["story","Hacker News"],"image":null,"imageAlt":null,"provider":"Hacker News","thirdPartyId":"26061637","url":"https://news.ycombinator.com/item?id=26061637","originalUrl":"https://slate.com/human-interest/2021/02/stop-defacing-quotes-with-brackets.html","imageRemote":"https://compote.slate.com/images/b13ffe92-56ce-40ee-8858-76d0fe1980ac.jpeg?width=780&height=520&rect=1560x1040&offset=0x0","video":null,"channel":null,"channelUrl":null,"author":"howsilly","authorUrl":"https://news.ycombinator.com/user?id=howsilly","authorImage":null,"authorSlug":null,"score":241,"views":null,"sharedCount":null,"likeCount":null,"sharedContent":null,"parent":{"__typename":"HnJson","localize":[{"title":"停止用括号污损引号","locale":"zh"},{"title":"停止用括號污損引號","locale":"zh-Hant"}]}},{"__typename":"SocialMediaPost","id":"HnPost-26071906","excerpt":"","slug":"/hn/26071906","title":"I don't want to do front-end anymore","date":"February 09, 2021","dateISO":"2021-02-09T12:39:42.070Z","datetime":"2021-02-09 12:39","tags":["story","Hacker News"],"image":null,"imageAlt":null,"provider":"Hacker News","thirdPartyId":"26071906","url":"https://news.ycombinator.com/item?id=26071906","originalUrl":"https://www.askonomm.com/blog/i-dont-want-to-do-frontend-anymore","imageRemote":null,"video":null,"channel":null,"channelUrl":null,"author":"askonomm","authorUrl":"https://news.ycombinator.com/user?id=askonomm","authorImage":null,"authorSlug":null,"score":409,"views":null,"sharedCount":null,"likeCount":null,"sharedContent":null,"parent":{"__typename":"HnJson","localize":[{"title":"我不想再做前端了。","locale":"zh"},{"title":"我不想再做前端了。","locale":"zh-Hant"}]}},{"__typename":"SocialMediaPost","id":"HnPost-26075004","excerpt":"","slug":"/hn/26075004","title":"CD Project Red has been hacked. Hit with ransomware and data stolen.","date":"February 09, 2021","dateISO":"2021-02-09T11:23:09.982Z","datetime":"2021-02-09 11:23","tags":["story","Hacker News"],"image":null,"imageAlt":null,"provider":"Hacker News","thirdPartyId":"26075004","url":"https://news.ycombinator.com/item?id=26075004","originalUrl":"https://twitter.com/CDPROJEKTRED/status/1359048125403590660","imageRemote":null,"video":null,"channel":null,"channelUrl":null,"author":"rmm","authorUrl":"https://news.ycombinator.com/user?id=rmm","authorImage":null,"authorSlug":null,"score":280,"views":null,"sharedCount":null,"likeCount":null,"sharedContent":null,"parent":{"__typename":"HnJson","localize":[{"title":"红色项目CD被黑客攻击 遭遇勒索软件，数据被盗。","locale":"zh"},{"title":"紅色項目CD被黑客攻擊 遭遇勒索軟件，數據被盜。","locale":"zh-Hant"}]}},{"__typename":"SocialMediaPost","id":"HnPost-26066528","excerpt":"","slug":"/hn/26066528","title":"The largest study to date on the genetic basis of sexuality (2019)","date":"February 09, 2021","dateISO":"2021-02-09T11:07:34.026Z","datetime":"2021-02-09 11:07","tags":["story","Hacker News"],"image":null,"imageAlt":null,"provider":"Hacker News","thirdPartyId":"26066528","url":"https://news.ycombinator.com/item?id=26066528","originalUrl":"https://www.nature.com/articles/d41586-019-02585-6","imageRemote":"https://media.nature.com/lw1024/magazine-assets/d41586-019-02585-6/d41586-019-02585-6_17110348.jpg","video":null,"channel":null,"channelUrl":null,"author":"YeGoblynQueenne","authorUrl":"https://news.ycombinator.com/user?id=YeGoblynQueenne","authorImage":null,"authorSlug":null,"score":170,"views":null,"sharedCount":null,"likeCount":null,"sharedContent":null,"parent":{"__typename":"HnJson","localize":[{"title":"迄今规模最大的性行为遗传基础研究(2019年)","locale":"zh"},{"title":"迄今規模最大的性行爲遺傳基礎研究(2019年)","locale":"zh-Hant"}]}},{"__typename":"SocialMediaPost","id":"HnPost-26056781","excerpt":"","slug":"/hn/26056781","title":"Opinion: Don’t Stop at Big Tech–We Need to Bust Big Agriculture, Too","date":"February 09, 2021","dateISO":"2021-02-09T10:24:16.380Z","datetime":"2021-02-09 10:24","tags":["story","Hacker News"],"image":null,"imageAlt":null,"provider":"Hacker News","thirdPartyId":"26056781","url":"https://news.ycombinator.com/item?id=26056781","originalUrl":"https://modernfarmer.com/2021/02/opinion-dont-stop-at-big-tech-we-need-to-bust-big-agriculture-too/","imageRemote":"https://modernfarmer.com/wp-content/uploads/2021/02/shutterstock_1604644429.jpg","video":null,"channel":null,"channelUrl":null,"author":"doener","authorUrl":"https://news.ycombinator.com/user?id=doener","authorImage":null,"authorSlug":null,"score":161,"views":null,"sharedCount":null,"likeCount":null,"sharedContent":null,"parent":{"__typename":"HnJson","localize":[{"title":"观点。不要止于大科技--也要打击大农业。","locale":"zh"},{"title":"觀點。不要止於大科技--也要打擊大農業。","locale":"zh-Hant"}]}},{"__typename":"SocialMediaPost","id":"HnPost-26073135","excerpt":"","slug":"/hn/26073135","title":"Reddit valued at $6B on a $250M round","date":"February 09, 2021","dateISO":"2021-02-09T10:24:16.379Z","datetime":"2021-02-09 10:24","tags":["story","Hacker News"],"image":null,"imageAlt":null,"provider":"Hacker News","thirdPartyId":"26073135","url":"https://news.ycombinator.com/item?id=26073135","originalUrl":"https://www.reuters.com/article/us-reddit-funding/reddits-valuation-doubles-to-6-billion-after-new-250-million-funding-idUSKBN2A9056","imageRemote":"https://static.reuters.com/resources/r/?m=02&d=20210209&t=2&i=1550822785&r=LYNXMPEH18033&w=800","video":null,"channel":null,"channelUrl":null,"author":"mathattack","authorUrl":"https://news.ycombinator.com/user?id=mathattack","authorImage":null,"authorSlug":null,"score":231,"views":null,"sharedCount":null,"likeCount":null,"sharedContent":null,"parent":{"__typename":"HnJson","localize":[{"title":"Reddit估值60亿美元，融资2.5亿美元。","locale":"zh"},{"title":"Reddit估值60億美元，融資2.5億美元。","locale":"zh-Hant"}]}},{"__typename":"SocialMediaPost","id":"HnPost-26073463","excerpt":"","slug":"/hn/26073463","title":"Turning an old Amazon Kindle into a eInk development platform","date":"February 09, 2021","dateISO":"2021-02-09T09:39:26.017Z","datetime":"2021-02-09 09:39","tags":["story","Hacker News"],"image":null,"imageAlt":null,"provider":"Hacker News","thirdPartyId":"26073463","url":"https://news.ycombinator.com/item?id=26073463","originalUrl":"https://blog.lidskialf.net/2021/02/08/turning-an-old-kindle-into-a-eink-development-platform/","imageRemote":"https://adq454703481.files.wordpress.com/2021/02/kindle_serial_magnified.jpg?w=900","video":null,"channel":null,"channelUrl":null,"author":"miles","authorUrl":"https://news.ycombinator.com/user?id=miles","authorImage":null,"authorSlug":null,"score":371,"views":null,"sharedCount":null,"likeCount":null,"sharedContent":null,"parent":{"__typename":"HnJson","localize":[{"title":"将旧的亚马逊Kindle变成一个eInk开发平台。","locale":"zh"},{"title":"將舊的亞馬遜Kindle變成一個eInk開發平臺。","locale":"zh-Hant"}]}},{"__typename":"SocialMediaPost","id":"HnPost-26074289","excerpt":"","slug":"/hn/26074289","title":"Algorithms by Jeff Erickson","date":"February 09, 2021","dateISO":"2021-02-09T08:41:26.494Z","datetime":"2021-02-09 08:41","tags":["story","Hacker News"],"image":null,"imageAlt":null,"provider":"Hacker News","thirdPartyId":"26074289","url":"https://news.ycombinator.com/item?id=26074289","originalUrl":"http://jeffe.cs.illinois.edu/teaching/algorithms/","imageRemote":"http://jeffe.cs.illinois.edu/teaching/algorithms/FrontCover.png","video":null,"channel":null,"channelUrl":null,"author":"ngzhian","authorUrl":"https://news.ycombinator.com/user?id=ngzhian","authorImage":null,"authorSlug":null,"score":589,"views":null,"sharedCount":null,"likeCount":null,"sharedContent":null,"parent":{"__typename":"HnJson","localize":[{"title":"Jeff Erickson的算法","locale":"zh"},{"title":"Jeff Erickson的算法","locale":"zh-Hant"}]}},{"__typename":"SocialMediaPost","id":"HnPost-26062617","excerpt":"","slug":"/hn/26062617","title":"A gorilla who was brought up as a boy in an English village","date":"February 09, 2021","dateISO":"2021-02-09T04:53:38.825Z","datetime":"2021-02-09 04:53","tags":["story","Hacker News"],"image":null,"imageAlt":null,"provider":"Hacker News","thirdPartyId":"26062617","url":"https://news.ycombinator.com/item?id=26062617","originalUrl":"https://medium.com/history-of-yesterday/the-gorilla-who-was-brought-up-as-a-boy-in-an-english-village-6e3cdac33c63","imageRemote":"https://miro.medium.com/max/1200/1*_JNgqrv1mAjGfKRmb_N1GA.png","video":null,"channel":null,"channelUrl":null,"author":"simonebrunozzi","authorUrl":"https://news.ycombinator.com/user?id=simonebrunozzi","authorImage":null,"authorSlug":null,"score":181,"views":null,"sharedCount":null,"likeCount":null,"sharedContent":null,"parent":{"__typename":"HnJson","localize":[{"title":"一个在英国村子里长大的大猩猩。","locale":"zh"},{"title":"一個在英國村子裏長大的大猩猩。","locale":"zh-Hant"}]}},{"__typename":"SocialMediaPost","id":"HnPost-26063523","excerpt":"","slug":"/hn/26063523","title":"The computers rejecting job applications","date":"February 09, 2021","dateISO":"2021-02-09T00:56:46.309Z","datetime":"2021-02-09 00:56","tags":["story","Hacker News"],"image":null,"imageAlt":null,"provider":"Hacker News","thirdPartyId":"26063523","url":"https://news.ycombinator.com/item?id=26063523","originalUrl":"https://www.bbc.co.uk/news/business-55932977","imageRemote":"https://ichef.bbci.co.uk/news/1024/branded_news/F305/production/_116831226_gettyimages-90786576.jpg","video":null,"channel":null,"channelUrl":null,"author":"mnw21cam","authorUrl":"https://news.ycombinator.com/user?id=mnw21cam","authorImage":null,"authorSlug":null,"score":197,"views":null,"sharedCount":null,"likeCount":null,"sharedContent":null,"parent":{"__typename":"HnJson","localize":[{"title":"拒绝求职申请的电脑","locale":"zh"},{"title":"拒絕求職申請的電腦","locale":"zh-Hant"}]}},{"__typename":"SocialMediaPost","id":"HnPost-26072025","excerpt":"","slug":"/hn/26072025","title":"20% of requests for Wikimedia Commons are for one image of a flower","date":"February 09, 2021","dateISO":"2021-02-09T00:56:46.309Z","datetime":"2021-02-09 00:56","tags":["story","Hacker News"],"image":null,"imageAlt":null,"provider":"Hacker News","thirdPartyId":"26072025","url":"https://news.ycombinator.com/item?id=26072025","originalUrl":"https://phabricator.wikimedia.org/T273741","imageRemote":null,"video":null,"channel":null,"channelUrl":null,"author":"IfOnlyYouKnew","authorUrl":"https://news.ycombinator.com/user?id=IfOnlyYouKnew","authorImage":null,"authorSlug":null,"score":1384,"views":null,"sharedCount":null,"likeCount":null,"sharedContent":null,"parent":{"__typename":"HnJson","localize":[{"title":"20%的维基共享资源请求是针对一朵花的图像。","locale":"zh"},{"title":"20%的維基共享資源請求是針對一朵花的圖像。","locale":"zh-Hant"}]}},{"__typename":"SocialMediaPost","id":"HnPost-26070262","excerpt":"","slug":"/hn/26070262","title":"Hacker increased chemical level at Oldsmar's city water system, sheriff says","date":"February 09, 2021","dateISO":"2021-02-09T00:00:20.634Z","datetime":"2021-02-09 00:00","tags":["story","Hacker News"],"image":null,"imageAlt":null,"provider":"Hacker News","thirdPartyId":"26070262","url":"https://news.ycombinator.com/item?id=26070262","originalUrl":"https://www.wtsp.com/article/news/local/pinellascounty/pinellas-oldsmar-water-system-computer-intrustion/67-512b2bab-9f94-44d7-841e-5169fdb0a0bd","imageRemote":"https://media.wtsp.com/assets/WTSP/images/69f3cbdf-c368-4596-8187-a104c601feca/69f3cbdf-c368-4596-8187-a104c601feca_1140x641.jpg","video":null,"channel":null,"channelUrl":null,"author":"bschne","authorUrl":"https://news.ycombinator.com/user?id=bschne","authorImage":null,"authorSlug":null,"score":578,"views":null,"sharedCount":null,"likeCount":null,"sharedContent":null,"parent":{"__typename":"HnJson","localize":[{"title":"警长说，黑客增加了Oldsmar城市供水系统的化学水平。","locale":"zh"},{"title":"警長說，黑客增加了Oldsmar城市供水系統的化學水平。","locale":"zh-Hant"}]}},{"__typename":"SocialMediaPost","id":"HnPost-26067326","excerpt":"","slug":"/hn/26067326","title":"New 10 Terapixel Image of the Night Sky Contains 1B Galaxies","date":"February 08, 2021","dateISO":"2021-02-08T23:53:33.885Z","datetime":"2021-02-08 23:53","tags":["story","Hacker News"],"image":null,"imageAlt":null,"provider":"Hacker News","thirdPartyId":"26067326","url":"https://news.ycombinator.com/item?id=26067326","originalUrl":"https://viewer.legacysurvey.org/#IC%203206","imageRemote":null,"video":null,"channel":null,"channelUrl":null,"author":"soheilpro","authorUrl":"https://news.ycombinator.com/user?id=soheilpro","authorImage":null,"authorSlug":null,"score":521,"views":null,"sharedCount":null,"likeCount":null,"sharedContent":null,"parent":{"__typename":"HnJson","localize":[{"title":"新的10兆像素夜空图像包含1B星系","locale":"zh"},{"title":"新的10兆像素夜空圖像包含1B星系","locale":"zh-Hant"}]}},{"__typename":"SocialMediaPost","id":"HnPost-26066340","excerpt":"","slug":"/hn/26066340","title":"Show HN: \"Programming Algorithms in Lisp” Book","date":"February 08, 2021","dateISO":"2021-02-08T23:32:12.847Z","datetime":"2021-02-08 23:32","tags":["story","Show HN","Hacker News"],"image":null,"imageAlt":null,"provider":"Hacker News","thirdPartyId":"26066340","url":"https://news.ycombinator.com/item?id=26066340","originalUrl":"https://www.apress.com/gp/book/9781484264270","imageRemote":"https://images.springer.com/sgw/books/medium/9781484264270.jpg","video":null,"channel":"Show HN","channelUrl":"https://news.ycombinator.com/show","author":"vseloved","authorUrl":"https://news.ycombinator.com/user?id=vseloved","authorImage":null,"authorSlug":null,"score":232,"views":null,"sharedCount":null,"likeCount":null,"sharedContent":null,"parent":{"__typename":"HnJson","localize":[{"title":"出示HN：《Lisp编程算法》一书","locale":"zh"},{"title":"出示HN：《Lisp編程算法》一書","locale":"zh-Hant"}]}},{"__typename":"SocialMediaPost","id":"HnPost-26068032","excerpt":"","slug":"/hn/26068032","title":"Blog with Markdown and Git, and degrade gracefully through time","date":"February 08, 2021","dateISO":"2021-02-08T22:55:45.392Z","datetime":"2021-02-08 22:55","tags":["story","Hacker News"],"image":null,"imageAlt":null,"provider":"Hacker News","thirdPartyId":"26068032","url":"https://news.ycombinator.com/item?id=26068032","originalUrl":"https://brandur.org/fragments/graceful-degradation-time","imageRemote":"https://brandur.org/photographs/fragments/graceful-degradation-time/markdown-and-git.png","video":null,"channel":null,"channelUrl":null,"author":"craigkerstiens","authorUrl":"https://news.ycombinator.com/user?id=craigkerstiens","authorImage":null,"authorSlug":null,"score":290,"views":null,"sharedCount":null,"likeCount":null,"sharedContent":null,"parent":{"__typename":"HnJson","localize":[{"title":"用Markdown和Git写博客，并通过时间优雅地降解。","locale":"zh"},{"title":"用Markdown和Git寫博客，並通過時間優雅地降解。","locale":"zh-Hant"}]}},{"__typename":"SocialMediaPost","id":"HnPost-26069621","excerpt":"","slug":"/hn/26069621","title":"Show HN: Clerk – all of user management as-a-service, not just authentication","date":"February 08, 2021","dateISO":"2021-02-08T21:58:04.534Z","datetime":"2021-02-08 21:58","tags":["story","Show HN","Hacker News"],"image":null,"imageAlt":null,"provider":"Hacker News","thirdPartyId":"26069621","url":"https://news.ycombinator.com/item?id=26069621","originalUrl":"https://clerk.dev/blog/all-of-user-management-not-just-authentication","imageRemote":"https://uploads-ssl.webflow.com/5fd7bfc6e6f1ce2fd6ab58c5/6019dff6fd671523538092e1_blog-clerk.png","video":null,"channel":"Show HN","channelUrl":"https://news.ycombinator.com/show","author":"colinclerk","authorUrl":"https://news.ycombinator.com/user?id=colinclerk","authorImage":null,"authorSlug":null,"score":579,"views":null,"sharedCount":null,"likeCount":null,"sharedContent":null,"parent":{"__typename":"HnJson","localize":[{"title":"显示HN：办事器--所有的用户管理即服务，而不仅仅是身份验证","locale":"zh"},{"title":"顯示HN：辦事器--所有的用戶管理即服務，而不僅僅是身份驗證","locale":"zh-Hant"}]}},{"__typename":"SocialMediaPost","id":"HnPost-26066345","excerpt":"","slug":"/hn/26066345","title":"Don’t Underestimate the Power of a Walk","date":"February 08, 2021","dateISO":"2021-02-08T21:20:53.178Z","datetime":"2021-02-08 21:20","tags":["story","Hacker News"],"image":null,"imageAlt":null,"provider":"Hacker News","thirdPartyId":"26066345","url":"https://news.ycombinator.com/item?id=26066345","originalUrl":"https://hbr.org/2021/02/dont-underestimate-the-power-of-a-walk","imageRemote":"https://hbr.org/resources/images/article_assets/2021/02/Feb21_02_227304805.jpg","video":null,"channel":null,"channelUrl":null,"author":"tdmckinlay","authorUrl":"https://news.ycombinator.com/user?id=tdmckinlay","authorImage":null,"authorSlug":null,"score":244,"views":null,"sharedCount":null,"likeCount":null,"sharedContent":null,"parent":{"__typename":"HnJson","localize":[{"title":"不要低估散步的力量。","locale":"zh"},{"title":"不要低估散步的力量。","locale":"zh-Hant"}]}},{"__typename":"SocialMediaPost","id":"HnPost-26056851","excerpt":"","slug":"/hn/26056851","title":"NYT reporter falsely accuses tech investor of using a slur","date":"February 08, 2021","dateISO":"2021-02-08T20:52:18.562Z","datetime":"2021-02-08 20:52","tags":["story","Hacker News"],"image":null,"imageAlt":null,"provider":"Hacker News","thirdPartyId":"26056851","url":"https://news.ycombinator.com/item?id=26056851","originalUrl":"https://greenwald.substack.com/p/the-journalistic-tattletale-and-censorship","imageRemote":"https://cdn.substack.com/image/fetch/w_1200,c_limit,f_jpg,q_auto:good,fl_progressive:steep/https%3A%2F%2Fbucketeer-e05bbc84-baa3-437e-9518-adb32be77984.s3.amazonaws.com%2Fpublic%2Fimages%2F823ccc6a-dfdb-48a2-b79e-33691326f128_2999x880.jpeg","video":null,"channel":null,"channelUrl":null,"author":"high_derivative","authorUrl":"https://news.ycombinator.com/user?id=high_derivative","authorImage":null,"authorSlug":null,"score":451,"views":null,"sharedCount":null,"likeCount":null,"sharedContent":null,"parent":{"__typename":"HnJson","localize":[{"title":"纽约时报记者诬陷科技投资者使用污言秽语。","locale":"zh"},{"title":"紐約時報記者誣陷科技投資者使用污言穢語。","locale":"zh-Hant"}]}}]}},"pageContext":{"basePath":"/","pageType":"tag","tag":"Hacker News","tagsFilter":{"id":{"glob":"!*Post-1"}},"filter":{"id":{"glob":"!*Post-1"},"tags":{"eq":"Hacker News"}},"limit":25,"skip":800,"total":2407,"totalPages":97,"currentPage":33,"maxWidth":1024,"maxHeight":512,"locale":"zh-Hant","hrefLang":"zh-Hant","originalPath":"/tags/hacker-news/page/33","dateFormat":"YYYY-MM-DD"}},"staticQueryHashes":["1239077767","2506312863","2744905544","3025052997","3493603132","3493603132","3513215887","386998304"]}