{"componentChunkName":"component---gatsby-theme-buzzing-src-gatsby-theme-timeline-templates-posts-query-js","path":"/tags/wallstreetbets/page/7","result":{"data":{"site":{"siteMetadata":{"title":"Reddit 热门","description":"用中文浏览Reddit热门内容","social":[{"name":"Reddit","url":"https://www.reddit.com/","external":true,"prefetch":null},{"name":"GitHub","url":"https://github.com/gatsbyjs","external":null,"prefetch":null}],"menuLinks":[{"name":"每周精选","url":"/issues","external":null,"prefetch":null},{"name":"RSS","url":"/rss.xml","external":null,"prefetch":false}],"localize":[{"locale":"en","title":"Buzzing on Reddit","description":"See what's buzzing on Reddit in your native language","social":[{"name":"Reddit","url":"https://www.reddit.com/","external":true,"prefetch":null}],"menuLinks":[{"name":"Weekly Selection","url":"/issues","external":null,"prefetch":null},{"name":"RSS","url":"/rss.xml","external":null,"prefetch":false}]},{"locale":"zh-Hant","title":"Reddit 熱門","description":"用中文瀏覽Reddit熱門內容","social":null,"menuLinks":null}]}},"tagsGroup":{"group":[{"fieldValue":"ASK HN","totalCount":19},{"fieldValue":"Bitcoin","totalCount":3},{"fieldValue":"Hacker News","totalCount":801},{"fieldValue":"Poll","totalCount":1},{"fieldValue":"Show HN","totalCount":31},{"fieldValue":"investing","totalCount":166},{"fieldValue":"poll","totalCount":1},{"fieldValue":"reddit","totalCount":594},{"fieldValue":"science","totalCount":1},{"fieldValue":"stocks","totalCount":277},{"fieldValue":"story","totalCount":800},{"fieldValue":"tweet","totalCount":243},{"fieldValue":"wallstreetbets","totalCount":151}]},"allBlogPost":{"nodes":[{"__typename":"SocialMediaPost","id":"RedditPost-ko0nmp","excerpt":"","slug":"/reddit/r/wallstreetbets/comments/ko0nmp/buying_pltr_be_like_buy_high_sell_low/","title":"Buying $PLTR be like.... Buy high sell low","date":"January 01, 2021","dateISO":"2021-01-01T05:28:59.000Z","datetime":"2021-01-01 05:28","tags":["wallstreetbets","reddit"],"image":null,"imageAlt":"Reddit Image","provider":"Reddit","thirdPartyId":"ko0nmp","url":"https://www.reddit.com/r/wallstreetbets/comments/ko0nmp/buying_pltr_be_like_buy_high_sell_low/","originalUrl":"https://www.reddit.com/r/wallstreetbets/comments/ko0nmp/buying_pltr_be_like_buy_high_sell_low/","imageRemote":"https://preview.redd.it/es6k4aa0zl861.jpg?width=1080&crop=smart&auto=webp&s=69fd9a51b7b7aec154e34ce0abcbb11f211618db","video":null,"channel":"wallstreetbets","channelUrl":"https://www.reddit.com/r/wallstreetbets","author":"AntiquesAndSo","authorUrl":"https://www.reddit.com/user/AntiquesAndSo","authorImage":null,"authorSlug":"AntiquesAndSo","score":3343,"views":null,"sharedCount":null,"likeCount":null,"sharedContent":null,"parent":{"__typename":"RedditJson","localize":[{"title":"购买潘多拉媒ltr就像.高买低卖","the_new_excerpt":null,"locale":"zh"},{"title":"購買潘多拉媒ltr就像.高買低賣","the_new_excerpt":null,"locale":"zh-Hant"}]}}]}},"pageContext":{"basePath":"/","pageType":"tag","tag":"wallstreetbets","tagsFilter":{"id":{"glob":"!*Post-1"}},"filter":{"id":{"glob":"!*Post-1"},"tags":{"eq":"wallstreetbets"}},"limit":25,"skip":150,"total":151,"totalPages":7,"currentPage":7,"maxWidth":1024,"maxHeight":512,"locale":"zh","hrefLang":"zh-Hans","originalPath":"/tags/wallstreetbets/page/7","dateFormat":"YYYY-MM-DD"}},"staticQueryHashes":["1239077767","1684688348","2506312863","2744905544","3493603132","3493603132","386998304"]}