{"componentChunkName":"component---gatsby-theme-buzzing-src-gatsby-theme-timeline-templates-posts-query-js","path":"/zh-Hant/tags/hacker-news/page/53","result":{"data":{"site":{"siteMetadata":{"title":"Reddit 热门","description":"用中文浏览Reddit热门内容","social":[{"name":"Twitter","url":"https://twitter.com/gatsbyjs","external":null,"prefetch":null},{"name":"GitHub","url":"https://github.com/gatsbyjs","external":null,"prefetch":null}],"menuLinks":[],"localize":[{"locale":"en","title":"Buzzing on Reddit","description":"See what's buzzing on Reddit in your native language","social":[{"name":"Reddit","url":"https://www.reddit.com/","external":true,"prefetch":null}],"menuLinks":[{"name":"Weekly Selection","url":"/issues","external":null,"prefetch":null},{"name":"RSS","url":"/rss.xml","external":null,"prefetch":false}]},{"locale":"zh-Hant","title":"Reddit 熱門","description":"用中文瀏覽Reddit熱門內容","social":null,"menuLinks":null}]}},"tagsGroup":{"group":[{"fieldValue":"ASK HN","totalCount":44},{"fieldValue":"Bitcoin","totalCount":4},{"fieldValue":"Hacker News","totalCount":2600},{"fieldValue":"Poll","totalCount":1},{"fieldValue":"SaveAMC","totalCount":1},{"fieldValue":"Show HN","totalCount":89},{"fieldValue":"bitcoin","totalCount":3},{"fieldValue":"investing","totalCount":797},{"fieldValue":"poll","totalCount":1},{"fieldValue":"reddit","totalCount":4938},{"fieldValue":"science","totalCount":1},{"fieldValue":"stocks","totalCount":1592},{"fieldValue":"story","totalCount":2599},{"fieldValue":"tweet","totalCount":814},{"fieldValue":"wallstreetbets","totalCount":2549}]},"allBlogPost":{"nodes":[{"__typename":"SocialMediaPost","id":"HnPost-25938999","excerpt":"","slug":"/hn/25938999","title":"JaaS: The team that builds Jitsi can now also run it for you","date":"January 28, 2021","dateISO":"2021-01-28T10:34:17.760Z","datetime":"2021-01-28 10:34","tags":["story","Hacker News"],"image":null,"imageAlt":null,"provider":"Hacker News","thirdPartyId":"25938999","url":"https://news.ycombinator.com/item?id=25938999","originalUrl":"https://jitsi.org/blog/jaas-the-team-that-builds-jitsi-can-now-also-run-it-for-you/","imageRemote":"https://jitsi.org/wp-content/uploads/2021/01/Screen-Shot-2021-01-27-at-22.04.12-1024x869.png","video":null,"channel":null,"channelUrl":null,"author":"buovjaga","authorUrl":"https://news.ycombinator.com/user?id=buovjaga","authorImage":null,"authorSlug":null,"score":410,"views":null,"sharedCount":null,"likeCount":null,"sharedContent":null,"parent":{"__typename":"HnJson","localize":[{"title":"JaaS。构建Jitsi的团队现在也可以为你运行它。","locale":"zh"},{"title":"JaaS。構建Jitsi的團隊現在也可以爲你運行它。","locale":"zh-Hant"}]}},{"__typename":"SocialMediaPost","id":"HnPost-25936521","excerpt":"","slug":"/hn/25936521","title":"Where do we go from here and who is going to step up to help us?","date":"January 28, 2021","dateISO":"2021-01-28T09:47:12.044Z","datetime":"2021-01-28 09:47","tags":["story","Hacker News"],"image":null,"imageAlt":null,"provider":"Hacker News","thirdPartyId":"25936521","url":"https://news.ycombinator.com/item?id=25936521","originalUrl":"https://old.reddit.com/r/wallstreetbets/comments/l6j4r9/where_do_we_go_from_here_and_who_is_going_to_step/","imageRemote":"https://www.redditstatic.com/new-icon.png","video":null,"channel":null,"channelUrl":null,"author":"neom","authorUrl":"https://news.ycombinator.com/user?id=neom","authorImage":null,"authorSlug":null,"score":161,"views":null,"sharedCount":null,"likeCount":null,"sharedContent":null,"parent":{"__typename":"HnJson","localize":[{"title":"我们该何去何从，谁会站出来帮助我们？","locale":"zh"},{"title":"我們該何去何從，誰會站出來幫助我們？","locale":"zh-Hant"}]}},{"__typename":"SocialMediaPost","id":"HnPost-25933262","excerpt":"","slug":"/hn/25933262","title":"Machine learning saves us $1.7M a year on document previews","date":"January 28, 2021","dateISO":"2021-01-28T07:56:38.341Z","datetime":"2021-01-28 07:56","tags":["story","Hacker News"],"image":null,"imageAlt":null,"provider":"Hacker News","thirdPartyId":"25933262","url":"https://news.ycombinator.com/item?id=25933262","originalUrl":"https://dropbox.tech/machine-learning/cannes--how-ml-saves-us--1-7m-a-year-on-document-previews","imageRemote":"https://aem.dropbox.com/cms/content/dam/dropbox/tech-blog/en-us/2021/01/cannes/Techblog-Cannes-Social.png","video":null,"channel":null,"channelUrl":null,"author":"wsuen","authorUrl":"https://news.ycombinator.com/user?id=wsuen","authorImage":null,"authorSlug":null,"score":160,"views":null,"sharedCount":null,"likeCount":null,"sharedContent":null,"parent":{"__typename":"HnJson","localize":[{"title":"机器学习每年为我们节省170万的文档预览费用。","locale":"zh"},{"title":"機器學習每年爲我們節省170萬的文檔預覽費用。","locale":"zh-Hant"}]}},{"__typename":"SocialMediaPost","id":"HnPost-25933121","excerpt":"","slug":"/hn/25933121","title":"OO in Python is mostly pointless","date":"January 28, 2021","dateISO":"2021-01-28T02:09:39.119Z","datetime":"2021-01-28 02:09","tags":["story","Hacker News"],"image":null,"imageAlt":null,"provider":"Hacker News","thirdPartyId":"25933121","url":"https://news.ycombinator.com/item?id=25933121","originalUrl":"https://leontrolski.github.io/mostly-pointless.html","imageRemote":"https://leontrolski.github.io/pic.png","video":null,"channel":null,"channelUrl":null,"author":"leontrolski","authorUrl":"https://news.ycombinator.com/user?id=leontrolski","authorImage":null,"authorSlug":null,"score":170,"views":null,"sharedCount":null,"likeCount":null,"sharedContent":null,"parent":{"__typename":"HnJson","localize":[{"title":"Python中的OO大多是无意义的","locale":"zh"},{"title":"Python中的OO大多是無意義的","locale":"zh-Hant"}]}},{"__typename":"SocialMediaPost","id":"HnPost-25930253","excerpt":"","slug":"/hn/25930253","title":"Tesla’s charging stations left other manufacturers in the dust","date":"January 28, 2021","dateISO":"2021-01-28T01:10:07.270Z","datetime":"2021-01-28 01:10","tags":["story","Hacker News"],"image":null,"imageAlt":null,"provider":"Hacker News","thirdPartyId":"25930253","url":"https://news.ycombinator.com/item?id=25930253","originalUrl":"https://hbr.org/2021/01/how-teslas-charging-stations-left-other-manufacturers-in-the-dust","imageRemote":"https://hbr.org/resources/images/article_assets/2021/01/Jan21_27_462398778.jpg","video":null,"channel":null,"channelUrl":null,"author":"apress","authorUrl":"https://news.ycombinator.com/user?id=apress","authorImage":null,"authorSlug":null,"score":183,"views":null,"sharedCount":null,"likeCount":null,"sharedContent":null,"parent":{"__typename":"HnJson","localize":[{"title":"特斯拉的充电站让其他厂商望尘莫及","locale":"zh"},{"title":"特斯拉的充電站讓其他廠商望塵莫及","locale":"zh-Hant"}]}},{"__typename":"SocialMediaPost","id":"HnPost-25935511","excerpt":"","slug":"/hn/25935511","title":"Discord bans r/WallStreetBets server, subreddit goes private","date":"January 28, 2021","dateISO":"2021-01-28T01:10:07.269Z","datetime":"2021-01-28 01:10","tags":["story","Hacker News"],"image":null,"imageAlt":null,"provider":"Hacker News","thirdPartyId":"25935511","url":"https://news.ycombinator.com/item?id=25935511","originalUrl":"https://www.theverge.com/2021/1/27/22253251/discord-bans-the-r-wallstreetbets-server","imageRemote":"https://cdn.vox-cdn.com/thumbor/JEbTJCG21qMOej_dxhZkUsUoxVs=/0x146:2040x1214/fit-in/1200x630/cdn.vox-cdn.com/uploads/chorus_asset/file/19816263/acastro_200318_1777_discord_0001.0.jpg","video":null,"channel":null,"channelUrl":null,"author":"icpmacdo","authorUrl":"https://news.ycombinator.com/user?id=icpmacdo","authorImage":null,"authorSlug":null,"score":330,"views":null,"sharedCount":null,"likeCount":null,"sharedContent":null,"parent":{"__typename":"HnJson","localize":[{"title":"Discord禁止r/WallStreetBets服务器，subreddit转为私有。","locale":"zh"},{"title":"Discord禁止r/WallStreetBets服務器，subreddit轉爲私有。","locale":"zh-Hant"}]}},{"__typename":"SocialMediaPost","id":"HnPost-25931498","excerpt":"","slug":"/hn/25931498","title":"Most of the time, you don’t really need another MOOC","date":"January 27, 2021","dateISO":"2021-01-27T23:44:02.317Z","datetime":"2021-01-27 23:44","tags":["story","Hacker News"],"image":null,"imageAlt":null,"provider":"Hacker News","thirdPartyId":"25931498","url":"https://news.ycombinator.com/item?id=25931498","originalUrl":"https://eugeneyan.com/writing/you-dont-need-another-mooc/","imageRemote":"https://eugeneyan.com/assets/og_image/craft.jpg","video":null,"channel":null,"channelUrl":null,"author":"7d7n","authorUrl":"https://news.ycombinator.com/user?id=7d7n","authorImage":null,"authorSlug":null,"score":163,"views":null,"sharedCount":null,"likeCount":null,"sharedContent":null,"parent":{"__typename":"HnJson","localize":[{"title":"大多数时候，你并不真的需要另一个MOOC。","locale":"zh"},{"title":"大多數時候，你並不真的需要另一個MOOC。","locale":"zh-Hant"}]}},{"__typename":"SocialMediaPost","id":"HnPost-25930190","excerpt":"","slug":"/hn/25930190","title":"Automating my job with GPT-3","date":"January 27, 2021","dateISO":"2021-01-27T22:31:46.770Z","datetime":"2021-01-27 22:31","tags":["story","Hacker News"],"image":null,"imageAlt":null,"provider":"Hacker News","thirdPartyId":"25930190","url":"https://news.ycombinator.com/item?id=25930190","originalUrl":"https://blog.seekwell.io/gpt3","imageRemote":"https://s3.amazonaws.com/super-notion/images/707d9225-8f86-489c-9ecc-795816aa2998.png","video":null,"channel":null,"channelUrl":null,"author":"daolf","authorUrl":"https://news.ycombinator.com/user?id=daolf","authorImage":null,"authorSlug":null,"score":184,"views":null,"sharedCount":null,"likeCount":null,"sharedContent":null,"parent":{"__typename":"HnJson","localize":[{"title":"用GPT-3实现我的工作自动化","locale":"zh"},{"title":"用GPT-3實現我的工作自動化","locale":"zh-Hant"}]}},{"__typename":"SocialMediaPost","id":"HnPost-25930214","excerpt":"","slug":"/hn/25930214","title":"GameStop Is Rage Against the Financial Machine","date":"January 27, 2021","dateISO":"2021-01-27T22:31:46.770Z","datetime":"2021-01-27 22:31","tags":["story","Hacker News"],"image":null,"imageAlt":null,"provider":"Hacker News","thirdPartyId":"25930214","url":"https://news.ycombinator.com/item?id=25930214","originalUrl":"https://www.bloomberg.com/opinion/articles/2021-01-27/gamestop-short-squeeze-is-rage-against-the-financial-machine","imageRemote":null,"video":null,"channel":null,"channelUrl":null,"author":"tempsy","authorUrl":"https://news.ycombinator.com/user?id=tempsy","authorImage":null,"authorSlug":null,"score":336,"views":null,"sharedCount":null,"likeCount":null,"sharedContent":null,"parent":{"__typename":"HnJson","localize":[{"title":"GameStop是对金融机器的愤怒","locale":"zh"},{"title":"GameStop是對金融機器的憤怒","locale":"zh-Hant"}]}},{"__typename":"SocialMediaPost","id":"HnPost-25933016","excerpt":"","slug":"/hn/25933016","title":"WebRTC is now a W3C and IETF standard","date":"January 27, 2021","dateISO":"2021-01-27T22:31:46.770Z","datetime":"2021-01-27 22:31","tags":["story","Hacker News"],"image":null,"imageAlt":null,"provider":"Hacker News","thirdPartyId":"25933016","url":"https://news.ycombinator.com/item?id=25933016","originalUrl":"https://web.dev/webrtc-standard-announcement/","imageRemote":"https://webdev.imgix.net/images/social.png?auto=format&fit=max&w=1200","video":null,"channel":null,"channelUrl":null,"author":"kaycebasques","authorUrl":"https://news.ycombinator.com/user?id=kaycebasques","authorImage":null,"authorSlug":null,"score":202,"views":null,"sharedCount":null,"likeCount":null,"sharedContent":null,"parent":{"__typename":"HnJson","localize":[{"title":"WebRTC现已成为W3C和IETF标准。","locale":"zh"},{"title":"WebRTC現已成爲W3C和IETF標準。","locale":"zh-Hant"}]}},{"__typename":"SocialMediaPost","id":"HnPost-25931026","excerpt":"","slug":"/hn/25931026","title":"Gitlab removes its 'starter' tier Users must either pay 5x more or lose features","date":"January 27, 2021","dateISO":"2021-01-27T21:03:22.354Z","datetime":"2021-01-27 21:03","tags":["story","Hacker News"],"image":null,"imageAlt":null,"provider":"Hacker News","thirdPartyId":"25931026","url":"https://news.ycombinator.com/item?id=25931026","originalUrl":"https://www.theregister.com/2021/01/27/gitlab_removes_starter_tier/","imageRemote":"https://regmedia.co.uk/2019/10/17/shutterstock_gitlab_logo.jpg","video":null,"channel":null,"channelUrl":null,"author":"LinuxBender","authorUrl":"https://news.ycombinator.com/user?id=LinuxBender","authorImage":null,"authorSlug":null,"score":161,"views":null,"sharedCount":null,"likeCount":null,"sharedContent":null,"parent":{"__typename":"HnJson","localize":[{"title":"Gitlab 移除 \"入门 \"层 用户要么多付 5 倍的费用，要么失去功能。","locale":"zh"},{"title":"Gitlab 移除 \"入門 \"層 用戶要麼多付 5 倍的費用，要麼失去功能。","locale":"zh-Hant"}]}},{"__typename":"SocialMediaPost","id":"HnPost-25928068","excerpt":"","slug":"/hn/25928068","title":"OpenWifiPass – Open-Source Implementation of Apple's Wi-Fi Password Sharing","date":"January 27, 2021","dateISO":"2021-01-27T20:37:47.740Z","datetime":"2021-01-27 20:37","tags":["story","Hacker News"],"image":null,"imageAlt":null,"provider":"Hacker News","thirdPartyId":"25928068","url":"https://news.ycombinator.com/item?id=25928068","originalUrl":"https://github.com/seemoo-lab/openwifipass","imageRemote":"https://avatars.githubusercontent.com/u/7370084?s=400&v=4","video":null,"channel":null,"channelUrl":null,"author":"jagged-chisel","authorUrl":"https://news.ycombinator.com/user?id=jagged-chisel","authorImage":null,"authorSlug":null,"score":160,"views":null,"sharedCount":null,"likeCount":null,"sharedContent":null,"parent":{"__typename":"HnJson","localize":[{"title":"OpenWifiPass--苹果Wi-Fi密码共享的开源实现。","locale":"zh"},{"title":"OpenWifiPass--蘋果Wi-Fi密碼共享的開源實現。","locale":"zh-Hant"}]}},{"__typename":"SocialMediaPost","id":"HnPost-25915313","excerpt":"","slug":"/hn/25915313","title":"The unreasonable effectiveness of simple HTML","date":"January 27, 2021","dateISO":"2021-01-27T20:02:13.125Z","datetime":"2021-01-27 20:02","tags":["story","Hacker News"],"image":null,"imageAlt":null,"provider":"Hacker News","thirdPartyId":"25915313","url":"https://news.ycombinator.com/item?id=25915313","originalUrl":"https://shkspr.mobi/blog/2021/01/the-unreasonable-effectiveness-of-simple-html/","imageRemote":"https://shkspr.mobi/blog/wp-content/uploads/2018/01/HTML5_Badge_512.png","video":null,"channel":null,"channelUrl":null,"author":"edent","authorUrl":"https://news.ycombinator.com/user?id=edent","authorImage":null,"authorSlug":null,"score":296,"views":null,"sharedCount":null,"likeCount":null,"sharedContent":null,"parent":{"__typename":"HnJson","localize":[{"title":"简单HTML的不合理功效","locale":"zh"},{"title":"簡單HTML的不合理功效","locale":"zh-Hant"}]}},{"__typename":"SocialMediaPost","id":"HnPost-25926360","excerpt":"","slug":"/hn/25926360","title":"Berty: Peer-to-peer messaging app that works with or without internet access","date":"January 27, 2021","dateISO":"2021-01-27T20:02:13.125Z","datetime":"2021-01-27 20:02","tags":["story","Hacker News"],"image":null,"imageAlt":null,"provider":"Hacker News","thirdPartyId":"25926360","url":"https://news.ycombinator.com/item?id=25926360","originalUrl":"https://github.com/berty/berty","imageRemote":"https://repository-images.githubusercontent.com/141089889/bb009800-7059-11ea-935c-8e7a99aec447","video":null,"channel":null,"channelUrl":null,"author":"sirffuzzylogik","authorUrl":"https://news.ycombinator.com/user?id=sirffuzzylogik","authorImage":null,"authorSlug":null,"score":174,"views":null,"sharedCount":null,"likeCount":null,"sharedContent":null,"parent":{"__typename":"HnJson","localize":[{"title":"Berty: 点对点通讯应用，无论是否有网络连接都能使用","locale":"zh"},{"title":"Berty: 點對點通訊應用，無論是否有網絡連接都能使用","locale":"zh-Hant"}]}},{"__typename":"SocialMediaPost","id":"HnPost-25932233","excerpt":"","slug":"/hn/25932233","title":"Mark Cuban launches a transparent, low cost generic drug company","date":"January 27, 2021","dateISO":"2021-01-27T20:02:13.125Z","datetime":"2021-01-27 20:02","tags":["story","Hacker News"],"image":null,"imageAlt":null,"provider":"Hacker News","thirdPartyId":"25932233","url":"https://news.ycombinator.com/item?id=25932233","originalUrl":"https://costplusdrugs.com/","imageRemote":"https://costplusdrugs.com/images/hero-home.jpg","video":null,"channel":null,"channelUrl":null,"author":"yawnxyz","authorUrl":"https://news.ycombinator.com/user?id=yawnxyz","authorImage":null,"authorSlug":null,"score":280,"views":null,"sharedCount":null,"likeCount":null,"sharedContent":null,"parent":{"__typename":"HnJson","localize":[{"title":"马克-库班成立透明低价仿制药公司","locale":"zh"},{"title":"馬克-庫班成立透明低價仿製藥公司","locale":"zh-Hant"}]}},{"__typename":"SocialMediaPost","id":"HnPost-25930000","excerpt":"","slug":"/hn/25930000","title":"U.S. Suffers Sharpest Rise in Poverty Rate in More Than 50 Years","date":"January 27, 2021","dateISO":"2021-01-27T18:18:32.476Z","datetime":"2021-01-27 18:18","tags":["story","Hacker News"],"image":null,"imageAlt":null,"provider":"Hacker News","thirdPartyId":"25930000","url":"https://news.ycombinator.com/item?id=25930000","originalUrl":"https://www.bloomberg.com/news/articles/2021-01-25/u-s-suffers-sharpest-rise-in-poverty-rate-in-more-than-50-years","imageRemote":null,"video":null,"channel":null,"channelUrl":null,"author":"paulpauper","authorUrl":"https://news.ycombinator.com/user?id=paulpauper","authorImage":null,"authorSlug":null,"score":180,"views":null,"sharedCount":null,"likeCount":null,"sharedContent":null,"parent":{"__typename":"HnJson","localize":[{"title":"美国遭遇50多年来最大幅度的贫困率上升","locale":"zh"},{"title":"美國遭遇50多年來最大幅度的貧困率上升","locale":"zh-Hant"}]}},{"__typename":"SocialMediaPost","id":"HnPost-25929259","excerpt":"","slug":"/hn/25929259","title":"My 2 Year Journey to $10K MRR","date":"January 27, 2021","dateISO":"2021-01-27T17:40:56.588Z","datetime":"2021-01-27 17:40","tags":["story","Hacker News"],"image":null,"imageAlt":null,"provider":"Hacker News","thirdPartyId":"25929259","url":"https://news.ycombinator.com/item?id=25929259","originalUrl":"https://www.bannerbear.com/journey-to-10k-mrr/","imageRemote":"https://www.bannerbear.com/images/journey-og.png","video":null,"channel":null,"channelUrl":null,"author":"ronyfadel","authorUrl":"https://news.ycombinator.com/user?id=ronyfadel","authorImage":null,"authorSlug":null,"score":189,"views":null,"sharedCount":null,"likeCount":null,"sharedContent":null,"parent":{"__typename":"HnJson","localize":[{"title":"我的2年10K MRR之旅","locale":"zh"},{"title":"我的2年10K MRR之旅","locale":"zh-Hant"}]}},{"__typename":"SocialMediaPost","id":"HnPost-25914502","excerpt":"","slug":"/hn/25914502","title":"What color was “Apple Beige”?","date":"January 27, 2021","dateISO":"2021-01-27T16:12:24.305Z","datetime":"2021-01-27 16:12","tags":["story","Hacker News"],"image":null,"imageAlt":null,"provider":"Hacker News","thirdPartyId":"25914502","url":"https://news.ycombinator.com/item?id=25914502","originalUrl":"https://bzotto.medium.com/what-color-was-apple-beige-acd14bca0c1a","imageRemote":"https://miro.medium.com/max/1200/1*pTMt9Gij06hen40M-iOw1g.png","video":null,"channel":null,"channelUrl":null,"author":"ryanmercer","authorUrl":"https://news.ycombinator.com/user?id=ryanmercer","authorImage":null,"authorSlug":null,"score":177,"views":null,"sharedCount":null,"likeCount":null,"sharedContent":null,"parent":{"__typename":"HnJson","localize":[{"title":"\"苹果米色 \"是什么颜色？","locale":"zh"},{"title":"\"蘋果米色 \"是什麼顏色？","locale":"zh-Hant"}]}},{"__typename":"SocialMediaPost","id":"HnPost-25915274","excerpt":"","slug":"/hn/25915274","title":"LZ4, an Extremely Fast Compression Algorithm","date":"January 27, 2021","dateISO":"2021-01-27T16:12:24.305Z","datetime":"2021-01-27 16:12","tags":["story","Hacker News"],"image":null,"imageAlt":null,"provider":"Hacker News","thirdPartyId":"25915274","url":"https://news.ycombinator.com/item?id=25915274","originalUrl":"https://lz4.github.io/lz4/","imageRemote":null,"video":null,"channel":null,"channelUrl":null,"author":"creolabs","authorUrl":"https://news.ycombinator.com/user?id=creolabs","authorImage":null,"authorSlug":null,"score":195,"views":null,"sharedCount":null,"likeCount":null,"sharedContent":null,"parent":{"__typename":"HnJson","localize":[{"title":"LZ4，一种极速压缩算法。","locale":"zh"},{"title":"LZ4，一種極速壓縮算法。","locale":"zh-Hant"}]}},{"__typename":"SocialMediaPost","id":"HnPost-25917403","excerpt":"","slug":"/hn/25917403","title":"Launch HN: Airbyte (YC W20) – Open-Source ELT (Fivetran/Stitch Alternative)","date":"January 27, 2021","dateISO":"2021-01-27T16:12:24.305Z","datetime":"2021-01-27 16:12","tags":["story","Hacker News"],"image":null,"imageAlt":null,"provider":"Hacker News","thirdPartyId":"25917403","url":"https://news.ycombinator.com/item?id=25917403","originalUrl":"https://news.ycombinator.com/item?id=25917403","imageRemote":null,"video":null,"channel":null,"channelUrl":null,"author":"mtricot","authorUrl":"https://news.ycombinator.com/user?id=mtricot","authorImage":null,"authorSlug":null,"score":160,"views":null,"sharedCount":null,"likeCount":null,"sharedContent":null,"parent":{"__typename":"HnJson","localize":[{"title":"推出HN：Airbyte (YC W20)----开源ELT(Fivetran/Stitch Alternative)","locale":"zh"},{"title":"推出HN：Airbyte (YC W20)----開源ELT(Fivetran/Stitch Alternative)","locale":"zh-Hant"}]}},{"__typename":"SocialMediaPost","id":"HnPost-25923491","excerpt":"","slug":"/hn/25923491","title":"CircuitPython: Programming Hardware in Python","date":"January 27, 2021","dateISO":"2021-01-27T16:12:24.305Z","datetime":"2021-01-27 16:12","tags":["story","Hacker News"],"image":null,"imageAlt":null,"provider":"Hacker News","thirdPartyId":"25923491","url":"https://news.ycombinator.com/item?id=25923491","originalUrl":"https://github.com/adafruit/circuitpython","imageRemote":"https://repository-images.githubusercontent.com/66166069/5fb95200-653a-11e9-8786-9536bf568865","video":null,"channel":null,"channelUrl":null,"author":"optimalsolver","authorUrl":"https://news.ycombinator.com/user?id=optimalsolver","authorImage":null,"authorSlug":null,"score":161,"views":null,"sharedCount":null,"likeCount":null,"sharedContent":null,"parent":{"__typename":"HnJson","localize":[{"title":"CircuitPython。用Python编程硬件","locale":"zh"},{"title":"CircuitPython。用Python編程硬件","locale":"zh-Hant"}]}},{"__typename":"SocialMediaPost","id":"HnPost-25926471","excerpt":"","slug":"/hn/25926471","title":"Telephoto fear: how lenses affect views of crowds","date":"January 27, 2021","dateISO":"2021-01-27T16:12:24.305Z","datetime":"2021-01-27 16:12","tags":["story","Hacker News"],"image":null,"imageAlt":null,"provider":"Hacker News","thirdPartyId":"25926471","url":"https://news.ycombinator.com/item?id=25926471","originalUrl":"https://mainichi.jp/english/articles/20210126/p2a/00m/0op/009000c","imageRemote":"https://cdn.mainichi.jp/vol1/2021/01/26/20210126p2a00m0na003000p/0c10.jpg?1","video":null,"channel":null,"channelUrl":null,"author":"_cs2017_","authorUrl":"https://news.ycombinator.com/user?id=_cs2017_","authorImage":null,"authorSlug":null,"score":182,"views":null,"sharedCount":null,"likeCount":null,"sharedContent":null,"parent":{"__typename":"HnJson","localize":[{"title":"长焦恐惧：镜头如何影响人群的视野","locale":"zh"},{"title":"長焦恐懼：鏡頭如何影響人羣的視野","locale":"zh-Hant"}]}},{"__typename":"SocialMediaPost","id":"HnPost-25927943","excerpt":"","slug":"/hn/25927943","title":"Made in the USA: Socialism for the Rich. Capitalism for the Rest","date":"January 27, 2021","dateISO":"2021-01-27T16:12:24.305Z","datetime":"2021-01-27 16:12","tags":["story","Hacker News"],"image":null,"imageAlt":null,"provider":"Hacker News","thirdPartyId":"25927943","url":"https://news.ycombinator.com/item?id=25927943","originalUrl":"https://www.nytimes.com/2021/01/26/opinion/us-capitalism-socialism.html","imageRemote":"https://static01.nyt.com/images/2021/01/26/opinion/26friedmanWeb/26friedmanWeb-facebookJumbo.jpg","video":null,"channel":null,"channelUrl":null,"author":"nobody9999","authorUrl":"https://news.ycombinator.com/user?id=nobody9999","authorImage":null,"authorSlug":null,"score":167,"views":null,"sharedCount":null,"likeCount":null,"sharedContent":null,"parent":{"__typename":"HnJson","localize":[{"title":"美国制造：富人的社会主义。其余人的资本主义","locale":"zh"},{"title":"美國製造：富人的社會主義。其餘人的資本主義","locale":"zh-Hant"}]}},{"__typename":"SocialMediaPost","id":"HnPost-25928310","excerpt":"","slug":"/hn/25928310","title":"Social media damages teenagers' mental health, report says","date":"January 27, 2021","dateISO":"2021-01-27T16:12:24.305Z","datetime":"2021-01-27 16:12","tags":["story","Hacker News"],"image":null,"imageAlt":null,"provider":"Hacker News","thirdPartyId":"25928310","url":"https://news.ycombinator.com/item?id=25928310","originalUrl":"https://www.bbc.com/news/technology-55826238","imageRemote":"https://ichef.bbci.co.uk/news/1024/branded_news/8FFA/production/_116685863_hi043825875.jpg","video":null,"channel":null,"channelUrl":null,"author":"alexrustic","authorUrl":"https://news.ycombinator.com/user?id=alexrustic","authorImage":null,"authorSlug":null,"score":236,"views":null,"sharedCount":null,"likeCount":null,"sharedContent":null,"parent":{"__typename":"HnJson","localize":[{"title":"报告称社交媒体损害青少年心理健康","locale":"zh"},{"title":"報告稱社交媒體損害青少年心理健康","locale":"zh-Hant"}]}},{"__typename":"SocialMediaPost","id":"HnPost-25927184","excerpt":"","slug":"/hn/25927184","title":"Vue Native","date":"January 27, 2021","dateISO":"2021-01-27T14:42:04.378Z","datetime":"2021-01-27 14:42","tags":["story","Hacker News"],"image":null,"imageAlt":null,"provider":"Hacker News","thirdPartyId":"25927184","url":"https://news.ycombinator.com/item?id=25927184","originalUrl":"https://vue-native.io/","imageRemote":"https://vue-native.io/images/logo.png","video":null,"channel":null,"channelUrl":null,"author":"alokrai","authorUrl":"https://news.ycombinator.com/user?id=alokrai","authorImage":null,"authorSlug":null,"score":166,"views":null,"sharedCount":null,"likeCount":null,"sharedContent":null,"parent":{"__typename":"HnJson","localize":[{"title":"Vue Native","locale":"zh"},{"title":"Vue Native","locale":"zh-Hant"}]}}]}},"pageContext":{"basePath":"/","pageType":"tag","tag":"Hacker News","tagsFilter":{"id":{"glob":"!*Post-1"}},"filter":{"id":{"glob":"!*Post-1"},"tags":{"eq":"Hacker News"}},"limit":25,"skip":1300,"total":2600,"totalPages":104,"currentPage":53,"maxWidth":1024,"maxHeight":512,"locale":"zh-Hant","hrefLang":"zh-Hant","originalPath":"/tags/hacker-news/page/53","dateFormat":"YYYY-MM-DD"}},"staticQueryHashes":["1239077767","2506312863","2744905544","3025052997","3493603132","3493603132","3513215887","386998304"]}