{"componentChunkName":"component---gatsby-theme-buzzing-src-gatsby-theme-timeline-templates-posts-query-js","path":"/tags/hacker-news/page/33","result":{"data":{"site":{"siteMetadata":{"title":"Reddit 热门","description":"用中文浏览Reddit热门内容","social":[{"name":"Reddit","url":"https://www.reddit.com/","external":true,"prefetch":null},{"name":"GitHub","url":"https://github.com/gatsbyjs","external":null,"prefetch":null}],"menuLinks":[{"name":"每周精选","url":"/issues","external":null,"prefetch":null},{"name":"RSS","url":"/rss.xml","external":null,"prefetch":false}],"localize":[{"locale":"en","title":"Buzzing on Reddit","description":"See what's buzzing on Reddit in your native language","social":[{"name":"Reddit","url":"https://www.reddit.com/","external":true,"prefetch":null}],"menuLinks":[{"name":"Weekly Selection","url":"/issues","external":null,"prefetch":null},{"name":"RSS","url":"/rss.xml","external":null,"prefetch":false}]},{"locale":"zh-Hant","title":"Reddit 熱門","description":"用中文瀏覽Reddit熱門內容","social":null,"menuLinks":null}]}},"tagsGroup":{"group":[{"fieldValue":"ASK HN","totalCount":19},{"fieldValue":"Bitcoin","totalCount":3},{"fieldValue":"Hacker News","totalCount":801},{"fieldValue":"Poll","totalCount":1},{"fieldValue":"Show HN","totalCount":31},{"fieldValue":"investing","totalCount":166},{"fieldValue":"poll","totalCount":1},{"fieldValue":"reddit","totalCount":594},{"fieldValue":"science","totalCount":1},{"fieldValue":"stocks","totalCount":277},{"fieldValue":"story","totalCount":800},{"fieldValue":"tweet","totalCount":243},{"fieldValue":"wallstreetbets","totalCount":151}]},"allBlogPost":{"nodes":[{"__typename":"SocialMediaPost","id":"HnPost-25453540","excerpt":"","slug":"/hn/25453540","title":"Facebook Takes Out Newspaper Ads to Attack Apple's Strengthening iOS Privacy","date":"December 17, 2020","dateISO":"2020-12-17T12:17:14.385Z","datetime":"2020-12-17 12:17","tags":["story","Hacker News"],"image":null,"imageAlt":null,"provider":"Hacker News","thirdPartyId":"25453540","url":"https://news.ycombinator.com/item?id=25453540","originalUrl":"https://daringfireball.net/linked/2020/12/16/facebook-full-page-ad","imageRemote":"https://daringfireball.net/graphics/df-square-1024.png","video":null,"channel":null,"channelUrl":null,"author":"laktak","authorUrl":"https://news.ycombinator.com/user?id=laktak","authorImage":null,"authorSlug":null,"score":325,"views":null,"sharedCount":null,"likeCount":null,"sharedContent":null,"parent":{"__typename":"HnJson","localize":[{"title":"Facebook拿出报纸广告攻击苹果强化iOS隐私","locale":"zh"},{"title":"Facebook拿出報紙廣告攻擊蘋果強化iOS隱私","locale":"zh-Hant"}]}}]}},"pageContext":{"basePath":"/","pageType":"tag","tag":"Hacker News","tagsFilter":{"id":{"glob":"!*Post-1"}},"filter":{"id":{"glob":"!*Post-1"},"tags":{"eq":"Hacker News"}},"limit":25,"skip":800,"total":801,"totalPages":33,"currentPage":33,"maxWidth":1024,"maxHeight":512,"locale":"zh","hrefLang":"zh-Hans","originalPath":"/tags/hacker-news/page/33","dateFormat":"YYYY-MM-DD"}},"staticQueryHashes":["1239077767","2506312863","2744905544","3493603132","3493603132","3513215887","386998304"]}