{"componentChunkName":"component---gatsby-theme-buzzing-src-gatsby-theme-timeline-templates-posts-query-js","path":"/tags/hacker-news/page/12","result":{"data":{"site":{"siteMetadata":{"title":"Reddit 热门","description":"用中文浏览Reddit热门内容","social":[{"name":"Twitter","url":"https://twitter.com/gatsbyjs","external":null,"prefetch":null},{"name":"GitHub","url":"https://github.com/gatsbyjs","external":null,"prefetch":null}],"menuLinks":[],"localize":[{"locale":"en","title":"Buzzing on Reddit","description":"See what's buzzing on Reddit in your native language","social":[{"name":"Reddit","url":"https://www.reddit.com/","external":true,"prefetch":null}],"menuLinks":[{"name":"Weekly Selection","url":"/issues","external":null,"prefetch":null},{"name":"RSS","url":"/rss.xml","external":null,"prefetch":false}]},{"locale":"zh-Hant","title":"Reddit 熱門","description":"用中文瀏覽Reddit熱門內容","social":null,"menuLinks":null}]}},"tagsGroup":{"group":[{"fieldValue":"ASK HN","totalCount":54},{"fieldValue":"Hacker News","totalCount":3107},{"fieldValue":"Poll","totalCount":1},{"fieldValue":"Show HN","totalCount":100},{"fieldValue":"poll","totalCount":1},{"fieldValue":"story","totalCount":3106}]},"allBlogPost":{"nodes":[{"__typename":"SocialMediaPost","id":"HnPost-26597293","excerpt":"","slug":"/hn/26597293","title":"In Stockholm there's currently an IT battle underway","date":"March 27, 2021","dateISO":"2021-03-27T02:16:41.823Z","datetime":"2021-03-27 02:16","tags":["story","Hacker News"],"image":null,"imageAlt":null,"provider":"Hacker News","thirdPartyId":"26597293","url":"https://news.ycombinator.com/item?id=26597293","originalUrl":"https://twitter.com/spongepaddy/status/1375206110412570638","imageRemote":null,"video":null,"channel":null,"channelUrl":null,"author":"div3rs3","authorUrl":"https://news.ycombinator.com/user?id=div3rs3","authorImage":null,"authorSlug":null,"score":564,"views":null,"sharedCount":null,"likeCount":null,"sharedContent":null,"parent":{"__typename":"HnJson","localize":[{"title":"在斯德哥尔摩，目前正在进行一场IT大战","locale":"zh"},{"title":"在斯德哥爾摩，目前正在進行一場IT大戰","locale":"zh-Hant"}]}},{"__typename":"SocialMediaPost","id":"HnPost-26594242","excerpt":"","slug":"/hn/26594242","title":"Ask HN: Cheapest/easiest way to host a static site?","date":"March 26, 2021","dateISO":"2021-03-26T23:48:39.591Z","datetime":"2021-03-26 23:48","tags":["story","ASK HN","Hacker News"],"image":null,"imageAlt":null,"provider":"Hacker News","thirdPartyId":"26594242","url":"https://news.ycombinator.com/item?id=26594242","originalUrl":"https://news.ycombinator.com/item?id=26594242","imageRemote":null,"video":null,"channel":"ASK HN","channelUrl":"https://news.ycombinator.com/ask","author":"offtop5","authorUrl":"https://news.ycombinator.com/user?id=offtop5","authorImage":null,"authorSlug":null,"score":443,"views":null,"sharedCount":null,"likeCount":null,"sharedContent":null,"parent":{"__typename":"HnJson","localize":[{"title":"问HN：最便宜/最简单的静态网站托管方式？","locale":"zh"},{"title":"問HN：最便宜/最簡單的靜態網站託管方式？","locale":"zh-Hant"}]}},{"__typename":"SocialMediaPost","id":"HnPost-26596316","excerpt":"","slug":"/hn/26596316","title":"Why I’m a sucker for pen and paper","date":"March 26, 2021","dateISO":"2021-03-26T23:27:31.033Z","datetime":"2021-03-26 23:27","tags":["story","Hacker News"],"image":null,"imageAlt":null,"provider":"Hacker News","thirdPartyId":"26596316","url":"https://news.ycombinator.com/item?id=26596316","originalUrl":"https://productivegrowth.substack.com/p/why-im-a-sucker-for-pen-and-paper","imageRemote":"https://cdn.substack.com/image/fetch/w_1200,c_limit,f_jpg,q_auto:good,fl_progressive:steep/https%3A%2F%2Fbucketeer-e05bbc84-baa3-437e-9518-adb32be77984.s3.amazonaws.com%2Fpublic%2Fimages%2Fc760b014-3d0d-4129-8029-3d9f742b3ef5_1400x600.jpeg","video":null,"channel":null,"channelUrl":null,"author":"pgcm1","authorUrl":"https://news.ycombinator.com/user?id=pgcm1","authorImage":null,"authorSlug":null,"score":242,"views":null,"sharedCount":null,"likeCount":null,"sharedContent":null,"parent":{"__typename":"HnJson","localize":[{"title":"为什么我喜欢纸笔？","locale":"zh"},{"title":"爲什麼我喜歡紙筆？","locale":"zh-Hant"}]}},{"__typename":"SocialMediaPost","id":"HnPost-26593274","excerpt":"","slug":"/hn/26593274","title":"Fairphone suggests Qualcomm is the biggest barrier to long-term Android support","date":"March 26, 2021","dateISO":"2021-03-26T22:32:47.557Z","datetime":"2021-03-26 22:32","tags":["story","Hacker News"],"image":null,"imageAlt":null,"provider":"Hacker News","thirdPartyId":"26593274","url":"https://news.ycombinator.com/item?id=26593274","originalUrl":"https://arstechnica.com/gadgets/2021/03/the-fairphone-2-hits-five-years-of-updates-with-some-help-from-lineageos/","imageRemote":"https://cdn.arstechnica.net/wp-content/uploads/2021/03/11-2-760x380.jpg","video":null,"channel":null,"channelUrl":null,"author":"thg","authorUrl":"https://news.ycombinator.com/user?id=thg","authorImage":null,"authorSlug":null,"score":417,"views":null,"sharedCount":null,"likeCount":null,"sharedContent":null,"parent":{"__typename":"HnJson","localize":[{"title":"Fairphone表示高通是长期支持Android的最大障碍","locale":"zh"},{"title":"Fairphone表示高通是長期支持Android的最大障礙","locale":"zh-Hant"}]}},{"__typename":"SocialMediaPost","id":"HnPost-26595790","excerpt":"","slug":"/hn/26595790","title":"Annie of Annie's Mac and Cheese","date":"March 26, 2021","dateISO":"2021-03-26T21:42:19.306Z","datetime":"2021-03-26 21:42","tags":["story","Hacker News"],"image":null,"imageAlt":null,"provider":"Hacker News","thirdPartyId":"26595790","url":"https://news.ycombinator.com/item?id=26595790","originalUrl":"https://www.sfgate.com/food/article/Annie-s-Mac-and-Cheese-is-based-in-Bay-Area-but-16049782.php","imageRemote":"https://s.hdnux.com/photos/01/17/23/22/20788383/3/rawImage.jpg","video":null,"channel":null,"channelUrl":null,"author":"andygcook","authorUrl":"https://news.ycombinator.com/user?id=andygcook","authorImage":null,"authorSlug":null,"score":280,"views":null,"sharedCount":null,"likeCount":null,"sharedContent":null,"parent":{"__typename":"HnJson","localize":[{"title":"Annie's Mac and Cheese的Annie","locale":"zh"},{"title":"Annie's Mac and Cheese的Annie","locale":"zh-Hant"}]}},{"__typename":"SocialMediaPost","id":"HnPost-26587469","excerpt":"","slug":"/hn/26587469","title":"Can My Water Cooled Raspberry Pi Cluster Beat My MacBook?","date":"March 26, 2021","dateISO":"2021-03-26T21:25:15.995Z","datetime":"2021-03-26 21:25","tags":["story","Hacker News"],"image":null,"imageAlt":null,"provider":"Hacker News","thirdPartyId":"26587469","url":"https://news.ycombinator.com/item?id=26587469","originalUrl":"https://www.the-diy-life.com/can-my-water-cooled-raspberry-pi-cluster-beat-my-macbook/","imageRemote":"https://www.the-diy-life.com/wp-content/uploads/2021/02/Can-My-Water-Cooled-Pi-Cluster-Beat-My-MacBook.jpg","video":null,"channel":null,"channelUrl":null,"author":"gilad","authorUrl":"https://news.ycombinator.com/user?id=gilad","authorImage":null,"authorSlug":null,"score":149,"views":null,"sharedCount":null,"likeCount":null,"sharedContent":null,"parent":{"__typename":"HnJson","localize":[{"title":"我的水冷树莓派集群能打败我的MacBook吗？","locale":"zh"},{"title":"我的水冷樹莓派集羣能打敗我的MacBook嗎？","locale":"zh-Hant"}]}},{"__typename":"SocialMediaPost","id":"HnPost-26590715","excerpt":"","slug":"/hn/26590715","title":"Pockit Modular computing demo [video]","date":"March 26, 2021","dateISO":"2021-03-26T19:44:26.906Z","datetime":"2021-03-26 19:44","tags":["story","Hacker News"],"image":null,"imageAlt":null,"provider":"Hacker News","thirdPartyId":"26590715","url":"https://news.ycombinator.com/item?id=26590715","originalUrl":"https://www.reddit.com/r/homeassistant/comments/mcyoe9/a_project_that_ive_been_workin_on_im_curious_what/","imageRemote":"https://external-preview.redd.it/Lb52ADGL06sxeto7fF0gaH2sRvJg_W_THK_Q0oY3Jz8.png?format=pjpg&auto=webp&s=aa5cd7b0fb37d25f3fc2275919096e5c6bcd1f17","video":null,"channel":null,"channelUrl":null,"author":"Aissen","authorUrl":"https://news.ycombinator.com/user?id=Aissen","authorImage":null,"authorSlug":null,"score":218,"views":null,"sharedCount":null,"likeCount":null,"sharedContent":null,"parent":{"__typename":"HnJson","localize":[{"title":"Pockit模块化计算演示[视频]","locale":"zh"},{"title":"Pockit模塊化計算演示[視頻]","locale":"zh-Hant"}]}},{"__typename":"SocialMediaPost","id":"HnPost-26594172","excerpt":"","slug":"/hn/26594172","title":"Common Crawl","date":"March 26, 2021","dateISO":"2021-03-26T19:31:20.965Z","datetime":"2021-03-26 19:31","tags":["story","Hacker News"],"image":null,"imageAlt":null,"provider":"Hacker News","thirdPartyId":"26594172","url":"https://news.ycombinator.com/item?id=26594172","originalUrl":"https://commoncrawl.org/","imageRemote":"https://commoncrawl.org/wp-content/themes/commoncrawl/img/downarrow.png","video":null,"channel":null,"channelUrl":null,"author":"Aissen","authorUrl":"https://news.ycombinator.com/user?id=Aissen","authorImage":null,"authorSlug":null,"score":397,"views":null,"sharedCount":null,"likeCount":null,"sharedContent":null,"parent":{"__typename":"HnJson","localize":[{"title":"普通爬行","locale":"zh"},{"title":"普通爬行","locale":"zh-Hant"}]}},{"__typename":"SocialMediaPost","id":"HnPost-26594870","excerpt":"","slug":"/hn/26594870","title":"U.S. rent has increased 175% faster than household income over past 20 years","date":"March 26, 2021","dateISO":"2021-03-26T19:31:20.965Z","datetime":"2021-03-26 19:31","tags":["story","Hacker News"],"image":null,"imageAlt":null,"provider":"Hacker News","thirdPartyId":"26594870","url":"https://news.ycombinator.com/item?id=26594870","originalUrl":"https://phys.org/news/2021-03-rent-faster-household-income-years.html","imageRemote":"https://scx2.b-cdn.net/gfx/news/hires/2020/1-city.jpg","video":null,"channel":null,"channelUrl":null,"author":"finphil","authorUrl":"https://news.ycombinator.com/user?id=finphil","authorImage":null,"authorSlug":null,"score":454,"views":null,"sharedCount":null,"likeCount":null,"sharedContent":null,"parent":{"__typename":"HnJson","localize":[{"title":"过去20年，美国房租增长速度比家庭收入快175%。","locale":"zh"},{"title":"過去20年，美國房租增長速度比家庭收入快175%。","locale":"zh-Hant"}]}},{"__typename":"SocialMediaPost","id":"HnPost-26590234","excerpt":"","slug":"/hn/26590234","title":"How to implement a hash table in C","date":"March 26, 2021","dateISO":"2021-03-26T17:51:57.574Z","datetime":"2021-03-26 17:51","tags":["story","Hacker News"],"image":null,"imageAlt":null,"provider":"Hacker News","thirdPartyId":"26590234","url":"https://news.ycombinator.com/item?id=26590234","originalUrl":"https://benhoyt.com/writings/hash-table-in-c/","imageRemote":null,"video":null,"channel":null,"channelUrl":null,"author":"benhoyt","authorUrl":"https://news.ycombinator.com/user?id=benhoyt","authorImage":null,"authorSlug":null,"score":300,"views":null,"sharedCount":null,"likeCount":null,"sharedContent":null,"parent":{"__typename":"HnJson","localize":[{"title":"如何在C语言中实现哈希表","locale":"zh"},{"title":"如何在C語言中實現哈希表","locale":"zh-Hant"}]}},{"__typename":"SocialMediaPost","id":"HnPost-26590990","excerpt":"","slug":"/hn/26590990","title":"An ancient method that keeps Afghanistan's grapes fresh all winter","date":"March 26, 2021","dateISO":"2021-03-26T17:51:57.574Z","datetime":"2021-03-26 17:51","tags":["story","Hacker News"],"image":null,"imageAlt":null,"provider":"Hacker News","thirdPartyId":"26590990","url":"https://news.ycombinator.com/item?id=26590990","originalUrl":"https://www.atlasobscura.com/articles/how-did-people-store-fruit-before-fridges","imageRemote":"https://assets.atlasobscura.com/media/W1siZiIsInVwbG9hZHMvYXNzZXRzL2ZiOTBhNmUxMmVmYjk1ZjFhZl9fQU9fQWZnaGFuaXN0YW4gZ3JhcGUgcHJlc2VydmF0aW9uIGthbmdpbmFfU0dsaW5za2kxOS5qcGciXSxbInAiLCJjb252ZXJ0IiwiIl0sWyJwIiwiY29udmVydCIsIi1xdWFsaXR5IDgxIC1hdXRvLW9yaWVudCJdLFsicCIsInRodW1iIiwiNjAweD4iXV0/_AO_Afghanistan%20grape%20preservation%20kangina_SGlinski19.jpg","video":null,"channel":null,"channelUrl":null,"author":"CapitalistCartr","authorUrl":"https://news.ycombinator.com/user?id=CapitalistCartr","authorImage":null,"authorSlug":null,"score":295,"views":null,"sharedCount":null,"likeCount":null,"sharedContent":null,"parent":{"__typename":"HnJson","localize":[{"title":"一种古老的方法让阿富汗的葡萄整个冬天都保持新鲜。","locale":"zh"},{"title":"一種古老的方法讓阿富汗的葡萄整個冬天都保持新鮮。","locale":"zh-Hant"}]}},{"__typename":"SocialMediaPost","id":"HnPost-26576151","excerpt":"","slug":"/hn/26576151","title":"RoadPony is a new way to support musicians by crowdsourcing concerts","date":"March 26, 2021","dateISO":"2021-03-26T17:05:14.429Z","datetime":"2021-03-26 17:05","tags":["story","Hacker News"],"image":null,"imageAlt":null,"provider":"Hacker News","thirdPartyId":"26576151","url":"https://news.ycombinator.com/item?id=26576151","originalUrl":"http://www.roadpony.com","imageRemote":"https://roadpony-aws-bucket.s3.us-east-2.amazonaws.com/static/images/assets/rp-og.png","video":null,"channel":null,"channelUrl":null,"author":"corkinn","authorUrl":"https://news.ycombinator.com/user?id=corkinn","authorImage":null,"authorSlug":null,"score":142,"views":null,"sharedCount":null,"likeCount":null,"sharedContent":null,"parent":{"__typename":"HnJson","localize":[{"title":"RoadPony是一种通过众包音乐会来支持音乐人的新方式。","locale":"zh"},{"title":"RoadPony是一種通過衆包音樂會來支持音樂人的新方式。","locale":"zh-Hant"}]}},{"__typename":"SocialMediaPost","id":"HnPost-26592635","excerpt":"","slug":"/hn/26592635","title":"Only Google is really allowed to crawl the web","date":"March 26, 2021","dateISO":"2021-03-26T17:05:14.429Z","datetime":"2021-03-26 17:05","tags":["story","Hacker News"],"image":null,"imageAlt":null,"provider":"Hacker News","thirdPartyId":"26592635","url":"https://news.ycombinator.com/item?id=26592635","originalUrl":"https://knuckleheads.club/","imageRemote":"https://knuckleheads.club/wp-content/uploads/2020/12/Screen-Shot-2020-12-19-at-7.46.33-AM.png","video":null,"channel":null,"channelUrl":null,"author":"skinkestek","authorUrl":"https://news.ycombinator.com/user?id=skinkestek","authorImage":null,"authorSlug":null,"score":955,"views":null,"sharedCount":null,"likeCount":null,"sharedContent":null,"parent":{"__typename":"HnJson","localize":[{"title":"只有谷歌才真正被允许抓取网络。","locale":"zh"},{"title":"只有谷歌才真正被允許抓取網絡。","locale":"zh-Hant"}]}},{"__typename":"SocialMediaPost","id":"HnPost-26591669","excerpt":"","slug":"/hn/26591669","title":"Apt Encounters of the Third Kind","date":"March 26, 2021","dateISO":"2021-03-26T16:09:07.543Z","datetime":"2021-03-26 16:09","tags":["story","Hacker News"],"image":null,"imageAlt":null,"provider":"Hacker News","thirdPartyId":"26591669","url":"https://news.ycombinator.com/item?id=26591669","originalUrl":"https://igor-blue.github.io/2021/03/24/apt1.html","imageRemote":"https://igor-blue.github.io/images/im10_network.png","video":null,"channel":null,"channelUrl":null,"author":"lormayna","authorUrl":"https://news.ycombinator.com/user?id=lormayna","authorImage":null,"authorSlug":null,"score":696,"views":null,"sharedCount":null,"likeCount":null,"sharedContent":null,"parent":{"__typename":"HnJson","localize":[{"title":"恰如其分的第三种相遇","locale":"zh"},{"title":"恰如其分的第三種相遇","locale":"zh-Hant"}]}},{"__typename":"SocialMediaPost","id":"HnPost-26591966","excerpt":"","slug":"/hn/26591966","title":"Factorio Is the Best Technical Interview We Have","date":"March 26, 2021","dateISO":"2021-03-26T16:09:07.543Z","datetime":"2021-03-26 16:09","tags":["story","Hacker News"],"image":null,"imageAlt":null,"provider":"Hacker News","thirdPartyId":"26591966","url":"https://news.ycombinator.com/item?id=26591966","originalUrl":"https://erikmcclure.com/blog/factorio-is-best-interview-we-have/","imageRemote":"https://erikmcclure.com/img/avatar.png","video":null,"channel":null,"channelUrl":null,"author":"blackhole","authorUrl":"https://news.ycombinator.com/user?id=blackhole","authorImage":null,"authorSlug":null,"score":411,"views":null,"sharedCount":null,"likeCount":null,"sharedContent":null,"parent":{"__typename":"HnJson","localize":[{"title":"Factorio是我们最好的技术面试。","locale":"zh"},{"title":"Factorio是我們最好的技術面試。","locale":"zh-Hant"}]}},{"__typename":"SocialMediaPost","id":"HnPost-26591777","excerpt":"","slug":"/hn/26591777","title":"Employees are happier when led by people with deep expertise (2016)","date":"March 26, 2021","dateISO":"2021-03-26T15:52:08.327Z","datetime":"2021-03-26 15:52","tags":["story","Hacker News"],"image":null,"imageAlt":null,"provider":"Hacker News","thirdPartyId":"26591777","url":"https://news.ycombinator.com/item?id=26591777","originalUrl":"https://hbr.org/2016/12/if-your-boss-could-do-your-job-youre-more-likely-to-be-happy-at-work","imageRemote":"https://hbr.org/resources/images/article_assets/2016/12/dec16-31-123395946.jpg","video":null,"channel":null,"channelUrl":null,"author":"mgh2","authorUrl":"https://news.ycombinator.com/user?id=mgh2","authorImage":null,"authorSlug":null,"score":690,"views":null,"sharedCount":null,"likeCount":null,"sharedContent":null,"parent":{"__typename":"HnJson","localize":[{"title":"由具有深厚专业知识的人领导，员工会更快乐(2016)","locale":"zh"},{"title":"由具有深厚專業知識的人領導，員工會更快樂(2016)","locale":"zh-Hant"}]}},{"__typename":"SocialMediaPost","id":"HnPost-26591570","excerpt":"","slug":"/hn/26591570","title":"Renewables met 97% of Scotland's electricity demand in 2020","date":"March 26, 2021","dateISO":"2021-03-26T14:53:06.978Z","datetime":"2021-03-26 14:53","tags":["story","Hacker News"],"image":null,"imageAlt":null,"provider":"Hacker News","thirdPartyId":"26591570","url":"https://news.ycombinator.com/item?id=26591570","originalUrl":"https://www.bbc.com/news/uk-scotland-56530424","imageRemote":"https://ichef.bbci.co.uk/news/1024/branded_news/2C43/production/_117713311_gettyimages-976801174.jpg","video":null,"channel":null,"channelUrl":null,"author":"doener","authorUrl":"https://news.ycombinator.com/user?id=doener","authorImage":null,"authorSlug":null,"score":238,"views":null,"sharedCount":null,"likeCount":null,"sharedContent":null,"parent":{"__typename":"HnJson","localize":[{"title":"2020年，可再生能源满足苏格兰97%的电力需求。","locale":"zh"},{"title":"2020年，可再生能源滿足蘇格蘭97%的電力需求。","locale":"zh-Hant"}]}},{"__typename":"SocialMediaPost","id":"HnPost-26590862","excerpt":"","slug":"/hn/26590862","title":"Google’s top security teams unilaterally shut down a counterterrorism operation","date":"March 26, 2021","dateISO":"2021-03-26T13:57:58.032Z","datetime":"2021-03-26 13:57","tags":["story","Hacker News"],"image":null,"imageAlt":null,"provider":"Hacker News","thirdPartyId":"26590862","url":"https://news.ycombinator.com/item?id=26590862","originalUrl":"https://www.technologyreview.com/2021/03/26/1021318/google-security-shut-down-counter-terrorist-us-ally/","imageRemote":"https://wp.technologyreview.com/wp-content/uploads/2021/03/pawel-czerwinski-fpZZEV0uQwA-unsplash-e1616620346992.jpg?resize=1200,600","video":null,"channel":null,"channelUrl":null,"author":"Reventlov","authorUrl":"https://news.ycombinator.com/user?id=Reventlov","authorImage":null,"authorSlug":null,"score":362,"views":null,"sharedCount":null,"likeCount":null,"sharedContent":null,"parent":{"__typename":"HnJson","localize":[{"title":"谷歌最高安全团队单方面关闭了一次反恐行动。","locale":"zh"},{"title":"谷歌最高安全團隊單方面關閉了一次反恐行動。","locale":"zh-Hant"}]}},{"__typename":"SocialMediaPost","id":"HnPost-26589163","excerpt":"","slug":"/hn/26589163","title":"I Like That the Boat Is Stuck","date":"March 26, 2021","dateISO":"2021-03-26T13:50:58.384Z","datetime":"2021-03-26 13:50","tags":["story","Hacker News"],"image":null,"imageAlt":null,"provider":"Hacker News","thirdPartyId":"26589163","url":"https://news.ycombinator.com/item?id=26589163","originalUrl":"https://stone-soup.ghost.io/archive/i-like-that-the-boat-is-stuck/","imageRemote":"https://stone-soup.ghost.io/content/images/2021/03/stuck.jpg","video":null,"channel":null,"channelUrl":null,"author":"danbolt","authorUrl":"https://news.ycombinator.com/user?id=danbolt","authorImage":null,"authorSlug":null,"score":450,"views":null,"sharedCount":null,"likeCount":null,"sharedContent":null,"parent":{"__typename":"HnJson","localize":[{"title":"我喜欢船被卡住的感觉","locale":"zh"},{"title":"我喜歡船被卡住的感覺","locale":"zh-Hant"}]}},{"__typename":"SocialMediaPost","id":"HnPost-26587637","excerpt":"","slug":"/hn/26587637","title":"Open source Heroku Like Platform on premises","date":"March 26, 2021","dateISO":"2021-03-26T12:29:17.730Z","datetime":"2021-03-26 12:29","tags":["story","Hacker News"],"image":null,"imageAlt":null,"provider":"Hacker News","thirdPartyId":"26587637","url":"https://news.ycombinator.com/item?id=26587637","originalUrl":"https://github.com/porter-dev/porter","imageRemote":"https://avatars.githubusercontent.com/u/62078005?s=400&v=4","video":null,"channel":null,"channelUrl":null,"author":"markomunich","authorUrl":"https://news.ycombinator.com/user?id=markomunich","authorImage":null,"authorSlug":null,"score":231,"views":null,"sharedCount":null,"likeCount":null,"sharedContent":null,"parent":{"__typename":"HnJson","localize":[{"title":"开源Heroku样板房平台","locale":"zh"},{"title":"開源Heroku樣板房平臺","locale":"zh-Hant"}]}},{"__typename":"SocialMediaPost","id":"HnPost-26587209","excerpt":"","slug":"/hn/26587209","title":"Egg: E-Graphs Good","date":"March 26, 2021","dateISO":"2021-03-26T11:25:53.311Z","datetime":"2021-03-26 11:25","tags":["story","Hacker News"],"image":null,"imageAlt":null,"provider":"Hacker News","thirdPartyId":"26587209","url":"https://news.ycombinator.com/item?id=26587209","originalUrl":"https://egraphs-good.github.io/","imageRemote":"https://egraphs-good.github.io/egg.svg","video":null,"channel":null,"channelUrl":null,"author":"alex_hirner","authorUrl":"https://news.ycombinator.com/user?id=alex_hirner","authorImage":null,"authorSlug":null,"score":172,"views":null,"sharedCount":null,"likeCount":null,"sharedContent":null,"parent":{"__typename":"HnJson","localize":[{"title":"鸡蛋：电子图谱好","locale":"zh"},{"title":"雞蛋：電子圖譜好","locale":"zh-Hant"}]}},{"__typename":"SocialMediaPost","id":"HnPost-26574008","excerpt":"","slug":"/hn/26574008","title":"Emoji Under the Hood","date":"March 26, 2021","dateISO":"2021-03-26T09:53:24.866Z","datetime":"2021-03-26 09:53","tags":["story","Hacker News"],"image":null,"imageAlt":null,"provider":"Hacker News","thirdPartyId":"26574008","url":"https://news.ycombinator.com/item?id=26574008","originalUrl":"https://tonsky.me/blog/emoji/","imageRemote":"https://tonsky.me/blog/emoji/duck.png","video":null,"channel":null,"channelUrl":null,"author":"kogir","authorUrl":"https://news.ycombinator.com/user?id=kogir","authorImage":null,"authorSlug":null,"score":428,"views":null,"sharedCount":null,"likeCount":null,"sharedContent":null,"parent":{"__typename":"HnJson","localize":[{"title":"面具下的表情符号","locale":"zh"},{"title":"面具下的表情符號","locale":"zh-Hant"}]}},{"__typename":"SocialMediaPost","id":"HnPost-26582119","excerpt":"","slug":"/hn/26582119","title":"1993: CGI Scripts and Early Server-Side Web Programming","date":"March 26, 2021","dateISO":"2021-03-26T09:53:24.866Z","datetime":"2021-03-26 09:53","tags":["story","Hacker News"],"image":null,"imageAlt":null,"provider":"Hacker News","thirdPartyId":"26582119","url":"https://news.ycombinator.com/item?id=26582119","originalUrl":"https://webdevelopmenthistory.com/1993-cgi-scripts-and-early-server-side-web-programming/","imageRemote":"https://webdevelopmenthistory.com/wp-content/uploads/2021/03/1993_cgi_mosaic.jpg","video":null,"channel":null,"channelUrl":null,"author":"tmfi","authorUrl":"https://news.ycombinator.com/user?id=tmfi","authorImage":null,"authorSlug":null,"score":146,"views":null,"sharedCount":null,"likeCount":null,"sharedContent":null,"parent":{"__typename":"HnJson","localize":[{"title":"1993: CGI脚本和早期的服务器端网络编程。","locale":"zh"},{"title":"1993: CGI腳本和早期的服務器端網絡編程。","locale":"zh-Hant"}]}},{"__typename":"SocialMediaPost","id":"HnPost-26576472","excerpt":"","slug":"/hn/26576472","title":"Self-compassion is not self-indulgence","date":"March 26, 2021","dateISO":"2021-03-26T09:31:04.229Z","datetime":"2021-03-26 09:31","tags":["story","Hacker News"],"image":null,"imageAlt":null,"provider":"Hacker News","thirdPartyId":"26576472","url":"https://news.ycombinator.com/item?id=26576472","originalUrl":"https://psyche.co/ideas/self-compassion-is-not-self-indulgence-heres-how-to-try-it","imageRemote":"https://alpha.psyche.co/images/3faf14cf-7904-442c-a003-7971c19b0c94/2700x1530.jpg","video":null,"channel":null,"channelUrl":null,"author":"nreece","authorUrl":"https://news.ycombinator.com/user?id=nreece","authorImage":null,"authorSlug":null,"score":156,"views":null,"sharedCount":null,"likeCount":null,"sharedContent":null,"parent":{"__typename":"HnJson","localize":[{"title":"自怜不是自暴自弃","locale":"zh"},{"title":"自憐不是自暴自棄","locale":"zh-Hant"}]}},{"__typename":"SocialMediaPost","id":"HnPost-26586829","excerpt":"","slug":"/hn/26586829","title":"Why OO Sucks by Joe Armstrong (2000)","date":"March 26, 2021","dateISO":"2021-03-26T09:31:04.229Z","datetime":"2021-03-26 09:31","tags":["story","Hacker News"],"image":null,"imageAlt":null,"provider":"Hacker News","thirdPartyId":"26586829","url":"https://news.ycombinator.com/item?id=26586829","originalUrl":"http://harmful.cat-v.org/software/OO_programming/why_oo_sucks","imageRemote":null,"video":null,"channel":null,"channelUrl":null,"author":"crazypython","authorUrl":"https://news.ycombinator.com/user?id=crazypython","authorImage":null,"authorSlug":null,"score":207,"views":null,"sharedCount":null,"likeCount":null,"sharedContent":null,"parent":{"__typename":"HnJson","localize":[{"title":"乔-阿姆斯特朗的《为什么OO很烂》（2000）。","locale":"zh"},{"title":"喬-阿姆斯特朗的《爲什麼OO很爛》（2000）。","locale":"zh-Hant"}]}}]}},"pageContext":{"basePath":"/","pageType":"tag","tag":"Hacker News","tagsFilter":{"id":{"glob":"!*Post-1"}},"filter":{"id":{"glob":"!*Post-1"},"tags":{"eq":"Hacker News"}},"limit":25,"skip":275,"total":3107,"totalPages":125,"currentPage":12,"maxWidth":1024,"maxHeight":512,"locale":"zh","hrefLang":"zh-Hans","originalPath":"/tags/hacker-news/page/12","dateFormat":"YYYY-MM-DD"}},"staticQueryHashes":["1239077767","2506312863","2744905544","3025052997","3493603132","3493603132","3513215887","386998304"]}