{"componentChunkName":"component---gatsby-theme-buzzing-src-gatsby-theme-timeline-templates-posts-query-js","path":"/tags/story/page/18","result":{"data":{"site":{"siteMetadata":{"title":"Reddit 热门","description":"用中文浏览Reddit热门内容","social":[{"name":"Twitter","url":"https://twitter.com/gatsbyjs","external":null,"prefetch":null},{"name":"GitHub","url":"https://github.com/gatsbyjs","external":null,"prefetch":null}],"menuLinks":[],"localize":[{"locale":"en","title":"Buzzing on Reddit","description":"See what's buzzing on Reddit in your native language","social":[{"name":"Reddit","url":"https://www.reddit.com/","external":true,"prefetch":null}],"menuLinks":[{"name":"Weekly Selection","url":"/issues","external":null,"prefetch":null},{"name":"RSS","url":"/rss.xml","external":null,"prefetch":false}]},{"locale":"zh-Hant","title":"Reddit 熱門","description":"用中文瀏覽Reddit熱門內容","social":null,"menuLinks":null}]}},"tagsGroup":{"group":[{"fieldValue":"ASK HN","totalCount":44},{"fieldValue":"Bitcoin","totalCount":4},{"fieldValue":"Hacker News","totalCount":2600},{"fieldValue":"Poll","totalCount":1},{"fieldValue":"SaveAMC","totalCount":1},{"fieldValue":"Show HN","totalCount":89},{"fieldValue":"bitcoin","totalCount":3},{"fieldValue":"investing","totalCount":797},{"fieldValue":"poll","totalCount":1},{"fieldValue":"reddit","totalCount":4938},{"fieldValue":"science","totalCount":1},{"fieldValue":"stocks","totalCount":1592},{"fieldValue":"story","totalCount":2599},{"fieldValue":"tweet","totalCount":814},{"fieldValue":"wallstreetbets","totalCount":2549}]},"allBlogPost":{"nodes":[{"__typename":"SocialMediaPost","id":"HnPost-26302344","excerpt":"","slug":"/hn/26302344","title":"Giving Ada a Chance","date":"March 03, 2021","dateISO":"2021-03-03T06:49:26.021Z","datetime":"2021-03-03 06:49","tags":["story","Hacker News"],"image":null,"imageAlt":null,"provider":"Hacker News","thirdPartyId":"26302344","url":"https://news.ycombinator.com/item?id=26302344","originalUrl":"https://ajxs.me/blog/Giving_Ada_a_chance.html","imageRemote":null,"video":null,"channel":null,"channelUrl":null,"author":"jayp1418","authorUrl":"https://news.ycombinator.com/user?id=jayp1418","authorImage":null,"authorSlug":null,"score":176,"views":null,"sharedCount":null,"likeCount":null,"sharedContent":null,"parent":{"__typename":"HnJson","localize":[{"title":"给Ada一个机会","locale":"zh"},{"title":"給Ada一個機會","locale":"zh-Hant"}]}},{"__typename":"SocialMediaPost","id":"HnPost-26323600","excerpt":"","slug":"/hn/26323600","title":"Deno v1.8 – support for WebGPU, private modules, Intl, and much more","date":"March 03, 2021","dateISO":"2021-03-03T04:39:36.842Z","datetime":"2021-03-03 04:39","tags":["story","Hacker News"],"image":null,"imageAlt":null,"provider":"Hacker News","thirdPartyId":"26323600","url":"https://news.ycombinator.com/item?id=26323600","originalUrl":"https://deno.land/posts/v1.8#new-features-and-changes","imageRemote":null,"video":null,"channel":null,"channelUrl":null,"author":"searchableguy","authorUrl":"https://news.ycombinator.com/user?id=searchableguy","authorImage":null,"authorSlug":null,"score":357,"views":null,"sharedCount":null,"likeCount":null,"sharedContent":null,"parent":{"__typename":"HnJson","localize":[{"title":"Deno v1.8 - 支持WebGPU、私有模块、IntlL等。","locale":"zh"},{"title":"Deno v1.8 - 支持WebGPU、私有模塊、IntlL等。","locale":"zh-Hant"}]}},{"__typename":"SocialMediaPost","id":"HnPost-26323852","excerpt":"","slug":"/hn/26323852","title":"NASA's Perseverance rover sends stunning images","date":"March 03, 2021","dateISO":"2021-03-03T04:25:10.539Z","datetime":"2021-03-03 04:25","tags":["story","Hacker News"],"image":null,"imageAlt":null,"provider":"Hacker News","thirdPartyId":"26323852","url":"https://news.ycombinator.com/item?id=26323852","originalUrl":"https://www.bbc.com/news/in-pictures-56238018","imageRemote":"https://ichef.bbci.co.uk/news/1024/branded_news/8BE7/production/_117351853_2380a7d2-be79-4dc0-b269-9f8d3fe67b60.jpg","video":null,"channel":null,"channelUrl":null,"author":"astdb","authorUrl":"https://news.ycombinator.com/user?id=astdb","authorImage":null,"authorSlug":null,"score":1008,"views":null,"sharedCount":null,"likeCount":null,"sharedContent":null,"parent":{"__typename":"HnJson","localize":[{"title":"美国宇航局的 \"锲而不舍 \"号探测器发出惊人的图像","locale":"zh"},{"title":"美國宇航局的 \"鍥而不捨 \"號探測器發出驚人的圖像","locale":"zh-Hant"}]}},{"__typename":"SocialMediaPost","id":"HnPost-26320532","excerpt":"","slug":"/hn/26320532","title":"Watchy: Hackable $50 Smartwatch","date":"March 03, 2021","dateISO":"2021-03-03T03:22:43.365Z","datetime":"2021-03-03 03:22","tags":["story","Hacker News"],"image":null,"imageAlt":null,"provider":"Hacker News","thirdPartyId":"26320532","url":"https://news.ycombinator.com/item?id=26320532","originalUrl":"https://spectrum.ieee.org/geek-life/hands-on/watchy-the-hackable-50-smartwatch","imageRemote":null,"video":null,"channel":null,"channelUrl":null,"author":"ystad","authorUrl":"https://news.ycombinator.com/user?id=ystad","authorImage":null,"authorSlug":null,"score":297,"views":null,"sharedCount":null,"likeCount":null,"sharedContent":null,"parent":{"__typename":"HnJson","localize":[{"title":"Watchy: 可破解的50美元智能手表","locale":"zh"},{"title":"Watchy: 可破解的50美元智能手錶","locale":"zh-Hant"}]}},{"__typename":"SocialMediaPost","id":"HnPost-26314756","excerpt":"","slug":"/hn/26314756","title":"How an Anti-TypeScript “JavaScript developer” like me became a TypeScript fan","date":"March 03, 2021","dateISO":"2021-03-03T02:09:20.208Z","datetime":"2021-03-03 02:09","tags":["story","Hacker News"],"image":null,"imageAlt":null,"provider":"Hacker News","thirdPartyId":"26314756","url":"https://news.ycombinator.com/item?id=26314756","originalUrl":"https://chiragswadia.medium.com/how-an-anti-typescript-javascript-developer-like-me-became-a-typescript-fan-a4e043151ad7","imageRemote":"https://miro.medium.com/max/1200/1*mhW-IR7S3z9xkTWPHbY0cg.jpeg","video":null,"channel":null,"channelUrl":null,"author":"chiragswadia","authorUrl":"https://news.ycombinator.com/user?id=chiragswadia","authorImage":null,"authorSlug":null,"score":189,"views":null,"sharedCount":null,"likeCount":null,"sharedContent":null,"parent":{"__typename":"HnJson","localize":[{"title":"像我这样一个反TypeScript的 \"JavaScript开发者 \"是如何成为TypeScript粉丝的？","locale":"zh"},{"title":"像我這樣一個反TypeScript的 \"JavaScript開發者 \"是如何成爲TypeScript粉絲的？","locale":"zh-Hant"}]}},{"__typename":"SocialMediaPost","id":"HnPost-26319649","excerpt":"","slug":"/hn/26319649","title":"Rookie coding mistake prior to Gab hack came from site’s CTO","date":"March 03, 2021","dateISO":"2021-03-03T02:09:20.208Z","datetime":"2021-03-03 02:09","tags":["story","Hacker News"],"image":null,"imageAlt":null,"provider":"Hacker News","thirdPartyId":"26319649","url":"https://news.ycombinator.com/item?id=26319649","originalUrl":"https://arstechnica.com/gadgets/2021/03/rookie-coding-mistake-prior-to-gab-hack-came-from-sites-cto/","imageRemote":"https://cdn.arstechnica.net/wp-content/uploads/2021/03/gab-silicon-valley-760x380.jpg","video":null,"channel":null,"channelUrl":null,"author":"minimaxir","authorUrl":"https://news.ycombinator.com/user?id=minimaxir","authorImage":null,"authorSlug":null,"score":277,"views":null,"sharedCount":null,"likeCount":null,"sharedContent":null,"parent":{"__typename":"HnJson","localize":[{"title":"Gab被黑之前的新手编码错误来自于网站的CTO。","locale":"zh"},{"title":"Gab被黑之前的新手編碼錯誤來自於網站的CTO。","locale":"zh-Hant"}]}},{"__typename":"SocialMediaPost","id":"HnPost-26313932","excerpt":"","slug":"/hn/26313932","title":"Physicists have filmed the oscillation of a time crystal","date":"March 03, 2021","dateISO":"2021-03-03T01:28:29.972Z","datetime":"2021-03-03 01:28","tags":["story","Hacker News"],"image":null,"imageAlt":null,"provider":"Hacker News","thirdPartyId":"26313932","url":"https://news.ycombinator.com/item?id=26313932","originalUrl":"https://www.sciencealert.com/watch-the-first-ever-video-of-a-time-crystal-oscillating","imageRemote":"https://www.sciencealert.com/images/2021-02/time-crystal_1024.gif","video":null,"channel":null,"channelUrl":null,"author":"IFR","authorUrl":"https://news.ycombinator.com/user?id=IFR","authorImage":null,"authorSlug":null,"score":284,"views":null,"sharedCount":null,"likeCount":null,"sharedContent":null,"parent":{"__typename":"HnJson","localize":[{"title":"物理学家拍下了时间晶体的振荡现象","locale":"zh"},{"title":"物理學家拍下了時間晶體的振盪現象","locale":"zh-Hant"}]}},{"__typename":"SocialMediaPost","id":"HnPost-26321962","excerpt":"","slug":"/hn/26321962","title":"“This destroys the RSA cryptosystem”","date":"March 02, 2021","dateISO":"2021-03-02T23:56:46.780Z","datetime":"2021-03-02 23:56","tags":["story","Hacker News"],"image":null,"imageAlt":null,"provider":"Hacker News","thirdPartyId":"26321962","url":"https://news.ycombinator.com/item?id=26321962","originalUrl":"https://eprint.iacr.org/2021/232","imageRemote":null,"video":null,"channel":null,"channelUrl":null,"author":"renaudg","authorUrl":"https://news.ycombinator.com/user?id=renaudg","authorImage":null,"authorSlug":null,"score":274,"views":null,"sharedCount":null,"likeCount":null,"sharedContent":null,"parent":{"__typename":"HnJson","localize":[{"title":"\"这破坏了RSA密码系统\"","locale":"zh"},{"title":"\"這破壞了RSA密碼系統\"","locale":"zh-Hant"}]}},{"__typename":"SocialMediaPost","id":"HnPost-26314900","excerpt":"","slug":"/hn/26314900","title":"Statistics Postdoc Tames Decades-Old Geometry Problem","date":"March 02, 2021","dateISO":"2021-03-02T23:33:59.467Z","datetime":"2021-03-02 23:33","tags":["story","Hacker News"],"image":null,"imageAlt":null,"provider":"Hacker News","thirdPartyId":"26314900","url":"https://news.ycombinator.com/item?id=26314900","originalUrl":"https://www.quantamagazine.org/statistics-postdoc-tames-decades-old-geometry-problem-20210301/","imageRemote":"https://d2r55xnwy6nx47.cloudfront.net/uploads/2021/03/Convex-Slices_1200_social.jpg","video":null,"channel":null,"channelUrl":null,"author":"rbanffy","authorUrl":"https://news.ycombinator.com/user?id=rbanffy","authorImage":null,"authorSlug":null,"score":182,"views":null,"sharedCount":null,"likeCount":null,"sharedContent":null,"parent":{"__typename":"HnJson","localize":[{"title":"统计学博士后驯服几十年前的几何学问题","locale":"zh"},{"title":"統計學博士後馴服幾十年前的幾何學問題","locale":"zh-Hant"}]}},{"__typename":"SocialMediaPost","id":"HnPost-26322089","excerpt":"","slug":"/hn/26322089","title":"MIT Press has granted full access to all its journals","date":"March 02, 2021","dateISO":"2021-03-02T23:33:59.467Z","datetime":"2021-03-02 23:33","tags":["story","Hacker News"],"image":null,"imageAlt":null,"provider":"Hacker News","thirdPartyId":"26322089","url":"https://news.ycombinator.com/item?id=26322089","originalUrl":"https://www.mitpressjournals.org/action/showPublications","imageRemote":"https://www.mitpressjournals.org/pb-assets/images/colophon.png","video":null,"channel":null,"channelUrl":null,"author":"orixilus","authorUrl":"https://news.ycombinator.com/user?id=orixilus","authorImage":null,"authorSlug":null,"score":516,"views":null,"sharedCount":null,"likeCount":null,"sharedContent":null,"parent":{"__typename":"HnJson","localize":[{"title":"麻省理工学院出版社已批准对其所有期刊进行全面访问。","locale":"zh"},{"title":"麻省理工學院出版社已批准對其所有期刊進行全面訪問。","locale":"zh-Hant"}]}},{"__typename":"SocialMediaPost","id":"HnPost-26315434","excerpt":"","slug":"/hn/26315434","title":"Rent controls have split housing in Berlin into two distinct markets","date":"March 02, 2021","dateISO":"2021-03-02T23:13:12.789Z","datetime":"2021-03-02 23:13","tags":["story","Hacker News"],"image":null,"imageAlt":null,"provider":"Hacker News","thirdPartyId":"26315434","url":"https://news.ycombinator.com/item?id=26315434","originalUrl":"https://www.bloomberg.com/opinion/articles/2021-03-02/berlin-s-rent-controls-are-proving-to-be-the-disaster-we-feared","imageRemote":null,"video":null,"channel":null,"channelUrl":null,"author":"vanburen","authorUrl":"https://news.ycombinator.com/user?id=vanburen","authorImage":null,"authorSlug":null,"score":303,"views":null,"sharedCount":null,"likeCount":null,"sharedContent":null,"parent":{"__typename":"HnJson","localize":[{"title":"房租管制将柏林的住房分割成两个不同的市场。","locale":"zh"},{"title":"房租管制將柏林的住房分割成兩個不同的市場。","locale":"zh-Hant"}]}},{"__typename":"SocialMediaPost","id":"HnPost-26319850","excerpt":"","slug":"/hn/26319850","title":"Beyond Meat signs global supply deals with McDonald’s, KFC and Pizza Hut","date":"March 02, 2021","dateISO":"2021-03-02T21:35:02.346Z","datetime":"2021-03-02 21:35","tags":["story","Hacker News"],"image":null,"imageAlt":null,"provider":"Hacker News","thirdPartyId":"26319850","url":"https://news.ycombinator.com/item?id=26319850","originalUrl":"https://agfundernews.com/beyond-meat-signs-global-supply-deals-with-mcdonalds-yum-brands.html","imageRemote":"https://agfundernews.com/wp-content/uploads/2021/03/Beyond-Meat-Pizza-Hut-Beyond-Italian-Sausage-Hero-e1614577903588.jpg","video":null,"channel":null,"channelUrl":null,"author":"adrian_mrd","authorUrl":"https://news.ycombinator.com/user?id=adrian_mrd","authorImage":null,"authorSlug":null,"score":1086,"views":null,"sharedCount":null,"likeCount":null,"sharedContent":null,"parent":{"__typename":"HnJson","localize":[{"title":"Beyond Meat与麦当劳、肯德基和必胜客签订全球供应协议。","locale":"zh"},{"title":"Beyond Meat與麥當勞、肯德基和必勝客簽訂全球供應協議。","locale":"zh-Hant"}]}},{"__typename":"SocialMediaPost","id":"HnPost-26318872","excerpt":"","slug":"/hn/26318872","title":"jQuery 3.6.0","date":"March 02, 2021","dateISO":"2021-03-02T20:57:49.473Z","datetime":"2021-03-02 20:57","tags":["story","Hacker News"],"image":null,"imageAlt":null,"provider":"Hacker News","thirdPartyId":"26318872","url":"https://news.ycombinator.com/item?id=26318872","originalUrl":"http://blog.jquery.com/2021/03/02/jquery-3-6-0-released/","imageRemote":"http://0.gravatar.com/avatar/920831f693509679574832bb125a1d48?s=68&d=mm&r=g","video":null,"channel":null,"channelUrl":null,"author":"mkurz","authorUrl":"https://news.ycombinator.com/user?id=mkurz","authorImage":null,"authorSlug":null,"score":321,"views":null,"sharedCount":null,"likeCount":null,"sharedContent":null,"parent":{"__typename":"HnJson","localize":[{"title":"jQuery 3.6.0","locale":"zh"},{"title":"jQuery 3.6.0","locale":"zh-Hant"}]}},{"__typename":"SocialMediaPost","id":"HnPost-26317741","excerpt":"","slug":"/hn/26317741","title":"Almost 40% of U.S. Consumers Trust Online Reviews Less Than They Did 5 Years Ago","date":"March 02, 2021","dateISO":"2021-03-02T20:44:09.246Z","datetime":"2021-03-02 20:44","tags":["story","Hacker News"],"image":null,"imageAlt":null,"provider":"Hacker News","thirdPartyId":"26317741","url":"https://news.ycombinator.com/item?id=26317741","originalUrl":"https://www.reviews.com/home/security-systems/almost-40-percent-of-us-consumers-trust-online-reviews-less-than-they-did-five-years-ago/","imageRemote":"https://www.reviews.com/wp-content/uploads/2021/02/online-review-study.jpg","video":null,"channel":null,"channelUrl":null,"author":"sharkweek","authorUrl":"https://news.ycombinator.com/user?id=sharkweek","authorImage":null,"authorSlug":null,"score":198,"views":null,"sharedCount":null,"likeCount":null,"sharedContent":null,"parent":{"__typename":"HnJson","localize":[{"title":"近四成美国消费者对在线评论的信任度低于5年前。","locale":"zh"},{"title":"近四成美國消費者對在線評論的信任度低於5年前。","locale":"zh-Hant"}]}},{"__typename":"SocialMediaPost","id":"HnPost-26316637","excerpt":"","slug":"/hn/26316637","title":"Lotus 1-2-3 arbitrary resolution","date":"March 02, 2021","dateISO":"2021-03-02T19:55:02.296Z","datetime":"2021-03-02 19:55","tags":["story","Hacker News"],"image":null,"imageAlt":null,"provider":"Hacker News","thirdPartyId":"26316637","url":"https://news.ycombinator.com/item?id=26316637","originalUrl":"https://lock.cmpxchg8b.com/lotus123.html","imageRemote":"https://lock.cmpxchg8b.com/img/lotus-online-help.png","video":null,"channel":null,"channelUrl":null,"author":"diffuse_l","authorUrl":"https://news.ycombinator.com/user?id=diffuse_l","authorImage":null,"authorSlug":null,"score":513,"views":null,"sharedCount":null,"likeCount":null,"sharedContent":null,"parent":{"__typename":"HnJson","localize":[{"title":"莲花1-2-3任意解决","locale":"zh"},{"title":"蓮花1-2-3任意解決","locale":"zh-Hant"}]}},{"__typename":"SocialMediaPost","id":"HnPost-26316793","excerpt":"","slug":"/hn/26316793","title":"Launch HN: Athens Research (YC W21) – Open-Source Roam Research","date":"March 02, 2021","dateISO":"2021-03-02T19:41:12.186Z","datetime":"2021-03-02 19:41","tags":["story","Hacker News"],"image":null,"imageAlt":null,"provider":"Hacker News","thirdPartyId":"26316793","url":"https://news.ycombinator.com/item?id=26316793","originalUrl":"https://news.ycombinator.com/item?id=26316793","imageRemote":null,"video":null,"channel":null,"channelUrl":null,"author":"tangjeff0","authorUrl":"https://news.ycombinator.com/user?id=tangjeff0","authorImage":null,"authorSlug":null,"score":333,"views":null,"sharedCount":null,"likeCount":null,"sharedContent":null,"parent":{"__typename":"HnJson","localize":[{"title":"启动HN：雅典研究（YC W21）----开源漫游研究。","locale":"zh"},{"title":"啓動HN：雅典研究（YC W21）----開源漫遊研究。","locale":"zh-Hant"}]}},{"__typename":"SocialMediaPost","id":"HnPost-26314610","excerpt":"","slug":"/hn/26314610","title":"Trust: The Need for Public Understanding of How Science Works","date":"March 02, 2021","dateISO":"2021-03-02T19:17:38.202Z","datetime":"2021-03-02 19:17","tags":["story","Hacker News"],"image":null,"imageAlt":null,"provider":"Hacker News","thirdPartyId":"26314610","url":"https://news.ycombinator.com/item?id=26314610","originalUrl":"https://onlinelibrary.wiley.com/doi/full/10.1002/hast.1227","imageRemote":"https://onlinelibrary.wiley.com/pb-assets/hub-assets/pericles/logo-header-1526603583437.png","video":null,"channel":null,"channelUrl":null,"author":"XzetaU8","authorUrl":"https://news.ycombinator.com/user?id=XzetaU8","authorImage":null,"authorSlug":null,"score":199,"views":null,"sharedCount":null,"likeCount":null,"sharedContent":null,"parent":{"__typename":"HnJson","localize":[{"title":"信任。需要让公众了解科学的运作方式","locale":"zh"},{"title":"信任。需要讓公衆瞭解科學的運作方式","locale":"zh-Hant"}]}},{"__typename":"SocialMediaPost","id":"HnPost-26315368","excerpt":"","slug":"/hn/26315368","title":"Using Ghidra to Reverse Engineer Super Monkey Ball for GameCube","date":"March 02, 2021","dateISO":"2021-03-02T18:42:44.771Z","datetime":"2021-03-02 18:42","tags":["story","Hacker News"],"image":null,"imageAlt":null,"provider":"Hacker News","thirdPartyId":"26315368","url":"https://news.ycombinator.com/item?id=26315368","originalUrl":"https://www.smokingonabike.com/2021/02/28/hacking-super-monkey-ball-part-2-decompilation-with-ghidra/","imageRemote":"https://www.smokingonabike.com/wp-content/uploads/2021/02/smb_blog2_7-300x145.png","video":null,"channel":null,"channelUrl":null,"author":"coldpie","authorUrl":"https://news.ycombinator.com/user?id=coldpie","authorImage":null,"authorSlug":null,"score":305,"views":null,"sharedCount":null,"likeCount":null,"sharedContent":null,"parent":{"__typename":"HnJson","localize":[{"title":"使用Ghidra对GameCube的超级猴球进行逆向工程。","locale":"zh"},{"title":"使用Ghidra對GameCube的超級猴球進行逆向工程。","locale":"zh-Hant"}]}},{"__typename":"SocialMediaPost","id":"HnPost-26315923","excerpt":"","slug":"/hn/26315923","title":"Bitcoin Is Time","date":"March 02, 2021","dateISO":"2021-03-02T18:28:30.023Z","datetime":"2021-03-02 18:28","tags":["story","Hacker News"],"image":null,"imageAlt":null,"provider":"Hacker News","thirdPartyId":"26315923","url":"https://news.ycombinator.com/item?id=26315923","originalUrl":"https://dergigi.com/2021/01/14/bitcoin-is-time/","imageRemote":"https://dergigi.com/assets/images/bitcoin-is-time.jpg","video":null,"channel":null,"channelUrl":null,"author":"taylorwc","authorUrl":"https://news.ycombinator.com/user?id=taylorwc","authorImage":null,"authorSlug":null,"score":431,"views":null,"sharedCount":null,"likeCount":null,"sharedContent":null,"parent":{"__typename":"HnJson","localize":[{"title":"比特币是时间","locale":"zh"},{"title":"比特幣是時間","locale":"zh-Hant"}]}},{"__typename":"SocialMediaPost","id":"HnPost-26316401","excerpt":"","slug":"/hn/26316401","title":"ClickHouse as an alternative to Elasticsearch for log storage and analysis","date":"March 02, 2021","dateISO":"2021-03-02T18:28:30.023Z","datetime":"2021-03-02 18:28","tags":["story","Hacker News"],"image":null,"imageAlt":null,"provider":"Hacker News","thirdPartyId":"26316401","url":"https://news.ycombinator.com/item?id=26316401","originalUrl":"https://pixeljets.com/blog/clickhouse-vs-elasticsearch/","imageRemote":"https://pixeljets.com/blog/content/images/2021/02/demo2--1-.gif","video":null,"channel":null,"channelUrl":null,"author":"jetter","authorUrl":"https://news.ycombinator.com/user?id=jetter","authorImage":null,"authorSlug":null,"score":372,"views":null,"sharedCount":null,"likeCount":null,"sharedContent":null,"parent":{"__typename":"HnJson","localize":[{"title":"ClickHouse作为替代Elasticsearch的日志存储和分析。","locale":"zh"},{"title":"ClickHouse作爲替代Elasticsearch的日誌存儲和分析。","locale":"zh-Hant"}]}},{"__typename":"SocialMediaPost","id":"HnPost-26315695","excerpt":"","slug":"/hn/26315695","title":"SSH and User-Mode IP WireGuard","date":"March 02, 2021","dateISO":"2021-03-02T17:49:36.407Z","datetime":"2021-03-02 17:49","tags":["story","Hacker News"],"image":null,"imageAlt":null,"provider":"Hacker News","thirdPartyId":"26315695","url":"https://news.ycombinator.com/item?id=26315695","originalUrl":"https://fly.io/blog/ssh-and-user-mode-ip-wireguard/","imageRemote":"https://fly.io/public/images/flyctl-preview.png","video":null,"channel":null,"channelUrl":null,"author":"BCM43","authorUrl":"https://news.ycombinator.com/user?id=BCM43","authorImage":null,"authorSlug":null,"score":363,"views":null,"sharedCount":null,"likeCount":null,"sharedContent":null,"parent":{"__typename":"HnJson","localize":[{"title":"SSH和用户模式IP WireGuard","locale":"zh"},{"title":"SSH和用戶模式IP WireGuard","locale":"zh-Hant"}]}},{"__typename":"SocialMediaPost","id":"HnPost-26311801","excerpt":"","slug":"/hn/26311801","title":"Element Matrix Services Announces Element Home","date":"March 02, 2021","dateISO":"2021-03-02T15:37:52.782Z","datetime":"2021-03-02 15:37","tags":["story","Hacker News"],"image":null,"imageAlt":null,"provider":"Hacker News","thirdPartyId":"26311801","url":"https://news.ycombinator.com/item?id=26311801","originalUrl":"https://element.io/blog/element-home/","imageRemote":"https://element.io/blog/content/images/2021/02/Element-Home.png","video":null,"channel":null,"channelUrl":null,"author":"decrypt","authorUrl":"https://news.ycombinator.com/user?id=decrypt","authorImage":null,"authorSlug":null,"score":212,"views":null,"sharedCount":null,"likeCount":null,"sharedContent":null,"parent":{"__typename":"HnJson","localize":[{"title":"元素矩阵服务发布Element Home","locale":"zh"},{"title":"元素矩陣服務發佈Element Home","locale":"zh-Hant"}]}},{"__typename":"SocialMediaPost","id":"HnPost-26311722","excerpt":"","slug":"/hn/26311722","title":"How to Read Assembly Language","date":"March 02, 2021","dateISO":"2021-03-02T12:55:05.296Z","datetime":"2021-03-02 12:55","tags":["story","Hacker News"],"image":null,"imageAlt":null,"provider":"Hacker News","thirdPartyId":"26311722","url":"https://news.ycombinator.com/item?id=26311722","originalUrl":"https://wolchok.org/posts/how-to-read-assembly-language/","imageRemote":null,"video":null,"channel":null,"channelUrl":null,"author":"sidcool","authorUrl":"https://news.ycombinator.com/user?id=sidcool","authorImage":null,"authorSlug":null,"score":287,"views":null,"sharedCount":null,"likeCount":null,"sharedContent":null,"parent":{"__typename":"HnJson","localize":[{"title":"如何阅读汇编语言","locale":"zh"},{"title":"如何閱讀彙編語言","locale":"zh-Hant"}]}},{"__typename":"SocialMediaPost","id":"HnPost-26313254","excerpt":"","slug":"/hn/26313254","title":"LastPass Android app has got 7 trackers in it","date":"March 02, 2021","dateISO":"2021-03-02T12:55:05.296Z","datetime":"2021-03-02 12:55","tags":["story","Hacker News"],"image":null,"imageAlt":null,"provider":"Hacker News","thirdPartyId":"26313254","url":"https://news.ycombinator.com/item?id=26313254","originalUrl":"https://reports.exodus-privacy.eu.org/en/reports/165465/","imageRemote":"https://reports.exodus-privacy.eu.org/static/img/logo_purple_small.png","video":null,"channel":null,"channelUrl":null,"author":"aquir","authorUrl":"https://news.ycombinator.com/user?id=aquir","authorImage":null,"authorSlug":null,"score":306,"views":null,"sharedCount":null,"likeCount":null,"sharedContent":null,"parent":{"__typename":"HnJson","localize":[{"title":"LastPass安卓应用有7个追踪器在里面","locale":"zh"},{"title":"LastPass安卓應用有7個追蹤器在裏面","locale":"zh-Hant"}]}},{"__typename":"SocialMediaPost","id":"HnPost-26312516","excerpt":"","slug":"/hn/26312516","title":"Speed Is the Killer Feature","date":"March 02, 2021","dateISO":"2021-03-02T11:58:49.172Z","datetime":"2021-03-02 11:58","tags":["story","Hacker News"],"image":null,"imageAlt":null,"provider":"Hacker News","thirdPartyId":"26312516","url":"https://news.ycombinator.com/item?id=26312516","originalUrl":"https://bdickason.com/posts/speed-is-the-killer-feature/","imageRemote":"http://bdickason.com/static/posts/speed-is-the-killer-feature/speed-keanu-sandra.png","video":null,"channel":null,"channelUrl":null,"author":"bdickason","authorUrl":"https://news.ycombinator.com/user?id=bdickason","authorImage":null,"authorSlug":null,"score":560,"views":null,"sharedCount":null,"likeCount":null,"sharedContent":null,"parent":{"__typename":"HnJson","localize":[{"title":"速度是杀手锏","locale":"zh"},{"title":"速度是殺手鐗","locale":"zh-Hant"}]}}]}},"pageContext":{"basePath":"/","pageType":"tag","tag":"story","tagsFilter":{"id":{"glob":"!*Post-1"}},"filter":{"id":{"glob":"!*Post-1"},"tags":{"eq":"story"}},"limit":25,"skip":425,"total":2599,"totalPages":104,"currentPage":18,"maxWidth":1024,"maxHeight":512,"locale":"zh","hrefLang":"zh-Hans","originalPath":"/tags/story/page/18","dateFormat":"YYYY-MM-DD"}},"staticQueryHashes":["1239077767","2506312863","2744905544","3025052997","3493603132","3493603132","3513215887","386998304"]}