{"componentChunkName":"component---gatsby-theme-buzzing-src-gatsby-theme-timeline-templates-posts-query-js","path":"/page/74","result":{"data":{"site":{"siteMetadata":{"title":"Reddit 热门","description":"用中文浏览Reddit热门内容","social":[{"name":"Twitter","url":"https://twitter.com/gatsbyjs","external":null,"prefetch":null},{"name":"GitHub","url":"https://github.com/gatsbyjs","external":null,"prefetch":null}],"menuLinks":[],"localize":[{"locale":"en","title":"Buzzing on Reddit","description":"See what's buzzing on Reddit in your native language","social":[{"name":"Reddit","url":"https://www.reddit.com/","external":true,"prefetch":null}],"menuLinks":[{"name":"Weekly Selection","url":"/issues","external":null,"prefetch":null},{"name":"RSS","url":"/rss.xml","external":null,"prefetch":false}]},{"locale":"zh-Hant","title":"Reddit 熱門","description":"用中文瀏覽Reddit熱門內容","social":null,"menuLinks":null}]}},"tagsGroup":{"group":[{"fieldValue":"ASK HN","totalCount":54},{"fieldValue":"Hacker News","totalCount":3107},{"fieldValue":"Poll","totalCount":1},{"fieldValue":"Show HN","totalCount":100},{"fieldValue":"poll","totalCount":1},{"fieldValue":"story","totalCount":3106}]},"allBlogPost":{"nodes":[{"__typename":"SocialMediaPost","id":"HnPost-25915274","excerpt":"","slug":"/hn/25915274","title":"LZ4, an Extremely Fast Compression Algorithm","date":"January 27, 2021","dateISO":"2021-01-27T16:12:24.305Z","datetime":"2021-01-27 16:12","tags":["story","Hacker News"],"image":null,"imageAlt":null,"provider":"Hacker News","thirdPartyId":"25915274","url":"https://news.ycombinator.com/item?id=25915274","originalUrl":"https://lz4.github.io/lz4/","imageRemote":null,"video":null,"channel":null,"channelUrl":null,"author":"creolabs","authorUrl":"https://news.ycombinator.com/user?id=creolabs","authorImage":null,"authorSlug":null,"score":195,"views":null,"sharedCount":null,"likeCount":null,"sharedContent":null,"parent":{"__typename":"HnJson","localize":[{"title":"LZ4，一种极速压缩算法。","locale":"zh"},{"title":"LZ4，一種極速壓縮算法。","locale":"zh-Hant"}]}},{"__typename":"SocialMediaPost","id":"HnPost-25917403","excerpt":"","slug":"/hn/25917403","title":"Launch HN: Airbyte (YC W20) – Open-Source ELT (Fivetran/Stitch Alternative)","date":"January 27, 2021","dateISO":"2021-01-27T16:12:24.305Z","datetime":"2021-01-27 16:12","tags":["story","Hacker News"],"image":null,"imageAlt":null,"provider":"Hacker News","thirdPartyId":"25917403","url":"https://news.ycombinator.com/item?id=25917403","originalUrl":"https://news.ycombinator.com/item?id=25917403","imageRemote":null,"video":null,"channel":null,"channelUrl":null,"author":"mtricot","authorUrl":"https://news.ycombinator.com/user?id=mtricot","authorImage":null,"authorSlug":null,"score":160,"views":null,"sharedCount":null,"likeCount":null,"sharedContent":null,"parent":{"__typename":"HnJson","localize":[{"title":"推出HN：Airbyte (YC W20)----开源ELT(Fivetran/Stitch Alternative)","locale":"zh"},{"title":"推出HN：Airbyte (YC W20)----開源ELT(Fivetran/Stitch Alternative)","locale":"zh-Hant"}]}},{"__typename":"SocialMediaPost","id":"HnPost-25923491","excerpt":"","slug":"/hn/25923491","title":"CircuitPython: Programming Hardware in Python","date":"January 27, 2021","dateISO":"2021-01-27T16:12:24.305Z","datetime":"2021-01-27 16:12","tags":["story","Hacker News"],"image":null,"imageAlt":null,"provider":"Hacker News","thirdPartyId":"25923491","url":"https://news.ycombinator.com/item?id=25923491","originalUrl":"https://github.com/adafruit/circuitpython","imageRemote":"https://repository-images.githubusercontent.com/66166069/5fb95200-653a-11e9-8786-9536bf568865","video":null,"channel":null,"channelUrl":null,"author":"optimalsolver","authorUrl":"https://news.ycombinator.com/user?id=optimalsolver","authorImage":null,"authorSlug":null,"score":161,"views":null,"sharedCount":null,"likeCount":null,"sharedContent":null,"parent":{"__typename":"HnJson","localize":[{"title":"CircuitPython。用Python编程硬件","locale":"zh"},{"title":"CircuitPython。用Python編程硬件","locale":"zh-Hant"}]}},{"__typename":"SocialMediaPost","id":"HnPost-25926471","excerpt":"","slug":"/hn/25926471","title":"Telephoto fear: how lenses affect views of crowds","date":"January 27, 2021","dateISO":"2021-01-27T16:12:24.305Z","datetime":"2021-01-27 16:12","tags":["story","Hacker News"],"image":null,"imageAlt":null,"provider":"Hacker News","thirdPartyId":"25926471","url":"https://news.ycombinator.com/item?id=25926471","originalUrl":"https://mainichi.jp/english/articles/20210126/p2a/00m/0op/009000c","imageRemote":"https://cdn.mainichi.jp/vol1/2021/01/26/20210126p2a00m0na003000p/0c10.jpg?1","video":null,"channel":null,"channelUrl":null,"author":"_cs2017_","authorUrl":"https://news.ycombinator.com/user?id=_cs2017_","authorImage":null,"authorSlug":null,"score":182,"views":null,"sharedCount":null,"likeCount":null,"sharedContent":null,"parent":{"__typename":"HnJson","localize":[{"title":"长焦恐惧：镜头如何影响人群的视野","locale":"zh"},{"title":"長焦恐懼：鏡頭如何影響人羣的視野","locale":"zh-Hant"}]}},{"__typename":"SocialMediaPost","id":"HnPost-25927943","excerpt":"","slug":"/hn/25927943","title":"Made in the USA: Socialism for the Rich. Capitalism for the Rest","date":"January 27, 2021","dateISO":"2021-01-27T16:12:24.305Z","datetime":"2021-01-27 16:12","tags":["story","Hacker News"],"image":null,"imageAlt":null,"provider":"Hacker News","thirdPartyId":"25927943","url":"https://news.ycombinator.com/item?id=25927943","originalUrl":"https://www.nytimes.com/2021/01/26/opinion/us-capitalism-socialism.html","imageRemote":"https://static01.nyt.com/images/2021/01/26/opinion/26friedmanWeb/26friedmanWeb-facebookJumbo.jpg","video":null,"channel":null,"channelUrl":null,"author":"nobody9999","authorUrl":"https://news.ycombinator.com/user?id=nobody9999","authorImage":null,"authorSlug":null,"score":167,"views":null,"sharedCount":null,"likeCount":null,"sharedContent":null,"parent":{"__typename":"HnJson","localize":[{"title":"美国制造：富人的社会主义。其余人的资本主义","locale":"zh"},{"title":"美國製造：富人的社會主義。其餘人的資本主義","locale":"zh-Hant"}]}},{"__typename":"SocialMediaPost","id":"HnPost-25928310","excerpt":"","slug":"/hn/25928310","title":"Social media damages teenagers' mental health, report says","date":"January 27, 2021","dateISO":"2021-01-27T16:12:24.305Z","datetime":"2021-01-27 16:12","tags":["story","Hacker News"],"image":null,"imageAlt":null,"provider":"Hacker News","thirdPartyId":"25928310","url":"https://news.ycombinator.com/item?id=25928310","originalUrl":"https://www.bbc.com/news/technology-55826238","imageRemote":"https://ichef.bbci.co.uk/news/1024/branded_news/8FFA/production/_116685863_hi043825875.jpg","video":null,"channel":null,"channelUrl":null,"author":"alexrustic","authorUrl":"https://news.ycombinator.com/user?id=alexrustic","authorImage":null,"authorSlug":null,"score":236,"views":null,"sharedCount":null,"likeCount":null,"sharedContent":null,"parent":{"__typename":"HnJson","localize":[{"title":"报告称社交媒体损害青少年心理健康","locale":"zh"},{"title":"報告稱社交媒體損害青少年心理健康","locale":"zh-Hant"}]}},{"__typename":"SocialMediaPost","id":"HnPost-25927184","excerpt":"","slug":"/hn/25927184","title":"Vue Native","date":"January 27, 2021","dateISO":"2021-01-27T14:42:04.378Z","datetime":"2021-01-27 14:42","tags":["story","Hacker News"],"image":null,"imageAlt":null,"provider":"Hacker News","thirdPartyId":"25927184","url":"https://news.ycombinator.com/item?id=25927184","originalUrl":"https://vue-native.io/","imageRemote":"https://vue-native.io/images/logo.png","video":null,"channel":null,"channelUrl":null,"author":"alokrai","authorUrl":"https://news.ycombinator.com/user?id=alokrai","authorImage":null,"authorSlug":null,"score":166,"views":null,"sharedCount":null,"likeCount":null,"sharedContent":null,"parent":{"__typename":"HnJson","localize":[{"title":"Vue Native","locale":"zh"},{"title":"Vue Native","locale":"zh-Hant"}]}},{"__typename":"SocialMediaPost","id":"HnPost-25915395","excerpt":"","slug":"/hn/25915395","title":"How we made Typerighter, the Guardian’s style guide checker","date":"January 27, 2021","dateISO":"2021-01-27T14:04:23.682Z","datetime":"2021-01-27 14:04","tags":["story","Hacker News"],"image":null,"imageAlt":null,"provider":"Hacker News","thirdPartyId":"25915395","url":"https://news.ycombinator.com/item?id=25915395","originalUrl":"https://www.theguardian.com/info/2021/jan/26/how-we-made-typerighter-the-guardians-style-guide-checker","imageRemote":"https://i.guim.co.uk/img/media/b2b7cb38e77728259dd14317c6a54349b90912ea/317_0_1571_943/master/1571.jpg?width=1200&height=630&quality=85&auto=format&fit=crop&overlay-align=bottom%2Cleft&overlay-width=100p&overlay-base64=L2ltZy9zdGF0aWMvb3ZlcmxheXMvdGctZGVmYXVsdC5wbmc&enable=upscale&s=d41716be1b4d1f9a5f7d9a82c1cd81c9","video":null,"channel":null,"channelUrl":null,"author":"camillovisini","authorUrl":"https://news.ycombinator.com/user?id=camillovisini","authorImage":null,"authorSlug":null,"score":162,"views":null,"sharedCount":null,"likeCount":null,"sharedContent":null,"parent":{"__typename":"HnJson","localize":[{"title":"我们如何制作Typerighter，卫报的风格指南检查器","locale":"zh"},{"title":"我們如何製作Typerighter，衛報的風格指南檢查器","locale":"zh-Hant"}]}},{"__typename":"SocialMediaPost","id":"HnPost-25921894","excerpt":"","slug":"/hn/25921894","title":"Evcxr: A Rust REPL and Jupyter Kernel","date":"January 27, 2021","dateISO":"2021-01-27T13:47:11.034Z","datetime":"2021-01-27 13:47","tags":["story","Hacker News"],"image":null,"imageAlt":null,"provider":"Hacker News","thirdPartyId":"25921894","url":"https://news.ycombinator.com/item?id=25921894","originalUrl":"https://github.com/google/evcxr","imageRemote":"https://avatars.githubusercontent.com/u/1342004?s=400&v=4","video":null,"channel":null,"channelUrl":null,"author":"batterylow","authorUrl":"https://news.ycombinator.com/user?id=batterylow","authorImage":null,"authorSlug":null,"score":162,"views":null,"sharedCount":null,"likeCount":null,"sharedContent":null,"parent":{"__typename":"HnJson","localize":[{"title":"Evcxr: Rust REPL和Jupyter内核","locale":"zh"},{"title":"Evcxr: Rust REPL和Jupyter內核","locale":"zh-Hant"}]}},{"__typename":"SocialMediaPost","id":"HnPost-25921128","excerpt":"","slug":"/hn/25921128","title":"What does the night sky look like on Mars?","date":"January 27, 2021","dateISO":"2021-01-27T12:47:49.737Z","datetime":"2021-01-27 12:47","tags":["story","Hacker News"],"image":null,"imageAlt":null,"provider":"Hacker News","thirdPartyId":"25921128","url":"https://news.ycombinator.com/item?id=25921128","originalUrl":"https://www.skyatnightmagazine.com/space-science/what-does-night-sky-look-like-mars/","imageRemote":"https://images.immediate.co.uk/production/volatile/sites/25/2021/01/GettyImages-930523236-e638f01.jpg?quality=45&resize=620,413","video":null,"channel":null,"channelUrl":null,"author":"ohjeez","authorUrl":"https://news.ycombinator.com/user?id=ohjeez","authorImage":null,"authorSlug":null,"score":164,"views":null,"sharedCount":null,"likeCount":null,"sharedContent":null,"parent":{"__typename":"HnJson","localize":[{"title":"火星上的夜空是什么样子的？","locale":"zh"},{"title":"火星上的夜空是什麼樣子的？","locale":"zh-Hant"}]}},{"__typename":"SocialMediaPost","id":"HnPost-25924566","excerpt":"","slug":"/hn/25924566","title":"Why does it take so long to build software? (2020)","date":"January 27, 2021","dateISO":"2021-01-27T11:58:08.856Z","datetime":"2021-01-27 11:58","tags":["story","Hacker News"],"image":null,"imageAlt":null,"provider":"Hacker News","thirdPartyId":"25924566","url":"https://news.ycombinator.com/item?id=25924566","originalUrl":"https://www.simplethread.com/why-does-it-take-so-long-to-build-software/","imageRemote":"https://www.simplethread.com/wp-content/uploads/2020/10/zhu-hongzhi-4SDCaKV-bR0-unsplash-scaled.jpg","video":null,"channel":null,"channelUrl":null,"author":"fagnerbrack","authorUrl":"https://news.ycombinator.com/user?id=fagnerbrack","authorImage":null,"authorSlug":null,"score":161,"views":null,"sharedCount":null,"likeCount":null,"sharedContent":null,"parent":{"__typename":"HnJson","localize":[{"title":"为什么建设软件需要这么长时间？(2020)","locale":"zh"},{"title":"爲什麼建設軟件需要這麼長時間？(2020)","locale":"zh-Hant"}]}},{"__typename":"SocialMediaPost","id":"HnPost-25925926","excerpt":"","slug":"/hn/25925926","title":"IKEA Buys 11,000 Acres of U.S. Forest to Keep It from Being Developed","date":"January 27, 2021","dateISO":"2021-01-27T11:35:41.237Z","datetime":"2021-01-27 11:35","tags":["story","Hacker News"],"image":null,"imageAlt":null,"provider":"Hacker News","thirdPartyId":"25925926","url":"https://news.ycombinator.com/item?id=25925926","originalUrl":"https://www.goodnewsnetwork.org/ikea-buys-forest-in-georgia/?","imageRemote":"https://www.goodnewsnetwork.org/wp-content/uploads/2021/01/Forest-Stacy-Funderburke-released-IKEA.jpg","video":null,"channel":null,"channelUrl":null,"author":"Beggers1960","authorUrl":"https://news.ycombinator.com/user?id=Beggers1960","authorImage":null,"authorSlug":null,"score":169,"views":null,"sharedCount":null,"likeCount":null,"sharedContent":null,"parent":{"__typename":"HnJson","localize":[{"title":"宜家买下1.1万英亩美国森林不让其被开发","locale":"zh"},{"title":"宜家買下1.1萬英畝美國森林不讓其被開發","locale":"zh-Hant"}]}},{"__typename":"SocialMediaPost","id":"HnPost-25920822","excerpt":"","slug":"/hn/25920822","title":"A Map of Mathematics","date":"January 27, 2021","dateISO":"2021-01-27T10:51:42.411Z","datetime":"2021-01-27 10:51","tags":["story","Hacker News"],"image":null,"imageAlt":null,"provider":"Hacker News","thirdPartyId":"25920822","url":"https://news.ycombinator.com/item?id=25920822","originalUrl":"https://mathmap.quantamagazine.org/map/","imageRemote":"https://d2r55xnwy6nx47.cloudfront.net/uploads/2020/02/MathMap-SocialCard.jpg","video":null,"channel":null,"channelUrl":null,"author":"MitPitt","authorUrl":"https://news.ycombinator.com/user?id=MitPitt","authorImage":null,"authorSlug":null,"score":162,"views":null,"sharedCount":null,"likeCount":null,"sharedContent":null,"parent":{"__typename":"HnJson","localize":[{"title":"数学地图","locale":"zh"},{"title":"數學地圖","locale":"zh-Hant"}]}},{"__typename":"SocialMediaPost","id":"HnPost-25922698","excerpt":"","slug":"/hn/25922698","title":"Split keyboards and how to build them","date":"January 27, 2021","dateISO":"2021-01-27T10:51:42.411Z","datetime":"2021-01-27 10:51","tags":["story","Hacker News"],"image":null,"imageAlt":null,"provider":"Hacker News","thirdPartyId":"25922698","url":"https://news.ycombinator.com/item?id=25922698","originalUrl":"https://github.com/diimdeep/awesome-split-keyboards","imageRemote":"https://avatars.githubusercontent.com/u/485713?s=400&v=4","video":null,"channel":null,"channelUrl":null,"author":"punkspider","authorUrl":"https://news.ycombinator.com/user?id=punkspider","authorImage":null,"authorSlug":null,"score":163,"views":null,"sharedCount":null,"likeCount":null,"sharedContent":null,"parent":{"__typename":"HnJson","localize":[{"title":"分体式键盘以及如何构建它们","locale":"zh"},{"title":"分體式鍵盤以及如何構建它們","locale":"zh-Hant"}]}},{"__typename":"SocialMediaPost","id":"HnPost-25923301","excerpt":"","slug":"/hn/25923301","title":"A minimalistic site to vent and see others doing the same in realtime","date":"January 27, 2021","dateISO":"2021-01-27T10:51:42.411Z","datetime":"2021-01-27 10:51","tags":["story","Hacker News"],"image":null,"imageAlt":null,"provider":"Hacker News","thirdPartyId":"25923301","url":"https://news.ycombinator.com/item?id=25923301","originalUrl":"https://www.ventscape.life/","imageRemote":null,"video":null,"channel":null,"channelUrl":null,"author":"punkspider","authorUrl":"https://news.ycombinator.com/user?id=punkspider","authorImage":null,"authorSlug":null,"score":161,"views":null,"sharedCount":null,"likeCount":null,"sharedContent":null,"parent":{"__typename":"HnJson","localize":[{"title":"一个极简的网站，可以实时发泄，看到别人也在做同样的事情。","locale":"zh"},{"title":"一個極簡的網站，可以實時發泄，看到別人也在做同樣的事情。","locale":"zh-Hant"}]}},{"__typename":"SocialMediaPost","id":"HnPost-25922486","excerpt":"","slug":"/hn/25922486","title":"Agent fired from literary agency for using Parler and Gab","date":"January 27, 2021","dateISO":"2021-01-27T08:51:59.437Z","datetime":"2021-01-27 08:51","tags":["story","Hacker News"],"image":null,"imageAlt":null,"provider":"Hacker News","thirdPartyId":"25922486","url":"https://news.ycombinator.com/item?id=25922486","originalUrl":"https://www.newsweek.com/agent-fired-literary-agency-using-parler-gab-1564687","imageRemote":"https://d.newsweek.com/en/full/1717663/literary-agency-parler.jpg","video":null,"channel":null,"channelUrl":null,"author":"DeusExMachina","authorUrl":"https://news.ycombinator.com/user?id=DeusExMachina","authorImage":null,"authorSlug":null,"score":165,"views":null,"sharedCount":null,"likeCount":null,"sharedContent":null,"parent":{"__typename":"HnJson","localize":[{"title":"代理人因使用帕勒和加布被文学社解雇","locale":"zh"},{"title":"代理人因使用帕勒和加布被文學社解僱","locale":"zh-Hant"}]}},{"__typename":"SocialMediaPost","id":"HnPost-25923660","excerpt":"","slug":"/hn/25923660","title":"Silicon Valley is shutting down speech loopholes. Latest target: live content","date":"January 27, 2021","dateISO":"2021-01-27T08:51:59.437Z","datetime":"2021-01-27 08:51","tags":["story","Hacker News"],"image":null,"imageAlt":null,"provider":"Hacker News","thirdPartyId":"25923660","url":"https://news.ycombinator.com/item?id=25923660","originalUrl":"https://taibbi.substack.com/p/meet-the-censored-status-coup","imageRemote":"https://cdn.substack.com/image/fetch/h_600,c_limit,f_auto,q_auto:good,fl_progressive:steep/https%3A%2F%2Fbucketeer-e05bbc84-baa3-437e-9518-adb32be77984.s3.amazonaws.com%2Fpublic%2Fimages%2F8b130e59-d920-48a8-85ad-383eedd1e1e8_702x677.png","video":null,"channel":null,"channelUrl":null,"author":"walterbell","authorUrl":"https://news.ycombinator.com/user?id=walterbell","authorImage":null,"authorSlug":null,"score":160,"views":null,"sharedCount":null,"likeCount":null,"sharedContent":null,"parent":{"__typename":"HnJson","localize":[{"title":"硅谷正在关闭言论漏洞。最新目标：直播内容","locale":"zh"},{"title":"硅谷正在關閉言論漏洞。最新目標：直播內容","locale":"zh-Hant"}]}},{"__typename":"SocialMediaPost","id":"HnPost-25917178","excerpt":"","slug":"/hn/25917178","title":"The Teeniest Tiniest Laptop in the West","date":"January 27, 2021","dateISO":"2021-01-27T08:00:12.763Z","datetime":"2021-01-27 08:00","tags":["story","Hacker News"],"image":null,"imageAlt":null,"provider":"Hacker News","thirdPartyId":"25917178","url":"https://news.ycombinator.com/item?id=25917178","originalUrl":"https://thecrow.uk/gpd-p2-max-ultrabook-cyberdeck-review/","imageRemote":"https://thecrow.uk/assets/gpd_p2_max_ultrabook.jpg","video":null,"channel":null,"channelUrl":null,"author":"elorant","authorUrl":"https://news.ycombinator.com/user?id=elorant","authorImage":null,"authorSlug":null,"score":160,"views":null,"sharedCount":null,"likeCount":null,"sharedContent":null,"parent":{"__typename":"HnJson","localize":[{"title":"西方最迷你的笔记本电脑。","locale":"zh"},{"title":"西方最迷你的筆記本電腦。","locale":"zh-Hant"}]}},{"__typename":"SocialMediaPost","id":"HnPost-25922799","excerpt":"","slug":"/hn/25922799","title":"I tried to report scientific misconduct. How did it go?","date":"January 27, 2021","dateISO":"2021-01-27T08:00:12.763Z","datetime":"2021-01-27 08:00","tags":["story","Hacker News"],"image":null,"imageAlt":null,"provider":"Hacker News","thirdPartyId":"25922799","url":"https://news.ycombinator.com/item?id=25922799","originalUrl":"https://crystalprisonzone.blogspot.com/2021/01/i-tried-to-report-scientific-misconduct.html","imageRemote":"https://lh3.googleusercontent.com/-RdSOz8FBR6k/YBBYH39twQI/AAAAAAAADj4/uGl0HJGct3kWPNc0cVxGkUB3jZ-yZWwEQCLcBGAsYHQ/w1200-h630-p-k-no-nu/image.png","video":null,"channel":null,"channelUrl":null,"author":"ivank","authorUrl":"https://news.ycombinator.com/user?id=ivank","authorImage":null,"authorSlug":null,"score":178,"views":null,"sharedCount":null,"likeCount":null,"sharedContent":null,"parent":{"__typename":"HnJson","localize":[{"title":"我想举报科学不端行为 结果如何？","locale":"zh"},{"title":"我想舉報科學不端行爲 結果如何？","locale":"zh-Hant"}]}},{"__typename":"SocialMediaPost","id":"HnPost-25919006","excerpt":"","slug":"/hn/25919006","title":"Claude Shannon Demonstrates Machine Learning (1952)","date":"January 27, 2021","dateISO":"2021-01-27T04:33:38.969Z","datetime":"2021-01-27 04:33","tags":["story","Hacker News"],"image":null,"imageAlt":null,"provider":"Hacker News","thirdPartyId":"25919006","url":"https://news.ycombinator.com/item?id=25919006","originalUrl":"https://techchannel.att.com/play-video.cfm/2010/3/16/In-Their-Own-Words-Claude-Shannon-Demonstrates-Machine-Learning","imageRemote":null,"video":null,"channel":null,"channelUrl":null,"author":"jchallis","authorUrl":"https://news.ycombinator.com/user?id=jchallis","authorImage":null,"authorSlug":null,"score":161,"views":null,"sharedCount":null,"likeCount":null,"sharedContent":null,"parent":{"__typename":"HnJson","localize":[{"title":"克劳德-香农演示机器学习(1952年)","locale":"zh"},{"title":"克勞德-香農演示機器學習(1952年)","locale":"zh-Hant"}]}},{"__typename":"SocialMediaPost","id":"HnPost-25917927","excerpt":"","slug":"/hn/25917927","title":"We rendered a million web pages to find out what makes the web slow","date":"January 27, 2021","dateISO":"2021-01-27T02:10:27.707Z","datetime":"2021-01-27 02:10","tags":["story","Hacker News"],"image":null,"imageAlt":null,"provider":"Hacker News","thirdPartyId":"25917927","url":"https://news.ycombinator.com/item?id=25917927","originalUrl":"https://catchjs.com/Blog/PerformanceInTheWild","imageRemote":null,"video":null,"channel":null,"channelUrl":null,"author":"simonpure","authorUrl":"https://news.ycombinator.com/user?id=simonpure","authorImage":null,"authorSlug":null,"score":161,"views":null,"sharedCount":null,"likeCount":null,"sharedContent":null,"parent":{"__typename":"HnJson","localize":[{"title":"我们渲染了一百万个网页，找出是什么让网络变慢的原因","locale":"zh"},{"title":"我們渲染了一百萬個網頁，找出是什麼讓網絡變慢的原因","locale":"zh-Hant"}]}},{"__typename":"SocialMediaPost","id":"HnPost-25919235","excerpt":"","slug":"/hn/25919235","title":"Heap-based buffer overflow in Sudo","date":"January 27, 2021","dateISO":"2021-01-27T01:18:02.914Z","datetime":"2021-01-27 01:18","tags":["story","Hacker News"],"image":null,"imageAlt":null,"provider":"Hacker News","thirdPartyId":"25919235","url":"https://news.ycombinator.com/item?id=25919235","originalUrl":"https://www.qualys.com/2021/01/26/cve-2021-3156/baron-samedit-heap-based-overflow-sudo.txt","imageRemote":null,"video":null,"channel":null,"channelUrl":null,"author":"ptype","authorUrl":"https://news.ycombinator.com/user?id=ptype","authorImage":null,"authorSlug":null,"score":179,"views":null,"sharedCount":null,"likeCount":null,"sharedContent":null,"parent":{"__typename":"HnJson","localize":[{"title":"Sudo中基于堆的缓冲区溢出。","locale":"zh"},{"title":"Sudo中基於堆的緩衝區溢出。","locale":"zh-Hant"}]}},{"__typename":"SocialMediaPost","id":"HnPost-25920517","excerpt":"","slug":"/hn/25920517","title":"Nq – a simple Unix job queue system","date":"January 27, 2021","dateISO":"2021-01-27T01:18:02.914Z","datetime":"2021-01-27 01:18","tags":["story","Hacker News"],"image":null,"imageAlt":null,"provider":"Hacker News","thirdPartyId":"25920517","url":"https://news.ycombinator.com/item?id=25920517","originalUrl":"https://github.com/leahneukirchen/nq","imageRemote":"https://avatars.githubusercontent.com/u/139?s=400&v=4","video":null,"channel":null,"channelUrl":null,"author":"unhammer","authorUrl":"https://news.ycombinator.com/user?id=unhammer","authorImage":null,"authorSlug":null,"score":196,"views":null,"sharedCount":null,"likeCount":null,"sharedContent":null,"parent":{"__typename":"HnJson","localize":[{"title":"Nq - 一个简单的Unix作业队列系统。","locale":"zh"},{"title":"Nq - 一個簡單的Unix作業隊列系統。","locale":"zh-Hant"}]}},{"__typename":"SocialMediaPost","id":"HnPost-25902282","excerpt":"","slug":"/hn/25902282","title":"Making is show business now (2020)","date":"January 26, 2021","dateISO":"2021-01-26T23:41:39.672Z","datetime":"2021-01-26 23:41","tags":["story","Hacker News"],"image":null,"imageAlt":null,"provider":"Hacker News","thirdPartyId":"25902282","url":"https://news.ycombinator.com/item?id=25902282","originalUrl":"https://alexdanco.com/2020/10/08/making-is-show-business-now/","imageRemote":"https://alexdanco.files.wordpress.com/2019/10/ttaat-square.png?w=200","video":null,"channel":null,"channelUrl":null,"author":"hgarg","authorUrl":"https://news.ycombinator.com/user?id=hgarg","authorImage":null,"authorSlug":null,"score":166,"views":null,"sharedCount":null,"likeCount":null,"sharedContent":null,"parent":{"__typename":"HnJson","localize":[{"title":"制作是演艺事业的现在（2020年","locale":"zh"},{"title":"製作是演藝事業的現在（2020年","locale":"zh-Hant"}]}},{"__typename":"SocialMediaPost","id":"HnPost-25916646","excerpt":"","slug":"/hn/25916646","title":"Data Visualization and the Modern Imagination","date":"January 26, 2021","dateISO":"2021-01-26T23:07:51.856Z","datetime":"2021-01-26 23:07","tags":["story","Hacker News"],"image":null,"imageAlt":null,"provider":"Hacker News","thirdPartyId":"25916646","url":"https://news.ycombinator.com/item?id=25916646","originalUrl":"https://exhibits.stanford.edu/dataviz/","imageRemote":"https://exhibits.stanford.edu/images/6774/300,0,600,600/400,400/0/default.jpg","video":null,"channel":null,"channelUrl":null,"author":"rasmi","authorUrl":"https://news.ycombinator.com/user?id=rasmi","authorImage":null,"authorSlug":null,"score":160,"views":null,"sharedCount":null,"likeCount":null,"sharedContent":null,"parent":{"__typename":"HnJson","localize":[{"title":"数据可视化与现代想象力","locale":"zh"},{"title":"數據可視化與現代想象力","locale":"zh-Hant"}]}}]}},"pageContext":{"basePath":"/","pageType":"home","tagsFilter":{"id":{"glob":"!*Post-1"}},"filter":{"id":{"glob":"!*Post-1"}},"limit":25,"skip":1825,"totalPages":125,"total":3107,"currentPage":74,"maxWidth":1024,"maxHeight":512,"locale":"zh","hrefLang":"zh-Hans","originalPath":"/page/74","dateFormat":"YYYY-MM-DD"}},"staticQueryHashes":["1239077767","2506312863","2744905544","3025052997","3493603132","3493603132","3513215887","386998304"]}