{"componentChunkName":"component---gatsby-theme-buzzing-src-gatsby-theme-timeline-templates-posts-query-js","path":"/zh-Hant/tags/hacker-news/page/2","result":{"data":{"site":{"siteMetadata":{"title":"Reddit 热门","description":"用中文浏览Reddit热门内容","social":[{"name":"Twitter","url":"https://twitter.com/gatsbyjs","external":null,"prefetch":null},{"name":"GitHub","url":"https://github.com/gatsbyjs","external":null,"prefetch":null}],"menuLinks":[],"localize":[{"locale":"en","title":"Buzzing on Reddit","description":"See what's buzzing on Reddit in your native language","social":[{"name":"Reddit","url":"https://www.reddit.com/","external":true,"prefetch":null}],"menuLinks":[{"name":"Weekly Selection","url":"/issues","external":null,"prefetch":null},{"name":"RSS","url":"/rss.xml","external":null,"prefetch":false}]},{"locale":"zh-Hant","title":"Reddit 熱門","description":"用中文瀏覽Reddit熱門內容","social":null,"menuLinks":null}]}},"tagsGroup":{"group":[{"fieldValue":"ASK HN","totalCount":54},{"fieldValue":"Hacker News","totalCount":3107},{"fieldValue":"Poll","totalCount":1},{"fieldValue":"Show HN","totalCount":100},{"fieldValue":"poll","totalCount":1},{"fieldValue":"story","totalCount":3106}]},"allBlogPost":{"nodes":[{"__typename":"SocialMediaPost","id":"HnPost-26703404","excerpt":"","slug":"/hn/26703404","title":"Legalizing gay marriage in Crusader Kings III with Ghidra","date":"April 06, 2021","dateISO":"2021-04-06T08:06:07.428Z","datetime":"2021-04-06 08:06","tags":["story","Hacker News"],"image":null,"imageAlt":null,"provider":"Hacker News","thirdPartyId":"26703404","url":"https://news.ycombinator.com/item?id=26703404","originalUrl":"https://waffleironer.medium.com/legalizing-gay-marriage-in-crusader-kings-iii-with-ghidra-2602e6aa8689","imageRemote":"https://miro.medium.com/max/1200/1*k3OHqx9OYYBlTp12roYu_Q.png","video":null,"channel":null,"channelUrl":null,"author":"ice3","authorUrl":"https://news.ycombinator.com/user?id=ice3","authorImage":null,"authorSlug":null,"score":310,"views":null,"sharedCount":null,"likeCount":null,"sharedContent":null,"parent":{"__typename":"HnJson","localize":[{"title":"ギドラのいるCrusader Kings IIIでの同性婚の合法化","locale":"ja-JA"},{"title":"在《十字军之王III》中与吉德拉的同性恋婚姻合法化。","locale":"zh"},{"title":"在《十字軍之王III》中與吉德拉的同性戀婚姻合法化。","locale":"zh-Hant"},{"title":"ギドラのいるCrusader Kings IIIでの同性婚の合法化","locale":"ja"}]}},{"__typename":"SocialMediaPost","id":"HnPost-26703491","excerpt":"","slug":"/hn/26703491","title":"Have I Been Facebooked?","date":"April 06, 2021","dateISO":"2021-04-06T08:06:07.428Z","datetime":"2021-04-06 08:06","tags":["story","Hacker News"],"image":null,"imageAlt":null,"provider":"Hacker News","thirdPartyId":"26703491","url":"https://news.ycombinator.com/item?id=26703491","originalUrl":"https://haveibeenfacebooked.com/","imageRemote":null,"video":null,"channel":null,"channelUrl":null,"author":"mendelmaleh","authorUrl":"https://news.ycombinator.com/user?id=mendelmaleh","authorImage":null,"authorSlug":null,"score":231,"views":null,"sharedCount":null,"likeCount":null,"sharedContent":null,"parent":{"__typename":"HnJson","localize":[{"title":"Have I Been Facebooked?","locale":"ja-JA"},{"title":"我被脸谱网收录了吗？","locale":"zh"},{"title":"我被臉譜網收錄了嗎？","locale":"zh-Hant"},{"title":"Have I Been Facebooked?","locale":"ja"}]}},{"__typename":"SocialMediaPost","id":"HnPost-26705218","excerpt":"","slug":"/hn/26705218","title":"Clubhouse Payments","date":"April 06, 2021","dateISO":"2021-04-06T08:06:07.428Z","datetime":"2021-04-06 08:06","tags":["story","Hacker News"],"image":null,"imageAlt":null,"provider":"Hacker News","thirdPartyId":"26705218","url":"https://news.ycombinator.com/item?id=26705218","originalUrl":"https://www.joinclubhouse.com/introducing-payments","imageRemote":"https://www.joinclubhouse.com/static/img/full_tn.2c52415a6353.png","video":null,"channel":null,"channelUrl":null,"author":"tosh","authorUrl":"https://news.ycombinator.com/user?id=tosh","authorImage":null,"authorSlug":null,"score":156,"views":null,"sharedCount":null,"likeCount":null,"sharedContent":null,"parent":{"__typename":"HnJson","localize":[{"title":"クラブハウスの支払い","locale":"ja-JA"},{"title":"会所付款","locale":"zh"},{"title":"會所付款","locale":"zh-Hant"},{"title":"クラブハウスの支払い","locale":"ja"}]}},{"__typename":"SocialMediaPost","id":"HnPost-26705475","excerpt":"","slug":"/hn/26705475","title":"Why America's prisons are an unconstitutional moral horror (2019)","date":"April 06, 2021","dateISO":"2021-04-06T08:06:07.428Z","datetime":"2021-04-06 08:06","tags":["story","Hacker News"],"image":null,"imageAlt":null,"provider":"Hacker News","thirdPartyId":"26705475","url":"https://news.ycombinator.com/item?id=26705475","originalUrl":"https://www.mcall.com/opinion/mc-opi-prison-reform-morality-unconstitutional-20190101-story.html","imageRemote":"https://www.mcall.com/resizer/TocWjtaTUwz_Y9W7CJm1T2MyB0U=/1200x0/top/arc-anglerfish-arc2-prod-tronc.s3.amazonaws.com/public/K5JZGGRR3VGYNHX6AGEYINT7J4.jpg","video":null,"channel":null,"channelUrl":null,"author":"dan-robertson","authorUrl":"https://news.ycombinator.com/user?id=dan-robertson","authorImage":null,"authorSlug":null,"score":260,"views":null,"sharedCount":null,"likeCount":null,"sharedContent":null,"parent":{"__typename":"HnJson","localize":[{"title":"アメリカの刑務所が違憲の道徳的恐怖である理由（2019年版","locale":"ja-JA"},{"title":"为什么美国的监狱是一种违宪的道德恐怖(2019)","locale":"zh"},{"title":"爲什麼美國的監獄是一種違憲的道德恐怖(2019)","locale":"zh-Hant"},{"title":"アメリカの刑務所が違憲の道徳的恐怖である理由（2019年版","locale":"ja"}]}},{"__typename":"SocialMediaPost","id":"HnPost-26706281","excerpt":"","slug":"/hn/26706281","title":"Google will stop using Oracle’s finance software and adopt SAP instead","date":"April 06, 2021","dateISO":"2021-04-06T08:06:07.428Z","datetime":"2021-04-06 08:06","tags":["story","Hacker News"],"image":null,"imageAlt":null,"provider":"Hacker News","thirdPartyId":"26706281","url":"https://news.ycombinator.com/item?id=26706281","originalUrl":"https://www.cnbc.com/2021/04/05/google-will-stop-using-oracle-finance-software-switch-to-sap.html","imageRemote":"https://image.cnbcfm.com/api/v1/image/106332092-1617655374515-abell.jpg?v=1617655409","video":null,"channel":null,"channelUrl":null,"author":"Ice_cream_suit","authorUrl":"https://news.ycombinator.com/user?id=Ice_cream_suit","authorImage":null,"authorSlug":null,"score":154,"views":null,"sharedCount":null,"likeCount":null,"sharedContent":null,"parent":{"__typename":"HnJson","localize":[{"title":"グーグルはオラクルの財務ソフトウェアの使用をやめ、代わりにSAPを採用する。","locale":"ja-JA"},{"title":"谷歌将停止使用甲骨文的财务软件，改用SAP。","locale":"zh"},{"title":"谷歌將停止使用甲骨文的財務軟件，改用SAP。","locale":"zh-Hant"},{"title":"グーグルはオラクルの財務ソフトウェアの使用をやめ、代わりにSAPを採用する。","locale":"ja"}]}},{"__typename":"SocialMediaPost","id":"HnPost-26708148","excerpt":"","slug":"/hn/26708148","title":"AWS bill capping feature request thread still unanswered after 10 years","date":"April 06, 2021","dateISO":"2021-04-06T08:06:07.428Z","datetime":"2021-04-06 08:06","tags":["story","Hacker News"],"image":null,"imageAlt":null,"provider":"Hacker News","thirdPartyId":"26708148","url":"https://news.ycombinator.com/item?id=26708148","originalUrl":"https://forums.aws.amazon.com/thread.jspa?threadID=58127&start=50&tstart=0","imageRemote":null,"video":null,"channel":null,"channelUrl":null,"author":"shikkra","authorUrl":"https://news.ycombinator.com/user?id=shikkra","authorImage":null,"authorSlug":null,"score":249,"views":null,"sharedCount":null,"likeCount":null,"sharedContent":null,"parent":{"__typename":"HnJson","localize":[{"title":"AWSビルキャッピング機能のリクエストスレッドは、10年経っても回答がありません。","locale":"ja-JA"},{"title":"AWS法案封顶功能请求线程10年后仍无人响应","locale":"zh"},{"title":"AWS法案封頂功能請求線程10年後仍無人響應","locale":"zh-Hant"},{"title":"AWSビルキャッピング機能のリクエストスレッドは、10年経っても回答がありません。","locale":"ja"}]}},{"__typename":"SocialMediaPost","id":"HnPost-26692308","excerpt":"","slug":"/hn/26692308","title":"The Lost Apps of the 80s","date":"April 05, 2021","dateISO":"2021-04-05T19:45:43.502Z","datetime":"2021-04-05 19:45","tags":["story","Hacker News"],"image":null,"imageAlt":null,"provider":"Hacker News","thirdPartyId":"26692308","url":"https://news.ycombinator.com/item?id=26692308","originalUrl":"http://scripting.com/2021/04/04/174604.html?title=theLostAppsOfThe80s","imageRemote":"http://scripting.com/images/2021/04/04/byteCoverLaptops.png","video":null,"channel":null,"channelUrl":null,"author":"ingve","authorUrl":"https://news.ycombinator.com/user?id=ingve","authorImage":null,"authorSlug":null,"score":140,"views":null,"sharedCount":null,"likeCount":null,"sharedContent":null,"parent":{"__typename":"HnJson","localize":[{"title":"80年代失落的应用程序","locale":"zh"},{"title":"80年代失落的應用程序","locale":"zh-Hant"},{"title":"80年代の失われたアプリ","locale":"ja-JA"},{"title":"80年代の失われたアプリ","locale":"ja"}]}},{"__typename":"SocialMediaPost","id":"HnPost-26693695","excerpt":"","slug":"/hn/26693695","title":"WebOS OSE 2.10","date":"April 05, 2021","dateISO":"2021-04-05T19:45:43.502Z","datetime":"2021-04-05 19:45","tags":["story","Hacker News"],"image":null,"imageAlt":null,"provider":"Hacker News","thirdPartyId":"26693695","url":"https://news.ycombinator.com/item?id=26693695","originalUrl":"https://www.webosose.org/blog/2021/04/02/webos-ose-2-10-0-release/","imageRemote":"https://www.webosose.org/images/webOS_OSE_logo.jpg","video":null,"channel":null,"channelUrl":null,"author":"shiningrock","authorUrl":"https://news.ycombinator.com/user?id=shiningrock","authorImage":null,"authorSlug":null,"score":140,"views":null,"sharedCount":null,"likeCount":null,"sharedContent":null,"parent":{"__typename":"HnJson","localize":[{"title":"WebOS OSE 2.10","locale":"zh"},{"title":"WebOS OSE 2.10","locale":"zh-Hant"},{"title":"WebOS OSE 2.10","locale":"ja-JA"},{"title":"WebOS OSE 2.10","locale":"ja"}]}},{"__typename":"SocialMediaPost","id":"HnPost-26697892","excerpt":"","slug":"/hn/26697892","title":"Predictive coding has been unified with backpropagation","date":"April 05, 2021","dateISO":"2021-04-05T18:44:49.122Z","datetime":"2021-04-05 18:44","tags":["story","Hacker News"],"image":null,"imageAlt":null,"provider":"Hacker News","thirdPartyId":"26697892","url":"https://news.ycombinator.com/item?id=26697892","originalUrl":"https://www.lesswrong.com/posts/JZZENevaLzLLeC3zn/predictive-coding-has-been-unified-with-backpropagation","imageRemote":"https://s3-us-west-2.amazonaws.com/www.lsusr.com/lesswrong/predictive-coding-approximates-backprop/neuron-anatomy.png","video":null,"channel":null,"channelUrl":null,"author":"cabalamat","authorUrl":"https://news.ycombinator.com/user?id=cabalamat","authorImage":null,"authorSlug":null,"score":152,"views":null,"sharedCount":null,"likeCount":null,"sharedContent":null,"parent":{"__typename":"HnJson","localize":[{"title":"预测性编码已与反向传播统一起来","locale":"zh"},{"title":"預測性編碼已與反向傳播統一起來","locale":"zh-Hant"},{"title":"予測符号化はバックプロパゲーションに統一されています。","locale":"ja-JA"},{"title":"予測符号化はバックプロパゲーションに統一されています。","locale":"ja"}]}},{"__typename":"SocialMediaPost","id":"HnPost-26699466","excerpt":"","slug":"/hn/26699466","title":"We sampled tap water across the US – and found arsenic, lead and toxic chemicals","date":"April 05, 2021","dateISO":"2021-04-05T18:44:49.122Z","datetime":"2021-04-05 18:44","tags":["story","Hacker News"],"image":null,"imageAlt":null,"provider":"Hacker News","thirdPartyId":"26699466","url":"https://news.ycombinator.com/item?id=26699466","originalUrl":"https://www.theguardian.com/us-news/2021/mar/31/americas-tap-water-samples-forever-chemicals","imageRemote":"https://i.guim.co.uk/img/media/ef5c4cae6bde778e5c4f932a02693a543d3e1da9/42_0_2308_1385/master/2308.jpg?width=1200&height=630&quality=85&auto=format&fit=crop&overlay-align=bottom%2Cleft&overlay-width=100p&overlay-base64=L2ltZy9zdGF0aWMvb3ZlcmxheXMvdGctZGVmYXVsdC5wbmc&enable=upscale&s=f35db40eafd5630b41f9e251deeea906","video":null,"channel":null,"channelUrl":null,"author":"yellowyacht","authorUrl":"https://news.ycombinator.com/user?id=yellowyacht","authorImage":null,"authorSlug":null,"score":146,"views":null,"sharedCount":null,"likeCount":null,"sharedContent":null,"parent":{"__typename":"HnJson","localize":[{"title":"我们对美国各地的自来水进行了抽样调查，发现了砷、铅和有毒化学物质。","locale":"zh"},{"title":"我們對美國各地的自來水進行了抽樣調查，發現了砷、鉛和有毒化學物質。","locale":"zh-Hant"},{"title":"全米の水道水を採取したところ、ヒ素、鉛、有害化学物質が検出されました。","locale":"ja-JA"},{"title":"全米の水道水を採取したところ、ヒ素、鉛、有害化学物質が検出されました。","locale":"ja"}]}},{"__typename":"SocialMediaPost","id":"HnPost-26700562","excerpt":"","slug":"/hn/26700562","title":"Uber ordered to pay $1.1M to blind woman refused rides","date":"April 05, 2021","dateISO":"2021-04-05T18:44:49.122Z","datetime":"2021-04-05 18:44","tags":["story","Hacker News"],"image":null,"imageAlt":null,"provider":"Hacker News","thirdPartyId":"26700562","url":"https://news.ycombinator.com/item?id=26700562","originalUrl":"https://www.bbc.com/news/technology-56583428","imageRemote":"https://ichef.bbci.co.uk/news/1024/branded_news/13C6/production/_117826050_gettyimages-1231264333.jpg","video":null,"channel":null,"channelUrl":null,"author":"choppaface","authorUrl":"https://news.ycombinator.com/user?id=choppaface","authorImage":null,"authorSlug":null,"score":151,"views":null,"sharedCount":null,"likeCount":null,"sharedContent":null,"parent":{"__typename":"HnJson","localize":[{"title":"Uber被判向被拒乘的失明女子支付110万美金","locale":"zh"},{"title":"Uber被判向被拒乘的失明女子支付110萬美金","locale":"zh-Hant"},{"title":"Uber、乗車拒否された盲目の女性に110万ドルの支払いを命じる","locale":"ja-JA"},{"title":"Uber、乗車拒否された盲目の女性に110万ドルの支払いを命じる","locale":"ja"}]}},{"__typename":"SocialMediaPost","id":"HnPost-26697227","excerpt":"","slug":"/hn/26697227","title":"When Feynman met Dirac (2020)","date":"April 05, 2021","dateISO":"2021-04-05T18:03:08.914Z","datetime":"2021-04-05 18:03","tags":["story","Hacker News"],"image":null,"imageAlt":null,"provider":"Hacker News","thirdPartyId":"26697227","url":"https://news.ycombinator.com/item?id=26697227","originalUrl":"https://www.cantorsparadise.com/when-feynman-met-dirac-fe9cca0006df","imageRemote":"https://miro.medium.com/max/1200/1*FLQK8PM6X_Gs1iJWk-Zc3Q.png","video":null,"channel":null,"channelUrl":null,"author":"jorgenveisdal","authorUrl":"https://news.ycombinator.com/user?id=jorgenveisdal","authorImage":null,"authorSlug":null,"score":145,"views":null,"sharedCount":null,"likeCount":null,"sharedContent":null,"parent":{"__typename":"HnJson","localize":[{"title":"当费曼遇到狄拉克(2020年)","locale":"zh"},{"title":"當費曼遇到狄拉克(2020年)","locale":"zh-Hant"},{"title":"ファインマンとディラックの出会い(2020年)","locale":"ja-JA"},{"title":"ファインマンとディラックの出会い(2020年)","locale":"ja"}]}},{"__typename":"SocialMediaPost","id":"HnPost-26700319","excerpt":"","slug":"/hn/26700319","title":"Writing tools I learned from The Economist","date":"April 05, 2021","dateISO":"2021-04-05T18:03:08.914Z","datetime":"2021-04-05 18:03","tags":["story","Hacker News"],"image":null,"imageAlt":null,"provider":"Hacker News","thirdPartyId":"26700319","url":"https://news.ycombinator.com/item?id=26700319","originalUrl":"https://builtbywords.substack.com/p/writing-tools-i-learned-from-the","imageRemote":"https://cdn.substack.com/image/fetch/w_1200,c_limit,f_jpg,q_auto:good,fl_progressive:steep/https%3A%2F%2Fbucketeer-e05bbc84-baa3-437e-9518-adb32be77984.s3.amazonaws.com%2Fpublic%2Fimages%2F20743b61-07c0-48b8-86a9-c52b20c2cac6_2016x1512.jpeg","video":null,"channel":null,"channelUrl":null,"author":"ahsoli","authorUrl":"https://news.ycombinator.com/user?id=ahsoli","authorImage":null,"authorSlug":null,"score":174,"views":null,"sharedCount":null,"likeCount":null,"sharedContent":null,"parent":{"__typename":"HnJson","localize":[{"title":"我从《经济学人》中学到的写作工具","locale":"zh"},{"title":"我從《經濟學人》中學到的寫作工具","locale":"zh-Hant"},{"title":"The Economistから学んだライティングツール","locale":"ja-JA"},{"title":"The Economistから学んだライティングツール","locale":"ja"}]}},{"__typename":"SocialMediaPost","id":"HnPost-26696396","excerpt":"","slug":"/hn/26696396","title":"How Netflix is creating a common European culture","date":"April 05, 2021","dateISO":"2021-04-05T17:14:26.412Z","datetime":"2021-04-05 17:14","tags":["story","Hacker News"],"image":null,"imageAlt":null,"provider":"Hacker News","thirdPartyId":"26696396","url":"https://news.ycombinator.com/item?id=26696396","originalUrl":"https://www.economist.com/europe/2021/03/31/how-netflix-is-creating-a-common-european-culture","imageRemote":"https://www.economist.com/img/b/1280/720/90/sites/default/files/images/print-edition/20210403_EUD000_0.jpg","video":null,"channel":null,"channelUrl":null,"author":"doener","authorUrl":"https://news.ycombinator.com/user?id=doener","authorImage":null,"authorSlug":null,"score":159,"views":null,"sharedCount":null,"likeCount":null,"sharedContent":null,"parent":{"__typename":"HnJson","localize":[{"title":"Netflix如何打造欧洲共同文化？","locale":"zh"},{"title":"Netflix如何打造歐洲共同文化？","locale":"zh-Hant"},{"title":"Netflixはどのようにしてヨーロッパの共通文化を生み出しているのか","locale":"ja-JA"},{"title":"Netflixはどのようにしてヨーロッパの共通文化を生み出しているのか","locale":"ja"}]}},{"__typename":"SocialMediaPost","id":"HnPost-26696876","excerpt":"","slug":"/hn/26696876","title":"Backblaze Hard Drive Stats","date":"April 05, 2021","dateISO":"2021-04-05T17:14:26.412Z","datetime":"2021-04-05 17:14","tags":["story","Hacker News"],"image":null,"imageAlt":null,"provider":"Hacker News","thirdPartyId":"26696876","url":"https://news.ycombinator.com/item?id=26696876","originalUrl":"https://www.backblaze.com/b2/hard-drive-test-data.html","imageRemote":"https://www.backblaze.com/pics/backblaze-logo.gif","video":null,"channel":null,"channelUrl":null,"author":"Labo333","authorUrl":"https://news.ycombinator.com/user?id=Labo333","authorImage":null,"authorSlug":null,"score":144,"views":null,"sharedCount":null,"likeCount":null,"sharedContent":null,"parent":{"__typename":"HnJson","localize":[{"title":"Backblaze硬盘统计","locale":"zh"},{"title":"Backblaze硬盤統計","locale":"zh-Hant"},{"title":"Backblazeハードドライブの統計","locale":"ja-JA"},{"title":"Backblazeハードドライブの統計","locale":"ja"}]}},{"__typename":"SocialMediaPost","id":"HnPost-26697354","excerpt":"","slug":"/hn/26697354","title":"Soviet TV version of Lord of the Rings rediscovered after 30 years","date":"April 05, 2021","dateISO":"2021-04-05T16:14:58.760Z","datetime":"2021-04-05 16:14","tags":["story","Hacker News"],"image":null,"imageAlt":null,"provider":"Hacker News","thirdPartyId":"26697354","url":"https://news.ycombinator.com/item?id=26697354","originalUrl":"https://www.theguardian.com/world/2021/apr/05/soviet-tv-version-lord-of-the-rings-rediscovered-after-30-years","imageRemote":"https://i.guim.co.uk/img/media/a8d82ef82f725a980fd4147e21a3c97595853a2e/64_45_2472_1483/master/2472.jpg?width=1200&height=630&quality=85&auto=format&fit=crop&overlay-align=bottom%2Cleft&overlay-width=100p&overlay-base64=L2ltZy9zdGF0aWMvb3ZlcmxheXMvdGctZGVmYXVsdC5wbmc&enable=upscale&s=5acfb4dd0131363df4ef791444579252","video":null,"channel":null,"channelUrl":null,"author":"samizdis","authorUrl":"https://news.ycombinator.com/user?id=samizdis","authorImage":null,"authorSlug":null,"score":140,"views":null,"sharedCount":null,"likeCount":null,"sharedContent":null,"parent":{"__typename":"HnJson","localize":[{"title":"苏联电视版《指环王》30年后被重新发现","locale":"zh"},{"title":"蘇聯電視版《指環王》30年後被重新發現","locale":"zh-Hant"},{"title":"ソ連のテレビ版「ロード・オブ・ザ・リング」が30年ぶりに再発見される","locale":"ja-JA"},{"title":"ソ連のテレビ版「ロード・オブ・ザ・リング」が30年ぶりに再発見される","locale":"ja"}]}},{"__typename":"SocialMediaPost","id":"HnPost-26688142","excerpt":"","slug":"/hn/26688142","title":"Butterick’s Practical Typography 2º Edition","date":"April 05, 2021","dateISO":"2021-04-05T15:30:00.229Z","datetime":"2021-04-05 15:30","tags":["story","Hacker News"],"image":null,"imageAlt":null,"provider":"Hacker News","thirdPartyId":"26688142","url":"https://news.ycombinator.com/item?id=26688142","originalUrl":"https://practicaltypography.com/","imageRemote":"https://practicaltypography.com/images/shadow-a.gif","video":null,"channel":null,"channelUrl":null,"author":"ruifigueiredo","authorUrl":"https://news.ycombinator.com/user?id=ruifigueiredo","authorImage":null,"authorSlug":null,"score":142,"views":null,"sharedCount":null,"likeCount":null,"sharedContent":null,"parent":{"__typename":"HnJson","localize":[{"title":"Butterick的实用排版2º版","locale":"zh"},{"title":"Butterick的實用排版2º版","locale":"zh-Hant"},{"title":"Butterick's Practical Typography 2º Edition（バターリックの実用的なタイポグラフィ","locale":"ja-JA"},{"title":"Butterick's Practical Typography 2º Edition（バターリックの実用的なタイポグラフィ","locale":"ja"}]}},{"__typename":"SocialMediaPost","id":"HnPost-26695976","excerpt":"","slug":"/hn/26695976","title":"Are Deep Neural Networks Dramatically Overfitted? (2019)","date":"April 05, 2021","dateISO":"2021-04-05T15:30:00.229Z","datetime":"2021-04-05 15:30","tags":["story","Hacker News"],"image":null,"imageAlt":null,"provider":"Hacker News","thirdPartyId":"26695976","url":"https://news.ycombinator.com/item?id=26695976","originalUrl":"https://lilianweng.github.io/lil-log/2019/03/14/are-deep-neural-networks-dramatically-overfitted.html","imageRemote":"https://lilianweng.github.io/lil-log/assets/images/nn-expressivity-proof.png","video":null,"channel":null,"channelUrl":null,"author":"troyappel","authorUrl":"https://news.ycombinator.com/user?id=troyappel","authorImage":null,"authorSlug":null,"score":144,"views":null,"sharedCount":null,"likeCount":null,"sharedContent":null,"parent":{"__typename":"HnJson","localize":[{"title":"深度神经网络是否大幅超配？(2019)","locale":"zh"},{"title":"深度神經網絡是否大幅超配？(2019)","locale":"zh-Hant"},{"title":"ディープニューラルネットワークは劇的にオーバーフィットするか？(2019)","locale":"ja-JA"},{"title":"ディープニューラルネットワークは劇的にオーバーフィットするか？(2019)","locale":"ja"}]}},{"__typename":"SocialMediaPost","id":"HnPost-26697325","excerpt":"","slug":"/hn/26697325","title":"Amazon Illegally Fired Activist Workers, Labor Board Finds","date":"April 05, 2021","dateISO":"2021-04-05T14:43:48.315Z","datetime":"2021-04-05 14:43","tags":["story","Hacker News"],"image":null,"imageAlt":null,"provider":"Hacker News","thirdPartyId":"26697325","url":"https://news.ycombinator.com/item?id=26697325","originalUrl":"https://www.nytimes.com/2021/04/05/technology/amazon-nlrb-activist-workers.html","imageRemote":"https://static01.nyt.com/images/2021/04/05/business/05amazonworkers/05amazonworkers-facebookJumbo.jpg","video":null,"channel":null,"channelUrl":null,"author":"pseudolus","authorUrl":"https://news.ycombinator.com/user?id=pseudolus","authorImage":null,"authorSlug":null,"score":155,"views":null,"sharedCount":null,"likeCount":null,"sharedContent":null,"parent":{"__typename":"HnJson","localize":[{"title":"劳工委员会发现，亚马逊非法解雇积极分子工人。","locale":"zh"},{"title":"勞工委員會發現，亞馬遜非法解僱積極分子工人。","locale":"zh-Hant"},{"title":"アマゾンが活動家の労働者を違法に解雇したと労働委員会が認定","locale":"ja-JA"},{"title":"アマゾンが活動家の労働者を違法に解雇したと労働委員会が認定","locale":"ja"}]}},{"__typename":"SocialMediaPost","id":"HnPost-26699106","excerpt":"","slug":"/hn/26699106","title":"Google’s copying of the Java SE API was fair use [pdf]","date":"April 05, 2021","dateISO":"2021-04-05T14:26:25.994Z","datetime":"2021-04-05 14:26","tags":["story","Hacker News"],"image":null,"imageAlt":null,"provider":"Hacker News","thirdPartyId":"26699106","url":"https://news.ycombinator.com/item?id=26699106","originalUrl":"https://www.supremecourt.gov/opinions/20pdf/18-956_d18f.pdf","imageRemote":null,"video":null,"channel":null,"channelUrl":null,"author":"pdoconnell","authorUrl":"https://news.ycombinator.com/user?id=pdoconnell","authorImage":null,"authorSlug":null,"score":249,"views":null,"sharedCount":null,"likeCount":null,"sharedContent":null,"parent":{"__typename":"HnJson","localize":[{"title":"谷歌抄袭Java SE API是合理使用 [pdf] 。","locale":"zh"},{"title":"谷歌抄襲Java SE API是合理使用 [pdf] 。","locale":"zh-Hant"},{"title":"グーグルによるJava SE APIのコピーはフェアユース[pdf]。","locale":"ja-JA"},{"title":"グーグルによるJava SE APIのコピーはフェアユース[pdf]。","locale":"ja"}]}},{"__typename":"SocialMediaPost","id":"HnPost-26686926","excerpt":"","slug":"/hn/26686926","title":"PostGIS – Spatial and Geographic Objects for PostgreSQL","date":"April 05, 2021","dateISO":"2021-04-05T13:00:00.088Z","datetime":"2021-04-05 13:00","tags":["story","Hacker News"],"image":null,"imageAlt":null,"provider":"Hacker News","thirdPartyId":"26686926","url":"https://news.ycombinator.com/item?id=26686926","originalUrl":"https://postgis.net/","imageRemote":"https://postgis.net/images/logo-osgeo.svg","video":null,"channel":null,"channelUrl":null,"author":"pabs3","authorUrl":"https://news.ycombinator.com/user?id=pabs3","authorImage":null,"authorSlug":null,"score":145,"views":null,"sharedCount":null,"likeCount":null,"sharedContent":null,"parent":{"__typename":"HnJson","localize":[{"title":"PostGIS - PostgreSQL的空间和地理对象。","locale":"zh"},{"title":"PostGIS - PostgreSQL的空間和地理對象。","locale":"zh-Hant"},{"title":"PostGIS - PostgreSQLのための空間および地理的オブジェクト","locale":"ja-JA"},{"title":"PostGIS - PostgreSQLのための空間および地理的オブジェクト","locale":"ja"}]}},{"__typename":"SocialMediaPost","id":"HnPost-26695608","excerpt":"","slug":"/hn/26695608","title":"Cesium for Unreal Now Available","date":"April 05, 2021","dateISO":"2021-04-05T13:00:00.088Z","datetime":"2021-04-05 13:00","tags":["story","Hacker News"],"image":null,"imageAlt":null,"provider":"Hacker News","thirdPartyId":"26695608","url":"https://news.ycombinator.com/item?id=26695608","originalUrl":"https://cesium.com/blog/2021/03/30/cesium-for-unreal-now-available/","imageRemote":"https://images.prismic.io/cesium/a3f79ae9-3878-47b7-bb88-7c578c188e36_unreal-mannequin-flowers.jpg?auto=compress,format","video":null,"channel":null,"channelUrl":null,"author":"kylebarron","authorUrl":"https://news.ycombinator.com/user?id=kylebarron","authorImage":null,"authorSlug":null,"score":140,"views":null,"sharedCount":null,"likeCount":null,"sharedContent":null,"parent":{"__typename":"HnJson","localize":[{"title":"Cesium for Unreal现已上市","locale":"zh"},{"title":"Cesium for Unreal現已上市","locale":"zh-Hant"},{"title":"Cesium for Unrealが登場","locale":"ja-JA"},{"title":"Cesium for Unrealが登場","locale":"ja"}]}},{"__typename":"SocialMediaPost","id":"HnPost-26697269","excerpt":"","slug":"/hn/26697269","title":"Netflix Made Record Profits in 2020, Paid a Tax Rate of Less Than 1 Percent","date":"April 05, 2021","dateISO":"2021-04-05T11:55:59.349Z","datetime":"2021-04-05 11:55","tags":["story","Hacker News"],"image":null,"imageAlt":null,"provider":"Hacker News","thirdPartyId":"26697269","url":"https://news.ycombinator.com/item?id=26697269","originalUrl":"https://itep.org/pandemic-profits-netflix-made-record-profits-in-2020-paid-a-tax-rate-of-less-than-1-percent/","imageRemote":"https://itep.sfo2.digitaloceanspaces.com/CORPORATE-TAX-AVOIDANCE_NETFLIX.jpg","video":null,"channel":null,"channelUrl":null,"author":"lurtbancaster","authorUrl":"https://news.ycombinator.com/user?id=lurtbancaster","authorImage":null,"authorSlug":null,"score":141,"views":null,"sharedCount":null,"likeCount":null,"sharedContent":null,"parent":{"__typename":"HnJson","localize":[{"title":"2020年Netflix获利创纪录，缴税率不到1%。","locale":"zh"},{"title":"2020年Netflix獲利創紀錄，繳稅率不到1%。","locale":"zh-Hant"},{"title":"Netflixは2020年に記録的な利益を上げ、1％以下の税率で納税した","locale":"ja-JA"},{"title":"Netflixは2020年に記録的な利益を上げ、1％以下の税率で納税した","locale":"ja"}]}},{"__typename":"SocialMediaPost","id":"HnPost-26693959","excerpt":"","slug":"/hn/26693959","title":"Ask HN: What novel tools are you using to write web sites/apps?","date":"April 05, 2021","dateISO":"2021-04-05T10:41:43.389Z","datetime":"2021-04-05 10:41","tags":["story","ASK HN","Hacker News"],"image":null,"imageAlt":null,"provider":"Hacker News","thirdPartyId":"26693959","url":"https://news.ycombinator.com/item?id=26693959","originalUrl":"https://news.ycombinator.com/item?id=26693959","imageRemote":null,"video":null,"channel":"ASK HN","channelUrl":"https://news.ycombinator.com/ask","author":"yawn","authorUrl":"https://news.ycombinator.com/user?id=yawn","authorImage":null,"authorSlug":null,"score":152,"views":null,"sharedCount":null,"likeCount":null,"sharedContent":null,"parent":{"__typename":"HnJson","localize":[{"title":"问HN：你用什么新颖的工具来写网站/应用？","locale":"zh"},{"title":"問HN：你用什麼新穎的工具來寫網站/應用？","locale":"zh-Hant"},{"title":"Ask HN: Webサイトやアプリを書くのにどんな斬新なツールを使っていますか？","locale":"ja-JA"},{"title":"Ask HN: Webサイトやアプリを書くのにどんな斬新なツールを使っていますか？","locale":"ja"}]}},{"__typename":"SocialMediaPost","id":"HnPost-26693909","excerpt":"","slug":"/hn/26693909","title":"How did Microsoft make Flight Simulator seem so real?","date":"April 05, 2021","dateISO":"2021-04-05T07:43:15.128Z","datetime":"2021-04-05 07:43","tags":["story","Hacker News"],"image":null,"imageAlt":null,"provider":"Hacker News","thirdPartyId":"26693909","url":"https://news.ycombinator.com/item?id=26693909","originalUrl":"https://www.airspacemag.com/flight-today/flight-box-180977303/","imageRemote":"https://thumbs-prod.si-cdn.com/Irkguv_rdjxd_qQuCEhy_HTJeG4=/fit-in/1600x0/https://public-media.si-cdn.com/filer/16/e4/16e4a2e2-e197-4d86-86b6-ab77eed61278/04c_am2021_viewfrombiplanecockpit_live.jpg","video":null,"channel":null,"channelUrl":null,"author":"rbanffy","authorUrl":"https://news.ycombinator.com/user?id=rbanffy","authorImage":null,"authorSlug":null,"score":140,"views":null,"sharedCount":null,"likeCount":null,"sharedContent":null,"parent":{"__typename":"HnJson","localize":[{"title":"微软是如何让《飞行模拟器》看起来如此真实的？","locale":"zh"},{"title":"微軟是如何讓《飛行模擬器》看起來如此真實的？","locale":"zh-Hant"},{"title":"マイクロソフトはどのようにして「フライトシミュレーター」をリアルなものにしたのか？","locale":"ja-JA"},{"title":"マイクロソフトはどのようにして「フライトシミュレーター」をリアルなものにしたのか？","locale":"ja"}]}}]}},"pageContext":{"basePath":"/","pageType":"tag","tag":"Hacker News","tagsFilter":{"id":{"glob":"!*Post-1"}},"filter":{"id":{"glob":"!*Post-1"},"tags":{"eq":"Hacker News"}},"limit":25,"skip":25,"total":3107,"totalPages":125,"currentPage":2,"maxWidth":1024,"maxHeight":512,"locale":"zh-Hant","hrefLang":"zh-Hant","originalPath":"/tags/hacker-news/page/2","dateFormat":"YYYY-MM-DD"}},"staticQueryHashes":["1239077767","2506312863","2744905544","3025052997","3493603132","3493603132","3513215887","386998304"]}