{"componentChunkName":"component---gatsby-theme-buzzing-src-gatsby-theme-timeline-templates-posts-query-js","path":"/tags/hacker-news/page/36","result":{"data":{"site":{"siteMetadata":{"title":"Reddit 热门","description":"用中文浏览Reddit热门内容","social":[{"name":"Twitter","url":"https://twitter.com/gatsbyjs","external":null,"prefetch":null},{"name":"GitHub","url":"https://github.com/gatsbyjs","external":null,"prefetch":null}],"menuLinks":[],"localize":[{"locale":"en","title":"Buzzing on Reddit","description":"See what's buzzing on Reddit in your native language","social":[{"name":"Reddit","url":"https://www.reddit.com/","external":true,"prefetch":null}],"menuLinks":[{"name":"Weekly Selection","url":"/issues","external":null,"prefetch":null},{"name":"RSS","url":"/rss.xml","external":null,"prefetch":false}]},{"locale":"zh-Hant","title":"Reddit 熱門","description":"用中文瀏覽Reddit熱門內容","social":null,"menuLinks":null}]}},"tagsGroup":{"group":[{"fieldValue":"ASK HN","totalCount":44},{"fieldValue":"Bitcoin","totalCount":4},{"fieldValue":"Hacker News","totalCount":2600},{"fieldValue":"Poll","totalCount":1},{"fieldValue":"SaveAMC","totalCount":1},{"fieldValue":"Show HN","totalCount":89},{"fieldValue":"bitcoin","totalCount":3},{"fieldValue":"investing","totalCount":797},{"fieldValue":"poll","totalCount":1},{"fieldValue":"reddit","totalCount":4938},{"fieldValue":"science","totalCount":1},{"fieldValue":"stocks","totalCount":1592},{"fieldValue":"story","totalCount":2599},{"fieldValue":"tweet","totalCount":814},{"fieldValue":"wallstreetbets","totalCount":2549}]},"allBlogPost":{"nodes":[{"__typename":"SocialMediaPost","id":"HnPost-26123576","excerpt":"","slug":"/hn/26123576","title":"OpenStreetMap in Realtime","date":"February 13, 2021","dateISO":"2021-02-13T19:16:49.287Z","datetime":"2021-02-13 19:16","tags":["story","Hacker News"],"image":null,"imageAlt":null,"provider":"Hacker News","thirdPartyId":"26123576","url":"https://news.ycombinator.com/item?id=26123576","originalUrl":"https://osm-in-realtime.jwestman.net/","imageRemote":null,"video":null,"channel":null,"channelUrl":null,"author":"grey_earthling","authorUrl":"https://news.ycombinator.com/user?id=grey_earthling","authorImage":null,"authorSlug":null,"score":333,"views":null,"sharedCount":null,"likeCount":null,"sharedContent":null,"parent":{"__typename":"HnJson","localize":[{"title":"实时的OpenStreetMap","locale":"zh"},{"title":"實時的OpenStreetMap","locale":"zh-Hant"}]}},{"__typename":"SocialMediaPost","id":"HnPost-26121592","excerpt":"","slug":"/hn/26121592","title":"Alternative Shells","date":"February 13, 2021","dateISO":"2021-02-13T18:50:51.557Z","datetime":"2021-02-13 18:50","tags":["story","Hacker News"],"image":null,"imageAlt":null,"provider":"Hacker News","thirdPartyId":"26121592","url":"https://news.ycombinator.com/item?id=26121592","originalUrl":"https://github.com/oilshell/oil/wiki/Alternative-Shells","imageRemote":"https://avatars.githubusercontent.com/u/23484962?s=400&v=4","video":null,"channel":null,"channelUrl":null,"author":"chubot","authorUrl":"https://news.ycombinator.com/user?id=chubot","authorImage":null,"authorSlug":null,"score":185,"views":null,"sharedCount":null,"likeCount":null,"sharedContent":null,"parent":{"__typename":"HnJson","localize":[{"title":"替代壳","locale":"zh"},{"title":"替代殼","locale":"zh-Hant"}]}},{"__typename":"SocialMediaPost","id":"HnPost-26124054","excerpt":"","slug":"/hn/26124054","title":"The Kotlin Foundation","date":"February 13, 2021","dateISO":"2021-02-13T18:32:19.979Z","datetime":"2021-02-13 18:32","tags":["story","Hacker News"],"image":null,"imageAlt":null,"provider":"Hacker News","thirdPartyId":"26124054","url":"https://news.ycombinator.com/item?id=26124054","originalUrl":"https://kotlinlang.org/docs/kotlin-foundation.html","imageRemote":null,"video":null,"channel":null,"channelUrl":null,"author":"ta988","authorUrl":"https://news.ycombinator.com/user?id=ta988","authorImage":null,"authorSlug":null,"score":238,"views":null,"sharedCount":null,"likeCount":null,"sharedContent":null,"parent":{"__typename":"HnJson","localize":[{"title":"Kotlin基金会","locale":"zh"},{"title":"Kotlin基金會","locale":"zh-Hant"}]}},{"__typename":"SocialMediaPost","id":"HnPost-26114701","excerpt":"","slug":"/hn/26114701","title":"New model could explain old cholesterol mystery","date":"February 13, 2021","dateISO":"2021-02-13T18:09:33.391Z","datetime":"2021-02-13 18:09","tags":["story","Hacker News"],"image":null,"imageAlt":null,"provider":"Hacker News","thirdPartyId":"26114701","url":"https://news.ycombinator.com/item?id=26114701","originalUrl":"https://sciencenorway.no/cholesterol-fat-heart-attacks/new-model-could-explain-old-cholesterol-mystery/1810159","imageRemote":"https://image.sciencenorway.no/1810284.jpg?imageId=1810284&panow=100&panoh=100&panox=0&panoy=0&heightw=100&heighth=100&heightx=0&heighty=0&width=1200&height=630","video":null,"channel":null,"channelUrl":null,"author":"shadykiller","authorUrl":"https://news.ycombinator.com/user?id=shadykiller","authorImage":null,"authorSlug":null,"score":167,"views":null,"sharedCount":null,"likeCount":null,"sharedContent":null,"parent":{"__typename":"HnJson","localize":[{"title":"新模型可以解释古老的胆固醇之谜","locale":"zh"},{"title":"新模型可以解釋古老的膽固醇之謎","locale":"zh-Hant"}]}},{"__typename":"SocialMediaPost","id":"HnPost-26122924","excerpt":"","slug":"/hn/26122924","title":"Silicon Valley’s Safe Space","date":"February 13, 2021","dateISO":"2021-02-13T17:48:34.601Z","datetime":"2021-02-13 17:48","tags":["story","Hacker News"],"image":null,"imageAlt":null,"provider":"Hacker News","thirdPartyId":"26122924","url":"https://news.ycombinator.com/item?id=26122924","originalUrl":"https://www.nytimes.com/2021/02/13/technology/slate-star-codex-rationalists.html","imageRemote":"https://static01.nyt.com/images/2021/02/08/business/00Rationalists-vid-still/00Rationalists-vid-still-facebookJumbo.jpg","video":null,"channel":null,"channelUrl":null,"author":"implying","authorUrl":"https://news.ycombinator.com/user?id=implying","authorImage":null,"authorSlug":null,"score":423,"views":null,"sharedCount":null,"likeCount":null,"sharedContent":null,"parent":{"__typename":"HnJson","localize":[{"title":"硅谷的安全空间","locale":"zh"},{"title":"硅谷的安全空間","locale":"zh-Hant"}]}},{"__typename":"SocialMediaPost","id":"HnPost-26123726","excerpt":"","slug":"/hn/26123726","title":"S**tbowl: The algorithmically powered in-home physical caching platform","date":"February 13, 2021","dateISO":"2021-02-13T17:48:34.601Z","datetime":"2021-02-13 17:48","tags":["story","Hacker News"],"image":null,"imageAlt":null,"provider":"Hacker News","thirdPartyId":"26123726","url":"https://news.ycombinator.com/item?id=26123726","originalUrl":"https://www.shitbowl.com/","imageRemote":null,"video":null,"channel":null,"channelUrl":null,"author":"fallingfrog","authorUrl":"https://news.ycombinator.com/user?id=fallingfrog","authorImage":null,"authorSlug":null,"score":720,"views":null,"sharedCount":null,"likeCount":null,"sharedContent":null,"parent":{"__typename":"HnJson","localize":[{"title":"S**tbowl。算法驱动的家庭物理缓存平台。","locale":"zh"},{"title":"S**tbowl。算法驅動的家庭物理緩存平臺。","locale":"zh-Hant"}]}},{"__typename":"SocialMediaPost","id":"HnPost-26111570","excerpt":"","slug":"/hn/26111570","title":"So, You Want to Learn to Break Ciphers","date":"February 13, 2021","dateISO":"2021-02-13T16:43:19.709Z","datetime":"2021-02-13 16:43","tags":["story","Hacker News"],"image":null,"imageAlt":null,"provider":"Hacker News","thirdPartyId":"26111570","url":"https://news.ycombinator.com/item?id=26111570","originalUrl":"https://littlemaninmyhead.wordpress.com/2015/09/28/so-you-want-to-learn-to-break-ciphers/","imageRemote":"https://littlemaninmyhead.files.wordpress.com/2019/08/cropped-little-man-in-my-head-1.jpg?w=200","video":null,"channel":null,"channelUrl":null,"author":"noch","authorUrl":"https://news.ycombinator.com/user?id=noch","authorImage":null,"authorSlug":null,"score":180,"views":null,"sharedCount":null,"likeCount":null,"sharedContent":null,"parent":{"__typename":"HnJson","localize":[{"title":"所以，你想学习破解密码？","locale":"zh"},{"title":"所以，你想學習破解密碼？","locale":"zh-Hant"}]}},{"__typename":"SocialMediaPost","id":"HnPost-26120631","excerpt":"","slug":"/hn/26120631","title":"Ditherpunk 2 – beyond 1-bit","date":"February 13, 2021","dateISO":"2021-02-13T15:47:13.496Z","datetime":"2021-02-13 15:47","tags":["story","Hacker News"],"image":null,"imageAlt":null,"provider":"Hacker News","thirdPartyId":"26120631","url":"https://news.ycombinator.com/item?id=26120631","originalUrl":"https://www.makeworld.gq/2021/02/dithering.html","imageRemote":"https://www.makeworld.gq/assets/images/dithering/peppers.png","video":null,"channel":null,"channelUrl":null,"author":"makeworld","authorUrl":"https://news.ycombinator.com/user?id=makeworld","authorImage":null,"authorSlug":null,"score":184,"views":null,"sharedCount":null,"likeCount":null,"sharedContent":null,"parent":{"__typename":"HnJson","localize":[{"title":"Ditherpunk 2 - 超越1-bit","locale":"zh"},{"title":"Ditherpunk 2 - 超越1-bit","locale":"zh-Hant"}]}},{"__typename":"SocialMediaPost","id":"HnPost-26121937","excerpt":"","slug":"/hn/26121937","title":"Google is now a visionary sponsor of the Python Software Foundation","date":"February 13, 2021","dateISO":"2021-02-13T12:45:00.891Z","datetime":"2021-02-13 12:45","tags":["story","Hacker News"],"image":null,"imageAlt":null,"provider":"Hacker News","thirdPartyId":"26121937","url":"https://news.ycombinator.com/item?id=26121937","originalUrl":"http://pyfound.blogspot.com/2021/02/welcoming-google-as-visionary-sponsor.html","imageRemote":"https://3.bp.blogspot.com/-nWqAgbDyLhA/Vrl1s7DIFLI/AAAAAAAAOo8/_hGVqcEcFqY/s1600-r/psf-logo.png","video":null,"channel":null,"channelUrl":null,"author":"Ldorigo","authorUrl":"https://news.ycombinator.com/user?id=Ldorigo","authorImage":null,"authorSlug":null,"score":365,"views":null,"sharedCount":null,"likeCount":null,"sharedContent":null,"parent":{"__typename":"HnJson","localize":[{"title":"谷歌现在是Python软件基金会的一个有远见的赞助商。","locale":"zh"},{"title":"谷歌現在是Python軟件基金會的一個有遠見的贊助商。","locale":"zh-Hant"}]}},{"__typename":"SocialMediaPost","id":"HnPost-26114425","excerpt":"","slug":"/hn/26114425","title":"The Miyawaki Method: A Better Way to Build Forests? (2019)","date":"February 13, 2021","dateISO":"2021-02-13T11:49:35.917Z","datetime":"2021-02-13 11:49","tags":["story","Hacker News"],"image":null,"imageAlt":null,"provider":"Hacker News","thirdPartyId":"26114425","url":"https://news.ycombinator.com/item?id=26114425","originalUrl":"https://daily.jstor.org/the-miyawaki-method-a-better-way-to-build-forests/","imageRemote":"https://daily.jstor.org/wp-content/uploads/2019/07/the_miyawaki_method_a_better_way_to_build_forests_1050x700.jpg","video":null,"channel":null,"channelUrl":null,"author":"nkurz","authorUrl":"https://news.ycombinator.com/user?id=nkurz","authorImage":null,"authorSlug":null,"score":166,"views":null,"sharedCount":null,"likeCount":null,"sharedContent":null,"parent":{"__typename":"HnJson","localize":[{"title":"宫胁法。更好的森林建设方法？(2019)","locale":"zh"},{"title":"宮脅法。更好的森林建設方法？(2019)","locale":"zh-Hant"}]}},{"__typename":"SocialMediaPost","id":"HnPost-26117516","excerpt":"","slug":"/hn/26117516","title":"Linux Memory Management FAQ","date":"February 13, 2021","dateISO":"2021-02-13T10:36:04.021Z","datetime":"2021-02-13 10:36","tags":["story","Hacker News"],"image":null,"imageAlt":null,"provider":"Hacker News","thirdPartyId":"26117516","url":"https://news.ycombinator.com/item?id=26117516","originalUrl":"http://landley.net/writing/memory-faq.txt","imageRemote":null,"video":null,"channel":null,"channelUrl":null,"author":"janselman","authorUrl":"https://news.ycombinator.com/user?id=janselman","authorImage":null,"authorSlug":null,"score":187,"views":null,"sharedCount":null,"likeCount":null,"sharedContent":null,"parent":{"__typename":"HnJson","localize":[{"title":"Linux内存管理常见问题","locale":"zh"},{"title":"Linux內存管理常見問題","locale":"zh-Hant"}]}},{"__typename":"SocialMediaPost","id":"HnPost-26117587","excerpt":"","slug":"/hn/26117587","title":"Fictional Cryptocurrencies","date":"February 13, 2021","dateISO":"2021-02-13T09:58:25.603Z","datetime":"2021-02-13 09:58","tags":["story","Hacker News"],"image":null,"imageAlt":null,"provider":"Hacker News","thirdPartyId":"26117587","url":"https://news.ycombinator.com/item?id=26117587","originalUrl":"https://astralcodexten.substack.com/p/list-of-fictional-cryptocurrencies","imageRemote":"https://cdn.substack.com/image/fetch/w_1200,c_limit,f_jpg,q_auto:good,fl_progressive:steep/https%3A%2F%2Fbucketeer-e05bbc84-baa3-437e-9518-adb32be77984.s3.amazonaws.com%2Fpublic%2Fimages%2F953cb9c9-1e82-4b20-8586-a5a1fbd31a71_1024x444.jpeg","video":null,"channel":null,"channelUrl":null,"author":"gadtfly","authorUrl":"https://news.ycombinator.com/user?id=gadtfly","authorImage":null,"authorSlug":null,"score":213,"views":null,"sharedCount":null,"likeCount":null,"sharedContent":null,"parent":{"__typename":"HnJson","localize":[{"title":"虚构的加密货币","locale":"zh"},{"title":"虛構的加密貨幣","locale":"zh-Hant"}]}},{"__typename":"SocialMediaPost","id":"HnPost-26112361","excerpt":"","slug":"/hn/26112361","title":"Ask HN: Why aren't you coding?","date":"February 13, 2021","dateISO":"2021-02-13T09:25:18.664Z","datetime":"2021-02-13 09:25","tags":["story","ASK HN","Hacker News"],"image":null,"imageAlt":null,"provider":"Hacker News","thirdPartyId":"26112361","url":"https://news.ycombinator.com/item?id=26112361","originalUrl":"https://news.ycombinator.com/item?id=26112361","imageRemote":null,"video":null,"channel":"ASK HN","channelUrl":"https://news.ycombinator.com/ask","author":"boffinism","authorUrl":"https://news.ycombinator.com/user?id=boffinism","authorImage":null,"authorSlug":null,"score":217,"views":null,"sharedCount":null,"likeCount":null,"sharedContent":null,"parent":{"__typename":"HnJson","localize":[{"title":"问HN：你为什么不打码？","locale":"zh"},{"title":"問HN：你爲什麼不打碼？","locale":"zh-Hant"}]}},{"__typename":"SocialMediaPost","id":"HnPost-26118756","excerpt":"","slug":"/hn/26118756","title":"Show HN: Search inside YouTube videos using natural language queries","date":"February 13, 2021","dateISO":"2021-02-13T08:52:50.969Z","datetime":"2021-02-13 08:52","tags":["story","Show HN","Hacker News"],"image":null,"imageAlt":null,"provider":"Hacker News","thirdPartyId":"26118756","url":"https://news.ycombinator.com/item?id=26118756","originalUrl":"https://github.com/haltakov/natural-language-youtube-search","imageRemote":"https://repository-images.githubusercontent.com/335095422/b964b080-6cbb-11eb-812b-cadbab4bae19","video":null,"channel":"Show HN","channelUrl":"https://news.ycombinator.com/show","author":"vladoh","authorUrl":"https://news.ycombinator.com/user?id=vladoh","authorImage":null,"authorSlug":null,"score":261,"views":null,"sharedCount":null,"likeCount":null,"sharedContent":null,"parent":{"__typename":"HnJson","localize":[{"title":"显示HN：使用自然语言查询在YouTube视频内搜索。","locale":"zh"},{"title":"顯示HN：使用自然語言查詢在YouTube視頻內搜索。","locale":"zh-Hant"}]}},{"__typename":"SocialMediaPost","id":"HnPost-26114281","excerpt":"","slug":"/hn/26114281","title":"AWS Babelfish: The Elephant in the PostgreSQL Room?","date":"February 13, 2021","dateISO":"2021-02-13T07:56:56.542Z","datetime":"2021-02-13 07:56","tags":["story","Hacker News"],"image":null,"imageAlt":null,"provider":"Hacker News","thirdPartyId":"26114281","url":"https://news.ycombinator.com/item?id=26114281","originalUrl":"https://postgresql.fund/blog/babelfish-the-elephant-in-the-room/","imageRemote":"https://postgresql.fund/images/logo.png","video":null,"channel":null,"channelUrl":null,"author":"ahachete","authorUrl":"https://news.ycombinator.com/user?id=ahachete","authorImage":null,"authorSlug":null,"score":196,"views":null,"sharedCount":null,"likeCount":null,"sharedContent":null,"parent":{"__typename":"HnJson","localize":[{"title":"AWS Babelfish。PostgreSQL房间里的大象？","locale":"zh"},{"title":"AWS Babelfish。PostgreSQL房間裏的大象？","locale":"zh-Hant"}]}},{"__typename":"SocialMediaPost","id":"HnPost-26118571","excerpt":"","slug":"/hn/26118571","title":"FIDO2 security key company releases hardware that's open source and uses Rust","date":"February 13, 2021","dateISO":"2021-02-13T04:13:10.971Z","datetime":"2021-02-13 04:13","tags":["story","Hacker News"],"image":null,"imageAlt":null,"provider":"Hacker News","thirdPartyId":"26118571","url":"https://news.ycombinator.com/item?id=26118571","originalUrl":"https://solokeys.com/blogs/news/our-solo-v2-campaign-launches-on-january-26th","imageRemote":"https://cdn.shopify.com/s/files/1/0196/3068/6272/articles/ezgif-2-70ed027cc5fd_1200x1200.gif?v=1611639321","video":null,"channel":null,"channelUrl":null,"author":"conorpp","authorUrl":"https://news.ycombinator.com/user?id=conorpp","authorImage":null,"authorSlug":null,"score":396,"views":null,"sharedCount":null,"likeCount":null,"sharedContent":null,"parent":{"__typename":"HnJson","localize":[{"title":"FIDO2安全密钥公司发布的硬件是开源的，使用的是Rust。","locale":"zh"},{"title":"FIDO2安全密鑰公司發佈的硬件是開源的，使用的是Rust。","locale":"zh-Hant"}]}},{"__typename":"SocialMediaPost","id":"HnPost-26117767","excerpt":"","slug":"/hn/26117767","title":"Svgrepo: Browse SVG vectors and icons","date":"February 13, 2021","dateISO":"2021-02-13T03:18:34.787Z","datetime":"2021-02-13 03:18","tags":["story","Hacker News"],"image":null,"imageAlt":null,"provider":"Hacker News","thirdPartyId":"26117767","url":"https://news.ycombinator.com/item?id=26117767","originalUrl":"https://www.svgrepo.com/","imageRemote":null,"video":null,"channel":null,"channelUrl":null,"author":"marcodiego","authorUrl":"https://news.ycombinator.com/user?id=marcodiego","authorImage":null,"authorSlug":null,"score":264,"views":null,"sharedCount":null,"likeCount":null,"sharedContent":null,"parent":{"__typename":"HnJson","localize":[{"title":"Svgrepo。浏览SVG矢量图和图标","locale":"zh"},{"title":"Svgrepo。瀏覽SVG矢量圖和圖標","locale":"zh-Hant"}]}},{"__typename":"SocialMediaPost","id":"HnPost-26116420","excerpt":"","slug":"/hn/26116420","title":"Goodbye YC","date":"February 13, 2021","dateISO":"2021-02-13T02:37:38.473Z","datetime":"2021-02-13 02:37","tags":["story","Hacker News"],"image":null,"imageAlt":null,"provider":"Hacker News","thirdPartyId":"26116420","url":"https://news.ycombinator.com/item?id=26116420","originalUrl":"https://blog.aaronkharris.com/goodbye-yc","imageRemote":null,"video":null,"channel":null,"channelUrl":null,"author":"awaxman11","authorUrl":"https://news.ycombinator.com/user?id=awaxman11","authorImage":null,"authorSlug":null,"score":284,"views":null,"sharedCount":null,"likeCount":null,"sharedContent":null,"parent":{"__typename":"HnJson","localize":[{"title":"再见，YC","locale":"zh"},{"title":"再見，YC","locale":"zh-Hant"}]}},{"__typename":"SocialMediaPost","id":"HnPost-26119380","excerpt":"","slug":"/hn/26119380","title":"Calvin and Hobbes Search Engine","date":"February 13, 2021","dateISO":"2021-02-13T02:37:38.473Z","datetime":"2021-02-13 02:37","tags":["story","Hacker News"],"image":null,"imageAlt":null,"provider":"Hacker News","thirdPartyId":"26119380","url":"https://news.ycombinator.com/item?id=26119380","originalUrl":"http://michaelyingling.com/random/calvin_and_hobbes/","imageRemote":"http://michaelyingling.com/random/calvin_and_hobbes/chlogo.png","video":null,"channel":null,"channelUrl":null,"author":"bookofjoe","authorUrl":"https://news.ycombinator.com/user?id=bookofjoe","authorImage":null,"authorSlug":null,"score":476,"views":null,"sharedCount":null,"likeCount":null,"sharedContent":null,"parent":{"__typename":"HnJson","localize":[{"title":"加尔文与霍布斯搜索引擎","locale":"zh"},{"title":"加爾文與霍布斯搜索引擎","locale":"zh-Hant"}]}},{"__typename":"SocialMediaPost","id":"HnPost-26114863","excerpt":"","slug":"/hn/26114863","title":"SVG: The Good, the Bad and the Ugly","date":"February 13, 2021","dateISO":"2021-02-13T01:57:18.009Z","datetime":"2021-02-13 01:57","tags":["story","Hacker News"],"image":null,"imageAlt":null,"provider":"Hacker News","thirdPartyId":"26114863","url":"https://news.ycombinator.com/item?id=26114863","originalUrl":"https://www.eisfunke.com/article/svg-the-good-the-bad-and-the-ugly.html","imageRemote":null,"video":null,"channel":null,"channelUrl":null,"author":"davebloggt","authorUrl":"https://news.ycombinator.com/user?id=davebloggt","authorImage":null,"authorSlug":null,"score":218,"views":null,"sharedCount":null,"likeCount":null,"sharedContent":null,"parent":{"__typename":"HnJson","localize":[{"title":"SVG：好的、坏的和丑的。","locale":"zh"},{"title":"SVG：好的、壞的和醜的。","locale":"zh-Hant"}]}},{"__typename":"SocialMediaPost","id":"HnPost-26113937","excerpt":"","slug":"/hn/26113937","title":"Euro privacy watchdog calls for end of targeted advertising","date":"February 13, 2021","dateISO":"2021-02-13T01:27:37.900Z","datetime":"2021-02-13 01:27","tags":["story","Hacker News"],"image":null,"imageAlt":null,"provider":"Hacker News","thirdPartyId":"26113937","url":"https://news.ycombinator.com/item?id=26113937","originalUrl":"https://www.theregister.com/2021/02/11/eu_ad_rules/","imageRemote":"https://regmedia.co.uk/2015/07/21/ads_8734653456.jpg","video":null,"channel":null,"channelUrl":null,"author":"LinuxBender","authorUrl":"https://news.ycombinator.com/user?id=LinuxBender","authorImage":null,"authorSlug":null,"score":186,"views":null,"sharedCount":null,"likeCount":null,"sharedContent":null,"parent":{"__typename":"HnJson","localize":[{"title":"欧洲隐私监督机构呼吁结束定向广告投放","locale":"zh"},{"title":"歐洲隱私監督機構呼籲結束定向廣告投放","locale":"zh-Hant"}]}},{"__typename":"SocialMediaPost","id":"HnPost-26117334","excerpt":"","slug":"/hn/26117334","title":"Microbial ecosystems in the mouth and gut are linked to many ills","date":"February 13, 2021","dateISO":"2021-02-13T01:27:37.900Z","datetime":"2021-02-13 01:27","tags":["story","Hacker News"],"image":null,"imageAlt":null,"provider":"Hacker News","thirdPartyId":"26117334","url":"https://news.ycombinator.com/item?id=26117334","originalUrl":"https://www.economist.com/science-and-technology/2021/02/10/microbial-ecosystems-in-the-mouth-and-gut-are-linked-to-many-ills","imageRemote":"https://www.economist.com/img/b/1280/720/90/sites/default/files/images/2021/02/articles/main/20210213_stp003.jpg","video":null,"channel":null,"channelUrl":null,"author":"aluket","authorUrl":"https://news.ycombinator.com/user?id=aluket","authorImage":null,"authorSlug":null,"score":304,"views":null,"sharedCount":null,"likeCount":null,"sharedContent":null,"parent":{"__typename":"HnJson","localize":[{"title":"口腔和肠道中的微生物生态系统与许多疾病有关。","locale":"zh"},{"title":"口腔和腸道中的微生物生態系統與許多疾病有關。","locale":"zh-Hant"}]}},{"__typename":"SocialMediaPost","id":"HnPost-26119087","excerpt":"","slug":"/hn/26119087","title":"Short fat engineers are undervalued","date":"February 13, 2021","dateISO":"2021-02-13T00:45:01.576Z","datetime":"2021-02-13 00:45","tags":["story","Hacker News"],"image":null,"imageAlt":null,"provider":"Hacker News","thirdPartyId":"26119087","url":"https://news.ycombinator.com/item?id=26119087","originalUrl":"https://nested.substack.com/p/short-fat-engineers-are-undervalued","imageRemote":"https://cdn.substack.com/image/fetch/w_1200,c_limit,f_jpg,q_auto:good,fl_progressive:steep/https%3A%2F%2Fbucketeer-e05bbc84-baa3-437e-9518-adb32be77984.s3.amazonaws.com%2Fpublic%2Fimages%2F8d70731e-4d22-483f-87a0-6c3b6104151a_2199x1218.png","video":null,"channel":null,"channelUrl":null,"author":"atticusberg","authorUrl":"https://news.ycombinator.com/user?id=atticusberg","authorImage":null,"authorSlug":null,"score":366,"views":null,"sharedCount":null,"likeCount":null,"sharedContent":null,"parent":{"__typename":"HnJson","localize":[{"title":"矮胖工程师的价值被低估了","locale":"zh"},{"title":"矮胖工程師的價值被低估了","locale":"zh-Hant"}]}},{"__typename":"SocialMediaPost","id":"HnPost-26113753","excerpt":"","slug":"/hn/26113753","title":"Flameshot – Superb Screenshot Tool","date":"February 12, 2021","dateISO":"2021-02-12T23:50:12.265Z","datetime":"2021-02-12 23:50","tags":["story","Hacker News"],"image":null,"imageAlt":null,"provider":"Hacker News","thirdPartyId":"26113753","url":"https://news.ycombinator.com/item?id=26113753","originalUrl":"https://github.com/flameshot-org/flameshot/","imageRemote":"https://avatars.githubusercontent.com/u/36951528?s=400&v=4","video":null,"channel":null,"channelUrl":null,"author":"avhception","authorUrl":"https://news.ycombinator.com/user?id=avhception","authorImage":null,"authorSlug":null,"score":334,"views":null,"sharedCount":null,"likeCount":null,"sharedContent":null,"parent":{"__typename":"HnJson","localize":[{"title":"Flameshot - 超级截图工具","locale":"zh"},{"title":"Flameshot - 超級截圖工具","locale":"zh-Hant"}]}},{"__typename":"SocialMediaPost","id":"HnPost-26115975","excerpt":"","slug":"/hn/26115975","title":"San Francisco school board halts appointment based on race","date":"February 12, 2021","dateISO":"2021-02-12T23:37:27.045Z","datetime":"2021-02-12 23:37","tags":["story","Hacker News"],"image":null,"imageAlt":null,"provider":"Hacker News","thirdPartyId":"26115975","url":"https://news.ycombinator.com/item?id=26115975","originalUrl":"https://abc7news.com/education/sf-school-board-halts-appointment-based-on-race/10328448/","imageRemote":"https://cdn.abcotvs.com/dip/images/10322788_020821-kgo-sfusd-logo-img_Image_00-00-00,02.jpg?w=1600","video":null,"channel":null,"channelUrl":null,"author":"undefined1","authorUrl":"https://news.ycombinator.com/user?id=undefined1","authorImage":null,"authorSlug":null,"score":176,"views":null,"sharedCount":null,"likeCount":null,"sharedContent":null,"parent":{"__typename":"HnJson","localize":[{"title":"三藩市校董会停止基于种族的任命。","locale":"zh"},{"title":"三藩市校董會停止基於種族的任命。","locale":"zh-Hant"}]}}]}},"pageContext":{"basePath":"/","pageType":"tag","tag":"Hacker News","tagsFilter":{"id":{"glob":"!*Post-1"}},"filter":{"id":{"glob":"!*Post-1"},"tags":{"eq":"Hacker News"}},"limit":25,"skip":875,"total":2600,"totalPages":104,"currentPage":36,"maxWidth":1024,"maxHeight":512,"locale":"zh","hrefLang":"zh-Hans","originalPath":"/tags/hacker-news/page/36","dateFormat":"YYYY-MM-DD"}},"staticQueryHashes":["1239077767","2506312863","2744905544","3025052997","3493603132","3493603132","3513215887","386998304"]}