{"componentChunkName":"component---gatsby-theme-buzzing-src-gatsby-theme-timeline-templates-posts-query-js","path":"/zh-Hant/tags/story/page/23","result":{"data":{"site":{"siteMetadata":{"title":"Reddit 热门","description":"用中文浏览Reddit热门内容","social":[{"name":"Reddit","url":"https://www.reddit.com/","external":true,"prefetch":null},{"name":"GitHub","url":"https://github.com/gatsbyjs","external":null,"prefetch":null}],"menuLinks":[{"name":"每周精选","url":"/issues","external":null,"prefetch":null},{"name":"RSS","url":"/rss.xml","external":null,"prefetch":false}],"localize":[{"locale":"en","title":"Buzzing on Reddit","description":"See what's buzzing on Reddit in your native language","social":[{"name":"Reddit","url":"https://www.reddit.com/","external":true,"prefetch":null}],"menuLinks":[{"name":"Weekly Selection","url":"/issues","external":null,"prefetch":null},{"name":"RSS","url":"/rss.xml","external":null,"prefetch":false}]},{"locale":"zh-Hant","title":"Reddit 熱門","description":"用中文瀏覽Reddit熱門內容","social":null,"menuLinks":null}]}},"tagsGroup":{"group":[{"fieldValue":"ASK HN","totalCount":19},{"fieldValue":"Bitcoin","totalCount":3},{"fieldValue":"Hacker News","totalCount":799},{"fieldValue":"Poll","totalCount":1},{"fieldValue":"Show HN","totalCount":31},{"fieldValue":"investing","totalCount":166},{"fieldValue":"poll","totalCount":1},{"fieldValue":"reddit","totalCount":592},{"fieldValue":"science","totalCount":1},{"fieldValue":"stocks","totalCount":276},{"fieldValue":"story","totalCount":798},{"fieldValue":"tweet","totalCount":242},{"fieldValue":"wallstreetbets","totalCount":150}]},"allBlogPost":{"nodes":[{"__typename":"SocialMediaPost","id":"HnPost-25497002","excerpt":"","slug":"/hn/25497002","title":"Project Oberon 2013 on RISC-V","date":"December 22, 2020","dateISO":"2020-12-22T02:14:23.554Z","datetime":"2020-12-22 02:14","tags":["story","Hacker News"],"image":null,"imageAlt":null,"provider":"Hacker News","thirdPartyId":"25497002","url":"https://news.ycombinator.com/item?id=25497002","originalUrl":"https://github.com/solbjorg/oberon-riscv","imageRemote":"https://avatars1.githubusercontent.com/u/1645846?s=400&v=4","video":null,"channel":null,"channelUrl":null,"author":"homarp","authorUrl":"https://news.ycombinator.com/user?id=homarp","authorImage":null,"authorSlug":null,"score":140,"views":null,"sharedCount":null,"likeCount":null,"sharedContent":null,"parent":{"__typename":"HnJson","localize":[{"title":"RISC-V上的Project Oberon 2013","locale":"zh"},{"title":"RISC-V上的Project Oberon 2013","locale":"zh-Hant"}]}},{"__typename":"SocialMediaPost","id":"HnPost-25500671","excerpt":"","slug":"/hn/25500671","title":"Write code. Not too much. Mostly functions.","date":"December 22, 2020","dateISO":"2020-12-22T01:25:20.248Z","datetime":"2020-12-22 01:25","tags":["story","Hacker News"],"image":null,"imageAlt":null,"provider":"Hacker News","thirdPartyId":"25500671","url":"https://news.ycombinator.com/item?id=25500671","originalUrl":"https://www.brandonsmith.ninja/blog/write-code-not-too-much-mostly-functions","imageRemote":"https://www.brandonsmith.ninja/img/me.jpeg","video":null,"channel":null,"channelUrl":null,"author":"brundolf","authorUrl":"https://news.ycombinator.com/user?id=brundolf","authorImage":null,"authorSlug":null,"score":819,"views":null,"sharedCount":null,"likeCount":null,"sharedContent":null,"parent":{"__typename":"HnJson","localize":[{"title":"编写代码。不要太多。大部分功能。","locale":"zh"},{"title":"編寫代碼。不要太多。大部分功能。","locale":"zh-Hant"}]}},{"__typename":"SocialMediaPost","id":"HnPost-25498364","excerpt":"","slug":"/hn/25498364","title":"Parsing JSON at the CLI: A Practical Introduction to jq and more","date":"December 21, 2020","dateISO":"2020-12-21T23:56:04.073Z","datetime":"2020-12-21 23:56","tags":["story","Hacker News"],"image":null,"imageAlt":null,"provider":"Hacker News","thirdPartyId":"25498364","url":"https://news.ycombinator.com/item?id=25498364","originalUrl":"https://sequoia.makes.software/parsing-json-at-the-cli-a-practical-introduction-to-jq-and-more/","imageRemote":null,"video":null,"channel":null,"channelUrl":null,"author":"sequoia","authorUrl":"https://news.ycombinator.com/user?id=sequoia","authorImage":null,"authorSlug":null,"score":294,"views":null,"sharedCount":null,"likeCount":null,"sharedContent":null,"parent":{"__typename":"HnJson","localize":[{"title":"在CLI解析JSON：JQ及更多实用介绍","locale":"zh"},{"title":"在CLI解析JSON：JQ及更多實用介紹","locale":"zh-Hant"}]}},{"__typename":"SocialMediaPost","id":"HnPost-25498969","excerpt":"","slug":"/hn/25498969","title":"The Universe Is Expanding Faster Than Expected","date":"December 21, 2020","dateISO":"2020-12-21T23:56:04.073Z","datetime":"2020-12-21 23:56","tags":["story","Hacker News"],"image":null,"imageAlt":null,"provider":"Hacker News","thirdPartyId":"25498969","url":"https://news.ycombinator.com/item?id=25498969","originalUrl":"https://www.quantamagazine.org/astronomers-get-their-wish-and-the-hubble-crisis-gets-worse-20201217/","imageRemote":"https://d2r55xnwy6nx47.cloudfront.net/uploads/2020/12/Gaia_1200_Social.jpg","video":null,"channel":null,"channelUrl":null,"author":"tinmandespot","authorUrl":"https://news.ycombinator.com/user?id=tinmandespot","authorImage":null,"authorSlug":null,"score":325,"views":null,"sharedCount":null,"likeCount":null,"sharedContent":null,"parent":{"__typename":"HnJson","localize":[{"title":"宇宙正在以比预期更快的速度膨胀","locale":"zh"},{"title":"宇宙正在以比預期更快的速度膨脹","locale":"zh-Hant"}]}},{"__typename":"SocialMediaPost","id":"HnPost-25497766","excerpt":"","slug":"/hn/25497766","title":"Internet Archive announces new Open Library Explorer (beta)","date":"December 21, 2020","dateISO":"2020-12-21T22:43:37.440Z","datetime":"2020-12-21 22:43","tags":["story","Hacker News"],"image":null,"imageAlt":null,"provider":"Hacker News","thirdPartyId":"25497766","url":"https://news.ycombinator.com/item?id=25497766","originalUrl":"https://blog.openlibrary.org/2020/12/16/introducing-the-open-library-explorer/","imageRemote":"https://blog.openlibrary.org/files/2020/12/image-500x297.png","video":null,"channel":null,"channelUrl":null,"author":"mekarpeles","authorUrl":"https://news.ycombinator.com/user?id=mekarpeles","authorImage":null,"authorSlug":null,"score":217,"views":null,"sharedCount":null,"likeCount":null,"sharedContent":null,"parent":{"__typename":"HnJson","localize":[{"title":"互联网档案馆宣布推出新的Open Library Explorer(测试版)","locale":"zh"},{"title":"互聯網檔案館宣佈推出新的Open Library Explorer(測試版)","locale":"zh-Hant"}]}},{"__typename":"SocialMediaPost","id":"HnPost-25498079","excerpt":"","slug":"/hn/25498079","title":"Why I've Been Merging Microservices Back into the Monolith at InVision","date":"December 21, 2020","dateISO":"2020-12-21T22:11:24.150Z","datetime":"2020-12-21 22:11","tags":["story","Hacker News"],"image":null,"imageAlt":null,"provider":"Hacker News","thirdPartyId":"25498079","url":"https://news.ycombinator.com/item?id=25498079","originalUrl":"https://www.bennadel.com/blog/3944-why-ive-been-merging-microservices-back-into-the-monolith-at-invision.htm","imageRemote":"https://bennadel-cdn.com/resources/uploads/2020/thanos-inserting-the-last-inifinity-stone.gif","video":null,"channel":null,"channelUrl":null,"author":"rmason","authorUrl":"https://news.ycombinator.com/user?id=rmason","authorImage":null,"authorSlug":null,"score":282,"views":null,"sharedCount":null,"likeCount":null,"sharedContent":null,"parent":{"__typename":"HnJson","localize":[{"title":"为什么我要将Microservices重新合并到Invision的巨石中","locale":"zh"},{"title":"爲什麼我要將Microservices重新合併到Invision的巨石中","locale":"zh-Hant"}]}},{"__typename":"SocialMediaPost","id":"HnPost-25497737","excerpt":"","slug":"/hn/25497737","title":"Show HN: Pop.com – Video Calls, in 3D","date":"December 21, 2020","dateISO":"2020-12-21T22:02:08.817Z","datetime":"2020-12-21 22:02","tags":["story","Show HN","Hacker News"],"image":null,"imageAlt":null,"provider":"Hacker News","thirdPartyId":"25497737","url":"https://news.ycombinator.com/item?id=25497737","originalUrl":"https://pop.com","imageRemote":"https://pop.com/assets/img/logo/unfurl-pop.png","video":null,"channel":"Show HN","channelUrl":"https://news.ycombinator.com/show","author":"jsherwani","authorUrl":"https://news.ycombinator.com/user?id=jsherwani","authorImage":null,"authorSlug":null,"score":239,"views":null,"sharedCount":null,"likeCount":null,"sharedContent":null,"parent":{"__typename":"HnJson","localize":[{"title":"HN新产品：pop.com-3D视频通话","locale":"zh"},{"title":"show HN：pop.com-3D視頻通話","locale":"zh-Hant"}]}},{"__typename":"SocialMediaPost","id":"HnPost-25497050","excerpt":"","slug":"/hn/25497050","title":"I rewrote a Clojure tool in Rust","date":"December 21, 2020","dateISO":"2020-12-21T21:22:47.962Z","datetime":"2020-12-21 21:22","tags":["story","Hacker News"],"image":null,"imageAlt":null,"provider":"Hacker News","thirdPartyId":"25497050","url":"https://news.ycombinator.com/item?id=25497050","originalUrl":"https://timofreiberg.github.io/clojure-vs-rust/","imageRemote":null,"video":null,"channel":null,"channelUrl":null,"author":"praveenperera","authorUrl":"https://news.ycombinator.com/user?id=praveenperera","authorImage":null,"authorSlug":null,"score":169,"views":null,"sharedCount":null,"likeCount":null,"sharedContent":null,"parent":{"__typename":"HnJson","localize":[{"title":"我用Rust重写了一个Clojure工具","locale":"zh"},{"title":"我用Rust重寫了一個Clojure工具","locale":"zh-Hant"}]}},{"__typename":"SocialMediaPost","id":"HnPost-25499361","excerpt":"","slug":"/hn/25499361","title":"Apple targets car production by 2024, eyes ‘next level’ battery tech: sources","date":"December 21, 2020","dateISO":"2020-12-21T21:22:47.962Z","datetime":"2020-12-21 21:22","tags":["story","Hacker News"],"image":null,"imageAlt":null,"provider":"Hacker News","thirdPartyId":"25499361","url":"https://news.ycombinator.com/item?id=25499361","originalUrl":"https://www.reuters.com/article/us-apple-autos-exclusive/exclusive-apple-targets-car-production-by-2024-and-eyes-next-level-battery-technology-sources-idUSKBN28V2PY","imageRemote":"https://static.reuters.com/resources/r/?m=02&d=20201222&t=2&i=1545461268&r=LYNXMPEGBK1HR&w=800","video":null,"channel":null,"channelUrl":null,"author":"coloneltcb","authorUrl":"https://news.ycombinator.com/user?id=coloneltcb","authorImage":null,"authorSlug":null,"score":523,"views":null,"sharedCount":null,"likeCount":null,"sharedContent":null,"parent":{"__typename":"HnJson","localize":[{"title":"苹果的目标是到2024年生产汽车，着眼于“下一个水平”的电池技术：消息来源","locale":"zh"},{"title":"蘋果的目標是到2024年生產汽車，着眼於“下一個水平”的電池技術：消息來源","locale":"zh-Hant"}]}},{"__typename":"SocialMediaPost","id":"HnPost-25495259","excerpt":"","slug":"/hn/25495259","title":"Some U.S. Colleges Cut Tuition","date":"December 21, 2020","dateISO":"2020-12-21T21:02:42.977Z","datetime":"2020-12-21 21:02","tags":["story","Hacker News"],"image":null,"imageAlt":null,"provider":"Hacker News","thirdPartyId":"25495259","url":"https://news.ycombinator.com/item?id=25495259","originalUrl":"https://www.bloomberg.com/news/articles/2020-12-18/some-u-s-colleges-cut-tuition-ending-relentless-price-spiral","imageRemote":null,"video":null,"channel":null,"channelUrl":null,"author":"burnaboy","authorUrl":"https://news.ycombinator.com/user?id=burnaboy","authorImage":null,"authorSlug":null,"score":113,"views":null,"sharedCount":null,"likeCount":null,"sharedContent":null,"parent":{"__typename":"HnJson","localize":[{"title":"一些美国大学削减学费","locale":"zh"},{"title":"一些美國大學削減學費","locale":"zh-Hant"}]}},{"__typename":"SocialMediaPost","id":"HnPost-25497099","excerpt":"","slug":"/hn/25497099","title":"Facebook Lets Vietnam’s Cyberarmy Target Dissidents, Rejecting a Celebrity Plea","date":"December 21, 2020","dateISO":"2020-12-21T20:48:22.458Z","datetime":"2020-12-21 20:48","tags":["story","Hacker News"],"image":null,"imageAlt":null,"provider":"Hacker News","thirdPartyId":"25497099","url":"https://news.ycombinator.com/item?id=25497099","originalUrl":"https://theintercept.com/2020/12/21/facebook-vietnam-censorship/","imageRemote":"https://theintercept.com/wp-uploads/sites/1/2020/12/theintercept-vietnam-socialcard-tw.jpg","video":null,"channel":null,"channelUrl":null,"author":"ilamont","authorUrl":"https://news.ycombinator.com/user?id=ilamont","authorImage":null,"authorSlug":null,"score":165,"views":null,"sharedCount":null,"likeCount":null,"sharedContent":null,"parent":{"__typename":"HnJson","localize":[{"title":"Facebook允许越南网络军队针对持不同政见者，拒绝名人的请求","locale":"zh"},{"title":"Facebook允許越南網絡軍隊針對持不同政見者，拒絕名人的請求","locale":"zh-Hant"}]}},{"__typename":"SocialMediaPost","id":"HnPost-25498376","excerpt":"","slug":"/hn/25498376","title":"YouTube Class Action: Same IP Address Upload Pirate Movies and File DMCA Notices","date":"December 21, 2020","dateISO":"2020-12-21T20:48:22.458Z","datetime":"2020-12-21 20:48","tags":["story","Hacker News"],"image":null,"imageAlt":null,"provider":"Hacker News","thirdPartyId":"25498376","url":"https://news.ycombinator.com/item?id=25498376","originalUrl":"https://torrentfreak.com/youtube-class-action-same-ip-address-used-to-upload-pirate-movies-file-dmca-notices-201221/","imageRemote":"https://torrentfreak.com/images/youtube-feat.jpg","video":null,"channel":null,"channelUrl":null,"author":"parsecs","authorUrl":"https://news.ycombinator.com/user?id=parsecs","authorImage":null,"authorSlug":null,"score":551,"views":null,"sharedCount":null,"likeCount":null,"sharedContent":null,"parent":{"__typename":"HnJson","localize":[{"title":"YouTube集体诉讼：同一IP地址上传盗版电影和文件DMCA通知","locale":"zh"},{"title":"YouTube集體訴訟：同一IP地址上傳盜版電影和文件DMCA通知","locale":"zh-Hant"}]}},{"__typename":"SocialMediaPost","id":"HnPost-25497008","excerpt":"","slug":"/hn/25497008","title":"Netflix's Metaflow: Reproducible machine learning pipelines","date":"December 21, 2020","dateISO":"2020-12-21T20:34:07.425Z","datetime":"2020-12-21 20:34","tags":["story","Hacker News"],"image":null,"imageAlt":null,"provider":"Hacker News","thirdPartyId":"25497008","url":"https://news.ycombinator.com/item?id=25497008","originalUrl":"https://www.cortex.dev/post/reproducible-machine-learning-pipelines-with-metaflow-and-cortex","imageRemote":"https://uploads-ssl.webflow.com/5f6030edfd63364a668b1265/5fdbc8412acc064912da1924_metaflow.jpg","video":null,"channel":null,"channelUrl":null,"author":"ChefboyOG","authorUrl":"https://news.ycombinator.com/user?id=ChefboyOG","authorImage":null,"authorSlug":null,"score":253,"views":null,"sharedCount":null,"likeCount":null,"sharedContent":null,"parent":{"__typename":"HnJson","localize":[{"title":"Netflix的Metaflow：可重现的机器学习管道","locale":"zh"},{"title":"Netflix的Metaflow：可重現的機器學習管道","locale":"zh-Hant"}]}},{"__typename":"SocialMediaPost","id":"HnPost-25498235","excerpt":"","slug":"/hn/25498235","title":"Ignore AMP","date":"December 21, 2020","dateISO":"2020-12-21T20:34:07.425Z","datetime":"2020-12-21 20:34","tags":["story","Hacker News"],"image":null,"imageAlt":null,"provider":"Hacker News","thirdPartyId":"25498235","url":"https://news.ycombinator.com/item?id=25498235","originalUrl":"https://meiert.com/en/blog/ignore-amp/","imageRemote":"https://d3rdtowr0c5lpf.cloudfront.net/media/logo-social.png","video":null,"channel":null,"channelUrl":null,"author":"adamhearn","authorUrl":"https://news.ycombinator.com/user?id=adamhearn","authorImage":null,"authorSlug":null,"score":426,"views":null,"sharedCount":null,"likeCount":null,"sharedContent":null,"parent":{"__typename":"HnJson","localize":[{"title":"忽略AMP","locale":"zh"},{"title":"忽略AMP","locale":"zh-Hant"}]}},{"__typename":"SocialMediaPost","id":"HnPost-25497772","excerpt":"","slug":"/hn/25497772","title":"Jaywalking decriminalization, 100 years after the auto industry made it a crime","date":"December 21, 2020","dateISO":"2020-12-21T20:03:49.883Z","datetime":"2020-12-21 20:03","tags":["story","Hacker News"],"image":null,"imageAlt":null,"provider":"Hacker News","thirdPartyId":"25497772","url":"https://news.ycombinator.com/item?id=25497772","originalUrl":"https://www.virginiamercury.com/2020/12/21/jaywalking-decriminalization-is-coming-to-virginia-100-years-after-the-auto-industry-helped-make-it-a-crime/","imageRemote":"https://www.virginiamercury.com/wp-content/uploads/2020/12/Crossing_wyatt-scaled.jpg","video":null,"channel":null,"channelUrl":null,"author":"jseliger","authorUrl":"https://news.ycombinator.com/user?id=jseliger","authorImage":null,"authorSlug":null,"score":408,"views":null,"sharedCount":null,"likeCount":null,"sharedContent":null,"parent":{"__typename":"HnJson","localize":[{"title":"在汽车业将乱穿马路定为犯罪100年后，乱穿马路合法化","locale":"zh"},{"title":"在汽車業將亂穿馬路定爲犯罪100年後，亂穿馬路合法化","locale":"zh-Hant"}]}},{"__typename":"SocialMediaPost","id":"HnPost-25492557","excerpt":"","slug":"/hn/25492557","title":"Great Hacker != Great Hire (2004)","date":"December 21, 2020","dateISO":"2020-12-21T19:46:56.800Z","datetime":"2020-12-21 19:46","tags":["story","Hacker News"],"image":null,"imageAlt":null,"provider":"Hacker News","thirdPartyId":"25492557","url":"https://news.ycombinator.com/item?id=25492557","originalUrl":"https://ericsink.com/entries/No_Great_Hackers.html","imageRemote":"https://ericsink.com/images/princeton.jpg","video":null,"channel":null,"channelUrl":null,"author":"luu","authorUrl":"https://news.ycombinator.com/user?id=luu","authorImage":null,"authorSlug":null,"score":116,"views":null,"sharedCount":null,"likeCount":null,"sharedContent":null,"parent":{"__typename":"HnJson","localize":[{"title":"伟大的黑客！=伟大的雇佣(2004)","locale":"zh"},{"title":"偉大的黑客！=偉大的僱傭(2004)","locale":"zh-Hant"}]}},{"__typename":"SocialMediaPost","id":"HnPost-25494648","excerpt":"","slug":"/hn/25494648","title":"Nobody ever ported Doom to run on a Cray 1","date":"December 21, 2020","dateISO":"2020-12-21T19:46:56.800Z","datetime":"2020-12-21 19:46","tags":["story","Hacker News"],"image":null,"imageAlt":null,"provider":"Hacker News","thirdPartyId":"25494648","url":"https://news.ycombinator.com/item?id=25494648","originalUrl":"https://twitter.com/id_aa_carmack/status/1340794861050605568","imageRemote":null,"video":null,"channel":null,"channelUrl":null,"author":"tosh","authorUrl":"https://news.ycombinator.com/user?id=tosh","authorImage":null,"authorSlug":null,"score":224,"views":null,"sharedCount":null,"likeCount":null,"sharedContent":null,"parent":{"__typename":"HnJson","localize":[{"title":"从来没有人把“末日”移植到克雷1号上运行。","locale":"zh"},{"title":"從來沒有人把“末日”移植到克雷1號上運行。","locale":"zh-Hant"}]}},{"__typename":"SocialMediaPost","id":"HnPost-25497065","excerpt":"","slug":"/hn/25497065","title":"Zero-Bundle-Size React Server Components","date":"December 21, 2020","dateISO":"2020-12-21T19:33:08.949Z","datetime":"2020-12-21 19:33","tags":["story","Hacker News"],"image":null,"imageAlt":null,"provider":"Hacker News","thirdPartyId":"25497065","url":"https://news.ycombinator.com/item?id=25497065","originalUrl":"https://reactjs.org/blog/2020/12/21/data-fetching-with-react-server-components.html","imageRemote":"https://reactjs.org/logo-og.png","video":null,"channel":null,"channelUrl":null,"author":"danabramov","authorUrl":"https://news.ycombinator.com/user?id=danabramov","authorImage":null,"authorSlug":null,"score":223,"views":null,"sharedCount":null,"likeCount":null,"sharedContent":null,"parent":{"__typename":"HnJson","localize":[{"title":"零捆绑包大小的Reaction服务器组件","locale":"zh"},{"title":"零捆綁包大小的Reaction服務器組件","locale":"zh-Hant"}]}},{"__typename":"SocialMediaPost","id":"HnPost-25493577","excerpt":"","slug":"/hn/25493577","title":"Pijul: Commutation and Scalability","date":"December 21, 2020","dateISO":"2020-12-21T19:08:47.443Z","datetime":"2020-12-21 19:08","tags":["story","Hacker News"],"image":null,"imageAlt":null,"provider":"Hacker News","thirdPartyId":"25493577","url":"https://news.ycombinator.com/item?id=25493577","originalUrl":"https://pijul.org/posts/2020-12-19-partials/","imageRemote":null,"video":null,"channel":null,"channelUrl":null,"author":"Ygg2","authorUrl":"https://news.ycombinator.com/user?id=Ygg2","authorImage":null,"authorSlug":null,"score":151,"views":null,"sharedCount":null,"likeCount":null,"sharedContent":null,"parent":{"__typename":"HnJson","localize":[{"title":"Pijul：可换性和可扩展性","locale":"zh"},{"title":"Pijul：可換性和可擴展性","locale":"zh-Hant"}]}},{"__typename":"SocialMediaPost","id":"HnPost-25494988","excerpt":"","slug":"/hn/25494988","title":"Show HN: Find the safest well lit walking route between two locations","date":"December 21, 2020","dateISO":"2020-12-21T18:47:23.529Z","datetime":"2020-12-21 18:47","tags":["story","Show HN","Hacker News"],"image":null,"imageAlt":null,"provider":"Hacker News","thirdPartyId":"25494988","url":"https://news.ycombinator.com/item?id=25494988","originalUrl":"https://github.com/mfbx9da4/brightpath-backend#mission","imageRemote":"https://avatars1.githubusercontent.com/u/1690659?s=400&v=4","video":null,"channel":"Show HN","channelUrl":"https://news.ycombinator.com/show","author":"mfbx9da4","authorUrl":"https://news.ycombinator.com/user?id=mfbx9da4","authorImage":null,"authorSlug":null,"score":222,"views":null,"sharedCount":null,"likeCount":null,"sharedContent":null,"parent":{"__typename":"HnJson","localize":[{"title":"HN新产品：找到两个地点之间最安全、照明最好的步行路线","locale":"zh"},{"title":"SHOW HN：找到兩個地點之間最安全、照明最好的步行路線","locale":"zh-Hant"}]}},{"__typename":"SocialMediaPost","id":"HnPost-25496725","excerpt":"","slug":"/hn/25496725","title":"Evidence of “modified gravity” in 150 galaxies bolsters dark matter alternative","date":"December 21, 2020","dateISO":"2020-12-21T18:47:23.529Z","datetime":"2020-12-21 18:47","tags":["story","Hacker News"],"image":null,"imageAlt":null,"provider":"Hacker News","thirdPartyId":"25496725","url":"https://news.ycombinator.com/item?id=25496725","originalUrl":"https://newatlas.com/physics/modified-gravity-evidence-dark-matter/","imageRemote":"https://assets.newatlas.com/dims4/default/2f9beb2/2147483647/strip/true/crop/3130x1643+0+121/resize/1200x630!/quality/90/?url=http%3A%2F%2Fnewatlas-brightspot.s3.amazonaws.com%2F68%2F6f%2F459e085349f5a49aacb35c1105e8%2Fgalaxy.jpg","video":null,"channel":null,"channelUrl":null,"author":"bookofjoe","authorUrl":"https://news.ycombinator.com/user?id=bookofjoe","authorImage":null,"authorSlug":null,"score":347,"views":null,"sharedCount":null,"likeCount":null,"sharedContent":null,"parent":{"__typename":"HnJson","localize":[{"title":"150个星系中“修改引力”的证据支持另一种暗物质选择","locale":"zh"},{"title":"150個星系中“修改引力”的證據支持另一種暗物質選擇","locale":"zh-Hant"}]}},{"__typename":"SocialMediaPost","id":"HnPost-25495393","excerpt":"","slug":"/hn/25495393","title":"Show HN: NoteCalc","date":"December 21, 2020","dateISO":"2020-12-21T18:01:49.948Z","datetime":"2020-12-21 18:01","tags":["story","Show HN","Hacker News"],"image":null,"imageAlt":null,"provider":"Hacker News","thirdPartyId":"25495393","url":"https://news.ycombinator.com/item?id=25495393","originalUrl":"https://github.com/bbodi/notecalc3/releases/tag/v0.3.0","imageRemote":"https://avatars1.githubusercontent.com/u/2362136?s=400&v=4","video":null,"channel":"Show HN","channelUrl":"https://news.ycombinator.com/show","author":"bbodi","authorUrl":"https://news.ycombinator.com/user?id=bbodi","authorImage":null,"authorSlug":null,"score":264,"views":null,"sharedCount":null,"likeCount":null,"sharedContent":null,"parent":{"__typename":"HnJson","localize":[{"title":"HN新产品：NoteCalc","locale":"zh"},{"title":"HN新产品：NoteCalc","locale":"zh-Hant"}]}},{"__typename":"SocialMediaPost","id":"HnPost-25485624","excerpt":"","slug":"/hn/25485624","title":"Show HN: Galène Videoconferencing Server","date":"December 21, 2020","dateISO":"2020-12-21T16:48:47.545Z","datetime":"2020-12-21 16:48","tags":["story","Show HN","Hacker News"],"image":null,"imageAlt":null,"provider":"Hacker News","thirdPartyId":"25485624","url":"https://news.ycombinator.com/item?id=25485624","originalUrl":"https://galene.org","imageRemote":"https://galene.org/images/sfu-2000-small.jpg","video":null,"channel":"Show HN","channelUrl":"https://news.ycombinator.com/show","author":"jech","authorUrl":"https://news.ycombinator.com/user?id=jech","authorImage":null,"authorSlug":null,"score":131,"views":null,"sharedCount":null,"likeCount":null,"sharedContent":null,"parent":{"__typename":"HnJson","localize":[{"title":"HN新产品：Galène视频会议服务器","locale":"zh"},{"title":"HN新产品：Galène視頻會議服務器","locale":"zh-Hant"}]}},{"__typename":"SocialMediaPost","id":"HnPost-25495768","excerpt":"","slug":"/hn/25495768","title":"Congress is set to ban most surprise medical bills","date":"December 21, 2020","dateISO":"2020-12-21T16:48:47.545Z","datetime":"2020-12-21 16:48","tags":["story","Hacker News"],"image":null,"imageAlt":null,"provider":"Hacker News","thirdPartyId":"25495768","url":"https://news.ycombinator.com/item?id=25495768","originalUrl":"https://www.nytimes.com/2020/12/20/upshot/surprise-medical-bills-congress-ban.html","imageRemote":"https://static01.nyt.com/images/2020/12/22/upshot/00up-surprise-bill-print/00up-surprise-bill-facebookJumbo-v3.jpg","video":null,"channel":null,"channelUrl":null,"author":"jseliger","authorUrl":"https://news.ycombinator.com/user?id=jseliger","authorImage":null,"authorSlug":null,"score":463,"views":null,"sharedCount":null,"likeCount":null,"sharedContent":null,"parent":{"__typename":"HnJson","localize":[{"title":"国会将禁止最令人惊讶的医疗法案","locale":"zh"},{"title":"國會將禁止最令人驚訝的醫療法案","locale":"zh-Hant"}]}},{"__typename":"SocialMediaPost","id":"HnPost-25493773","excerpt":"","slug":"/hn/25493773","title":"New coronavirus variant in UK: What do we know?","date":"December 21, 2020","dateISO":"2020-12-21T16:07:15.026Z","datetime":"2020-12-21 16:07","tags":["story","Hacker News"],"image":null,"imageAlt":null,"provider":"Hacker News","thirdPartyId":"25493773","url":"https://news.ycombinator.com/item?id=25493773","originalUrl":"https://www.bbc.com/news/health-55388846","imageRemote":"https://ichef.bbci.co.uk/news/1024/branded_news/90FF/production/_116191173_gettyimages-1212213051.jpg","video":null,"channel":null,"channelUrl":null,"author":"justforfunhere","authorUrl":"https://news.ycombinator.com/user?id=justforfunhere","authorImage":null,"authorSlug":null,"score":240,"views":null,"sharedCount":null,"likeCount":null,"sharedContent":null,"parent":{"__typename":"HnJson","localize":[{"title":"英国新的冠状病毒变种：我们知道些什么？","locale":"zh"},{"title":"英國新的冠狀病毒變種：我們知道些什麼？","locale":"zh-Hant"}]}}]}},"pageContext":{"basePath":"/","pageType":"tag","tag":"story","tagsFilter":{"id":{"glob":"!*Post-1"}},"filter":{"id":{"glob":"!*Post-1"},"tags":{"eq":"story"}},"limit":25,"skip":550,"total":798,"totalPages":32,"currentPage":23,"maxWidth":1024,"maxHeight":512,"locale":"zh-Hant","hrefLang":"zh-Hant","originalPath":"/tags/story/page/23","dateFormat":"YYYY-MM-DD"}},"staticQueryHashes":["1239077767","1684688348","2506312863","2744905544","3493603132","3493603132","386998304"]}