{"componentChunkName":"component---gatsby-theme-buzzing-src-gatsby-theme-timeline-templates-posts-query-js","path":"/zh-Hant/tags/ask-hn/","result":{"data":{"site":{"siteMetadata":{"title":"Reddit 热门","description":"用中文浏览Reddit热门内容","social":[{"name":"Twitter","url":"https://twitter.com/gatsbyjs","external":null,"prefetch":null},{"name":"GitHub","url":"https://github.com/gatsbyjs","external":null,"prefetch":null}],"menuLinks":[],"localize":[{"locale":"en","title":"Buzzing on Reddit","description":"See what's buzzing on Reddit in your native language","social":[{"name":"Reddit","url":"https://www.reddit.com/","external":true,"prefetch":null}],"menuLinks":[{"name":"Weekly Selection","url":"/issues","external":null,"prefetch":null},{"name":"RSS","url":"/rss.xml","external":null,"prefetch":false}]},{"locale":"zh-Hant","title":"Reddit 熱門","description":"用中文瀏覽Reddit熱門內容","social":null,"menuLinks":null}]}},"tagsGroup":{"group":[{"fieldValue":"ASK HN","totalCount":36},{"fieldValue":"Bitcoin","totalCount":4},{"fieldValue":"Hacker News","totalCount":2185},{"fieldValue":"Poll","totalCount":1},{"fieldValue":"SaveAMC","totalCount":1},{"fieldValue":"Show HN","totalCount":76},{"fieldValue":"bitcoin","totalCount":3},{"fieldValue":"investing","totalCount":686},{"fieldValue":"poll","totalCount":1},{"fieldValue":"reddit","totalCount":4012},{"fieldValue":"science","totalCount":1},{"fieldValue":"stocks","totalCount":1322},{"fieldValue":"story","totalCount":2184},{"fieldValue":"tweet","totalCount":697},{"fieldValue":"wallstreetbets","totalCount":2004}]},"allBlogPost":{"nodes":[{"__typename":"SocialMediaPost","id":"HnPost-26304051","excerpt":"","slug":"/hn/26304051","title":"Ask HN: Who is hiring? (March 2021)","date":"March 01, 2021","dateISO":"2021-03-01T18:48:53.960Z","datetime":"2021-03-01 18:48","tags":["story","ASK HN","Hacker News"],"image":null,"imageAlt":null,"provider":"Hacker News","thirdPartyId":"26304051","url":"https://news.ycombinator.com/item?id=26304051","originalUrl":"https://news.ycombinator.com/item?id=26304051","imageRemote":null,"video":null,"channel":"ASK HN","channelUrl":"https://news.ycombinator.com/ask","author":"whoishiring","authorUrl":"https://news.ycombinator.com/user?id=whoishiring","authorImage":null,"authorSlug":null,"score":164,"views":null,"sharedCount":null,"likeCount":null,"sharedContent":null,"parent":{"__typename":"HnJson","localize":[{"title":"问HN：谁在招聘？(2021年3月)","locale":"zh"},{"title":"問HN：誰在招聘？(2021年3月)","locale":"zh-Hant"}]}},{"__typename":"SocialMediaPost","id":"HnPost-26171008","excerpt":"","slug":"/hn/26171008","title":"Ask HN: Advice for finding an entry-level remote job?","date":"February 17, 2021","dateISO":"2021-02-17T23:57:07.860Z","datetime":"2021-02-17 23:57","tags":["story","ASK HN","Hacker News"],"image":null,"imageAlt":null,"provider":"Hacker News","thirdPartyId":"26171008","url":"https://news.ycombinator.com/item?id=26171008","originalUrl":"https://news.ycombinator.com/item?id=26171008","imageRemote":null,"video":null,"channel":"ASK HN","channelUrl":"https://news.ycombinator.com/ask","author":"AskHNremote2021","authorUrl":"https://news.ycombinator.com/user?id=AskHNremote2021","authorImage":null,"authorSlug":null,"score":719,"views":null,"sharedCount":null,"likeCount":null,"sharedContent":null,"parent":{"__typename":"HnJson","localize":[{"title":"问HN：找一份入门级远程工作的建议？","locale":"zh"},{"title":"問HN：找一份入門級遠程工作的建議？","locale":"zh-Hant"}]}},{"__typename":"SocialMediaPost","id":"HnPost-26143407","excerpt":"","slug":"/hn/26143407","title":"Ask HN: Why are e-ink note-taking devices so expensive compared to iPads?","date":"February 15, 2021","dateISO":"2021-02-15T19:52:57.331Z","datetime":"2021-02-15 19:52","tags":["story","ASK HN","Hacker News"],"image":null,"imageAlt":null,"provider":"Hacker News","thirdPartyId":"26143407","url":"https://news.ycombinator.com/item?id=26143407","originalUrl":"https://news.ycombinator.com/item?id=26143407","imageRemote":null,"video":null,"channel":"ASK HN","channelUrl":"https://news.ycombinator.com/ask","author":"behnamoh","authorUrl":"https://news.ycombinator.com/user?id=behnamoh","authorImage":null,"authorSlug":null,"score":330,"views":null,"sharedCount":null,"likeCount":null,"sharedContent":null,"parent":{"__typename":"HnJson","localize":[{"title":"问HN：为什么电子墨水记事本设备比iPad贵？","locale":"zh"},{"title":"問HN：爲什麼電子墨水記事本設備比iPad貴？","locale":"zh-Hant"}]}},{"__typename":"SocialMediaPost","id":"HnPost-26137479","excerpt":"","slug":"/hn/26137479","title":"Ask HN: What are the best websites that the Anglosphere doesn't know about?","date":"February 15, 2021","dateISO":"2021-02-15T03:44:47.026Z","datetime":"2021-02-15 03:44","tags":["story","ASK HN","Hacker News"],"image":null,"imageAlt":null,"provider":"Hacker News","thirdPartyId":"26137479","url":"https://news.ycombinator.com/item?id=26137479","originalUrl":"https://news.ycombinator.com/item?id=26137479","imageRemote":null,"video":null,"channel":"ASK HN","channelUrl":"https://news.ycombinator.com/ask","author":"remolacha","authorUrl":"https://news.ycombinator.com/user?id=remolacha","authorImage":null,"authorSlug":null,"score":537,"views":null,"sharedCount":null,"likeCount":null,"sharedContent":null,"parent":{"__typename":"HnJson","localize":[{"title":"问HN：有哪些好的网站是英伦人不知道的？","locale":"zh"},{"title":"問HN：有哪些好的網站是英倫人不知道的？","locale":"zh-Hant"}]}},{"__typename":"SocialMediaPost","id":"HnPost-26112361","excerpt":"","slug":"/hn/26112361","title":"Ask HN: Why aren't you coding?","date":"February 13, 2021","dateISO":"2021-02-13T09:25:18.664Z","datetime":"2021-02-13 09:25","tags":["story","ASK HN","Hacker News"],"image":null,"imageAlt":null,"provider":"Hacker News","thirdPartyId":"26112361","url":"https://news.ycombinator.com/item?id=26112361","originalUrl":"https://news.ycombinator.com/item?id=26112361","imageRemote":null,"video":null,"channel":"ASK HN","channelUrl":"https://news.ycombinator.com/ask","author":"boffinism","authorUrl":"https://news.ycombinator.com/user?id=boffinism","authorImage":null,"authorSlug":null,"score":217,"views":null,"sharedCount":null,"likeCount":null,"sharedContent":null,"parent":{"__typename":"HnJson","localize":[{"title":"问HN：你为什么不打码？","locale":"zh"},{"title":"問HN：你爲什麼不打碼？","locale":"zh-Hant"}]}},{"__typename":"SocialMediaPost","id":"HnPost-26080163","excerpt":"","slug":"/hn/26080163","title":"Ask HN: Team fun event ideas during WFH?","date":"February 10, 2021","dateISO":"2021-02-10T01:23:15.722Z","datetime":"2021-02-10 01:23","tags":["story","ASK HN","Hacker News"],"image":null,"imageAlt":null,"provider":"Hacker News","thirdPartyId":"26080163","url":"https://news.ycombinator.com/item?id=26080163","originalUrl":"https://news.ycombinator.com/item?id=26080163","imageRemote":null,"video":null,"channel":"ASK HN","channelUrl":"https://news.ycombinator.com/ask","author":"pseudobry","authorUrl":"https://news.ycombinator.com/user?id=pseudobry","authorImage":null,"authorSlug":null,"score":211,"views":null,"sharedCount":null,"likeCount":null,"sharedContent":null,"parent":{"__typename":"HnJson","localize":[{"title":"问HN：WFH期间的团队趣味活动创意？","locale":"zh"},{"title":"問HN：WFH期間的團隊趣味活動創意？","locale":"zh-Hant"}]}},{"__typename":"SocialMediaPost","id":"HnPost-25992782","excerpt":"","slug":"/hn/25992782","title":"Ask HN: What is your “I don't care if this succeeds” project?","date":"February 02, 2021","dateISO":"2021-02-02T13:32:17.549Z","datetime":"2021-02-02 13:32","tags":["story","ASK HN","Hacker News"],"image":null,"imageAlt":null,"provider":"Hacker News","thirdPartyId":"25992782","url":"https://news.ycombinator.com/item?id=25992782","originalUrl":"https://news.ycombinator.com/item?id=25992782","imageRemote":null,"video":null,"channel":"ASK HN","channelUrl":"https://news.ycombinator.com/ask","author":"as89","authorUrl":"https://news.ycombinator.com/user?id=as89","authorImage":null,"authorSlug":null,"score":225,"views":null,"sharedCount":null,"likeCount":null,"sharedContent":null,"parent":{"__typename":"HnJson","localize":[{"title":"问HN：你的 \"我不在乎这件事是否成功 \"的项目是什么？","locale":"zh"},{"title":"問HN：你的 \"我不在乎這件事是否成功 \"的項目是什麼？","locale":"zh-Hant"}]}},{"__typename":"SocialMediaPost","id":"HnPost-25989764","excerpt":"","slug":"/hn/25989764","title":"Ask HN: Who is hiring? (February 2021)","date":"February 01, 2021","dateISO":"2021-02-01T19:54:57.725Z","datetime":"2021-02-01 19:54","tags":["story","ASK HN","Hacker News"],"image":null,"imageAlt":null,"provider":"Hacker News","thirdPartyId":"25989764","url":"https://news.ycombinator.com/item?id=25989764","originalUrl":"https://news.ycombinator.com/item?id=25989764","imageRemote":null,"video":null,"channel":"ASK HN","channelUrl":"https://news.ycombinator.com/ask","author":"whoishiring","authorUrl":"https://news.ycombinator.com/user?id=whoishiring","authorImage":null,"authorSlug":null,"score":455,"views":null,"sharedCount":null,"likeCount":null,"sharedContent":null,"parent":{"__typename":"HnJson","localize":[{"title":"问HN：谁在招聘？(2021年2月)","locale":"zh"},{"title":"問HN：誰在招聘？(2021年2月)","locale":"zh-Hant"}]}},{"__typename":"SocialMediaPost","id":"HnPost-25987664","excerpt":"","slug":"/hn/25987664","title":"Ask HN: Recommended books and papers on distributed systems?","date":"February 01, 2021","dateISO":"2021-02-01T16:57:04.625Z","datetime":"2021-02-01 16:57","tags":["story","ASK HN","Hacker News"],"image":null,"imageAlt":null,"provider":"Hacker News","thirdPartyId":"25987664","url":"https://news.ycombinator.com/item?id=25987664","originalUrl":"https://news.ycombinator.com/item?id=25987664","imageRemote":null,"video":null,"channel":"ASK HN","channelUrl":"https://news.ycombinator.com/ask","author":"letientai299","authorUrl":"https://news.ycombinator.com/user?id=letientai299","authorImage":null,"authorSlug":null,"score":293,"views":null,"sharedCount":null,"likeCount":null,"sharedContent":null,"parent":{"__typename":"HnJson","localize":[{"title":"问HN：推荐分布式系统的书籍和论文？","locale":"zh"},{"title":"問HN：推薦分佈式系統的書籍和論文？","locale":"zh-Hant"}]}},{"__typename":"SocialMediaPost","id":"HnPost-25962178","excerpt":"","slug":"/hn/25962178","title":"Ask HN: Remote workers in a non-tech city, what's your experience?","date":"January 30, 2021","dateISO":"2021-01-30T10:52:17.528Z","datetime":"2021-01-30 10:52","tags":["story","ASK HN","Hacker News"],"image":null,"imageAlt":null,"provider":"Hacker News","thirdPartyId":"25962178","url":"https://news.ycombinator.com/item?id=25962178","originalUrl":"https://news.ycombinator.com/item?id=25962178","imageRemote":null,"video":null,"channel":"ASK HN","channelUrl":"https://news.ycombinator.com/ask","author":"holsOndI","authorUrl":"https://news.ycombinator.com/user?id=holsOndI","authorImage":null,"authorSlug":null,"score":222,"views":null,"sharedCount":null,"likeCount":null,"sharedContent":null,"parent":{"__typename":"HnJson","localize":[{"title":"问HN：在非科技城市的远程工作者，你有什么经验？","locale":"zh"},{"title":"問HN：在非科技城市的遠程工作者，你有什麼經驗？","locale":"zh-Hant"}]}},{"__typename":"SocialMediaPost","id":"HnPost-25850739","excerpt":"","slug":"/hn/25850739","title":"Ask HN: Anyone know any funny programming jokes?","date":"January 21, 2021","dateISO":"2021-01-21T14:59:13.675Z","datetime":"2021-01-21 14:59","tags":["story","ASK HN","Hacker News"],"image":null,"imageAlt":null,"provider":"Hacker News","thirdPartyId":"25850739","url":"https://news.ycombinator.com/item?id=25850739","originalUrl":"https://news.ycombinator.com/item?id=25850739","imageRemote":null,"video":null,"channel":"ASK HN","channelUrl":"https://news.ycombinator.com/ask","author":"arthurcolle","authorUrl":"https://news.ycombinator.com/user?id=arthurcolle","authorImage":null,"authorSlug":null,"score":674,"views":null,"sharedCount":null,"likeCount":null,"sharedContent":null,"parent":{"__typename":"HnJson","localize":[{"title":"HN提问：有谁知道什么有趣的编程笑话？","locale":"zh"},{"title":"HN提問：有誰知道什麼有趣的編程笑話？","locale":"zh-Hant"}]}},{"__typename":"SocialMediaPost","id":"HnPost-25833639","excerpt":"","slug":"/hn/25833639","title":"Ask HN: Anyone else burnt out due to extended lockdown and work-from-home?","date":"January 19, 2021","dateISO":"2021-01-19T18:27:05.032Z","datetime":"2021-01-19 18:27","tags":["story","ASK HN","Hacker News"],"image":null,"imageAlt":null,"provider":"Hacker News","thirdPartyId":"25833639","url":"https://news.ycombinator.com/item?id=25833639","originalUrl":"https://news.ycombinator.com/item?id=25833639","imageRemote":null,"video":null,"channel":"ASK HN","channelUrl":"https://news.ycombinator.com/ask","author":"throwwfh","authorUrl":"https://news.ycombinator.com/user?id=throwwfh","authorImage":null,"authorSlug":null,"score":694,"views":null,"sharedCount":null,"likeCount":null,"sharedContent":null,"parent":{"__typename":"HnJson","localize":[{"title":"HN提问：还有人因为长时间的封锁和在家办公而焦头烂额吗？","locale":"zh"},{"title":"HN提問：還有人因爲長時間的封鎖和在家辦公而焦頭爛額嗎？","locale":"zh-Hant"}]}},{"__typename":"SocialMediaPost","id":"HnPost-25812021","excerpt":"","slug":"/hn/25812021","title":"Ask HN: Which are the best Go repositories to read to learn the language?","date":"January 18, 2021","dateISO":"2021-01-18T09:00:58.729Z","datetime":"2021-01-18 09:00","tags":["story","ASK HN","Hacker News"],"image":null,"imageAlt":null,"provider":"Hacker News","thirdPartyId":"25812021","url":"https://news.ycombinator.com/item?id=25812021","originalUrl":"https://news.ycombinator.com/item?id=25812021","imageRemote":null,"video":null,"channel":"ASK HN","channelUrl":"https://news.ycombinator.com/ask","author":"Kreotiko","authorUrl":"https://news.ycombinator.com/user?id=Kreotiko","authorImage":null,"authorSlug":null,"score":197,"views":null,"sharedCount":null,"likeCount":null,"sharedContent":null,"parent":{"__typename":"HnJson","localize":[{"title":"HN提问：学习语言的围棋资源库哪家好读？","locale":"zh"},{"title":"HN提問：學習語言的圍棋資源庫哪家好讀？","locale":"zh-Hant"}]}},{"__typename":"SocialMediaPost","id":"HnPost-25783152","excerpt":"","slug":"/hn/25783152","title":"Ask HN: What are you working on?","date":"January 16, 2021","dateISO":"2021-01-16T11:49:51.818Z","datetime":"2021-01-16 11:49","tags":["story","ASK HN","Hacker News"],"image":null,"imageAlt":null,"provider":"Hacker News","thirdPartyId":"25783152","url":"https://news.ycombinator.com/item?id=25783152","originalUrl":"https://news.ycombinator.com/item?id=25783152","imageRemote":null,"video":null,"channel":"ASK HN","channelUrl":"https://news.ycombinator.com/ask","author":"dvt","authorUrl":"https://news.ycombinator.com/user?id=dvt","authorImage":null,"authorSlug":null,"score":526,"views":null,"sharedCount":null,"likeCount":null,"sharedContent":null,"parent":{"__typename":"HnJson","localize":[{"title":"HN提问：你在研究什么？","locale":"zh"},{"title":"HN提問：你在研究什麼？","locale":"zh-Hant"}]}},{"__typename":"SocialMediaPost","id":"HnPost-25766884","excerpt":"","slug":"/hn/25766884","title":"Ask HN: How to increase SWE salaries in Europe?","date":"January 14, 2021","dateISO":"2021-01-14T07:41:00.674Z","datetime":"2021-01-14 07:41","tags":["story","ASK HN","Hacker News"],"image":null,"imageAlt":null,"provider":"Hacker News","thirdPartyId":"25766884","url":"https://news.ycombinator.com/item?id=25766884","originalUrl":"https://news.ycombinator.com/item?id=25766884","imageRemote":null,"video":null,"channel":"ASK HN","channelUrl":"https://news.ycombinator.com/ask","author":"euengthrowaway","authorUrl":"https://news.ycombinator.com/user?id=euengthrowaway","authorImage":null,"authorSlug":null,"score":383,"views":null,"sharedCount":null,"likeCount":null,"sharedContent":null,"parent":{"__typename":"HnJson","localize":[{"title":"HN提问：如何提高欧洲SWE的工资？","locale":"zh"},{"title":"HN提問：如何提高歐洲SWE的工資？","locale":"zh-Hant"}]}},{"__typename":"SocialMediaPost","id":"HnPost-25764142","excerpt":"","slug":"/hn/25764142","title":"Ask HN: How do we know Signal or Telegram don't store our data on their servers?","date":"January 14, 2021","dateISO":"2021-01-14T01:50:48.476Z","datetime":"2021-01-14 01:50","tags":["story","ASK HN","Hacker News"],"image":null,"imageAlt":null,"provider":"Hacker News","thirdPartyId":"25764142","url":"https://news.ycombinator.com/item?id=25764142","originalUrl":"https://news.ycombinator.com/item?id=25764142","imageRemote":null,"video":null,"channel":"ASK HN","channelUrl":"https://news.ycombinator.com/ask","author":"smoqadam","authorUrl":"https://news.ycombinator.com/user?id=smoqadam","authorImage":null,"authorSlug":null,"score":257,"views":null,"sharedCount":null,"likeCount":null,"sharedContent":null,"parent":{"__typename":"HnJson","localize":[{"title":"HN提问：我们怎么知道Signal或Telegram不在他们的服务器上存储我们的数据？","locale":"zh"},{"title":"HN提問：我們怎麼知道Signal或Telegram不在他們的服務器上存儲我們的數據？","locale":"zh-Hant"}]}},{"__typename":"SocialMediaPost","id":"HnPost-25760750","excerpt":"","slug":"/hn/25760750","title":"Ask HN: Do we need a Google Customers Union? Could it work?","date":"January 13, 2021","dateISO":"2021-01-13T17:21:36.397Z","datetime":"2021-01-13 17:21","tags":["story","ASK HN","Hacker News"],"image":null,"imageAlt":null,"provider":"Hacker News","thirdPartyId":"25760750","url":"https://news.ycombinator.com/item?id=25760750","originalUrl":"https://news.ycombinator.com/item?id=25760750","imageRemote":null,"video":null,"channel":"ASK HN","channelUrl":"https://news.ycombinator.com/ask","author":"CaptainJustin","authorUrl":"https://news.ycombinator.com/user?id=CaptainJustin","authorImage":null,"authorSlug":null,"score":333,"views":null,"sharedCount":null,"likeCount":null,"sharedContent":null,"parent":{"__typename":"HnJson","localize":[{"title":"HN提问：我们需要一个谷歌客户联盟吗？能否行得通？","locale":"zh"},{"title":"HN提問：我們需要一個谷歌客戶聯盟嗎？能否行得通？","locale":"zh-Hant"}]}},{"__typename":"SocialMediaPost","id":"HnPost-25700135","excerpt":"","slug":"/hn/25700135","title":"Ask HN: Show me your half baked project","date":"January 09, 2021","dateISO":"2021-01-09T19:02:26.827Z","datetime":"2021-01-09 19:02","tags":["story","ASK HN","Hacker News"],"image":null,"imageAlt":null,"provider":"Hacker News","thirdPartyId":"25700135","url":"https://news.ycombinator.com/item?id=25700135","originalUrl":"https://news.ycombinator.com/item?id=25700135","imageRemote":null,"video":null,"channel":"ASK HN","channelUrl":"https://news.ycombinator.com/ask","author":"notoriousarun","authorUrl":"https://news.ycombinator.com/user?id=notoriousarun","authorImage":null,"authorSlug":null,"score":416,"views":null,"sharedCount":null,"likeCount":null,"sharedContent":null,"parent":{"__typename":"HnJson","localize":[{"title":"HN提问：给我看看你的半生不熟的项目","locale":"zh"},{"title":"HN提問：給我看看你的半生不熟的項目","locale":"zh-Hant"}]}},{"__typename":"SocialMediaPost","id":"HnPost-25695682","excerpt":"","slug":"/hn/25695682","title":"Ask HN: What are decentralized Twitter alternatives?","date":"January 09, 2021","dateISO":"2021-01-09T17:16:57.747Z","datetime":"2021-01-09 17:16","tags":["story","ASK HN","Hacker News"],"image":null,"imageAlt":null,"provider":"Hacker News","thirdPartyId":"25695682","url":"https://news.ycombinator.com/item?id=25695682","originalUrl":"https://news.ycombinator.com/item?id=25695682","imageRemote":null,"video":null,"channel":"ASK HN","channelUrl":"https://news.ycombinator.com/ask","author":"InInteraction","authorUrl":"https://news.ycombinator.com/user?id=InInteraction","authorImage":null,"authorSlug":null,"score":276,"views":null,"sharedCount":null,"likeCount":null,"sharedContent":null,"parent":{"__typename":"HnJson","localize":[{"title":"HN提问：去中心化的推特有哪些替代方案？","locale":"zh"},{"title":"HN提問：去中心化的推特有哪些替代方案？","locale":"zh-Hant"}]}},{"__typename":"SocialMediaPost","id":"HnPost-25673441","excerpt":"","slug":"/hn/25673441","title":"Ask HN: How would you convince your friends and family to switch from WhatsApp?","date":"January 07, 2021","dateISO":"2021-01-07T21:28:39.285Z","datetime":"2021-01-07 21:28","tags":["story","ASK HN","Hacker News"],"image":null,"imageAlt":null,"provider":"Hacker News","thirdPartyId":"25673441","url":"https://news.ycombinator.com/item?id=25673441","originalUrl":"https://news.ycombinator.com/item?id=25673441","imageRemote":null,"video":null,"channel":"ASK HN","channelUrl":"https://news.ycombinator.com/ask","author":"millibar","authorUrl":"https://news.ycombinator.com/user?id=millibar","authorImage":null,"authorSlug":null,"score":250,"views":null,"sharedCount":null,"likeCount":null,"sharedContent":null,"parent":{"__typename":"HnJson","localize":[{"title":"HN提问：你如何说服你的朋友和家人改用WhatsApp？","locale":"zh"},{"title":"HN提問：你如何說服你的朋友和家人改用WhatsApp？","locale":"zh-Hant"}]}},{"__typename":"SocialMediaPost","id":"HnPost-25643940","excerpt":"","slug":"/hn/25643940","title":"Ask HN: What does mastery look like in software engineering?","date":"January 07, 2021","dateISO":"2021-01-07T09:16:02.161Z","datetime":"2021-01-07 09:16","tags":["story","ASK HN","Hacker News"],"image":null,"imageAlt":null,"provider":"Hacker News","thirdPartyId":"25643940","url":"https://news.ycombinator.com/item?id=25643940","originalUrl":"https://news.ycombinator.com/item?id=25643940","imageRemote":null,"video":null,"channel":"ASK HN","channelUrl":"https://news.ycombinator.com/ask","author":"abdabab","authorUrl":"https://news.ycombinator.com/user?id=abdabab","authorImage":null,"authorSlug":null,"score":353,"views":null,"sharedCount":null,"likeCount":null,"sharedContent":null,"parent":{"__typename":"HnJson","localize":[{"title":"HN提问：精通在软件工程中是什么样子的？","locale":"zh"},{"title":"HN提問：精通在軟件工程中是什麼樣子的？","locale":"zh-Hant"}]}},{"__typename":"SocialMediaPost","id":"HnPost-25650224","excerpt":"","slug":"/hn/25650224","title":"Ask HN: Please share your experience teaching your kids to program","date":"January 06, 2021","dateISO":"2021-01-06T04:30:27.453Z","datetime":"2021-01-06 04:30","tags":["story","ASK HN","Hacker News"],"image":null,"imageAlt":null,"provider":"Hacker News","thirdPartyId":"25650224","url":"https://news.ycombinator.com/item?id=25650224","originalUrl":"https://news.ycombinator.com/item?id=25650224","imageRemote":null,"video":null,"channel":"ASK HN","channelUrl":"https://news.ycombinator.com/ask","author":"lmilcin","authorUrl":"https://news.ycombinator.com/user?id=lmilcin","authorImage":null,"authorSlug":null,"score":290,"views":null,"sharedCount":null,"likeCount":null,"sharedContent":null,"parent":{"__typename":"HnJson","localize":[{"title":"HN提问：请分享您教孩子编程的经验","locale":"zh"},{"title":"HN提問：請分享您教孩子編程的經驗","locale":"zh-Hant"}]}},{"__typename":"SocialMediaPost","id":"HnPost-25644817","excerpt":"","slug":"/hn/25644817","title":"Ask HN: Who's looking for a co-founder?","date":"January 05, 2021","dateISO":"2021-01-05T18:12:16.890Z","datetime":"2021-01-05 18:12","tags":["story","ASK HN","Hacker News"],"image":null,"imageAlt":null,"provider":"Hacker News","thirdPartyId":"25644817","url":"https://news.ycombinator.com/item?id=25644817","originalUrl":"https://news.ycombinator.com/item?id=25644817","imageRemote":null,"video":null,"channel":"ASK HN","channelUrl":"https://news.ycombinator.com/ask","author":"notoriousarun","authorUrl":"https://news.ycombinator.com/user?id=notoriousarun","authorImage":null,"authorSlug":null,"score":222,"views":null,"sharedCount":null,"likeCount":null,"sharedContent":null,"parent":{"__typename":"HnJson","localize":[{"title":"HN提问：谁在寻找联合创始人？","locale":"zh"},{"title":"HN提問：誰在尋找聯合創始人？","locale":"zh-Hant"}]}},{"__typename":"SocialMediaPost","id":"HnPost-25635115","excerpt":"","slug":"/hn/25635115","title":"Ask HN: Is HN slow today?","date":"January 05, 2021","dateISO":"2021-01-05T00:09:37.592Z","datetime":"2021-01-05 00:09","tags":["story","ASK HN","Hacker News"],"image":null,"imageAlt":null,"provider":"Hacker News","thirdPartyId":"25635115","url":"https://news.ycombinator.com/item?id=25635115","originalUrl":"https://news.ycombinator.com/item?id=25635115","imageRemote":null,"video":null,"channel":"ASK HN","channelUrl":"https://news.ycombinator.com/ask","author":"brundolf","authorUrl":"https://news.ycombinator.com/user?id=brundolf","authorImage":null,"authorSlug":null,"score":155,"views":null,"sharedCount":null,"likeCount":null,"sharedContent":null,"parent":{"__typename":"HnJson","localize":[{"title":"HN提问：HN今天慢吗？","locale":"zh"},{"title":"HN提問：HN今天慢嗎？","locale":"zh-Hant"}]}},{"__typename":"SocialMediaPost","id":"HnPost-25632982","excerpt":"","slug":"/hn/25632982","title":"Ask HN: Who is hiring? (January 2021)","date":"January 04, 2021","dateISO":"2021-01-04T20:01:59.447Z","datetime":"2021-01-04 20:01","tags":["story","ASK HN","Hacker News"],"image":null,"imageAlt":null,"provider":"Hacker News","thirdPartyId":"25632982","url":"https://news.ycombinator.com/item?id=25632982","originalUrl":"https://news.ycombinator.com/item?id=25632982","imageRemote":null,"video":null,"channel":"ASK HN","channelUrl":"https://news.ycombinator.com/ask","author":"whoishiring","authorUrl":"https://news.ycombinator.com/user?id=whoishiring","authorImage":null,"authorSlug":null,"score":403,"views":null,"sharedCount":null,"likeCount":null,"sharedContent":null,"parent":{"__typename":"HnJson","localize":[{"title":"HN提问：谁在招聘？(2021年1月)","locale":"zh"},{"title":"HN提問：誰在招聘？(2021年1月)","locale":"zh-Hant"}]}}]}},"pageContext":{"basePath":"/","pageType":"tag","tag":"ASK HN","tagsFilter":{"id":{"glob":"!*Post-1"}},"filter":{"id":{"glob":"!*Post-1"},"tags":{"eq":"ASK HN"}},"limit":25,"skip":0,"total":36,"totalPages":2,"currentPage":1,"maxWidth":1024,"maxHeight":512,"locale":"zh-Hant","hrefLang":"zh-Hant","originalPath":"/tags/ask-hn/","dateFormat":"YYYY-MM-DD"}},"staticQueryHashes":["1239077767","2506312863","2744905544","3025052997","3493603132","3493603132","3513215887","386998304"]}