{"componentChunkName":"component---gatsby-theme-buzzing-src-gatsby-theme-timeline-templates-posts-query-js","path":"/en/tags/story/page/35","result":{"data":{"site":{"siteMetadata":{"title":"Reddit 热门","description":"用中文浏览Reddit热门内容","social":[{"name":"Twitter","url":"https://twitter.com/gatsbyjs","external":null,"prefetch":null},{"name":"GitHub","url":"https://github.com/gatsbyjs","external":null,"prefetch":null}],"menuLinks":[],"localize":[{"locale":"en","title":"Buzzing on Reddit","description":"See what's buzzing on Reddit in your native language","social":[{"name":"Reddit","url":"https://www.reddit.com/","external":true,"prefetch":null}],"menuLinks":[{"name":"Weekly Selection","url":"/issues","external":null,"prefetch":null},{"name":"RSS","url":"/rss.xml","external":null,"prefetch":false}]},{"locale":"zh-Hant","title":"Reddit 熱門","description":"用中文瀏覽Reddit熱門內容","social":null,"menuLinks":null}]}},"tagsGroup":{"group":[{"fieldValue":"ASK HN","totalCount":36},{"fieldValue":"Bitcoin","totalCount":4},{"fieldValue":"Hacker News","totalCount":2185},{"fieldValue":"Poll","totalCount":1},{"fieldValue":"SaveAMC","totalCount":1},{"fieldValue":"Show HN","totalCount":76},{"fieldValue":"bitcoin","totalCount":3},{"fieldValue":"investing","totalCount":686},{"fieldValue":"poll","totalCount":1},{"fieldValue":"reddit","totalCount":4012},{"fieldValue":"science","totalCount":1},{"fieldValue":"stocks","totalCount":1322},{"fieldValue":"story","totalCount":2184},{"fieldValue":"tweet","totalCount":697},{"fieldValue":"wallstreetbets","totalCount":2004}]},"allBlogPost":{"nodes":[{"__typename":"SocialMediaPost","id":"HnPost-25934286","excerpt":"","slug":"/hn/25934286","title":"Opening Up the Samsung Q60 Series Smart TV (2019)","date":"January 29, 2021","dateISO":"2021-01-29T06:59:05.087Z","datetime":"2021-01-29 06:59","tags":["story","Hacker News"],"image":null,"imageAlt":null,"provider":"Hacker News","thirdPartyId":"25934286","url":"https://news.ycombinator.com/item?id=25934286","originalUrl":"https://labs.f-secure.com/blog/samsung-q60r-smart-tv-opening-up-the-samsung-q60-series-smart-tv/","imageRemote":null,"video":null,"channel":null,"channelUrl":null,"author":"wglb","authorUrl":"https://news.ycombinator.com/user?id=wglb","authorImage":null,"authorSlug":null,"score":165,"views":null,"sharedCount":null,"likeCount":null,"sharedContent":null,"parent":{"__typename":"HnJson","localize":[{"title":"打开三星Q60系列智能电视(2019年)","locale":"zh"},{"title":"打開三星Q60系列智能電視(2019年)","locale":"zh-Hant"}]}},{"__typename":"SocialMediaPost","id":"HnPost-25945397","excerpt":"","slug":"/hn/25945397","title":"A recent poll of employees who are working remotely","date":"January 29, 2021","dateISO":"2021-01-29T06:59:05.087Z","datetime":"2021-01-29 06:59","tags":["story","Hacker News"],"image":null,"imageAlt":null,"provider":"Hacker News","thirdPartyId":"25945397","url":"https://news.ycombinator.com/item?id=25945397","originalUrl":"https://today.yougov.com/topics/economy/articles-reports/2021/01/19/remote-employees-work-from-home-poll","imageRemote":"https://d18lkz4dllo6v2.cloudfront.net/cumulus_uploads/entry/33739/work_from_home_2021_poll_survey_data.jpg?pw=1200","video":null,"channel":null,"channelUrl":null,"author":"Simon_M","authorUrl":"https://news.ycombinator.com/user?id=Simon_M","authorImage":null,"authorSlug":null,"score":166,"views":null,"sharedCount":null,"likeCount":null,"sharedContent":null,"parent":{"__typename":"HnJson","localize":[{"title":"最近对远程工作的员工进行了一项调查。","locale":"zh"},{"title":"最近對遠程工作的員工進行了一項調查。","locale":"zh-Hant"}]}},{"__typename":"SocialMediaPost","id":"HnPost-25953668","excerpt":"","slug":"/hn/25953668","title":"A Look at iMessage in iOS 14","date":"January 29, 2021","dateISO":"2021-01-29T06:31:49.932Z","datetime":"2021-01-29 06:31","tags":["story","Hacker News"],"image":null,"imageAlt":null,"provider":"Hacker News","thirdPartyId":"25953668","url":"https://news.ycombinator.com/item?id=25953668","originalUrl":"https://googleprojectzero.blogspot.com/2021/01/a-look-at-imessage-in-ios-14.html","imageRemote":"https://1.bp.blogspot.com/-x-zo-b-w89w/YBCYLpT52pI/AAAAAAAAasA/wy9SBgIYdfImsv3Y6VAO4qmQczmHFEI9gCNcBGAsYHQ/w1200-h630-p-k-no-nu/image1.png","video":null,"channel":null,"channelUrl":null,"author":"kccqzy","authorUrl":"https://news.ycombinator.com/user?id=kccqzy","authorImage":null,"authorSlug":null,"score":528,"views":null,"sharedCount":null,"likeCount":null,"sharedContent":null,"parent":{"__typename":"HnJson","localize":[{"title":"看看iOS 14中的iMessage","locale":"zh"},{"title":"看看iOS 14中的iMessage","locale":"zh-Hant"}]}},{"__typename":"SocialMediaPost","id":"HnPost-25944866","excerpt":"","slug":"/hn/25944866","title":"What am I running inside my bash? (2014)","date":"January 29, 2021","dateISO":"2021-01-29T05:32:46.442Z","datetime":"2021-01-29 05:32","tags":["story","Hacker News"],"image":null,"imageAlt":null,"provider":"Hacker News","thirdPartyId":"25944866","url":"https://news.ycombinator.com/item?id=25944866","originalUrl":"https://www.thanassis.space/bashheimer.html","imageRemote":"https://www.thanassis.space/spreddit7.gif","video":null,"channel":null,"channelUrl":null,"author":"pimterry","authorUrl":"https://news.ycombinator.com/user?id=pimterry","authorImage":null,"authorSlug":null,"score":201,"views":null,"sharedCount":null,"likeCount":null,"sharedContent":null,"parent":{"__typename":"HnJson","localize":[{"title":"我的巴什里面在跑什么？(2014)","locale":"zh"},{"title":"我的巴什裏面在跑什麼？(2014)","locale":"zh-Hant"}]}},{"__typename":"SocialMediaPost","id":"HnPost-25953538","excerpt":"","slug":"/hn/25953538","title":"Google Deletes Nearly 100k Negative Reviews of Robinhood App","date":"January 29, 2021","dateISO":"2021-01-29T05:32:46.442Z","datetime":"2021-01-29 05:32","tags":["story","Hacker News"],"image":null,"imageAlt":null,"provider":"Hacker News","thirdPartyId":"25953538","url":"https://news.ycombinator.com/item?id=25953538","originalUrl":"https://www.theverge.com/2021/1/28/22255245/google-deleting-bad-robinhood-reviews-play-store","imageRemote":"https://cdn.vox-cdn.com/thumbor/7snoOAkQdpWMLTA2kU2m8j2e7K8=/0x251:3500x2083/fit-in/1200x630/cdn.vox-cdn.com/uploads/chorus_asset/file/22266937/1073282662.jpg","video":null,"channel":null,"channelUrl":null,"author":"exabrial","authorUrl":"https://news.ycombinator.com/user?id=exabrial","authorImage":null,"authorSlug":null,"score":244,"views":null,"sharedCount":null,"likeCount":null,"sharedContent":null,"parent":{"__typename":"HnJson","localize":[{"title":"谷歌删除近10万条Robinhood应用的负面评论","locale":"zh"},{"title":"谷歌刪除近10萬條Robinhood應用的負面評論","locale":"zh-Hant"}]}},{"__typename":"SocialMediaPost","id":"HnPost-25944236","excerpt":"","slug":"/hn/25944236","title":"How to Be Clear","date":"January 29, 2021","dateISO":"2021-01-29T05:02:54.725Z","datetime":"2021-01-29 05:02","tags":["story","Hacker News"],"image":null,"imageAlt":null,"provider":"Hacker News","thirdPartyId":"25944236","url":"https://news.ycombinator.com/item?id=25944236","originalUrl":"https://gilest.org/2021/how-to-be-clear/","imageRemote":"https://gilest.org/wp-content/uploads/2021/01/close-the-sharps-bin-1024x707.jpg","video":null,"channel":null,"channelUrl":null,"author":"hypomnemata","authorUrl":"https://news.ycombinator.com/user?id=hypomnemata","authorImage":null,"authorSlug":null,"score":195,"views":null,"sharedCount":null,"likeCount":null,"sharedContent":null,"parent":{"__typename":"HnJson","localize":[{"title":"如何明确","locale":"zh"},{"title":"如何明確","locale":"zh-Hant"}]}},{"__typename":"SocialMediaPost","id":"HnPost-25950487","excerpt":"","slug":"/hn/25950487","title":"Open Source Mission Control Software from NASA","date":"January 29, 2021","dateISO":"2021-01-29T05:02:54.725Z","datetime":"2021-01-29 05:02","tags":["story","Hacker News"],"image":null,"imageAlt":null,"provider":"Hacker News","thirdPartyId":"25950487","url":"https://news.ycombinator.com/item?id=25950487","originalUrl":"https://nasa.github.io/openmct/","imageRemote":"https://nasa.github.io/openmct/static/res/images/logo-NASA-Silicon-Valley.png","video":null,"channel":null,"channelUrl":null,"author":"banastas","authorUrl":"https://news.ycombinator.com/user?id=banastas","authorImage":null,"authorSlug":null,"score":306,"views":null,"sharedCount":null,"likeCount":null,"sharedContent":null,"parent":{"__typename":"HnJson","localize":[{"title":"美国宇航局的开源任务控制软件","locale":"zh"},{"title":"美國宇航局的開源任務控制軟件","locale":"zh-Hant"}]}},{"__typename":"SocialMediaPost","id":"HnPost-25941765","excerpt":"","slug":"/hn/25941765","title":"Neural Geometric Level of Detail: Real-Time Rendering with Implicit 3D Surfaces","date":"January 29, 2021","dateISO":"2021-01-29T04:36:29.059Z","datetime":"2021-01-29 04:36","tags":["story","Hacker News"],"image":null,"imageAlt":null,"provider":"Hacker News","thirdPartyId":"25941765","url":"https://news.ycombinator.com/item?id=25941765","originalUrl":"https://nv-tlabs.github.io/nglod/","imageRemote":"https://nv-tlabs.github.io/nglod/assets/teaser_small.jpg","video":null,"channel":null,"channelUrl":null,"author":"ArtWomb","authorUrl":"https://news.ycombinator.com/user?id=ArtWomb","authorImage":null,"authorSlug":null,"score":171,"views":null,"sharedCount":null,"likeCount":null,"sharedContent":null,"parent":{"__typename":"HnJson","localize":[{"title":"神经几何级的细节。隐式3D曲面的实时渲染技术","locale":"zh"},{"title":"神經幾何級的細節。隱式3D曲面的實時渲染技術","locale":"zh-Hant"}]}},{"__typename":"SocialMediaPost","id":"HnPost-25944922","excerpt":"","slug":"/hn/25944922","title":"Shift to Remote Work Based on 7k HN Who Is Hiring Posts","date":"January 29, 2021","dateISO":"2021-01-29T04:36:29.059Z","datetime":"2021-01-29 04:36","tags":["story","Hacker News"],"image":null,"imageAlt":null,"provider":"Hacker News","thirdPartyId":"25944922","url":"https://news.ycombinator.com/item?id=25944922","originalUrl":"https://www.shinkim.io/posts/shift-to-remote-work-based-on-7-000-hacker-news-job-posts","imageRemote":"https://uploads-ssl.webflow.com/5e12757f0227d019c07ef2b9/6012ea3f8cbef21763452d88_jason-strull-KQ0C6WtEGlo-unsplash.jpg","video":null,"channel":null,"channelUrl":null,"author":"shinkim0914","authorUrl":"https://news.ycombinator.com/user?id=shinkim0914","authorImage":null,"authorSlug":null,"score":190,"views":null,"sharedCount":null,"likeCount":null,"sharedContent":null,"parent":{"__typename":"HnJson","localize":[{"title":"转为远程工作，基于7k HN谁在招聘岗位？","locale":"zh"},{"title":"轉爲遠程工作，基於7k HN誰在招聘崗位？","locale":"zh-Hant"}]}},{"__typename":"SocialMediaPost","id":"HnPost-25949784","excerpt":"","slug":"/hn/25949784","title":"OpenBSD on the Lenovo ThinkPad X1 Nano","date":"January 29, 2021","dateISO":"2021-01-29T04:36:29.059Z","datetime":"2021-01-29 04:36","tags":["story","Hacker News"],"image":null,"imageAlt":null,"provider":"Hacker News","thirdPartyId":"25949784","url":"https://news.ycombinator.com/item?id=25949784","originalUrl":"https://jcs.org/2021/01/27/x1nano","imageRemote":"https://jcs.org/images/2021-01-27-hero-1330x414@2x.jpg","video":null,"channel":null,"channelUrl":null,"author":"harporoeder","authorUrl":"https://news.ycombinator.com/user?id=harporoeder","authorImage":null,"authorSlug":null,"score":248,"views":null,"sharedCount":null,"likeCount":null,"sharedContent":null,"parent":{"__typename":"HnJson","localize":[{"title":"OpenBSD在联想ThinkPad X1 Nano上的应用。","locale":"zh"},{"title":"OpenBSD在聯想ThinkPad X1 Nano上的應用。","locale":"zh-Hant"}]}},{"__typename":"SocialMediaPost","id":"HnPost-25952750","excerpt":"","slug":"/hn/25952750","title":"Transfer Stocks Out of Your Robinhood Account","date":"January 29, 2021","dateISO":"2021-01-29T03:36:33.005Z","datetime":"2021-01-29 03:36","tags":["story","Hacker News"],"image":null,"imageAlt":null,"provider":"Hacker News","thirdPartyId":"25952750","url":"https://news.ycombinator.com/item?id=25952750","originalUrl":"https://robinhood.com/us/en/support/articles/transfer-stocks-out-of-your-robinhood-account/","imageRemote":"https://cdn.robinhood.com/assets/robinhood/shared/robinhood-preview_v2.png","video":null,"channel":null,"channelUrl":null,"author":"Alupis","authorUrl":"https://news.ycombinator.com/user?id=Alupis","authorImage":null,"authorSlug":null,"score":529,"views":null,"sharedCount":null,"likeCount":null,"sharedContent":null,"parent":{"__typename":"HnJson","localize":[{"title":"从您的Robinhood账户中转移股票","locale":"zh"},{"title":"從您的Robinhood賬戶中轉移股票","locale":"zh-Hant"}]}},{"__typename":"SocialMediaPost","id":"HnPost-25950838","excerpt":"","slug":"/hn/25950838","title":"High Short Interest Stocks","date":"January 29, 2021","dateISO":"2021-01-29T03:05:07.317Z","datetime":"2021-01-29 03:05","tags":["story","Hacker News"],"image":null,"imageAlt":null,"provider":"Hacker News","thirdPartyId":"25950838","url":"https://news.ycombinator.com/item?id=25950838","originalUrl":"https://www.highshortinterest.com/all/","imageRemote":"https://www.highshortinterest.com/benzinga.png","video":null,"channel":null,"channelUrl":null,"author":"vermilingua","authorUrl":"https://news.ycombinator.com/user?id=vermilingua","authorImage":null,"authorSlug":null,"score":426,"views":null,"sharedCount":null,"likeCount":null,"sharedContent":null,"parent":{"__typename":"HnJson","localize":[{"title":"高空利益股票","locale":"zh"},{"title":"高空利益股票","locale":"zh-Hant"}]}},{"__typename":"SocialMediaPost","id":"HnPost-25952659","excerpt":"","slug":"/hn/25952659","title":"Facebook shuts popular stock trading group amid GameStop frenzy","date":"January 29, 2021","dateISO":"2021-01-29T03:05:07.317Z","datetime":"2021-01-29 03:05","tags":["story","Hacker News"],"image":null,"imageAlt":null,"provider":"Hacker News","thirdPartyId":"25952659","url":"https://news.ycombinator.com/item?id=25952659","originalUrl":"https://www.reuters.com/article/us-retail-trading-facebook-idUSKBN29X34P","imageRemote":"https://static.reuters.com/resources/r/?m=02&d=20210129&t=2&i=1549466470&r=LYNXMPEH0R1WC&w=800","video":null,"channel":null,"channelUrl":null,"author":"ttt0","authorUrl":"https://news.ycombinator.com/user?id=ttt0","authorImage":null,"authorSlug":null,"score":909,"views":null,"sharedCount":null,"likeCount":null,"sharedContent":null,"parent":{"__typename":"HnJson","localize":[{"title":"在GameStop的狂热中，Facebook关闭了受欢迎的股票交易组。","locale":"zh"},{"title":"在GameStop的狂熱中，Facebook關閉了受歡迎的股票交易組。","locale":"zh-Hant"}]}},{"__typename":"SocialMediaPost","id":"HnPost-25948797","excerpt":"","slug":"/hn/25948797","title":"Show HN: A usable eBook reader inside a browser (azw3, mobi, ePub, pdf)","date":"January 29, 2021","dateISO":"2021-01-29T02:44:11.478Z","datetime":"2021-01-29 02:44","tags":["story","Show HN","Hacker News"],"image":null,"imageAlt":null,"provider":"Hacker News","thirdPartyId":"25948797","url":"https://news.ycombinator.com/item?id=25948797","originalUrl":"https://www.loudreader.com","imageRemote":null,"video":null,"channel":"Show HN","channelUrl":"https://news.ycombinator.com/show","author":"javapnews","authorUrl":"https://news.ycombinator.com/user?id=javapnews","authorImage":null,"authorSlug":null,"score":294,"views":null,"sharedCount":null,"likeCount":null,"sharedContent":null,"parent":{"__typename":"HnJson","localize":[{"title":"显示 HN：浏览器内的可用电子书阅读器 (azw3, mobi, ePub, pdf)","locale":"zh"},{"title":"顯示 HN：瀏覽器內的可用電子書閱讀器 (azw3, mobi, ePub, pdf)","locale":"zh-Hant"}]}},{"__typename":"SocialMediaPost","id":"HnPost-25950351","excerpt":"","slug":"/hn/25950351","title":"Losing faith in UX","date":"January 29, 2021","dateISO":"2021-01-29T02:44:11.478Z","datetime":"2021-01-29 02:44","tags":["story","Hacker News"],"image":null,"imageAlt":null,"provider":"Hacker News","thirdPartyId":"25950351","url":"https://news.ycombinator.com/item?id=25950351","originalUrl":"https://creativegood.com/blog/21/losing-faith-in-ux.html","imageRemote":"https://creativegood.com/blog/21/ux-anglerfish.jpg","video":null,"channel":null,"channelUrl":null,"author":"duck","authorUrl":"https://news.ycombinator.com/user?id=duck","authorImage":null,"authorSlug":null,"score":575,"views":null,"sharedCount":null,"likeCount":null,"sharedContent":null,"parent":{"__typename":"HnJson","localize":[{"title":"对用户体验失去信心","locale":"zh"},{"title":"對用戶體驗失去信心","locale":"zh-Hant"}]}},{"__typename":"SocialMediaPost","id":"HnPost-25950685","excerpt":"","slug":"/hn/25950685","title":"Robinhood is said to draw on bank credit lines amid tumult","date":"January 29, 2021","dateISO":"2021-01-29T01:05:30.858Z","datetime":"2021-01-29 01:05","tags":["story","Hacker News"],"image":null,"imageAlt":null,"provider":"Hacker News","thirdPartyId":"25950685","url":"https://news.ycombinator.com/item?id=25950685","originalUrl":"https://www.bloomberg.com/news/articles/2021-01-28/robinhood-is-said-to-draw-on-credit-lines-from-banks-amid-tumult","imageRemote":null,"video":null,"channel":null,"channelUrl":null,"author":"kypro","authorUrl":"https://news.ycombinator.com/user?id=kypro","authorImage":null,"authorSlug":null,"score":735,"views":null,"sharedCount":null,"likeCount":null,"sharedContent":null,"parent":{"__typename":"HnJson","localize":[{"title":"Robinhood被指在动荡中动用银行信贷额度。","locale":"zh"},{"title":"Robinhood被指在動盪中動用銀行信貸額度。","locale":"zh-Hant"}]}},{"__typename":"SocialMediaPost","id":"HnPost-25951390","excerpt":"","slug":"/hn/25951390","title":"Robinhood Play Store listing went from 329K reviews to 180K in few hours","date":"January 29, 2021","dateISO":"2021-01-29T01:05:30.858Z","datetime":"2021-01-29 01:05","tags":["story","Hacker News"],"image":null,"imageAlt":null,"provider":"Hacker News","thirdPartyId":"25951390","url":"https://news.ycombinator.com/item?id=25951390","originalUrl":"https://play.google.com/store/apps/details?id=com.robinhood.android&showAllReviews=true&showAllReviews=true&1","imageRemote":"https://play-lh.googleusercontent.com/4jJ1C7UePequc2x89CyXRp1a6w7O7nGp1T62WdS_09YGDXQh9xiSREn7w86ifM5Ip6Ba","video":null,"channel":null,"channelUrl":null,"author":"rvnx","authorUrl":"https://news.ycombinator.com/user?id=rvnx","authorImage":null,"authorSlug":null,"score":707,"views":null,"sharedCount":null,"likeCount":null,"sharedContent":null,"parent":{"__typename":"HnJson","localize":[{"title":"Robinhood Play Store上市几小时内从329K评论到18万。","locale":"zh"},{"title":"Robinhood Play Store上市幾小時內從329K評論到18萬。","locale":"zh-Hant"}]}},{"__typename":"SocialMediaPost","id":"HnPost-25948744","excerpt":"","slug":"/hn/25948744","title":"Robinhood Hit with Class Action Lawsuit After Halting GameStop Stock","date":"January 28, 2021","dateISO":"2021-01-28T22:24:35.091Z","datetime":"2021-01-28 22:24","tags":["story","Hacker News"],"image":null,"imageAlt":null,"provider":"Hacker News","thirdPartyId":"25948744","url":"https://news.ycombinator.com/item?id=25948744","originalUrl":"https://www.ign.com/articles/robinhood-hit-with-class-action-lawsuit-after-halting-gamestop-stock","imageRemote":"https://assets1.ignimgs.com/2021/01/28/gettyimages-1291817081-1611862361525.jpg?width=1280","video":null,"channel":null,"channelUrl":null,"author":"reddotX","authorUrl":"https://news.ycombinator.com/user?id=reddotX","authorImage":null,"authorSlug":null,"score":453,"views":null,"sharedCount":null,"likeCount":null,"sharedContent":null,"parent":{"__typename":"HnJson","localize":[{"title":"罗宾汉被集体诉讼后停止游戏机股票","locale":"zh"},{"title":"羅賓漢被集體訴訟後停止遊戲機股票","locale":"zh-Hant"}]}},{"__typename":"SocialMediaPost","id":"HnPost-25936042","excerpt":"","slug":"/hn/25936042","title":"Show HN: Reddit Wallstreetbets Top Leaderboard","date":"January 28, 2021","dateISO":"2021-01-28T21:57:18.629Z","datetime":"2021-01-28 21:57","tags":["story","Show HN","Hacker News"],"image":null,"imageAlt":null,"provider":"Hacker News","thirdPartyId":"25936042","url":"https://news.ycombinator.com/item?id=25936042","originalUrl":"https://stonks.news/wsb/summary/","imageRemote":null,"video":null,"channel":"Show HN","channelUrl":"https://news.ycombinator.com/show","author":"vthallam","authorUrl":"https://news.ycombinator.com/user?id=vthallam","authorImage":null,"authorSlug":null,"score":234,"views":null,"sharedCount":null,"likeCount":null,"sharedContent":null,"parent":{"__typename":"HnJson","localize":[{"title":"显示HN：Reddit Wallstreetbets顶级排行榜。","locale":"zh"},{"title":"顯示HN：Reddit Wallstreetbets頂級排行榜。","locale":"zh-Hant"}]}},{"__typename":"SocialMediaPost","id":"HnPost-25947467","excerpt":"","slug":"/hn/25947467","title":"Coinbase announces proposed direct listing","date":"January 28, 2021","dateISO":"2021-01-28T21:24:40.442Z","datetime":"2021-01-28 21:24","tags":["story","Hacker News"],"image":null,"imageAlt":null,"provider":"Hacker News","thirdPartyId":"25947467","url":"https://news.ycombinator.com/item?id=25947467","originalUrl":"https://blog.coinbase.com/coinbase-announces-proposed-direct-listing-3a52c4298ccc","imageRemote":"https://miro.medium.com/max/1080/0*kwO1HQwbWAy_3gEb.png","video":null,"channel":null,"channelUrl":null,"author":"coloneltcb","authorUrl":"https://news.ycombinator.com/user?id=coloneltcb","authorImage":null,"authorSlug":null,"score":446,"views":null,"sharedCount":null,"likeCount":null,"sharedContent":null,"parent":{"__typename":"HnJson","localize":[{"title":"Coinbase宣布拟直接上市","locale":"zh"},{"title":"Coinbase宣佈擬直接上市","locale":"zh-Hant"}]}},{"__typename":"SocialMediaPost","id":"HnPost-25946103","excerpt":"","slug":"/hn/25946103","title":"PSD is not my favourite file format (2009)","date":"January 28, 2021","dateISO":"2021-01-28T20:53:19.424Z","datetime":"2021-01-28 20:53","tags":["story","Hacker News"],"image":null,"imageAlt":null,"provider":"Hacker News","thirdPartyId":"25946103","url":"https://news.ycombinator.com/item?id=25946103","originalUrl":"https://github.com/zepouet/Xee-xCode-4.5/blob/master/XeePhotoshopLoader.m#L108","imageRemote":"https://avatars.githubusercontent.com/u/231269?s=400&v=4","video":null,"channel":null,"channelUrl":null,"author":"kruuuder","authorUrl":"https://news.ycombinator.com/user?id=kruuuder","authorImage":null,"authorSlug":null,"score":235,"views":null,"sharedCount":null,"likeCount":null,"sharedContent":null,"parent":{"__typename":"HnJson","localize":[{"title":"PSD不是我最喜欢的文件格式 (2009)","locale":"zh"},{"title":"PSD不是我最喜歡的文件格式 (2009)","locale":"zh-Hant"}]}},{"__typename":"SocialMediaPost","id":"HnPost-25947697","excerpt":"","slug":"/hn/25947697","title":"Robinhood now has a 1-Star rating on the Google Play Store","date":"January 28, 2021","dateISO":"2021-01-28T19:56:06.057Z","datetime":"2021-01-28 19:56","tags":["story","Hacker News"],"image":null,"imageAlt":null,"provider":"Hacker News","thirdPartyId":"25947697","url":"https://news.ycombinator.com/item?id=25947697","originalUrl":"https://play.google.com/store/apps/details?id=com.robinhood.android&showAllReviews=true","imageRemote":"https://play-lh.googleusercontent.com/4jJ1C7UePequc2x89CyXRp1a6w7O7nGp1T62WdS_09YGDXQh9xiSREn7w86ifM5Ip6Ba","video":null,"channel":null,"channelUrl":null,"author":"sschueller","authorUrl":"https://news.ycombinator.com/user?id=sschueller","authorImage":null,"authorSlug":null,"score":1177,"views":null,"sharedCount":null,"likeCount":null,"sharedContent":null,"parent":{"__typename":"HnJson","localize":[{"title":"Robinhood现在在Google Play Store上有一个1星的评价。","locale":"zh"},{"title":"Robinhood現在在Google Play Store上有一個1星的評價。","locale":"zh-Hant"}]}},{"__typename":"SocialMediaPost","id":"HnPost-25946480","excerpt":"","slug":"/hn/25946480","title":"Robinhood Said to Get 40% Revenue from HFT Firms Like Citadel (2018)","date":"January 28, 2021","dateISO":"2021-01-28T19:17:33.232Z","datetime":"2021-01-28 19:17","tags":["story","Hacker News"],"image":null,"imageAlt":null,"provider":"Hacker News","thirdPartyId":"25946480","url":"https://news.ycombinator.com/item?id=25946480","originalUrl":"https://www.equities.com/news/robinhood-is-said-to-get-40-revenue-from-hft-firms-like-citadel","imageRemote":"https://res.cloudinary.com/equities-com/image/upload/v1/u/da7dEgDBkAEhw/oyeq8aoagybvcbtzrebx","video":null,"channel":null,"channelUrl":null,"author":"Khelavaster","authorUrl":"https://news.ycombinator.com/user?id=Khelavaster","authorImage":null,"authorSlug":null,"score":218,"views":null,"sharedCount":null,"likeCount":null,"sharedContent":null,"parent":{"__typename":"HnJson","localize":[{"title":"Robinhood称将从Citadel等HFT Firms获得40%的收入(2018)","locale":"zh"},{"title":"Robinhood稱將從Citadel等HFT Firms獲得40%的收入(2018)","locale":"zh-Hant"}]}},{"__typename":"SocialMediaPost","id":"HnPost-25945447","excerpt":"","slug":"/hn/25945447","title":"We Are Preparing a Class Action Lawsuit Against Robinhood","date":"January 28, 2021","dateISO":"2021-01-28T18:15:31.387Z","datetime":"2021-01-28 18:15","tags":["story","Hacker News"],"image":null,"imageAlt":null,"provider":"Hacker News","thirdPartyId":"25945447","url":"https://news.ycombinator.com/item?id=25945447","originalUrl":"https://reddit.com/r/wallstreetbets/comments/l6yrs3/we_are_preparing_a_class_action_lawsuit_against/","imageRemote":"https://www.redditstatic.com/desktop2x/img/renderTimingPixel.png","video":null,"channel":null,"channelUrl":null,"author":"f430","authorUrl":"https://news.ycombinator.com/user?id=f430","authorImage":null,"authorSlug":null,"score":982,"views":null,"sharedCount":null,"likeCount":null,"sharedContent":null,"parent":{"__typename":"HnJson","localize":[{"title":"我们正准备对Robinhood提起集体诉讼。","locale":"zh"},{"title":"我們正準備對Robinhood提起集體訴訟。","locale":"zh-Hant"}]}},{"__typename":"SocialMediaPost","id":"HnPost-25940453","excerpt":"","slug":"/hn/25940453","title":"Qutebrowser 2.0","date":"January 28, 2021","dateISO":"2021-01-28T17:47:55.207Z","datetime":"2021-01-28 17:47","tags":["story","Hacker News"],"image":null,"imageAlt":null,"provider":"Hacker News","thirdPartyId":"25940453","url":"https://news.ycombinator.com/item?id=25940453","originalUrl":"https://lists.schokokeks.org/pipermail/qutebrowser-announce/2021-January/000090.html","imageRemote":null,"video":null,"channel":null,"channelUrl":null,"author":"Foxboron","authorUrl":"https://news.ycombinator.com/user?id=Foxboron","authorImage":null,"authorSlug":null,"score":209,"views":null,"sharedCount":null,"likeCount":null,"sharedContent":null,"parent":{"__typename":"HnJson","localize":[{"title":"Qutebrowser 2.0","locale":"zh"},{"title":"Qutebrowser 2.0","locale":"zh-Hant"}]}}]}},"pageContext":{"basePath":"/","pageType":"tag","tag":"story","tagsFilter":{"id":{"glob":"!*Post-1"}},"filter":{"id":{"glob":"!*Post-1"},"tags":{"eq":"story"}},"limit":25,"skip":850,"total":2184,"totalPages":88,"currentPage":35,"maxWidth":1024,"maxHeight":512,"locale":"en","hrefLang":"en-US","originalPath":"/tags/story/page/35","dateFormat":"MM/DD/YYYY"}},"staticQueryHashes":["1239077767","2506312863","2744905544","3025052997","3493603132","3493603132","3513215887","386998304"]}