{"componentChunkName":"component---gatsby-theme-buzzing-src-gatsby-theme-timeline-templates-posts-query-js","path":"/en/tags/story/page/10","result":{"data":{"site":{"siteMetadata":{"title":"Reddit 热门","description":"用中文浏览Reddit热门内容","social":[{"name":"Twitter","url":"https://twitter.com/gatsbyjs","external":null,"prefetch":null},{"name":"GitHub","url":"https://github.com/gatsbyjs","external":null,"prefetch":null}],"menuLinks":[],"localize":[{"locale":"en","title":"Buzzing on Reddit","description":"See what's buzzing on Reddit in your native language","social":[{"name":"Reddit","url":"https://www.reddit.com/","external":true,"prefetch":null}],"menuLinks":[{"name":"Weekly Selection","url":"/issues","external":null,"prefetch":null},{"name":"RSS","url":"/rss.xml","external":null,"prefetch":false}]},{"locale":"zh-Hant","title":"Reddit 熱門","description":"用中文瀏覽Reddit熱門內容","social":null,"menuLinks":null}]}},"tagsGroup":{"group":[{"fieldValue":"ASK HN","totalCount":22},{"fieldValue":"Bitcoin","totalCount":3},{"fieldValue":"Hacker News","totalCount":911},{"fieldValue":"Poll","totalCount":1},{"fieldValue":"Show HN","totalCount":34},{"fieldValue":"investing","totalCount":195},{"fieldValue":"poll","totalCount":1},{"fieldValue":"reddit","totalCount":759},{"fieldValue":"science","totalCount":1},{"fieldValue":"stocks","totalCount":333},{"fieldValue":"story","totalCount":910},{"fieldValue":"tweet","totalCount":274},{"fieldValue":"wallstreetbets","totalCount":231}]},"allBlogPost":{"nodes":[{"__typename":"SocialMediaPost","id":"HnPost-25635115","excerpt":"","slug":"/hn/25635115","title":"Ask HN: Is HN slow today?","date":"January 05, 2021","dateISO":"2021-01-05T00:09:37.592Z","datetime":"2021-01-05 00:09","tags":["story","ASK HN","Hacker News"],"image":null,"imageAlt":null,"provider":"Hacker News","thirdPartyId":"25635115","url":"https://news.ycombinator.com/item?id=25635115","originalUrl":"https://news.ycombinator.com/item?id=25635115","imageRemote":null,"video":null,"channel":"ASK HN","channelUrl":"https://news.ycombinator.com/ask","author":"brundolf","authorUrl":"https://news.ycombinator.com/user?id=brundolf","authorImage":null,"authorSlug":null,"score":155,"views":null,"sharedCount":null,"likeCount":null,"sharedContent":null,"parent":{"__typename":"HnJson","localize":[{"title":"HN提问：HN今天慢吗？","locale":"zh"},{"title":"HN提問：HN今天慢嗎？","locale":"zh-Hant"}]}},{"__typename":"SocialMediaPost","id":"HnPost-25637922","excerpt":"","slug":"/hn/25637922","title":"Quitting a New Job","date":"January 04, 2021","dateISO":"2021-01-04T23:47:52.916Z","datetime":"2021-01-04 23:47","tags":["story","Hacker News"],"image":null,"imageAlt":null,"provider":"Hacker News","thirdPartyId":"25637922","url":"https://news.ycombinator.com/item?id=25637922","originalUrl":"https://yolken.net/blog/quitting-a-new-job","imageRemote":null,"video":null,"channel":null,"channelUrl":null,"author":"fullung","authorUrl":"https://news.ycombinator.com/user?id=fullung","authorImage":null,"authorSlug":null,"score":190,"views":null,"sharedCount":null,"likeCount":null,"sharedContent":null,"parent":{"__typename":"HnJson","localize":[{"title":"辞去新工作","locale":"zh"},{"title":"辭去新工作","locale":"zh-Hant"}]}},{"__typename":"SocialMediaPost","id":"HnPost-25634192","excerpt":"","slug":"/hn/25634192","title":"Show HN: I made an alternative platform for professional profiles","date":"January 04, 2021","dateISO":"2021-01-04T21:39:58.090Z","datetime":"2021-01-04 21:39","tags":["story","Show HN","Hacker News"],"image":null,"imageAlt":null,"provider":"Hacker News","thirdPartyId":"25634192","url":"https://news.ycombinator.com/item?id=25634192","originalUrl":"https://read.cv","imageRemote":"https://read.cv/og-image.png","video":null,"channel":"Show HN","channelUrl":"https://news.ycombinator.com/show","author":"_andychung","authorUrl":"https://news.ycombinator.com/user?id=_andychung","authorImage":null,"authorSlug":null,"score":930,"views":null,"sharedCount":null,"likeCount":null,"sharedContent":null,"parent":{"__typename":"HnJson","localize":[{"title":"HN新产品：我做了一个职业简介的替代平台","locale":"zh"},{"title":"HN新產品：我做了一個職業簡介的替代平臺","locale":"zh-Hant"}]}},{"__typename":"SocialMediaPost","id":"HnPost-25632847","excerpt":"","slug":"/hn/25632847","title":"Open source RGB lighting control for keyboards, fans, etc.","date":"January 04, 2021","dateISO":"2021-01-04T20:01:59.447Z","datetime":"2021-01-04 20:01","tags":["story","Hacker News"],"image":null,"imageAlt":null,"provider":"Hacker News","thirdPartyId":"25632847","url":"https://news.ycombinator.com/item?id=25632847","originalUrl":"https://gitlab.com/CalcProgrammer1/OpenRGB","imageRemote":"https://assets.gitlab-static.net/uploads/-/system/project/avatar/10582521/OpenRGB.png","video":null,"channel":null,"channelUrl":null,"author":"apatap","authorUrl":"https://news.ycombinator.com/user?id=apatap","authorImage":null,"authorSlug":null,"score":315,"views":null,"sharedCount":null,"likeCount":null,"sharedContent":null,"parent":{"__typename":"HnJson","localize":[{"title":"用于键盘、风扇等的开源RGB照明控件。","locale":"zh"},{"title":"用於鍵盤、風扇等的開源RGB照明控件。","locale":"zh-Hant"}]}},{"__typename":"SocialMediaPost","id":"HnPost-25632982","excerpt":"","slug":"/hn/25632982","title":"Ask HN: Who is hiring? (January 2021)","date":"January 04, 2021","dateISO":"2021-01-04T20:01:59.447Z","datetime":"2021-01-04 20:01","tags":["story","ASK HN","Hacker News"],"image":null,"imageAlt":null,"provider":"Hacker News","thirdPartyId":"25632982","url":"https://news.ycombinator.com/item?id=25632982","originalUrl":"https://news.ycombinator.com/item?id=25632982","imageRemote":null,"video":null,"channel":"ASK HN","channelUrl":"https://news.ycombinator.com/ask","author":"whoishiring","authorUrl":"https://news.ycombinator.com/user?id=whoishiring","authorImage":null,"authorSlug":null,"score":403,"views":null,"sharedCount":null,"likeCount":null,"sharedContent":null,"parent":{"__typename":"HnJson","localize":[{"title":"HN提问：谁在招聘？(2021年1月)","locale":"zh"},{"title":"HN提問：誰在招聘？(2021年1月)","locale":"zh-Hant"}]}},{"__typename":"SocialMediaPost","id":"HnPost-25633483","excerpt":"","slug":"/hn/25633483","title":"Ditherpunk: The article I wish I had about monochrome image dithering","date":"January 04, 2021","dateISO":"2021-01-04T20:01:59.447Z","datetime":"2021-01-04 20:01","tags":["story","Hacker News"],"image":null,"imageAlt":null,"provider":"Hacker News","thirdPartyId":"25633483","url":"https://news.ycombinator.com/item?id=25633483","originalUrl":"https://surma.dev/things/ditherpunk/","imageRemote":"https://surma.dev/social.a2bf066d.png","video":null,"channel":null,"channelUrl":null,"author":"todsacerdoti","authorUrl":"https://news.ycombinator.com/user?id=todsacerdoti","authorImage":null,"authorSlug":null,"score":1276,"views":null,"sharedCount":null,"likeCount":null,"sharedContent":null,"parent":{"__typename":"HnJson","localize":[{"title":"迪瑟朋克：我希望我有一篇关于单色图像抖动的文章。","locale":"zh"},{"title":"迪瑟朋克：我希望我有一篇關於單色圖像抖動的文章。","locale":"zh-Hant"}]}},{"__typename":"SocialMediaPost","id":"HnPost-25632566","excerpt":"","slug":"/hn/25632566","title":"Moderna raises 2021 vaccine output forecast to at least 600M doses","date":"January 04, 2021","dateISO":"2021-01-04T18:16:27.182Z","datetime":"2021-01-04 18:16","tags":["story","Hacker News"],"image":null,"imageAlt":null,"provider":"Hacker News","thirdPartyId":"25632566","url":"https://news.ycombinator.com/item?id=25632566","originalUrl":"https://www.reuters.com/article/health-coronavirus-vaccines-moderna/update-1-moderna-raises-2021-vaccine-output-forecast-to-at-least-600-mln-doses-idUSL4N2JF30F","imageRemote":"https://static.reuters.com/resources/r/?m=02&d=20210104&t=2&i=1546548001&r=LYNXMPEH030QP&w=800","video":null,"channel":null,"channelUrl":null,"author":"KoftaBob","authorUrl":"https://news.ycombinator.com/user?id=KoftaBob","authorImage":null,"authorSlug":null,"score":201,"views":null,"sharedCount":null,"likeCount":null,"sharedContent":null,"parent":{"__typename":"HnJson","localize":[{"title":"现代将2021年疫苗产量预测上调至至少6亿剂","locale":"zh"},{"title":"現代將2021年疫苗產量預測上調至至少6億劑","locale":"zh-Hant"}]}},{"__typename":"SocialMediaPost","id":"HnPost-25633876","excerpt":"","slug":"/hn/25633876","title":"Slack Down Completely","date":"January 04, 2021","dateISO":"2021-01-04T18:16:27.182Z","datetime":"2021-01-04 18:16","tags":["story","Hacker News"],"image":null,"imageAlt":null,"provider":"Hacker News","thirdPartyId":"25633876","url":"https://news.ycombinator.com/item?id=25633876","originalUrl":"https://status.slack.com/#","imageRemote":"https://status.slack.com/img/v2_rebrand/slack_hash_256.png","video":null,"channel":null,"channelUrl":null,"author":"oblio","authorUrl":"https://news.ycombinator.com/user?id=oblio","authorImage":null,"authorSlug":null,"score":563,"views":null,"sharedCount":null,"likeCount":null,"sharedContent":null,"parent":{"__typename":"HnJson","localize":[{"title":"完全松弛下来","locale":"zh"},{"title":"完全鬆弛下來","locale":"zh-Hant"}]}},{"__typename":"SocialMediaPost","id":"HnPost-25626315","excerpt":"","slug":"/hn/25626315","title":"MIT 6.172: Performance Engineering of Software Systems","date":"January 04, 2021","dateISO":"2021-01-04T17:14:40.535Z","datetime":"2021-01-04 17:14","tags":["story","Hacker News"],"image":null,"imageAlt":null,"provider":"Hacker News","thirdPartyId":"25626315","url":"https://news.ycombinator.com/item?id=25626315","originalUrl":"https://ocw.mit.edu/courses/electrical-engineering-and-computer-science/6-172-performance-engineering-of-software-systems-fall-2018/","imageRemote":"https://ocw.mit.edu/courses/electrical-engineering-and-computer-science/6-172-performance-engineering-of-software-systems-fall-2018/6-172f18.jpg","video":null,"channel":null,"channelUrl":null,"author":"roperzh","authorUrl":"https://news.ycombinator.com/user?id=roperzh","authorImage":null,"authorSlug":null,"score":173,"views":null,"sharedCount":null,"likeCount":null,"sharedContent":null,"parent":{"__typename":"HnJson","localize":[{"title":"麻省理工学院6.172：软件系统性能工程","locale":"zh"},{"title":"麻省理工學院6.172：軟件系統性能工程","locale":"zh-Hant"}]}},{"__typename":"SocialMediaPost","id":"HnPost-25626532","excerpt":"","slug":"/hn/25626532","title":"Britney Spears' Guide to Semiconductor Physics (2007)","date":"January 04, 2021","dateISO":"2021-01-04T17:14:40.535Z","datetime":"2021-01-04 17:14","tags":["story","Hacker News"],"image":null,"imageAlt":null,"provider":"Hacker News","thirdPartyId":"25626532","url":"https://news.ycombinator.com/item?id=25626532","originalUrl":"http://britneyspears.ac/lasers.htm","imageRemote":"http://britneyspears.ac/images/bs2.jpg","video":null,"channel":null,"channelUrl":null,"author":"doener","authorUrl":"https://news.ycombinator.com/user?id=doener","authorImage":null,"authorSlug":null,"score":168,"views":null,"sharedCount":null,"likeCount":null,"sharedContent":null,"parent":{"__typename":"HnJson","localize":[{"title":"布兰妮·斯皮尔斯的半导体物理指南(2007)","locale":"zh"},{"title":"布蘭妮·斯皮爾斯的半導體物理指南(2007)","locale":"zh-Hant"}]}},{"__typename":"SocialMediaPost","id":"HnPost-25632811","excerpt":"","slug":"/hn/25632811","title":"After spending $57M on Facebook ads, I was kicked off without explanation","date":"January 04, 2021","dateISO":"2021-01-04T17:14:40.535Z","datetime":"2021-01-04 17:14","tags":["story","Hacker News"],"image":null,"imageAlt":null,"provider":"Hacker News","thirdPartyId":"25632811","url":"https://news.ycombinator.com/item?id=25632811","originalUrl":"https://jordan-shared.medium.com/after-spending-over-57-million-on-facebook-ads-they-kicked-me-and-my-pages-off-without-warning-c6d7e611b01c","imageRemote":"https://miro.medium.com/max/975/1*Ehi4OG6a9620U002y_GKMQ.jpeg","video":null,"channel":null,"channelUrl":null,"author":"CPLX","authorUrl":"https://news.ycombinator.com/user?id=CPLX","authorImage":null,"authorSlug":null,"score":393,"views":null,"sharedCount":null,"likeCount":null,"sharedContent":null,"parent":{"__typename":"HnJson","localize":[{"title":"在Facebook广告上花费了5700万美元后，我在没有任何解释的情况下被踢走了","locale":"zh"},{"title":"在Facebook廣告上花費了5700萬美元后，我在沒有任何解釋的情況下被踢走了","locale":"zh-Hant"}]}},{"__typename":"SocialMediaPost","id":"HnPost-25632048","excerpt":"","slug":"/hn/25632048","title":"Slack Running Slow / Hanging?","date":"January 04, 2021","dateISO":"2021-01-04T15:52:20.660Z","datetime":"2021-01-04 15:52","tags":["story","Hacker News"],"image":null,"imageAlt":null,"provider":"Hacker News","thirdPartyId":"25632048","url":"https://news.ycombinator.com/item?id=25632048","originalUrl":"https://news.ycombinator.com/item?id=25632048","imageRemote":null,"video":null,"channel":null,"channelUrl":null,"author":"seibelj","authorUrl":"https://news.ycombinator.com/user?id=seibelj","authorImage":null,"authorSlug":null,"score":186,"views":null,"sharedCount":null,"likeCount":null,"sharedContent":null,"parent":{"__typename":"HnJson","localize":[{"title":"慢跑/悬吊？","locale":"zh"},{"title":"慢跑/懸吊？","locale":"zh-Hant"}]}},{"__typename":"SocialMediaPost","id":"HnPost-25632346","excerpt":"","slug":"/hn/25632346","title":"Slack Ongoing Connection Issues","date":"January 04, 2021","dateISO":"2021-01-04T15:52:20.660Z","datetime":"2021-01-04 15:52","tags":["story","Hacker News"],"image":null,"imageAlt":null,"provider":"Hacker News","thirdPartyId":"25632346","url":"https://news.ycombinator.com/item?id=25632346","originalUrl":"https://status.slack.com/2021-01/9ecc1bc75347b6d1","imageRemote":"https://status.slack.com/img/v2_rebrand/slack_hash_256.png","video":null,"channel":null,"channelUrl":null,"author":"gpmcadam","authorUrl":"https://news.ycombinator.com/user?id=gpmcadam","authorImage":null,"authorSlug":null,"score":988,"views":null,"sharedCount":null,"likeCount":null,"sharedContent":null,"parent":{"__typename":"HnJson","localize":[{"title":"松懈的持续连接问题","locale":"zh"},{"title":"鬆懈的持續連接問題","locale":"zh-Hant"}]}},{"__typename":"SocialMediaPost","id":"HnPost-25629774","excerpt":"","slug":"/hn/25629774","title":"China: The Disappearing Millionaires (2019) [video]","date":"January 04, 2021","dateISO":"2021-01-04T15:22:28.602Z","datetime":"2021-01-04 15:22","tags":["story","Hacker News"],"image":null,"imageAlt":null,"provider":"Hacker News","thirdPartyId":"25629774","url":"https://news.ycombinator.com/item?id=25629774","originalUrl":"https://www.arte.tv/en/videos/083456-000-A/china-the-disappearing-millionaires/","imageRemote":"https://api-cdn.arte.tv/api/mami/v1/program/en/083456-000-A/940x530?text=true","video":null,"channel":null,"channelUrl":null,"author":"aminozuur","authorUrl":"https://news.ycombinator.com/user?id=aminozuur","authorImage":null,"authorSlug":null,"score":240,"views":null,"sharedCount":null,"likeCount":null,"sharedContent":null,"parent":{"__typename":"HnJson","localize":[{"title":"中国：正在消失的百万富翁(2019)[视频]","locale":"zh"},{"title":"中國：正在消失的百萬富翁(2019)[視頻]","locale":"zh-Hant"}]}},{"__typename":"SocialMediaPost","id":"HnPost-25629948","excerpt":"","slug":"/hn/25629948","title":"Julian Assange extradition to US blocked by UK court","date":"January 04, 2021","dateISO":"2021-01-04T14:03:47.768Z","datetime":"2021-01-04 14:03","tags":["story","Hacker News"],"image":null,"imageAlt":null,"provider":"Hacker News","thirdPartyId":"25629948","url":"https://news.ycombinator.com/item?id=25629948","originalUrl":"https://www.bbc.com/news/uk-55528241","imageRemote":"https://ichef.bbci.co.uk/news/1024/branded_news/12F88/production/_116340777_hi062193132.jpg","video":null,"channel":null,"channelUrl":null,"author":"layer8","authorUrl":"https://news.ycombinator.com/user?id=layer8","authorImage":null,"authorSlug":null,"score":418,"views":null,"sharedCount":null,"likeCount":null,"sharedContent":null,"parent":{"__typename":"HnJson","localize":[{"title":"朱利安·阿桑奇引渡到美国被英国法院阻止","locale":"zh"},{"title":"朱利安·阿桑奇引渡到美國被英國法院阻止","locale":"zh-Hant"}]}},{"__typename":"SocialMediaPost","id":"HnPost-25624718","excerpt":"","slug":"/hn/25624718","title":"Show HN: Pluto – macOS system monitor app","date":"January 04, 2021","dateISO":"2021-01-04T13:52:43.815Z","datetime":"2021-01-04 13:52","tags":["story","Show HN","Hacker News"],"image":null,"imageAlt":null,"provider":"Hacker News","thirdPartyId":"25624718","url":"https://news.ycombinator.com/item?id=25624718","originalUrl":"https://apps.apple.com/us/app/pluto-hud/id1544577573?mt=12","imageRemote":"https://is3-ssl.mzstatic.com/image/thumb/Purple124/v4/c1/c7/c4/c1c7c47f-07eb-66b3-9765-c508058fe4c4/AppIcon-85-220-4-2x.png/1200x630bb.png","video":null,"channel":"Show HN","channelUrl":"https://news.ycombinator.com/show","author":"lupinglade","authorUrl":"https://news.ycombinator.com/user?id=lupinglade","authorImage":null,"authorSlug":null,"score":158,"views":null,"sharedCount":null,"likeCount":null,"sharedContent":null,"parent":{"__typename":"HnJson","localize":[{"title":"HN新产品：冥王星-MacOS系统监控APP","locale":"zh"},{"title":"HN新產品：冥王星-MacOS系統監控APP","locale":"zh-Hant"}]}},{"__typename":"SocialMediaPost","id":"HnPost-25629852","excerpt":"","slug":"/hn/25629852","title":"We’re Google Workers, and We Are Forming a Union","date":"January 04, 2021","dateISO":"2021-01-04T13:52:43.815Z","datetime":"2021-01-04 13:52","tags":["story","Hacker News"],"image":null,"imageAlt":null,"provider":"Hacker News","thirdPartyId":"25629852","url":"https://news.ycombinator.com/item?id=25629852","originalUrl":"https://www.nytimes.com/2021/01/04/opinion/google-union.html","imageRemote":"https://static01.nyt.com/images/2021/01/04/opinion/04google-02/04google-02-facebookJumbo.jpg","video":null,"channel":null,"channelUrl":null,"author":"ingve","authorUrl":"https://news.ycombinator.com/user?id=ingve","authorImage":null,"authorSlug":null,"score":261,"views":null,"sharedCount":null,"likeCount":null,"sharedContent":null,"parent":{"__typename":"HnJson","localize":[{"title":"我们是谷歌员工，我们正在组建一个工会","locale":"zh"},{"title":"我們是谷歌員工，我們正在組建一個工會","locale":"zh-Hant"}]}},{"__typename":"SocialMediaPost","id":"HnPost-25629801","excerpt":"","slug":"/hn/25629801","title":"USA vs. Julian Assange Judgment","date":"January 04, 2021","dateISO":"2021-01-04T12:40:30.580Z","datetime":"2021-01-04 12:40","tags":["story","Hacker News"],"image":null,"imageAlt":null,"provider":"Hacker News","thirdPartyId":"25629801","url":"https://news.ycombinator.com/item?id=25629801","originalUrl":"https://www.judiciary.uk/judgments/usa-v-julian-assange/","imageRemote":"https://www.judiciary.uk/wp-content/themes/judiciary/assets/img/card.png","video":null,"channel":null,"channelUrl":null,"author":"yuriko","authorUrl":"https://news.ycombinator.com/user?id=yuriko","authorImage":null,"authorSlug":null,"score":810,"views":null,"sharedCount":null,"likeCount":null,"sharedContent":null,"parent":{"__typename":"HnJson","localize":[{"title":"美国诉朱利安·阿桑奇案判决","locale":"zh"},{"title":"美國訴朱利安·阿桑奇案判決","locale":"zh-Hant"}]}},{"__typename":"SocialMediaPost","id":"HnPost-25630011","excerpt":"","slug":"/hn/25630011","title":"Google workers announce plans to unionize","date":"January 04, 2021","dateISO":"2021-01-04T12:40:30.580Z","datetime":"2021-01-04 12:40","tags":["story","Hacker News"],"image":null,"imageAlt":null,"provider":"Hacker News","thirdPartyId":"25630011","url":"https://news.ycombinator.com/item?id=25630011","originalUrl":"https://www.theverge.com/2021/1/4/22212347/google-employees-contractors-announce-union-cwa-alphabet","imageRemote":"https://cdn.vox-cdn.com/thumbor/vJl1qOCBr6Kht69G9bUfbVy1RM4=/0x428:5978x3558/fit-in/1200x630/cdn.vox-cdn.com/uploads/chorus_asset/file/22211774/1056016730.jpg","video":null,"channel":null,"channelUrl":null,"author":"virde","authorUrl":"https://news.ycombinator.com/user?id=virde","authorImage":null,"authorSlug":null,"score":1638,"views":null,"sharedCount":null,"likeCount":null,"sharedContent":null,"parent":{"__typename":"HnJson","localize":[{"title":"谷歌员工宣布成立工会的计划","locale":"zh"},{"title":"谷歌員工宣佈成立工會的計劃","locale":"zh-Hant"}]}},{"__typename":"SocialMediaPost","id":"HnPost-25620785","excerpt":"","slug":"/hn/25620785","title":"Opensource your abandonware (2010)","date":"January 04, 2021","dateISO":"2021-01-04T11:10:15.621Z","datetime":"2021-01-04 11:10","tags":["story","Hacker News"],"image":null,"imageAlt":null,"provider":"Hacker News","thirdPartyId":"25620785","url":"https://news.ycombinator.com/item?id=25620785","originalUrl":"http://pulkomandy.tk/_/_Development/_Opensource%20your%20abandonware","imageRemote":"http://www.gravatar.com/avatar.php?gravatar_id=3ad73a58bf5565045e570e7b0ea10e60&size=30","video":null,"channel":null,"channelUrl":null,"author":"app4soft","authorUrl":"https://news.ycombinator.com/user?id=app4soft","authorImage":null,"authorSlug":null,"score":157,"views":null,"sharedCount":null,"likeCount":null,"sharedContent":null,"parent":{"__typename":"HnJson","localize":[{"title":"开源你的废弃软件(2010)","locale":"zh"},{"title":"開源你的廢棄軟件(2010)","locale":"zh-Hant"}]}},{"__typename":"SocialMediaPost","id":"HnPost-25622685","excerpt":"","slug":"/hn/25622685","title":"Italy Will Rebuild Colosseum’s Floor","date":"January 04, 2021","dateISO":"2021-01-04T11:10:15.621Z","datetime":"2021-01-04 11:10","tags":["story","Hacker News"],"image":null,"imageAlt":null,"provider":"Hacker News","thirdPartyId":"25622685","url":"https://news.ycombinator.com/item?id=25622685","originalUrl":"https://www.smithsonianmag.com/smart-news/italy-plans-install-floors-colosseum-1-180976635/","imageRemote":"https://thumbs-prod.si-cdn.com/deV4WMRfUXzKuiNnGzYJpw5-_eI=/fit-in/1600x0/filters:focal(2183x1356:2184x1357)/https://public-media.si-cdn.com/filer/41/4f/414f4c9f-b197-4778-9dc6-2a0105cc2908/colosseum_in_rome-april_2007-1-_copie_2b.jpg","video":null,"channel":null,"channelUrl":null,"author":"pseudolus","authorUrl":"https://news.ycombinator.com/user?id=pseudolus","authorImage":null,"authorSlug":null,"score":164,"views":null,"sharedCount":null,"likeCount":null,"sharedContent":null,"parent":{"__typename":"HnJson","localize":[{"title":"意大利将重建竞技场地板","locale":"zh"},{"title":"意大利將重建競技場地板","locale":"zh-Hant"}]}},{"__typename":"SocialMediaPost","id":"HnPost-25624982","excerpt":"","slug":"/hn/25624982","title":"Look Up Unknown Phone Numbers Using Facebook Reset Password","date":"January 04, 2021","dateISO":"2021-01-04T10:12:23.403Z","datetime":"2021-01-04 10:12","tags":["story","Hacker News"],"image":null,"imageAlt":null,"provider":"Hacker News","thirdPartyId":"25624982","url":"https://news.ycombinator.com/item?id=25624982","originalUrl":"https://bytexd.com/look-up-unknown-phone-numbers/","imageRemote":"https://y7p8z3w8.stackpathcdn.com/wp-content/uploads/2020/12/Look-Up-Unknown-Phone-Numbers-using-Facebook-Reset-Password-and-WhatsApp.jpg.webp","video":null,"channel":null,"channelUrl":null,"author":"punkspider","authorUrl":"https://news.ycombinator.com/user?id=punkspider","authorImage":null,"authorSlug":null,"score":243,"views":null,"sharedCount":null,"likeCount":null,"sharedContent":null,"parent":{"__typename":"HnJson","localize":[{"title":"使用Facebook重置密码查找未知电话号码","locale":"zh"},{"title":"使用Facebook重置密碼查找未知電話號碼","locale":"zh-Hant"}]}},{"__typename":"SocialMediaPost","id":"HnPost-25627081","excerpt":"","slug":"/hn/25627081","title":"20 months, 2K hours, 200K € lost. A story about resilience and sunk cost fallacy","date":"January 04, 2021","dateISO":"2021-01-04T08:47:43.768Z","datetime":"2021-01-04 08:47","tags":["story","Hacker News"],"image":null,"imageAlt":null,"provider":"Hacker News","thirdPartyId":"25627081","url":"https://news.ycombinator.com/item?id=25627081","originalUrl":"https://dsebastien.medium.com/20-months-in-2k-hours-spent-and-200k-lost-a-story-about-resilience-and-the-sunk-cost-fallacy-69fd4f61ef59","imageRemote":"https://miro.medium.com/max/668/1*a0Dt7T9lXYGJlhpXHvOaSw.jpeg","video":null,"channel":null,"channelUrl":null,"author":"dSebastien","authorUrl":"https://news.ycombinator.com/user?id=dSebastien","authorImage":null,"authorSlug":null,"score":333,"views":null,"sharedCount":null,"likeCount":null,"sharedContent":null,"parent":{"__typename":"HnJson","localize":[{"title":"20个月，2K小时，20万欧元损失。关于弹性和沉没成本谬论的故事","locale":"zh"},{"title":"20個月，2K小時，20萬歐元損失。關於彈性和沉沒成本謬論的故事","locale":"zh-Hant"}]}},{"__typename":"SocialMediaPost","id":"HnPost-25621133","excerpt":"","slug":"/hn/25621133","title":"The Toyota Production System","date":"January 04, 2021","dateISO":"2021-01-04T06:01:40.941Z","datetime":"2021-01-04 06:01","tags":["story","Hacker News"],"image":null,"imageAlt":null,"provider":"Hacker News","thirdPartyId":"25621133","url":"https://news.ycombinator.com/item?id=25621133","originalUrl":"https://blog.toyota.co.uk/toyota-production-system-glossary","imageRemote":"https://d1r57ja1amoclf.cloudfront.net/wp-content/uploads/2013/05/Heijunka-gallery.jpg","video":null,"channel":null,"channelUrl":null,"author":"louis-paul","authorUrl":"https://news.ycombinator.com/user?id=louis-paul","authorImage":null,"authorSlug":null,"score":224,"views":null,"sharedCount":null,"likeCount":null,"sharedContent":null,"parent":{"__typename":"HnJson","localize":[{"title":"丰田生产方式","locale":"zh"},{"title":"豐田生產方式","locale":"zh-Hant"}]}},{"__typename":"SocialMediaPost","id":"HnPost-25621700","excerpt":"","slug":"/hn/25621700","title":"GTK4 for Graphical User Interfaces","date":"January 04, 2021","dateISO":"2021-01-04T05:37:19.959Z","datetime":"2021-01-04 05:37","tags":["story","Hacker News"],"image":null,"imageAlt":null,"provider":"Hacker News","thirdPartyId":"25621700","url":"https://news.ycombinator.com/item?id=25621700","originalUrl":"http://ssalewski.de/gtkprogramming.html","imageRemote":"http://ssalewski.de/gtkimages/simplegtk3c.png","video":null,"channel":null,"channelUrl":null,"author":"chauhankiran","authorUrl":"https://news.ycombinator.com/user?id=chauhankiran","authorImage":null,"authorSlug":null,"score":160,"views":null,"sharedCount":null,"likeCount":null,"sharedContent":null,"parent":{"__typename":"HnJson","localize":[{"title":"用于图形用户界面的GTK4","locale":"zh"},{"title":"用於圖形用戶界面的GTK4","locale":"zh-Hant"}]}}]}},"pageContext":{"basePath":"/","pageType":"tag","tag":"story","tagsFilter":{"id":{"glob":"!*Post-1"}},"filter":{"id":{"glob":"!*Post-1"},"tags":{"eq":"story"}},"limit":25,"skip":225,"total":910,"totalPages":37,"currentPage":10,"maxWidth":1024,"maxHeight":512,"locale":"en","hrefLang":"en-US","originalPath":"/tags/story/page/10","dateFormat":"MM/DD/YYYY"}},"staticQueryHashes":["1239077767","2506312863","2744905544","3025052997","3493603132","3493603132","3513215887","386998304"]}