{"componentChunkName":"component---gatsby-theme-buzzing-src-gatsby-theme-timeline-templates-posts-query-js","path":"/tags/story/page/15","result":{"data":{"site":{"siteMetadata":{"title":"Reddit 热门","description":"用中文浏览Reddit热门内容","social":[{"name":"Twitter","url":"https://twitter.com/gatsbyjs","external":null,"prefetch":null},{"name":"GitHub","url":"https://github.com/gatsbyjs","external":null,"prefetch":null}],"menuLinks":[],"localize":[{"locale":"en","title":"Buzzing on Reddit","description":"See what's buzzing on Reddit in your native language","social":[{"name":"Reddit","url":"https://www.reddit.com/","external":true,"prefetch":null}],"menuLinks":[{"name":"Weekly Selection","url":"/issues","external":null,"prefetch":null},{"name":"RSS","url":"/rss.xml","external":null,"prefetch":false}]},{"locale":"zh-Hant","title":"Reddit 熱門","description":"用中文瀏覽Reddit熱門內容","social":null,"menuLinks":null}]}},"tagsGroup":{"group":[{"fieldValue":"ASK HN","totalCount":42},{"fieldValue":"Bitcoin","totalCount":4},{"fieldValue":"Hacker News","totalCount":2409},{"fieldValue":"Poll","totalCount":1},{"fieldValue":"SaveAMC","totalCount":1},{"fieldValue":"Show HN","totalCount":81},{"fieldValue":"bitcoin","totalCount":3},{"fieldValue":"investing","totalCount":755},{"fieldValue":"poll","totalCount":1},{"fieldValue":"reddit","totalCount":4525},{"fieldValue":"science","totalCount":1},{"fieldValue":"stocks","totalCount":1482},{"fieldValue":"story","totalCount":2408},{"fieldValue":"tweet","totalCount":767},{"fieldValue":"wallstreetbets","totalCount":2288}]},"allBlogPost":{"nodes":[{"__typename":"SocialMediaPost","id":"HnPost-26274516","excerpt":"","slug":"/hn/26274516","title":"An interactive guide to CSS transitions","date":"February 26, 2021","dateISO":"2021-02-26T22:26:01.459Z","datetime":"2021-02-26 22:26","tags":["story","Hacker News"],"image":null,"imageAlt":null,"provider":"Hacker News","thirdPartyId":"26274516","url":"https://news.ycombinator.com/item?id=26274516","originalUrl":"https://www.joshwcomeau.com/animation/css-transitions/","imageRemote":"https://www.joshwcomeau.com/images/og-css-transitions.png","video":null,"channel":null,"channelUrl":null,"author":"tomaszs","authorUrl":"https://news.ycombinator.com/user?id=tomaszs","authorImage":null,"authorSlug":null,"score":309,"views":null,"sharedCount":null,"likeCount":null,"sharedContent":null,"parent":{"__typename":"HnJson","localize":[{"title":"CSS过渡的交互式指南","locale":"zh"},{"title":"CSS過渡的交互式指南","locale":"zh-Hant"}]}},{"__typename":"SocialMediaPost","id":"HnPost-26277602","excerpt":"","slug":"/hn/26277602","title":"Show HN: Hummingbard – decentralized communities built on Matrix","date":"February 26, 2021","dateISO":"2021-02-26T22:26:01.459Z","datetime":"2021-02-26 22:26","tags":["story","Show HN","Hacker News"],"image":null,"imageAlt":null,"provider":"Hacker News","thirdPartyId":"26277602","url":"https://news.ycombinator.com/item?id=26277602","originalUrl":"https://hummingbard.com/hummingbard/introducing-hummingbard","imageRemote":"https://matrix.hummingbard.com/_matrix/media/r0/thumbnail/hummingbard.com/9e74f23dde4b76f9b832db34ee5a51e6624e2efe68784edc6d25d365c3ea1443?width=800&height=600&method=scale","video":null,"channel":"Show HN","channelUrl":"https://news.ycombinator.com/show","author":"SubGenius","authorUrl":"https://news.ycombinator.com/user?id=SubGenius","authorImage":null,"authorSlug":null,"score":411,"views":null,"sharedCount":null,"likeCount":null,"sharedContent":null,"parent":{"__typename":"HnJson","localize":[{"title":"展示HN：Hummingbard--建立在Matrix上的去中心化社区。","locale":"zh"},{"title":"展示HN：Hummingbard--建立在Matrix上的去中心化社區。","locale":"zh-Hant"}]}},{"__typename":"SocialMediaPost","id":"HnPost-26277396","excerpt":"","slug":"/hn/26277396","title":"Judge in Google case disturbed that even 'Incognito' users are tracked","date":"February 26, 2021","dateISO":"2021-02-26T18:40:59.354Z","datetime":"2021-02-26 18:40","tags":["story","Hacker News"],"image":null,"imageAlt":null,"provider":"Hacker News","thirdPartyId":"26277396","url":"https://news.ycombinator.com/item?id=26277396","originalUrl":"https://www.bnnbloomberg.ca/judge-in-google-case-disturbed-that-even-incognito-users-are-tracked-1.1569065","imageRemote":"http://www.bnnbloomberg.ca/polopoly_fs/1.1569066!/fileimage/httpImage/image.jpg_gen/derivatives/landscape_620/a-link-to-google-s-proposal-to-a-workable-news-code-on-the-company-s-homepage-arranged-on-a-desktop-computer-in-sydney-australia-on-friday-jan-22-2021-google-threatened-to-disable-its-search-engine-in-australia-if-it-s-forced-to-pay-local-publishers-for-news-a-dramatic-escalation-of-a-months-long-standoff-with-the-government.jpg","video":null,"channel":null,"channelUrl":null,"author":"johncena33","authorUrl":"https://news.ycombinator.com/user?id=johncena33","authorImage":null,"authorSlug":null,"score":926,"views":null,"sharedCount":null,"likeCount":null,"sharedContent":null,"parent":{"__typename":"HnJson","localize":[{"title":"谷歌案法官不安，连 \"隐姓埋名 \"的用户都被跟踪了","locale":"zh"},{"title":"谷歌案法官不安，連 \"隱姓埋名 \"的用戶都被跟蹤了","locale":"zh-Hant"}]}},{"__typename":"SocialMediaPost","id":"HnPost-26275488","excerpt":"","slug":"/hn/26275488","title":"Anime is booming, so why are animators living in poverty?","date":"February 26, 2021","dateISO":"2021-02-26T18:22:45.088Z","datetime":"2021-02-26 18:22","tags":["story","Hacker News"],"image":null,"imageAlt":null,"provider":"Hacker News","thirdPartyId":"26275488","url":"https://news.ycombinator.com/item?id=26275488","originalUrl":"https://www.nytimes.com/2021/02/24/business/japan-anime.html","imageRemote":"https://static01.nyt.com/images/2021/02/12/business/00japan-anime-1/00japan-anime-1-facebookJumbo-v2.jpg","video":null,"channel":null,"channelUrl":null,"author":"polm23","authorUrl":"https://news.ycombinator.com/user?id=polm23","authorImage":null,"authorSlug":null,"score":311,"views":null,"sharedCount":null,"likeCount":null,"sharedContent":null,"parent":{"__typename":"HnJson","localize":[{"title":"动漫蓬勃发展，为何动画师生活贫困？","locale":"zh"},{"title":"動漫蓬勃發展，爲何動畫師生活貧困？","locale":"zh-Hant"}]}},{"__typename":"SocialMediaPost","id":"HnPost-26272492","excerpt":"","slug":"/hn/26272492","title":"Why is the DOS path character \"\\\"? (2005)","date":"February 26, 2021","dateISO":"2021-02-26T17:45:09.244Z","datetime":"2021-02-26 17:45","tags":["story","Hacker News"],"image":null,"imageAlt":null,"provider":"Hacker News","thirdPartyId":"26272492","url":"https://news.ycombinator.com/item?id=26272492","originalUrl":"https://web.archive.org/web/20100612035120/http://blogs.msdn.com/b/larryosterman/archive/2005/06/24/432386.aspx","imageRemote":"https://web.archive.org/web/20100612035120im_/http://blogs.msdn.com/themes/MSDN/images/MSDN/msdn-logo.png","video":null,"channel":null,"channelUrl":null,"author":"jez","authorUrl":"https://news.ycombinator.com/user?id=jez","authorImage":null,"authorSlug":null,"score":181,"views":null,"sharedCount":null,"likeCount":null,"sharedContent":null,"parent":{"__typename":"HnJson","localize":[{"title":"为什么DOS路径字符是\"/\"？(2005)","locale":"zh"},{"title":"爲什麼DOS路徑字符是\"/\"？(2005)","locale":"zh-Hant"}]}},{"__typename":"SocialMediaPost","id":"HnPost-26274618","excerpt":"","slug":"/hn/26274618","title":"Blender 2.92","date":"February 26, 2021","dateISO":"2021-02-26T17:15:52.407Z","datetime":"2021-02-26 17:15","tags":["story","Hacker News"],"image":null,"imageAlt":null,"provider":"Hacker News","thirdPartyId":"26274618","url":"https://news.ycombinator.com/item?id=26274618","originalUrl":"https://www.blender.org/download/releases/2-92/","imageRemote":"https://www.blender.org/wp-content/uploads/2021/02/blender_thumbnail_292.jpg","video":null,"channel":null,"channelUrl":null,"author":"dragonsh","authorUrl":"https://news.ycombinator.com/user?id=dragonsh","authorImage":null,"authorSlug":null,"score":465,"views":null,"sharedCount":null,"likeCount":null,"sharedContent":null,"parent":{"__typename":"HnJson","localize":[{"title":"搅拌器2.92","locale":"zh"},{"title":"攪拌器2.92","locale":"zh-Hant"}]}},{"__typename":"SocialMediaPost","id":"HnPost-26275400","excerpt":"","slug":"/hn/26275400","title":"Facebook Is Launching an All-Out War on Apple's Upcoming iPhone Update","date":"February 26, 2021","dateISO":"2021-02-26T16:44:33.490Z","datetime":"2021-02-26 16:44","tags":["story","Hacker News"],"image":null,"imageAlt":null,"provider":"Hacker News","thirdPartyId":"26275400","url":"https://news.ycombinator.com/item?id=26275400","originalUrl":"https://www.npr.org/2021/02/26/971367875/why-is-facebook-launching-an-all-out-war-on-apples-upcoming-iphone-update?t=1614351654558","imageRemote":"https://media.npr.org/assets/img/2021/02/25/ap20351593715141_wide-69b7509dad793e88c5cf32e4019dc62dbf84eaf2.jpg?s=1400","video":null,"channel":null,"channelUrl":null,"author":"pedro-guimaraes","authorUrl":"https://news.ycombinator.com/user?id=pedro-guimaraes","authorImage":null,"authorSlug":null,"score":623,"views":null,"sharedCount":null,"likeCount":null,"sharedContent":null,"parent":{"__typename":"HnJson","localize":[{"title":"Facebook正在对苹果即将到来的iPhone更新发起全面战争。","locale":"zh"},{"title":"Facebook正在對蘋果即將到來的iPhone更新發起全面戰爭。","locale":"zh-Hant"}]}},{"__typename":"SocialMediaPost","id":"HnPost-26271582","excerpt":"","slug":"/hn/26271582","title":"Intercal, YAML, and Other Horrible Programming Languages","date":"February 26, 2021","dateISO":"2021-02-26T15:52:40.587Z","datetime":"2021-02-26 15:52","tags":["story","Hacker News"],"image":null,"imageAlt":null,"provider":"Hacker News","thirdPartyId":"26271582","url":"https://news.ycombinator.com/item?id=26271582","originalUrl":"https://blog.earthly.dev/intercal-yaml-and-other-horrible-programming-languages/","imageRemote":"https://blog.earthly.dev/content/images/2021/02/INTERCAL--2--2.png","video":null,"channel":null,"channelUrl":null,"author":"sidcool","authorUrl":"https://news.ycombinator.com/user?id=sidcool","authorImage":null,"authorSlug":null,"score":217,"views":null,"sharedCount":null,"likeCount":null,"sharedContent":null,"parent":{"__typename":"HnJson","localize":[{"title":"Intercal、YAML和其他可怕的编程语言","locale":"zh"},{"title":"Intercal、YAML和其他可怕的編程語言","locale":"zh-Hant"}]}},{"__typename":"SocialMediaPost","id":"HnPost-26271800","excerpt":"","slug":"/hn/26271800","title":"Firefox 86.0","date":"February 26, 2021","dateISO":"2021-02-26T15:52:40.587Z","datetime":"2021-02-26 15:52","tags":["story","Hacker News"],"image":null,"imageAlt":null,"provider":"Hacker News","thirdPartyId":"26271800","url":"https://news.ycombinator.com/item?id=26271800","originalUrl":"https://www.mozilla.org/en-US/firefox/86.0/releasenotes/","imageRemote":"https://www.mozilla.org/media/protocol/img/logos/firefox/browser/og.4ad05d4125a5.png","video":null,"channel":null,"channelUrl":null,"author":"LopRabbit","authorUrl":"https://news.ycombinator.com/user?id=LopRabbit","authorImage":null,"authorSlug":null,"score":294,"views":null,"sharedCount":null,"likeCount":null,"sharedContent":null,"parent":{"__typename":"HnJson","localize":[{"title":"火狐86.0","locale":"zh"},{"title":"火狐86.0","locale":"zh-Hant"}]}},{"__typename":"SocialMediaPost","id":"HnPost-26272062","excerpt":"","slug":"/hn/26272062","title":"Protest note about user privacy changes by Reddit","date":"February 26, 2021","dateISO":"2021-02-26T14:53:12.517Z","datetime":"2021-02-26 14:53","tags":["story","Hacker News"],"image":null,"imageAlt":null,"provider":"Hacker News","thirdPartyId":"26272062","url":"https://news.ycombinator.com/item?id=26272062","originalUrl":"https://www.reddit.com/r/europe/comments/ls7ft8/protest_note_about_user_privacy_changes_by_reddit/","imageRemote":"https://www.redditstatic.com/desktop2x/img/renderTimingPixel.png","video":null,"channel":null,"channelUrl":null,"author":"docdeek","authorUrl":"https://news.ycombinator.com/user?id=docdeek","authorImage":null,"authorSlug":null,"score":195,"views":null,"sharedCount":null,"likeCount":null,"sharedContent":null,"parent":{"__typename":"HnJson","localize":[{"title":"关于Reddit修改用户隐私的抗议说明","locale":"zh"},{"title":"關於Reddit修改用戶隱私的抗議說明","locale":"zh-Hant"}]}},{"__typename":"SocialMediaPost","id":"HnPost-26273960","excerpt":"","slug":"/hn/26273960","title":"Actually Portable Executable","date":"February 26, 2021","dateISO":"2021-02-26T14:24:38.969Z","datetime":"2021-02-26 14:24","tags":["story","Hacker News"],"image":null,"imageAlt":null,"provider":"Hacker News","thirdPartyId":"26273960","url":"https://news.ycombinator.com/item?id=26273960","originalUrl":"https://justine.lol/ape.html","imageRemote":"https://storage.googleapis.com/justine/linux2.png","video":null,"channel":null,"channelUrl":null,"author":"NilsIRL","authorUrl":"https://news.ycombinator.com/user?id=NilsIRL","authorImage":null,"authorSlug":null,"score":643,"views":null,"sharedCount":null,"likeCount":null,"sharedContent":null,"parent":{"__typename":"HnJson","localize":[{"title":"实际上是便携式可执行文件","locale":"zh"},{"title":"實際上是便攜式可執行文件","locale":"zh-Hant"}]}},{"__typename":"SocialMediaPost","id":"HnPost-26272084","excerpt":"","slug":"/hn/26272084","title":"ISO 8601: the better date format","date":"February 26, 2021","dateISO":"2021-02-26T12:25:21.655Z","datetime":"2021-02-26 12:25","tags":["story","Hacker News"],"image":null,"imageAlt":null,"provider":"Hacker News","thirdPartyId":"26272084","url":"https://news.ycombinator.com/item?id=26272084","originalUrl":"https://kirby.kevinson.org/blog/iso-8601-the-better-date-format/","imageRemote":null,"video":null,"channel":null,"channelUrl":null,"author":"kirbykevinson","authorUrl":"https://news.ycombinator.com/user?id=kirbykevinson","authorImage":null,"authorSlug":null,"score":366,"views":null,"sharedCount":null,"likeCount":null,"sharedContent":null,"parent":{"__typename":"HnJson","localize":[{"title":"ISO 8601：更好的日期格式","locale":"zh"},{"title":"ISO 8601：更好的日期格式","locale":"zh-Hant"}]}},{"__typename":"SocialMediaPost","id":"HnPost-26249380","excerpt":"","slug":"/hn/26249380","title":"How often should I rotate my SSH keys?","date":"February 26, 2021","dateISO":"2021-02-26T11:26:12.830Z","datetime":"2021-02-26 11:26","tags":["story","Hacker News"],"image":null,"imageAlt":null,"provider":"Hacker News","thirdPartyId":"26249380","url":"https://news.ycombinator.com/item?id=26249380","originalUrl":"https://tailscale.com/blog/rotate-ssh-keys/","imageRemote":"https://tailscale.com/files/images/og-image.png","video":null,"channel":null,"channelUrl":null,"author":"todsacerdoti","authorUrl":"https://news.ycombinator.com/user?id=todsacerdoti","authorImage":null,"authorSlug":null,"score":292,"views":null,"sharedCount":null,"likeCount":null,"sharedContent":null,"parent":{"__typename":"HnJson","localize":[{"title":"我应该多久轮换一次SSH密钥？","locale":"zh"},{"title":"我應該多久輪換一次SSH密鑰？","locale":"zh-Hant"}]}},{"__typename":"SocialMediaPost","id":"HnPost-26268460","excerpt":"","slug":"/hn/26268460","title":"IoTaWatt Open Source WiFi Electric Power Monitor","date":"February 26, 2021","dateISO":"2021-02-26T11:26:12.830Z","datetime":"2021-02-26 11:26","tags":["story","Hacker News"],"image":null,"imageAlt":null,"provider":"Hacker News","thirdPartyId":"26268460","url":"https://news.ycombinator.com/item?id=26268460","originalUrl":"https://www.iotawatt.com/","imageRemote":"https://www.iotawatt.com/assets/img/IoTaWatt_NA_400x400.jpg","video":null,"channel":null,"channelUrl":null,"author":"mrep","authorUrl":"https://news.ycombinator.com/user?id=mrep","authorImage":null,"authorSlug":null,"score":172,"views":null,"sharedCount":null,"likeCount":null,"sharedContent":null,"parent":{"__typename":"HnJson","localize":[{"title":"IoTaWatt开源WiFi电量监控器","locale":"zh"},{"title":"IoTaWatt開源WiFi電量監控器","locale":"zh-Hant"}]}},{"__typename":"SocialMediaPost","id":"HnPost-26270251","excerpt":"","slug":"/hn/26270251","title":"Zine machine: a compact 3D-printed block printing press","date":"February 26, 2021","dateISO":"2021-02-26T08:56:21.735Z","datetime":"2021-02-26 08:56","tags":["story","Hacker News"],"image":null,"imageAlt":null,"provider":"Hacker News","thirdPartyId":"26270251","url":"https://news.ycombinator.com/item?id=26270251","originalUrl":"https://hibred.pmvabf.org/zine-machine","imageRemote":"https://freight.cargo.site/w/1200/i/951ab871ddfc83515e6c8fbe01047a5a14dd9ccbe8eb052adc4d06f09c517bd2/as_hero_as_it_gets.jpg","video":null,"channel":null,"channelUrl":null,"author":"hownottowrite","authorUrl":"https://news.ycombinator.com/user?id=hownottowrite","authorImage":null,"authorSlug":null,"score":247,"views":null,"sharedCount":null,"likeCount":null,"sharedContent":null,"parent":{"__typename":"HnJson","localize":[{"title":"Zine机：小型3D打印积木印刷机。","locale":"zh"},{"title":"Zine機：小型3D打印積木印刷機。","locale":"zh-Hant"}]}},{"__typename":"SocialMediaPost","id":"HnPost-26267216","excerpt":"","slug":"/hn/26267216","title":"Semiconductors Demand 30% Above Supply, 20% Year-on-Year Growth","date":"February 26, 2021","dateISO":"2021-02-26T08:28:25.661Z","datetime":"2021-02-26 08:28","tags":["story","Hacker News"],"image":null,"imageAlt":null,"provider":"Hacker News","thirdPartyId":"26267216","url":"https://news.ycombinator.com/item?id=26267216","originalUrl":"https://www.anandtech.com/show/16511/leading-foundries-enjoy-massive-revenue-growth-as-capacities-get-fully-loaded","imageRemote":"https://images.anandtech.com/doci/16511/tsmc_wafer_semiconductor_chip_300mm_fab_678x452.jpg","video":null,"channel":null,"channelUrl":null,"author":"ksec","authorUrl":"https://news.ycombinator.com/user?id=ksec","authorImage":null,"authorSlug":null,"score":197,"views":null,"sharedCount":null,"likeCount":null,"sharedContent":null,"parent":{"__typename":"HnJson","localize":[{"title":"半导体需求高于供应30%，同比增长20%。","locale":"zh"},{"title":"半導體需求高於供應30%，同比增長20%。","locale":"zh-Hant"}]}},{"__typename":"SocialMediaPost","id":"HnPost-26271117","excerpt":"","slug":"/hn/26271117","title":"Show HN: Redbean – Single-file distributable web server","date":"February 26, 2021","dateISO":"2021-02-26T08:28:25.661Z","datetime":"2021-02-26 08:28","tags":["story","Show HN","Hacker News"],"image":null,"imageAlt":null,"provider":"Hacker News","thirdPartyId":"26271117","url":"https://news.ycombinator.com/item?id=26271117","originalUrl":"https://justine.lol/redbean/index.html","imageRemote":"https://storage.googleapis.com/justine/redbean/redbean.png","video":null,"channel":"Show HN","channelUrl":"https://news.ycombinator.com/show","author":"jart","authorUrl":"https://news.ycombinator.com/user?id=jart","authorImage":null,"authorSlug":null,"score":1994,"views":null,"sharedCount":null,"likeCount":null,"sharedContent":null,"parent":{"__typename":"HnJson","localize":[{"title":"显示HN：红豆 - 单文件可分发的Web服务器","locale":"zh"},{"title":"顯示HN：紅豆 - 單文件可分發的Web服務器","locale":"zh-Hant"}]}},{"__typename":"SocialMediaPost","id":"HnPost-26271470","excerpt":"","slug":"/hn/26271470","title":"Google admits Kubernetes container tech is too complex","date":"February 26, 2021","dateISO":"2021-02-26T08:28:25.661Z","datetime":"2021-02-26 08:28","tags":["story","Hacker News"],"image":null,"imageAlt":null,"provider":"Hacker News","thirdPartyId":"26271470","url":"https://news.ycombinator.com/item?id=26271470","originalUrl":"https://www.theregister.com/2021/02/25/google_kubernetes_autopilot/","imageRemote":"https://regmedia.co.uk/2016/03/30/pilot_image_via_shutterstock.jpg","video":null,"channel":null,"channelUrl":null,"author":"pjmlp","authorUrl":"https://news.ycombinator.com/user?id=pjmlp","authorImage":null,"authorSlug":null,"score":572,"views":null,"sharedCount":null,"likeCount":null,"sharedContent":null,"parent":{"__typename":"HnJson","localize":[{"title":"谷歌承认Kubernetes容器技术过于复杂","locale":"zh"},{"title":"谷歌承認Kubernetes容器技術過於複雜","locale":"zh-Hant"}]}},{"__typename":"SocialMediaPost","id":"HnPost-26269832","excerpt":"","slug":"/hn/26269832","title":"Map of my personal data infrastructure","date":"February 26, 2021","dateISO":"2021-02-26T06:30:14.375Z","datetime":"2021-02-26 06:30","tags":["story","Hacker News"],"image":null,"imageAlt":null,"provider":"Hacker News","thirdPartyId":"26269832","url":"https://news.ycombinator.com/item?id=26269832","originalUrl":"https://beepb00p.xyz/myinfra.html","imageRemote":"https://beepb00p.xyz/assets/favicon.png","video":null,"channel":null,"channelUrl":null,"author":"nreece","authorUrl":"https://news.ycombinator.com/user?id=nreece","authorImage":null,"authorSlug":null,"score":298,"views":null,"sharedCount":null,"likeCount":null,"sharedContent":null,"parent":{"__typename":"HnJson","localize":[{"title":"我的个人数据基础设施图","locale":"zh"},{"title":"我的個人數據基礎設施圖","locale":"zh-Hant"}]}},{"__typename":"SocialMediaPost","id":"HnPost-26266881","excerpt":"","slug":"/hn/26266881","title":"Local-First Software:You Own Your Data, in Spite of the Cloud (2019) [pdf]","date":"February 26, 2021","dateISO":"2021-02-26T04:35:39.367Z","datetime":"2021-02-26 04:35","tags":["story","Hacker News"],"image":null,"imageAlt":null,"provider":"Hacker News","thirdPartyId":"26266881","url":"https://news.ycombinator.com/item?id=26266881","originalUrl":"https://martin.kleppmann.com/papers/local-first.pdf","imageRemote":null,"video":null,"channel":null,"channelUrl":null,"author":"JeanMarcS","authorUrl":"https://news.ycombinator.com/user?id=JeanMarcS","authorImage":null,"authorSlug":null,"score":216,"views":null,"sharedCount":null,"likeCount":null,"sharedContent":null,"parent":{"__typename":"HnJson","localize":[{"title":"Local-First Software:You Own Your Data, in Spite of Cloud (2019) [pdf] 。","locale":"zh"},{"title":"Local-First Software:You Own Your Data, in Spite of Cloud (2019) [pdf] 。","locale":"zh-Hant"}]}},{"__typename":"SocialMediaPost","id":"HnPost-26250809","excerpt":"","slug":"/hn/26250809","title":"Show HN: CalcuLaTeX, a pretty-printing calculator language","date":"February 26, 2021","dateISO":"2021-02-26T03:55:07.745Z","datetime":"2021-02-26 03:55","tags":["story","Show HN","Hacker News"],"image":null,"imageAlt":null,"provider":"Hacker News","thirdPartyId":"26250809","url":"https://news.ycombinator.com/item?id=26250809","originalUrl":"https://mkhan45.github.io/CalcuLaTeX-Web/","imageRemote":null,"video":null,"channel":"Show HN","channelUrl":"https://news.ycombinator.com/show","author":"fish45","authorUrl":"https://news.ycombinator.com/user?id=fish45","authorImage":null,"authorSlug":null,"score":230,"views":null,"sharedCount":null,"likeCount":null,"sharedContent":null,"parent":{"__typename":"HnJson","localize":[{"title":"展示HN：CalcuLaTeX，一种漂亮的打印计算器语言。","locale":"zh"},{"title":"展示HN：CalcuLaTeX，一種漂亮的打印計算器語言。","locale":"zh-Hant"}]}},{"__typename":"SocialMediaPost","id":"HnPost-26265872","excerpt":"","slug":"/hn/26265872","title":"Launch HN: Enombic (YC S20) – Create your own stock indexes","date":"February 26, 2021","dateISO":"2021-02-26T03:29:47.206Z","datetime":"2021-02-26 03:29","tags":["story","Hacker News"],"image":null,"imageAlt":null,"provider":"Hacker News","thirdPartyId":"26265872","url":"https://news.ycombinator.com/item?id=26265872","originalUrl":"https://news.ycombinator.com/item?id=26265872","imageRemote":null,"video":null,"channel":null,"channelUrl":null,"author":"kmckiern","authorUrl":"https://news.ycombinator.com/user?id=kmckiern","authorImage":null,"authorSlug":null,"score":305,"views":null,"sharedCount":null,"likeCount":null,"sharedContent":null,"parent":{"__typename":"HnJson","localize":[{"title":"推出HN：Enombic（YC S20） - 创建自己的股票指数。","locale":"zh"},{"title":"推出HN：Enombic（YC S20） - 創建自己的股票指數。","locale":"zh-Hant"}]}},{"__typename":"SocialMediaPost","id":"HnPost-26263085","excerpt":"","slug":"/hn/26263085","title":"Plain Text Protocols","date":"February 26, 2021","dateISO":"2021-02-26T01:57:42.869Z","datetime":"2021-02-26 01:57","tags":["story","Hacker News"],"image":null,"imageAlt":null,"provider":"Hacker News","thirdPartyId":"26263085","url":"https://news.ycombinator.com/item?id=26263085","originalUrl":"https://blainsmith.com/articles/plain-text-protocols/","imageRemote":"https://blainsmith.goatcounter.com/count?p=%2farticles%2fplain-text-protocols%2f","video":null,"channel":null,"channelUrl":null,"author":"tate","authorUrl":"https://news.ycombinator.com/user?id=tate","authorImage":null,"authorSlug":null,"score":194,"views":null,"sharedCount":null,"likeCount":null,"sharedContent":null,"parent":{"__typename":"HnJson","localize":[{"title":"纯文本协议","locale":"zh"},{"title":"純文本協議","locale":"zh-Hant"}]}},{"__typename":"SocialMediaPost","id":"HnPost-26264378","excerpt":"","slug":"/hn/26264378","title":"An Interview with Sci-Hub’s Alexandra Elbakyan on the Delhi HC Case","date":"February 26, 2021","dateISO":"2021-02-26T01:10:30.773Z","datetime":"2021-02-26 01:10","tags":["story","Hacker News"],"image":null,"imageAlt":null,"provider":"Hacker News","thirdPartyId":"26264378","url":"https://news.ycombinator.com/item?id=26264378","originalUrl":"https://science.thewire.in/the-sciences/interview-alexandra-elbakyan-sci-hub-elsevier-academic-publishing-open-access/","imageRemote":"https://cdn.thewire.in/wp-content/uploads/2021/02/22135717/elbakyan.jpg","video":null,"channel":null,"channelUrl":null,"author":"amrrs","authorUrl":"https://news.ycombinator.com/user?id=amrrs","authorImage":null,"authorSlug":null,"score":217,"views":null,"sharedCount":null,"likeCount":null,"sharedContent":null,"parent":{"__typename":"HnJson","localize":[{"title":"就德里高等法院案件采访Sci-Hub的Alexandra Elbakyan。","locale":"zh"},{"title":"就德里高等法院案件採訪Sci-Hub的Alexandra Elbakyan。","locale":"zh-Hant"}]}},{"__typename":"SocialMediaPost","id":"HnPost-26267529","excerpt":"","slug":"/hn/26267529","title":"Quitting Twitter","date":"February 25, 2021","dateISO":"2021-02-25T23:45:58.481Z","datetime":"2021-02-25 23:45","tags":["story","Hacker News"],"image":null,"imageAlt":null,"provider":"Hacker News","thirdPartyId":"26267529","url":"https://news.ycombinator.com/item?id=26267529","originalUrl":"https://blog.nindalf.com/posts/quitting-twitter/","imageRemote":null,"video":null,"channel":null,"channelUrl":null,"author":"thewarrior","authorUrl":"https://news.ycombinator.com/user?id=thewarrior","authorImage":null,"authorSlug":null,"score":279,"views":null,"sharedCount":null,"likeCount":null,"sharedContent":null,"parent":{"__typename":"HnJson","localize":[{"title":"戒除Twitter","locale":"zh"},{"title":"戒除Twitter","locale":"zh-Hant"}]}}]}},"pageContext":{"basePath":"/","pageType":"tag","tag":"story","tagsFilter":{"id":{"glob":"!*Post-1"}},"filter":{"id":{"glob":"!*Post-1"},"tags":{"eq":"story"}},"limit":25,"skip":350,"total":2408,"totalPages":97,"currentPage":15,"maxWidth":1024,"maxHeight":512,"locale":"zh","hrefLang":"zh-Hans","originalPath":"/tags/story/page/15","dateFormat":"YYYY-MM-DD"}},"staticQueryHashes":["1239077767","2506312863","2744905544","3025052997","3493603132","3493603132","3513215887","386998304"]}