{"componentChunkName":"component---gatsby-theme-buzzing-src-gatsby-theme-timeline-templates-posts-query-js","path":"/zh-Hant/tags/product-hunt/page/75","result":{"data":{"site":{"siteMetadata":{"title":"Reddit 热门","description":"用中文浏览Reddit热门内容","social":[{"name":"Twitter","url":"https://twitter.com/gatsbyjs","external":null,"prefetch":null},{"name":"GitHub","url":"https://github.com/gatsbyjs","external":null,"prefetch":null}],"menuLinks":[],"localize":[{"locale":"en","title":"Buzzing on Reddit","description":"See what's buzzing on Reddit in your native language","social":[{"name":"Reddit","url":"https://www.reddit.com/","external":true,"prefetch":null}],"menuLinks":[{"name":"Weekly Selection","url":"/issues","external":null,"prefetch":null},{"name":"RSS","url":"/rss.xml","external":null,"prefetch":false}]},{"locale":"zh-Hant","title":"Reddit 熱門","description":"用中文瀏覽Reddit熱門內容","social":null,"menuLinks":null}]}},"tagsGroup":{"group":[{"fieldValue":"3D Printing","totalCount":4},{"fieldValue":"A/B Testing","totalCount":8},{"fieldValue":"APIs","totalCount":56},{"fieldValue":"Action Games","totalCount":2},{"fieldValue":"Ad Blockers","totalCount":2},{"fieldValue":"Adventure Games","totalCount":2},{"fieldValue":"Advertising","totalCount":19},{"fieldValue":"Airbnb","totalCount":1},{"fieldValue":"Alexa Skills","totalCount":2},{"fieldValue":"Amazon","totalCount":5},{"fieldValue":"Analytics","totalCount":79},{"fieldValue":"Android","totalCount":128},{"fieldValue":"Anonymous","totalCount":2},{"fieldValue":"Apple","totalCount":39},{"fieldValue":"Apple Watch","totalCount":5},{"fieldValue":"Art","totalCount":21},{"fieldValue":"Artificial Intelligence","totalCount":177},{"fieldValue":"Audio and Voice ","totalCount":30},{"fieldValue":"Augmented Reality","totalCount":13},{"fieldValue":"Backpacks","totalCount":1},{"fieldValue":"Beauty","totalCount":1},{"fieldValue":"Biohacking","totalCount":2},{"fieldValue":"Bitcoin","totalCount":4},{"fieldValue":"Blockstack","totalCount":1},{"fieldValue":"Board Games","totalCount":5},{"fieldValue":"Books","totalCount":14},{"fieldValue":"Bots","totalCount":19},{"fieldValue":"Branding","totalCount":12},{"fieldValue":"CSM Tools","totalCount":1},{"fieldValue":"Calendar and Scheduling","totalCount":39},{"fieldValue":"Cannabis","totalCount":1},{"fieldValue":"Card Games","totalCount":2},{"fieldValue":"Cars","totalCount":2},{"fieldValue":"Chrome Extensions","totalCount":62},{"fieldValue":"Coffee","totalCount":2},{"fieldValue":"Comics and Graphic Novels","totalCount":1},{"fieldValue":"Cooking","totalCount":3},{"fieldValue":"Cooking Books","totalCount":1},{"fieldValue":"Couples","totalCount":2},{"fieldValue":"Crafting games","totalCount":1},{"fieldValue":"Crowdfunding","totalCount":22},{"fieldValue":"Crypto","totalCount":46},{"fieldValue":"Customer communication","totalCount":33},{"fieldValue":"Dating","totalCount":6},{"fieldValue":"Delivery","totalCount":3},{"fieldValue":"Design Books","totalCount":5},{"fieldValue":"Design Tools","totalCount":250},{"fieldValue":"Developer Tools","totalCount":341},{"fieldValue":"Diversity and Inclusion","totalCount":6},{"fieldValue":"Dogs","totalCount":3},{"fieldValue":"Drinking","totalCount":3},{"fieldValue":"Drones","totalCount":2},{"fieldValue":"Dropbox","totalCount":1},{"fieldValue":"E-Commerce","totalCount":49},{"fieldValue":"Education","totalCount":91},{"fieldValue":"Email","totalCount":29},{"fieldValue":"Email Marketing","totalCount":26},{"fieldValue":"Email Newsletters","totalCount":35},{"fieldValue":"Emoji","totalCount":5},{"fieldValue":"Events","totalCount":17},{"fieldValue":"Facebook","totalCount":4},{"fieldValue":"Facebook Messenger","totalCount":3},{"fieldValue":"Fashion","totalCount":5},{"fieldValue":"FemTech","totalCount":4},{"fieldValue":"Fintech","totalCount":97},{"fieldValue":"Firefox Extensions","totalCount":8},{"fieldValue":"Free Games","totalCount":11},{"fieldValue":"Freelance","totalCount":13},{"fieldValue":"Funny","totalCount":27},{"fieldValue":"Funny Games","totalCount":3},{"fieldValue":"GIFs","totalCount":2},{"fieldValue":"Games","totalCount":48},{"fieldValue":"GitHub","totalCount":40},{"fieldValue":"Google","totalCount":12},{"fieldValue":"Google Home","totalCount":1},{"fieldValue":"Green Tech","totalCount":6},{"fieldValue":"Growth Hacking","totalCount":53},{"fieldValue":"Growth Hacks ","totalCount":6},{"fieldValue":"Hardware","totalCount":14},{"fieldValue":"Health and Fitness","totalCount":83},{"fieldValue":"Hiring and Recruiting","totalCount":32},{"fieldValue":"Home","totalCount":13},{"fieldValue":"Icons","totalCount":13},{"fieldValue":"Indie Games","totalCount":11},{"fieldValue":"Instagram","totalCount":19},{"fieldValue":"Internet of Things","totalCount":22},{"fieldValue":"Investing","totalCount":36},{"fieldValue":"Kids","totalCount":7},{"fieldValue":"Learn a Language","totalCount":13},{"fieldValue":"Legal","totalCount":9},{"fieldValue":"LinkedIn","totalCount":3},{"fieldValue":"Linux","totalCount":4},{"fieldValue":"Mac","totalCount":51},{"fieldValue":"Mac Menu Bar Apps","totalCount":17},{"fieldValue":"Maker Tools ","totalCount":28},{"fieldValue":"Maps","totalCount":7},{"fieldValue":"Marketing","totalCount":297},{"fieldValue":"Meditation","totalCount":10},{"fieldValue":"Medtech","totalCount":11},{"fieldValue":"Meetings","totalCount":26},{"fieldValue":"Messaging","totalCount":35},{"fieldValue":"Money ","totalCount":20},{"fieldValue":"Movies","totalCount":8},{"fieldValue":"Moving and Storage","totalCount":1},{"fieldValue":"Music","totalCount":25},{"fieldValue":"Netflix","totalCount":4},{"fieldValue":"News","totalCount":19},{"fieldValue":"No-Code","totalCount":41},{"fieldValue":"Nomad Lifestyle","totalCount":14},{"fieldValue":"Note","totalCount":15},{"fieldValue":"On-Demand","totalCount":5},{"fieldValue":"Open Source","totalCount":41},{"fieldValue":"Open World Games","totalCount":1},{"fieldValue":"Outdoors","totalCount":2},{"fieldValue":"PC","totalCount":4},{"fieldValue":"Parenting","totalCount":2},{"fieldValue":"Party","totalCount":5},{"fieldValue":"Payment","totalCount":20},{"fieldValue":"Pets","totalCount":3},{"fieldValue":"Photography","totalCount":30},{"fieldValue":"Photoshop","totalCount":6},{"fieldValue":"Politics","totalCount":6},{"fieldValue":"Privacy","totalCount":33},{"fieldValue":"Product Hunt","totalCount":13},{"fieldValue":"ProductHunt","totalCount":1855},{"fieldValue":"Productivity","totalCount":704},{"fieldValue":"Prototyping","totalCount":18},{"fieldValue":"Public Relations","totalCount":3},{"fieldValue":"Puzzle Games","totalCount":5},{"fieldValue":"Quantified Self","totalCount":7},{"fieldValue":"Remote Work Tools","totalCount":55},{"fieldValue":"Robots","totalCount":3},{"fieldValue":"SEO Tools","totalCount":21},{"fieldValue":"SaaS","totalCount":165},{"fieldValue":"Safari Extensions","totalCount":3},{"fieldValue":"Sales","totalCount":43},{"fieldValue":"SaveAMC","totalCount":1},{"fieldValue":"Sci-fi Games","totalCount":1},{"fieldValue":"Science Books","totalCount":2},{"fieldValue":"Side Projects","totalCount":32},{"fieldValue":"Sketch","totalCount":8},{"fieldValue":"Slack","totalCount":22},{"fieldValue":"Snapchat","totalCount":1},{"fieldValue":"Social Impact ","totalCount":17},{"fieldValue":"Social Media Tools","totalCount":131},{"fieldValue":"Software Engineering","totalCount":44},{"fieldValue":"Space","totalCount":2},{"fieldValue":"Sports","totalCount":8},{"fieldValue":"Sports Games","totalCount":1},{"fieldValue":"Spotify","totalCount":5},{"fieldValue":"Spreadsheets","totalCount":7},{"fieldValue":"Squarespace","totalCount":1},{"fieldValue":"Standing Desks","totalCount":1},{"fieldValue":"Startup Books","totalCount":7},{"fieldValue":"Startup Lessons ","totalCount":14},{"fieldValue":"Strategy games","totalCount":3},{"fieldValue":"Surfing","totalCount":1},{"fieldValue":"TV","totalCount":5},{"fieldValue":"Task Management","totalCount":51},{"fieldValue":"Tech","totalCount":541},{"fieldValue":"Telegram","totalCount":2},{"fieldValue":"Text Editors","totalCount":9},{"fieldValue":"Time Tracking","totalCount":11},{"fieldValue":"Travel","totalCount":20},{"fieldValue":"Twitter","totalCount":21},{"fieldValue":"Typography","totalCount":4},{"fieldValue":"User Experience","totalCount":187},{"fieldValue":"Venture Capital","totalCount":14},{"fieldValue":"Video Streaming","totalCount":41},{"fieldValue":"Virtual Assistants","totalCount":9},{"fieldValue":"Virtual Reality","totalCount":7},{"fieldValue":"Wallpaper","totalCount":2},{"fieldValue":"Wearables","totalCount":8},{"fieldValue":"Weather Apps","totalCount":2},{"fieldValue":"Web App","totalCount":225},{"fieldValue":"Windows","totalCount":8},{"fieldValue":"Wine","totalCount":1},{"fieldValue":"Word Games","totalCount":1},{"fieldValue":"WordPress","totalCount":7},{"fieldValue":"Work In Progress ","totalCount":3},{"fieldValue":"Writing Tools","totalCount":42},{"fieldValue":"YouTube","totalCount":9},{"fieldValue":"bitcoin","totalCount":3},{"fieldValue":"iMessage Apps","totalCount":2},{"fieldValue":"iPad","totalCount":22},{"fieldValue":"iPhone","totalCount":252},{"fieldValue":"reddit","totalCount":1},{"fieldValue":"science","totalCount":1},{"fieldValue":"tweet","totalCount":907}]},"allBlogPost":{"nodes":[{"__typename":"SocialMediaPost","id":"PhPost-278365","excerpt":"ProStyles is an AI camera app that edits your photos & videos in the style of pro photographers as you shoot them. The built-in Style Store features AI style models created by some of the best photographers out there.","slug":"/ph/prostyle-camera-by-neuralcam","title":"ProStyle Camera by NeuralCam - AI Cam App - Photos auto-edited in the style of pros","date":"December 18, 2020","dateISO":"2020-12-18T08:47:54.485Z","datetime":"2020-12-18 08:47","tags":["iPhone","Photography","Artificial Intelligence","Tech","ProductHunt"],"image":null,"imageAlt":null,"provider":"Product Hunt","thirdPartyId":"278365","url":"https://www.producthunt.com/posts/prostyle-camera-by-neuralcam?utm_campaign=producthunt-api&utm_medium=api-v2&utm_source=Application%3A+Buzzing+%28ID%3A+41381%29","originalUrl":"https://www.producthunt.com/r/94c5e9cf98d225?utm_campaign=producthunt-api&utm_medium=api-v2&utm_source=Application%3A+Buzzing+%28ID%3A+41381%29","imageRemote":"https://ph-files.imgix.net/a3c0cf78-a59c-44c9-93e2-9505eee2b71a.png?auto=format&fit=crop","video":null,"channel":null,"channelUrl":null,"author":"Bram Kanstein (@bramk)","authorUrl":"https://www.producthunt.com/@bramk?utm_campaign=producthunt-api&utm_medium=api-v2&utm_source=Application%3A+Buzzing+%28ID%3A+41381%29","authorImage":null,"authorSlug":null,"score":253,"views":null,"sharedCount":null,"likeCount":null,"sharedContent":null,"parent":{"__typename":"PhJson","localize":[{"description":"ProStyles是一款人工智能相机应用程序，在你拍摄照片和视频时，它会以专业摄影师的风格编辑它们。内置风格商店的特色是由一些最好的摄影师创建的人工智能风格模型。","tagline":"AI Cam App-照片以专业风格自动编辑","locale":"zh"},{"description":"ProStyles是一款人工智能相機應用程序，在你拍攝照片和視頻時，它會以專業攝影師的風格編輯它們。內置風格商店的特色是由一些最好的攝影師創建的人工智能風格模型。","tagline":"AI Cam App-照片以專業風格自動編輯","locale":"zh-Hant"}]}},{"__typename":"SocialMediaPost","id":"PhPost-278346","excerpt":"QLO is a browser-based interactive 3D tool to generate custom clothing mockups. Our 3D digital avatars can fit into your brand, just upload your design, adjust settings and download your images directly in your Browser.","slug":"/ph/qlo","title":"QLO - Generate custom 3D digital clothing mockups in your browser.","date":"December 18, 2020","dateISO":"2020-12-18T08:47:54.485Z","datetime":"2020-12-18 08:47","tags":["Design Tools","Social Media Tools","Prototyping","Photography","Tech","ProductHunt"],"image":null,"imageAlt":null,"provider":"Product Hunt","thirdPartyId":"278346","url":"https://www.producthunt.com/posts/qlo?utm_campaign=producthunt-api&utm_medium=api-v2&utm_source=Application%3A+Buzzing+%28ID%3A+41381%29","originalUrl":"https://www.producthunt.com/r/2b5cc843312348?utm_campaign=producthunt-api&utm_medium=api-v2&utm_source=Application%3A+Buzzing+%28ID%3A+41381%29","imageRemote":null,"video":{"url":"https://www.youtube.com/watch?v=7sEuGcJ05gc","embed":null,"width":null,"height":null},"channel":null,"channelUrl":null,"author":"Augis Kaleinykas","authorUrl":"https://www.producthunt.com/@augis_kaleinykas?utm_campaign=producthunt-api&utm_medium=api-v2&utm_source=Application%3A+Buzzing+%28ID%3A+41381%29","authorImage":null,"authorSlug":null,"score":342,"views":null,"sharedCount":null,"likeCount":null,"sharedContent":null,"parent":{"__typename":"PhJson","localize":[{"description":"QLO是一个基于浏览器的交互式3D工具，可以生成定制的服装模型。我们的3D数字头像适合您的品牌，只需直接在浏览器中上传您的设计、调整设置和下载您的图像即可。","tagline":"在浏览器中生成自定义3D数字服装模型。","locale":"zh"},{"description":"QLO是一個基於瀏覽器的交互式3D工具，可以生成定製的服裝模型。我們的3D數字頭像適合您的品牌，只需直接在瀏覽器中上傳您的設計、調整設置和下載您的圖像即可。","tagline":"在瀏覽器中生成自定義3D數字服裝模型。","locale":"zh-Hant"}]}},{"__typename":"SocialMediaPost","id":"PhPost-278376","excerpt":"An open-source UI component library for building high-quality, accessible design systems and web apps.","slug":"/ph/radix-ui","title":"Radix UI - Open-source UI components for building accessible web apps.","date":"December 18, 2020","dateISO":"2020-12-18T08:47:54.485Z","datetime":"2020-12-18 08:47","tags":["Design Tools","User Experience","Developer Tools","ProductHunt"],"image":null,"imageAlt":null,"provider":"Product Hunt","thirdPartyId":"278376","url":"https://www.producthunt.com/posts/radix-ui?utm_campaign=producthunt-api&utm_medium=api-v2&utm_source=Application%3A+Buzzing+%28ID%3A+41381%29","originalUrl":"https://www.producthunt.com/r/797d770f9558c9?utm_campaign=producthunt-api&utm_medium=api-v2&utm_source=Application%3A+Buzzing+%28ID%3A+41381%29","imageRemote":"https://ph-files.imgix.net/f2e0ca5b-42f2-4623-8889-36423c6ccc10.png?auto=format&fit=crop","video":null,"channel":null,"channelUrl":null,"author":"Joe Alongi","authorUrl":"https://www.producthunt.com/@collectedview?utm_campaign=producthunt-api&utm_medium=api-v2&utm_source=Application%3A+Buzzing+%28ID%3A+41381%29","authorImage":null,"authorSlug":null,"score":535,"views":null,"sharedCount":null,"likeCount":null,"sharedContent":null,"parent":{"__typename":"PhJson","localize":[{"description":"一个开源UI组件库，用于构建高质量、易访问的设计系统和Web应用程序。","tagline":"用于构建具有辅助功能的Web应用程序的开源UI组件。","locale":"zh"},{"description":"一個開源UI組件庫，用於構建高質量、易訪問的設計系統和Web應用程序。","tagline":"用於構建具有輔助功能的Web應用程序的開源UI組件。","locale":"zh-Hant"}]}},{"__typename":"SocialMediaPost","id":"PhPost-278421","excerpt":"Chocolate is sweet but SaaS surprises are sweeter - and we have two a day! At the stroke of midnight SaaS Advent Calendar unlocks an exclusive deal from well-established SaaS companies as well as a free SaaS in beta that needs valuable feedback.","slug":"/ph/saas-advent-calendar-2020","title":"SaaS Advent Calendar 2020 - SaaSanta is coming to town and he's not bringing coal","date":"December 18, 2020","dateISO":"2020-12-18T08:47:54.485Z","datetime":"2020-12-18 08:47","tags":["Web App","SaaS","ProductHunt"],"image":null,"imageAlt":null,"provider":"Product Hunt","thirdPartyId":"278421","url":"https://www.producthunt.com/posts/saas-advent-calendar-2020?utm_campaign=producthunt-api&utm_medium=api-v2&utm_source=Application%3A+Buzzing+%28ID%3A+41381%29","originalUrl":"https://www.producthunt.com/r/582f4384a8a2de?utm_campaign=producthunt-api&utm_medium=api-v2&utm_source=Application%3A+Buzzing+%28ID%3A+41381%29","imageRemote":"https://ph-files.imgix.net/1880c5ee-45d8-45fe-8921-260d1c96ea68.png?auto=format&fit=crop","video":null,"channel":null,"channelUrl":null,"author":"Alex. Delivet","authorUrl":"https://www.producthunt.com/@alexd?utm_campaign=producthunt-api&utm_medium=api-v2&utm_source=Application%3A+Buzzing+%28ID%3A+41381%29","authorImage":null,"authorSlug":null,"score":442,"views":null,"sharedCount":null,"likeCount":null,"sharedContent":null,"parent":{"__typename":"PhJson","localize":[{"description":"巧克力是甜的，但SaaS惊喜更甜-我们每天吃两个！午夜钟声敲响之际，SaaS Advent Calendar解锁了来自知名SaaS公司的独家交易，以及需要宝贵反馈的免费测试版SaaS。","tagline":"萨亚圣诞老人要来镇上，他不会带煤来","locale":"zh"},{"description":"巧克力是甜的，但SaaS驚喜更甜-我們每天喫兩個！午夜鐘聲敲響之際，SaaS Advent Calendar解鎖了來自知名SaaS公司的獨家交易，以及需要寶貴反饋的免費測試版SaaS。","tagline":"薩亞聖誕老人要來鎮上，他不會帶煤來","locale":"zh-Hant"}]}},{"__typename":"SocialMediaPost","id":"PhPost-278383","excerpt":"A members-only club for COVID conscious trip planning and on demand recommendations, curated by our in-the-know community.","slug":"/ph/the-club-by-allcall","title":"The Club by Allcall - COVID conscious trips & on-demand text recs.","date":"December 18, 2020","dateISO":"2020-12-18T08:47:54.485Z","datetime":"2020-12-18 08:47","tags":["Nomad Lifestyle","Travel","Tech","ProductHunt"],"image":null,"imageAlt":null,"provider":"Product Hunt","thirdPartyId":"278383","url":"https://www.producthunt.com/posts/the-club-by-allcall?utm_campaign=producthunt-api&utm_medium=api-v2&utm_source=Application%3A+Buzzing+%28ID%3A+41381%29","originalUrl":"https://www.producthunt.com/r/07e32947aad9ba?utm_campaign=producthunt-api&utm_medium=api-v2&utm_source=Application%3A+Buzzing+%28ID%3A+41381%29","imageRemote":"https://ph-files.imgix.net/19dadb8c-0acf-427b-b098-a954fc01aac1.gif?auto=format&fit=crop","video":null,"channel":null,"channelUrl":null,"author":"Chris Messina","authorUrl":"https://www.producthunt.com/@chrismessina?utm_campaign=producthunt-api&utm_medium=api-v2&utm_source=Application%3A+Buzzing+%28ID%3A+41381%29","authorImage":null,"authorSlug":null,"score":956,"views":null,"sharedCount":null,"likeCount":null,"sharedContent":null,"parent":{"__typename":"PhJson","localize":[{"description":"COVID有意识的旅行计划和按需推荐的会员俱乐部，由我们的知情社区策划。","tagline":"有CoVID意识的旅行和按需文本记录。","locale":"zh"},{"description":"COVID有意識的旅行計劃和按需推薦的會員俱樂部，由我們的知情社區策劃。","tagline":"有CoVID意識的旅行和按需文本記錄。","locale":"zh-Hant"}]}}]}},"pageContext":{"basePath":"/","pageType":"tag","tag":"ProductHunt","tagsFilter":{"id":{"glob":"!*Post-1"}},"filter":{"id":{"glob":"!*Post-1"},"tags":{"eq":"ProductHunt"}},"limit":25,"skip":1850,"total":1855,"totalPages":75,"currentPage":75,"maxWidth":1024,"maxHeight":512,"locale":"zh-Hant","hrefLang":"zh-Hant","originalPath":"/tags/product-hunt/page/75","dateFormat":"YYYY-MM-DD"}},"staticQueryHashes":["1239077767","2506312863","2744905544","3025052997","3493603132","3493603132","3513215887","386998304"]}