{"componentChunkName":"component---gatsby-theme-buzzing-src-gatsby-theme-timeline-templates-posts-query-js","path":"/zh-Hant/tags/story/page/44","result":{"data":{"site":{"siteMetadata":{"title":"Reddit 热门","description":"用中文浏览Reddit热门内容","social":[{"name":"Twitter","url":"https://twitter.com/gatsbyjs","external":null,"prefetch":null},{"name":"GitHub","url":"https://github.com/gatsbyjs","external":null,"prefetch":null}],"menuLinks":[],"localize":[{"locale":"en","title":"Buzzing on Reddit","description":"See what's buzzing on Reddit in your native language","social":[{"name":"Reddit","url":"https://www.reddit.com/","external":true,"prefetch":null}],"menuLinks":[{"name":"Weekly Selection","url":"/issues","external":null,"prefetch":null},{"name":"RSS","url":"/rss.xml","external":null,"prefetch":false}]},{"locale":"zh-Hant","title":"Reddit 熱門","description":"用中文瀏覽Reddit熱門內容","social":null,"menuLinks":null}]}},"tagsGroup":{"group":[{"fieldValue":"ASK HN","totalCount":44},{"fieldValue":"Bitcoin","totalCount":4},{"fieldValue":"Hacker News","totalCount":2600},{"fieldValue":"Poll","totalCount":1},{"fieldValue":"SaveAMC","totalCount":1},{"fieldValue":"Show HN","totalCount":89},{"fieldValue":"bitcoin","totalCount":3},{"fieldValue":"investing","totalCount":797},{"fieldValue":"poll","totalCount":1},{"fieldValue":"reddit","totalCount":4938},{"fieldValue":"science","totalCount":1},{"fieldValue":"stocks","totalCount":1592},{"fieldValue":"story","totalCount":2599},{"fieldValue":"tweet","totalCount":814},{"fieldValue":"wallstreetbets","totalCount":2549}]},"allBlogPost":{"nodes":[{"__typename":"SocialMediaPost","id":"HnPost-26035623","excerpt":"","slug":"/hn/26035623","title":"Reloadr – Hot code reloading tool for Python","date":"February 06, 2021","dateISO":"2021-02-06T06:59:00.352Z","datetime":"2021-02-06 06:59","tags":["story","Hacker News"],"image":null,"imageAlt":null,"provider":"Hacker News","thirdPartyId":"26035623","url":"https://news.ycombinator.com/item?id=26035623","originalUrl":"https://github.com/hoh/reloadr","imageRemote":"https://avatars.githubusercontent.com/u/404665?s=400&v=4","video":null,"channel":null,"channelUrl":null,"author":"albertzeyer","authorUrl":"https://news.ycombinator.com/user?id=albertzeyer","authorImage":null,"authorSlug":null,"score":175,"views":null,"sharedCount":null,"likeCount":null,"sharedContent":null,"parent":{"__typename":"HnJson","localize":[{"title":"Reloadr - Python的热代码重载工具","locale":"zh"},{"title":"Reloadr - Python的熱代碼重載工具","locale":"zh-Hant"}]}},{"__typename":"SocialMediaPost","id":"HnPost-26041001","excerpt":"","slug":"/hn/26041001","title":"Notes on My Chemotherapy","date":"February 06, 2021","dateISO":"2021-02-06T06:52:12.063Z","datetime":"2021-02-06 06:52","tags":["story","Hacker News"],"image":null,"imageAlt":null,"provider":"Hacker News","thirdPartyId":"26041001","url":"https://news.ycombinator.com/item?id=26041001","originalUrl":"https://www.charlieharrington.com/chemotherapy","imageRemote":"https://www.charlieharrington.com/static/plugged-a2b9526d8bba6f700a5e341eb34f2d35.jpg","video":null,"channel":null,"channelUrl":null,"author":"whatrocks","authorUrl":"https://news.ycombinator.com/user?id=whatrocks","authorImage":null,"authorSlug":null,"score":206,"views":null,"sharedCount":null,"likeCount":null,"sharedContent":null,"parent":{"__typename":"HnJson","localize":[{"title":"我的化疗笔记","locale":"zh"},{"title":"我的化療筆記","locale":"zh-Hant"}]}},{"__typename":"SocialMediaPost","id":"HnPost-26020732","excerpt":"","slug":"/hn/26020732","title":"You don't really need a virtualenv","date":"February 06, 2021","dateISO":"2021-02-06T04:22:22.849Z","datetime":"2021-02-06 04:22","tags":["story","Hacker News"],"image":null,"imageAlt":null,"provider":"Hacker News","thirdPartyId":"26020732","url":"https://news.ycombinator.com/item?id=26020732","originalUrl":"https://frostming.com/2021/01-22/introducing-pdm/","imageRemote":"https://images.unsplash.com/photo-1512418490979-92798cec1380?ixlib=rb-1.2.1&ixid=eyJhcHBfaWQiOjEyMDd9&auto=format&fit=crop&w=1350&q=80","video":null,"channel":null,"channelUrl":null,"author":"gilad","authorUrl":"https://news.ycombinator.com/user?id=gilad","authorImage":null,"authorSlug":null,"score":169,"views":null,"sharedCount":null,"likeCount":null,"sharedContent":null,"parent":{"__typename":"HnJson","localize":[{"title":"你真的不需要virtualenv。","locale":"zh"},{"title":"你真的不需要virtualenv。","locale":"zh-Hant"}]}},{"__typename":"SocialMediaPost","id":"HnPost-26042416","excerpt":"","slug":"/hn/26042416","title":"I'm the high QA guy. Let me test your website","date":"February 06, 2021","dateISO":"2021-02-06T02:34:08.295Z","datetime":"2021-02-06 02:34","tags":["story","Hacker News"],"image":null,"imageAlt":null,"provider":"Hacker News","thirdPartyId":"26042416","url":"https://news.ycombinator.com/item?id=26042416","originalUrl":"http://www.highqaguy.com/","imageRemote":null,"video":null,"channel":null,"channelUrl":null,"author":"highqaguy","authorUrl":"https://news.ycombinator.com/user?id=highqaguy","authorImage":null,"authorSlug":null,"score":409,"views":null,"sharedCount":null,"likeCount":null,"sharedContent":null,"parent":{"__typename":"HnJson","localize":[{"title":"我是高QA的人。让我来测试你的网站","locale":"zh"},{"title":"我是高QA的人。讓我來測試你的網站","locale":"zh-Hant"}]}},{"__typename":"SocialMediaPost","id":"HnPost-26038501","excerpt":"","slug":"/hn/26038501","title":"Show HN: Remarkbox – Hosted comments without ads or tracking","date":"February 06, 2021","dateISO":"2021-02-06T01:19:23.354Z","datetime":"2021-02-06 01:19","tags":["story","Show HN","Hacker News"],"image":null,"imageAlt":null,"provider":"Hacker News","thirdPartyId":"26038501","url":"https://news.ycombinator.com/item?id=26038501","originalUrl":"https://www.remarkbox.com/remarkbox-is-now-pay-what-you-can.html","imageRemote":"https://www.remarkbox.com/remarkbox-minified.png","video":null,"channel":"Show HN","channelUrl":"https://news.ycombinator.com/show","author":"foxhop","authorUrl":"https://news.ycombinator.com/user?id=foxhop","authorImage":null,"authorSlug":null,"score":232,"views":null,"sharedCount":null,"likeCount":null,"sharedContent":null,"parent":{"__typename":"HnJson","localize":[{"title":"显示 HN: Remarkbox - 无广告或跟踪的托管评论。","locale":"zh"},{"title":"顯示 HN: Remarkbox - 無廣告或跟蹤的託管評論。","locale":"zh-Hant"}]}},{"__typename":"SocialMediaPost","id":"HnPost-26040234","excerpt":"","slug":"/hn/26040234","title":"Spyder – a free and open source scientific environment written in Python","date":"February 05, 2021","dateISO":"2021-02-05T23:23:33.449Z","datetime":"2021-02-05 23:23","tags":["story","Hacker News"],"image":null,"imageAlt":null,"provider":"Hacker News","thirdPartyId":"26040234","url":"https://news.ycombinator.com/item?id=26040234","originalUrl":"https://www.spyder-ide.org/","imageRemote":"https://www.spyder-ide.org/static/images/spyder_logo.png?h=5c3a431e","video":null,"channel":null,"channelUrl":null,"author":"jka","authorUrl":"https://news.ycombinator.com/user?id=jka","authorImage":null,"authorSlug":null,"score":386,"views":null,"sharedCount":null,"likeCount":null,"sharedContent":null,"parent":{"__typename":"HnJson","localize":[{"title":"Spyder - 一个用Python编写的免费和开源的科学环境。","locale":"zh"},{"title":"Spyder - 一個用Python編寫的免費和開源的科學環境。","locale":"zh-Hant"}]}},{"__typename":"SocialMediaPost","id":"HnPost-26039111","excerpt":"","slug":"/hn/26039111","title":"CodeMirror 6","date":"February 05, 2021","dateISO":"2021-02-05T22:42:00.990Z","datetime":"2021-02-05 22:42","tags":["story","Hacker News"],"image":null,"imageAlt":null,"provider":"Hacker News","thirdPartyId":"26039111","url":"https://news.ycombinator.com/item?id=26039111","originalUrl":"https://codemirror.net/6/","imageRemote":null,"video":null,"channel":null,"channelUrl":null,"author":"gtirloni","authorUrl":"https://news.ycombinator.com/user?id=gtirloni","authorImage":null,"authorSlug":null,"score":218,"views":null,"sharedCount":null,"likeCount":null,"sharedContent":null,"parent":{"__typename":"HnJson","localize":[{"title":"CodeMirror 6","locale":"zh"},{"title":"CodeMirror 6","locale":"zh-Hant"}]}},{"__typename":"SocialMediaPost","id":"HnPost-26036613","excerpt":"","slug":"/hn/26036613","title":"Modifying Telegram's “People Nearby” feature to pinpoint people's homes","date":"February 05, 2021","dateISO":"2021-02-05T22:22:16.643Z","datetime":"2021-02-05 22:22","tags":["story","Hacker News"],"image":null,"imageAlt":null,"provider":"Hacker News","thirdPartyId":"26036613","url":"https://news.ycombinator.com/item?id=26036613","originalUrl":"https://owlspace.xyz/cybersec/tg-nearby/","imageRemote":"https://owlspace.xyz/images/tg-nearby/hero.png","video":null,"channel":null,"channelUrl":null,"author":"todsacerdoti","authorUrl":"https://news.ycombinator.com/user?id=todsacerdoti","authorImage":null,"authorSlug":null,"score":232,"views":null,"sharedCount":null,"likeCount":null,"sharedContent":null,"parent":{"__typename":"HnJson","localize":[{"title":"修改Telegram的 \"附近的人 \"功能，精准定位人们的家。","locale":"zh"},{"title":"修改Telegram的 \"附近的人 \"功能，精準定位人們的家。","locale":"zh-Hant"}]}},{"__typename":"SocialMediaPost","id":"HnPost-26022750","excerpt":"","slug":"/hn/26022750","title":"Making Vaccine","date":"February 05, 2021","dateISO":"2021-02-05T20:58:55.803Z","datetime":"2021-02-05 20:58","tags":["story","Hacker News"],"image":null,"imageAlt":null,"provider":"Hacker News","thirdPartyId":"26022750","url":"https://news.ycombinator.com/item?id=26022750","originalUrl":"https://www.lesswrong.com/posts/niQ3heWwF6SydhS7R/making-vaccine","imageRemote":"https://lh6.googleusercontent.com/uxoGOAa3HAA1jUr_ZH4vS461fKSfu5La-0MU3J-zjPmR20Zb7A045ddiLNOEGvgKXvlZ03mup2W7DzIibwlkwIuK5cGujHqqI_FAkpcyx0ErVKa5ihlYakPsHx9JClXCxfJNfNrE","video":null,"channel":null,"channelUrl":null,"author":"di","authorUrl":"https://news.ycombinator.com/user?id=di","authorImage":null,"authorSlug":null,"score":534,"views":null,"sharedCount":null,"likeCount":null,"sharedContent":null,"parent":{"__typename":"HnJson","localize":[{"title":"制造疫苗","locale":"zh"},{"title":"製造疫苗","locale":"zh-Hant"}]}},{"__typename":"SocialMediaPost","id":"HnPost-26036695","excerpt":"","slug":"/hn/26036695","title":"Chromium cleans up its act and daily DNS root server queries drop by 60B","date":"February 05, 2021","dateISO":"2021-02-05T20:42:20.544Z","datetime":"2021-02-05 20:42","tags":["story","Hacker News"],"image":null,"imageAlt":null,"provider":"Hacker News","thirdPartyId":"26036695","url":"https://news.ycombinator.com/item?id=26036695","originalUrl":"https://www.theregister.com/2021/02/04/chromium_dns_traffic_drop/","imageRemote":"https://regmedia.co.uk/2021/02/04/digital_tap_shutterstock.jpg","video":null,"channel":null,"channelUrl":null,"author":"bdcravens","authorUrl":"https://news.ycombinator.com/user?id=bdcravens","authorImage":null,"authorSlug":null,"score":208,"views":null,"sharedCount":null,"likeCount":null,"sharedContent":null,"parent":{"__typename":"HnJson","localize":[{"title":"Chromium清理行为，DNS根服务器日查询量下降60B。","locale":"zh"},{"title":"Chromium清理行爲，DNS根服務器日查詢量下降60B。","locale":"zh-Hant"}]}},{"__typename":"SocialMediaPost","id":"HnPost-26034399","excerpt":"","slug":"/hn/26034399","title":"The endless browser wars","date":"February 05, 2021","dateISO":"2021-02-05T19:53:55.007Z","datetime":"2021-02-05 19:53","tags":["story","Hacker News"],"image":null,"imageAlt":null,"provider":"Hacker News","thirdPartyId":"26034399","url":"https://news.ycombinator.com/item?id=26034399","originalUrl":"https://lwn.net/Articles/843607/","imageRemote":"https://static.lwn.net/images/logo/barepenguin-70.png","video":null,"channel":null,"channelUrl":null,"author":"signa11","authorUrl":"https://news.ycombinator.com/user?id=signa11","authorImage":null,"authorSlug":null,"score":207,"views":null,"sharedCount":null,"likeCount":null,"sharedContent":null,"parent":{"__typename":"HnJson","localize":[{"title":"无休止的浏览器战争","locale":"zh"},{"title":"無休止的瀏覽器戰爭","locale":"zh-Hant"}]}},{"__typename":"SocialMediaPost","id":"HnPost-26037461","excerpt":"","slug":"/hn/26037461","title":"Veloren – Open-source MMORPG written in Rust","date":"February 05, 2021","dateISO":"2021-02-05T18:56:30.339Z","datetime":"2021-02-05 18:56","tags":["story","Hacker News"],"image":null,"imageAlt":null,"provider":"Hacker News","thirdPartyId":"26037461","url":"https://news.ycombinator.com/item?id=26037461","originalUrl":"https://veloren.net/","imageRemote":"https://veloren.net/Logo_Square.png","video":null,"channel":null,"channelUrl":null,"author":"agluszak","authorUrl":"https://news.ycombinator.com/user?id=agluszak","authorImage":null,"authorSlug":null,"score":307,"views":null,"sharedCount":null,"likeCount":null,"sharedContent":null,"parent":{"__typename":"HnJson","localize":[{"title":"Veloren - 用Rust编写的开源MMORPG。","locale":"zh"},{"title":"Veloren - 用Rust編寫的開源MMORPG。","locale":"zh-Hant"}]}},{"__typename":"SocialMediaPost","id":"HnPost-26037613","excerpt":"","slug":"/hn/26037613","title":"Fecal transplant turns cancer immunotherapy non-responders into responders","date":"February 05, 2021","dateISO":"2021-02-05T18:56:30.339Z","datetime":"2021-02-05 18:56","tags":["story","Hacker News"],"image":null,"imageAlt":null,"provider":"Hacker News","thirdPartyId":"26037613","url":"https://news.ycombinator.com/item?id=26037613","originalUrl":"https://www.eurekalert.org/pub_releases/2021-02/uop-ftt012921.php","imageRemote":"https://www.eurekalert.org/multimedia/pub/web/254964_web.jpg","video":null,"channel":null,"channelUrl":null,"author":"CharlesW","authorUrl":"https://news.ycombinator.com/user?id=CharlesW","authorImage":null,"authorSlug":null,"score":407,"views":null,"sharedCount":null,"likeCount":null,"sharedContent":null,"parent":{"__typename":"HnJson","localize":[{"title":"粪便移植使癌症免疫治疗的非应答者变成应答者","locale":"zh"},{"title":"糞便移植使癌症免疫治療的非應答者變成應答者","locale":"zh-Hant"}]}},{"__typename":"SocialMediaPost","id":"HnPost-26036790","excerpt":"","slug":"/hn/26036790","title":"The Elements of Computing Systems, Second Edition","date":"February 05, 2021","dateISO":"2021-02-05T18:44:34.908Z","datetime":"2021-02-05 18:44","tags":["story","Hacker News"],"image":null,"imageAlt":null,"provider":"Hacker News","thirdPartyId":"26036790","url":"https://news.ycombinator.com/item?id=26036790","originalUrl":"https://mitpress.mit.edu/books/elements-computing-systems-second-edition","imageRemote":"https://mitpress.mit.edu/sites/default/files/styles/large_book_cover/http/mitp-content-server.mit.edu%3A18180/books/covers/cover/%3Fcollid%3Dbooks_covers_0%26isbn%3D9780262539807%26type%3D.jpg?itok=KlT7RdFp","video":null,"channel":null,"channelUrl":null,"author":"VitalyAnkh","authorUrl":"https://news.ycombinator.com/user?id=VitalyAnkh","authorImage":null,"authorSlug":null,"score":573,"views":null,"sharedCount":null,"likeCount":null,"sharedContent":null,"parent":{"__typename":"HnJson","localize":[{"title":"计算系统要素》，第二版","locale":"zh"},{"title":"計算系統要素》，第二版","locale":"zh-Hant"}]}},{"__typename":"SocialMediaPost","id":"HnPost-26035449","excerpt":"","slug":"/hn/26035449","title":"Google, Apple cave to Pakistan pressure to take down apps by Ahmadiyya Muslims","date":"February 05, 2021","dateISO":"2021-02-05T16:15:57.460Z","datetime":"2021-02-05 16:15","tags":["story","Hacker News"],"image":null,"imageAlt":null,"provider":"Hacker News","thirdPartyId":"26035449","url":"https://news.ycombinator.com/item?id=26035449","originalUrl":"https://www.buzzfeednews.com/article/meghara/pakistan-forced-down-ahmadiyya-apps","imageRemote":"https://img.buzzfeed.com/buzzfeed-static/static/2021-02/4/21/enhanced/cc78f6165d8e/longform-original-88-1612474654-11.jpg?crop=1373:719;116,203","video":null,"channel":null,"channelUrl":null,"author":"shalmanese","authorUrl":"https://news.ycombinator.com/user?id=shalmanese","authorImage":null,"authorSlug":null,"score":426,"views":null,"sharedCount":null,"likeCount":null,"sharedContent":null,"parent":{"__typename":"HnJson","localize":[{"title":"谷歌、苹果向巴基斯坦施压屈服，要求删除艾哈迈迪耶派穆斯林的应用程序","locale":"zh"},{"title":"谷歌、蘋果向巴基斯坦施壓屈服，要求刪除艾哈邁迪耶派穆斯林的應用程序","locale":"zh-Hant"}]}},{"__typename":"SocialMediaPost","id":"HnPost-26028146","excerpt":"","slug":"/hn/26028146","title":"Stepping Down as CEO of the Wikimedia Foundation","date":"February 05, 2021","dateISO":"2021-02-05T15:48:13.168Z","datetime":"2021-02-05 15:48","tags":["story","Hacker News"],"image":null,"imageAlt":null,"provider":"Hacker News","thirdPartyId":"26028146","url":"https://news.ycombinator.com/item?id=26028146","originalUrl":"https://diff.wikimedia.org/2021/02/04/stepping-down-as-ceo-of-the-wikimedia-foundation/","imageRemote":"https://diff.wikimedia.org/wp-content/uploads/2021/02/20180523_WIKI_KM_205.jpg?fit=6322%2C4215","video":null,"channel":null,"channelUrl":null,"author":"Amorymeltzer","authorUrl":"https://news.ycombinator.com/user?id=Amorymeltzer","authorImage":null,"authorSlug":null,"score":205,"views":null,"sharedCount":null,"likeCount":null,"sharedContent":null,"parent":{"__typename":"HnJson","localize":[{"title":"卸任维基媒体基金会首席执行官一职","locale":"zh"},{"title":"卸任維基媒體基金會首席執行官一職","locale":"zh-Hant"}]}},{"__typename":"SocialMediaPost","id":"HnPost-26035787","excerpt":"","slug":"/hn/26035787","title":"Homebrew 3.0","date":"February 05, 2021","dateISO":"2021-02-05T14:28:27.446Z","datetime":"2021-02-05 14:28","tags":["story","Hacker News"],"image":null,"imageAlt":null,"provider":"Hacker News","thirdPartyId":"26035787","url":"https://news.ycombinator.com/item?id=26035787","originalUrl":"https://brew.sh/2021/02/05/homebrew-3.0.0/","imageRemote":"https://brew.sh/assets/img/homebrew-social-card.png","video":null,"channel":null,"channelUrl":null,"author":"blucell","authorUrl":"https://news.ycombinator.com/user?id=blucell","authorImage":null,"authorSlug":null,"score":858,"views":null,"sharedCount":null,"likeCount":null,"sharedContent":null,"parent":{"__typename":"HnJson","localize":[{"title":"Homebrew 3.0","locale":"zh"},{"title":"Homebrew 3.0","locale":"zh-Hant"}]}},{"__typename":"SocialMediaPost","id":"HnPost-26034665","excerpt":"","slug":"/hn/26034665","title":"Factorio Future Plans","date":"February 05, 2021","dateISO":"2021-02-05T13:42:24.576Z","datetime":"2021-02-05 13:42","tags":["story","Hacker News"],"image":null,"imageAlt":null,"provider":"Hacker News","thirdPartyId":"26034665","url":"https://news.ycombinator.com/item?id=26034665","originalUrl":"https://www.factorio.com/blog/post/fff-365","imageRemote":"https://cdn.factorio.com/assets/img/blog/fff-365-thumb.png","video":null,"channel":null,"channelUrl":null,"author":"parsecs","authorUrl":"https://news.ycombinator.com/user?id=parsecs","authorImage":null,"authorSlug":null,"score":243,"views":null,"sharedCount":null,"likeCount":null,"sharedContent":null,"parent":{"__typename":"HnJson","localize":[{"title":"Factorio未来计划","locale":"zh"},{"title":"Factorio未來計劃","locale":"zh-Hant"}]}},{"__typename":"SocialMediaPost","id":"HnPost-26034851","excerpt":"","slug":"/hn/26034851","title":"FOSDEM 2021","date":"February 05, 2021","dateISO":"2021-02-05T12:57:59.549Z","datetime":"2021-02-05 12:57","tags":["story","Hacker News"],"image":null,"imageAlt":null,"provider":"Hacker News","thirdPartyId":"26034851","url":"https://news.ycombinator.com/item?id=26034851","originalUrl":"https://fosdem.org/2021/schedule","imageRemote":"https://fosdem.org/2021/assets/style/logo-gear-7204a6874eb0128932db10ff4030910401ac06f4e907f8b4a40da24ba592b252.png","video":null,"channel":null,"channelUrl":null,"author":"Dowwie","authorUrl":"https://news.ycombinator.com/user?id=Dowwie","authorImage":null,"authorSlug":null,"score":336,"views":null,"sharedCount":null,"likeCount":null,"sharedContent":null,"parent":{"__typename":"HnJson","localize":[{"title":"FOSDEM 2021","locale":"zh"},{"title":"FOSDEM 2021","locale":"zh-Hant"}]}},{"__typename":"SocialMediaPost","id":"HnPost-26033052","excerpt":"","slug":"/hn/26033052","title":"Disqus, a dark commenting system","date":"February 05, 2021","dateISO":"2021-02-05T10:35:09.242Z","datetime":"2021-02-05 10:35","tags":["story","Hacker News"],"image":null,"imageAlt":null,"provider":"Hacker News","thirdPartyId":"26033052","url":"https://news.ycombinator.com/item?id=26033052","originalUrl":"https://supunkavinda.blog/disqus","imageRemote":"https://i.imgur.com/61Ul7Oj.png","video":null,"channel":null,"channelUrl":null,"author":"supz_k","authorUrl":"https://news.ycombinator.com/user?id=supz_k","authorImage":null,"authorSlug":null,"score":524,"views":null,"sharedCount":null,"likeCount":null,"sharedContent":null,"parent":{"__typename":"HnJson","localize":[{"title":"Disqus，一个黑暗的评论系统","locale":"zh"},{"title":"Disqus，一個黑暗的評論系統","locale":"zh-Hant"}]}},{"__typename":"SocialMediaPost","id":"HnPost-26033561","excerpt":"","slug":"/hn/26033561","title":"A Flash Player emulator written in Rust","date":"February 05, 2021","dateISO":"2021-02-05T10:28:10.881Z","datetime":"2021-02-05 10:28","tags":["story","Hacker News"],"image":null,"imageAlt":null,"provider":"Hacker News","thirdPartyId":"26033561","url":"https://news.ycombinator.com/item?id=26033561","originalUrl":"https://github.com/ruffle-rs/ruffle","imageRemote":"https://avatars.githubusercontent.com/u/50037962?s=400&v=4","video":null,"channel":null,"channelUrl":null,"author":"known","authorUrl":"https://news.ycombinator.com/user?id=known","authorImage":null,"authorSlug":null,"score":264,"views":null,"sharedCount":null,"likeCount":null,"sharedContent":null,"parent":{"__typename":"HnJson","localize":[{"title":"一个用Rust编写的Flash Player模拟器","locale":"zh"},{"title":"一個用Rust編寫的Flash Player模擬器","locale":"zh-Hant"}]}},{"__typename":"SocialMediaPost","id":"HnPost-26011945","excerpt":"","slug":"/hn/26011945","title":"Atkinson Hyperlegible Font","date":"February 05, 2021","dateISO":"2021-02-05T09:51:07.775Z","datetime":"2021-02-05 09:51","tags":["story","Hacker News"],"image":null,"imageAlt":null,"provider":"Hacker News","thirdPartyId":"26011945","url":"https://news.ycombinator.com/item?id=26011945","originalUrl":"https://christiantietze.de/posts/2021/01/hyperlegible-font/","imageRemote":"https://christiantietze.de/posts/2021/01/hyperlegible-font/2021-02-02_hyperlegible.png","video":null,"channel":null,"channelUrl":null,"author":"ingve","authorUrl":"https://news.ycombinator.com/user?id=ingve","authorImage":null,"authorSlug":null,"score":293,"views":null,"sharedCount":null,"likeCount":null,"sharedContent":null,"parent":{"__typename":"HnJson","localize":[{"title":"Atkinson Hyperlegible字体","locale":"zh"},{"title":"Atkinson Hyperlegible字體","locale":"zh-Hant"}]}},{"__typename":"SocialMediaPost","id":"HnPost-26030433","excerpt":"","slug":"/hn/26030433","title":"Python's tug of war between beginner-friendly and advanced features","date":"February 05, 2021","dateISO":"2021-02-05T09:38:16.612Z","datetime":"2021-02-05 09:38","tags":["story","Hacker News"],"image":null,"imageAlt":null,"provider":"Hacker News","thirdPartyId":"26030433","url":"https://news.ycombinator.com/item?id=26030433","originalUrl":"https://aroberge.blogspot.com/2021/02/pythons-tug-of-war-between-beginner.html","imageRemote":"https://lh3.googleusercontent.com/-iSHc2NePnQY/YBxoVlomE7I/AAAAAAAAG68/N-qkY1D41-QmWZyBt0e9IjbPD3AI32A9QCLcBGAsYHQ/w1200-h630-p-k-no-nu/image.png","video":null,"channel":null,"channelUrl":null,"author":"aroberge","authorUrl":"https://news.ycombinator.com/user?id=aroberge","authorImage":null,"authorSlug":null,"score":227,"views":null,"sharedCount":null,"likeCount":null,"sharedContent":null,"parent":{"__typename":"HnJson","localize":[{"title":"Python在初级友好和高级特性之间的拉锯战。","locale":"zh"},{"title":"Python在初級友好和高級特性之間的拉鋸戰。","locale":"zh-Hant"}]}},{"__typename":"SocialMediaPost","id":"HnPost-26031968","excerpt":"","slug":"/hn/26031968","title":"Apollo 14 50th anniversary images find Alan Shepard's ball and how far he hit it","date":"February 05, 2021","dateISO":"2021-02-05T09:28:35.793Z","datetime":"2021-02-05 09:28","tags":["story","Hacker News"],"image":null,"imageAlt":null,"provider":"Hacker News","thirdPartyId":"26031968","url":"https://news.ycombinator.com/item?id=26031968","originalUrl":"https://www.bbc.com/sport/golf/55927727","imageRemote":"https://ichef.bbci.co.uk/live-experience/cps/624/cpsprodpb/14E61/production/_116810658_shepard.jpg","video":null,"channel":null,"channelUrl":null,"author":"sohkamyung","authorUrl":"https://news.ycombinator.com/user?id=sohkamyung","authorImage":null,"authorSlug":null,"score":221,"views":null,"sharedCount":null,"likeCount":null,"sharedContent":null,"parent":{"__typename":"HnJson","localize":[{"title":"阿波罗14号50周年纪念图片找到阿兰-谢帕德的球，他打了多远？","locale":"zh"},{"title":"阿波羅14號50週年紀念圖片找到阿蘭-謝帕德的球，他打了多遠？","locale":"zh-Hant"}]}},{"__typename":"SocialMediaPost","id":"HnPost-26033689","excerpt":"","slug":"/hn/26033689","title":"The man who produced Steve Jobs’ keynotes for 20 years (2018)","date":"February 05, 2021","dateISO":"2021-02-05T09:28:35.793Z","datetime":"2021-02-05 09:28","tags":["story","Hacker News"],"image":null,"imageAlt":null,"provider":"Hacker News","thirdPartyId":"26033689","url":"https://news.ycombinator.com/item?id=26033689","originalUrl":"https://www.cake.co/conversations/jNZlq6j/the-man-who-produced-steve-jobs-keynotes-for-20-years","imageRemote":"https://cake.imgix.net/m/QLZzngCrcmXX_1531329024912.png?auto=format&fit=max&h=1000&w=1000","video":null,"channel":null,"channelUrl":null,"author":"allenleein","authorUrl":"https://news.ycombinator.com/user?id=allenleein","authorImage":null,"authorSlug":null,"score":673,"views":null,"sharedCount":null,"likeCount":null,"sharedContent":null,"parent":{"__typename":"HnJson","localize":[{"title":"制作乔布斯主题演讲20年的人(2018)","locale":"zh"},{"title":"製作喬布斯主題演講20年的人(2018)","locale":"zh-Hant"}]}}]}},"pageContext":{"basePath":"/","pageType":"tag","tag":"story","tagsFilter":{"id":{"glob":"!*Post-1"}},"filter":{"id":{"glob":"!*Post-1"},"tags":{"eq":"story"}},"limit":25,"skip":1075,"total":2599,"totalPages":104,"currentPage":44,"maxWidth":1024,"maxHeight":512,"locale":"zh-Hant","hrefLang":"zh-Hant","originalPath":"/tags/story/page/44","dateFormat":"YYYY-MM-DD"}},"staticQueryHashes":["1239077767","2506312863","2744905544","3025052997","3493603132","3493603132","3513215887","386998304"]}