{"componentChunkName":"component---gatsby-theme-buzzing-src-gatsby-theme-timeline-templates-posts-query-js","path":"/en/tags/show-hn/","result":{"data":{"site":{"siteMetadata":{"title":"Reddit 热门","description":"用中文浏览Reddit热门内容","social":[{"name":"Twitter","url":"https://twitter.com/gatsbyjs","external":null,"prefetch":null},{"name":"GitHub","url":"https://github.com/gatsbyjs","external":null,"prefetch":null}],"menuLinks":[],"localize":[{"locale":"en","title":"Buzzing on Reddit","description":"See what's buzzing on Reddit in your native language","social":[{"name":"Reddit","url":"https://www.reddit.com/","external":true,"prefetch":null}],"menuLinks":[{"name":"Weekly Selection","url":"/issues","external":null,"prefetch":null},{"name":"RSS","url":"/rss.xml","external":null,"prefetch":false}]},{"locale":"zh-Hant","title":"Reddit 熱門","description":"用中文瀏覽Reddit熱門內容","social":null,"menuLinks":null}]}},"tagsGroup":{"group":[{"fieldValue":"ASK HN","totalCount":44},{"fieldValue":"Bitcoin","totalCount":4},{"fieldValue":"Hacker News","totalCount":2600},{"fieldValue":"Poll","totalCount":1},{"fieldValue":"SaveAMC","totalCount":1},{"fieldValue":"Show HN","totalCount":89},{"fieldValue":"bitcoin","totalCount":3},{"fieldValue":"investing","totalCount":797},{"fieldValue":"poll","totalCount":1},{"fieldValue":"reddit","totalCount":4938},{"fieldValue":"science","totalCount":1},{"fieldValue":"stocks","totalCount":1592},{"fieldValue":"story","totalCount":2599},{"fieldValue":"tweet","totalCount":814},{"fieldValue":"wallstreetbets","totalCount":2549}]},"allBlogPost":{"nodes":[{"__typename":"SocialMediaPost","id":"HnPost-26495059","excerpt":"","slug":"/hn/26495059","title":"Show HN: Video Game in a Font","date":"March 19, 2021","dateISO":"2021-03-19T08:52:56.436Z","datetime":"2021-03-19 08:52","tags":["story","Show HN","Hacker News"],"image":null,"imageAlt":null,"provider":"Hacker News","thirdPartyId":"26495059","url":"https://news.ycombinator.com/item?id=26495059","originalUrl":"https://www.coderelay.io/fontemon.html","imageRemote":"https://www.coderelay.io/assets/webTitle0001.png","video":null,"channel":"Show HN","channelUrl":"https://news.ycombinator.com/show","author":"ghub-mmulet","authorUrl":"https://news.ycombinator.com/user?id=ghub-mmulet","authorImage":null,"authorSlug":null,"score":171,"views":null,"sharedCount":null,"likeCount":null,"sharedContent":null,"parent":{"__typename":"HnJson","localize":[{"title":"显示HN：电子游戏中的字体","locale":"zh"},{"title":"顯示HN：電子遊戲中的字體","locale":"zh-Hant"}]}},{"__typename":"SocialMediaPost","id":"HnPost-26492931","excerpt":"","slug":"/hn/26492931","title":"Show HN: Cloud GPUs for Deep Learning – At 1/3 the Cost of AWS/GCP","date":"March 19, 2021","dateISO":"2021-03-19T08:32:49.622Z","datetime":"2021-03-19 08:32","tags":["story","Show HN","Hacker News"],"image":null,"imageAlt":null,"provider":"Hacker News","thirdPartyId":"26492931","url":"https://news.ycombinator.com/item?id=26492931","originalUrl":"https://gpu.land/","imageRemote":null,"video":null,"channel":"Show HN","channelUrl":"https://news.ycombinator.com/show","author":"ilmoi","authorUrl":"https://news.ycombinator.com/user?id=ilmoi","authorImage":null,"authorSlug":null,"score":160,"views":null,"sharedCount":null,"likeCount":null,"sharedContent":null,"parent":{"__typename":"HnJson","localize":[{"title":"显示HN：用于深度学习的云GPU--成本只有AWS/GCP的1/3。","locale":"zh"},{"title":"顯示HN：用於深度學習的雲GPU--成本只有AWS/GCP的1/3。","locale":"zh-Hant"}]}},{"__typename":"SocialMediaPost","id":"HnPost-26503715","excerpt":"","slug":"/hn/26503715","title":"Show HN: LitiHolo – a desktop 3D hologram printer that makes true holograms","date":"March 19, 2021","dateISO":"2021-03-19T03:56:59.645Z","datetime":"2021-03-19 03:56","tags":["story","Show HN","Hacker News"],"image":null,"imageAlt":null,"provider":"Hacker News","thirdPartyId":"26503715","url":"https://news.ycombinator.com/item?id=26503715","originalUrl":"http://www.litiholo.com/3d-hologram-printer.html#3DHologramPrinterStory","imageRemote":"http://www.litiholo.com/images/litiholo-logo-8-16-2019lightback.png","video":null,"channel":"Show HN","channelUrl":"https://news.ycombinator.com/show","author":"hologram-paul","authorUrl":"https://news.ycombinator.com/user?id=hologram-paul","authorImage":null,"authorSlug":null,"score":160,"views":null,"sharedCount":null,"likeCount":null,"sharedContent":null,"parent":{"__typename":"HnJson","localize":[{"title":"显示HN：LitiHolo--桌面3D全息图打印机，可以制作真正的全息图。","locale":"zh"},{"title":"顯示HN：LitiHolo--桌面3D全息圖打印機，可以製作真正的全息圖。","locale":"zh-Hant"}]}},{"__typename":"SocialMediaPost","id":"HnPost-26503572","excerpt":"","slug":"/hn/26503572","title":"Show HN: Sorted CSS Colors – Sort the named CSS colors in a nice way","date":"March 18, 2021","dateISO":"2021-03-18T18:01:39.135Z","datetime":"2021-03-18 18:01","tags":["story","Show HN","Hacker News"],"image":null,"imageAlt":null,"provider":"Hacker News","thirdPartyId":"26503572","url":"https://news.ycombinator.com/item?id=26503572","originalUrl":"https://enes.in/sorted-colors","imageRemote":"https://github.com/scriptype/sorted-colors/raw/master/screenshot.png","video":null,"channel":"Show HN","channelUrl":"https://news.ycombinator.com/show","author":"knuptfad","authorUrl":"https://news.ycombinator.com/user?id=knuptfad","authorImage":null,"authorSlug":null,"score":505,"views":null,"sharedCount":null,"likeCount":null,"sharedContent":null,"parent":{"__typename":"HnJson","localize":[{"title":"Show HN: Sorted CSS Colors - 以一种很好的方式对命名的CSS颜色进行排序。","locale":"zh"},{"title":"Show HN: Sorted CSS Colors - 以一種很好的方式對命名的CSS顏色進行排序。","locale":"zh-Hant"}]}},{"__typename":"SocialMediaPost","id":"HnPost-26484339","excerpt":"","slug":"/hn/26484339","title":"Show HN: O(log n) makes continuous profiling possible","date":"March 18, 2021","dateISO":"2021-03-18T11:39:22.138Z","datetime":"2021-03-18 11:39","tags":["story","Show HN","Hacker News"],"image":null,"imageAlt":null,"provider":"Hacker News","thirdPartyId":"26484339","url":"https://news.ycombinator.com/item?id=26484339","originalUrl":"https://github.com/pyroscope-io/pyroscope/blob/main/docs/storage-design.md","imageRemote":"https://repository-images.githubusercontent.com/325724738/7ad05000-5b6c-11eb-90b1-f67f1dec87bc","video":null,"channel":"Show HN","channelUrl":"https://news.ycombinator.com/show","author":"petethepig","authorUrl":"https://news.ycombinator.com/user?id=petethepig","authorImage":null,"authorSlug":null,"score":162,"views":null,"sharedCount":null,"likeCount":null,"sharedContent":null,"parent":{"__typename":"HnJson","localize":[{"title":"显示HN：O(log n)使连续剖析成为可能。","locale":"zh"},{"title":"顯示HN：O(log n)使連續剖析成爲可能。","locale":"zh-Hant"}]}},{"__typename":"SocialMediaPost","id":"HnPost-26491764","excerpt":"","slug":"/hn/26491764","title":"Show HN: Dendron – fast open-source note-taking in VSCode","date":"March 17, 2021","dateISO":"2021-03-17T23:44:28.623Z","datetime":"2021-03-17 23:44","tags":["story","Show HN","Hacker News"],"image":null,"imageAlt":null,"provider":"Hacker News","thirdPartyId":"26491764","url":"https://news.ycombinator.com/item?id=26491764","originalUrl":"https://wiki.dendron.so/","imageRemote":"https://wiki.dendron.so/logo.png","video":null,"channel":"Show HN","channelUrl":"https://news.ycombinator.com/show","author":"kpats","authorUrl":"https://news.ycombinator.com/user?id=kpats","authorImage":null,"authorSlug":null,"score":234,"views":null,"sharedCount":null,"likeCount":null,"sharedContent":null,"parent":{"__typename":"HnJson","localize":[{"title":"显示HN：Dendron - 快速开源的VSCode笔记。","locale":"zh"},{"title":"顯示HN：Dendron - 快速開源的VSCode筆記。","locale":"zh-Hant"}]}},{"__typename":"SocialMediaPost","id":"HnPost-26475898","excerpt":"","slug":"/hn/26475898","title":"Show HN: I built a zero-cost, ad-free alternative to LinkedIn","date":"March 16, 2021","dateISO":"2021-03-16T21:21:03.144Z","datetime":"2021-03-16 21:21","tags":["story","Show HN","Hacker News"],"image":null,"imageAlt":null,"provider":"Hacker News","thirdPartyId":"26475898","url":"https://news.ycombinator.com/item?id=26475898","originalUrl":"http://sellff.com","imageRemote":null,"video":null,"channel":"Show HN","channelUrl":"https://news.ycombinator.com/show","author":"4sellff","authorUrl":"https://news.ycombinator.com/user?id=4sellff","authorImage":null,"authorSlug":null,"score":247,"views":null,"sharedCount":null,"likeCount":null,"sharedContent":null,"parent":{"__typename":"HnJson","localize":[{"title":"显示HN：我打造了一个零成本、无广告的LinkedIn替代方案。","locale":"zh"},{"title":"顯示HN：我打造了一個零成本、無廣告的LinkedIn替代方案。","locale":"zh-Hant"}]}},{"__typename":"SocialMediaPost","id":"HnPost-26453840","excerpt":"","slug":"/hn/26453840","title":"Show HN: Critter.Camera – Browser based motion detection and image capture","date":"March 15, 2021","dateISO":"2021-03-15T07:23:35.582Z","datetime":"2021-03-15 07:23","tags":["story","Show HN","Hacker News"],"image":null,"imageAlt":null,"provider":"Hacker News","thirdPartyId":"26453840","url":"https://news.ycombinator.com/item?id=26453840","originalUrl":"https://critter.camera/","imageRemote":"https://critter.camera/images/hero-img.png","video":null,"channel":"Show HN","channelUrl":"https://news.ycombinator.com/show","author":"jambo135","authorUrl":"https://news.ycombinator.com/user?id=jambo135","authorImage":null,"authorSlug":null,"score":174,"views":null,"sharedCount":null,"likeCount":null,"sharedContent":null,"parent":{"__typename":"HnJson","localize":[{"title":"显示HN：Critter.Camera - 基于浏览器的运动检测和图像捕捉。","locale":"zh"},{"title":"顯示HN：Critter.Camera - 基於瀏覽器的運動檢測和圖像捕捉。","locale":"zh-Hant"}]}},{"__typename":"SocialMediaPost","id":"HnPost-26399672","excerpt":"","slug":"/hn/26399672","title":"Show HN: Diahook – Webhooks as a Service","date":"March 10, 2021","dateISO":"2021-03-10T05:55:43.810Z","datetime":"2021-03-10 05:55","tags":["story","Show HN","Hacker News"],"image":null,"imageAlt":null,"provider":"Hacker News","thirdPartyId":"26399672","url":"https://news.ycombinator.com/item?id=26399672","originalUrl":"https://www.diahook.com/?r=hn","imageRemote":"https://www.diahook.com/_next/static/images/brand-4755c28ace829276a612067e4524aa35.svg","video":null,"channel":"Show HN","channelUrl":"https://news.ycombinator.com/show","author":"tasn","authorUrl":"https://news.ycombinator.com/user?id=tasn","authorImage":null,"authorSlug":null,"score":211,"views":null,"sharedCount":null,"likeCount":null,"sharedContent":null,"parent":{"__typename":"HnJson","localize":[{"title":"显示HN：Diahook - Webhooks作为一项服务。","locale":"zh"},{"title":"顯示HN：Diahook - Webhooks作爲一項服務。","locale":"zh-Hant"}]}},{"__typename":"SocialMediaPost","id":"HnPost-26403341","excerpt":"","slug":"/hn/26403341","title":"Show HN: I made a tool to convert images of tables to CSV","date":"March 10, 2021","dateISO":"2021-03-10T01:55:35.643Z","datetime":"2021-03-10 01:55","tags":["story","Show HN","Hacker News"],"image":null,"imageAlt":null,"provider":"Hacker News","thirdPartyId":"26403341","url":"https://news.ycombinator.com/item?id=26403341","originalUrl":"https://github.com/artperrin/image2csv","imageRemote":"https://avatars.githubusercontent.com/u/78485334?s=400&v=4","video":null,"channel":"Show HN","channelUrl":"https://news.ycombinator.com/show","author":"aperrin","authorUrl":"https://news.ycombinator.com/user?id=aperrin","authorImage":null,"authorSlug":null,"score":348,"views":null,"sharedCount":null,"likeCount":null,"sharedContent":null,"parent":{"__typename":"HnJson","localize":[{"title":"显示HN：我做了一个工具，将表格的图像转换为CSV。","locale":"zh"},{"title":"顯示HN：我做了一個工具，將表格的圖像轉換爲CSV。","locale":"zh-Hant"}]}},{"__typename":"SocialMediaPost","id":"HnPost-26375850","excerpt":"","slug":"/hn/26375850","title":"Show HN: Buy My Side Project","date":"March 08, 2021","dateISO":"2021-03-08T01:02:14.735Z","datetime":"2021-03-08 01:02","tags":["story","Show HN","Hacker News"],"image":null,"imageAlt":null,"provider":"Hacker News","thirdPartyId":"26375850","url":"https://news.ycombinator.com/item?id=26375850","originalUrl":"https://buymysideproject.com","imageRemote":"https://buymysideproject.com/images/social.png","video":null,"channel":"Show HN","channelUrl":"https://news.ycombinator.com/show","author":"raunometsa","authorUrl":"https://news.ycombinator.com/user?id=raunometsa","authorImage":null,"authorSlug":null,"score":190,"views":null,"sharedCount":null,"likeCount":null,"sharedContent":null,"parent":{"__typename":"HnJson","localize":[{"title":"显示HN：购买我的副业项目","locale":"zh"},{"title":"顯示HN：購買我的副業項目","locale":"zh-Hant"}]}},{"__typename":"SocialMediaPost","id":"HnPost-26360779","excerpt":"","slug":"/hn/26360779","title":"Show HN: Relocate.me – get your next tech job abroad","date":"March 06, 2021","dateISO":"2021-03-06T06:15:40.937Z","datetime":"2021-03-06 06:15","tags":["story","Show HN","Hacker News"],"image":null,"imageAlt":null,"provider":"Hacker News","thirdPartyId":"26360779","url":"https://news.ycombinator.com/item?id=26360779","originalUrl":"https://relocate.me","imageRemote":"https://relocate.me/images/open_graph/link_image.0f3fc501.png","video":null,"channel":"Show HN","channelUrl":"https://news.ycombinator.com/show","author":"andrewstetsenko","authorUrl":"https://news.ycombinator.com/user?id=andrewstetsenko","authorImage":null,"authorSlug":null,"score":221,"views":null,"sharedCount":null,"likeCount":null,"sharedContent":null,"parent":{"__typename":"HnJson","localize":[{"title":"显示HN：Relocate.me--在国外找到下一份技术工作。","locale":"zh"},{"title":"顯示HN：Relocate.me--在國外找到下一份技術工作。","locale":"zh-Hant"}]}},{"__typename":"SocialMediaPost","id":"HnPost-26361423","excerpt":"","slug":"/hn/26361423","title":"Show HN: Svelte NodeGUI, a lightweight Electron alternative with native UI","date":"March 05, 2021","dateISO":"2021-03-05T22:29:08.416Z","datetime":"2021-03-05 22:29","tags":["story","Show HN","Hacker News"],"image":null,"imageAlt":null,"provider":"Hacker News","thirdPartyId":"26361423","url":"https://news.ycombinator.com/item?id=26361423","originalUrl":"https://github.com/nodegui/svelte-nodegui","imageRemote":"https://avatars.githubusercontent.com/u/51644128?s=400&v=4","video":null,"channel":"Show HN","channelUrl":"https://news.ycombinator.com/show","author":"LinguaBrowse","authorUrl":"https://news.ycombinator.com/user?id=LinguaBrowse","authorImage":null,"authorSlug":null,"score":621,"views":null,"sharedCount":null,"likeCount":null,"sharedContent":null,"parent":{"__typename":"HnJson","localize":[{"title":"显示HN：Svelte NodeGUI，一个轻量级的Electron替代方案，具有原生UI。","locale":"zh"},{"title":"顯示HN：Svelte NodeGUI，一個輕量級的Electron替代方案，具有原生UI。","locale":"zh-Hant"}]}},{"__typename":"SocialMediaPost","id":"HnPost-26277602","excerpt":"","slug":"/hn/26277602","title":"Show HN: Hummingbard – decentralized communities built on Matrix","date":"February 26, 2021","dateISO":"2021-02-26T22:26:01.459Z","datetime":"2021-02-26 22:26","tags":["story","Show HN","Hacker News"],"image":null,"imageAlt":null,"provider":"Hacker News","thirdPartyId":"26277602","url":"https://news.ycombinator.com/item?id=26277602","originalUrl":"https://hummingbard.com/hummingbard/introducing-hummingbard","imageRemote":"https://matrix.hummingbard.com/_matrix/media/r0/thumbnail/hummingbard.com/9e74f23dde4b76f9b832db34ee5a51e6624e2efe68784edc6d25d365c3ea1443?width=800&height=600&method=scale","video":null,"channel":"Show HN","channelUrl":"https://news.ycombinator.com/show","author":"SubGenius","authorUrl":"https://news.ycombinator.com/user?id=SubGenius","authorImage":null,"authorSlug":null,"score":411,"views":null,"sharedCount":null,"likeCount":null,"sharedContent":null,"parent":{"__typename":"HnJson","localize":[{"title":"展示HN：Hummingbard--建立在Matrix上的去中心化社区。","locale":"zh"},{"title":"展示HN：Hummingbard--建立在Matrix上的去中心化社區。","locale":"zh-Hant"}]}},{"__typename":"SocialMediaPost","id":"HnPost-26271117","excerpt":"","slug":"/hn/26271117","title":"Show HN: Redbean – Single-file distributable web server","date":"February 26, 2021","dateISO":"2021-02-26T08:28:25.661Z","datetime":"2021-02-26 08:28","tags":["story","Show HN","Hacker News"],"image":null,"imageAlt":null,"provider":"Hacker News","thirdPartyId":"26271117","url":"https://news.ycombinator.com/item?id=26271117","originalUrl":"https://justine.lol/redbean/index.html","imageRemote":"https://storage.googleapis.com/justine/redbean/redbean.png","video":null,"channel":"Show HN","channelUrl":"https://news.ycombinator.com/show","author":"jart","authorUrl":"https://news.ycombinator.com/user?id=jart","authorImage":null,"authorSlug":null,"score":1994,"views":null,"sharedCount":null,"likeCount":null,"sharedContent":null,"parent":{"__typename":"HnJson","localize":[{"title":"显示HN：红豆 - 单文件可分发的Web服务器","locale":"zh"},{"title":"顯示HN：紅豆 - 單文件可分發的Web服務器","locale":"zh-Hant"}]}},{"__typename":"SocialMediaPost","id":"HnPost-26250809","excerpt":"","slug":"/hn/26250809","title":"Show HN: CalcuLaTeX, a pretty-printing calculator language","date":"February 26, 2021","dateISO":"2021-02-26T03:55:07.745Z","datetime":"2021-02-26 03:55","tags":["story","Show HN","Hacker News"],"image":null,"imageAlt":null,"provider":"Hacker News","thirdPartyId":"26250809","url":"https://news.ycombinator.com/item?id=26250809","originalUrl":"https://mkhan45.github.io/CalcuLaTeX-Web/","imageRemote":null,"video":null,"channel":"Show HN","channelUrl":"https://news.ycombinator.com/show","author":"fish45","authorUrl":"https://news.ycombinator.com/user?id=fish45","authorImage":null,"authorSlug":null,"score":230,"views":null,"sharedCount":null,"likeCount":null,"sharedContent":null,"parent":{"__typename":"HnJson","localize":[{"title":"展示HN：CalcuLaTeX，一种漂亮的打印计算器语言。","locale":"zh"},{"title":"展示HN：CalcuLaTeX，一種漂亮的打印計算器語言。","locale":"zh-Hant"}]}},{"__typename":"SocialMediaPost","id":"HnPost-26260390","excerpt":"","slug":"/hn/26260390","title":"Show HN: QEMU front end for M1 and Intel Macs","date":"February 25, 2021","dateISO":"2021-02-25T10:51:30.585Z","datetime":"2021-02-25 10:51","tags":["story","Show HN","Hacker News"],"image":null,"imageAlt":null,"provider":"Hacker News","thirdPartyId":"26260390","url":"https://news.ycombinator.com/item?id=26260390","originalUrl":"https://mac.getutm.app/","imageRemote":"https://mac.getutm.app/images/logo.png","video":null,"channel":"Show HN","channelUrl":"https://news.ycombinator.com/show","author":"osy","authorUrl":"https://news.ycombinator.com/user?id=osy","authorImage":null,"authorSlug":null,"score":418,"views":null,"sharedCount":null,"likeCount":null,"sharedContent":null,"parent":{"__typename":"HnJson","localize":[{"title":"显示HN：M1和英特尔Mac的QEMU前端。","locale":"zh"},{"title":"顯示HN：M1和英特爾Mac的QEMU前端。","locale":"zh-Hant"}]}},{"__typename":"SocialMediaPost","id":"HnPost-26253281","excerpt":"","slug":"/hn/26253281","title":"Show HN: I wrote a book about using data science to solve “everyday” problems","date":"February 24, 2021","dateISO":"2021-02-24T21:10:00.995Z","datetime":"2021-02-24 21:10","tags":["story","Show HN","Hacker News"],"image":null,"imageAlt":null,"provider":"Hacker News","thirdPartyId":"26253281","url":"https://news.ycombinator.com/item?id=26253281","originalUrl":"https://andrewnc.github.io/blog/everyday_data_science.html","imageRemote":"https://andrewnc.github.io/blog/blog_files/toc.png","video":null,"channel":"Show HN","channelUrl":"https://news.ycombinator.com/show","author":"andrewnc","authorUrl":"https://news.ycombinator.com/user?id=andrewnc","authorImage":null,"authorSlug":null,"score":600,"views":null,"sharedCount":null,"likeCount":null,"sharedContent":null,"parent":{"__typename":"HnJson","localize":[{"title":"显示HN：我写了一本关于用数据科学解决 \"日常 \"问题的书。","locale":"zh"},{"title":"顯示HN：我寫了一本關於用數據科學解決 \"日常 \"問題的書。","locale":"zh-Hant"}]}},{"__typename":"SocialMediaPost","id":"HnPost-26226805","excerpt":"","slug":"/hn/26226805","title":"Show HN: Call a Dev – Pay Stack Overflow users $1/min for live programming help","date":"February 22, 2021","dateISO":"2021-02-22T23:24:40.791Z","datetime":"2021-02-22 23:24","tags":["story","Show HN","Hacker News"],"image":null,"imageAlt":null,"provider":"Hacker News","thirdPartyId":"26226805","url":"https://news.ycombinator.com/item?id=26226805","originalUrl":"https://calladev.com/","imageRemote":"https://files.calladev.com/images/help_devs_save_time.png","video":null,"channel":"Show HN","channelUrl":"https://news.ycombinator.com/show","author":"mcadenhe","authorUrl":"https://news.ycombinator.com/user?id=mcadenhe","authorImage":null,"authorSlug":null,"score":449,"views":null,"sharedCount":null,"likeCount":null,"sharedContent":null,"parent":{"__typename":"HnJson","localize":[{"title":"秀HN：叫一个开发--向Stack Overflow用户支付1美元/分钟的现场编程帮助费。","locale":"zh"},{"title":"秀HN：叫一個開發--向Stack Overflow用戶支付1美元/分鐘的現場編程幫助費。","locale":"zh-Hant"}]}},{"__typename":"SocialMediaPost","id":"HnPost-26215378","excerpt":"","slug":"/hn/26215378","title":"Show HN: Ad Network for Sideprojects","date":"February 22, 2021","dateISO":"2021-02-22T05:16:17.587Z","datetime":"2021-02-22 05:16","tags":["story","Show HN","Hacker News"],"image":null,"imageAlt":null,"provider":"Hacker News","thirdPartyId":"26215378","url":"https://news.ycombinator.com/item?id=26215378","originalUrl":"https://tinyads.io","imageRemote":"https://tinyads.io/img/tinyads.min.png","video":null,"channel":"Show HN","channelUrl":"https://news.ycombinator.com/show","author":"ezzato","authorUrl":"https://news.ycombinator.com/user?id=ezzato","authorImage":null,"authorSlug":null,"score":217,"views":null,"sharedCount":null,"likeCount":null,"sharedContent":null,"parent":{"__typename":"HnJson","localize":[{"title":"显示HN：侧面项目的广告网络。","locale":"zh"},{"title":"顯示HN：側面項目的廣告網絡。","locale":"zh-Hant"}]}},{"__typename":"SocialMediaPost","id":"HnPost-26179311","excerpt":"","slug":"/hn/26179311","title":"Show HN: Split Keyboards Gallery","date":"February 20, 2021","dateISO":"2021-02-20T07:44:31.129Z","datetime":"2021-02-20 07:44","tags":["story","Show HN","Hacker News"],"image":null,"imageAlt":null,"provider":"Hacker News","thirdPartyId":"26179311","url":"https://news.ycombinator.com/item?id=26179311","originalUrl":"https://aposymbiont.github.io/split-keyboards/","imageRemote":"https://aposymbiont.github.io/split-keyboards/img/wheatfield_s75.jpg","video":null,"channel":"Show HN","channelUrl":"https://news.ycombinator.com/show","author":"Symbiote","authorUrl":"https://news.ycombinator.com/user?id=Symbiote","authorImage":null,"authorSlug":null,"score":248,"views":null,"sharedCount":null,"likeCount":null,"sharedContent":null,"parent":{"__typename":"HnJson","localize":[{"title":"显示HN：分体式键盘画廊","locale":"zh"},{"title":"顯示HN：分體式鍵盤畫廊","locale":"zh-Hant"}]}},{"__typename":"SocialMediaPost","id":"HnPost-26168285","excerpt":"","slug":"/hn/26168285","title":"Show HN: Ray.so – Create beautiful images of your code","date":"February 17, 2021","dateISO":"2021-02-17T19:54:10.491Z","datetime":"2021-02-17 19:54","tags":["story","Show HN","Hacker News"],"image":null,"imageAlt":null,"provider":"Hacker News","thirdPartyId":"26168285","url":"https://news.ycombinator.com/item?id=26168285","originalUrl":"https://ray.so","imageRemote":null,"video":null,"channel":"Show HN","channelUrl":"https://news.ycombinator.com/show","author":"thomaspaulmann","authorUrl":"https://news.ycombinator.com/user?id=thomaspaulmann","authorImage":null,"authorSlug":null,"score":379,"views":null,"sharedCount":null,"likeCount":null,"sharedContent":null,"parent":{"__typename":"HnJson","localize":[{"title":"显示HN：Ray.so - 为您的代码创建美丽的图像。","locale":"zh"},{"title":"顯示HN：Ray.so - 爲您的代碼創建美麗的圖像。","locale":"zh-Hant"}]}},{"__typename":"SocialMediaPost","id":"HnPost-26154038","excerpt":"","slug":"/hn/26154038","title":"Show HN: Endgame – An AWS Pentesting tool to backdoor or expose AWS resources","date":"February 16, 2021","dateISO":"2021-02-16T17:39:26.032Z","datetime":"2021-02-16 17:39","tags":["story","Show HN","Hacker News"],"image":null,"imageAlt":null,"provider":"Hacker News","thirdPartyId":"26154038","url":"https://news.ycombinator.com/item?id=26154038","originalUrl":"https://github.com/salesforce/endgame","imageRemote":"https://avatars.githubusercontent.com/u/453694?s=400&v=4","video":null,"channel":"Show HN","channelUrl":"https://news.ycombinator.com/show","author":"kmcquade","authorUrl":"https://news.ycombinator.com/user?id=kmcquade","authorImage":null,"authorSlug":null,"score":366,"views":null,"sharedCount":null,"likeCount":null,"sharedContent":null,"parent":{"__typename":"HnJson","localize":[{"title":"显示 HN: Endgame - 一个 AWS Pentesting 工具，用于后门或暴露 AWS 资源。","locale":"zh"},{"title":"顯示 HN: Endgame - 一個 AWS Pentesting 工具，用於後門或暴露 AWS 資源。","locale":"zh-Hant"}]}},{"__typename":"SocialMediaPost","id":"HnPost-26131123","excerpt":"","slug":"/hn/26131123","title":"Show HN: Jam, an Open Source Clubhouse (w/ WebRTC)","date":"February 16, 2021","dateISO":"2021-02-16T06:16:09.715Z","datetime":"2021-02-16 06:16","tags":["story","Show HN","Hacker News"],"image":null,"imageAlt":null,"provider":"Hacker News","thirdPartyId":"26131123","url":"https://news.ycombinator.com/item?id=26131123","originalUrl":"https://jam.systems","imageRemote":"https://jam.systems/img/jam-illustration.png","video":null,"channel":"Show HN","channelUrl":"https://news.ycombinator.com/show","author":"tosh","authorUrl":"https://news.ycombinator.com/user?id=tosh","authorImage":null,"authorSlug":null,"score":312,"views":null,"sharedCount":null,"likeCount":null,"sharedContent":null,"parent":{"__typename":"HnJson","localize":[{"title":"显示HN：Jam，一个开放源码的会所(W/WebRTC)","locale":"zh"},{"title":"顯示HN：Jam，一個開放源碼的會所(W/WebRTC)","locale":"zh-Hant"}]}},{"__typename":"SocialMediaPost","id":"HnPost-26138446","excerpt":"","slug":"/hn/26138446","title":"Show HN: ustaxes.org – open-source tax filing webapp","date":"February 15, 2021","dateISO":"2021-02-15T09:06:54.536Z","datetime":"2021-02-15 09:06","tags":["story","Show HN","Hacker News"],"image":null,"imageAlt":null,"provider":"Hacker News","thirdPartyId":"26138446","url":"https://news.ycombinator.com/item?id=26138446","originalUrl":"https://github.com/thegrims/UsTaxes","imageRemote":"https://avatars.githubusercontent.com/u/8848557?s=400&v=4","video":null,"channel":"Show HN","channelUrl":"https://news.ycombinator.com/show","author":"aidangrimshaw","authorUrl":"https://news.ycombinator.com/user?id=aidangrimshaw","authorImage":null,"authorSlug":null,"score":460,"views":null,"sharedCount":null,"likeCount":null,"sharedContent":null,"parent":{"__typename":"HnJson","localize":[{"title":"显示 HN: ustaxes.org - 开源报税网络应用。","locale":"zh"},{"title":"顯示 HN: ustaxes.org - 開源報稅網絡應用。","locale":"zh-Hant"}]}}]}},"pageContext":{"basePath":"/","pageType":"tag","tag":"Show HN","tagsFilter":{"id":{"glob":"!*Post-1"}},"filter":{"id":{"glob":"!*Post-1"},"tags":{"eq":"Show HN"}},"limit":25,"skip":0,"total":89,"totalPages":4,"currentPage":1,"maxWidth":1024,"maxHeight":512,"locale":"en","hrefLang":"en-US","originalPath":"/tags/show-hn/","dateFormat":"MM/DD/YYYY"}},"staticQueryHashes":["1239077767","2506312863","2744905544","3025052997","3493603132","3493603132","3513215887","386998304"]}