{"componentChunkName":"component---gatsby-theme-buzzing-src-gatsby-theme-timeline-templates-posts-query-js","path":"/ja/page/76","result":{"data":{"site":{"siteMetadata":{"title":"Reddit 热门","description":"用中文浏览Reddit热门内容","social":[{"name":"Twitter","url":"https://twitter.com/gatsbyjs","external":null,"prefetch":null},{"name":"GitHub","url":"https://github.com/gatsbyjs","external":null,"prefetch":null}],"menuLinks":[],"localize":[{"locale":"en","title":"Buzzing on Reddit","description":"See what's buzzing on Reddit in your native language","social":[{"name":"Reddit","url":"https://www.reddit.com/","external":true,"prefetch":null}],"menuLinks":[{"name":"Weekly Selection","url":"/issues","external":null,"prefetch":null},{"name":"RSS","url":"/rss.xml","external":null,"prefetch":false}]},{"locale":"zh-Hant","title":"Reddit 熱門","description":"用中文瀏覽Reddit熱門內容","social":null,"menuLinks":null}]}},"tagsGroup":{"group":[{"fieldValue":"ASK HN","totalCount":54},{"fieldValue":"Hacker News","totalCount":3105},{"fieldValue":"Poll","totalCount":1},{"fieldValue":"Show HN","totalCount":100},{"fieldValue":"poll","totalCount":1},{"fieldValue":"story","totalCount":3104}]},"allBlogPost":{"nodes":[{"__typename":"SocialMediaPost","id":"HnPost-25907312","excerpt":"","slug":"/hn/25907312","title":"Scaling Kubernetes to 7,500 Nodes","date":"January 26, 2021","dateISO":"2021-01-26T05:52:48.687Z","datetime":"2021-01-26 05:52","tags":["story","Hacker News"],"image":null,"imageAlt":null,"provider":"Hacker News","thirdPartyId":"25907312","url":"https://news.ycombinator.com/item?id=25907312","originalUrl":"https://openai.com/blog/scaling-kubernetes-to-7500-nodes/","imageRemote":"https://openai.com/content/images/2021/01/twitter-image-6.png","video":null,"channel":null,"channelUrl":null,"author":"sillysaurusx","authorUrl":"https://news.ycombinator.com/user?id=sillysaurusx","authorImage":null,"authorSlug":null,"score":186,"views":null,"sharedCount":null,"likeCount":null,"sharedContent":null,"parent":{"__typename":"HnJson","localize":[{"title":"将Kubernetes扩展至7500个节点","locale":"zh"},{"title":"將Kubernetes擴展至7500個節點","locale":"zh-Hant"}]}},{"__typename":"SocialMediaPost","id":"HnPost-25909428","excerpt":"","slug":"/hn/25909428","title":"Right to Repair off to the races in 2021 with 14 active states","date":"January 26, 2021","dateISO":"2021-01-26T02:06:46.896Z","datetime":"2021-01-26 02:06","tags":["story","Hacker News"],"image":null,"imageAlt":null,"provider":"Hacker News","thirdPartyId":"25909428","url":"https://news.ycombinator.com/item?id=25909428","originalUrl":"https://uspirg.org/blogs/blog/usp/right-repair-races-2021-14-active-states","imageRemote":"https://uspirg.org/sites/pirg/files/Phones-banner.png","video":null,"channel":null,"channelUrl":null,"author":"CharlesW","authorUrl":"https://news.ycombinator.com/user?id=CharlesW","authorImage":null,"authorSlug":null,"score":182,"views":null,"sharedCount":null,"likeCount":null,"sharedContent":null,"parent":{"__typename":"HnJson","localize":[{"title":"修理权在2021年与14个活跃的州展开竞选。","locale":"zh"},{"title":"修理權在2021年與14個活躍的州展開競選。","locale":"zh-Hant"}]}},{"__typename":"SocialMediaPost","id":"HnPost-25910400","excerpt":"","slug":"/hn/25910400","title":"Time-lapse of a single cell transforming into a salamander (2019)","date":"January 26, 2021","dateISO":"2021-01-26T02:06:46.896Z","datetime":"2021-01-26 02:06","tags":["story","Hacker News"],"image":null,"imageAlt":null,"provider":"Hacker News","thirdPartyId":"25910400","url":"https://news.ycombinator.com/item?id=25910400","originalUrl":"https://www.nationalgeographic.com/animals/2019/02/time-lapse-film-shows-salamander-development/","imageRemote":"https://pmdvod.nationalgeographic.com/NG_Video/772/995/smpost_1550184769850.jpg","video":null,"channel":null,"channelUrl":null,"author":"smusamashah","authorUrl":"https://news.ycombinator.com/user?id=smusamashah","authorImage":null,"authorSlug":null,"score":178,"views":null,"sharedCount":null,"likeCount":null,"sharedContent":null,"parent":{"__typename":"HnJson","localize":[{"title":"单个细胞转变为蝾螈的时间推移(2019)","locale":"zh"},{"title":"單個細胞轉變爲蠑螈的時間推移(2019)","locale":"zh-Hant"}]}},{"__typename":"SocialMediaPost","id":"HnPost-25905899","excerpt":"","slug":"/hn/25905899","title":"The Hundred-Page Machine Learning Book","date":"January 25, 2021","dateISO":"2021-01-25T23:58:52.631Z","datetime":"2021-01-25 23:58","tags":["story","Hacker News"],"image":null,"imageAlt":null,"provider":"Hacker News","thirdPartyId":"25905899","url":"https://news.ycombinator.com/item?id=25905899","originalUrl":"http://themlbook.com/","imageRemote":"http://themlbook.com/images/og-image3.png","video":null,"channel":null,"channelUrl":null,"author":"gk1","authorUrl":"https://news.ycombinator.com/user?id=gk1","authorImage":null,"authorSlug":null,"score":162,"views":null,"sharedCount":null,"likeCount":null,"sharedContent":null,"parent":{"__typename":"HnJson","localize":[{"title":"百页机器学习书","locale":"zh"},{"title":"百頁機器學習書","locale":"zh-Hant"}]}},{"__typename":"SocialMediaPost","id":"HnPost-25903277","excerpt":"","slug":"/hn/25903277","title":"Finland has slashed homelessness; the rest of Europe is failing","date":"January 25, 2021","dateISO":"2021-01-25T23:08:24.103Z","datetime":"2021-01-25 23:08","tags":["story","Hacker News"],"image":null,"imageAlt":null,"provider":"Hacker News","thirdPartyId":"25903277","url":"https://news.ycombinator.com/item?id=25903277","originalUrl":"https://www.economist.com/europe/2019/12/18/finland-has-slashed-homelessness-the-rest-of-europe-is-failing","imageRemote":"https://www.economist.com/img/b/1280/720/90/sites/default/files/images/print-edition/20191221_EUP001_0.jpg","video":null,"channel":null,"channelUrl":null,"author":"ashergill","authorUrl":"https://news.ycombinator.com/user?id=ashergill","authorImage":null,"authorSlug":null,"score":163,"views":null,"sharedCount":null,"likeCount":null,"sharedContent":null,"parent":{"__typename":"HnJson","localize":[{"title":"芬兰减少了无家可归者的人数，欧洲其他国家却没有这样做。","locale":"zh"},{"title":"芬蘭減少了無家可歸者的人數，歐洲其他國家卻沒有這樣做。","locale":"zh-Hant"}]}},{"__typename":"SocialMediaPost","id":"HnPost-25902112","excerpt":"","slug":"/hn/25902112","title":"Food delivery startup Wolt raises $530M","date":"January 25, 2021","dateISO":"2021-01-25T22:10:28.851Z","datetime":"2021-01-25 22:10","tags":["story","Hacker News"],"image":null,"imageAlt":null,"provider":"Hacker News","thirdPartyId":"25902112","url":"https://news.ycombinator.com/item?id=25902112","originalUrl":"https://sifted.eu/articles/wolt-530m-raise/","imageRemote":"https://images.sifted.eu/wp-content/uploads/2021/01/25105154/373470-Wolt_Courier_Bicycle_4-78d6ea-original-1608038090-scaled.jpg?w=2048&h=1167&q=75&fit=crop&auto=compress,format","video":null,"channel":null,"channelUrl":null,"author":"kakoni","authorUrl":"https://news.ycombinator.com/user?id=kakoni","authorImage":null,"authorSlug":null,"score":162,"views":null,"sharedCount":null,"likeCount":null,"sharedContent":null,"parent":{"__typename":"HnJson","localize":[{"title":"食品配送创业公司Wolt融资5.3亿美元","locale":"zh"},{"title":"食品配送創業公司Wolt融資5.3億美元","locale":"zh-Hant"}]}},{"__typename":"SocialMediaPost","id":"HnPost-25906058","excerpt":"","slug":"/hn/25906058","title":"Otokichi","date":"January 25, 2021","dateISO":"2021-01-25T22:10:28.851Z","datetime":"2021-01-25 22:10","tags":["story","Hacker News"],"image":null,"imageAlt":null,"provider":"Hacker News","thirdPartyId":"25906058","url":"https://news.ycombinator.com/item?id=25906058","originalUrl":"https://en.wikipedia.org/wiki/Otokichi","imageRemote":"https://upload.wikimedia.org/wikipedia/commons/7/74/Otokichi.jpg","video":null,"channel":null,"channelUrl":null,"author":"Thevet","authorUrl":"https://news.ycombinator.com/user?id=Thevet","authorImage":null,"authorSlug":null,"score":162,"views":null,"sharedCount":null,"likeCount":null,"sharedContent":null,"parent":{"__typename":"HnJson","localize":[{"title":"Otokichi","locale":"zh"},{"title":"Otokichi","locale":"zh-Hant"}]}},{"__typename":"SocialMediaPost","id":"HnPost-25904188","excerpt":"","slug":"/hn/25904188","title":"A deeper dive into our May 2019 security incident","date":"January 25, 2021","dateISO":"2021-01-25T21:42:47.981Z","datetime":"2021-01-25 21:42","tags":["story","Hacker News"],"image":null,"imageAlt":null,"provider":"Hacker News","thirdPartyId":"25904188","url":"https://news.ycombinator.com/item?id=25904188","originalUrl":"https://stackoverflow.blog/2021/01/25/a-deeper-dive-into-our-may-2019-security-incident/","imageRemote":"https://149351115.v2.pressablecdn.com/wp-content/uploads/2021/01/blog-security-4.png","video":null,"channel":null,"channelUrl":null,"author":"alex-warren","authorUrl":"https://news.ycombinator.com/user?id=alex-warren","authorImage":null,"authorSlug":null,"score":162,"views":null,"sharedCount":null,"likeCount":null,"sharedContent":null,"parent":{"__typename":"HnJson","localize":[{"title":"深入了解我国2019年5月安全事故的情况","locale":"zh"},{"title":"深入瞭解我國2019年5月安全事故的情況","locale":"zh-Hant"}]}},{"__typename":"SocialMediaPost","id":"HnPost-25904658","excerpt":"","slug":"/hn/25904658","title":"Vancouver seaplane company to resume test flights with electric plane","date":"January 25, 2021","dateISO":"2021-01-25T21:42:47.981Z","datetime":"2021-01-25 21:42","tags":["story","Hacker News"],"image":null,"imageAlt":null,"provider":"Hacker News","thirdPartyId":"25904658","url":"https://news.ycombinator.com/item?id=25904658","originalUrl":"https://www.cbc.ca/news/canada/british-columbia/vancouver-electric-seaplane-test-flights-1.5884479","imageRemote":"https://i.cbc.ca/1.5391142.1611357228!/cumulusImage/httpImage/image.jpg_gen/derivatives/16x9_620/harbour-air-electric-plane.jpg","video":null,"channel":null,"channelUrl":null,"author":"seryoiupfurds","authorUrl":"https://news.ycombinator.com/user?id=seryoiupfurds","authorImage":null,"authorSlug":null,"score":164,"views":null,"sharedCount":null,"likeCount":null,"sharedContent":null,"parent":{"__typename":"HnJson","localize":[{"title":"温哥华水上飞机公司恢复电动飞机试飞","locale":"zh"},{"title":"溫哥華水上飛機公司恢復電動飛機試飛","locale":"zh-Hant"}]}},{"__typename":"SocialMediaPost","id":"HnPost-25907356","excerpt":"","slug":"/hn/25907356","title":"Myopia correcting 'smart glasses' from Japan to be sold in Asia","date":"January 25, 2021","dateISO":"2021-01-25T21:42:47.981Z","datetime":"2021-01-25 21:42","tags":["story","Hacker News"],"image":null,"imageAlt":null,"provider":"Hacker News","thirdPartyId":"25907356","url":"https://news.ycombinator.com/item?id=25907356","originalUrl":"https://asia.nikkei.com/Business/Health-Care/Myopia-correcting-smart-glasses-from-Japan-to-be-sold-in-Asia","imageRemote":"https://www.ft.com/__origami/service/image/v2/images/raw/https%3A%2F%2Fs3-ap-northeast-1.amazonaws.com%2Fpsh-ex-ftnikkei-3937bb4%2Fimages%2F2%2F5%2F3%2F7%2F31697352-1-eng-GB%2F4%20%28002%29.jpg?width=1024&height=512&fit=cover&gravity=faces&source=nar-cms","video":null,"channel":null,"channelUrl":null,"author":"isof4ult","authorUrl":"https://news.ycombinator.com/user?id=isof4ult","authorImage":null,"authorSlug":null,"score":190,"views":null,"sharedCount":null,"likeCount":null,"sharedContent":null,"parent":{"__typename":"HnJson","localize":[{"title":"日本近视矫正 \"智能眼镜 \"将在亚洲销售","locale":"zh"},{"title":"日本近視矯正 \"智能眼鏡 \"將在亞洲銷售","locale":"zh-Hant"}]}},{"__typename":"SocialMediaPost","id":"HnPost-25903049","excerpt":"","slug":"/hn/25903049","title":"Google has been testing a replacement for third-party cookies","date":"January 25, 2021","dateISO":"2021-01-25T21:03:48.448Z","datetime":"2021-01-25 21:03","tags":["story","Hacker News"],"image":null,"imageAlt":null,"provider":"Hacker News","thirdPartyId":"25903049","url":"https://news.ycombinator.com/item?id=25903049","originalUrl":"https://www.axios.com/google-privacy-friendly-substitute-cookies-test-05c2c28e-77f1-4921-9a99-1ef0c009b064.html","imageRemote":"https://images.axios.com/WvR62WxVMU1xWKVinURJnqLsiS0=/0x0:1280x720/1366x768/2021/01/25/1611540916033.jpg","video":null,"channel":null,"channelUrl":null,"author":"Geeek","authorUrl":"https://news.ycombinator.com/user?id=Geeek","authorImage":null,"authorSlug":null,"score":175,"views":null,"sharedCount":null,"likeCount":null,"sharedContent":null,"parent":{"__typename":"HnJson","localize":[{"title":"谷歌一直在测试第三方cookies的替代品","locale":"zh"},{"title":"谷歌一直在測試第三方cookies的替代品","locale":"zh-Hant"}]}},{"__typename":"SocialMediaPost","id":"HnPost-25904014","excerpt":"","slug":"/hn/25904014","title":"Moderna vaccine appears to work against variants","date":"January 25, 2021","dateISO":"2021-01-25T21:03:48.448Z","datetime":"2021-01-25 21:03","tags":["story","Hacker News"],"image":null,"imageAlt":null,"provider":"Hacker News","thirdPartyId":"25904014","url":"https://news.ycombinator.com/item?id=25904014","originalUrl":"https://www.bbc.co.uk/news/health-55797312","imageRemote":"https://ichef.bbci.co.uk/news/1024/branded_news/166C8/production/_116084819_smallergettyimages-1204224469-1.jpg","video":null,"channel":null,"channelUrl":null,"author":"pseudolus","authorUrl":"https://news.ycombinator.com/user?id=pseudolus","authorImage":null,"authorSlug":null,"score":184,"views":null,"sharedCount":null,"likeCount":null,"sharedContent":null,"parent":{"__typename":"HnJson","localize":[{"title":"Moderna疫苗似乎对变异体有效","locale":"zh"},{"title":"Moderna疫苗似乎對變異體有效","locale":"zh-Hant"}]}},{"__typename":"SocialMediaPost","id":"HnPost-25904709","excerpt":"","slug":"/hn/25904709","title":"Giant leak exposes data from almost all Brazilians","date":"January 25, 2021","dateISO":"2021-01-25T21:03:48.448Z","datetime":"2021-01-25 21:03","tags":["story","Hacker News"],"image":null,"imageAlt":null,"provider":"Hacker News","thirdPartyId":"25904709","url":"https://news.ycombinator.com/item?id=25904709","originalUrl":"https://www.databreaches.net/giant-leak-exposes-data-from-almost-all-brazilians/","imageRemote":null,"video":null,"channel":null,"channelUrl":null,"author":"JeanMarcS","authorUrl":"https://news.ycombinator.com/user?id=JeanMarcS","authorImage":null,"authorSlug":null,"score":170,"views":null,"sharedCount":null,"likeCount":null,"sharedContent":null,"parent":{"__typename":"HnJson","localize":[{"title":"巨额泄密暴露了几乎所有巴西人的数据。","locale":"zh"},{"title":"鉅額泄密暴露了幾乎所有巴西人的數據。","locale":"zh-Hant"}]}},{"__typename":"SocialMediaPost","id":"HnPost-25904965","excerpt":"","slug":"/hn/25904965","title":"Dominion Voting Systems Sues Rudy Giuliani","date":"January 25, 2021","dateISO":"2021-01-25T21:03:48.448Z","datetime":"2021-01-25 21:03","tags":["story","Hacker News"],"image":null,"imageAlt":null,"provider":"Hacker News","thirdPartyId":"25904965","url":"https://news.ycombinator.com/item?id=25904965","originalUrl":"https://www.cbc.ca/news/world/dominion-voting-giuliani-trump-1.5886273","imageRemote":"https://i.cbc.ca/1.5886284.1611584243!/fileImage/httpImage/image.jpg_gen/derivatives/16x9_620/trump-giuliani.jpg","video":null,"channel":null,"channelUrl":null,"author":"cf100clunk","authorUrl":"https://news.ycombinator.com/user?id=cf100clunk","authorImage":null,"authorSlug":null,"score":161,"views":null,"sharedCount":null,"likeCount":null,"sharedContent":null,"parent":{"__typename":"HnJson","localize":[{"title":"多米尼克投票系统公司起诉鲁迪-朱利安尼。","locale":"zh"},{"title":"多米尼克投票系統公司起訴魯迪-朱利安尼。","locale":"zh-Hant"}]}},{"__typename":"SocialMediaPost","id":"HnPost-25895126","excerpt":"","slug":"/hn/25895126","title":"I wouldn't invest in open-source companies, even though I ran one","date":"January 25, 2021","dateISO":"2021-01-25T19:33:01.219Z","datetime":"2021-01-25 19:33","tags":["story","Hacker News"],"image":null,"imageAlt":null,"provider":"Hacker News","thirdPartyId":"25895126","url":"https://news.ycombinator.com/item?id=25895126","originalUrl":"https://www.linkedin.com/pulse/why-i-wouldnt-invest-open-source-companies-even-though-wolfram-hempel","imageRemote":"https://media-exp1.licdn.com/dms/image/C5612AQGml2--C9hB9w/article-cover_image-shrink_720_1280/0/1609590515701?e=1617235200&v=beta&t=R9t267BzpBX1kf5d-BItdu_WRquCHb4YHEfunMhfJv8","video":null,"channel":null,"channelUrl":null,"author":"wolframhempel","authorUrl":"https://news.ycombinator.com/user?id=wolframhempel","authorImage":null,"authorSlug":null,"score":160,"views":null,"sharedCount":null,"likeCount":null,"sharedContent":null,"parent":{"__typename":"HnJson","localize":[{"title":"我不会投资开源公司，尽管我经营着一家公司","locale":"zh"},{"title":"我不會投資開源公司，儘管我經營着一家公司","locale":"zh-Hant"}]}},{"__typename":"SocialMediaPost","id":"HnPost-25906792","excerpt":"","slug":"/hn/25906792","title":"App suspended from Google Play for listing supported subtitle formats","date":"January 25, 2021","dateISO":"2021-01-25T19:33:01.218Z","datetime":"2021-01-25 19:33","tags":["story","Hacker News"],"image":null,"imageAlt":null,"provider":"Hacker News","thirdPartyId":"25906792","url":"https://news.ycombinator.com/item?id=25906792","originalUrl":"https://github.com/moneytoo/Player/issues/37","imageRemote":"https://repository-images.githubusercontent.com/311451920/4a876400-4dad-11eb-91ac-0169ba996c1e","video":null,"channel":null,"channelUrl":null,"author":"moneytoo","authorUrl":"https://news.ycombinator.com/user?id=moneytoo","authorImage":null,"authorSlug":null,"score":215,"views":null,"sharedCount":null,"likeCount":null,"sharedContent":null,"parent":{"__typename":"HnJson","localize":[{"title":"暂停在Google Play上列出支持的字幕格式的应用程序。","locale":"zh"},{"title":"暫停在Google Play上列出支持的字幕格式的應用程序。","locale":"zh-Hant"}]}},{"__typename":"SocialMediaPost","id":"HnPost-25903113","excerpt":"","slug":"/hn/25903113","title":"Europe’s telcos want ‘open’ 5G networks","date":"January 25, 2021","dateISO":"2021-01-25T18:35:04.391Z","datetime":"2021-01-25 18:35","tags":["story","Hacker News"],"image":null,"imageAlt":null,"provider":"Hacker News","thirdPartyId":"25903113","url":"https://news.ycombinator.com/item?id=25903113","originalUrl":"https://www.politico.eu/article/oran-reflow-huawei-europe-telecoms-5g/","imageRemote":"https://www.politico.eu/wp-content/uploads/2021/01/20/iStock-805119394-1200x628.jpg","video":null,"channel":null,"channelUrl":null,"author":"DyslexicAtheist","authorUrl":"https://news.ycombinator.com/user?id=DyslexicAtheist","authorImage":null,"authorSlug":null,"score":182,"views":null,"sharedCount":null,"likeCount":null,"sharedContent":null,"parent":{"__typename":"HnJson","localize":[{"title":"欧洲电信公司希望 \"开放 \"5G网络","locale":"zh"},{"title":"歐洲電信公司希望 \"開放 \"5G網絡","locale":"zh-Hant"}]}},{"__typename":"SocialMediaPost","id":"HnPost-25903576","excerpt":"","slug":"/hn/25903576","title":"The high price of mistrust","date":"January 25, 2021","dateISO":"2021-01-25T18:35:04.391Z","datetime":"2021-01-25 18:35","tags":["story","Hacker News"],"image":null,"imageAlt":null,"provider":"Hacker News","thirdPartyId":"25903576","url":"https://news.ycombinator.com/item?id=25903576","originalUrl":"https://fs.blog/2021/01/mistrust/","imageRemote":"https://149366099.v2.pressablecdn.com/wp-content/uploads/2021/01/The-High-Price-of-Mistrust.png","video":null,"channel":null,"channelUrl":null,"author":"galfarragem","authorUrl":"https://news.ycombinator.com/user?id=galfarragem","authorImage":null,"authorSlug":null,"score":176,"views":null,"sharedCount":null,"likeCount":null,"sharedContent":null,"parent":{"__typename":"HnJson","localize":[{"title":"不信任的高昂代价","locale":"zh"},{"title":"不信任的高昂代價","locale":"zh-Hant"}]}},{"__typename":"SocialMediaPost","id":"HnPost-25903647","excerpt":"","slug":"/hn/25903647","title":"Firefox Relay","date":"January 25, 2021","dateISO":"2021-01-25T18:35:04.391Z","datetime":"2021-01-25 18:35","tags":["story","Hacker News"],"image":null,"imageAlt":null,"provider":"Hacker News","thirdPartyId":"25903647","url":"https://news.ycombinator.com/item?id=25903647","originalUrl":"https://relay.firefox.com/?ref=link","imageRemote":"https://relay.firefox.com/static/images/mozilla.svg","video":null,"channel":null,"channelUrl":null,"author":"charlieirish","authorUrl":"https://news.ycombinator.com/user?id=charlieirish","authorImage":null,"authorSlug":null,"score":246,"views":null,"sharedCount":null,"likeCount":null,"sharedContent":null,"parent":{"__typename":"HnJson","localize":[{"title":"火狐中继","locale":"zh"},{"title":"火狐中繼","locale":"zh-Hant"}]}},{"__typename":"SocialMediaPost","id":"HnPost-25904235","excerpt":"","slug":"/hn/25904235","title":"Discover the best developer blogs on any tech stack","date":"January 25, 2021","dateISO":"2021-01-25T18:35:04.391Z","datetime":"2021-01-25 18:35","tags":["story","Hacker News"],"image":null,"imageAlt":null,"provider":"Hacker News","thirdPartyId":"25904235","url":"https://news.ycombinator.com/item?id=25904235","originalUrl":"https://bloggingfordevs.com/trends/","imageRemote":"https://bloggingfordevs.com/images/tech-blog-rankings-preview.png","video":null,"channel":null,"channelUrl":null,"author":"mlent","authorUrl":"https://news.ycombinator.com/user?id=mlent","authorImage":null,"authorSlug":null,"score":202,"views":null,"sharedCount":null,"likeCount":null,"sharedContent":null,"parent":{"__typename":"HnJson","localize":[{"title":"发现任何技术栈的最佳开发者博客","locale":"zh"},{"title":"發現任何技術棧的最佳開發者博客","locale":"zh-Hant"}]}},{"__typename":"SocialMediaPost","id":"HnPost-25903259","excerpt":"","slug":"/hn/25903259","title":"Upvote to encourage more people to visit New Links on Hacker News","date":"January 25, 2021","dateISO":"2021-01-25T14:57:49.233Z","datetime":"2021-01-25 14:57","tags":["story","Hacker News"],"image":null,"imageAlt":null,"provider":"Hacker News","thirdPartyId":"25903259","url":"https://news.ycombinator.com/item?id=25903259","originalUrl":"https://news.ycombinator.com/newest","imageRemote":"https://news.ycombinator.com/y18.gif","video":null,"channel":null,"channelUrl":null,"author":"crazypython","authorUrl":"https://news.ycombinator.com/user?id=crazypython","authorImage":null,"authorSlug":null,"score":242,"views":null,"sharedCount":null,"likeCount":null,"sharedContent":null,"parent":{"__typename":"HnJson","localize":[{"title":"上票鼓励更多的人访问Hacker News上的新链接。","locale":"zh"},{"title":"上票鼓勵更多的人訪問Hacker News上的新鏈接。","locale":"zh-Hant"}]}},{"__typename":"SocialMediaPost","id":"HnPost-25891435","excerpt":"","slug":"/hn/25891435","title":"Incomplete List of Mistakes in the Design of CSS","date":"January 25, 2021","dateISO":"2021-01-25T14:12:39.245Z","datetime":"2021-01-25 14:12","tags":["story","Hacker News"],"image":null,"imageAlt":null,"provider":"Hacker News","thirdPartyId":"25891435","url":"https://news.ycombinator.com/item?id=25891435","originalUrl":"https://wiki.csswg.org/ideas/mistakes","imageRemote":"https://wiki.csswg.org/lib/tpl/csswg/images/button-rss.png","video":null,"channel":null,"channelUrl":null,"author":"Tomte","authorUrl":"https://news.ycombinator.com/user?id=Tomte","authorImage":null,"authorSlug":null,"score":176,"views":null,"sharedCount":null,"likeCount":null,"sharedContent":null,"parent":{"__typename":"HnJson","localize":[{"title":"CSS设计中不完全的错误清单","locale":"zh"},{"title":"CSS設計中不完全的錯誤清單","locale":"zh-Hant"}]}},{"__typename":"SocialMediaPost","id":"HnPost-25891461","excerpt":"","slug":"/hn/25891461","title":"ffscreencast – a screencast CLI-tool with video overlay and multimonitor support","date":"January 25, 2021","dateISO":"2021-01-25T14:12:39.245Z","datetime":"2021-01-25 14:12","tags":["story","Hacker News"],"image":null,"imageAlt":null,"provider":"Hacker News","thirdPartyId":"25891461","url":"https://news.ycombinator.com/item?id=25891461","originalUrl":"https://github.com/cytopia/ffscreencast","imageRemote":"https://avatars.githubusercontent.com/u/12533999?s=400&v=4","video":null,"channel":null,"channelUrl":null,"author":"app4soft","authorUrl":"https://news.ycombinator.com/user?id=app4soft","authorImage":null,"authorSlug":null,"score":181,"views":null,"sharedCount":null,"likeCount":null,"sharedContent":null,"parent":{"__typename":"HnJson","localize":[{"title":"ffscreencast - 一个带有视频覆盖和多显示器支持的屏幕广播CLI工具。","locale":"zh"},{"title":"ffscreencast - 一個帶有視頻覆蓋和多顯示器支持的屏幕廣播CLI工具。","locale":"zh-Hant"}]}},{"__typename":"SocialMediaPost","id":"HnPost-25892874","excerpt":"","slug":"/hn/25892874","title":"Czech trainers teach dogs to sniff out Covid: 95-percent success rate","date":"January 25, 2021","dateISO":"2021-01-25T14:12:39.245Z","datetime":"2021-01-25 14:12","tags":["story","Hacker News"],"image":null,"imageAlt":null,"provider":"Hacker News","thirdPartyId":"25892874","url":"https://news.ycombinator.com/item?id=25892874","originalUrl":"https://www.france24.com/en/live-news/20210124-czech-trainers-teach-dogs-to-sniff-out-covid","imageRemote":"https://s.france24.com/media/display/5183aa02-5dfc-11eb-b903-005056bff430/w:1280/p:16x9/0be11f45be5c6393b383cfa86c00d6996919d462.jpg","video":null,"channel":null,"channelUrl":null,"author":"respinal","authorUrl":"https://news.ycombinator.com/user?id=respinal","authorImage":null,"authorSlug":null,"score":161,"views":null,"sharedCount":null,"likeCount":null,"sharedContent":null,"parent":{"__typename":"HnJson","localize":[{"title":"捷克训导员教狗嗅出科维德：成功率95%。","locale":"zh"},{"title":"捷克訓導員教狗嗅出科維德：成功率95%。","locale":"zh-Hant"}]}},{"__typename":"SocialMediaPost","id":"HnPost-25892889","excerpt":"","slug":"/hn/25892889","title":"Show HN: Sokyokuban, a puzzle game in a non-Euclidian world","date":"January 25, 2021","dateISO":"2021-01-25T14:12:39.245Z","datetime":"2021-01-25 14:12","tags":["story","Show HN","Hacker News"],"image":null,"imageAlt":null,"provider":"Hacker News","thirdPartyId":"25892889","url":"https://news.ycombinator.com/item?id=25892889","originalUrl":"https://sokyokuban.com/","imageRemote":"https://sokyokuban.com/sculpture.38fd0393.png","video":null,"channel":"Show HN","channelUrl":"https://news.ycombinator.com/show","author":"jaspervdj","authorUrl":"https://news.ycombinator.com/user?id=jaspervdj","authorImage":null,"authorSlug":null,"score":167,"views":null,"sharedCount":null,"likeCount":null,"sharedContent":null,"parent":{"__typename":"HnJson","localize":[{"title":"展示HN：非欧几里得世界里的解谜游戏Sokyokuban。","locale":"zh"},{"title":"展示HN：非歐幾里得世界裏的解謎遊戲Sokyokuban。","locale":"zh-Hant"}]}}]}},"pageContext":{"basePath":"/","pageType":"home","tagsFilter":{"id":{"glob":"!*Post-1"}},"filter":{"id":{"glob":"!*Post-1"}},"limit":25,"skip":1875,"totalPages":125,"total":3105,"currentPage":76,"maxWidth":1024,"maxHeight":512,"locale":"ja","hrefLang":"ja-JA","originalPath":"/page/76","dateFormat":"YYYY-MM-DD"}},"staticQueryHashes":["1239077767","2506312863","2744905544","3025052997","3493603132","3493603132","3513215887","386998304"]}