{"componentChunkName":"component---gatsby-theme-buzzing-src-gatsby-theme-timeline-templates-posts-query-js","path":"/page/119","result":{"data":{"site":{"siteMetadata":{"title":"Reddit 热门","description":"用中文浏览Reddit热门内容","social":[{"name":"Twitter","url":"https://twitter.com/gatsbyjs","external":null,"prefetch":null},{"name":"GitHub","url":"https://github.com/gatsbyjs","external":null,"prefetch":null}],"menuLinks":[],"localize":[{"locale":"en","title":"Buzzing on Reddit","description":"See what's buzzing on Reddit in your native language","social":[{"name":"Reddit","url":"https://www.reddit.com/","external":true,"prefetch":null}],"menuLinks":[{"name":"Weekly Selection","url":"/issues","external":null,"prefetch":null},{"name":"RSS","url":"/rss.xml","external":null,"prefetch":false}]},{"locale":"zh-Hant","title":"Reddit 熱門","description":"用中文瀏覽Reddit熱門內容","social":null,"menuLinks":null}]}},"tagsGroup":{"group":[{"fieldValue":"ASK HN","totalCount":54},{"fieldValue":"Hacker News","totalCount":3105},{"fieldValue":"Poll","totalCount":1},{"fieldValue":"Show HN","totalCount":100},{"fieldValue":"poll","totalCount":1},{"fieldValue":"story","totalCount":3104}]},"allBlogPost":{"nodes":[{"__typename":"SocialMediaPost","id":"HnPost-25479694","excerpt":"","slug":"/hn/25479694","title":"Inciteful: Using Citations to Explore Academic Literature","date":"December 19, 2020","dateISO":"2020-12-19T21:34:46.771Z","datetime":"2020-12-19 21:34","tags":["story","Hacker News"],"image":null,"imageAlt":null,"provider":"Hacker News","thirdPartyId":"25479694","url":"https://news.ycombinator.com/item?id=25479694","originalUrl":"https://inciteful.xyz/","imageRemote":"https://inciteful.xyz/dist/img/logo-300.png","video":null,"channel":null,"channelUrl":null,"author":"adamnemecek","authorUrl":"https://news.ycombinator.com/user?id=adamnemecek","authorImage":null,"authorSlug":null,"score":143,"views":null,"sharedCount":null,"likeCount":null,"sharedContent":null,"parent":{"__typename":"HnJson","localize":[{"title":"煽动性：利用引文探索学术文献","locale":"zh"},{"title":"煽動性：利用引文探索學術文獻","locale":"zh-Hant"}]}},{"__typename":"SocialMediaPost","id":"HnPost-25472821","excerpt":"","slug":"/hn/25472821","title":"Solorigate, the compromised DLL file that started a sophisticated cyberattack","date":"December 19, 2020","dateISO":"2020-12-19T20:57:56.072Z","datetime":"2020-12-19 20:57","tags":["story","Hacker News"],"image":null,"imageAlt":null,"provider":"Hacker News","thirdPartyId":"25472821","url":"https://news.ycombinator.com/item?id=25472821","originalUrl":"https://www.microsoft.com/security/blog/2020/12/18/analyzing-solorigate-the-compromised-dll-file-that-started-a-sophisticated-cyberattack-and-how-microsoft-defender-helps-protect/","imageRemote":"https://www.microsoft.com/security/blog/wp-content/uploads/2020/12/Solorigate-social-5.png","video":null,"channel":null,"channelUrl":null,"author":"thejj100100","authorUrl":"https://news.ycombinator.com/user?id=thejj100100","authorImage":null,"authorSlug":null,"score":253,"views":null,"sharedCount":null,"likeCount":null,"sharedContent":null,"parent":{"__typename":"HnJson","localize":[{"title":"SolOrigate，这个被攻破的DLL文件引发了复杂的网络攻击","locale":"zh"},{"title":"SolOrigate，這個被攻破的DLL文件引發了複雜的網絡攻擊","locale":"zh-Hant"}]}},{"__typename":"SocialMediaPost","id":"HnPost-25471274","excerpt":"","slug":"/hn/25471274","title":"U.S. charges China-based Zoom employee for disrupting Tiananmen commemoration","date":"December 19, 2020","dateISO":"2020-12-19T20:27:26.053Z","datetime":"2020-12-19 20:27","tags":["story","Hacker News"],"image":null,"imageAlt":null,"provider":"Hacker News","thirdPartyId":"25471274","url":"https://news.ycombinator.com/item?id=25471274","originalUrl":"https://www.axios.com/zoom-tiananmen-square-china-charges-5ba2e20b-0a75-492e-8ed9-2fcc25243fdd.html","imageRemote":"https://images.axios.com/wZ2-Ui70AyhHcYI69KpiJe8B2mE=/0x0:1920x1080/1366x768/2020/12/18/1608314364790.jpg","video":null,"channel":null,"channelUrl":null,"author":"99_00","authorUrl":"https://news.ycombinator.com/user?id=99_00","authorImage":null,"authorSlug":null,"score":106,"views":null,"sharedCount":null,"likeCount":null,"sharedContent":null,"parent":{"__typename":"HnJson","localize":[{"title":"美国指控中国Zoom员工扰乱天安门纪念活动","locale":"zh"},{"title":"美國指控中國Zoom員工擾亂天安門紀念活動","locale":"zh-Hant"}]}},{"__typename":"SocialMediaPost","id":"HnPost-25478783","excerpt":"","slug":"/hn/25478783","title":"London put in emergency lockdown as U.K. fights new strain","date":"December 19, 2020","dateISO":"2020-12-19T20:27:26.053Z","datetime":"2020-12-19 20:27","tags":["story","Hacker News"],"image":null,"imageAlt":null,"provider":"Hacker News","thirdPartyId":"25478783","url":"https://news.ycombinator.com/item?id=25478783","originalUrl":"https://www.bloomberg.com/news/articles/2020-12-19/london-put-in-emergency-lockdown-as-u-k-fights-new-virus-strain","imageRemote":null,"video":null,"channel":null,"channelUrl":null,"author":"remote_phone","authorUrl":"https://news.ycombinator.com/user?id=remote_phone","authorImage":null,"authorSlug":null,"score":213,"views":null,"sharedCount":null,"likeCount":null,"sharedContent":null,"parent":{"__typename":"HnJson","localize":[{"title":"伦敦紧急封锁，英国与新的压力作斗争","locale":"zh"},{"title":"倫敦緊急封鎖，英國與新的壓力作鬥爭","locale":"zh-Hant"}]}},{"__typename":"SocialMediaPost","id":"HnPost-25476266","excerpt":"","slug":"/hn/25476266","title":"Commoditize your complement (2019)","date":"December 19, 2020","dateISO":"2020-12-19T19:36:55.977Z","datetime":"2020-12-19 19:36","tags":["story","Hacker News"],"image":null,"imageAlt":null,"provider":"Hacker News","thirdPartyId":"25476266","url":"https://news.ycombinator.com/item?id=25476266","originalUrl":"https://www.gwern.net/Complement","imageRemote":"https://www.gwern.net/static/img/logo/logo-whitebg-large-border.png","video":null,"channel":null,"channelUrl":null,"author":"harperlee","authorUrl":"https://news.ycombinator.com/user?id=harperlee","authorImage":null,"authorSlug":null,"score":128,"views":null,"sharedCount":null,"likeCount":null,"sharedContent":null,"parent":{"__typename":"HnJson","localize":[{"title":"将补充物商品化(2019年)","locale":"zh"},{"title":"將補充物商品化(2019年)","locale":"zh-Hant"}]}},{"__typename":"SocialMediaPost","id":"HnPost-25478693","excerpt":"","slug":"/hn/25478693","title":"9k-Year-Old Stonehenge-Like Structure Found Under Lake Michigan","date":"December 19, 2020","dateISO":"2020-12-19T19:25:11.802Z","datetime":"2020-12-19 19:25","tags":["story","Hacker News"],"image":null,"imageAlt":null,"provider":"Hacker News","thirdPartyId":"25478693","url":"https://news.ycombinator.com/item?id=25478693","originalUrl":"https://archaeology-world.com/9000-year-old-stonehenge-like-structure-found-under-lake-michigan/","imageRemote":"https://secureservercdn.net/160.153.137.40/fbx.00e.myftpupload.com/wp-content/uploads/2020/11/michigan-stonehenge-4-1-672x372.jpg","video":null,"channel":null,"channelUrl":null,"author":"djsumdog","authorUrl":"https://news.ycombinator.com/user?id=djsumdog","authorImage":null,"authorSlug":null,"score":252,"views":null,"sharedCount":null,"likeCount":null,"sharedContent":null,"parent":{"__typename":"HnJson","localize":[{"title":"密歇根湖下发现9K年前类似巨石阵的结构","locale":"zh"},{"title":"密歇根湖下發現9K年前類似巨石陣的結構","locale":"zh-Hant"}]}},{"__typename":"SocialMediaPost","id":"HnPost-25478869","excerpt":"","slug":"/hn/25478869","title":"Being kind to others is good for your health","date":"December 19, 2020","dateISO":"2020-12-19T19:25:11.802Z","datetime":"2020-12-19 19:25","tags":["story","Hacker News"],"image":null,"imageAlt":null,"provider":"Hacker News","thirdPartyId":"25478869","url":"https://news.ycombinator.com/item?id=25478869","originalUrl":"https://www.bbc.com/future/article/20201215-why-being-kind-to-others-is-good-for-your-health","imageRemote":"https://ychef.files.bbci.co.uk/live/624x351/p091jsp9.jpg","video":null,"channel":null,"channelUrl":null,"author":"diminish","authorUrl":"https://news.ycombinator.com/user?id=diminish","authorImage":null,"authorSlug":null,"score":690,"views":null,"sharedCount":null,"likeCount":null,"sharedContent":null,"parent":{"__typename":"HnJson","localize":[{"title":"善待他人对你的健康有好处","locale":"zh"},{"title":"善待他人對你的健康有好處","locale":"zh-Hant"}]}},{"__typename":"SocialMediaPost","id":"HnPost-25475037","excerpt":"","slug":"/hn/25475037","title":"Cyberpunk 2077: How 2020’s biggest video game launch turned into a shambles","date":"December 19, 2020","dateISO":"2020-12-19T18:30:28.952Z","datetime":"2020-12-19 18:30","tags":["story","Hacker News"],"image":null,"imageAlt":null,"provider":"Hacker News","thirdPartyId":"25475037","url":"https://news.ycombinator.com/item?id=25475037","originalUrl":"https://www.theguardian.com/games/2020/dec/18/cyberpunk-2077-how-2020s-biggest-video-game-launch-turned-into-a-shambles","imageRemote":"https://i.guim.co.uk/img/media/dc54c4cf6080fd3eaa4a066d95f9f246a4b525c3/254_0_1606_964/master/1606.jpg?width=1200&height=630&quality=85&auto=format&fit=crop&overlay-align=bottom%2Cleft&overlay-width=100p&overlay-base64=L2ltZy9zdGF0aWMvb3ZlcmxheXMvdGctb3BpbmlvbnMucG5n&enable=upscale&s=3c36f539562b42f4c09e03c8ea1fdd2c","video":null,"channel":null,"channelUrl":null,"author":"helsinkiandrew","authorUrl":"https://news.ycombinator.com/user?id=helsinkiandrew","authorImage":null,"authorSlug":null,"score":320,"views":null,"sharedCount":null,"likeCount":null,"sharedContent":null,"parent":{"__typename":"HnJson","localize":[{"title":"赛博朋克2077：2020年最大的视频游戏发布如何变得一团糟","locale":"zh"},{"title":"賽博朋克2077：2020年最大的視頻遊戲發佈如何變得一團糟","locale":"zh-Hant"}]}},{"__typename":"SocialMediaPost","id":"HnPost-25478166","excerpt":"","slug":"/hn/25478166","title":"Stanford’s vaccine allocation leaves out nearly all medical residents","date":"December 19, 2020","dateISO":"2020-12-19T18:30:28.952Z","datetime":"2020-12-19 18:30","tags":["story","Hacker News"],"image":null,"imageAlt":null,"provider":"Hacker News","thirdPartyId":"25478166","url":"https://news.ycombinator.com/item?id=25478166","originalUrl":"https://www.npr.org/sections/coronavirus-live-updates/2020/12/18/948176807/stanford-apologizes-after-vaccine-allocation-leaves-out-nearly-all-medical-resid","imageRemote":"https://media.npr.org/assets/img/2020/12/18/20201218_vaccinedemo___dsc4817_wide-bc0b0a109fb39ac626e667bd7bc9073e8f4f3f8a.jpg?s=1400","video":null,"channel":null,"channelUrl":null,"author":"potench","authorUrl":"https://news.ycombinator.com/user?id=potench","authorImage":null,"authorSlug":null,"score":270,"views":null,"sharedCount":null,"likeCount":null,"sharedContent":null,"parent":{"__typename":"HnJson","localize":[{"title":"斯坦福大学的疫苗分配几乎排除了所有住院医生","locale":"zh"},{"title":"斯坦福大學的疫苗分配幾乎排除了所有住院醫生","locale":"zh-Hant"}]}},{"__typename":"SocialMediaPost","id":"HnPost-25478327","excerpt":"","slug":"/hn/25478327","title":"New York Times retracts core of podcast series ‘Caliphate’","date":"December 19, 2020","dateISO":"2020-12-19T17:50:40.790Z","datetime":"2020-12-19 17:50","tags":["story","Hacker News"],"image":null,"imageAlt":null,"provider":"Hacker News","thirdPartyId":"25478327","url":"https://news.ycombinator.com/item?id=25478327","originalUrl":"https://www.npr.org/2020/12/18/944594193/new-york-times-retracts-hit-podcast-series-caliphate-on-isis-executioner","imageRemote":"https://media.npr.org/assets/img/2020/12/09/gettyimages-1150199965_wide-ab0360b90473b0cb371461f5e460ddc12689e2e6.jpg?s=1400","video":null,"channel":null,"channelUrl":null,"author":"RickJWagner","authorUrl":"https://news.ycombinator.com/user?id=RickJWagner","authorImage":null,"authorSlug":null,"score":313,"views":null,"sharedCount":null,"likeCount":null,"sharedContent":null,"parent":{"__typename":"HnJson","localize":[{"title":"“纽约时报”撤回播客系列“哈里发国”的核心内容","locale":"zh"},{"title":"“紐約時報”撤回播客系列“哈里發國”的核心內容","locale":"zh-Hant"}]}},{"__typename":"SocialMediaPost","id":"HnPost-25475378","excerpt":"","slug":"/hn/25475378","title":"Why can we smell copper?","date":"December 19, 2020","dateISO":"2020-12-19T16:48:24.329Z","datetime":"2020-12-19 16:48","tags":["story","Hacker News"],"image":null,"imageAlt":null,"provider":"Hacker News","thirdPartyId":"25475378","url":"https://news.ycombinator.com/item?id=25475378","originalUrl":"https://chemistry.stackexchange.com/a/7917","imageRemote":"https://cdn.sstatic.net/Sites/chemistry/Img/apple-touch-icon@2.png?v=469e81391644","video":null,"channel":null,"channelUrl":null,"author":"Alupis","authorUrl":"https://news.ycombinator.com/user?id=Alupis","authorImage":null,"authorSlug":null,"score":125,"views":null,"sharedCount":null,"likeCount":null,"sharedContent":null,"parent":{"__typename":"HnJson","localize":[{"title":"为什么我们能闻到铜的味道？","locale":"zh"},{"title":"爲什麼我們能聞到銅的味道？","locale":"zh-Hant"}]}},{"__typename":"SocialMediaPost","id":"HnPost-25477110","excerpt":"","slug":"/hn/25477110","title":"Great American Rail Trail - A new way to travel across the US","date":"December 19, 2020","dateISO":"2020-12-19T16:48:24.329Z","datetime":"2020-12-19 16:48","tags":["story","Hacker News"],"image":null,"imageAlt":null,"provider":"Hacker News","thirdPartyId":"25477110","url":"https://news.ycombinator.com/item?id=25477110","originalUrl":"http://www.bbc.com/travel/story/20201213-a-new-way-to-travel-across-the-us","imageRemote":"https://ychef.files.bbci.co.uk/624x351/p09023nh.jpg","video":null,"channel":null,"channelUrl":null,"author":"pseudolus","authorUrl":"https://news.ycombinator.com/user?id=pseudolus","authorImage":null,"authorSlug":null,"score":315,"views":null,"sharedCount":null,"likeCount":null,"sharedContent":null,"parent":{"__typename":"HnJson","localize":[{"title":"伟大的美国铁路小径-一种穿越美国的新方式","locale":"zh"},{"title":"偉大的美國鐵路小徑-一種穿越美國的新方式","locale":"zh-Hant"}]}},{"__typename":"SocialMediaPost","id":"HnPost-25477535","excerpt":"","slug":"/hn/25477535","title":"How AltaVista, our first good search engine, fell into the digital abyss","date":"December 19, 2020","dateISO":"2020-12-19T16:48:24.329Z","datetime":"2020-12-19 16:48","tags":["story","Hacker News"],"image":null,"imageAlt":null,"provider":"Hacker News","thirdPartyId":"25477535","url":"https://news.ycombinator.com/item?id=25477535","originalUrl":"https://tedium.co/2020/12/15/altavista-history-digital-dot-com-domain-name","imageRemote":"https://images.tedium.co/uploads/tedium121520.gif","video":null,"channel":null,"channelUrl":null,"author":"chris_f","authorUrl":"https://news.ycombinator.com/user?id=chris_f","authorImage":null,"authorSlug":null,"score":348,"views":null,"sharedCount":null,"likeCount":null,"sharedContent":null,"parent":{"__typename":"HnJson","localize":[{"title":"我们第一个优秀的搜索引擎AltaVista是如何跌入数字深渊的","locale":"zh"},{"title":"我們第一個優秀的搜索引擎AltaVista是如何跌入數字深淵的","locale":"zh-Hant"}]}},{"__typename":"SocialMediaPost","id":"HnPost-25477664","excerpt":"","slug":"/hn/25477664","title":"California plan for a wealth tax on anyone who spends 60 days/year in the state","date":"December 19, 2020","dateISO":"2020-12-19T16:48:24.329Z","datetime":"2020-12-19 16:48","tags":["story","Hacker News"],"image":null,"imageAlt":null,"provider":"Hacker News","thirdPartyId":"25477664","url":"https://news.ycombinator.com/item?id=25477664","originalUrl":"https://www.wsj.com/articles/a-california-plan-to-chase-away-the-rich-then-keep-stalking-them-11608331448","imageRemote":"https://images.wsj.net/im-275197/social","video":null,"channel":null,"channelUrl":null,"author":"Bostonian","authorUrl":"https://news.ycombinator.com/user?id=Bostonian","authorImage":null,"authorSlug":null,"score":246,"views":null,"sharedCount":null,"likeCount":null,"sharedContent":null,"parent":{"__typename":"HnJson","localize":[{"title":"加州计划对任何在该州停留60天/年的人征收财产税","locale":"zh"},{"title":"加州計劃對任何在該州停留60天/年的人徵收財產稅","locale":"zh-Hant"}]}},{"__typename":"SocialMediaPost","id":"HnPost-25477734","excerpt":"","slug":"/hn/25477734","title":"Facebook: Free as in Bullshit","date":"December 19, 2020","dateISO":"2020-12-19T16:48:24.329Z","datetime":"2020-12-19 16:48","tags":["story","Hacker News"],"image":null,"imageAlt":null,"provider":"Hacker News","thirdPartyId":"25477734","url":"https://news.ycombinator.com/item?id=25477734","originalUrl":"https://daringfireball.net/2020/12/facebook_free_as_in_bullshit","imageRemote":"https://daringfireball.net/graphics/df-square-1024.png","video":null,"channel":null,"channelUrl":null,"author":"throw0101a","authorUrl":"https://news.ycombinator.com/user?id=throw0101a","authorImage":null,"authorSlug":null,"score":555,"views":null,"sharedCount":null,"likeCount":null,"sharedContent":null,"parent":{"__typename":"HnJson","localize":[{"title":"Facebook：免费，就像胡说八道","locale":"zh"},{"title":"Facebook：免費，就像胡說八道","locale":"zh-Hant"}]}},{"__typename":"SocialMediaPost","id":"HnPost-25476545","excerpt":"","slug":"/hn/25476545","title":"The Algorithmic Beauty of Plants","date":"December 19, 2020","dateISO":"2020-12-19T16:02:13.411Z","datetime":"2020-12-19 16:02","tags":["story","Hacker News"],"image":null,"imageAlt":null,"provider":"Hacker News","thirdPartyId":"25476545","url":"https://news.ycombinator.com/item?id=25476545","originalUrl":"http://algorithmicbotany.org/papers/#abop","imageRemote":"http://algorithmicbotany.org/bannerLoRes.png","video":null,"channel":null,"channelUrl":null,"author":"ingve","authorUrl":"https://news.ycombinator.com/user?id=ingve","authorImage":null,"authorSlug":null,"score":206,"views":null,"sharedCount":null,"likeCount":null,"sharedContent":null,"parent":{"__typename":"HnJson","localize":[{"title":"植物的算法美","locale":"zh"},{"title":"植物的算法美","locale":"zh-Hant"}]}},{"__typename":"SocialMediaPost","id":"HnPost-25476605","excerpt":"","slug":"/hn/25476605","title":"How Shopify Uses WebAssembly Outside of the Browser","date":"December 19, 2020","dateISO":"2020-12-19T14:44:33.206Z","datetime":"2020-12-19 14:44","tags":["story","Hacker News"],"image":null,"imageAlt":null,"provider":"Hacker News","thirdPartyId":"25476605","url":"https://news.ycombinator.com/item?id=25476605","originalUrl":"https://shopify.engineering/shopify-webassembly","imageRemote":"https://cdn.shopify.com/s/files/1/0779/4361/articles/frustrated-man-on-computer.jpg?v=1608300101","video":null,"channel":null,"channelUrl":null,"author":"oedmarap","authorUrl":"https://news.ycombinator.com/user?id=oedmarap","authorImage":null,"authorSlug":null,"score":243,"views":null,"sharedCount":null,"likeCount":null,"sharedContent":null,"parent":{"__typename":"HnJson","localize":[{"title":"Shopify如何在浏览器外部使用WebAssembly","locale":"zh"},{"title":"Shopify如何在瀏覽器外部使用WebAssembly","locale":"zh-Hant"}]}},{"__typename":"SocialMediaPost","id":"HnPost-25464354","excerpt":"","slug":"/hn/25464354","title":"Perceus: Garbage Free Reference Counting with Reuse [pdf]","date":"December 19, 2020","dateISO":"2020-12-19T12:59:31.064Z","datetime":"2020-12-19 12:59","tags":["story","Hacker News"],"image":null,"imageAlt":null,"provider":"Hacker News","thirdPartyId":"25464354","url":"https://news.ycombinator.com/item?id=25464354","originalUrl":"https://www.microsoft.com/en-us/research/uploads/prod/2020/11/perceus-tr-v1.pdf","imageRemote":null,"video":null,"channel":null,"channelUrl":null,"author":"Bootvis","authorUrl":"https://news.ycombinator.com/user?id=Bootvis","authorImage":null,"authorSlug":null,"score":153,"views":null,"sharedCount":null,"likeCount":null,"sharedContent":null,"parent":{"__typename":"HnJson","localize":[{"title":"Perceus：可重用的无垃圾引用计数[pdf]","locale":"zh"},{"title":"Perceus：可重用的無垃圾引用計數[pdf]","locale":"zh-Hant"}]}},{"__typename":"SocialMediaPost","id":"HnPost-25476470","excerpt":"","slug":"/hn/25476470","title":"Max: Boeing 'inappropriately coached' pilots in test after crashes","date":"December 19, 2020","dateISO":"2020-12-19T12:59:31.064Z","datetime":"2020-12-19 12:59","tags":["story","Hacker News"],"image":null,"imageAlt":null,"provider":"Hacker News","thirdPartyId":"25476470","url":"https://news.ycombinator.com/item?id=25476470","originalUrl":"https://www.bbc.com/news/world-us-canada-55372499","imageRemote":"https://ichef.bbci.co.uk/news/1024/branded_news/5F74/production/_116163442_hi064404561-1.jpg","video":null,"channel":null,"channelUrl":null,"author":"aluket","authorUrl":"https://news.ycombinator.com/user?id=aluket","authorImage":null,"authorSlug":null,"score":229,"views":null,"sharedCount":null,"likeCount":null,"sharedContent":null,"parent":{"__typename":"HnJson","localize":[{"title":"马克斯：波音公司在坠机后的测试中对飞行员进行了“不适当的指导”","locale":"zh"},{"title":"馬克斯：波音公司在墜機後的測試中對飛行員進行了“不適當的指導”","locale":"zh-Hant"}]}},{"__typename":"SocialMediaPost","id":"HnPost-25473330","excerpt":"","slug":"/hn/25473330","title":"Seuss-Star Trek mashup crashes and burns at Ninth Circuit","date":"December 19, 2020","dateISO":"2020-12-19T11:33:33.966Z","datetime":"2020-12-19 11:33","tags":["story","Hacker News"],"image":null,"imageAlt":null,"provider":"Hacker News","thirdPartyId":"25473330","url":"https://news.ycombinator.com/item?id=25473330","originalUrl":"https://www.courthousenews.com/seuss-star-trek-mash-up-crash-lands-with-ninth-circuit/","imageRemote":"https://i1.wp.com/www.courthousenews.com/wp-content/uploads/2020/04/BoldlyGo-ComicMix.jpg?fit=1200%2C776&ssl=1","video":null,"channel":null,"channelUrl":null,"author":"anigbrowl","authorUrl":"https://news.ycombinator.com/user?id=anigbrowl","authorImage":null,"authorSlug":null,"score":102,"views":null,"sharedCount":null,"likeCount":null,"sharedContent":null,"parent":{"__typename":"HnJson","localize":[{"title":"苏斯-星际迷航混搭在第九赛道坠毁和燃烧","locale":"zh"},{"title":"蘇斯-星際迷航混搭在第九賽道墜毀和燃燒","locale":"zh-Hant"}]}},{"__typename":"SocialMediaPost","id":"HnPost-25460032","excerpt":"","slug":"/hn/25460032","title":"Surrealist painting found in recycling bin at German airport","date":"December 19, 2020","dateISO":"2020-12-19T10:55:43.257Z","datetime":"2020-12-19 10:55","tags":["story","Hacker News"],"image":null,"imageAlt":null,"provider":"Hacker News","thirdPartyId":"25460032","url":"https://news.ycombinator.com/item?id=25460032","originalUrl":"https://www.smithsonianmag.com/smart-news/340000-surrealist-painting-was-found-recycling-bin-180976542/","imageRemote":"https://thumbs-prod.si-cdn.com/yyhgs2Gt4UQMnq4kpktJN0T7DWE=/fit-in/1600x0/filters:focal(1862x1171:1863x1172)/https://public-media.si-cdn.com/filer/7c/93/7c93466d-57bc-4a72-a8c1-c5071b2cc1a9/surrealismus2.jpg","video":null,"channel":null,"channelUrl":null,"author":"commons-tragedy","authorUrl":"https://news.ycombinator.com/user?id=commons-tragedy","authorImage":null,"authorSlug":null,"score":116,"views":null,"sharedCount":null,"likeCount":null,"sharedContent":null,"parent":{"__typename":"HnJson","localize":[{"title":"在德国机场回收站发现超现实主义绘画","locale":"zh"},{"title":"在德國機場回收站發現超現實主義繪畫","locale":"zh-Hant"}]}},{"__typename":"SocialMediaPost","id":"HnPost-25474183","excerpt":"","slug":"/hn/25474183","title":"Virtual Machine Detection in the Browser (2019)","date":"December 19, 2020","dateISO":"2020-12-19T09:40:51.531Z","datetime":"2020-12-19 09:40","tags":["story","Hacker News"],"image":null,"imageAlt":null,"provider":"Hacker News","thirdPartyId":"25474183","url":"https://news.ycombinator.com/item?id=25474183","originalUrl":"https://bannedit.github.io/Virtual-Machine-Detection-In-The-Browser.html","imageRemote":"https://bannedit.github.io/resources/profile.png","video":null,"channel":null,"channelUrl":null,"author":"blindm","authorUrl":"https://news.ycombinator.com/user?id=blindm","authorImage":null,"authorSlug":null,"score":164,"views":null,"sharedCount":null,"likeCount":null,"sharedContent":null,"parent":{"__typename":"HnJson","localize":[{"title":"浏览器中的虚拟机检测(2019年)","locale":"zh"},{"title":"瀏覽器中的虛擬機檢測(2019年)","locale":"zh-Hant"}]}},{"__typename":"SocialMediaPost","id":"HnPost-25466919","excerpt":"","slug":"/hn/25466919","title":"API-diff: a tool for side-by-side evaluations of JSON APIs","date":"December 19, 2020","dateISO":"2020-12-19T09:18:56.765Z","datetime":"2020-12-19 09:18","tags":["story","Hacker News"],"image":null,"imageAlt":null,"provider":"Hacker News","thirdPartyId":"25466919","url":"https://news.ycombinator.com/item?id=25466919","originalUrl":"https://radar.io/blog/open-source-api-diff-library","imageRemote":"https://images.ctfassets.net/f2vbu16fzuly/4ezSEexatjCQdzyG6Hz0mE/a3918eea799b02c17dc0b053f2a4daa6/image1.png","video":null,"channel":null,"channelUrl":null,"author":"blackmad","authorUrl":"https://news.ycombinator.com/user?id=blackmad","authorImage":null,"authorSlug":null,"score":107,"views":null,"sharedCount":null,"likeCount":null,"sharedContent":null,"parent":{"__typename":"HnJson","localize":[{"title":"api-diff：JSONAPI并行评估工具","locale":"zh"},{"title":"api-diff：JSONAPI並行評估工具","locale":"zh-Hant"}]}},{"__typename":"SocialMediaPost","id":"HnPost-25473302","excerpt":"","slug":"/hn/25473302","title":"AWS Joins the Blender Development Fund","date":"December 19, 2020","dateISO":"2020-12-19T07:34:05.686Z","datetime":"2020-12-19 07:34","tags":["story","Hacker News"],"image":null,"imageAlt":null,"provider":"Hacker News","thirdPartyId":"25473302","url":"https://news.ycombinator.com/item?id=25473302","originalUrl":"https://www.blender.org/press/aws-joins-the-blender-development-fund/","imageRemote":"https://www.blender.org/wp-content/uploads/2020/12/aws_dev_fund_blender_16x9-480x270.png","video":null,"channel":null,"channelUrl":null,"author":"EMIRELADERO","authorUrl":"https://news.ycombinator.com/user?id=EMIRELADERO","authorImage":null,"authorSlug":null,"score":137,"views":null,"sharedCount":null,"likeCount":null,"sharedContent":null,"parent":{"__typename":"HnJson","localize":[{"title":"AWS加入搅拌机发展基金","locale":"zh"},{"title":"AWS加入攪拌機發展基金","locale":"zh-Hant"}]}},{"__typename":"SocialMediaPost","id":"HnPost-25474066","excerpt":"","slug":"/hn/25474066","title":"FDA grants authorization to Moderna's Covid-19 vaccine","date":"December 19, 2020","dateISO":"2020-12-19T05:45:56.512Z","datetime":"2020-12-19 05:45","tags":["story","Hacker News"],"image":null,"imageAlt":null,"provider":"Hacker News","thirdPartyId":"25474066","url":"https://news.ycombinator.com/item?id=25474066","originalUrl":"https://www.statnews.com/2020/12/18/fda-eua-moderna-vaccine-covid19/","imageRemote":"https://www.statnews.com/wp-content/uploads/2020/12/GettyImages-1228042510-1024x576.jpg","video":null,"channel":null,"channelUrl":null,"author":"wh-uws","authorUrl":"https://news.ycombinator.com/user?id=wh-uws","authorImage":null,"authorSlug":null,"score":176,"views":null,"sharedCount":null,"likeCount":null,"sharedContent":null,"parent":{"__typename":"HnJson","localize":[{"title":"FDA批准现代冠状病毒疫苗","locale":"zh"},{"title":"FDA批准現代冠狀病毒疫苗","locale":"zh-Hant"}]}}]}},"pageContext":{"basePath":"/","pageType":"home","tagsFilter":{"id":{"glob":"!*Post-1"}},"filter":{"id":{"glob":"!*Post-1"}},"limit":25,"skip":2950,"totalPages":125,"total":3105,"currentPage":119,"maxWidth":1024,"maxHeight":512,"locale":"zh","hrefLang":"zh-Hans","originalPath":"/page/119","dateFormat":"YYYY-MM-DD"}},"staticQueryHashes":["1239077767","2506312863","2744905544","3025052997","3493603132","3493603132","3513215887","386998304"]}