{"componentChunkName":"component---gatsby-theme-buzzing-src-gatsby-theme-timeline-templates-posts-query-js","path":"/zh-Hant/tags/story/page/71","result":{"data":{"site":{"siteMetadata":{"title":"Reddit 热门","description":"用中文浏览Reddit热门内容","social":[{"name":"Twitter","url":"https://twitter.com/gatsbyjs","external":null,"prefetch":null},{"name":"GitHub","url":"https://github.com/gatsbyjs","external":null,"prefetch":null}],"menuLinks":[],"localize":[{"locale":"en","title":"Buzzing on Reddit","description":"See what's buzzing on Reddit in your native language","social":[{"name":"Reddit","url":"https://www.reddit.com/","external":true,"prefetch":null}],"menuLinks":[{"name":"Weekly Selection","url":"/issues","external":null,"prefetch":null},{"name":"RSS","url":"/rss.xml","external":null,"prefetch":false}]},{"locale":"zh-Hant","title":"Reddit 熱門","description":"用中文瀏覽Reddit熱門內容","social":null,"menuLinks":null}]}},"tagsGroup":{"group":[{"fieldValue":"ASK HN","totalCount":54},{"fieldValue":"Hacker News","totalCount":3107},{"fieldValue":"Poll","totalCount":1},{"fieldValue":"Show HN","totalCount":100},{"fieldValue":"poll","totalCount":1},{"fieldValue":"story","totalCount":3106}]},"allBlogPost":{"nodes":[{"__typename":"SocialMediaPost","id":"HnPost-25964865","excerpt":"","slug":"/hn/25964865","title":"Siliconpr0n: High Resolution Chip Maps","date":"January 30, 2021","dateISO":"2021-01-30T07:31:42.504Z","datetime":"2021-01-30 07:31","tags":["story","Hacker News"],"image":null,"imageAlt":null,"provider":"Hacker News","thirdPartyId":"25964865","url":"https://news.ycombinator.com/item?id=25964865","originalUrl":"https://siliconpr0n.org/map/","imageRemote":"https://siliconpr0n.org/icons/blank.gif","video":null,"channel":null,"channelUrl":null,"author":"lelf","authorUrl":"https://news.ycombinator.com/user?id=lelf","authorImage":null,"authorSlug":null,"score":290,"views":null,"sharedCount":null,"likeCount":null,"sharedContent":null,"parent":{"__typename":"HnJson","localize":[{"title":"Siliconpr0n: 高分辨率芯片地图","locale":"zh"},{"title":"Siliconpr0n: 高分辨率芯片地圖","locale":"zh-Hant"}]}},{"__typename":"SocialMediaPost","id":"HnPost-25964226","excerpt":"","slug":"/hn/25964226","title":"Element (Matrix chat app) suspended from the Google Play Store","date":"January 30, 2021","dateISO":"2021-01-30T05:49:16.432Z","datetime":"2021-01-30 05:49","tags":["story","Hacker News"],"image":null,"imageAlt":null,"provider":"Hacker News","thirdPartyId":"25964226","url":"https://news.ycombinator.com/item?id=25964226","originalUrl":"https://twitter.com/element_hq/status/1355290296947499013","imageRemote":null,"video":null,"channel":null,"channelUrl":null,"author":"redsolver","authorUrl":"https://news.ycombinator.com/user?id=redsolver","authorImage":null,"authorSlug":null,"score":2008,"views":null,"sharedCount":null,"likeCount":null,"sharedContent":null,"parent":{"__typename":"HnJson","localize":[{"title":"元素（Matrix聊天应用）从Google Play Store暂停使用。","locale":"zh"},{"title":"元素（Matrix聊天應用）從Google Play Store暫停使用。","locale":"zh-Hant"}]}},{"__typename":"SocialMediaPost","id":"HnPost-25957820","excerpt":"","slug":"/hn/25957820","title":"Johnson and Johnson single-shot vaccine appears 66% effective in global trial","date":"January 30, 2021","dateISO":"2021-01-30T05:31:10.589Z","datetime":"2021-01-30 05:31","tags":["story","Hacker News"],"image":null,"imageAlt":null,"provider":"Hacker News","thirdPartyId":"25957820","url":"https://news.ycombinator.com/item?id=25957820","originalUrl":"https://www.cbc.ca/news/health/johnson-johnson-covid-vaccine-trial-1.5893009","imageRemote":"https://i.cbc.ca/1.5893047.1611927695!/fileImage/httpImage/image.jpg_gen/derivatives/16x9_620/virus-outbreak-johnson-johnson-vaccine.jpg","video":null,"channel":null,"channelUrl":null,"author":"heyheyheysome","authorUrl":"https://news.ycombinator.com/user?id=heyheyheysome","authorImage":null,"authorSlug":null,"score":186,"views":null,"sharedCount":null,"likeCount":null,"sharedContent":null,"parent":{"__typename":"HnJson","localize":[{"title":"强生单针疫苗在全球试验中出现66%的有效性","locale":"zh"},{"title":"強生單針疫苗在全球試驗中出現66%的有效性","locale":"zh-Hant"}]}},{"__typename":"SocialMediaPost","id":"HnPost-25965264","excerpt":"","slug":"/hn/25965264","title":"Element Was Suspended from the Playstore","date":"January 30, 2021","dateISO":"2021-01-30T05:31:10.589Z","datetime":"2021-01-30 05:31","tags":["story","Hacker News"],"image":null,"imageAlt":null,"provider":"Hacker News","thirdPartyId":"25965264","url":"https://news.ycombinator.com/item?id=25965264","originalUrl":"https://play.google.com/store/apps/details?id=im.vector.app","imageRemote":null,"video":null,"channel":null,"channelUrl":null,"author":"lousken","authorUrl":"https://news.ycombinator.com/user?id=lousken","authorImage":null,"authorSlug":null,"score":184,"views":null,"sharedCount":null,"likeCount":null,"sharedContent":null,"parent":{"__typename":"HnJson","localize":[{"title":"元素被暂停从游戏商店","locale":"zh"},{"title":"元素被暫停從遊戲商店","locale":"zh-Hant"}]}},{"__typename":"SocialMediaPost","id":"HnPost-25960469","excerpt":"","slug":"/hn/25960469","title":"AstraZeneca/EU contract","date":"January 30, 2021","dateISO":"2021-01-30T00:39:16.030Z","datetime":"2021-01-30 00:39","tags":["story","Hacker News"],"image":null,"imageAlt":null,"provider":"Hacker News","thirdPartyId":"25960469","url":"https://news.ycombinator.com/item?id=25960469","originalUrl":"https://fragdenstaat.de/dokumente/8409-apa_-_astrazeneca/","imageRemote":"https://media.frag-den-staat.de/files/docs/46/23/6b/46236b0f073046719e99c60745623863/page-p1-original.png.1200x630_q85_crop.png","video":null,"channel":null,"channelUrl":null,"author":"hannob","authorUrl":"https://news.ycombinator.com/user?id=hannob","authorImage":null,"authorSlug":null,"score":199,"views":null,"sharedCount":null,"likeCount":null,"sharedContent":null,"parent":{"__typename":"HnJson","localize":[{"title":"阿斯利康/欧盟合同","locale":"zh"},{"title":"阿斯利康/歐盟合同","locale":"zh-Hant"}]}},{"__typename":"SocialMediaPost","id":"HnPost-25961053","excerpt":"","slug":"/hn/25961053","title":"Facebook reportedly prepping antitrust lawsuit against Apple on App Store rules","date":"January 29, 2021","dateISO":"2021-01-29T23:56:41.666Z","datetime":"2021-01-29 23:56","tags":["story","Hacker News"],"image":null,"imageAlt":null,"provider":"Hacker News","thirdPartyId":"25961053","url":"https://news.ycombinator.com/item?id=25961053","originalUrl":"https://www.businessinsider.com/facebook-apple-antitrust-lawsuit-app-store-2021-1","imageRemote":"https://i.insider.com/6012d8136dfbe10018e00757?width=1200&format=jpeg","video":null,"channel":null,"channelUrl":null,"author":"PieUser","authorUrl":"https://news.ycombinator.com/user?id=PieUser","authorImage":null,"authorSlug":null,"score":228,"views":null,"sharedCount":null,"likeCount":null,"sharedContent":null,"parent":{"__typename":"HnJson","localize":[{"title":"据报道，Facebook正准备就App Store规则对苹果提起反垄断诉讼。","locale":"zh"},{"title":"據報道，Facebook正準備就App Store規則對蘋果提起反壟斷訴訟。","locale":"zh-Hant"}]}},{"__typename":"SocialMediaPost","id":"HnPost-25957923","excerpt":"","slug":"/hn/25957923","title":"u/DeepFuckingValue and the GameStop Reddit mania","date":"January 29, 2021","dateISO":"2021-01-29T23:06:31.561Z","datetime":"2021-01-29 23:06","tags":["story","Hacker News"],"image":null,"imageAlt":null,"provider":"Hacker News","thirdPartyId":"25957923","url":"https://news.ycombinator.com/item?id=25957923","originalUrl":"https://www.wsj.com/articles/keith-gill-drove-the-gamestop-reddit-mania-he-talked-to-the-journal-11611931696","imageRemote":"https://images.wsj.net/im-292292/social","video":null,"channel":null,"channelUrl":null,"author":"gangwolf","authorUrl":"https://news.ycombinator.com/user?id=gangwolf","authorImage":null,"authorSlug":null,"score":486,"views":null,"sharedCount":null,"likeCount":null,"sharedContent":null,"parent":{"__typename":"HnJson","localize":[{"title":"u/DeepFuckingValue和GameStop Reddit的狂热。","locale":"zh"},{"title":"u/DeepFuckingValue和GameStop Reddit的狂熱。","locale":"zh-Hant"}]}},{"__typename":"SocialMediaPost","id":"HnPost-25960905","excerpt":"","slug":"/hn/25960905","title":"It’s time for police to stop lying to suspects","date":"January 29, 2021","dateISO":"2021-01-29T21:08:22.192Z","datetime":"2021-01-29 21:08","tags":["story","Hacker News"],"image":null,"imageAlt":null,"provider":"Hacker News","thirdPartyId":"25960905","url":"https://news.ycombinator.com/item?id=25960905","originalUrl":"https://www.nytimes.com/2021/01/29/opinion/false-confessions-police-interrogation.html","imageRemote":"https://static01.nyt.com/images/2021/01/29/opinion/29kassin/29kassin-facebookJumbo.jpg","video":null,"channel":null,"channelUrl":null,"author":"miles","authorUrl":"https://news.ycombinator.com/user?id=miles","authorImage":null,"authorSlug":null,"score":198,"views":null,"sharedCount":null,"likeCount":null,"sharedContent":null,"parent":{"__typename":"HnJson","localize":[{"title":"警察是时候停止对嫌疑人撒谎了","locale":"zh"},{"title":"警察是時候停止對嫌疑人撒謊了","locale":"zh-Hant"}]}},{"__typename":"SocialMediaPost","id":"HnPost-25959646","excerpt":"","slug":"/hn/25959646","title":"Making GitHub’s new homepage fast and performant","date":"January 29, 2021","dateISO":"2021-01-29T19:57:19.532Z","datetime":"2021-01-29 19:57","tags":["story","Hacker News"],"image":null,"imageAlt":null,"provider":"Hacker News","thirdPartyId":"25959646","url":"https://news.ycombinator.com/item?id=25959646","originalUrl":"https://github.blog/2021-01-29-making-githubs-new-homepage-fast-and-performant/","imageRemote":"https://github.blog/wp-content/uploads/2021/01/102393310-07478b80-3f8d-11eb-84eb-392d555ebd29.png?fit=1200%2C630","video":null,"channel":null,"channelUrl":null,"author":"todsacerdoti","authorUrl":"https://news.ycombinator.com/user?id=todsacerdoti","authorImage":null,"authorSlug":null,"score":257,"views":null,"sharedCount":null,"likeCount":null,"sharedContent":null,"parent":{"__typename":"HnJson","localize":[{"title":"让GitHub的新主页变得更快、更有性能","locale":"zh"},{"title":"讓GitHub的新主頁變得更快、更有性能","locale":"zh-Hant"}]}},{"__typename":"SocialMediaPost","id":"HnPost-25958138","excerpt":"","slug":"/hn/25958138","title":"Die Shots of the Raspberry Pi RP2040","date":"January 29, 2021","dateISO":"2021-01-29T19:45:14.559Z","datetime":"2021-01-29 19:45","tags":["story","Hacker News"],"image":null,"imageAlt":null,"provider":"Hacker News","thirdPartyId":"25958138","url":"https://news.ycombinator.com/item?id=25958138","originalUrl":"https://blog.adafruit.com/2021/01/29/die-shots-of-the-raspberry-pi-rp2040-chip-teardown-dieshot-reverseengineering-piday-johndmcmaster-raspberry_pi/","imageRemote":"https://cdn-blog.adafruit.com/uploads/2021/01/Untitled-196.jpg","video":null,"channel":null,"channelUrl":null,"author":"mmastrac","authorUrl":"https://news.ycombinator.com/user?id=mmastrac","authorImage":null,"authorSlug":null,"score":271,"views":null,"sharedCount":null,"likeCount":null,"sharedContent":null,"parent":{"__typename":"HnJson","localize":[{"title":"Raspberry Pi RP2040的模样照。","locale":"zh"},{"title":"Raspberry Pi RP2040的模樣照。","locale":"zh-Hant"}]}},{"__typename":"SocialMediaPost","id":"HnPost-25956670","excerpt":"","slug":"/hn/25956670","title":"Achieving 11M IOPS and 66 GB/S IO on a Single ThreadRipper Workstation","date":"January 29, 2021","dateISO":"2021-01-29T19:24:13.752Z","datetime":"2021-01-29 19:24","tags":["story","Hacker News"],"image":null,"imageAlt":null,"provider":"Hacker News","thirdPartyId":"25956670","url":"https://news.ycombinator.com/item?id=25956670","originalUrl":"https://tanelpoder.com/posts/11m-iops-with-10-ssds-on-amd-threadripper-pro-workstation/","imageRemote":"https://tanelpoder.com/files/images/iops-10ssds.jpg","video":null,"channel":null,"channelUrl":null,"author":"tanelpoder","authorUrl":"https://news.ycombinator.com/user?id=tanelpoder","authorImage":null,"authorSlug":null,"score":494,"views":null,"sharedCount":null,"likeCount":null,"sharedContent":null,"parent":{"__typename":"HnJson","localize":[{"title":"在单个ThreadRipper工作站上实现11M IOPS和66 GB/S IO","locale":"zh"},{"title":"在單個ThreadRipper工作站上實現11M IOPS和66 GB/S IO","locale":"zh-Hant"}]}},{"__typename":"SocialMediaPost","id":"HnPost-25954120","excerpt":"","slug":"/hn/25954120","title":"A small, delayed avalanche may have been responsible for the Dyatlov Incident","date":"January 29, 2021","dateISO":"2021-01-29T18:56:32.937Z","datetime":"2021-01-29 18:56","tags":["story","Hacker News"],"image":null,"imageAlt":null,"provider":"Hacker News","thirdPartyId":"25954120","url":"https://news.ycombinator.com/item?id=25954120","originalUrl":"https://www.nationalgeographic.com/science/2021/01/has-science-solved-history-greatest-adventure-mystery-dyatlov/","imageRemote":"https://www.nationalgeographic.com/content/dam/science/2021/01/28/Dyatlov/dyatlov_pass_incident_02.ngsversion.1611864630004.adapt.1900.1.jpg","video":null,"channel":null,"channelUrl":null,"author":"indigodaddy","authorUrl":"https://news.ycombinator.com/user?id=indigodaddy","authorImage":null,"authorSlug":null,"score":185,"views":null,"sharedCount":null,"likeCount":null,"sharedContent":null,"parent":{"__typename":"HnJson","localize":[{"title":"一场延迟的小型雪崩可能是迪亚特洛夫事件的元凶。","locale":"zh"},{"title":"一場延遲的小型雪崩可能是迪亞特洛夫事件的元兇。","locale":"zh-Hant"}]}},{"__typename":"SocialMediaPost","id":"HnPost-25957307","excerpt":"","slug":"/hn/25957307","title":"Pony – High Performance Safe Actor Programming","date":"January 29, 2021","dateISO":"2021-01-29T18:18:48.847Z","datetime":"2021-01-29 18:18","tags":["story","Hacker News"],"image":null,"imageAlt":null,"provider":"Hacker News","thirdPartyId":"25957307","url":"https://news.ycombinator.com/item?id=25957307","originalUrl":"https://www.ponylang.io/discover/#what-is-pony","imageRemote":"https://www.ponylang.io/images/logo.png","video":null,"channel":null,"channelUrl":null,"author":"ibraheemdev","authorUrl":"https://news.ycombinator.com/user?id=ibraheemdev","authorImage":null,"authorSlug":null,"score":322,"views":null,"sharedCount":null,"likeCount":null,"sharedContent":null,"parent":{"__typename":"HnJson","localize":[{"title":"Pony - 高性能安全演员编程","locale":"zh"},{"title":"Pony - 高性能安全演員編程","locale":"zh-Hant"}]}},{"__typename":"SocialMediaPost","id":"HnPost-25956502","excerpt":"","slug":"/hn/25956502","title":"PyO3: Rust Bindings for the Python Interpreter","date":"January 29, 2021","dateISO":"2021-01-29T17:53:17.868Z","datetime":"2021-01-29 17:53","tags":["story","Hacker News"],"image":null,"imageAlt":null,"provider":"Hacker News","thirdPartyId":"25956502","url":"https://news.ycombinator.com/item?id=25956502","originalUrl":"https://github.com/PyO3/pyo3","imageRemote":"https://avatars.githubusercontent.com/u/28156855?s=400&v=4","video":null,"channel":null,"channelUrl":null,"author":"batterylow","authorUrl":"https://news.ycombinator.com/user?id=batterylow","authorImage":null,"authorSlug":null,"score":304,"views":null,"sharedCount":null,"likeCount":null,"sharedContent":null,"parent":{"__typename":"HnJson","localize":[{"title":"PyO3.Rust Bindings 用于Python解释器的Rust Bindings。","locale":"zh"},{"title":"PyO3.Rust Bindings 用於Python解釋器的Rust Bindings。","locale":"zh-Hant"}]}},{"__typename":"SocialMediaPost","id":"HnPost-25946196","excerpt":"","slug":"/hn/25946196","title":"Citadel allegedly reloaded Shorts on GME before Robinhood put restrictions","date":"January 29, 2021","dateISO":"2021-01-29T16:08:31.341Z","datetime":"2021-01-29 16:08","tags":["story","Hacker News"],"image":null,"imageAlt":null,"provider":"Hacker News","thirdPartyId":"25946196","url":"https://news.ycombinator.com/item?id=25946196","originalUrl":"https://twitter.com/justinkan/status/1354853920762253315","imageRemote":null,"video":null,"channel":null,"channelUrl":null,"author":"vthallam","authorUrl":"https://news.ycombinator.com/user?id=vthallam","authorImage":null,"authorSlug":null,"score":165,"views":null,"sharedCount":null,"likeCount":null,"sharedContent":null,"parent":{"__typename":"HnJson","localize":[{"title":"据称，Citadel在Robinhood施加限制之前，在GME上重装了Shorts。","locale":"zh"},{"title":"據稱，Citadel在Robinhood施加限制之前，在GME上重裝了Shorts。","locale":"zh-Hant"}]}},{"__typename":"SocialMediaPost","id":"HnPost-25957748","excerpt":"","slug":"/hn/25957748","title":"Statement of SEC Regarding Recent Market Volatility","date":"January 29, 2021","dateISO":"2021-01-29T15:53:23.364Z","datetime":"2021-01-29 15:53","tags":["story","Hacker News"],"image":null,"imageAlt":null,"provider":"Hacker News","thirdPartyId":"25957748","url":"https://news.ycombinator.com/item?id=25957748","originalUrl":"https://www.sec.gov/news/public-statement/joint-statement-market-volatility-2021-01-29","imageRemote":"https://www.sec.gov/files/sec-logo.png","video":null,"channel":null,"channelUrl":null,"author":"TeMPOraL","authorUrl":"https://news.ycombinator.com/user?id=TeMPOraL","authorImage":null,"authorSlug":null,"score":571,"views":null,"sharedCount":null,"likeCount":null,"sharedContent":null,"parent":{"__typename":"HnJson","localize":[{"title":"证监会关于近期市场波动的声明","locale":"zh"},{"title":"證監會關於近期市場波動的聲明","locale":"zh-Hant"}]}},{"__typename":"SocialMediaPost","id":"HnPost-25956551","excerpt":"","slug":"/hn/25956551","title":"Factorio 1.1 stable","date":"January 29, 2021","dateISO":"2021-01-29T15:00:10.373Z","datetime":"2021-01-29 15:00","tags":["story","Hacker News"],"image":null,"imageAlt":null,"provider":"Hacker News","thirdPartyId":"25956551","url":"https://news.ycombinator.com/item?id=25956551","originalUrl":"https://factorio.com/blog/post/fff-364","imageRemote":"https://cdn.factorio.com/assets/img/blog/fff-364-1-1-stable-postcard-no-text.png","video":null,"channel":null,"channelUrl":null,"author":"OrderlyTiamat","authorUrl":"https://news.ycombinator.com/user?id=OrderlyTiamat","authorImage":null,"authorSlug":null,"score":468,"views":null,"sharedCount":null,"likeCount":null,"sharedContent":null,"parent":{"__typename":"HnJson","localize":[{"title":"Factorio 1.1稳定","locale":"zh"},{"title":"Factorio 1.1穩定","locale":"zh-Hant"}]}},{"__typename":"SocialMediaPost","id":"HnPost-25953781","excerpt":"","slug":"/hn/25953781","title":"Police Say They Use Facial Recognition Despite Bans","date":"January 29, 2021","dateISO":"2021-01-29T14:52:42.081Z","datetime":"2021-01-29 14:52","tags":["story","Hacker News"],"image":null,"imageAlt":null,"provider":"Hacker News","thirdPartyId":"25953781","url":"https://news.ycombinator.com/item?id=25953781","originalUrl":"https://themarkup.org/news/2021/01/28/police-say-they-can-use-facial-recognition-despite-bans","imageRemote":"https://mrkp-static-production.themarkup.org/uploads/2021/01/face-rec-1200x628.jpg","video":null,"channel":null,"channelUrl":null,"author":"atg_abhishek","authorUrl":"https://news.ycombinator.com/user?id=atg_abhishek","authorImage":null,"authorSlug":null,"score":304,"views":null,"sharedCount":null,"likeCount":null,"sharedContent":null,"parent":{"__typename":"HnJson","localize":[{"title":"警方表示，尽管有禁令，但他们还是使用了面部识别。","locale":"zh"},{"title":"警方表示，儘管有禁令，但他們還是使用了面部識別。","locale":"zh-Hant"}]}},{"__typename":"SocialMediaPost","id":"HnPost-25955853","excerpt":"","slug":"/hn/25955853","title":"Shorting and Indian capital markets","date":"January 29, 2021","dateISO":"2021-01-29T13:15:58.696Z","datetime":"2021-01-29 13:15","tags":["story","Hacker News"],"image":null,"imageAlt":null,"provider":"Hacker News","thirdPartyId":"25955853","url":"https://news.ycombinator.com/item?id=25955853","originalUrl":"https://zerodha.com/z-connect/trending/shorting-and-indian-capital-markets","imageRemote":"https://zerodha.com/z-connect/wp-content/uploads/2021/01/Shorting-Indian-capital-markets-ZConnect.png","video":null,"channel":null,"channelUrl":null,"author":"chedine","authorUrl":"https://news.ycombinator.com/user?id=chedine","authorImage":null,"authorSlug":null,"score":225,"views":null,"sharedCount":null,"likeCount":null,"sharedContent":null,"parent":{"__typename":"HnJson","localize":[{"title":"做空和印度资本市场","locale":"zh"},{"title":"做空和印度資本市場","locale":"zh-Hant"}]}},{"__typename":"SocialMediaPost","id":"HnPost-25955216","excerpt":"","slug":"/hn/25955216","title":"Google Deleted over 100k Negative Robinhood Reviews","date":"January 29, 2021","dateISO":"2021-01-29T10:16:49.114Z","datetime":"2021-01-29 10:16","tags":["story","Hacker News"],"image":null,"imageAlt":null,"provider":"Hacker News","thirdPartyId":"25955216","url":"https://news.ycombinator.com/item?id=25955216","originalUrl":"https://www.reddit.com/r/wallstreetbets/comments/l7bh1m/not_sure_if_anyone_posted_this_here_but_yikes/","imageRemote":"https://preview.redd.it/76bcnhs2k5e61.jpg?auto=webp&s=dfd8b1d7a14ce5525b2fe3121957b73773934ed1","video":null,"channel":null,"channelUrl":null,"author":"JacKTrocinskI","authorUrl":"https://news.ycombinator.com/user?id=JacKTrocinskI","authorImage":null,"authorSlug":null,"score":251,"views":null,"sharedCount":null,"likeCount":null,"sharedContent":null,"parent":{"__typename":"HnJson","localize":[{"title":"谷歌删除了超过10万条罗宾汉的负面评论。","locale":"zh"},{"title":"谷歌刪除了超過10萬條羅賓漢的負面評論。","locale":"zh-Hant"}]}},{"__typename":"SocialMediaPost","id":"HnPost-25952300","excerpt":"","slug":"/hn/25952300","title":"Suck It, Wall Street","date":"January 29, 2021","dateISO":"2021-01-29T08:59:08.357Z","datetime":"2021-01-29 08:59","tags":["story","Hacker News"],"image":null,"imageAlt":null,"provider":"Hacker News","thirdPartyId":"25952300","url":"https://news.ycombinator.com/item?id=25952300","originalUrl":"https://taibbi.substack.com/p/suck-it-wall-street","imageRemote":"https://cdn.substack.com/image/fetch/h_600,c_limit,f_auto,q_auto:good,fl_progressive:steep/https%3A%2F%2Fbucketeer-e05bbc84-baa3-437e-9518-adb32be77984.s3.amazonaws.com%2Fpublic%2Fimages%2F6ed7d5e7-5253-4794-bd7a-c00cf1b87d4e_1894x1250.png","video":null,"channel":null,"channelUrl":null,"author":"undefined1","authorUrl":"https://news.ycombinator.com/user?id=undefined1","authorImage":null,"authorSlug":null,"score":268,"views":null,"sharedCount":null,"likeCount":null,"sharedContent":null,"parent":{"__typename":"HnJson","localize":[{"title":"去死吧，华尔街","locale":"zh"},{"title":"去死吧，華爾街","locale":"zh-Hant"}]}},{"__typename":"SocialMediaPost","id":"HnPost-25954539","excerpt":"","slug":"/hn/25954539","title":"Robinhood, in Need of Cash, Raises $1B from Its Investors","date":"January 29, 2021","dateISO":"2021-01-29T07:58:01.521Z","datetime":"2021-01-29 07:58","tags":["story","Hacker News"],"image":null,"imageAlt":null,"provider":"Hacker News","thirdPartyId":"25954539","url":"https://news.ycombinator.com/item?id=25954539","originalUrl":"https://www.nytimes.com/2021/01/29/technology/robinhood-fundraising.html","imageRemote":"https://static01.nyt.com/images/2021/01/28/multimedia/28-robinhood-funds-2/28-robinhood-funds-2-facebookJumbo.jpg","video":null,"channel":null,"channelUrl":null,"author":"coloneltcb","authorUrl":"https://news.ycombinator.com/user?id=coloneltcb","authorImage":null,"authorSlug":null,"score":640,"views":null,"sharedCount":null,"likeCount":null,"sharedContent":null,"parent":{"__typename":"HnJson","localize":[{"title":"需要现金的Robinhood从投资人那里筹集了10亿美元的资金","locale":"zh"},{"title":"需要現金的Robinhood從投資人那裏籌集了10億美元的資金","locale":"zh-Hant"}]}},{"__typename":"SocialMediaPost","id":"HnPost-25934286","excerpt":"","slug":"/hn/25934286","title":"Opening Up the Samsung Q60 Series Smart TV (2019)","date":"January 29, 2021","dateISO":"2021-01-29T06:59:05.087Z","datetime":"2021-01-29 06:59","tags":["story","Hacker News"],"image":null,"imageAlt":null,"provider":"Hacker News","thirdPartyId":"25934286","url":"https://news.ycombinator.com/item?id=25934286","originalUrl":"https://labs.f-secure.com/blog/samsung-q60r-smart-tv-opening-up-the-samsung-q60-series-smart-tv/","imageRemote":null,"video":null,"channel":null,"channelUrl":null,"author":"wglb","authorUrl":"https://news.ycombinator.com/user?id=wglb","authorImage":null,"authorSlug":null,"score":165,"views":null,"sharedCount":null,"likeCount":null,"sharedContent":null,"parent":{"__typename":"HnJson","localize":[{"title":"打开三星Q60系列智能电视(2019年)","locale":"zh"},{"title":"打開三星Q60系列智能電視(2019年)","locale":"zh-Hant"}]}},{"__typename":"SocialMediaPost","id":"HnPost-25945397","excerpt":"","slug":"/hn/25945397","title":"A recent poll of employees who are working remotely","date":"January 29, 2021","dateISO":"2021-01-29T06:59:05.087Z","datetime":"2021-01-29 06:59","tags":["story","Hacker News"],"image":null,"imageAlt":null,"provider":"Hacker News","thirdPartyId":"25945397","url":"https://news.ycombinator.com/item?id=25945397","originalUrl":"https://today.yougov.com/topics/economy/articles-reports/2021/01/19/remote-employees-work-from-home-poll","imageRemote":"https://d18lkz4dllo6v2.cloudfront.net/cumulus_uploads/entry/33739/work_from_home_2021_poll_survey_data.jpg?pw=1200","video":null,"channel":null,"channelUrl":null,"author":"Simon_M","authorUrl":"https://news.ycombinator.com/user?id=Simon_M","authorImage":null,"authorSlug":null,"score":166,"views":null,"sharedCount":null,"likeCount":null,"sharedContent":null,"parent":{"__typename":"HnJson","localize":[{"title":"最近对远程工作的员工进行了一项调查。","locale":"zh"},{"title":"最近對遠程工作的員工進行了一項調查。","locale":"zh-Hant"}]}},{"__typename":"SocialMediaPost","id":"HnPost-25953668","excerpt":"","slug":"/hn/25953668","title":"A Look at iMessage in iOS 14","date":"January 29, 2021","dateISO":"2021-01-29T06:31:49.932Z","datetime":"2021-01-29 06:31","tags":["story","Hacker News"],"image":null,"imageAlt":null,"provider":"Hacker News","thirdPartyId":"25953668","url":"https://news.ycombinator.com/item?id=25953668","originalUrl":"https://googleprojectzero.blogspot.com/2021/01/a-look-at-imessage-in-ios-14.html","imageRemote":"https://1.bp.blogspot.com/-x-zo-b-w89w/YBCYLpT52pI/AAAAAAAAasA/wy9SBgIYdfImsv3Y6VAO4qmQczmHFEI9gCNcBGAsYHQ/w1200-h630-p-k-no-nu/image1.png","video":null,"channel":null,"channelUrl":null,"author":"kccqzy","authorUrl":"https://news.ycombinator.com/user?id=kccqzy","authorImage":null,"authorSlug":null,"score":528,"views":null,"sharedCount":null,"likeCount":null,"sharedContent":null,"parent":{"__typename":"HnJson","localize":[{"title":"看看iOS 14中的iMessage","locale":"zh"},{"title":"看看iOS 14中的iMessage","locale":"zh-Hant"}]}}]}},"pageContext":{"basePath":"/","pageType":"tag","tag":"story","tagsFilter":{"id":{"glob":"!*Post-1"}},"filter":{"id":{"glob":"!*Post-1"},"tags":{"eq":"story"}},"limit":25,"skip":1750,"total":3106,"totalPages":125,"currentPage":71,"maxWidth":1024,"maxHeight":512,"locale":"zh-Hant","hrefLang":"zh-Hant","originalPath":"/tags/story/page/71","dateFormat":"YYYY-MM-DD"}},"staticQueryHashes":["1239077767","2506312863","2744905544","3025052997","3493603132","3493603132","3513215887","386998304"]}