{"componentChunkName":"component---gatsby-theme-buzzing-src-gatsby-theme-timeline-templates-posts-query-js","path":"/zh-Hant/tags/story/page/5","result":{"data":{"site":{"siteMetadata":{"title":"Reddit 热门","description":"用中文浏览Reddit热门内容","social":[{"name":"Twitter","url":"https://twitter.com/gatsbyjs","external":null,"prefetch":null},{"name":"GitHub","url":"https://github.com/gatsbyjs","external":null,"prefetch":null}],"menuLinks":[],"localize":[{"locale":"en","title":"Buzzing on Reddit","description":"See what's buzzing on Reddit in your native language","social":[{"name":"Reddit","url":"https://www.reddit.com/","external":true,"prefetch":null}],"menuLinks":[{"name":"Weekly Selection","url":"/issues","external":null,"prefetch":null},{"name":"RSS","url":"/rss.xml","external":null,"prefetch":false}]},{"locale":"zh-Hant","title":"Reddit 熱門","description":"用中文瀏覽Reddit熱門內容","social":null,"menuLinks":null}]}},"tagsGroup":{"group":[{"fieldValue":"ASK HN","totalCount":22},{"fieldValue":"Bitcoin","totalCount":3},{"fieldValue":"Hacker News","totalCount":911},{"fieldValue":"Poll","totalCount":1},{"fieldValue":"Show HN","totalCount":34},{"fieldValue":"investing","totalCount":195},{"fieldValue":"poll","totalCount":1},{"fieldValue":"reddit","totalCount":759},{"fieldValue":"science","totalCount":1},{"fieldValue":"stocks","totalCount":333},{"fieldValue":"story","totalCount":910},{"fieldValue":"tweet","totalCount":274},{"fieldValue":"wallstreetbets","totalCount":231}]},"allBlogPost":{"nodes":[{"__typename":"SocialMediaPost","id":"HnPost-25681229","excerpt":"","slug":"/hn/25681229","title":"'Exercised' Explains Why It Can Be Hard to Commit to Working Out","date":"January 10, 2021","dateISO":"2021-01-10T15:32:20.094Z","datetime":"2021-01-10 15:32","tags":["story","Hacker News"],"image":null,"imageAlt":null,"provider":"Hacker News","thirdPartyId":"25681229","url":"https://news.ycombinator.com/item?id=25681229","originalUrl":"https://www.npr.org/2021/01/05/953249677/exercised-explains-why-it-can-be-hard-to-commit-to-working-out-and-why-we-should","imageRemote":"https://media.npr.org/assets/img/2021/01/05/exercised_wide-c549b115df265258cb5f90cb0be97633573597ce.jpg?s=1400","video":null,"channel":null,"channelUrl":null,"author":"Hooke","authorUrl":"https://news.ycombinator.com/user?id=Hooke","authorImage":null,"authorSlug":null,"score":200,"views":null,"sharedCount":null,"likeCount":null,"sharedContent":null,"parent":{"__typename":"HnJson","localize":[{"title":"“锻炼”解释了为什么很难致力于锻炼","locale":"zh"},{"title":"“鍛鍊”解釋了爲什麼很難致力於鍛鍊","locale":"zh-Hant"}]}},{"__typename":"SocialMediaPost","id":"HnPost-25707332","excerpt":"","slug":"/hn/25707332","title":"EFF's response to social media companies' decisions to block Trump’s accounts","date":"January 10, 2021","dateISO":"2021-01-10T13:23:25.073Z","datetime":"2021-01-10 13:23","tags":["story","Hacker News"],"image":null,"imageAlt":null,"provider":"Hacker News","thirdPartyId":"25707332","url":"https://news.ycombinator.com/item?id=25707332","originalUrl":"https://www.eff.org/deeplinks/2021/01/eff-response-social-media-companies-decision-block-president-trumps-accounts","imageRemote":"https://www.eff.org/files/banner_library/trump-twitter-1.jpg","video":null,"channel":null,"channelUrl":null,"author":"jelliclesfarm","authorUrl":"https://news.ycombinator.com/user?id=jelliclesfarm","authorImage":null,"authorSlug":null,"score":201,"views":null,"sharedCount":null,"likeCount":null,"sharedContent":null,"parent":{"__typename":"HnJson","localize":[{"title":"EFF对社交媒体公司决定开通挡路特朗普账户的回应","locale":"zh"},{"title":"EFF對社交媒體公司決定開通擋路特朗普賬戶的迴應","locale":"zh-Hant"}]}},{"__typename":"SocialMediaPost","id":"HnPost-25704433","excerpt":"","slug":"/hn/25704433","title":"Ugandan government blocks Google Play Store, Apple App Store, and YouTube","date":"January 10, 2021","dateISO":"2021-01-10T09:25:03.792Z","datetime":"2021-01-10 09:25","tags":["story","Hacker News"],"image":null,"imageAlt":null,"provider":"Hacker News","thirdPartyId":"25704433","url":"https://news.ycombinator.com/item?id=25704433","originalUrl":"https://techjaja.com/govt-blocks-google-playstore-apple-appstore-and-youtube/","imageRemote":"https://techjaja.com/wp-content/uploads/2021/01/UCC-blocks-app-stores-and-youtube.jpg","video":null,"channel":null,"channelUrl":null,"author":"drsim","authorUrl":"https://news.ycombinator.com/user?id=drsim","authorImage":null,"authorSlug":null,"score":203,"views":null,"sharedCount":null,"likeCount":null,"sharedContent":null,"parent":{"__typename":"HnJson","localize":[{"title":"乌干达政府屏蔽Google Play Store、Apple App Store和YouTube","locale":"zh"},{"title":"烏干達政府屏蔽Google Play Store、Apple App Store和YouTube","locale":"zh-Hant"}]}},{"__typename":"SocialMediaPost","id":"HnPost-25704208","excerpt":"","slug":"/hn/25704208","title":"Advice from a 104-year-old PhD student [video]","date":"January 10, 2021","dateISO":"2021-01-10T08:54:44.807Z","datetime":"2021-01-10 08:54","tags":["story","Hacker News"],"image":null,"imageAlt":null,"provider":"Hacker News","thirdPartyId":"25704208","url":"https://news.ycombinator.com/item?id=25704208","originalUrl":"https://www.bbc.com/reel/video/p090s793/advice-from-a-104-year-old-phd-student","imageRemote":"https://ychef.files.bbci.co.uk/1376x774/p090tmd9.jpg","video":null,"channel":null,"channelUrl":null,"author":"hmart","authorUrl":"https://news.ycombinator.com/user?id=hmart","authorImage":null,"authorSlug":null,"score":202,"views":null,"sharedCount":null,"likeCount":null,"sharedContent":null,"parent":{"__typename":"HnJson","localize":[{"title":"一位104岁博士生的建议[视频]","locale":"zh"},{"title":"一位104歲博士生的建議[視頻]","locale":"zh-Hant"}]}},{"__typename":"SocialMediaPost","id":"HnPost-25710055","excerpt":"","slug":"/hn/25710055","title":"Wikipedia is 20","date":"January 10, 2021","dateISO":"2021-01-10T08:10:36.827Z","datetime":"2021-01-10 08:10","tags":["story","Hacker News"],"image":null,"imageAlt":null,"provider":"Hacker News","thirdPartyId":"25710055","url":"https://news.ycombinator.com/item?id=25710055","originalUrl":"https://www.economist.com/international/2021/01/09/wikipedia-is-20-and-its-reputation-has-never-been-higher","imageRemote":"https://www.economist.com/img/b/1280/720/90/sites/default/files/images/print-edition/20210109_IRD001_0.jpg","video":null,"channel":null,"channelUrl":null,"author":"kylebarron","authorUrl":"https://news.ycombinator.com/user?id=kylebarron","authorImage":null,"authorSlug":null,"score":219,"views":null,"sharedCount":null,"likeCount":null,"sharedContent":null,"parent":{"__typename":"HnJson","localize":[{"title":"维基百科20岁","locale":"zh"},{"title":"維基百科20歲","locale":"zh-Hant"}]}},{"__typename":"SocialMediaPost","id":"HnPost-25706252","excerpt":"","slug":"/hn/25706252","title":"An Invisible Tax on the Web: Video Codecs (2018)","date":"January 10, 2021","dateISO":"2021-01-10T07:42:46.663Z","datetime":"2021-01-10 07:42","tags":["story","Hacker News"],"image":null,"imageAlt":null,"provider":"Hacker News","thirdPartyId":"25706252","url":"https://news.ycombinator.com/item?id=25706252","originalUrl":"https://blog.mozilla.org/blog/2018/07/11/royalty-free-web-video-codecs/","imageRemote":"https://blog.mozilla.org/wp-content/uploads/2018/07/SP_Moz.org_Blogheader_AV1-18-1400x700.png","video":null,"channel":null,"channelUrl":null,"author":"doener","authorUrl":"https://news.ycombinator.com/user?id=doener","authorImage":null,"authorSlug":null,"score":201,"views":null,"sharedCount":null,"likeCount":null,"sharedContent":null,"parent":{"__typename":"HnJson","localize":[{"title":"网络上的无形之税：视频编解码器(2018)","locale":"zh"},{"title":"網絡上的無形之稅：視頻編解碼器(2018)","locale":"zh-Hant"}]}},{"__typename":"SocialMediaPost","id":"HnPost-25707059","excerpt":"","slug":"/hn/25707059","title":"PeerTube v3","date":"January 10, 2021","dateISO":"2021-01-10T05:07:33.299Z","datetime":"2021-01-10 05:07","tags":["story","Hacker News"],"image":null,"imageAlt":null,"provider":"Hacker News","thirdPartyId":"25707059","url":"https://news.ycombinator.com/item?id=25707059","originalUrl":"https://framablog.org/2021/01/07/peertube-v3-its-a-live-a-liiiiive/","imageRemote":"https://framablog.org/wp-content/uploads/2021/01/2020-12-11_peertube-V3_by-David-Revoy.jpeg","video":null,"channel":null,"channelUrl":null,"author":"spzx","authorUrl":"https://news.ycombinator.com/user?id=spzx","authorImage":null,"authorSlug":null,"score":236,"views":null,"sharedCount":null,"likeCount":null,"sharedContent":null,"parent":{"__typename":"HnJson","localize":[{"title":"PeerTube v3","locale":"zh"},{"title":"PeerTube v3","locale":"zh-Hant"}]}},{"__typename":"SocialMediaPost","id":"HnPost-25707410","excerpt":"","slug":"/hn/25707410","title":"Apple Removes Parler from App Store","date":"January 10, 2021","dateISO":"2021-01-10T05:07:33.299Z","datetime":"2021-01-10 05:07","tags":["story","Hacker News"],"image":null,"imageAlt":null,"provider":"Hacker News","thirdPartyId":"25707410","url":"https://news.ycombinator.com/item?id=25707410","originalUrl":"https://www.cnn.com/2021/01/09/tech/parler-suspended-apple-app-store/index.html","imageRemote":"https://cdn.cnn.com/cnnnext/dam/assets/210108200907-parler-app-stock-super-tease.jpg","video":null,"channel":null,"channelUrl":null,"author":"ffwang2","authorUrl":"https://news.ycombinator.com/user?id=ffwang2","authorImage":null,"authorSlug":null,"score":205,"views":null,"sharedCount":null,"likeCount":null,"sharedContent":null,"parent":{"__typename":"HnJson","localize":[{"title":"苹果将Parler从App Store中移除","locale":"zh"},{"title":"蘋果將Parler從App Store中移除","locale":"zh-Hant"}]}},{"__typename":"SocialMediaPost","id":"HnPost-25707959","excerpt":"","slug":"/hn/25707959","title":"Amazon Is Booting Parler Off AWS","date":"January 10, 2021","dateISO":"2021-01-10T03:30:08.635Z","datetime":"2021-01-10 03:30","tags":["story","Hacker News"],"image":null,"imageAlt":null,"provider":"Hacker News","thirdPartyId":"25707959","url":"https://news.ycombinator.com/item?id=25707959","originalUrl":"https://www.buzzfeednews.com/article/johnpaczkowski/amazon-parler-aws","imageRemote":"https://img.buzzfeed.com/buzzfeed-static/static/2021-01/10/1/asset/d40f0494ab2a/sub-buzz-2307-1610242859-1.png?crop=1207:631;0,215","video":null,"channel":null,"channelUrl":null,"author":"muglug","authorUrl":"https://news.ycombinator.com/user?id=muglug","authorImage":null,"authorSlug":null,"score":344,"views":null,"sharedCount":null,"likeCount":null,"sharedContent":null,"parent":{"__typename":"HnJson","localize":[{"title":"亚马逊正在将Parler从AWS启动","locale":"zh"},{"title":"亞馬遜正在將Parler從AWS啓動","locale":"zh-Hant"}]}},{"__typename":"SocialMediaPost","id":"HnPost-25701959","excerpt":"","slug":"/hn/25701959","title":"Why mmap is faster than system calls","date":"January 09, 2021","dateISO":"2021-01-09T22:38:45.974Z","datetime":"2021-01-09 22:38","tags":["story","Hacker News"],"image":null,"imageAlt":null,"provider":"Hacker News","thirdPartyId":"25701959","url":"https://news.ycombinator.com/item?id=25701959","originalUrl":"https://sasha-f.medium.com/why-mmap-is-faster-than-system-calls-24718e75ab37","imageRemote":"https://miro.medium.com/max/766/1*vb2BNv3ZjZAY0Zg34Dfsyg.png","video":null,"channel":null,"channelUrl":null,"author":"vinnyglennon","authorUrl":"https://news.ycombinator.com/user?id=vinnyglennon","authorImage":null,"authorSlug":null,"score":219,"views":null,"sharedCount":null,"likeCount":null,"sharedContent":null,"parent":{"__typename":"HnJson","localize":[{"title":"为什么mmap比系统调用快","locale":"zh"},{"title":"爲什麼mmap比系統調用快","locale":"zh-Hant"}]}},{"__typename":"SocialMediaPost","id":"HnPost-25701144","excerpt":"","slug":"/hn/25701144","title":"Pesticide believed to kill bees is authorised for use in England","date":"January 09, 2021","dateISO":"2021-01-09T20:41:14.503Z","datetime":"2021-01-09 20:41","tags":["story","Hacker News"],"image":null,"imageAlt":null,"provider":"Hacker News","thirdPartyId":"25701144","url":"https://news.ycombinator.com/item?id=25701144","originalUrl":"https://www.theguardian.com/environment/2021/jan/09/pesticide-believed-kill-bees-authorised-use-england-eu-farmers","imageRemote":"https://i.guim.co.uk/img/media/f91574996ef688711251173ec988d767fd6f6677/0_369_5642_3385/master/5642.jpg?width=1200&height=630&quality=85&auto=format&fit=crop&overlay-align=bottom%2Cleft&overlay-width=100p&overlay-base64=L2ltZy9zdGF0aWMvb3ZlcmxheXMvdGctZGVmYXVsdC5wbmc&enable=upscale&s=660bbe5b0a2c1f6044df8826e508fc45","video":null,"channel":null,"channelUrl":null,"author":"montalbano","authorUrl":"https://news.ycombinator.com/user?id=montalbano","authorImage":null,"authorSlug":null,"score":214,"views":null,"sharedCount":null,"likeCount":null,"sharedContent":null,"parent":{"__typename":"HnJson","localize":[{"title":"据信能杀死蜜蜂的杀虫剂在英国获准使用","locale":"zh"},{"title":"據信能殺死蜜蜂的殺蟲劑在英國獲准使用","locale":"zh-Hant"}]}},{"__typename":"SocialMediaPost","id":"HnPost-25701999","excerpt":"","slug":"/hn/25701999","title":"The Capitol Attack Doesn’t Justify Expanding Surveillance","date":"January 09, 2021","dateISO":"2021-01-09T20:06:39.640Z","datetime":"2021-01-09 20:06","tags":["story","Hacker News"],"image":null,"imageAlt":null,"provider":"Hacker News","thirdPartyId":"25701999","url":"https://news.ycombinator.com/item?id=25701999","originalUrl":"https://www.wired.com/story/opinion-the-capitol-attack-doesnt-justify-expanding-surveillance/","imageRemote":"https://media.wired.com/photos/5ff9dc442a8cca4df5367d78/191:100/w_1280,c_limit/Oped-Capitol-Hill-Insurrection-1230454711.jpg","video":null,"channel":null,"channelUrl":null,"author":"jimmy2020","authorUrl":"https://news.ycombinator.com/user?id=jimmy2020","authorImage":null,"authorSlug":null,"score":214,"views":null,"sharedCount":null,"likeCount":null,"sharedContent":null,"parent":{"__typename":"HnJson","localize":[{"title":"国会大厦的袭击不能成为扩大监视的理由","locale":"zh"},{"title":"國會大廈的襲擊不能成爲擴大監視的理由","locale":"zh-Hant"}]}},{"__typename":"SocialMediaPost","id":"HnPost-25698990","excerpt":"","slug":"/hn/25698990","title":"Akin's Laws of Spacecraft Design","date":"January 09, 2021","dateISO":"2021-01-09T19:02:26.827Z","datetime":"2021-01-09 19:02","tags":["story","Hacker News"],"image":null,"imageAlt":null,"provider":"Hacker News","thirdPartyId":"25698990","url":"https://news.ycombinator.com/item?id=25698990","originalUrl":"http://spacecraft.ssl.umd.edu/akins_laws.html","imageRemote":"https://spacecraft.ssl.umd.edu/graphics/110920.MMR.png","video":null,"channel":null,"channelUrl":null,"author":"Tomte","authorUrl":"https://news.ycombinator.com/user?id=Tomte","authorImage":null,"authorSlug":null,"score":203,"views":null,"sharedCount":null,"likeCount":null,"sharedContent":null,"parent":{"__typename":"HnJson","localize":[{"title":"阿金航天器设计定律","locale":"zh"},{"title":"阿金航天器設計定律","locale":"zh-Hant"}]}},{"__typename":"SocialMediaPost","id":"HnPost-25700135","excerpt":"","slug":"/hn/25700135","title":"Ask HN: Show me your half baked project","date":"January 09, 2021","dateISO":"2021-01-09T19:02:26.827Z","datetime":"2021-01-09 19:02","tags":["story","ASK HN","Hacker News"],"image":null,"imageAlt":null,"provider":"Hacker News","thirdPartyId":"25700135","url":"https://news.ycombinator.com/item?id=25700135","originalUrl":"https://news.ycombinator.com/item?id=25700135","imageRemote":null,"video":null,"channel":"ASK HN","channelUrl":"https://news.ycombinator.com/ask","author":"notoriousarun","authorUrl":"https://news.ycombinator.com/user?id=notoriousarun","authorImage":null,"authorSlug":null,"score":204,"views":null,"sharedCount":null,"likeCount":null,"sharedContent":null,"parent":{"__typename":"HnJson","localize":[{"title":"HN提问：给我看看你的半生不熟的项目","locale":"zh"},{"title":"HN提問：給我看看你的半生不熟的項目","locale":"zh-Hant"}]}},{"__typename":"SocialMediaPost","id":"HnPost-25699338","excerpt":"","slug":"/hn/25699338","title":"Sriwijaya Air flight SJ182, a Boeing 737, has disappeared from radar","date":"January 09, 2021","dateISO":"2021-01-09T18:20:33.817Z","datetime":"2021-01-09 18:20","tags":["story","Hacker News"],"image":null,"imageAlt":null,"provider":"Hacker News","thirdPartyId":"25699338","url":"https://news.ycombinator.com/item?id=25699338","originalUrl":"https://twitter.com/spectatorindex/status/1347856317839417345","imageRemote":null,"video":null,"channel":null,"channelUrl":null,"author":"blacktulip","authorUrl":"https://news.ycombinator.com/user?id=blacktulip","authorImage":null,"authorSlug":null,"score":213,"views":null,"sharedCount":null,"likeCount":null,"sharedContent":null,"parent":{"__typename":"HnJson","localize":[{"title":"Sriwijaya航空公司的SJ182航班，一架波音737，已经从雷达上消失","locale":"zh"},{"title":"Sriwijaya航空公司的SJ182航班，一架波音737，已經從雷達上消失","locale":"zh-Hant"}]}},{"__typename":"SocialMediaPost","id":"HnPost-25695682","excerpt":"","slug":"/hn/25695682","title":"Ask HN: What are decentralized Twitter alternatives?","date":"January 09, 2021","dateISO":"2021-01-09T17:16:57.747Z","datetime":"2021-01-09 17:16","tags":["story","ASK HN","Hacker News"],"image":null,"imageAlt":null,"provider":"Hacker News","thirdPartyId":"25695682","url":"https://news.ycombinator.com/item?id=25695682","originalUrl":"https://news.ycombinator.com/item?id=25695682","imageRemote":null,"video":null,"channel":"ASK HN","channelUrl":"https://news.ycombinator.com/ask","author":"InInteraction","authorUrl":"https://news.ycombinator.com/user?id=InInteraction","authorImage":null,"authorSlug":null,"score":202,"views":null,"sharedCount":null,"likeCount":null,"sharedContent":null,"parent":{"__typename":"HnJson","localize":[{"title":"HN提问：去中心化的推特有哪些替代方案？","locale":"zh"},{"title":"HN提問：去中心化的推特有哪些替代方案？","locale":"zh-Hant"}]}},{"__typename":"SocialMediaPost","id":"HnPost-25695357","excerpt":"","slug":"/hn/25695357","title":"Twitter suspends Sci-Hub account amid Indian court case","date":"January 09, 2021","dateISO":"2021-01-09T14:53:21.107Z","datetime":"2021-01-09 14:53","tags":["story","Hacker News"],"image":null,"imageAlt":null,"provider":"Hacker News","thirdPartyId":"25695357","url":"https://news.ycombinator.com/item?id=25695357","originalUrl":"https://twitter.com/verge/status/1347597998155591680","imageRemote":null,"video":null,"channel":null,"channelUrl":null,"author":"1cvmask","authorUrl":"https://news.ycombinator.com/user?id=1cvmask","authorImage":null,"authorSlug":null,"score":206,"views":null,"sharedCount":null,"likeCount":null,"sharedContent":null,"parent":{"__typename":"HnJson","localize":[{"title":"推特在印度法庭案件中暂停Sci-Hub账户","locale":"zh"},{"title":"推特在印度法庭案件中暫停Sci-Hub賬戶","locale":"zh-Hant"}]}},{"__typename":"SocialMediaPost","id":"HnPost-25696842","excerpt":"","slug":"/hn/25696842","title":"Signal gaining popularity in India after WhatsApp policy changes","date":"January 09, 2021","dateISO":"2021-01-09T11:52:02.666Z","datetime":"2021-01-09 11:52","tags":["story","Hacker News"],"image":null,"imageAlt":null,"provider":"Hacker News","thirdPartyId":"25696842","url":"https://news.ycombinator.com/item?id=25696842","originalUrl":"https://economictimes.indiatimes.com/tech/technology/whatsapp-rival-signal-reports-growing-pains-after-elon-musks-tweet/articleshow/80172451.cms","imageRemote":"https://img.etimg.com/thumb/msid-80172545,width-1070,height-580,imgsize-601228,overlay-ettech/photo.jpg","video":null,"channel":null,"channelUrl":null,"author":"curmudgeon22","authorUrl":"https://news.ycombinator.com/user?id=curmudgeon22","authorImage":null,"authorSlug":null,"score":200,"views":null,"sharedCount":null,"likeCount":null,"sharedContent":null,"parent":{"__typename":"HnJson","localize":[{"title":"WhatsApp政策变化后，印度越来越受欢迎的信号","locale":"zh"},{"title":"WhatsApp政策變化後，印度越來越受歡迎的信號","locale":"zh-Hant"}]}},{"__typename":"SocialMediaPost","id":"HnPost-25690212","excerpt":"","slug":"/hn/25690212","title":"Ruby 3, Concurrency and the Ecosystem","date":"January 09, 2021","dateISO":"2021-01-09T11:19:27.742Z","datetime":"2021-01-09 11:19","tags":["story","Hacker News"],"image":null,"imageAlt":null,"provider":"Hacker News","thirdPartyId":"25690212","url":"https://news.ycombinator.com/item?id=25690212","originalUrl":"https://kirshatrov.com/2021/01/06/ruby-concurrency-and-ecosystem/","imageRemote":"https://kirshatrov.com/assets/layout-images/kirs.jpg","video":null,"channel":null,"channelUrl":null,"author":"ksec","authorUrl":"https://news.ycombinator.com/user?id=ksec","authorImage":null,"authorSlug":null,"score":201,"views":null,"sharedCount":null,"likeCount":null,"sharedContent":null,"parent":{"__typename":"HnJson","localize":[{"title":"Ruby3、并发性和生态系统","locale":"zh"},{"title":"Ruby3、併發性和生態系統","locale":"zh-Hant"}]}},{"__typename":"SocialMediaPost","id":"HnPost-25693618","excerpt":"","slug":"/hn/25693618","title":"When Amazon Switched from Sun to Linux","date":"January 09, 2021","dateISO":"2021-01-09T10:54:30.149Z","datetime":"2021-01-09 10:54","tags":["story","Hacker News"],"image":null,"imageAlt":null,"provider":"Hacker News","thirdPartyId":"25693618","url":"https://news.ycombinator.com/item?id=25693618","originalUrl":"https://twitter.com/DanRose999/status/1347677573900242944","imageRemote":null,"video":null,"channel":null,"channelUrl":null,"author":"fanf2","authorUrl":"https://news.ycombinator.com/user?id=fanf2","authorImage":null,"authorSlug":null,"score":211,"views":null,"sharedCount":null,"likeCount":null,"sharedContent":null,"parent":{"__typename":"HnJson","localize":[{"title":"当亚马逊从Sun切换到Linux时","locale":"zh"},{"title":"當亞馬遜從Sun切換到Linux時","locale":"zh-Hant"}]}},{"__typename":"SocialMediaPost","id":"HnPost-25697823","excerpt":"","slug":"/hn/25697823","title":"You've Been Referred Here Because You're Wrong About Section 230 of the CDA","date":"January 09, 2021","dateISO":"2021-01-09T09:48:56.979Z","datetime":"2021-01-09 09:48","tags":["story","Hacker News"],"image":null,"imageAlt":null,"provider":"Hacker News","thirdPartyId":"25697823","url":"https://news.ycombinator.com/item?id=25697823","originalUrl":"https://www.techdirt.com/articles/20200531/23325444617/hello-youve-been-referred-here-because-youre-wrong-about-section-230-communications-decency-act.shtml","imageRemote":"https://ii.techdirt.com/s/t/i/td_icon_300.png","video":null,"channel":null,"channelUrl":null,"author":"tonyztan","authorUrl":"https://news.ycombinator.com/user?id=tonyztan","authorImage":null,"authorSlug":null,"score":210,"views":null,"sharedCount":null,"likeCount":null,"sharedContent":null,"parent":{"__typename":"HnJson","localize":[{"title":"你被推荐到这里是因为你对CDA第230条的看法是错误的","locale":"zh"},{"title":"你被推薦到這裏是因爲你對CDA第230條的看法是錯誤的","locale":"zh-Hant"}]}},{"__typename":"SocialMediaPost","id":"HnPost-25688066","excerpt":"","slug":"/hn/25688066","title":"Archaeologists in Turkey unearth 2,500-year-old temple of Aphrodite","date":"January 09, 2021","dateISO":"2021-01-09T07:15:13.460Z","datetime":"2021-01-09 07:15","tags":["story","Hacker News"],"image":null,"imageAlt":null,"provider":"Hacker News","thirdPartyId":"25688066","url":"https://news.ycombinator.com/item?id=25688066","originalUrl":"https://www.smithsonianmag.com/smart-news/2500-year-old-temple-aphrodite-found-turkey-180976694/","imageRemote":"https://thumbs-prod.si-cdn.com/XKzTYURgDtoK7WYcQfm4Opc-CdU=/fit-in/1600x0/filters:focal(396x236:397x237)/https://public-media.si-cdn.com/filer/20/3e/203ed968-01b1-4cac-8b20-53978889aefc/urla.jpg","video":null,"channel":null,"channelUrl":null,"author":"gmays","authorUrl":"https://news.ycombinator.com/user?id=gmays","authorImage":null,"authorSlug":null,"score":200,"views":null,"sharedCount":null,"likeCount":null,"sharedContent":null,"parent":{"__typename":"HnJson","localize":[{"title":"土耳其考古学家出土2500年前的阿佛洛狄特神庙","locale":"zh"},{"title":"土耳其考古學家出土2500年前的阿佛洛狄特神廟","locale":"zh-Hant"}]}},{"__typename":"SocialMediaPost","id":"HnPost-25696577","excerpt":"","slug":"/hn/25696577","title":"Pfizer vaccine appears effective against mutation in new coronavirus variants","date":"January 09, 2021","dateISO":"2021-01-09T07:15:13.460Z","datetime":"2021-01-09 07:15","tags":["story","Hacker News"],"image":null,"imageAlt":null,"provider":"Hacker News","thirdPartyId":"25696577","url":"https://news.ycombinator.com/item?id=25696577","originalUrl":"https://www.cbc.ca/news/health/pfizer-biontech-vaccine-appears-effective-against-mutation-in-new-coronavirus-variants-study-suggests-1.5865885","imageRemote":"https://i.cbc.ca/1.5852149.1608672062!/cumulusImage/httpImage/image.jpg_gen/derivatives/16x9_620/covid-vaccinations-toronto.jpg","video":null,"channel":null,"channelUrl":null,"author":"awnird","authorUrl":"https://news.ycombinator.com/user?id=awnird","authorImage":null,"authorSlug":null,"score":208,"views":null,"sharedCount":null,"likeCount":null,"sharedContent":null,"parent":{"__typename":"HnJson","localize":[{"title":"辉瑞疫苗似乎对新冠状病毒变异有效","locale":"zh"},{"title":"輝瑞疫苗似乎對新冠狀病毒變異有效","locale":"zh-Hant"}]}},{"__typename":"SocialMediaPost","id":"HnPost-25690319","excerpt":"","slug":"/hn/25690319","title":"Best of show – abuse of libc","date":"January 09, 2021","dateISO":"2021-01-09T03:16:58.010Z","datetime":"2021-01-09 03:16","tags":["story","Hacker News"],"image":null,"imageAlt":null,"provider":"Hacker News","thirdPartyId":"25690319","url":"https://news.ycombinator.com/item?id=25690319","originalUrl":"https://www.ioccc.org/2020/carlini/index.html","imageRemote":"https://www.ioccc.org/png/ioccc.png","video":null,"channel":null,"channelUrl":null,"author":"mooreds","authorUrl":"https://news.ycombinator.com/user?id=mooreds","authorImage":null,"authorSlug":null,"score":205,"views":null,"sharedCount":null,"likeCount":null,"sharedContent":null,"parent":{"__typename":"HnJson","localize":[{"title":"最佳展示-滥用libc","locale":"zh"},{"title":"最佳展示-濫用libc","locale":"zh-Hant"}]}},{"__typename":"SocialMediaPost","id":"HnPost-25691912","excerpt":"","slug":"/hn/25691912","title":"Permanent suspension of @realDonaldTrump","date":"January 08, 2021","dateISO":"2021-01-08T23:56:31.995Z","datetime":"2021-01-08 23:56","tags":["story","Hacker News"],"image":null,"imageAlt":null,"provider":"Hacker News","thirdPartyId":"25691912","url":"https://news.ycombinator.com/item?id=25691912","originalUrl":"https://blog.twitter.com/en_us/topics/company/2020/suspension.html","imageRemote":"https://blog.twitter.com/content/dam/blog-twitter/official/universal-assets/Generic_BlogShare.jpg","video":null,"channel":null,"channelUrl":null,"author":"minimaxir","authorUrl":"https://news.ycombinator.com/user?id=minimaxir","authorImage":null,"authorSlug":null,"score":557,"views":null,"sharedCount":null,"likeCount":null,"sharedContent":null,"parent":{"__typename":"HnJson","localize":[{"title":"永久暂停@realDonaldTrump","locale":"zh"},{"title":"永久暫停@realDonaldTrump","locale":"zh-Hant"}]}}]}},"pageContext":{"basePath":"/","pageType":"tag","tag":"story","tagsFilter":{"id":{"glob":"!*Post-1"}},"filter":{"id":{"glob":"!*Post-1"},"tags":{"eq":"story"}},"limit":25,"skip":100,"total":910,"totalPages":37,"currentPage":5,"maxWidth":1024,"maxHeight":512,"locale":"zh-Hant","hrefLang":"zh-Hant","originalPath":"/tags/story/page/5","dateFormat":"YYYY-MM-DD"}},"staticQueryHashes":["1239077767","2506312863","2744905544","3025052997","3493603132","3493603132","3513215887","386998304"]}