{"componentChunkName":"component---gatsby-theme-buzzing-src-gatsby-theme-timeline-templates-posts-query-js","path":"/tags/story/page/22","result":{"data":{"site":{"siteMetadata":{"title":"Reddit 热门","description":"用中文浏览Reddit热门内容","social":[{"name":"Twitter","url":"https://twitter.com/gatsbyjs","external":null,"prefetch":null},{"name":"GitHub","url":"https://github.com/gatsbyjs","external":null,"prefetch":null}],"menuLinks":[],"localize":[{"locale":"en","title":"Buzzing on Reddit","description":"See what's buzzing on Reddit in your native language","social":[{"name":"Reddit","url":"https://www.reddit.com/","external":true,"prefetch":null}],"menuLinks":[{"name":"Weekly Selection","url":"/issues","external":null,"prefetch":null},{"name":"RSS","url":"/rss.xml","external":null,"prefetch":false}]},{"locale":"zh-Hant","title":"Reddit 熱門","description":"用中文瀏覽Reddit熱門內容","social":null,"menuLinks":null}]}},"tagsGroup":{"group":[{"fieldValue":"ASK HN","totalCount":54},{"fieldValue":"Hacker News","totalCount":3107},{"fieldValue":"Poll","totalCount":1},{"fieldValue":"Show HN","totalCount":100},{"fieldValue":"poll","totalCount":1},{"fieldValue":"story","totalCount":3106}]},"allBlogPost":{"nodes":[{"__typename":"SocialMediaPost","id":"HnPost-26487425","excerpt":"","slug":"/hn/26487425","title":"Super Resolution","date":"March 18, 2021","dateISO":"2021-03-18T18:30:23.180Z","datetime":"2021-03-18 18:30","tags":["story","Hacker News"],"image":null,"imageAlt":null,"provider":"Hacker News","thirdPartyId":"26487425","url":"https://news.ycombinator.com/item?id=26487425","originalUrl":"https://blog.adobe.com/en/publish/2021/03/10/from-the-acr-team-super-resolution.html","imageRemote":"https://blog.adobe.com/hlx_9b06d76b977c367144deb80a64d7b44d49fe9603.jpeg?auto=webp&format=pjpg&optimize=medium&width=1200","video":null,"channel":null,"channelUrl":null,"author":"giuliomagnifico","authorUrl":"https://news.ycombinator.com/user?id=giuliomagnifico","authorImage":null,"authorSlug":null,"score":340,"views":null,"sharedCount":null,"likeCount":null,"sharedContent":null,"parent":{"__typename":"HnJson","localize":[{"title":"超分辨率","locale":"zh"},{"title":"超分辨率","locale":"zh-Hant"}]}},{"__typename":"SocialMediaPost","id":"HnPost-26503572","excerpt":"","slug":"/hn/26503572","title":"Show HN: Sorted CSS Colors – Sort the named CSS colors in a nice way","date":"March 18, 2021","dateISO":"2021-03-18T18:01:39.135Z","datetime":"2021-03-18 18:01","tags":["story","Show HN","Hacker News"],"image":null,"imageAlt":null,"provider":"Hacker News","thirdPartyId":"26503572","url":"https://news.ycombinator.com/item?id=26503572","originalUrl":"https://enes.in/sorted-colors","imageRemote":"https://github.com/scriptype/sorted-colors/raw/master/screenshot.png","video":null,"channel":"Show HN","channelUrl":"https://news.ycombinator.com/show","author":"knuptfad","authorUrl":"https://news.ycombinator.com/user?id=knuptfad","authorImage":null,"authorSlug":null,"score":558,"views":null,"sharedCount":null,"likeCount":null,"sharedContent":null,"parent":{"__typename":"HnJson","localize":[{"title":"Show HN: Sorted CSS Colors - 以一种很好的方式对命名的CSS颜色进行排序。","locale":"zh"},{"title":"Show HN: Sorted CSS Colors - 以一種很好的方式對命名的CSS顏色進行排序。","locale":"zh-Hant"}]}},{"__typename":"SocialMediaPost","id":"HnPost-26499528","excerpt":"","slug":"/hn/26499528","title":"Spartan School (2019)","date":"March 18, 2021","dateISO":"2021-03-18T17:50:18.713Z","datetime":"2021-03-18 17:50","tags":["story","Hacker News"],"image":null,"imageAlt":null,"provider":"Hacker News","thirdPartyId":"26499528","url":"https://news.ycombinator.com/item?id=26499528","originalUrl":"https://acoup.blog/2019/08/16/collections-this-isnt-sparta-part-i-spartan-school/","imageRemote":"https://acoupdotblog.files.wordpress.com/2019/08/well-kick-1.png","video":null,"channel":null,"channelUrl":null,"author":"greesil","authorUrl":"https://news.ycombinator.com/user?id=greesil","authorImage":null,"authorSlug":null,"score":172,"views":null,"sharedCount":null,"likeCount":null,"sharedContent":null,"parent":{"__typename":"HnJson","localize":[{"title":"斯巴达学校(2019)","locale":"zh"},{"title":"斯巴達學校(2019)","locale":"zh-Hant"}]}},{"__typename":"SocialMediaPost","id":"HnPost-26502064","excerpt":"","slug":"/hn/26502064","title":"Norwegian experts say blood clots were caused by the AstraZeneca Covid vaccine","date":"March 18, 2021","dateISO":"2021-03-18T17:18:41.890Z","datetime":"2021-03-18 17:18","tags":["story","Hacker News"],"image":null,"imageAlt":null,"provider":"Hacker News","thirdPartyId":"26502064","url":"https://news.ycombinator.com/item?id=26502064","originalUrl":"https://sciencenorway.no/covid19/norwegian-experts-say-deadly-blood-clots-were-caused-by-the-astrazeneca-covid-vaccine/1830510","imageRemote":"https://image.sciencenorway.no/1830526.jpg?imageId=1830526&panow=100&panoh=51.77304964539&panox=0&panoy=0&heightw=41.071428571429&heighth=100&heightx=0&heighty=0&width=1200&height=630","video":null,"channel":null,"channelUrl":null,"author":"yread","authorUrl":"https://news.ycombinator.com/user?id=yread","authorImage":null,"authorSlug":null,"score":239,"views":null,"sharedCount":null,"likeCount":null,"sharedContent":null,"parent":{"__typename":"HnJson","localize":[{"title":"挪威专家称血栓是由阿斯利康Covid疫苗引起的。","locale":"zh"},{"title":"挪威專家稱血栓是由阿斯利康Covid疫苗引起的。","locale":"zh-Hant"}]}},{"__typename":"SocialMediaPost","id":"HnPost-26502336","excerpt":"","slug":"/hn/26502336","title":"Sabine Schmitz, Queen of the Nürburgring, Has Died at 51","date":"March 18, 2021","dateISO":"2021-03-18T17:18:41.890Z","datetime":"2021-03-18 17:18","tags":["story","Hacker News"],"image":null,"imageAlt":null,"provider":"Hacker News","thirdPartyId":"26502336","url":"https://news.ycombinator.com/item?id=26502336","originalUrl":"https://jalopnik.com/sabine-schmitz-queen-of-the-nurburgring-has-died-at-5-1846493434","imageRemote":"https://i.kinja-img.com/gawker-media/image/upload/c_fill,f_auto,fl_progressive,g_center,h_675,pg_1,q_80,w_1200/cx6ou03nuqynlpcawdab.png","video":null,"channel":null,"channelUrl":null,"author":"chrisbennet","authorUrl":"https://news.ycombinator.com/user?id=chrisbennet","authorImage":null,"authorSlug":null,"score":221,"views":null,"sharedCount":null,"likeCount":null,"sharedContent":null,"parent":{"__typename":"HnJson","localize":[{"title":"纽博格林女王萨宾-施米茨去世，享年51岁。","locale":"zh"},{"title":"紐博格林女王薩賓-施米茨去世，享年51歲。","locale":"zh-Hant"}]}},{"__typename":"SocialMediaPost","id":"HnPost-26501185","excerpt":"","slug":"/hn/26501185","title":"Bitwarden_rs: Unofficial Bitwarden compatible server written in Rust","date":"March 18, 2021","dateISO":"2021-03-18T16:40:19.545Z","datetime":"2021-03-18 16:40","tags":["story","Hacker News"],"image":null,"imageAlt":null,"provider":"Hacker News","thirdPartyId":"26501185","url":"https://news.ycombinator.com/item?id=26501185","originalUrl":"https://github.com/dani-garcia/bitwarden_rs","imageRemote":"https://avatars.githubusercontent.com/u/725423?s=400&v=4","video":null,"channel":null,"channelUrl":null,"author":"xearl","authorUrl":"https://news.ycombinator.com/user?id=xearl","authorImage":null,"authorSlug":null,"score":231,"views":null,"sharedCount":null,"likeCount":null,"sharedContent":null,"parent":{"__typename":"HnJson","localize":[{"title":"Bitwarden_rs: 用Rust编写的非官方Bitwarden兼容服务器。","locale":"zh"},{"title":"Bitwarden_rs: 用Rust編寫的非官方Bitwarden兼容服務器。","locale":"zh-Hant"}]}},{"__typename":"SocialMediaPost","id":"HnPost-26500436","excerpt":"","slug":"/hn/26500436","title":"Awesome .NET Performance","date":"March 18, 2021","dateISO":"2021-03-18T14:55:12.822Z","datetime":"2021-03-18 14:55","tags":["story","Hacker News"],"image":null,"imageAlt":null,"provider":"Hacker News","thirdPartyId":"26500436","url":"https://news.ycombinator.com/item?id=26500436","originalUrl":"https://github.com/adamsitnik/awesome-dot-net-performance","imageRemote":"https://avatars.githubusercontent.com/u/6011991?s=400&v=4","video":null,"channel":null,"channelUrl":null,"author":"pjmlp","authorUrl":"https://news.ycombinator.com/user?id=pjmlp","authorImage":null,"authorSlug":null,"score":231,"views":null,"sharedCount":null,"likeCount":null,"sharedContent":null,"parent":{"__typename":"HnJson","localize":[{"title":"令人敬畏的.NET性能","locale":"zh"},{"title":"令人敬畏的.NET性能","locale":"zh-Hant"}]}},{"__typename":"SocialMediaPost","id":"HnPost-26499270","excerpt":"","slug":"/hn/26499270","title":"All 5000 Images in Beeple’s $69M Magnum Opus:What I Found Isn’t So Pretty","date":"March 18, 2021","dateISO":"2021-03-18T12:33:06.904Z","datetime":"2021-03-18 12:33","tags":["story","Hacker News"],"image":null,"imageAlt":null,"provider":"Hacker News","thirdPartyId":"26499270","url":"https://news.ycombinator.com/item?id=26499270","originalUrl":"https://news.artnet.com/opinion/beeple-everydays-review-1951656","imageRemote":"https://news.artnet.com/app/news-upload/2021/03/beeple-tiled-screenshot.jpg","video":null,"channel":null,"channelUrl":null,"author":"hx2a","authorUrl":"https://news.ycombinator.com/user?id=hx2a","authorImage":null,"authorSlug":null,"score":222,"views":null,"sharedCount":null,"likeCount":null,"sharedContent":null,"parent":{"__typename":"HnJson","localize":[{"title":"哔哩哔哩6900万美元巨作中的全部5000张图片:我发现的并不是那么漂亮。","locale":"zh"},{"title":"嗶哩嗶哩6900萬美元鉅作中的全部5000張圖片:我發現的並不是那麼漂亮。","locale":"zh-Hant"}]}},{"__typename":"SocialMediaPost","id":"HnPost-26497965","excerpt":"","slug":"/hn/26497965","title":"Jello 3D Printer","date":"March 18, 2021","dateISO":"2021-03-18T11:49:39.147Z","datetime":"2021-03-18 11:49","tags":["story","Hacker News"],"image":null,"imageAlt":null,"provider":"Hacker News","thirdPartyId":"26497965","url":"https://news.ycombinator.com/item?id=26497965","originalUrl":"https://spritesmods.com/?art=jello3dprinter","imageRemote":"https://spritesmods.com/jello3dprinter/cube_small.jpg","video":null,"channel":null,"channelUrl":null,"author":"PanMan","authorUrl":"https://news.ycombinator.com/user?id=PanMan","authorImage":null,"authorSlug":null,"score":198,"views":null,"sharedCount":null,"likeCount":null,"sharedContent":null,"parent":{"__typename":"HnJson","localize":[{"title":"Jello 3D打印机","locale":"zh"},{"title":"Jello 3D打印機","locale":"zh-Hant"}]}},{"__typename":"SocialMediaPost","id":"HnPost-26484339","excerpt":"","slug":"/hn/26484339","title":"Show HN: O(log n) makes continuous profiling possible","date":"March 18, 2021","dateISO":"2021-03-18T11:39:22.138Z","datetime":"2021-03-18 11:39","tags":["story","Show HN","Hacker News"],"image":null,"imageAlt":null,"provider":"Hacker News","thirdPartyId":"26484339","url":"https://news.ycombinator.com/item?id=26484339","originalUrl":"https://github.com/pyroscope-io/pyroscope/blob/main/docs/storage-design.md","imageRemote":"https://repository-images.githubusercontent.com/325724738/7ad05000-5b6c-11eb-90b1-f67f1dec87bc","video":null,"channel":"Show HN","channelUrl":"https://news.ycombinator.com/show","author":"petethepig","authorUrl":"https://news.ycombinator.com/user?id=petethepig","authorImage":null,"authorSlug":null,"score":166,"views":null,"sharedCount":null,"likeCount":null,"sharedContent":null,"parent":{"__typename":"HnJson","localize":[{"title":"显示HN：O(log n)使连续剖析成为可能。","locale":"zh"},{"title":"顯示HN：O(log n)使連續剖析成爲可能。","locale":"zh-Hant"}]}},{"__typename":"SocialMediaPost","id":"HnPost-26493588","excerpt":"","slug":"/hn/26493588","title":"Writing Small CLI Programs in Common Lisp","date":"March 18, 2021","dateISO":"2021-03-18T11:39:22.138Z","datetime":"2021-03-18 11:39","tags":["story","Hacker News"],"image":null,"imageAlt":null,"provider":"Hacker News","thirdPartyId":"26493588","url":"https://news.ycombinator.com/item?id=26493588","originalUrl":"https://stevelosh.com/blog/2021/03/small-common-lisp-cli-programs/","imageRemote":"https://stevelosh.com/static/images/blog/2021/03/uncolored.png","video":null,"channel":null,"channelUrl":null,"author":"reikonomusha","authorUrl":"https://news.ycombinator.com/user?id=reikonomusha","authorImage":null,"authorSlug":null,"score":174,"views":null,"sharedCount":null,"likeCount":null,"sharedContent":null,"parent":{"__typename":"HnJson","localize":[{"title":"用普通Lisp编写小型CLI程序","locale":"zh"},{"title":"用普通Lisp編寫小型CLI程序","locale":"zh-Hant"}]}},{"__typename":"SocialMediaPost","id":"HnPost-26500244","excerpt":"","slug":"/hn/26500244","title":"Reddit investors adopt 3,500 gorillas in six days","date":"March 18, 2021","dateISO":"2021-03-18T11:39:22.137Z","datetime":"2021-03-18 11:39","tags":["story","Hacker News"],"image":null,"imageAlt":null,"provider":"Hacker News","thirdPartyId":"26500244","url":"https://news.ycombinator.com/item?id=26500244","originalUrl":"https://www.bbc.co.uk/news/business-56416954","imageRemote":"https://ichef.bbci.co.uk/news/1024/branded_news/10F67/production/_117597496_babygorillasmall.jpg","video":null,"channel":null,"channelUrl":null,"author":"ptype","authorUrl":"https://news.ycombinator.com/user?id=ptype","authorImage":null,"authorSlug":null,"score":688,"views":null,"sharedCount":null,"likeCount":null,"sharedContent":null,"parent":{"__typename":"HnJson","localize":[{"title":"Reddit投资者6天内收养3500只大猩猩","locale":"zh"},{"title":"Reddit投資者6天內收養3500只大猩猩","locale":"zh-Hant"}]}},{"__typename":"SocialMediaPost","id":"HnPost-26499757","excerpt":"","slug":"/hn/26499757","title":"We bootstrapped to $11M in ARR (Outside the Valley)","date":"March 18, 2021","dateISO":"2021-03-18T11:16:21.586Z","datetime":"2021-03-18 11:16","tags":["story","Hacker News"],"image":null,"imageAlt":null,"provider":"Hacker News","thirdPartyId":"26499757","url":"https://news.ycombinator.com/item?id=26499757","originalUrl":"https://blog.thinkst.com/2021/03/we-bootstrapped-to-11-million-in-arr.html","imageRemote":"https://1.bp.blogspot.com/-A5ieSZjc6R4/YFIxLAZzT7I/AAAAAAAAFhQ/AOycZBR0xIY3BEU-ZXu3uJS-tC9vM5oUACLcBGAsYHQ/w1200-h630-p-k-no-nu/2021-03-15_15-35-27.png","video":null,"channel":null,"channelUrl":null,"author":"mh_","authorUrl":"https://news.ycombinator.com/user?id=mh_","authorImage":null,"authorSlug":null,"score":386,"views":null,"sharedCount":null,"likeCount":null,"sharedContent":null,"parent":{"__typename":"HnJson","localize":[{"title":"我们引导到1100万美元的ARR（谷外）。","locale":"zh"},{"title":"我們引導到1100萬美元的ARR（谷外）。","locale":"zh-Hant"}]}},{"__typename":"SocialMediaPost","id":"HnPost-26498431","excerpt":"","slug":"/hn/26498431","title":"Apple’s M1 processor and the full 128-bit integer product","date":"March 18, 2021","dateISO":"2021-03-18T08:30:05.965Z","datetime":"2021-03-18 08:30","tags":["story","Hacker News"],"image":null,"imageAlt":null,"provider":"Hacker News","thirdPartyId":"26498431","url":"https://news.ycombinator.com/item?id=26498431","originalUrl":"https://lemire.me/blog/2021/03/17/apples-m1-processor-and-the-full-128-bit-integer-product/","imageRemote":"https://lemire.me/img/portrait2018facebook.jpg","video":null,"channel":null,"channelUrl":null,"author":"tgymnich","authorUrl":"https://news.ycombinator.com/user?id=tgymnich","authorImage":null,"authorSlug":null,"score":225,"views":null,"sharedCount":null,"likeCount":null,"sharedContent":null,"parent":{"__typename":"HnJson","localize":[{"title":"苹果的M1处理器和完整的128位整数产品。","locale":"zh"},{"title":"蘋果的M1處理器和完整的128位整數產品。","locale":"zh-Hant"}]}},{"__typename":"SocialMediaPost","id":"HnPost-26476894","excerpt":"","slug":"/hn/26476894","title":"Migrating Millions of Concurrent WebSockets to Envoy","date":"March 18, 2021","dateISO":"2021-03-18T07:23:53.072Z","datetime":"2021-03-18 07:23","tags":["story","Hacker News"],"image":null,"imageAlt":null,"provider":"Hacker News","thirdPartyId":"26476894","url":"https://news.ycombinator.com/item?id=26476894","originalUrl":"https://slack.engineering/migrating-millions-of-concurrent-websockets-to-envoy/","imageRemote":"https://slack.engineering/wp-content/uploads/sites/7/2021/03/sockets-by-region1-2.png","video":null,"channel":null,"channelUrl":null,"author":"jbredeche","authorUrl":"https://news.ycombinator.com/user?id=jbredeche","authorImage":null,"authorSlug":null,"score":185,"views":null,"sharedCount":null,"likeCount":null,"sharedContent":null,"parent":{"__typename":"HnJson","localize":[{"title":"将数百万个并发的WebSockets迁移到Envoy。","locale":"zh"},{"title":"將數百萬個併發的WebSockets遷移到Envoy。","locale":"zh-Hant"}]}},{"__typename":"SocialMediaPost","id":"HnPost-26489887","excerpt":"","slug":"/hn/26489887","title":"Which color scale to use when visualizing data","date":"March 18, 2021","dateISO":"2021-03-18T06:50:10.166Z","datetime":"2021-03-18 06:50","tags":["story","Hacker News"],"image":null,"imageAlt":null,"provider":"Hacker News","thirdPartyId":"26489887","url":"https://news.ycombinator.com/item?id=26489887","originalUrl":"https://blog.datawrapper.de/which-color-scale-to-use-in-data-vis/","imageRemote":"https://blog.datawrapper.de/img/200801_colorscale-intro-f.png","video":null,"channel":null,"channelUrl":null,"author":"ingve","authorUrl":"https://news.ycombinator.com/user?id=ingve","authorImage":null,"authorSlug":null,"score":229,"views":null,"sharedCount":null,"likeCount":null,"sharedContent":null,"parent":{"__typename":"HnJson","localize":[{"title":"数据可视化时使用哪种色阶","locale":"zh"},{"title":"數據可視化時使用哪種色階","locale":"zh-Hant"}]}},{"__typename":"SocialMediaPost","id":"HnPost-26497557","excerpt":"","slug":"/hn/26497557","title":"Learnlatex.org: A place to learn LaTeX online","date":"March 18, 2021","dateISO":"2021-03-18T06:27:16.221Z","datetime":"2021-03-18 06:27","tags":["story","Hacker News"],"image":null,"imageAlt":null,"provider":"Hacker News","thirdPartyId":"26497557","url":"https://news.ycombinator.com/item?id=26497557","originalUrl":"https://www.learnlatex.org/en/","imageRemote":"https://www.learnlatex.org/assets/images/logo-1.svg","video":null,"channel":null,"channelUrl":null,"author":"JohnHammersley","authorUrl":"https://news.ycombinator.com/user?id=JohnHammersley","authorImage":null,"authorSlug":null,"score":266,"views":null,"sharedCount":null,"likeCount":null,"sharedContent":null,"parent":{"__typename":"HnJson","localize":[{"title":"Learnlatex.org。在线学习LaTeX的地方","locale":"zh"},{"title":"Learnlatex.org。在線學習LaTeX的地方","locale":"zh-Hant"}]}},{"__typename":"SocialMediaPost","id":"HnPost-26499062","excerpt":"","slug":"/hn/26499062","title":"Focalboard – a self-hosted alternative to Trello, Notion, and Asana","date":"March 18, 2021","dateISO":"2021-03-18T05:51:44.738Z","datetime":"2021-03-18 05:51","tags":["story","Hacker News"],"image":null,"imageAlt":null,"provider":"Hacker News","thirdPartyId":"26499062","url":"https://news.ycombinator.com/item?id=26499062","originalUrl":"https://www.focalboard.com/","imageRemote":"https://www.focalboard.com/img/logo.svg","video":null,"channel":null,"channelUrl":null,"author":"stanislavb","authorUrl":"https://news.ycombinator.com/user?id=stanislavb","authorImage":null,"authorSlug":null,"score":642,"views":null,"sharedCount":null,"likeCount":null,"sharedContent":null,"parent":{"__typename":"HnJson","localize":[{"title":"Focalboard - Trello、Notion和Asana的自我托管替代方案。","locale":"zh"},{"title":"Focalboard - Trello、Notion和Asana的自我託管替代方案。","locale":"zh-Hant"}]}},{"__typename":"SocialMediaPost","id":"HnPost-26498527","excerpt":"","slug":"/hn/26498527","title":"Manim – an animation engine for explanatory math videos","date":"March 18, 2021","dateISO":"2021-03-18T03:45:11.768Z","datetime":"2021-03-18 03:45","tags":["story","Hacker News"],"image":null,"imageAlt":null,"provider":"Hacker News","thirdPartyId":"26498527","url":"https://news.ycombinator.com/item?id=26498527","originalUrl":"https://3b1b.github.io/manim/index.html","imageRemote":"https://3b1b.github.io/manim/_images/white_with_name.png","video":null,"channel":null,"channelUrl":null,"author":"vermilingua","authorUrl":"https://news.ycombinator.com/user?id=vermilingua","authorImage":null,"authorSlug":null,"score":861,"views":null,"sharedCount":null,"likeCount":null,"sharedContent":null,"parent":{"__typename":"HnJson","localize":[{"title":"Manim - 一个用于解释数学视频的动画引擎。","locale":"zh"},{"title":"Manim - 一個用於解釋數學視頻的動畫引擎。","locale":"zh-Hant"}]}},{"__typename":"SocialMediaPost","id":"HnPost-26496185","excerpt":"","slug":"/hn/26496185","title":"Visa Plans to Enable Bitcoin Payments at 70M Merchants","date":"March 18, 2021","dateISO":"2021-03-18T01:28:45.957Z","datetime":"2021-03-18 01:28","tags":["story","Hacker News"],"image":null,"imageAlt":null,"provider":"Hacker News","thirdPartyId":"26496185","url":"https://news.ycombinator.com/item?id=26496185","originalUrl":"https://www.btctimes.com/news/visa-plans-to-enable-bitcoin-purchases","imageRemote":"https://image.btctimes.com/fit-in/1024x600/4d0cba22b1084c25b71db4454eb99d9e.jpg","video":null,"channel":null,"channelUrl":null,"author":"rmason","authorUrl":"https://news.ycombinator.com/user?id=rmason","authorImage":null,"authorSlug":null,"score":327,"views":null,"sharedCount":null,"likeCount":null,"sharedContent":null,"parent":{"__typename":"HnJson","localize":[{"title":"Visa计划在7000万家商户中启用比特币支付。","locale":"zh"},{"title":"Visa計劃在7000萬家商戶中啓用比特幣支付。","locale":"zh-Hant"}]}},{"__typename":"SocialMediaPost","id":"HnPost-26491764","excerpt":"","slug":"/hn/26491764","title":"Show HN: Dendron – fast open-source note-taking in VSCode","date":"March 17, 2021","dateISO":"2021-03-17T23:44:28.623Z","datetime":"2021-03-17 23:44","tags":["story","Show HN","Hacker News"],"image":null,"imageAlt":null,"provider":"Hacker News","thirdPartyId":"26491764","url":"https://news.ycombinator.com/item?id=26491764","originalUrl":"https://wiki.dendron.so/","imageRemote":"https://wiki.dendron.so/logo.png","video":null,"channel":"Show HN","channelUrl":"https://news.ycombinator.com/show","author":"kpats","authorUrl":"https://news.ycombinator.com/user?id=kpats","authorImage":null,"authorSlug":null,"score":234,"views":null,"sharedCount":null,"likeCount":null,"sharedContent":null,"parent":{"__typename":"HnJson","localize":[{"title":"显示HN：Dendron - 快速开源的VSCode笔记。","locale":"zh"},{"title":"顯示HN：Dendron - 快速開源的VSCode筆記。","locale":"zh-Hant"}]}},{"__typename":"SocialMediaPost","id":"HnPost-26491858","excerpt":"","slug":"/hn/26491858","title":"Do not use redirection characters in your shell prompt","date":"March 17, 2021","dateISO":"2021-03-17T23:26:43.202Z","datetime":"2021-03-17 23:26","tags":["story","Hacker News"],"image":null,"imageAlt":null,"provider":"Hacker News","thirdPartyId":"26491858","url":"https://news.ycombinator.com/item?id=26491858","originalUrl":"https://tanelpoder.com/posts/how-to-stay-safe-in-shell/","imageRemote":"https://tanelpoder.com/files/images/icons/twitter-social.png","video":null,"channel":null,"channelUrl":null,"author":"tanelpoder","authorUrl":"https://news.ycombinator.com/user?id=tanelpoder","authorImage":null,"authorSlug":null,"score":210,"views":null,"sharedCount":null,"likeCount":null,"sharedContent":null,"parent":{"__typename":"HnJson","localize":[{"title":"不要在shell提示符中使用重定向字符。","locale":"zh"},{"title":"不要在shell提示符中使用重定向字符。","locale":"zh-Hant"}]}},{"__typename":"SocialMediaPost","id":"HnPost-26475708","excerpt":"","slug":"/hn/26475708","title":"Phrack Magazine","date":"March 17, 2021","dateISO":"2021-03-17T22:13:20.212Z","datetime":"2021-03-17 22:13","tags":["story","Hacker News"],"image":null,"imageAlt":null,"provider":"Hacker News","thirdPartyId":"26475708","url":"https://news.ycombinator.com/item?id=26475708","originalUrl":"http://phrack.org/issues/69/1.html","imageRemote":"http://phrack.org/images/phrack-logo.jpg","video":null,"channel":null,"channelUrl":null,"author":"0x737368","authorUrl":"https://news.ycombinator.com/user?id=0x737368","authorImage":null,"authorSlug":null,"score":247,"views":null,"sharedCount":null,"likeCount":null,"sharedContent":null,"parent":{"__typename":"HnJson","localize":[{"title":"Phrack杂志","locale":"zh"},{"title":"Phrack雜誌","locale":"zh-Hant"}]}},{"__typename":"SocialMediaPost","id":"HnPost-26496887","excerpt":"","slug":"/hn/26496887","title":"Audacity 3.0","date":"March 17, 2021","dateISO":"2021-03-17T22:13:20.212Z","datetime":"2021-03-17 22:13","tags":["story","Hacker News"],"image":null,"imageAlt":null,"provider":"Hacker News","thirdPartyId":"26496887","url":"https://news.ycombinator.com/item?id=26496887","originalUrl":"https://www.audacityteam.org/audacity-3-0-0-released/","imageRemote":"https://www.audacityteam.org/wp-content/uploads/2021/02/Welcome3.0.0HiContrast.png","video":null,"channel":null,"channelUrl":null,"author":"app4soft","authorUrl":"https://news.ycombinator.com/user?id=app4soft","authorImage":null,"authorSlug":null,"score":1018,"views":null,"sharedCount":null,"likeCount":null,"sharedContent":null,"parent":{"__typename":"HnJson","localize":[{"title":"Audacity 3.0","locale":"zh"},{"title":"Audacity 3.0","locale":"zh-Hant"}]}},{"__typename":"SocialMediaPost","id":"HnPost-26495933","excerpt":"","slug":"/hn/26495933","title":"Microsoft tried a 4-day workweek in Japan. Productivity jumped 40%","date":"March 17, 2021","dateISO":"2021-03-17T21:22:22.316Z","datetime":"2021-03-17 21:22","tags":["story","Hacker News"],"image":null,"imageAlt":null,"provider":"Hacker News","thirdPartyId":"26495933","url":"https://news.ycombinator.com/item?id=26495933","originalUrl":"https://www.cnn.com/2019/11/04/tech/microsoft-japan-workweek-productivity/index.html","imageRemote":"https://cdn.cnn.com/cnnnext/dam/assets/191115095902-tokyo-japan-commuters-restricted-super-169.jpg","video":null,"channel":null,"channelUrl":null,"author":"heshiebee","authorUrl":"https://news.ycombinator.com/user?id=heshiebee","authorImage":null,"authorSlug":null,"score":331,"views":null,"sharedCount":null,"likeCount":null,"sharedContent":null,"parent":{"__typename":"HnJson","localize":[{"title":"微软在日本尝试了4天工作周。生产力提高了40%。","locale":"zh"},{"title":"微軟在日本嘗試了4天工作周。生產力提高了40%。","locale":"zh-Hant"}]}}]}},"pageContext":{"basePath":"/","pageType":"tag","tag":"story","tagsFilter":{"id":{"glob":"!*Post-1"}},"filter":{"id":{"glob":"!*Post-1"},"tags":{"eq":"story"}},"limit":25,"skip":525,"total":3106,"totalPages":125,"currentPage":22,"maxWidth":1024,"maxHeight":512,"locale":"zh","hrefLang":"zh-Hans","originalPath":"/tags/story/page/22","dateFormat":"YYYY-MM-DD"}},"staticQueryHashes":["1239077767","2506312863","2744905544","3025052997","3493603132","3493603132","3513215887","386998304"]}