{"componentChunkName":"component---gatsby-theme-buzzing-src-gatsby-theme-timeline-templates-posts-query-js","path":"/ja/tags/hacker-news/page/11","result":{"data":{"site":{"siteMetadata":{"title":"Reddit 热门","description":"用中文浏览Reddit热门内容","social":[{"name":"Twitter","url":"https://twitter.com/gatsbyjs","external":null,"prefetch":null},{"name":"GitHub","url":"https://github.com/gatsbyjs","external":null,"prefetch":null}],"menuLinks":[],"localize":[{"locale":"en","title":"Buzzing on Reddit","description":"See what's buzzing on Reddit in your native language","social":[{"name":"Reddit","url":"https://www.reddit.com/","external":true,"prefetch":null}],"menuLinks":[{"name":"Weekly Selection","url":"/issues","external":null,"prefetch":null},{"name":"RSS","url":"/rss.xml","external":null,"prefetch":false}]},{"locale":"zh-Hant","title":"Reddit 熱門","description":"用中文瀏覽Reddit熱門內容","social":null,"menuLinks":null}]}},"tagsGroup":{"group":[{"fieldValue":"ASK HN","totalCount":54},{"fieldValue":"Hacker News","totalCount":3107},{"fieldValue":"Poll","totalCount":1},{"fieldValue":"Show HN","totalCount":100},{"fieldValue":"poll","totalCount":1},{"fieldValue":"story","totalCount":3106}]},"allBlogPost":{"nodes":[{"__typename":"SocialMediaPost","id":"HnPost-26603259","excerpt":"","slug":"/hn/26603259","title":"OAuth 2.0 Authentication Vulnerabilities","date":"March 28, 2021","dateISO":"2021-03-28T06:56:30.323Z","datetime":"2021-03-28 06:56","tags":["story","Hacker News"],"image":null,"imageAlt":null,"provider":"Hacker News","thirdPartyId":"26603259","url":"https://news.ycombinator.com/item?id=26603259","originalUrl":"https://portswigger.net/web-security/oauth","imageRemote":"https://portswigger.net/content/images/logos/academy-twittercard.png","video":null,"channel":null,"channelUrl":null,"author":"lobo_tuerto","authorUrl":"https://news.ycombinator.com/user?id=lobo_tuerto","authorImage":null,"authorSlug":null,"score":173,"views":null,"sharedCount":null,"likeCount":null,"sharedContent":null,"parent":{"__typename":"HnJson","localize":[{"title":"OAuth 2.0 认证漏洞","locale":"zh"},{"title":"OAuth 2.0 認證漏洞","locale":"zh-Hant"}]}},{"__typename":"SocialMediaPost","id":"HnPost-26607556","excerpt":"","slug":"/hn/26607556","title":"„We were chased out of SF after trying to give free Internet to the poorest“","date":"March 28, 2021","dateISO":"2021-03-28T05:53:01.750Z","datetime":"2021-03-28 05:53","tags":["story","Hacker News"],"image":null,"imageAlt":null,"provider":"Hacker News","thirdPartyId":"26607556","url":"https://news.ycombinator.com/item?id=26607556","originalUrl":"https://twitter.com/sacca/status/1375962440303661057","imageRemote":null,"video":null,"channel":null,"channelUrl":null,"author":"_Microft","authorUrl":"https://news.ycombinator.com/user?id=_Microft","authorImage":null,"authorSlug":null,"score":183,"views":null,"sharedCount":null,"likeCount":null,"sharedContent":null,"parent":{"__typename":"HnJson","localize":[{"title":"\"我们被赶出了旧金山，因为我们想给最穷的人提供免费互联网\"","locale":"zh"},{"title":"\"我們被趕出了舊金山，因爲我們想給最窮的人提供免費互聯網\"","locale":"zh-Hant"}]}},{"__typename":"SocialMediaPost","id":"HnPost-26607386","excerpt":"","slug":"/hn/26607386","title":"You’ve Been Lied to About Lying","date":"March 28, 2021","dateISO":"2021-03-28T05:34:26.512Z","datetime":"2021-03-28 05:34","tags":["story","Hacker News"],"image":null,"imageAlt":null,"provider":"Hacker News","thirdPartyId":"26607386","url":"https://news.ycombinator.com/item?id=26607386","originalUrl":"https://www.theatlantic.com/science/archive/2021/03/how-to-spot-a-liar/618425/","imageRemote":"https://cdn.theatlantic.com/thumbor/s4YcOtL5vE_KEu2NP5p82Af9KAo=/0x53:2496x1353/960x500/https://cdn.theatlantic.com/media/img/mt/2021/03/GettyImages_563937187/original.jpg","video":null,"channel":null,"channelUrl":null,"author":"samizdis","authorUrl":"https://news.ycombinator.com/user?id=samizdis","authorImage":null,"authorSlug":null,"score":421,"views":null,"sharedCount":null,"likeCount":null,"sharedContent":null,"parent":{"__typename":"HnJson","localize":[{"title":"你被骗了，你被骗了。","locale":"zh"},{"title":"你被騙了，你被騙了。","locale":"zh-Hant"}]}},{"__typename":"SocialMediaPost","id":"HnPost-26602243","excerpt":"","slug":"/hn/26602243","title":"Facebook freezes Venezuela president Maduro's page over Covid-19","date":"March 28, 2021","dateISO":"2021-03-28T03:44:26.913Z","datetime":"2021-03-28 03:44","tags":["story","Hacker News"],"image":null,"imageAlt":null,"provider":"Hacker News","thirdPartyId":"26602243","url":"https://news.ycombinator.com/item?id=26602243","originalUrl":"https://www.reuters.com/article/us-facebook-venezuela-exclusive/exclusive-facebook-freezes-venezuela-president-maduros-page-over-covid-19-misinformation-idUSKBN2BJ03Z","imageRemote":"https://static.reuters.com/resources/r/?m=02&d=20210327&t=2&i=1556413075&r=LYNXMPEH2Q01H&w=800","video":null,"channel":null,"channelUrl":null,"author":"ibraheemdev","authorUrl":"https://news.ycombinator.com/user?id=ibraheemdev","authorImage":null,"authorSlug":null,"score":153,"views":null,"sharedCount":null,"likeCount":null,"sharedContent":null,"parent":{"__typename":"HnJson","localize":[{"title":"Facebook因Covid-19而冻结委内瑞拉总统马杜罗的页面。","locale":"zh"},{"title":"Facebook因Covid-19而凍結委內瑞拉總統馬杜羅的頁面。","locale":"zh-Hant"}]}},{"__typename":"SocialMediaPost","id":"HnPost-26593223","excerpt":"","slug":"/hn/26593223","title":"Does Amazon make more from ads than AWS?","date":"March 28, 2021","dateISO":"2021-03-28T03:15:05.360Z","datetime":"2021-03-28 03:15","tags":["story","Hacker News"],"image":null,"imageAlt":null,"provider":"Hacker News","thirdPartyId":"26593223","url":"https://news.ycombinator.com/item?id=26593223","originalUrl":"https://www.ben-evans.com/benedictevans/2021/3/14/do-amazon-ads-bring-in-more-cash-than-aws","imageRemote":"http://static1.squarespace.com/static/50363cf324ac8e905e7df861/t/604e4d96652486643e82acdf/1615744410257/testingads.png?format=1500w","video":null,"channel":null,"channelUrl":null,"author":"prostoalex","authorUrl":"https://news.ycombinator.com/user?id=prostoalex","authorImage":null,"authorSlug":null,"score":333,"views":null,"sharedCount":null,"likeCount":null,"sharedContent":null,"parent":{"__typename":"HnJson","localize":[{"title":"亚马逊从广告中赚的钱比AWS多吗？","locale":"zh"},{"title":"亞馬遜從廣告中賺的錢比AWS多嗎？","locale":"zh-Hant"}]}},{"__typename":"SocialMediaPost","id":"HnPost-26602316","excerpt":"","slug":"/hn/26602316","title":"Open source is not a business model (2018)","date":"March 28, 2021","dateISO":"2021-03-28T02:15:40.699Z","datetime":"2021-03-28 02:15","tags":["story","Hacker News"],"image":null,"imageAlt":null,"provider":"Hacker News","thirdPartyId":"26602316","url":"https://news.ycombinator.com/item?id=26602316","originalUrl":"https://anonymoushash.vmbrasseur.com/2018/08/24/open-source-is-not-a-business-model-and-your-business-will-fail-if-you-think-that-it-is/","imageRemote":"https://c1.staticflickr.com/1/462/19043881443_dca8d949dd_z.jpg","video":null,"channel":null,"channelUrl":null,"author":"JNRowe","authorUrl":"https://news.ycombinator.com/user?id=JNRowe","authorImage":null,"authorSlug":null,"score":186,"views":null,"sharedCount":null,"likeCount":null,"sharedContent":null,"parent":{"__typename":"HnJson","localize":[{"title":"开源不是一种商业模式(2018)","locale":"zh"},{"title":"開源不是一種商業模式(2018)","locale":"zh-Hant"}]}},{"__typename":"SocialMediaPost","id":"HnPost-26603197","excerpt":"","slug":"/hn/26603197","title":"400-year-old Greenland shark ‘longest-living vertebrate’ (2016)","date":"March 28, 2021","dateISO":"2021-03-28T01:12:58.222Z","datetime":"2021-03-28 01:12","tags":["story","Hacker News"],"image":null,"imageAlt":null,"provider":"Hacker News","thirdPartyId":"26603197","url":"https://news.ycombinator.com/item?id=26603197","originalUrl":"https://www.bbc.com/news/science-environment-37047168","imageRemote":"https://ichef.bbci.co.uk/news/1024/branded_news/72E7/production/_90751492_nielsen2hr.jpg","video":null,"channel":null,"channelUrl":null,"author":"milanandreew","authorUrl":"https://news.ycombinator.com/user?id=milanandreew","authorImage":null,"authorSlug":null,"score":227,"views":null,"sharedCount":null,"likeCount":null,"sharedContent":null,"parent":{"__typename":"HnJson","localize":[{"title":"400岁的格陵兰鲨鱼 \"最长寿的脊椎动物\"(2016)","locale":"zh"},{"title":"400歲的格陵蘭鯊魚 \"最長壽的脊椎動物\"(2016)","locale":"zh-Hant"}]}},{"__typename":"SocialMediaPost","id":"HnPost-26601035","excerpt":"","slug":"/hn/26601035","title":"Shitty Software Kills People","date":"March 27, 2021","dateISO":"2021-03-27T23:58:54.662Z","datetime":"2021-03-27 23:58","tags":["story","Hacker News"],"image":null,"imageAlt":null,"provider":"Hacker News","thirdPartyId":"26601035","url":"https://news.ycombinator.com/item?id=26601035","originalUrl":"https://val.demar.in/2021/03/shitty-software-kills-people/","imageRemote":"https://i2.wp.com/val.demar.in/wp-content/uploads/2014/06/cropped-Psq.jpg?fit=512%2C512&ssl=1","video":null,"channel":null,"channelUrl":null,"author":"ingve","authorUrl":"https://news.ycombinator.com/user?id=ingve","authorImage":null,"authorSlug":null,"score":179,"views":null,"sharedCount":null,"likeCount":null,"sharedContent":null,"parent":{"__typename":"HnJson","localize":[{"title":"劣质软件害死人","locale":"zh"},{"title":"劣質軟件害死人","locale":"zh-Hant"}]}},{"__typename":"SocialMediaPost","id":"HnPost-26604093","excerpt":"","slug":"/hn/26604093","title":"I tracked down my impostor","date":"March 27, 2021","dateISO":"2021-03-27T22:29:20.423Z","datetime":"2021-03-27 22:29","tags":["story","Hacker News"],"image":null,"imageAlt":null,"provider":"Hacker News","thirdPartyId":"26604093","url":"https://news.ycombinator.com/item?id=26604093","originalUrl":"https://www.theguardian.com/lifeandstyle/2021/mar/26/experience-i-tracked-down-my-impostor","imageRemote":"https://i.guim.co.uk/img/media/bb6cedaa8e87bf318ab7c6729b138fe19aae1582/0_783_7867_4721/master/7867.jpg?width=1200&height=630&quality=85&auto=format&fit=crop&overlay-align=bottom%2Cleft&overlay-width=100p&overlay-base64=L2ltZy9zdGF0aWMvb3ZlcmxheXMvdGctZGVmYXVsdC5wbmc&enable=upscale&s=9c7a634383fa95328b30351db9601710","video":null,"channel":null,"channelUrl":null,"author":"vanilla-almond","authorUrl":"https://news.ycombinator.com/user?id=vanilla-almond","authorImage":null,"authorSlug":null,"score":446,"views":null,"sharedCount":null,"likeCount":null,"sharedContent":null,"parent":{"__typename":"HnJson","localize":[{"title":"我找到了我的冒牌货","locale":"zh"},{"title":"我找到了我的冒牌貨","locale":"zh-Hant"}]}},{"__typename":"SocialMediaPost","id":"HnPost-26602331","excerpt":"","slug":"/hn/26602331","title":"Go+: Go designed for data science","date":"March 27, 2021","dateISO":"2021-03-27T21:40:09.665Z","datetime":"2021-03-27 21:40","tags":["story","Hacker News"],"image":null,"imageAlt":null,"provider":"Hacker News","thirdPartyId":"26602331","url":"https://news.ycombinator.com/item?id=26602331","originalUrl":"https://goplus.org/","imageRemote":"https://goplus.org/logo.svg","video":null,"channel":null,"channelUrl":null,"author":"angrymouse","authorUrl":"https://news.ycombinator.com/user?id=angrymouse","authorImage":null,"authorSlug":null,"score":199,"views":null,"sharedCount":null,"likeCount":null,"sharedContent":null,"parent":{"__typename":"HnJson","localize":[{"title":"Go+。为数据科学设计的围棋","locale":"zh"},{"title":"Go+。爲數據科學設計的圍棋","locale":"zh-Hant"}]}},{"__typename":"SocialMediaPost","id":"HnPost-26603097","excerpt":"","slug":"/hn/26603097","title":"Figma to React","date":"March 27, 2021","dateISO":"2021-03-27T20:57:57.902Z","datetime":"2021-03-27 20:57","tags":["story","Hacker News"],"image":null,"imageAlt":null,"provider":"Hacker News","thirdPartyId":"26603097","url":"https://news.ycombinator.com/item?id=26603097","originalUrl":"https://figma-to-react.vercel.app/","imageRemote":null,"video":null,"channel":null,"channelUrl":null,"author":"tomsoderlund","authorUrl":"https://news.ycombinator.com/user?id=tomsoderlund","authorImage":null,"authorSlug":null,"score":357,"views":null,"sharedCount":null,"likeCount":null,"sharedContent":null,"parent":{"__typename":"HnJson","localize":[{"title":"Figma to React","locale":"zh"},{"title":"Figma to React","locale":"zh-Hant"}]}},{"__typename":"SocialMediaPost","id":"HnPost-26603393","excerpt":"","slug":"/hn/26603393","title":"Ohm – A library and language for building parsers, interpreters, compilers, etc.","date":"March 27, 2021","dateISO":"2021-03-27T20:50:56.903Z","datetime":"2021-03-27 20:50","tags":["story","Hacker News"],"image":null,"imageAlt":null,"provider":"Hacker News","thirdPartyId":"26603393","url":"https://news.ycombinator.com/item?id=26603393","originalUrl":"https://github.com/harc/ohm","imageRemote":"https://avatars.githubusercontent.com/u/22809831?s=400&v=4","video":null,"channel":null,"channelUrl":null,"author":"testing_1_2_3_4","authorUrl":"https://news.ycombinator.com/user?id=testing_1_2_3_4","authorImage":null,"authorSlug":null,"score":348,"views":null,"sharedCount":null,"likeCount":null,"sharedContent":null,"parent":{"__typename":"HnJson","localize":[{"title":"Ohm - 用于构建解析器、解释器、编译器等的库和语言。","locale":"zh"},{"title":"Ohm - 用於構建解析器、解釋器、編譯器等的庫和語言。","locale":"zh-Hant"}]}},{"__typename":"SocialMediaPost","id":"HnPost-26603464","excerpt":"","slug":"/hn/26603464","title":"EU experts to say nuclear power qualifies for green investment label: document","date":"March 27, 2021","dateISO":"2021-03-27T19:29:42.045Z","datetime":"2021-03-27 19:29","tags":["story","Hacker News"],"image":null,"imageAlt":null,"provider":"Hacker News","thirdPartyId":"26603464","url":"https://news.ycombinator.com/item?id=26603464","originalUrl":"https://www.reuters.com/article/us-europe-regulations-finance/eu-experts-to-say-nuclear-power-qualifies-for-green-investment-label-document-idUSKBN2BJ0F0","imageRemote":"https://static.reuters.com/resources/r/?m=02&d=20210327&t=2&i=1556436808&r=LYNXMPEH2Q07W&w=800","video":null,"channel":null,"channelUrl":null,"author":"accountinhn","authorUrl":"https://news.ycombinator.com/user?id=accountinhn","authorImage":null,"authorSlug":null,"score":481,"views":null,"sharedCount":null,"likeCount":null,"sharedContent":null,"parent":{"__typename":"HnJson","localize":[{"title":"欧盟专家称核电有资格获得绿色投资标签：文档","locale":"zh"},{"title":"歐盟專家稱核電有資格獲得綠色投資標籤：文檔","locale":"zh-Hant"}]}},{"__typename":"SocialMediaPost","id":"HnPost-26602221","excerpt":"","slug":"/hn/26602221","title":"French monks locked down with 2.8 tonnes of cheese pray for buyers","date":"March 27, 2021","dateISO":"2021-03-27T19:10:29.332Z","datetime":"2021-03-27 19:10","tags":["story","Hacker News"],"image":null,"imageAlt":null,"provider":"Hacker News","thirdPartyId":"26602221","url":"https://news.ycombinator.com/item?id=26602221","originalUrl":"https://www.theguardian.com/food/2021/mar/26/french-monks-locked-down-tonnes-cheese-pray-buyers-online","imageRemote":"https://i.guim.co.uk/img/media/4f961594f3da378c6d12a6bb5bb95c9241629cef/0_1446_3871_2321/master/3871.jpg?width=1200&height=630&quality=85&auto=format&fit=crop&overlay-align=bottom%2Cleft&overlay-width=100p&overlay-base64=L2ltZy9zdGF0aWMvb3ZlcmxheXMvdGctZGVmYXVsdC5wbmc&enable=upscale&s=e9bfe7c85894bec25c21c0e5fd9969d5","video":null,"channel":null,"channelUrl":null,"author":"sofixa","authorUrl":"https://news.ycombinator.com/user?id=sofixa","authorImage":null,"authorSlug":null,"score":222,"views":null,"sharedCount":null,"likeCount":null,"sharedContent":null,"parent":{"__typename":"HnJson","localize":[{"title":"法国僧侣带着2.8吨奶酪被锁，祈求买家的帮助","locale":"zh"},{"title":"法國僧侶帶着2.8噸奶酪被鎖，祈求買家的幫助","locale":"zh-Hant"}]}},{"__typename":"SocialMediaPost","id":"HnPost-26602033","excerpt":"","slug":"/hn/26602033","title":"Open Source Security Foundation","date":"March 27, 2021","dateISO":"2021-03-27T18:46:43.255Z","datetime":"2021-03-27 18:46","tags":["story","Hacker News"],"image":null,"imageAlt":null,"provider":"Hacker News","thirdPartyId":"26602033","url":"https://news.ycombinator.com/item?id=26602033","originalUrl":"https://openssf.org/","imageRemote":"https://openssf.org/wp-content/uploads/sites/112/2020/08/openssf_snackable.jpg","video":null,"channel":null,"channelUrl":null,"author":"Garbage","authorUrl":"https://news.ycombinator.com/user?id=Garbage","authorImage":null,"authorSlug":null,"score":233,"views":null,"sharedCount":null,"likeCount":null,"sharedContent":null,"parent":{"__typename":"HnJson","localize":[{"title":"开放源码安全基金会","locale":"zh"},{"title":"開放源碼安全基金會","locale":"zh-Hant"}]}},{"__typename":"SocialMediaPost","id":"HnPost-26586693","excerpt":"","slug":"/hn/26586693","title":"A “Better C” Benchmark","date":"March 27, 2021","dateISO":"2021-03-27T17:34:51.238Z","datetime":"2021-03-27 17:34","tags":["story","Hacker News"],"image":null,"imageAlt":null,"provider":"Hacker News","thirdPartyId":"26586693","url":"https://news.ycombinator.com/item?id=26586693","originalUrl":"https://zserge.com/posts/better-c-benchmark/","imageRemote":null,"video":null,"channel":null,"channelUrl":null,"author":"bshanks","authorUrl":"https://news.ycombinator.com/user?id=bshanks","authorImage":null,"authorSlug":null,"score":183,"views":null,"sharedCount":null,"likeCount":null,"sharedContent":null,"parent":{"__typename":"HnJson","localize":[{"title":"一个 \"更好的C \"基准","locale":"zh"},{"title":"一個 \"更好的C \"基準","locale":"zh-Hant"}]}},{"__typename":"SocialMediaPost","id":"HnPost-26600298","excerpt":"","slug":"/hn/26600298","title":"First known gene transfer from plant to insect identified","date":"March 27, 2021","dateISO":"2021-03-27T17:34:51.238Z","datetime":"2021-03-27 17:34","tags":["story","Hacker News"],"image":null,"imageAlt":null,"provider":"Hacker News","thirdPartyId":"26600298","url":"https://news.ycombinator.com/item?id=26600298","originalUrl":"https://www.nature.com/articles/d41586-021-00782-w","imageRemote":"https://media.nature.com/lw1024/magazine-assets/d41586-021-00782-w/d41586-021-00782-w_18990032.jpg","video":null,"channel":null,"channelUrl":null,"author":"hheikinh","authorUrl":"https://news.ycombinator.com/user?id=hheikinh","authorImage":null,"authorSlug":null,"score":194,"views":null,"sharedCount":null,"likeCount":null,"sharedContent":null,"parent":{"__typename":"HnJson","localize":[{"title":"首次发现从植物到昆虫的已知基因转移。","locale":"zh"},{"title":"首次發現從植物到昆蟲的已知基因轉移。","locale":"zh-Hant"}]}},{"__typename":"SocialMediaPost","id":"HnPost-26602326","excerpt":"","slug":"/hn/26602326","title":"Documents show Amazon is aware drivers pee in bottles and even defecate enroute","date":"March 27, 2021","dateISO":"2021-03-27T16:51:55.463Z","datetime":"2021-03-27 16:51","tags":["story","Hacker News"],"image":null,"imageAlt":null,"provider":"Hacker News","thirdPartyId":"26602326","url":"https://news.ycombinator.com/item?id=26602326","originalUrl":"https://theintercept.com/2021/03/25/amazon-drivers-pee-bottles-union/","imageRemote":"https://theintercept.imgix.net/wp-uploads/sites/1/2021/03/amazon-pee-bottle-2.jpg?auto=compress%2Cformat&q=90&fit=crop&w=1200&h=800","video":null,"channel":null,"channelUrl":null,"author":"tareqak","authorUrl":"https://news.ycombinator.com/user?id=tareqak","authorImage":null,"authorSlug":null,"score":176,"views":null,"sharedCount":null,"likeCount":null,"sharedContent":null,"parent":{"__typename":"HnJson","localize":[{"title":"文件显示，亚马逊知道司机在瓶子里撒尿，甚至在途中排泄。","locale":"zh"},{"title":"文件顯示，亞馬遜知道司機在瓶子裏撒尿，甚至在途中排泄。","locale":"zh-Hant"}]}},{"__typename":"SocialMediaPost","id":"HnPost-26601533","excerpt":"","slug":"/hn/26601533","title":"FileZilla now contains adware if you download from the official homepage","date":"March 27, 2021","dateISO":"2021-03-27T14:26:15.509Z","datetime":"2021-03-27 14:26","tags":["story","Hacker News"],"image":null,"imageAlt":null,"provider":"Hacker News","thirdPartyId":"26601533","url":"https://news.ycombinator.com/item?id=26601533","originalUrl":"https://www.twitter.com/nixcraft/status/1375389973742948355","imageRemote":null,"video":null,"channel":null,"channelUrl":null,"author":"URfejk","authorUrl":"https://news.ycombinator.com/user?id=URfejk","authorImage":null,"authorSlug":null,"score":541,"views":null,"sharedCount":null,"likeCount":null,"sharedContent":null,"parent":{"__typename":"HnJson","localize":[{"title":"FileZilla现在包含广告软件，如果你从官方主页下载。","locale":"zh"},{"title":"FileZilla現在包含廣告軟件，如果你從官方主頁下載。","locale":"zh-Hant"}]}},{"__typename":"SocialMediaPost","id":"HnPost-26579099","excerpt":"","slug":"/hn/26579099","title":"1982: The Hobbit","date":"March 27, 2021","dateISO":"2021-03-27T13:53:01.209Z","datetime":"2021-03-27 13:53","tags":["story","Hacker News"],"image":null,"imageAlt":null,"provider":"Hacker News","thirdPartyId":"26579099","url":"https://news.ycombinator.com/item?id=26579099","originalUrl":"https://if50.substack.com/p/1982-the-hobbit","imageRemote":"https://cdn.substack.com/image/fetch/w_1200,c_limit,f_jpg,q_auto:good,fl_progressive:steep/https%3A%2F%2Fbucketeer-e05bbc84-baa3-437e-9518-adb32be77984.s3.amazonaws.com%2Fpublic%2Fimages%2Fa483206b-219a-48b5-a274-0b08c56678ff_1200x831.png","video":null,"channel":null,"channelUrl":null,"author":"makaimc","authorUrl":"https://news.ycombinator.com/user?id=makaimc","authorImage":null,"authorSlug":null,"score":189,"views":null,"sharedCount":null,"likeCount":null,"sharedContent":null,"parent":{"__typename":"HnJson","localize":[{"title":"1982: 《霍比特人》","locale":"zh"},{"title":"1982: 《霍比特人》","locale":"zh-Hant"}]}},{"__typename":"SocialMediaPost","id":"HnPost-26599043","excerpt":"","slug":"/hn/26599043","title":"The Revolution in Classic Tetris","date":"March 27, 2021","dateISO":"2021-03-27T12:53:35.944Z","datetime":"2021-03-27 12:53","tags":["story","Hacker News"],"image":null,"imageAlt":null,"provider":"Hacker News","thirdPartyId":"26599043","url":"https://news.ycombinator.com/item?id=26599043","originalUrl":"https://www.newyorker.com/culture/cultural-comment/the-revolution-in-classic-tetris","imageRemote":"https://media.newyorker.com/photos/6048ea777889a5747087ea25/16:9/w_1280,c_limit/Sweet-ClassicTetris.jpg","video":null,"channel":null,"channelUrl":null,"author":"irtefa","authorUrl":"https://news.ycombinator.com/user?id=irtefa","authorImage":null,"authorSlug":null,"score":178,"views":null,"sharedCount":null,"likeCount":null,"sharedContent":null,"parent":{"__typename":"HnJson","localize":[{"title":"经典俄罗斯方块的革命","locale":"zh"},{"title":"經典俄羅斯方塊的革命","locale":"zh-Hant"}]}},{"__typename":"SocialMediaPost","id":"HnPost-26599830","excerpt":"","slug":"/hn/26599830","title":"Louvre makes its entire collection available online","date":"March 27, 2021","dateISO":"2021-03-27T08:57:33.731Z","datetime":"2021-03-27 08:57","tags":["story","Hacker News"],"image":null,"imageAlt":null,"provider":"Hacker News","thirdPartyId":"26599830","url":"https://news.ycombinator.com/item?id=26599830","originalUrl":"https://collections.louvre.fr/en/","imageRemote":null,"video":null,"channel":null,"channelUrl":null,"author":"colinprince","authorUrl":"https://news.ycombinator.com/user?id=colinprince","authorImage":null,"authorSlug":null,"score":929,"views":null,"sharedCount":null,"likeCount":null,"sharedContent":null,"parent":{"__typename":"HnJson","localize":[{"title":"卢浮宫在网上提供全部藏品","locale":"zh"},{"title":"盧浮宮在網上提供全部藏品","locale":"zh-Hant"}]}},{"__typename":"SocialMediaPost","id":"HnPost-26586866","excerpt":"","slug":"/hn/26586866","title":"The bank effect and the big boat blocking the Suez","date":"March 27, 2021","dateISO":"2021-03-27T08:43:42.293Z","datetime":"2021-03-27 08:43","tags":["story","Hacker News"],"image":null,"imageAlt":null,"provider":"Hacker News","thirdPartyId":"26586866","url":"https://news.ycombinator.com/item?id=26586866","originalUrl":"https://www.ft.com/content/171c92ec-0a44-4dc5-acab-81ee2620d3c1","imageRemote":"https://d1e00ek4ebabms.cloudfront.net/production/1a53ec4c-ba52-4a87-8fa5-382eddfedb05.jpg","video":null,"channel":null,"channelUrl":null,"author":"connorlu","authorUrl":"https://news.ycombinator.com/user?id=connorlu","authorImage":null,"authorSlug":null,"score":160,"views":null,"sharedCount":null,"likeCount":null,"sharedContent":null,"parent":{"__typename":"HnJson","localize":[{"title":"岸上效应和大船封锁苏伊士海峡","locale":"zh"},{"title":"岸上效應和大船封鎖蘇伊士海峽","locale":"zh-Hant"}]}},{"__typename":"SocialMediaPost","id":"HnPost-26597419","excerpt":"","slug":"/hn/26597419","title":"PlenOctrees for Real-Time Rendering of Neural Radiance Fields (NeRFs)","date":"March 27, 2021","dateISO":"2021-03-27T05:50:54.872Z","datetime":"2021-03-27 05:50","tags":["story","Hacker News"],"image":null,"imageAlt":null,"provider":"Hacker News","thirdPartyId":"26597419","url":"https://news.ycombinator.com/item?id=26597419","originalUrl":"http://alexyu.net/plenoctrees/","imageRemote":"http://alexyu.net/plenoctrees/img/pipeline.png","video":null,"channel":null,"channelUrl":null,"author":"rsp1984","authorUrl":"https://news.ycombinator.com/user?id=rsp1984","authorImage":null,"authorSlug":null,"score":174,"views":null,"sharedCount":null,"likeCount":null,"sharedContent":null,"parent":{"__typename":"HnJson","localize":[{"title":"PlenOctrees用于神经辐射场（NeRFs）的实时渲染。","locale":"zh"},{"title":"PlenOctrees用於神經輻射場（NeRFs）的實時渲染。","locale":"zh-Hant"}]}},{"__typename":"SocialMediaPost","id":"HnPost-26598155","excerpt":"","slug":"/hn/26598155","title":"Tesla broke US labor law with anti-union efforts – watchdog","date":"March 27, 2021","dateISO":"2021-03-27T03:59:27.969Z","datetime":"2021-03-27 03:59","tags":["story","Hacker News"],"image":null,"imageAlt":null,"provider":"Hacker News","thirdPartyId":"26598155","url":"https://news.ycombinator.com/item?id=26598155","originalUrl":"https://www.theregister.com/2021/03/26/tesla_labor_law/","imageRemote":"https://regmedia.co.uk/2021/03/26/shutterstock_elon_musk.jpg","video":null,"channel":null,"channelUrl":null,"author":"samizdis","authorUrl":"https://news.ycombinator.com/user?id=samizdis","authorImage":null,"authorSlug":null,"score":469,"views":null,"sharedCount":null,"likeCount":null,"sharedContent":null,"parent":{"__typename":"HnJson","localize":[{"title":"特斯拉反工会的努力违反了美国劳动法--监督机构","locale":"zh"},{"title":"特斯拉反工會的努力違反了美國勞動法--監督機構","locale":"zh-Hant"}]}}]}},"pageContext":{"basePath":"/","pageType":"tag","tag":"Hacker News","tagsFilter":{"id":{"glob":"!*Post-1"}},"filter":{"id":{"glob":"!*Post-1"},"tags":{"eq":"Hacker News"}},"limit":25,"skip":250,"total":3107,"totalPages":125,"currentPage":11,"maxWidth":1024,"maxHeight":512,"locale":"ja","hrefLang":"ja-JA","originalPath":"/tags/hacker-news/page/11","dateFormat":"YYYY-MM-DD"}},"staticQueryHashes":["1239077767","2506312863","2744905544","3025052997","3493603132","3493603132","3513215887","386998304"]}