{"componentChunkName":"component---gatsby-theme-buzzing-src-gatsby-theme-timeline-templates-posts-query-js","path":"/zh-Hant/tags/investing/page/7","result":{"data":{"site":{"siteMetadata":{"title":"Reddit 热门","description":"用中文浏览Reddit热门内容","social":[{"name":"Reddit","url":"https://www.reddit.com/","external":true,"prefetch":null},{"name":"GitHub","url":"https://github.com/gatsbyjs","external":null,"prefetch":null}],"menuLinks":[{"name":"每周精选","url":"/issues","external":null,"prefetch":null},{"name":"RSS","url":"/rss.xml","external":null,"prefetch":false}],"localize":[{"locale":"en","title":"Buzzing on Reddit","description":"See what's buzzing on Reddit in your native language","social":[{"name":"Reddit","url":"https://www.reddit.com/","external":true,"prefetch":null}],"menuLinks":[{"name":"Weekly Selection","url":"/issues","external":null,"prefetch":null},{"name":"RSS","url":"/rss.xml","external":null,"prefetch":false}]},{"locale":"zh-Hant","title":"Reddit 熱門","description":"用中文瀏覽Reddit熱門內容","social":null,"menuLinks":null}]}},"tagsGroup":{"group":[{"fieldValue":"Bitcoin","totalCount":3},{"fieldValue":"investing","totalCount":151},{"fieldValue":"reddit","totalCount":540},{"fieldValue":"stocks","totalCount":264},{"fieldValue":"tweet","totalCount":234},{"fieldValue":"wallstreetbets","totalCount":125}]},"allBlogPost":{"nodes":[{"__typename":"SocialMediaPost","id":"RedditPost-kd1m9c","excerpt":"I'm pretty new to investing, but I would have thought that Moderna and Pfizer\nstocks would get a big boost having just gotten approval to distribute massive\nquantities of arguably the most important vaccine in living memory. And yet, the\nstocks seem to be declining in value. What would explain this?","slug":"/reddit/r/investing/comments/kd1m9c/with_moderna_and_pfizer_vaccines_being/","title":"With Moderna and Pfizer vaccines being distributed and countries competing over supplies, why do their stocks seem to be not doing much?","date":"December 15, 2020","dateISO":"2020-12-15T07:08:29.000Z","datetime":"2020-12-15 07:08","tags":["investing","reddit"],"image":null,"imageAlt":null,"provider":"Reddit","thirdPartyId":"kd1m9c","url":"https://www.reddit.com/r/investing/comments/kd1m9c/with_moderna_and_pfizer_vaccines_being/","originalUrl":"https://www.reddit.com/r/investing/comments/kd1m9c/with_moderna_and_pfizer_vaccines_being/","imageRemote":null,"video":null,"channel":"investing","channelUrl":"https://www.reddit.com/r/investing","author":"DontHateDefenestrate","authorUrl":"https://www.reddit.com/user/DontHateDefenestrate","authorImage":null,"authorSlug":"DontHateDefenestrate","score":1181,"views":null,"sharedCount":null,"likeCount":null,"sharedContent":null,"parent":{"__typename":"RedditJson","localize":[{"title":"随着现代和辉瑞疫苗的分发，以及各国对供应的竞争，为什么他们的股票似乎没有太大作用？","the_new_excerpt":"我对投资还是个新手，但我本以为摩迪纳和辉瑞\n在刚刚获准大量分销后，股票将得到极大的提振\n可以说是人们记忆中最重要的疫苗的数量。然而，\n股票似乎在贬值。怎么解释这件事呢？","locale":"zh"},{"title":"隨着現代和輝瑞疫苗的分發，以及各國對供應的競爭，爲什麼他們的庫存似乎沒有太大作用？","the_new_excerpt":"我對投資還是個新手，但我本以爲摩迪納和輝瑞\n在剛剛獲准大量分銷後，股票將得到極大的提振\n可以說是人們記憶中最重要的疫苗的數量。然而，\n股票似乎在貶值。怎麼解釋這件事呢？","locale":"zh-Hant"}]}}]}},"pageContext":{"basePath":"/","pageType":"tag","tag":"investing","tagsFilter":{"id":{"glob":"!*Post-1"}},"filter":{"id":{"glob":"!*Post-1"},"tags":{"eq":"investing"}},"limit":25,"skip":150,"total":151,"totalPages":7,"currentPage":7,"maxWidth":1024,"maxHeight":512,"locale":"zh-Hant","hrefLang":"zh-Hant","originalPath":"/tags/investing/page/7","dateFormat":"YYYY-MM-DD"}},"staticQueryHashes":["1239077767","2506312863","2744905544","3493603132","3493603132","386998304","4203388852"]}