{"componentChunkName":"component---gatsby-theme-buzzing-src-gatsby-theme-timeline-templates-posts-query-js","path":"/tags/story/page/69","result":{"data":{"site":{"siteMetadata":{"title":"Reddit 热门","description":"用中文浏览Reddit热门内容","social":[{"name":"Twitter","url":"https://twitter.com/gatsbyjs","external":null,"prefetch":null},{"name":"GitHub","url":"https://github.com/gatsbyjs","external":null,"prefetch":null}],"menuLinks":[],"localize":[{"locale":"en","title":"Buzzing on Reddit","description":"See what's buzzing on Reddit in your native language","social":[{"name":"Reddit","url":"https://www.reddit.com/","external":true,"prefetch":null}],"menuLinks":[{"name":"Weekly Selection","url":"/issues","external":null,"prefetch":null},{"name":"RSS","url":"/rss.xml","external":null,"prefetch":false}]},{"locale":"zh-Hant","title":"Reddit 熱門","description":"用中文瀏覽Reddit熱門內容","social":null,"menuLinks":null}]}},"tagsGroup":{"group":[{"fieldValue":"ASK HN","totalCount":42},{"fieldValue":"Bitcoin","totalCount":4},{"fieldValue":"Hacker News","totalCount":2409},{"fieldValue":"Poll","totalCount":1},{"fieldValue":"SaveAMC","totalCount":1},{"fieldValue":"Show HN","totalCount":81},{"fieldValue":"bitcoin","totalCount":3},{"fieldValue":"investing","totalCount":755},{"fieldValue":"poll","totalCount":1},{"fieldValue":"reddit","totalCount":4525},{"fieldValue":"science","totalCount":1},{"fieldValue":"stocks","totalCount":1482},{"fieldValue":"story","totalCount":2408},{"fieldValue":"tweet","totalCount":767},{"fieldValue":"wallstreetbets","totalCount":2288}]},"allBlogPost":{"nodes":[{"__typename":"SocialMediaPost","id":"HnPost-25646909","excerpt":"","slug":"/hn/25646909","title":"Learn Go in five minutes","date":"January 05, 2021","dateISO":"2021-01-05T19:21:28.377Z","datetime":"2021-01-05 19:21","tags":["story","Hacker News"],"image":null,"imageAlt":null,"provider":"Hacker News","thirdPartyId":"25646909","url":"https://news.ycombinator.com/item?id=25646909","originalUrl":"https://gist.github.com/prologic/5f6afe9c1b98016ca278f4d507e65510","imageRemote":"https://github.githubassets.com/images/modules/gists/gist-og-image.png","video":null,"channel":null,"channelUrl":null,"author":"tate","authorUrl":"https://news.ycombinator.com/user?id=tate","authorImage":null,"authorSlug":null,"score":202,"views":null,"sharedCount":null,"likeCount":null,"sharedContent":null,"parent":{"__typename":"HnJson","localize":[{"title":"五分钟后学棋","locale":"zh"},{"title":"五分鐘後學棋","locale":"zh-Hant"}]}},{"__typename":"SocialMediaPost","id":"HnPost-25642392","excerpt":"","slug":"/hn/25642392","title":"Blocking Pinterest may reduce your data usage","date":"January 05, 2021","dateISO":"2021-01-05T18:12:16.890Z","datetime":"2021-01-05 18:12","tags":["story","Hacker News"],"image":null,"imageAlt":null,"provider":"Hacker News","thirdPartyId":"25642392","url":"https://news.ycombinator.com/item?id=25642392","originalUrl":"https://ruky.me/2021/01/05/you-might-want-to-block-pinterest-to-save-your-data/","imageRemote":"https://ruky.me/wp-content/uploads/2020/12/15A7DE22-2C11-4D5A-A2EE-9CCE51B929B5.jpeg","video":null,"channel":null,"channelUrl":null,"author":"rukshn","authorUrl":"https://news.ycombinator.com/user?id=rukshn","authorImage":null,"authorSlug":null,"score":156,"views":null,"sharedCount":null,"likeCount":null,"sharedContent":null,"parent":{"__typename":"HnJson","localize":[{"title":"屏蔽Pinterest可能会减少您的数据使用量","locale":"zh"},{"title":"屏蔽Pinterest可能會減少您的數據使用量","locale":"zh-Hant"}]}},{"__typename":"SocialMediaPost","id":"HnPost-25644605","excerpt":"","slug":"/hn/25644605","title":"Busiest hour ever in the history of Gov.uk 17M page requests just 21 5xx errors","date":"January 05, 2021","dateISO":"2021-01-05T18:12:16.890Z","datetime":"2021-01-05 18:12","tags":["story","Hacker News"],"image":null,"imageAlt":null,"provider":"Hacker News","thirdPartyId":"25644605","url":"https://news.ycombinator.com/item?id=25644605","originalUrl":"https://twitter.com/TheRealNooshu/status/1346183432876019712","imageRemote":null,"video":null,"channel":null,"channelUrl":null,"author":"robtaylor","authorUrl":"https://news.ycombinator.com/user?id=robtaylor","authorImage":null,"authorSlug":null,"score":230,"views":null,"sharedCount":null,"likeCount":null,"sharedContent":null,"parent":{"__typename":"HnJson","localize":[{"title":"Gov.uk历史上最忙的一个小时，17M页面仅请求215xx个错误","locale":"zh"},{"title":"Gov.uk歷史上最忙的一個小時，17M頁面僅請求215xx個錯誤","locale":"zh-Hant"}]}},{"__typename":"SocialMediaPost","id":"HnPost-25644656","excerpt":"","slug":"/hn/25644656","title":"Understanding Connections and Pools","date":"January 05, 2021","dateISO":"2021-01-05T18:12:16.890Z","datetime":"2021-01-05 18:12","tags":["story","Hacker News"],"image":null,"imageAlt":null,"provider":"Hacker News","thirdPartyId":"25644656","url":"https://news.ycombinator.com/item?id=25644656","originalUrl":"https://sudhir.io/understanding-connections-pools/","imageRemote":"https://images.unsplash.com/photo-1554960750-9468c5d9e239?crop=entropy&cs=tinysrgb&fit=max&fm=jpg&ixid=MXwxMTc3M3wwfDF8c2VhcmNofDN8fGNvbm5lY3Rpb25zfGVufDB8fHw&ixlib=rb-1.2.1&q=80&w=2000","video":null,"channel":null,"channelUrl":null,"author":"sudhirj","authorUrl":"https://news.ycombinator.com/user?id=sudhirj","authorImage":null,"authorSlug":null,"score":213,"views":null,"sharedCount":null,"likeCount":null,"sharedContent":null,"parent":{"__typename":"HnJson","localize":[{"title":"了解连接和池","locale":"zh"},{"title":"瞭解連接和池","locale":"zh-Hant"}]}},{"__typename":"SocialMediaPost","id":"HnPost-25644678","excerpt":"","slug":"/hn/25644678","title":"RSD – RISC-V Out-of-Order Superscalar Processor","date":"January 05, 2021","dateISO":"2021-01-05T18:12:16.890Z","datetime":"2021-01-05 18:12","tags":["story","Hacker News"],"image":null,"imageAlt":null,"provider":"Hacker News","thirdPartyId":"25644678","url":"https://news.ycombinator.com/item?id=25644678","originalUrl":"https://github.com/rsd-devel/rsd","imageRemote":"https://avatars1.githubusercontent.com/u/56767679?s=400&v=4","video":null,"channel":null,"channelUrl":null,"author":"varbhat","authorUrl":"https://news.ycombinator.com/user?id=varbhat","authorImage":null,"authorSlug":null,"score":239,"views":null,"sharedCount":null,"likeCount":null,"sharedContent":null,"parent":{"__typename":"HnJson","localize":[{"title":"RSD-RISC-V无序超标量处理器","locale":"zh"},{"title":"RSD-RISC-V無序超標量處理器","locale":"zh-Hant"}]}},{"__typename":"SocialMediaPost","id":"HnPost-25644817","excerpt":"","slug":"/hn/25644817","title":"Ask HN: Who's looking for a co-founder?","date":"January 05, 2021","dateISO":"2021-01-05T18:12:16.890Z","datetime":"2021-01-05 18:12","tags":["story","ASK HN","Hacker News"],"image":null,"imageAlt":null,"provider":"Hacker News","thirdPartyId":"25644817","url":"https://news.ycombinator.com/item?id=25644817","originalUrl":"https://news.ycombinator.com/item?id=25644817","imageRemote":null,"video":null,"channel":"ASK HN","channelUrl":"https://news.ycombinator.com/ask","author":"notoriousarun","authorUrl":"https://news.ycombinator.com/user?id=notoriousarun","authorImage":null,"authorSlug":null,"score":222,"views":null,"sharedCount":null,"likeCount":null,"sharedContent":null,"parent":{"__typename":"HnJson","localize":[{"title":"HN提问：谁在寻找联合创始人？","locale":"zh"},{"title":"HN提問：誰在尋找聯合創始人？","locale":"zh-Hant"}]}},{"__typename":"SocialMediaPost","id":"HnPost-25644828","excerpt":"","slug":"/hn/25644828","title":"Show HN: Unclack – a macOS app that auto-mutes your keyboard","date":"January 05, 2021","dateISO":"2021-01-05T18:12:16.890Z","datetime":"2021-01-05 18:12","tags":["story","Show HN","Hacker News"],"image":null,"imageAlt":null,"provider":"Hacker News","thirdPartyId":"25644828","url":"https://news.ycombinator.com/item?id=25644828","originalUrl":"https://unclack.app","imageRemote":"https://unclack.app/images/logo.png","video":null,"channel":"Show HN","channelUrl":"https://news.ycombinator.com/show","author":"robotsquidward","authorUrl":"https://news.ycombinator.com/user?id=robotsquidward","authorImage":null,"authorSlug":null,"score":277,"views":null,"sharedCount":null,"likeCount":null,"sharedContent":null,"parent":{"__typename":"HnJson","localize":[{"title":"HN新产品：Unclack-一款MacOS应用程序，可以自动将键盘静音","locale":"zh"},{"title":"HN新產品：Unclack-一款MacOS應用程序，可以自動將鍵盤靜音","locale":"zh-Hant"}]}},{"__typename":"SocialMediaPost","id":"HnPost-25645838","excerpt":"","slug":"/hn/25645838","title":"Electric cars make up 54% of cars sold in Norway in 2020","date":"January 05, 2021","dateISO":"2021-01-05T18:12:16.890Z","datetime":"2021-01-05 18:12","tags":["story","Hacker News"],"image":null,"imageAlt":null,"provider":"Hacker News","thirdPartyId":"25645838","url":"https://news.ycombinator.com/item?id=25645838","originalUrl":"https://www.theguardian.com/environment/2021/jan/05/electric-cars-record-market-share-norway","imageRemote":"https://i.guim.co.uk/img/media/43f47e95d285b4318ac525118892b7e0183eedc4/0_273_6087_3652/master/6087.jpg?width=1200&height=630&quality=85&auto=format&fit=crop&overlay-align=bottom%2Cleft&overlay-width=100p&overlay-base64=L2ltZy9zdGF0aWMvb3ZlcmxheXMvdGctZGVmYXVsdC5wbmc&enable=upscale&s=85b7b832fa5ab922215fdfb09f18d5da","video":null,"channel":null,"channelUrl":null,"author":"phonebucket","authorUrl":"https://news.ycombinator.com/user?id=phonebucket","authorImage":null,"authorSlug":null,"score":190,"views":null,"sharedCount":null,"likeCount":null,"sharedContent":null,"parent":{"__typename":"HnJson","localize":[{"title":"2020年，电动汽车占挪威汽车销量的54%","locale":"zh"},{"title":"2020年，電動汽車佔挪威汽車銷量的54%","locale":"zh-Hant"}]}},{"__typename":"SocialMediaPost","id":"HnPost-25646867","excerpt":"","slug":"/hn/25646867","title":"U.S. Bill H.R.69 introduced – To make daylight savings time permanent","date":"January 05, 2021","dateISO":"2021-01-05T18:12:16.890Z","datetime":"2021-01-05 18:12","tags":["story","Hacker News"],"image":null,"imageAlt":null,"provider":"Hacker News","thirdPartyId":"25646867","url":"https://news.ycombinator.com/item?id=25646867","originalUrl":"https://www.congress.gov/bill/117th-congress/house-bill/69?s=1&r=7","imageRemote":"https://www.congress.gov/img/opengraph1200by630.jpg","video":null,"channel":null,"channelUrl":null,"author":"mdm12","authorUrl":"https://news.ycombinator.com/user?id=mdm12","authorImage":null,"authorSlug":null,"score":344,"views":null,"sharedCount":null,"likeCount":null,"sharedContent":null,"parent":{"__typename":"HnJson","localize":[{"title":"美国法案H.R.69提出-将夏令时永久化","locale":"zh"},{"title":"美國法案H.R.69提出-將夏令時永久化","locale":"zh-Hant"}]}},{"__typename":"SocialMediaPost","id":"HnPost-25641420","excerpt":"","slug":"/hn/25641420","title":"Show HN: Handel – A procedural programming language for writing songs in browser","date":"January 05, 2021","dateISO":"2021-01-05T17:09:01.959Z","datetime":"2021-01-05 17:09","tags":["story","Show HN","Hacker News"],"image":null,"imageAlt":null,"provider":"Hacker News","thirdPartyId":"25641420","url":"https://news.ycombinator.com/item?id=25641420","originalUrl":"https://handel-pl.github.io","imageRemote":null,"video":null,"channel":"Show HN","channelUrl":"https://news.ycombinator.com/show","author":"ddj231","authorUrl":"https://news.ycombinator.com/user?id=ddj231","authorImage":null,"authorSlug":null,"score":186,"views":null,"sharedCount":null,"likeCount":null,"sharedContent":null,"parent":{"__typename":"HnJson","localize":[{"title":"HN新产品：HANDELL-一种在浏览器中编写歌曲的过程化编程语言","locale":"zh"},{"title":"HN新產品：HANDELL-一種在瀏覽器中編寫歌曲的過程化編程語言","locale":"zh-Hant"}]}},{"__typename":"SocialMediaPost","id":"HnPost-25642062","excerpt":"","slug":"/hn/25642062","title":"A distributed key value store in under 1000 lines","date":"January 05, 2021","dateISO":"2021-01-05T17:09:01.959Z","datetime":"2021-01-05 17:09","tags":["story","Hacker News"],"image":null,"imageAlt":null,"provider":"Hacker News","thirdPartyId":"25642062","url":"https://news.ycombinator.com/item?id=25642062","originalUrl":"https://github.com/geohot/minikeyvalue","imageRemote":"https://avatars2.githubusercontent.com/u/72895?s=400&v=4","video":null,"channel":null,"channelUrl":null,"author":"Triv888","authorUrl":"https://news.ycombinator.com/user?id=Triv888","authorImage":null,"authorSlug":null,"score":187,"views":null,"sharedCount":null,"likeCount":null,"sharedContent":null,"parent":{"__typename":"HnJson","localize":[{"title":"分布式密钥值存储在1000行以下","locale":"zh"},{"title":"分佈式密鑰值存儲在1000行以下","locale":"zh-Hant"}]}},{"__typename":"SocialMediaPost","id":"HnPost-25644964","excerpt":"","slug":"/hn/25644964","title":"Termux no longer updated on Google Play","date":"January 05, 2021","dateISO":"2021-01-05T17:09:01.958Z","datetime":"2021-01-05 17:09","tags":["story","Hacker News"],"image":null,"imageAlt":null,"provider":"Hacker News","thirdPartyId":"25644964","url":"https://news.ycombinator.com/item?id=25644964","originalUrl":"https://wiki.termux.com/wiki/Termux_Google_Play","imageRemote":null,"video":null,"channel":null,"channelUrl":null,"author":"martinlaz","authorUrl":"https://news.ycombinator.com/user?id=martinlaz","authorImage":null,"authorSlug":null,"score":361,"views":null,"sharedCount":null,"likeCount":null,"sharedContent":null,"parent":{"__typename":"HnJson","localize":[{"title":"Termux在Google Play上不再更新","locale":"zh"},{"title":"Termux在Google Play上不再更新","locale":"zh-Hant"}]}},{"__typename":"SocialMediaPost","id":"HnPost-25641205","excerpt":"","slug":"/hn/25641205","title":"Descript – A collaborative audio/video editor that works like a doc","date":"January 05, 2021","dateISO":"2021-01-05T15:32:13.088Z","datetime":"2021-01-05 15:32","tags":["story","Hacker News"],"image":null,"imageAlt":null,"provider":"Hacker News","thirdPartyId":"25641205","url":"https://news.ycombinator.com/item?id=25641205","originalUrl":"https://www.descript.com/","imageRemote":"https://assets-global.website-files.com/5d761d627a6dfa6a5b28ab12/5d761d627a6dfa6c3f28ab40_descript-logo.svg","video":null,"channel":null,"channelUrl":null,"author":"zaroth","authorUrl":"https://news.ycombinator.com/user?id=zaroth","authorImage":null,"authorSlug":null,"score":208,"views":null,"sharedCount":null,"likeCount":null,"sharedContent":null,"parent":{"__typename":"HnJson","localize":[{"title":"描述-像文档一样工作的协作式音频/视频编辑器","locale":"zh"},{"title":"描述-像文檔一樣工作的協作式音頻/視頻編輯器","locale":"zh-Hant"}]}},{"__typename":"SocialMediaPost","id":"HnPost-25642486","excerpt":"","slug":"/hn/25642486","title":"EFF to FinCEN: Stop Pushing for More Financial Surveillance","date":"January 05, 2021","dateISO":"2021-01-05T14:41:31.036Z","datetime":"2021-01-05 14:41","tags":["story","Hacker News"],"image":null,"imageAlt":null,"provider":"Hacker News","thirdPartyId":"25642486","url":"https://news.ycombinator.com/item?id=25642486","originalUrl":"https://www.eff.org/deeplinks/2021/01/eff-fincen-stop-pushing-more-financial-surveillance","imageRemote":"https://www.eff.org/files/banner_library/block-chain-1.png","video":null,"channel":null,"channelUrl":null,"author":"panarky","authorUrl":"https://news.ycombinator.com/user?id=panarky","authorImage":null,"authorSlug":null,"score":194,"views":null,"sharedCount":null,"likeCount":null,"sharedContent":null,"parent":{"__typename":"HnJson","localize":[{"title":"EFF to FinCEN：停止推动更多的金融监管","locale":"zh"},{"title":"EFF to FinCEN：停止推動更多的金融監管","locale":"zh-Hant"}]}},{"__typename":"SocialMediaPost","id":"HnPost-25640323","excerpt":"","slug":"/hn/25640323","title":"The Lab Leak Hypothesis","date":"January 05, 2021","dateISO":"2021-01-05T13:16:51.897Z","datetime":"2021-01-05 13:16","tags":["story","Hacker News"],"image":null,"imageAlt":null,"provider":"Hacker News","thirdPartyId":"25640323","url":"https://news.ycombinator.com/item?id=25640323","originalUrl":"https://nymag.com/intelligencer/article/coronavirus-lab-escape-theory.html","imageRemote":"https://pyxis.nymag.com/v1/imgs/ebd/8ee/f519e633a0a5a723459d46eb33888358f8-Covid-LabLeak-Art-only-16x9.1x.rsocial.w1200.jpg","video":null,"channel":null,"channelUrl":null,"author":"api","authorUrl":"https://news.ycombinator.com/user?id=api","authorImage":null,"authorSlug":null,"score":209,"views":null,"sharedCount":null,"likeCount":null,"sharedContent":null,"parent":{"__typename":"HnJson","localize":[{"title":"实验室泄漏假说","locale":"zh"},{"title":"實驗室泄漏假說","locale":"zh-Hant"}]}},{"__typename":"SocialMediaPost","id":"HnPost-25644056","excerpt":"","slug":"/hn/25644056","title":"GitHub blocks entire company because one employee was in Iran","date":"January 05, 2021","dateISO":"2021-01-05T13:16:51.897Z","datetime":"2021-01-05 13:16","tags":["story","Hacker News"],"image":null,"imageAlt":null,"provider":"Hacker News","thirdPartyId":"25644056","url":"https://news.ycombinator.com/item?id=25644056","originalUrl":"https://twitter.com/sebslomski/status/1344219609923276801","imageRemote":null,"video":null,"channel":null,"channelUrl":null,"author":"PhilipTrauner","authorUrl":"https://news.ycombinator.com/user?id=PhilipTrauner","authorImage":null,"authorSlug":null,"score":602,"views":null,"sharedCount":null,"likeCount":null,"sharedContent":null,"parent":{"__typename":"HnJson","localize":[{"title":"GitHub封锁了整个公司，因为有一名员工在伊朗","locale":"zh"},{"title":"GitHub封鎖了整個公司，因爲有一名員工在伊朗","locale":"zh-Hant"}]}},{"__typename":"SocialMediaPost","id":"HnPost-25640658","excerpt":"","slug":"/hn/25640658","title":"Reddit user invents a new way to build a memristor, shares it","date":"January 05, 2021","dateISO":"2021-01-05T05:42:32.979Z","datetime":"2021-01-05 05:42","tags":["story","Hacker News"],"image":null,"imageAlt":null,"provider":"Hacker News","thirdPartyId":"25640658","url":"https://news.ycombinator.com/item?id=25640658","originalUrl":"https://www.reddit.com/r/electronics/comments/kqbgnn/i_believe_ive_created_a_memristor_and_im_to_open/","imageRemote":"https://www.redditstatic.com/desktop2x/img/renderTimingPixel.png","video":null,"channel":null,"channelUrl":null,"author":"psawaya","authorUrl":"https://news.ycombinator.com/user?id=psawaya","authorImage":null,"authorSlug":null,"score":257,"views":null,"sharedCount":null,"likeCount":null,"sharedContent":null,"parent":{"__typename":"HnJson","localize":[{"title":"Reddit用户发明了一种制造忆阻器的新方法，并将其共享","locale":"zh"},{"title":"Reddit用戶發明了一種製造憶阻器的新方法，並將其共享","locale":"zh-Hant"}]}},{"__typename":"SocialMediaPost","id":"HnPost-25641399","excerpt":"","slug":"/hn/25641399","title":"Telegram publishes users' locations online","date":"January 05, 2021","dateISO":"2021-01-05T05:01:36.763Z","datetime":"2021-01-05 05:01","tags":["story","Hacker News"],"image":null,"imageAlt":null,"provider":"Hacker News","thirdPartyId":"25641399","url":"https://news.ycombinator.com/item?id=25641399","originalUrl":"https://blog.ahmed.nyc/2021/01/if-you-use-this-feature-on-telegram.html","imageRemote":"https://lh3.googleusercontent.com/JbKyjueKloPEbmeyE9ZbcVkATBhRNlY4hjl8NZZOhHn4lgt56UnjR3HjAVP2Z5MNSAAe0jzL3rKNjfLI3QCueXXe6inocEKB5RwX9b6A3kIydvA74fjzmfZlEjkH0bNrfQUYR80I=w1200-h630-p-k-no-nu","video":null,"channel":null,"channelUrl":null,"author":"Nullslash","authorUrl":"https://news.ycombinator.com/user?id=Nullslash","authorImage":null,"authorSlug":null,"score":487,"views":null,"sharedCount":null,"likeCount":null,"sharedContent":null,"parent":{"__typename":"HnJson","localize":[{"title":"Telegram在线发布用户的位置","locale":"zh"},{"title":"Telegram在線發佈用戶的位置","locale":"zh-Hant"}]}},{"__typename":"SocialMediaPost","id":"HnPost-25640217","excerpt":"","slug":"/hn/25640217","title":"My Google Traffic Has Fallen to Zero","date":"January 05, 2021","dateISO":"2021-01-05T02:38:56.887Z","datetime":"2021-01-05 02:38","tags":["story","Hacker News"],"image":null,"imageAlt":null,"provider":"Hacker News","thirdPartyId":"25640217","url":"https://news.ycombinator.com/item?id=25640217","originalUrl":"https://www.goodcheapandfast.com/2020","imageRemote":"http://static1.squarespace.com/static/5bbe4cb0d745625c9d104763/t/5fd3a6272273ff1c1141a1ec/1607706153880/Eo9bZOCWMAARRGD.jpeg?format=1500w","video":null,"channel":null,"channelUrl":null,"author":"josephjrobison","authorUrl":"https://news.ycombinator.com/user?id=josephjrobison","authorImage":null,"authorSlug":null,"score":489,"views":null,"sharedCount":null,"likeCount":null,"sharedContent":null,"parent":{"__typename":"HnJson","localize":[{"title":"我的谷歌流量已降至零","locale":"zh"},{"title":"我的谷歌流量已降至零","locale":"zh-Hant"}]}},{"__typename":"SocialMediaPost","id":"HnPost-25629058","excerpt":"","slug":"/hn/25629058","title":"Verified Programming in F*: A Tutorial","date":"January 05, 2021","dateISO":"2021-01-05T01:39:29.887Z","datetime":"2021-01-05 01:39","tags":["story","Hacker News"],"image":null,"imageAlt":null,"provider":"Hacker News","thirdPartyId":"25629058","url":"https://news.ycombinator.com/item?id=25629058","originalUrl":"http://fstar-lang.org/tutorial/","imageRemote":null,"video":null,"channel":null,"channelUrl":null,"author":"jstrieb","authorUrl":"https://news.ycombinator.com/user?id=jstrieb","authorImage":null,"authorSlug":null,"score":159,"views":null,"sharedCount":null,"likeCount":null,"sharedContent":null,"parent":{"__typename":"HnJson","localize":[{"title":"经过验证的F*编程：教程","locale":"zh"},{"title":"經過驗證的F*編程：教程","locale":"zh-Hant"}]}},{"__typename":"SocialMediaPost","id":"HnPost-25632642","excerpt":"","slug":"/hn/25632642","title":"A comparison of city building games","date":"January 05, 2021","dateISO":"2021-01-05T01:39:29.887Z","datetime":"2021-01-05 01:39","tags":["story","Hacker News"],"image":null,"imageAlt":null,"provider":"Hacker News","thirdPartyId":"25632642","url":"https://news.ycombinator.com/item?id=25632642","originalUrl":"https://twitter.com/alfred_twu/status/1345955063353597954","imageRemote":null,"video":null,"channel":null,"channelUrl":null,"author":"fanf2","authorUrl":"https://news.ycombinator.com/user?id=fanf2","authorImage":null,"authorSlug":null,"score":205,"views":null,"sharedCount":null,"likeCount":null,"sharedContent":null,"parent":{"__typename":"HnJson","localize":[{"title":"城市建设类游戏的比较研究","locale":"zh"},{"title":"城市建設類遊戲的比較研究","locale":"zh-Hant"}]}},{"__typename":"SocialMediaPost","id":"HnPost-25637598","excerpt":"","slug":"/hn/25637598","title":"SolarWinds: The more we learn, the worse it looks","date":"January 05, 2021","dateISO":"2021-01-05T01:39:29.887Z","datetime":"2021-01-05 01:39","tags":["story","Hacker News"],"image":null,"imageAlt":null,"provider":"Hacker News","thirdPartyId":"25637598","url":"https://news.ycombinator.com/item?id=25637598","originalUrl":"https://www.zdnet.com/article/solarwinds-the-more-we-learn-the-worse-it-looks/","imageRemote":"https://zdnet2.cbsistatic.com/hub/i/r/2020/12/16/dc42246f-3837-4adc-a3e5-42589943ca8a/thumbnail/770x578/b05abf3285126a09518492e0ea524ee2/solarwinds-hq.jpg","video":null,"channel":null,"channelUrl":null,"author":"LinuxBender","authorUrl":"https://news.ycombinator.com/user?id=LinuxBender","authorImage":null,"authorSlug":null,"score":256,"views":null,"sharedCount":null,"likeCount":null,"sharedContent":null,"parent":{"__typename":"HnJson","localize":[{"title":"SolarWinds：我们学得越多，看起来就越糟糕","locale":"zh"},{"title":"SolarWinds：我們學得越多，看起來就越糟糕","locale":"zh-Hant"}]}},{"__typename":"SocialMediaPost","id":"HnPost-25639435","excerpt":"","slug":"/hn/25639435","title":"Neofeudalism and the Digital Manor","date":"January 05, 2021","dateISO":"2021-01-05T01:39:29.886Z","datetime":"2021-01-05 01:39","tags":["story","Hacker News"],"image":null,"imageAlt":null,"provider":"Hacker News","thirdPartyId":"25639435","url":"https://news.ycombinator.com/item?id=25639435","originalUrl":"https://locusmag.com/2021/01/cory-doctorow-neofeudalism-and-the-digital-manor/","imageRemote":"https://locusmag.com/wp-content/uploads/2017/11/Doctorow3_800x400.jpg","video":null,"channel":null,"channelUrl":null,"author":"walterbell","authorUrl":"https://news.ycombinator.com/user?id=walterbell","authorImage":null,"authorSlug":null,"score":286,"views":null,"sharedCount":null,"likeCount":null,"sharedContent":null,"parent":{"__typename":"HnJson","localize":[{"title":"新封建主义与数字庄园","locale":"zh"},{"title":"新封建主義與數字莊園","locale":"zh-Hant"}]}},{"__typename":"SocialMediaPost","id":"HnPost-25635115","excerpt":"","slug":"/hn/25635115","title":"Ask HN: Is HN slow today?","date":"January 05, 2021","dateISO":"2021-01-05T00:09:37.592Z","datetime":"2021-01-05 00:09","tags":["story","ASK HN","Hacker News"],"image":null,"imageAlt":null,"provider":"Hacker News","thirdPartyId":"25635115","url":"https://news.ycombinator.com/item?id=25635115","originalUrl":"https://news.ycombinator.com/item?id=25635115","imageRemote":null,"video":null,"channel":"ASK HN","channelUrl":"https://news.ycombinator.com/ask","author":"brundolf","authorUrl":"https://news.ycombinator.com/user?id=brundolf","authorImage":null,"authorSlug":null,"score":155,"views":null,"sharedCount":null,"likeCount":null,"sharedContent":null,"parent":{"__typename":"HnJson","localize":[{"title":"HN提问：HN今天慢吗？","locale":"zh"},{"title":"HN提問：HN今天慢嗎？","locale":"zh-Hant"}]}},{"__typename":"SocialMediaPost","id":"HnPost-25637922","excerpt":"","slug":"/hn/25637922","title":"Quitting a New Job","date":"January 04, 2021","dateISO":"2021-01-04T23:47:52.916Z","datetime":"2021-01-04 23:47","tags":["story","Hacker News"],"image":null,"imageAlt":null,"provider":"Hacker News","thirdPartyId":"25637922","url":"https://news.ycombinator.com/item?id=25637922","originalUrl":"https://yolken.net/blog/quitting-a-new-job","imageRemote":null,"video":null,"channel":null,"channelUrl":null,"author":"fullung","authorUrl":"https://news.ycombinator.com/user?id=fullung","authorImage":null,"authorSlug":null,"score":190,"views":null,"sharedCount":null,"likeCount":null,"sharedContent":null,"parent":{"__typename":"HnJson","localize":[{"title":"辞去新工作","locale":"zh"},{"title":"辭去新工作","locale":"zh-Hant"}]}}]}},"pageContext":{"basePath":"/","pageType":"tag","tag":"story","tagsFilter":{"id":{"glob":"!*Post-1"}},"filter":{"id":{"glob":"!*Post-1"},"tags":{"eq":"story"}},"limit":25,"skip":1700,"total":2408,"totalPages":97,"currentPage":69,"maxWidth":1024,"maxHeight":512,"locale":"zh","hrefLang":"zh-Hans","originalPath":"/tags/story/page/69","dateFormat":"YYYY-MM-DD"}},"staticQueryHashes":["1239077767","2506312863","2744905544","3025052997","3493603132","3493603132","3513215887","386998304"]}