{"componentChunkName":"component---gatsby-theme-buzzing-src-gatsby-theme-timeline-templates-posts-query-js","path":"/en/page/18","result":{"data":{"site":{"siteMetadata":{"title":"Reddit 热门","description":"用中文浏览Reddit热门内容","social":[{"name":"Twitter","url":"https://twitter.com/gatsbyjs","external":null,"prefetch":null},{"name":"GitHub","url":"https://github.com/gatsbyjs","external":null,"prefetch":null}],"menuLinks":[],"localize":[{"locale":"en","title":"Buzzing on Reddit","description":"See what's buzzing on Reddit in your native language","social":[{"name":"Reddit","url":"https://www.reddit.com/","external":true,"prefetch":null}],"menuLinks":[{"name":"Weekly Selection","url":"/issues","external":null,"prefetch":null},{"name":"RSS","url":"/rss.xml","external":null,"prefetch":false}]},{"locale":"zh-Hant","title":"Reddit 熱門","description":"用中文瀏覽Reddit熱門內容","social":null,"menuLinks":null}]}},"tagsGroup":{"group":[{"fieldValue":"ASK HN","totalCount":54},{"fieldValue":"Hacker News","totalCount":3105},{"fieldValue":"Poll","totalCount":1},{"fieldValue":"Show HN","totalCount":100},{"fieldValue":"poll","totalCount":1},{"fieldValue":"story","totalCount":3104}]},"allBlogPost":{"nodes":[{"__typename":"SocialMediaPost","id":"HnPost-26540737","excerpt":"","slug":"/hn/26540737","title":"Red seaweed supplementation reduces enteric methane by over 80% in beef steers","date":"March 22, 2021","dateISO":"2021-03-22T16:40:02.616Z","datetime":"2021-03-22 16:40","tags":["story","Hacker News"],"image":null,"imageAlt":null,"provider":"Hacker News","thirdPartyId":"26540737","url":"https://news.ycombinator.com/item?id=26540737","originalUrl":"https://journals.plos.org/plosone/article?id=10.1371/journal.pone.0247820","imageRemote":"https://journals.plos.org/plosone/article/figure/image?id=10.1371/journal.pone.0247820.g004&size=inline","video":null,"channel":null,"channelUrl":null,"author":"giuliomagnifico","authorUrl":"https://news.ycombinator.com/user?id=giuliomagnifico","authorImage":null,"authorSlug":null,"score":269,"views":null,"sharedCount":null,"likeCount":null,"sharedContent":null,"parent":{"__typename":"HnJson","localize":[{"title":"补充红海藻可使肉牛肠道甲烷减少80%以上。","locale":"zh"},{"title":"補充紅海藻可使肉牛腸道甲烷減少80%以上。","locale":"zh-Hant"}]}},{"__typename":"SocialMediaPost","id":"HnPost-26540007","excerpt":"","slug":"/hn/26540007","title":"The S in IoT is for Security","date":"March 22, 2021","dateISO":"2021-03-22T15:26:40.148Z","datetime":"2021-03-22 15:26","tags":["story","Hacker News"],"image":null,"imageAlt":null,"provider":"Hacker News","thirdPartyId":"26540007","url":"https://news.ycombinator.com/item?id=26540007","originalUrl":"https://puri.sm/posts/the-s-in-iot-is-for-security/","imageRemote":"https://puri.sm/wp-content/uploads/2021/03/Screenshot-from-2021-03-11-08-52-15.png","video":null,"channel":null,"channelUrl":null,"author":"rauhl","authorUrl":"https://news.ycombinator.com/user?id=rauhl","authorImage":null,"authorSlug":null,"score":564,"views":null,"sharedCount":null,"likeCount":null,"sharedContent":null,"parent":{"__typename":"HnJson","localize":[{"title":"物联网中的S是指安全","locale":"zh"},{"title":"物聯網中的S是指安全","locale":"zh-Hant"}]}},{"__typename":"SocialMediaPost","id":"HnPost-26539305","excerpt":"","slug":"/hn/26539305","title":"“I’ve made a Cursed USB-C 2.0 device”","date":"March 22, 2021","dateISO":"2021-03-22T14:59:10.696Z","datetime":"2021-03-22 14:59","tags":["story","Hacker News"],"image":null,"imageAlt":null,"provider":"Hacker News","thirdPartyId":"26539305","url":"https://news.ycombinator.com/item?id=26539305","originalUrl":"https://twitter.com/mifune/status/1373564866443759617","imageRemote":null,"video":null,"channel":null,"channelUrl":null,"author":"DyslexicAtheist","authorUrl":"https://news.ycombinator.com/user?id=DyslexicAtheist","authorImage":null,"authorSlug":null,"score":252,"views":null,"sharedCount":null,"likeCount":null,"sharedContent":null,"parent":{"__typename":"HnJson","localize":[{"title":"\"我做了一个被诅咒的USB-C 2.0设备\"","locale":"zh"},{"title":"\"我做了一個被詛咒的USB-C 2.0設備\"","locale":"zh-Hant"}]}},{"__typename":"SocialMediaPost","id":"HnPost-26535357","excerpt":"","slug":"/hn/26535357","title":"Updating a 50 terabyte PostgreSQL database (2018)","date":"March 22, 2021","dateISO":"2021-03-22T13:47:39.941Z","datetime":"2021-03-22 13:47","tags":["story","Hacker News"],"image":null,"imageAlt":null,"provider":"Hacker News","thirdPartyId":"26535357","url":"https://news.ycombinator.com/item?id=26535357","originalUrl":"https://medium.com/adyen/updating-a-50-terabyte-postgresql-database-f64384b799e7","imageRemote":"https://miro.medium.com/max/1200/1*7YK7C33pIoXkWyIIEI4S6g.jpeg","video":null,"channel":null,"channelUrl":null,"author":"whitepoplar","authorUrl":"https://news.ycombinator.com/user?id=whitepoplar","authorImage":null,"authorSlug":null,"score":185,"views":null,"sharedCount":null,"likeCount":null,"sharedContent":null,"parent":{"__typename":"HnJson","localize":[{"title":"更新50TB的PostgreSQL数据库(2018)","locale":"zh"},{"title":"更新50TB的PostgreSQL數據庫(2018)","locale":"zh-Hant"}]}},{"__typename":"SocialMediaPost","id":"HnPost-26539673","excerpt":"","slug":"/hn/26539673","title":"Firefox 87 trims HTTP Referrers by default to protect user privacy","date":"March 22, 2021","dateISO":"2021-03-22T13:30:23.460Z","datetime":"2021-03-22 13:30","tags":["story","Hacker News"],"image":null,"imageAlt":null,"provider":"Hacker News","thirdPartyId":"26539673","url":"https://news.ycombinator.com/item?id=26539673","originalUrl":"https://blog.mozilla.org/security/2021/03/22/firefox-87-trims-http-referrers-by-default-to-protect-user-privacy/","imageRemote":"https://ffp4g1ylyit3jdyti1hqcvtb-wpengine.netdna-ssl.com/security/files/2021/03/referrer-scaled.jpeg","video":null,"channel":null,"channelUrl":null,"author":"twapi","authorUrl":"https://news.ycombinator.com/user?id=twapi","authorImage":null,"authorSlug":null,"score":971,"views":null,"sharedCount":null,"likeCount":null,"sharedContent":null,"parent":{"__typename":"HnJson","localize":[{"title":"火狐87默认修剪HTTP Referrers以保护用户隐私","locale":"zh"},{"title":"火狐87默認修剪HTTP Referrers以保護用戶隱私","locale":"zh-Hant"}]}},{"__typename":"SocialMediaPost","id":"HnPost-26539495","excerpt":"","slug":"/hn/26539495","title":"The absolute worst scenario happened","date":"March 22, 2021","dateISO":"2021-03-22T12:36:01.999Z","datetime":"2021-03-22 12:36","tags":["story","Hacker News"],"image":null,"imageAlt":null,"provider":"Hacker News","thirdPartyId":"26539495","url":"https://news.ycombinator.com/item?id=26539495","originalUrl":"https://www.reddit.com/r/sysadmin/comments/ma4mwl/the_absolute_worst_case_scenario_happened_what","imageRemote":"https://www.redditstatic.com/desktop2x/img/renderTimingPixel.png","video":null,"channel":null,"channelUrl":null,"author":"logronoide","authorUrl":"https://news.ycombinator.com/user?id=logronoide","authorImage":null,"authorSlug":null,"score":561,"views":null,"sharedCount":null,"likeCount":null,"sharedContent":null,"parent":{"__typename":"HnJson","localize":[{"title":"最坏的情况发生了","locale":"zh"},{"title":"最壞的情況發生了","locale":"zh-Hant"}]}},{"__typename":"SocialMediaPost","id":"HnPost-26537812","excerpt":"","slug":"/hn/26537812","title":"AstraZeneca vaccine safe and effective in U.S., Chile, Peru trials","date":"March 22, 2021","dateISO":"2021-03-22T11:20:29.292Z","datetime":"2021-03-22 11:20","tags":["story","Hacker News"],"image":null,"imageAlt":null,"provider":"Hacker News","thirdPartyId":"26537812","url":"https://news.ycombinator.com/item?id=26537812","originalUrl":"https://www.reuters.com/article/us-health-coronavirus-astrazeneca-usa/astrazeneca-vaccine-79-effective-in-u-s-trial-panel-finds-no-higher-risk-of-clots-idUSKBN2BE0NJ","imageRemote":"https://static.reuters.com/resources/r/?m=02&d=20210322&t=2&i=1555709481&r=LYNXMPEH2L0FI&w=800","video":null,"channel":null,"channelUrl":null,"author":"pasttense01","authorUrl":"https://news.ycombinator.com/user?id=pasttense01","authorImage":null,"authorSlug":null,"score":201,"views":null,"sharedCount":null,"likeCount":null,"sharedContent":null,"parent":{"__typename":"HnJson","localize":[{"title":"阿斯利康疫苗在美国、智利、秘鲁试验中安全有效","locale":"zh"},{"title":"阿斯利康疫苗在美國、智利、祕魯試驗中安全有效","locale":"zh-Hant"}]}},{"__typename":"SocialMediaPost","id":"HnPost-26538005","excerpt":"","slug":"/hn/26538005","title":"Live feed from Iceland erupting volcano","date":"March 22, 2021","dateISO":"2021-03-22T10:28:28.965Z","datetime":"2021-03-22 10:28","tags":["story","Hacker News"],"image":null,"imageAlt":null,"provider":"Hacker News","thirdPartyId":"26538005","url":"https://news.ycombinator.com/item?id=26538005","originalUrl":"https://www.ruv.is/frett/2021/03/20/live-feed-from-iceland-volcano","imageRemote":"https://www.ruv.is/sites/default/files/styles/1000x563/public/mynd_eldgos_0.png?itok=sM72j1tP","video":null,"channel":null,"channelUrl":null,"author":"lknik","authorUrl":"https://news.ycombinator.com/user?id=lknik","authorImage":null,"authorSlug":null,"score":631,"views":null,"sharedCount":null,"likeCount":null,"sharedContent":null,"parent":{"__typename":"HnJson","localize":[{"title":"冰岛火山喷发的实时画面","locale":"zh"},{"title":"冰島火山噴發的實時畫面","locale":"zh-Hant"}]}},{"__typename":"SocialMediaPost","id":"HnPost-26533384","excerpt":"","slug":"/hn/26533384","title":"FreeCAD 0.19","date":"March 22, 2021","dateISO":"2021-03-22T09:52:22.934Z","datetime":"2021-03-22 09:52","tags":["story","Hacker News"],"image":null,"imageAlt":null,"provider":"Hacker News","thirdPartyId":"26533384","url":"https://news.ycombinator.com/item?id=26533384","originalUrl":"https://wiki.freecadweb.org/Release_notes_0.19","imageRemote":"https://wiki.freecadweb.org/images/thumb/8/85/FreeCAD_release_0.19_main.jpg/512px-FreeCAD_release_0.19_main.jpg","video":null,"channel":null,"channelUrl":null,"author":"this_was_posted","authorUrl":"https://news.ycombinator.com/user?id=this_was_posted","authorImage":null,"authorSlug":null,"score":152,"views":null,"sharedCount":null,"likeCount":null,"sharedContent":null,"parent":{"__typename":"HnJson","localize":[{"title":"FreeCAD 0.19","locale":"zh"},{"title":"FreeCAD 0.19","locale":"zh-Hant"}]}},{"__typename":"SocialMediaPost","id":"HnPost-26520448","excerpt":"","slug":"/hn/26520448","title":"My Dad Published Lolita","date":"March 22, 2021","dateISO":"2021-03-22T08:59:52.094Z","datetime":"2021-03-22 08:59","tags":["story","Hacker News"],"image":null,"imageAlt":null,"provider":"Hacker News","thirdPartyId":"26520448","url":"https://news.ycombinator.com/item?id=26520448","originalUrl":"https://lithub.com/how-would-the-publishing-world-respond-to-lolita-today/","imageRemote":"https://lithub.com/wp-content/uploads/2021/03/lolita.jpg","video":null,"channel":null,"channelUrl":null,"author":"deepbow","authorUrl":"https://news.ycombinator.com/user?id=deepbow","authorImage":null,"authorSlug":null,"score":141,"views":null,"sharedCount":null,"likeCount":null,"sharedContent":null,"parent":{"__typename":"HnJson","localize":[{"title":"我的爸爸出版了洛丽塔","locale":"zh"},{"title":"我的爸爸出版了洛麗塔","locale":"zh-Hant"}]}},{"__typename":"SocialMediaPost","id":"HnPost-26529200","excerpt":"","slug":"/hn/26529200","title":"Multithreading for Game Engines","date":"March 22, 2021","dateISO":"2021-03-22T08:41:44.060Z","datetime":"2021-03-22 08:41","tags":["story","Hacker News"],"image":null,"imageAlt":null,"provider":"Hacker News","thirdPartyId":"26529200","url":"https://news.ycombinator.com/item?id=26529200","originalUrl":"https://vkguide.dev/docs/extra-chapter/multithreading/","imageRemote":null,"video":null,"channel":null,"channelUrl":null,"author":"vblanco","authorUrl":"https://news.ycombinator.com/user?id=vblanco","authorImage":null,"authorSlug":null,"score":219,"views":null,"sharedCount":null,"likeCount":null,"sharedContent":null,"parent":{"__typename":"HnJson","localize":[{"title":"游戏引擎的多线程","locale":"zh"},{"title":"遊戲引擎的多線程","locale":"zh-Hant"}]}},{"__typename":"SocialMediaPost","id":"HnPost-26533424","excerpt":"","slug":"/hn/26533424","title":"AMD Expected to Become TSMC's Second Largest Customer","date":"March 22, 2021","dateISO":"2021-03-22T05:45:56.885Z","datetime":"2021-03-22 05:45","tags":["story","Hacker News"],"image":null,"imageAlt":null,"provider":"Hacker News","thirdPartyId":"26533424","url":"https://news.ycombinator.com/item?id=26533424","originalUrl":"https://www.tomshardware.com/news/amd-tsmc-second-largest-customer","imageRemote":"https://cdn.mos.cms.futurecdn.net/NbCf6iUxmuzkaD254Zf6pM-1200-80.jpg","video":null,"channel":null,"channelUrl":null,"author":"rbanffy","authorUrl":"https://news.ycombinator.com/user?id=rbanffy","authorImage":null,"authorSlug":null,"score":153,"views":null,"sharedCount":null,"likeCount":null,"sharedContent":null,"parent":{"__typename":"HnJson","localize":[{"title":"AMD有望成为台积电第二大客户","locale":"zh"},{"title":"AMD有望成爲臺積電第二大客戶","locale":"zh-Hant"}]}},{"__typename":"SocialMediaPost","id":"HnPost-26535974","excerpt":"","slug":"/hn/26535974","title":"Nadine Strossen, former ACLU president, on canceling RMS (2020)","date":"March 22, 2021","dateISO":"2021-03-22T05:02:02.186Z","datetime":"2021-03-22 05:02","tags":["story","Hacker News"],"image":null,"imageAlt":null,"provider":"Hacker News","thirdPartyId":"26535974","url":"https://news.ycombinator.com/item?id=26535974","originalUrl":"https://www.wetheweb.org/post/cancel-we-the-web","imageRemote":"https://static.wixstatic.com/media/4b90a4_0cf2857cf90546a0b4b6de881f4fbc75~mv2.jpeg/v1/fit/w_1000%2Ch_1000%2Cal_c%2Cq_80/file.jpeg","video":null,"channel":null,"channelUrl":null,"author":"r3856283","authorUrl":"https://news.ycombinator.com/user?id=r3856283","authorImage":null,"authorSlug":null,"score":398,"views":null,"sharedCount":null,"likeCount":null,"sharedContent":null,"parent":{"__typename":"HnJson","localize":[{"title":"Nadine Strossen，前ACLU主席，关于取消RMS（2020年）。","locale":"zh"},{"title":"Nadine Strossen，前ACLU主席，關於取消RMS（2020年）。","locale":"zh-Hant"}]}},{"__typename":"SocialMediaPost","id":"HnPost-26533792","excerpt":"","slug":"/hn/26533792","title":"The Infinite Drum Machine","date":"March 22, 2021","dateISO":"2021-03-22T04:36:38.403Z","datetime":"2021-03-22 04:36","tags":["story","Hacker News"],"image":null,"imageAlt":null,"provider":"Hacker News","thirdPartyId":"26533792","url":"https://news.ycombinator.com/item?id=26533792","originalUrl":"https://experiments.withgoogle.com/ai/drum-machine/view","imageRemote":"https://experiments.withgoogle.com/ai/drum-machine/view/img/play_icon_master.svg","video":null,"channel":null,"channelUrl":null,"author":"based2","authorUrl":"https://news.ycombinator.com/user?id=based2","authorImage":null,"authorSlug":null,"score":224,"views":null,"sharedCount":null,"likeCount":null,"sharedContent":null,"parent":{"__typename":"HnJson","localize":[{"title":"无限鼓机","locale":"zh"},{"title":"無限鼓機","locale":"zh-Hant"}]}},{"__typename":"SocialMediaPost","id":"HnPost-26536019","excerpt":"","slug":"/hn/26536019","title":"Backblaze submitting names and sizes of files in B2 buckets to Facebook","date":"March 22, 2021","dateISO":"2021-03-22T03:55:39.570Z","datetime":"2021-03-22 03:55","tags":["story","Hacker News"],"image":null,"imageAlt":null,"provider":"Hacker News","thirdPartyId":"26536019","url":"https://news.ycombinator.com/item?id=26536019","originalUrl":"https://twitter.com/Benjojo12/status/1373707799054712836","imageRemote":null,"video":null,"channel":null,"channelUrl":null,"author":"celsoazevedo","authorUrl":"https://news.ycombinator.com/user?id=celsoazevedo","authorImage":null,"authorSlug":null,"score":1063,"views":null,"sharedCount":null,"likeCount":null,"sharedContent":null,"parent":{"__typename":"HnJson","localize":[{"title":"Backblaze向Facebook提交B2桶中的文件名称和大小。","locale":"zh"},{"title":"Backblaze向Facebook提交B2桶中的文件名稱和大小。","locale":"zh-Hant"}]}},{"__typename":"SocialMediaPost","id":"HnPost-26526108","excerpt":"","slug":"/hn/26526108","title":"Cryptography behind the top cryptocurrencies","date":"March 22, 2021","dateISO":"2021-03-22T03:34:37.915Z","datetime":"2021-03-22 03:34","tags":["story","Hacker News"],"image":null,"imageAlt":null,"provider":"Hacker News","thirdPartyId":"26526108","url":"https://news.ycombinator.com/item?id=26526108","originalUrl":"http://ethanfast.com/top-crypto.html","imageRemote":null,"video":null,"channel":null,"channelUrl":null,"author":"unignorant","authorUrl":"https://news.ycombinator.com/user?id=unignorant","authorImage":null,"authorSlug":null,"score":143,"views":null,"sharedCount":null,"likeCount":null,"sharedContent":null,"parent":{"__typename":"HnJson","localize":[{"title":"顶级加密货币背后的密码学问题","locale":"zh"},{"title":"頂級加密貨幣背後的密碼學問題","locale":"zh-Hant"}]}},{"__typename":"SocialMediaPost","id":"HnPost-26531660","excerpt":"","slug":"/hn/26531660","title":"Running a Bakery on Emacs and PostgreSQL (2019)","date":"March 22, 2021","dateISO":"2021-03-22T03:34:37.915Z","datetime":"2021-03-22 03:34","tags":["story","Hacker News"],"image":null,"imageAlt":null,"provider":"Hacker News","thirdPartyId":"26531660","url":"https://news.ycombinator.com/item?id=26531660","originalUrl":"https://bofh.org.uk/2019/02/25/baking-with-emacs/","imageRemote":"https://bofh.org.uk/images/whoami/avatar.jpg","video":null,"channel":null,"channelUrl":null,"author":"tosh","authorUrl":"https://news.ycombinator.com/user?id=tosh","authorImage":null,"authorSlug":null,"score":192,"views":null,"sharedCount":null,"likeCount":null,"sharedContent":null,"parent":{"__typename":"HnJson","localize":[{"title":"在Emacs和PostgreSQL上运行一个面包店(2019)","locale":"zh"},{"title":"在Emacs和PostgreSQL上運行一個麪包店(2019)","locale":"zh-Hant"}]}},{"__typename":"SocialMediaPost","id":"HnPost-26529936","excerpt":"","slug":"/hn/26529936","title":"Show HN: Make continuous reforestation part of your daily workflow","date":"March 22, 2021","dateISO":"2021-03-22T02:04:13.224Z","datetime":"2021-03-22 02:04","tags":["story","Show HN","Hacker News"],"image":null,"imageAlt":null,"provider":"Hacker News","thirdPartyId":"26529936","url":"https://news.ycombinator.com/item?id=26529936","originalUrl":"https://github.com/protontypes/continuous-reforestation","imageRemote":"https://repository-images.githubusercontent.com/340110123/52641000-78e7-11eb-8d2e-664fb8db7ca9","video":null,"channel":"Show HN","channelUrl":"https://news.ycombinator.com/show","author":"protontypes","authorUrl":"https://news.ycombinator.com/user?id=protontypes","authorImage":null,"authorSlug":null,"score":147,"views":null,"sharedCount":null,"likeCount":null,"sharedContent":null,"parent":{"__typename":"HnJson","localize":[{"title":"显示HN：让持续再造林成为您日常工作流程的一部分","locale":"zh"},{"title":"顯示HN：讓持續再造林成爲您日常工作流程的一部分","locale":"zh-Hant"}]}},{"__typename":"SocialMediaPost","id":"HnPost-26532604","excerpt":"","slug":"/hn/26532604","title":"Academic “Ghost-Writing”: The Cheating Scandal No One Will Discuss","date":"March 22, 2021","dateISO":"2021-03-22T02:04:13.224Z","datetime":"2021-03-22 02:04","tags":["story","Hacker News"],"image":null,"imageAlt":null,"provider":"Hacker News","thirdPartyId":"26532604","url":"https://news.ycombinator.com/item?id=26532604","originalUrl":"https://logosnews.tech/-MJYdKMeuTakOZj7iq4d","imageRemote":"https://firebasestorage.googleapis.com/v0/b/logos-app-915d7.appspot.com/o/real_logo.jpg?alt=media&token=c7ee14e4-a474-48a4-b2c1-742a7aa7aab0","video":null,"channel":null,"channelUrl":null,"author":"paulpauper","authorUrl":"https://news.ycombinator.com/user?id=paulpauper","authorImage":null,"authorSlug":null,"score":200,"views":null,"sharedCount":null,"likeCount":null,"sharedContent":null,"parent":{"__typename":"HnJson","localize":[{"title":"学术上的 \"幽灵写作\"。没人愿意讨论的作弊丑闻。","locale":"zh"},{"title":"學術上的 \"幽靈寫作\"。沒人願意討論的作弊醜聞。","locale":"zh-Hant"}]}},{"__typename":"SocialMediaPost","id":"HnPost-26535224","excerpt":"","slug":"/hn/26535224","title":"Richard M Stallman Is Back on the FSF Board","date":"March 22, 2021","dateISO":"2021-03-22T02:04:13.224Z","datetime":"2021-03-22 02:04","tags":["story","Hacker News"],"image":null,"imageAlt":null,"provider":"Hacker News","thirdPartyId":"26535224","url":"https://news.ycombinator.com/item?id=26535224","originalUrl":"http://techrights.org/2021/03/21/richard-stallman-is-coming-back-to-the-board-of-the-free-software-foundation-founded-by-himself-35-years-ago/","imageRemote":"http://techrights.org/wp-content/uploads/2017/02/Techrights-pillars.jpg","video":null,"channel":null,"channelUrl":null,"author":"wrycoder","authorUrl":"https://news.ycombinator.com/user?id=wrycoder","authorImage":null,"authorSlug":null,"score":842,"views":null,"sharedCount":null,"likeCount":null,"sharedContent":null,"parent":{"__typename":"HnJson","localize":[{"title":"Richard M Stallman重回FSF董事会","locale":"zh"},{"title":"Richard M Stallman重回FSF董事會","locale":"zh-Hant"}]}},{"__typename":"SocialMediaPost","id":"HnPost-26534000","excerpt":"","slug":"/hn/26534000","title":"GPT Neo: open-source GPT model, with pretrained 1.3B & 2.7B weight models","date":"March 21, 2021","dateISO":"2021-03-21T22:56:27.475Z","datetime":"2021-03-21 22:56","tags":["story","Hacker News"],"image":null,"imageAlt":null,"provider":"Hacker News","thirdPartyId":"26534000","url":"https://news.ycombinator.com/item?id=26534000","originalUrl":"https://github.com/EleutherAI/gpt-neo/","imageRemote":"https://avatars.githubusercontent.com/u/68924597?s=400&v=4","video":null,"channel":null,"channelUrl":null,"author":"pizza","authorUrl":"https://news.ycombinator.com/user?id=pizza","authorImage":null,"authorSlug":null,"score":560,"views":null,"sharedCount":null,"likeCount":null,"sharedContent":null,"parent":{"__typename":"HnJson","localize":[{"title":"GPT Neo：开源GPT模型，有预训练的1.3B和2.7B权重模型。","locale":"zh"},{"title":"GPT Neo：開源GPT模型，有預訓練的1.3B和2.7B權重模型。","locale":"zh-Hant"}]}},{"__typename":"SocialMediaPost","id":"HnPost-26531087","excerpt":"","slug":"/hn/26531087","title":"SF poop-testing startup, once compared to Theranos, charged in $60M fraud scheme","date":"March 21, 2021","dateISO":"2021-03-21T21:57:30.286Z","datetime":"2021-03-21 21:57","tags":["story","Hacker News"],"image":null,"imageAlt":null,"provider":"Hacker News","thirdPartyId":"26531087","url":"https://news.ycombinator.com/item?id=26531087","originalUrl":"https://www.sfgate.com/crime/article/ubiome-richman-apte-sec-filing-charges-fraud-16042042.php","imageRemote":"https://s.hdnux.com/photos/01/17/16/41/20768832/3/rawImage.jpg","video":null,"channel":null,"channelUrl":null,"author":"ic0n0cl4st","authorUrl":"https://news.ycombinator.com/user?id=ic0n0cl4st","authorImage":null,"authorSlug":null,"score":435,"views":null,"sharedCount":null,"likeCount":null,"sharedContent":null,"parent":{"__typename":"HnJson","localize":[{"title":"曾与Theranos相提并论的SF大便检测初创公司被控诈骗6000万美元","locale":"zh"},{"title":"曾與Theranos相提並論的SF大便檢測初創公司被控詐騙6000萬美元","locale":"zh-Hant"}]}},{"__typename":"SocialMediaPost","id":"HnPost-26531207","excerpt":"","slug":"/hn/26531207","title":"Vaccines Are Effective Against Covid Variants","date":"March 21, 2021","dateISO":"2021-03-21T21:23:22.641Z","datetime":"2021-03-21 21:23","tags":["story","Hacker News"],"image":null,"imageAlt":null,"provider":"Hacker News","thirdPartyId":"26531207","url":"https://news.ycombinator.com/item?id=26531207","originalUrl":"https://jamanetwork.com/journals/jama/fullarticle/2777898","imageRemote":"https://cdn.jamanetwork.com/ama/content_public/journal/jama/0/jld210021f1_1616113637.53141.png?Expires=2147483647&Signature=x7bpciRynh8x6HtSXIFn-ibeJocvez3ZzqQdWsXcXxR4--zcRd7c-n0nlc6IO4wkwNTlweefZPnKVZ779H-hsqG37WuBmisO6nJObocCriOSa6ULUH85PAcSEWBTAVZiMZwEFki7pXhof0YA5IqfY0bqrfyPsazq6ad6aqTFcRlWVhgDvYZvvliJdLjPRDYOos~2fbzgSNBETwjSnifIuw0XarhtS3Gt32mEL-v85Svcfy8XPLX715DhE2tzcW70A~ySs25C6h5lJEKH~3U8M~uxaM2oHCinETzsoegvEitxKK1X~HZhapzWtb-RbwKhOnxsyNGUrDZWarmF4faZAQ__&Key-Pair-Id=APKAIE5G5CRDK6RD3PGA","video":null,"channel":null,"channelUrl":null,"author":"11thEarlOfMar","authorUrl":"https://news.ycombinator.com/user?id=11thEarlOfMar","authorImage":null,"authorSlug":null,"score":224,"views":null,"sharedCount":null,"likeCount":null,"sharedContent":null,"parent":{"__typename":"HnJson","localize":[{"title":"疫苗对Covid变种有效","locale":"zh"},{"title":"疫苗對Covid變種有效","locale":"zh-Hant"}]}},{"__typename":"SocialMediaPost","id":"HnPost-26530604","excerpt":"","slug":"/hn/26530604","title":"Reverse-Engineering NES Tetris to Add Hard Drop","date":"March 21, 2021","dateISO":"2021-03-21T20:12:14.131Z","datetime":"2021-03-21 20:12","tags":["story","Hacker News"],"image":null,"imageAlt":null,"provider":"Hacker News","thirdPartyId":"26530604","url":"https://news.ycombinator.com/item?id=26530604","originalUrl":"https://www.gridbugs.org/reverse-engineering-nes-tetris-to-add-hard-drop/","imageRemote":"https://gridbugs.org/images/reverse-engineering-nes-tetris-to-add-hard-drop/screenshot1.png","video":null,"channel":null,"channelUrl":null,"author":"stevebox","authorUrl":"https://news.ycombinator.com/user?id=stevebox","authorImage":null,"authorSlug":null,"score":213,"views":null,"sharedCount":null,"likeCount":null,"sharedContent":null,"parent":{"__typename":"HnJson","localize":[{"title":"逆向工程NES俄罗斯方块添加硬降","locale":"zh"},{"title":"逆向工程NES俄羅斯方塊添加硬降","locale":"zh-Hant"}]}},{"__typename":"SocialMediaPost","id":"HnPost-26532588","excerpt":"","slug":"/hn/26532588","title":"As U.S. schools shuttered, student mental health cratered, Reuters survey finds","date":"March 21, 2021","dateISO":"2021-03-21T20:12:14.131Z","datetime":"2021-03-21 20:12","tags":["story","Hacker News"],"image":null,"imageAlt":null,"provider":"Hacker News","thirdPartyId":"26532588","url":"https://news.ycombinator.com/item?id=26532588","originalUrl":"https://www.reuters.com/investigates/special-report/health-coronavirus-students/","imageRemote":"https://www.reuters.com/investigates/special-report/assets/health-coronavirus-students/mastheads/share_RTX9ZCNC.jpg?v=222211190321","video":null,"channel":null,"channelUrl":null,"author":"accountinhn","authorUrl":"https://news.ycombinator.com/user?id=accountinhn","authorImage":null,"authorSlug":null,"score":329,"views":null,"sharedCount":null,"likeCount":null,"sharedContent":null,"parent":{"__typename":"HnJson","localize":[{"title":"路透社调查发现，美国学校停课，学生心理健康崩溃","locale":"zh"},{"title":"路透社調查發現，美國學校停課，學生心理健康崩潰","locale":"zh-Hant"}]}}]}},"pageContext":{"basePath":"/","pageType":"home","tagsFilter":{"id":{"glob":"!*Post-1"}},"filter":{"id":{"glob":"!*Post-1"}},"limit":25,"skip":425,"totalPages":125,"total":3105,"currentPage":18,"maxWidth":1024,"maxHeight":512,"locale":"en","hrefLang":"en-US","originalPath":"/page/18","dateFormat":"MM/DD/YYYY"}},"staticQueryHashes":["1239077767","2506312863","2744905544","3025052997","3493603132","3493603132","3513215887","386998304"]}