{"componentChunkName":"component---gatsby-theme-buzzing-src-gatsby-theme-timeline-templates-posts-query-js","path":"/page/62","result":{"data":{"site":{"siteMetadata":{"title":"Reddit 热门","description":"用中文浏览Reddit热门内容","social":[{"name":"Twitter","url":"https://twitter.com/gatsbyjs","external":null,"prefetch":null},{"name":"GitHub","url":"https://github.com/gatsbyjs","external":null,"prefetch":null}],"menuLinks":[],"localize":[{"locale":"en","title":"Buzzing on Reddit","description":"See what's buzzing on Reddit in your native language","social":[{"name":"Reddit","url":"https://www.reddit.com/","external":true,"prefetch":null}],"menuLinks":[{"name":"Weekly Selection","url":"/issues","external":null,"prefetch":null},{"name":"RSS","url":"/rss.xml","external":null,"prefetch":false}]},{"locale":"zh-Hant","title":"Reddit 熱門","description":"用中文瀏覽Reddit熱門內容","social":null,"menuLinks":null}]}},"tagsGroup":{"group":[{"fieldValue":"ASK HN","totalCount":22},{"fieldValue":"Bitcoin","totalCount":3},{"fieldValue":"Hacker News","totalCount":920},{"fieldValue":"Poll","totalCount":1},{"fieldValue":"Show HN","totalCount":34},{"fieldValue":"investing","totalCount":197},{"fieldValue":"poll","totalCount":1},{"fieldValue":"reddit","totalCount":777},{"fieldValue":"science","totalCount":1},{"fieldValue":"stocks","totalCount":336},{"fieldValue":"story","totalCount":919},{"fieldValue":"tweet","totalCount":275},{"fieldValue":"wallstreetbets","totalCount":244}]},"allBlogPost":{"nodes":[{"__typename":"SocialMediaPost","id":"HnPost-25485624","excerpt":"","slug":"/hn/25485624","title":"Show HN: Galène Videoconferencing Server","date":"December 21, 2020","dateISO":"2020-12-21T16:48:47.545Z","datetime":"2020-12-21 16:48","tags":["story","Show HN","Hacker News"],"image":null,"imageAlt":null,"provider":"Hacker News","thirdPartyId":"25485624","url":"https://news.ycombinator.com/item?id=25485624","originalUrl":"https://galene.org","imageRemote":"https://galene.org/images/sfu-2000-small.jpg","video":null,"channel":"Show HN","channelUrl":"https://news.ycombinator.com/show","author":"jech","authorUrl":"https://news.ycombinator.com/user?id=jech","authorImage":null,"authorSlug":null,"score":131,"views":null,"sharedCount":null,"likeCount":null,"sharedContent":null,"parent":{"__typename":"HnJson","localize":[{"title":"HN新产品：Galène视频会议服务器","locale":"zh"},{"title":"HN新产品：Galène視頻會議服務器","locale":"zh-Hant"}]}},{"__typename":"SocialMediaPost","id":"HnPost-25495768","excerpt":"","slug":"/hn/25495768","title":"Congress is set to ban most surprise medical bills","date":"December 21, 2020","dateISO":"2020-12-21T16:48:47.545Z","datetime":"2020-12-21 16:48","tags":["story","Hacker News"],"image":null,"imageAlt":null,"provider":"Hacker News","thirdPartyId":"25495768","url":"https://news.ycombinator.com/item?id=25495768","originalUrl":"https://www.nytimes.com/2020/12/20/upshot/surprise-medical-bills-congress-ban.html","imageRemote":"https://static01.nyt.com/images/2020/12/22/upshot/00up-surprise-bill-print/00up-surprise-bill-facebookJumbo-v3.jpg","video":null,"channel":null,"channelUrl":null,"author":"jseliger","authorUrl":"https://news.ycombinator.com/user?id=jseliger","authorImage":null,"authorSlug":null,"score":463,"views":null,"sharedCount":null,"likeCount":null,"sharedContent":null,"parent":{"__typename":"HnJson","localize":[{"title":"国会将禁止最令人惊讶的医疗法案","locale":"zh"},{"title":"國會將禁止最令人驚訝的醫療法案","locale":"zh-Hant"}]}},{"__typename":"SocialMediaPost","id":"HnPost-25493773","excerpt":"","slug":"/hn/25493773","title":"New coronavirus variant in UK: What do we know?","date":"December 21, 2020","dateISO":"2020-12-21T16:07:15.026Z","datetime":"2020-12-21 16:07","tags":["story","Hacker News"],"image":null,"imageAlt":null,"provider":"Hacker News","thirdPartyId":"25493773","url":"https://news.ycombinator.com/item?id=25493773","originalUrl":"https://www.bbc.com/news/health-55388846","imageRemote":"https://ichef.bbci.co.uk/news/1024/branded_news/90FF/production/_116191173_gettyimages-1212213051.jpg","video":null,"channel":null,"channelUrl":null,"author":"justforfunhere","authorUrl":"https://news.ycombinator.com/user?id=justforfunhere","authorImage":null,"authorSlug":null,"score":240,"views":null,"sharedCount":null,"likeCount":null,"sharedContent":null,"parent":{"__typename":"HnJson","localize":[{"title":"英国新的冠状病毒变种：我们知道些什么？","locale":"zh"},{"title":"英國新的冠狀病毒變種：我們知道些什麼？","locale":"zh-Hant"}]}},{"__typename":"SocialMediaPost","id":"HnPost-25495480","excerpt":"","slug":"/hn/25495480","title":"Russian opposition leader Navalny dupes spy into revealing how he was poisoned","date":"December 21, 2020","dateISO":"2020-12-21T16:07:15.026Z","datetime":"2020-12-21 16:07","tags":["story","Hacker News"],"image":null,"imageAlt":null,"provider":"Hacker News","thirdPartyId":"25495480","url":"https://news.ycombinator.com/item?id=25495480","originalUrl":"https://www.cnn.com/2020/12/21/europe/russia-navalny-poisoning-underpants-ward/index.html","imageRemote":"https://cdn.cnn.com/cnnnext/dam/assets/201221132025-01-alexey-navalny-file-2019-super-tease.jpg","video":null,"channel":null,"channelUrl":null,"author":"antfarm","authorUrl":"https://news.ycombinator.com/user?id=antfarm","authorImage":null,"authorSlug":null,"score":782,"views":null,"sharedCount":null,"likeCount":null,"sharedContent":null,"parent":{"__typename":"HnJson","localize":[{"title":"俄罗斯反对派领导人纳瓦尔尼欺骗间谍透露他是如何中毒的","locale":"zh"},{"title":"俄羅斯反對派領導人納瓦爾尼欺騙間諜透露他是如何中毒的","locale":"zh-Hant"}]}},{"__typename":"SocialMediaPost","id":"RedditPost-kgxx85","excerpt":"So many people are sharing a fallacious Yahoo Finance article which shamelessly\nexaggerates the impact of the bill that Trump signed recently is going to have\non the Chinese tickers. I agree that this bill is going to affect the shady\nChinese companies, but the already established ones like $BABA,…","slug":"/reddit/r/stocks/comments/kgxx85/dont_fall_prey_to_the_latest_wall_street/","title":"Don't fall prey to the latest Wall Street fabrication!!!","date":"December 21, 2020","dateISO":"2020-12-21T15:43:03.000Z","datetime":"2020-12-21 15:43","tags":["stocks","reddit"],"image":null,"imageAlt":null,"provider":"Reddit","thirdPartyId":"kgxx85","url":"https://www.reddit.com/r/stocks/comments/kgxx85/dont_fall_prey_to_the_latest_wall_street/","originalUrl":"https://www.reddit.com/r/stocks/comments/kgxx85/dont_fall_prey_to_the_latest_wall_street/","imageRemote":null,"video":null,"channel":"stocks","channelUrl":"https://www.reddit.com/r/stocks","author":"BriskTrades","authorUrl":"https://www.reddit.com/user/BriskTrades","authorImage":null,"authorSlug":"BriskTrades","score":56,"views":null,"sharedCount":null,"likeCount":null,"sharedContent":null,"parent":{"__typename":"RedditJson","localize":[{"title":"不要成为最新华尔街捏造的牺牲品！","the_new_excerpt":"这么多人都在分享一篇错误的雅虎财经文章，这篇文章厚颜无耻地\n夸大了特朗普最近签署的法案将产生的影响\n在中国的股票上。我同意这项法案会影响到那些阴暗的人\n中国公司，但像阿里巴巴，…这样已经成立的公司","locale":"zh"},{"title":"不要成爲最新華爾街捏造的犧牲品！","the_new_excerpt":"這麼多人都在分享一篇錯誤的雅虎財經文章，這篇文章厚顏無恥地\n誇大了特朗普最近簽署的法案將產生的影響\n在中國的股票上。我同意這項法案會影響到那些陰暗的人\n中國公司，但像阿里巴巴，…這樣已經成立的公司","locale":"zh-Hant"}]}},{"__typename":"SocialMediaPost","id":"HnPost-25493606","excerpt":"","slug":"/hn/25493606","title":"Chef cofounder on CentOS: It’s time to open source everything","date":"December 21, 2020","dateISO":"2020-12-21T15:20:04.039Z","datetime":"2020-12-21 15:20","tags":["story","Hacker News"],"image":null,"imageAlt":null,"provider":"Hacker News","thirdPartyId":"25493606","url":"https://news.ycombinator.com/item?id=25493606","originalUrl":"https://planetstoryline.com/chef-cofounder-on-centos-its-time-to-open-source-everything/","imageRemote":"https://planetstoryline.com/wp-content/uploads/2020/12/Chef-cofounder-on-CentOS-Its-time-to-open-source-everything.jpg","video":null,"channel":null,"channelUrl":null,"author":"ashitlerferad","authorUrl":"https://news.ycombinator.com/user?id=ashitlerferad","authorImage":null,"authorSlug":null,"score":187,"views":null,"sharedCount":null,"likeCount":null,"sharedContent":null,"parent":{"__typename":"HnJson","localize":[{"title":"Chef在CentOS上联合创始人：是时候把一切都开源了","locale":"zh"},{"title":"Chef在CentOS上聯合創始人：是時候把一切都開源了","locale":"zh-Hant"}]}},{"__typename":"SocialMediaPost","id":"HnPost-25493692","excerpt":"","slug":"/hn/25493692","title":"GameLisp: Scripting language for Rust game development","date":"December 21, 2020","dateISO":"2020-12-21T15:20:04.039Z","datetime":"2020-12-21 15:20","tags":["story","Hacker News"],"image":null,"imageAlt":null,"provider":"Hacker News","thirdPartyId":"25493692","url":"https://news.ycombinator.com/item?id=25493692","originalUrl":"https://gamelisp.rs/","imageRemote":"https://gamelisp.rs/logo-light.png","video":null,"channel":null,"channelUrl":null,"author":"sundarurfriend","authorUrl":"https://news.ycombinator.com/user?id=sundarurfriend","authorImage":null,"authorSlug":null,"score":231,"views":null,"sharedCount":null,"likeCount":null,"sharedContent":null,"parent":{"__typename":"HnJson","localize":[{"title":"GameLisp：Rust游戏开发的脚本语言","locale":"zh"},{"title":"GameLisp：Rust遊戲開發的腳本語言","locale":"zh-Hant"}]}},{"__typename":"SocialMediaPost","id":"HnPost-25494109","excerpt":"","slug":"/hn/25494109","title":"Facebook's attempt to vilify Apple looks like sour grapes","date":"December 21, 2020","dateISO":"2020-12-21T15:20:04.039Z","datetime":"2020-12-21 15:20","tags":["story","Hacker News"],"image":null,"imageAlt":null,"provider":"Hacker News","thirdPartyId":"25494109","url":"https://news.ycombinator.com/item?id=25494109","originalUrl":"https://www.theguardian.com/technology/2020/dec/16/facebooks-attempt-to-vilify-apple-tastes-like-sour-grapes","imageRemote":"https://i.guim.co.uk/img/media/80520fdb1a7f101fd59cafa4b5de1002e10901d5/0_98_3312_1987/master/3312.jpg?width=1200&height=630&quality=85&auto=format&fit=crop&overlay-align=bottom%2Cleft&overlay-width=100p&overlay-base64=L2ltZy9zdGF0aWMvb3ZlcmxheXMvdGctZGVmYXVsdC5wbmc&enable=upscale&s=32b6e325c62661da8cd10b40ea1d5493","video":null,"channel":null,"channelUrl":null,"author":"ystad","authorUrl":"https://news.ycombinator.com/user?id=ystad","authorImage":null,"authorSlug":null,"score":323,"views":null,"sharedCount":null,"likeCount":null,"sharedContent":null,"parent":{"__typename":"HnJson","localize":[{"title":"Facebook试图诋毁苹果看起来像是酸葡萄","locale":"zh"},{"title":"Facebook試圖詆譭蘋果看起來像是酸葡萄","locale":"zh-Hant"}]}},{"__typename":"SocialMediaPost","id":"HnPost-25494205","excerpt":"","slug":"/hn/25494205","title":"“I took FSFE to court. This is my story”","date":"December 21, 2020","dateISO":"2020-12-21T15:20:04.039Z","datetime":"2020-12-21 15:20","tags":["story","Hacker News"],"image":null,"imageAlt":null,"provider":"Hacker News","thirdPartyId":"25494205","url":"https://news.ycombinator.com/item?id=25494205","originalUrl":"https://write.as/malinagalina/i-took-fsfe-to-court","imageRemote":"https://write.as/img/w-sq-light.png","video":null,"channel":null,"channelUrl":null,"author":"yannovitch","authorUrl":"https://news.ycombinator.com/user?id=yannovitch","authorImage":null,"authorSlug":null,"score":114,"views":null,"sharedCount":null,"likeCount":null,"sharedContent":null,"parent":{"__typename":"HnJson","localize":[{"title":"“我把FSFE告上了法庭。这是我的故事“","locale":"zh"},{"title":"“我把FSFE告上了法庭。這是我的故事“","locale":"zh-Hant"}]}},{"__typename":"SocialMediaPost","id":"HnPost-25492456","excerpt":"","slug":"/hn/25492456","title":"World’s biggest iceberg heads for disaster","date":"December 21, 2020","dateISO":"2020-12-21T14:56:38.143Z","datetime":"2020-12-21 14:56","tags":["story","Hacker News"],"image":null,"imageAlt":null,"provider":"Hacker News","thirdPartyId":"25492456","url":"https://news.ycombinator.com/item?id=25492456","originalUrl":"https://graphics.reuters.com/CLIMATE-CHANGE/ICEBERG/yzdvxjrbzvx/","imageRemote":"https://graphics.reuters.com/CLIMATE-CHANGE/ICEBERG/yzdvxjrbzvx/img/share-card.jpg","video":null,"channel":null,"channelUrl":null,"author":"wglb","authorUrl":"https://news.ycombinator.com/user?id=wglb","authorImage":null,"authorSlug":null,"score":120,"views":null,"sharedCount":null,"likeCount":null,"sharedContent":null,"parent":{"__typename":"HnJson","localize":[{"title":"世界上最大的冰山走向灾难","locale":"zh"},{"title":"世界上最大的冰山走向災難","locale":"zh-Hant"}]}},{"__typename":"SocialMediaPost","id":"HnPost-25486017","excerpt":"","slug":"/hn/25486017","title":"Understanding how AES encryption works","date":"December 21, 2020","dateISO":"2020-12-21T14:47:18.036Z","datetime":"2020-12-21 14:47","tags":["story","Hacker News"],"image":null,"imageAlt":null,"provider":"Hacker News","thirdPartyId":"25486017","url":"https://news.ycombinator.com/item?id=25486017","originalUrl":"https://nakabonne.dev/posts/understanding-how-aes-encryption-works/","imageRemote":"https://nakabonne.dev/img/aes-add-round-key.jpg","video":null,"channel":null,"channelUrl":null,"author":"nakabonne","authorUrl":"https://news.ycombinator.com/user?id=nakabonne","authorImage":null,"authorSlug":null,"score":129,"views":null,"sharedCount":null,"likeCount":null,"sharedContent":null,"parent":{"__typename":"HnJson","localize":[{"title":"了解AES加密的工作原理","locale":"zh"},{"title":"瞭解AES加密的工作原理","locale":"zh-Hant"}]}},{"__typename":"SocialMediaPost","id":"RedditPost-khg9sj","excerpt":"This is going to be the ultimate guide on what you should learn first starting\nfrom knowing absolutely nothing about investing to becoming an investor who can\nbeat the market indexes. It doesn't matter if you invest in penny stocks or blue\nchips. The principles are all the same.\n\nThis is an…","slug":"/reddit/r/investing/comments/khg9sj/the_ultimate_fundamentals_guide_on_what_you_need/","title":"The Ultimate Fundamentals Guide on What You Need to Learn First - From Newbie to Pro Investor","date":"December 21, 2020","dateISO":"2020-12-21T14:35:37.000Z","datetime":"2020-12-21 14:35","tags":["investing","reddit"],"image":null,"imageAlt":null,"provider":"Reddit","thirdPartyId":"khg9sj","url":"https://www.reddit.com/r/investing/comments/khg9sj/the_ultimate_fundamentals_guide_on_what_you_need/","originalUrl":"https://www.reddit.com/r/investing/comments/khg9sj/the_ultimate_fundamentals_guide_on_what_you_need/","imageRemote":null,"video":null,"channel":"investing","channelUrl":"https://www.reddit.com/r/investing","author":"krisolch","authorUrl":"https://www.reddit.com/user/krisolch","authorImage":null,"authorSlug":"krisolch","score":1900,"views":null,"sharedCount":null,"likeCount":null,"sharedContent":null,"parent":{"__typename":"RedditJson","localize":[{"title":"关于您首先需要了解的基本知识的终极指南-从新手到专业投资者","the_new_excerpt":"这将是关于你应该首先学习什么的终极指南。\n从对投资一无所知到成为一名有能力的投资者\n跑赢大盘指数。不管你是投资Penny股票还是Blue\n薯条。原则都是一样的。\n\n这是一台…","locale":"zh"},{"title":"關於您首先需要了解的基本知識的終極指南-從新手到專業投資者","the_new_excerpt":"這將是關於你應該首先學習什麼的終極指南。\n從對投資一無所知到成爲一名有能力的投資者\n跑贏大盤指數。不管你是投資Penny股票還是Blue\n薯條。原則都是一樣的。\n\n這是一臺…","locale":"zh-Hant"}]}},{"__typename":"SocialMediaPost","id":"RedditPost-khbmu0","excerpt":"Predictions on how this will impact the market? There will surely be some\nAmericans who will need to use the money to buy food, survive, buy gifts to make\nthis year's christmas feel normal.\n\nBut for Tesla, what does this mean? 1 trillion dollar market cap by EOW?","slug":"/reddit/r/stocks/comments/khbmu0/congress_has_agreed_to_a_900_billion_covid19/","title":"Congress has agreed to a $900 billion COVID-19 Stimulus Deal: Will give every American 88.62% of one TSLA Share.","date":"December 21, 2020","dateISO":"2020-12-21T14:35:37.000Z","datetime":"2020-12-21 14:35","tags":["stocks","reddit"],"image":null,"imageAlt":null,"provider":"Reddit","thirdPartyId":"khbmu0","url":"https://www.reddit.com/r/stocks/comments/khbmu0/congress_has_agreed_to_a_900_billion_covid19/","originalUrl":"https://www.reddit.com/r/stocks/comments/khbmu0/congress_has_agreed_to_a_900_billion_covid19/","imageRemote":null,"video":null,"channel":"stocks","channelUrl":"https://www.reddit.com/r/stocks","author":"flovidchan","authorUrl":"https://www.reddit.com/user/flovidchan","authorImage":null,"authorSlug":"flovidchan","score":124,"views":null,"sharedCount":null,"likeCount":null,"sharedContent":null,"parent":{"__typename":"RedditJson","localize":[{"title":"国会已经同意了一项9000亿美元的冠状病毒刺激协议：将给每个美国人一个TSLA份额的88.62%。","the_new_excerpt":"对这将如何影响市场的预测？肯定会有一些\n美国人将需要用这笔钱买食物，生存，买礼物来制作\n今年的圣诞节感觉很正常。\n\n但对特斯拉来说，这意味着什么？1万亿美元的EOW市值？","locale":"zh"},{"title":"國會已經同意了一項9000億美元的冠狀病毒刺激協議：將給每個美國人一個TSLA份額的88.62%。","the_new_excerpt":"對這將如何影響市場的預測？肯定會有一些\n美國人將需要用這筆錢買食物，生存，買禮物來製作\n今年的聖誕節感覺很正常。\n\n但對特斯拉來說，這意味着什麼？1萬億美元的EOW市值？","locale":"zh-Hant"}]}},{"__typename":"SocialMediaPost","id":"HnPost-25493087","excerpt":"","slug":"/hn/25493087","title":"Threema apps are Open Source","date":"December 21, 2020","dateISO":"2020-12-21T14:35:34.836Z","datetime":"2020-12-21 14:35","tags":["story","Hacker News"],"image":null,"imageAlt":null,"provider":"Hacker News","thirdPartyId":"25493087","url":"https://news.ycombinator.com/item?id=25493087","originalUrl":"https://threema.ch/en/blog/posts/open-source-discount","imageRemote":"https://threema.ch/images/logo-big.png","video":null,"channel":null,"channelUrl":null,"author":"nickexyz","authorUrl":"https://news.ycombinator.com/user?id=nickexyz","authorImage":null,"authorSlug":null,"score":157,"views":null,"sharedCount":null,"likeCount":null,"sharedContent":null,"parent":{"__typename":"HnJson","localize":[{"title":"Threema应用程序是开源的","locale":"zh"},{"title":"Threema應用程序是開源的","locale":"zh-Hant"}]}},{"__typename":"SocialMediaPost","id":"HnPost-25493646","excerpt":"","slug":"/hn/25493646","title":"Startup Stock Options – Why A Good Deal Has Gone Bad (2019)","date":"December 21, 2020","dateISO":"2020-12-21T14:35:34.836Z","datetime":"2020-12-21 14:35","tags":["story","Hacker News"],"image":null,"imageAlt":null,"provider":"Hacker News","thirdPartyId":"25493646","url":"https://news.ycombinator.com/item?id=25493646","originalUrl":"https://steveblank.com/2019/04/10/startup-stock-options-why-a-good-deal-has-gone-bad/","imageRemote":"https://steveblank.com/wp-content/uploads/2019/04/growth-appreciation.jpg","video":null,"channel":null,"channelUrl":null,"author":"simonebrunozzi","authorUrl":"https://news.ycombinator.com/user?id=simonebrunozzi","authorImage":null,"authorSlug":null,"score":361,"views":null,"sharedCount":null,"likeCount":null,"sharedContent":null,"parent":{"__typename":"HnJson","localize":[{"title":"创业公司股票期权-为什么一笔划算的交易变得糟糕(2019年)","locale":"zh"},{"title":"創業公司股票期權-爲什麼一筆劃算的交易變得糟糕(2019年)","locale":"zh-Hant"}]}},{"__typename":"SocialMediaPost","id":"HnPost-25494789","excerpt":"","slug":"/hn/25494789","title":"Ruby 3.0.0 RC1 Released","date":"December 21, 2020","dateISO":"2020-12-21T14:35:34.836Z","datetime":"2020-12-21 14:35","tags":["story","Hacker News"],"image":null,"imageAlt":null,"provider":"Hacker News","thirdPartyId":"25494789","url":"https://news.ycombinator.com/item?id=25494789","originalUrl":"https://www.ruby-lang.org/en/news/2020/12/20/ruby-3-0-0-rc1-released/","imageRemote":"https://www.ruby-lang.org/images/header-ruby-logo@2x.png","video":null,"channel":null,"channelUrl":null,"author":"chenzhekl","authorUrl":"https://news.ycombinator.com/user?id=chenzhekl","authorImage":null,"authorSlug":null,"score":326,"views":null,"sharedCount":null,"likeCount":null,"sharedContent":null,"parent":{"__typename":"HnJson","localize":[{"title":"Ruby 3.0.0 RC1发布","locale":"zh"},{"title":"Ruby 3.0.0 RC1發佈","locale":"zh-Hant"}]}},{"__typename":"SocialMediaPost","id":"HnPost-25493804","excerpt":"","slug":"/hn/25493804","title":"Nikon Is ending 70 years of camera production in Japan","date":"December 21, 2020","dateISO":"2020-12-21T13:39:04.592Z","datetime":"2020-12-21 13:39","tags":["story","Hacker News"],"image":null,"imageAlt":null,"provider":"Hacker News","thirdPartyId":"25493804","url":"https://news.ycombinator.com/item?id=25493804","originalUrl":"https://www.mirrorlessrumors.com/nikon-is-ending-70-years-of-camera-production-in-japan/","imageRemote":"https://www.mirrorlessrumors.com/wp-content/uploads/2020/12/Bildschirmfoto-2020-12-21-um-08.41.07.png","video":null,"channel":null,"channelUrl":null,"author":"giuliomagnifico","authorUrl":"https://news.ycombinator.com/user?id=giuliomagnifico","authorImage":null,"authorSlug":null,"score":607,"views":null,"sharedCount":null,"likeCount":null,"sharedContent":null,"parent":{"__typename":"HnJson","localize":[{"title":"尼康将结束在日本长达70年的相机生产","locale":"zh"},{"title":"尼康將結束在日本長達70年的相機生產","locale":"zh-Hant"}]}},{"__typename":"SocialMediaPost","id":"HnPost-25492880","excerpt":"","slug":"/hn/25492880","title":"Joining Apple 40 years ago","date":"December 21, 2020","dateISO":"2020-12-21T13:07:59.427Z","datetime":"2020-12-21 13:07","tags":["story","Hacker News"],"image":null,"imageAlt":null,"provider":"Hacker News","thirdPartyId":"25492880","url":"https://news.ycombinator.com/item?id=25492880","originalUrl":"https://mondaynote.com/joining-apple-40-years-ago-805114536a2","imageRemote":"https://miro.medium.com/max/500/1*S9WhriAn5D_hZ-qI9pPTnw.jpeg","video":null,"channel":null,"channelUrl":null,"author":"tardyp","authorUrl":"https://news.ycombinator.com/user?id=tardyp","authorImage":null,"authorSlug":null,"score":233,"views":null,"sharedCount":null,"likeCount":null,"sharedContent":null,"parent":{"__typename":"HnJson","localize":[{"title":"40年前加入苹果","locale":"zh"},{"title":"40年前加入蘋果","locale":"zh-Hant"}]}},{"__typename":"SocialMediaPost","id":"HnPost-25493553","excerpt":"","slug":"/hn/25493553","title":"$7/month wages paid to iPhone factory workers despite being hired for $100+/mo","date":"December 21, 2020","dateISO":"2020-12-21T12:42:27.713Z","datetime":"2020-12-21 12:42","tags":["story","Hacker News"],"image":null,"imageAlt":null,"provider":"Hacker News","thirdPartyId":"25493553","url":"https://news.ycombinator.com/item?id=25493553","originalUrl":"https://arstechnica.com/gadgets/2020/12/worker-protests-at-indian-iphone-factory-causes-up-to-7-million-in-damages/","imageRemote":"https://cdn.arstechnica.net/wp-content/uploads/2020/12/GettyImages-1230098368-760x380.jpg","video":null,"channel":null,"channelUrl":null,"author":"mehrdadn","authorUrl":"https://news.ycombinator.com/user?id=mehrdadn","authorImage":null,"authorSlug":null,"score":458,"views":null,"sharedCount":null,"likeCount":null,"sharedContent":null,"parent":{"__typename":"HnJson","localize":[{"title":"支付给iPhone工厂工人的工资为7美元/月，尽管受雇时的月薪为100美元以上","locale":"zh"},{"title":"支付給iPhone工廠工人的工資爲7美元/月，儘管受僱時的月薪爲100美元以上","locale":"zh-Hant"}]}},{"__typename":"SocialMediaPost","id":"HnPost-25492406","excerpt":"","slug":"/hn/25492406","title":"3D printing boats is becoming standard practice","date":"December 21, 2020","dateISO":"2020-12-21T11:46:22.308Z","datetime":"2020-12-21 11:46","tags":["story","Hacker News"],"image":null,"imageAlt":null,"provider":"Hacker News","thirdPartyId":"25492406","url":"https://news.ycombinator.com/item?id=25492406","originalUrl":"https://www.3dprintingmedia.network/3d-printing-boats-is-becoming-standard-practice/","imageRemote":"https://www.3dprintingmedia.network/wp-content/uploads/2020/12/3D-printing-boats.jpg","video":null,"channel":null,"channelUrl":null,"author":"fortran77","authorUrl":"https://news.ycombinator.com/user?id=fortran77","authorImage":null,"authorSlug":null,"score":185,"views":null,"sharedCount":null,"likeCount":null,"sharedContent":null,"parent":{"__typename":"HnJson","localize":[{"title":"3D打印船正在成为标准做法","locale":"zh"},{"title":"3D打印船正在成爲標準做法","locale":"zh-Hant"}]}},{"__typename":"SocialMediaPost","id":"HnPost-25492551","excerpt":"","slug":"/hn/25492551","title":"Bash 5.1","date":"December 21, 2020","dateISO":"2020-12-21T09:53:34.392Z","datetime":"2020-12-21 09:53","tags":["story","Hacker News"],"image":null,"imageAlt":null,"provider":"Hacker News","thirdPartyId":"25492551","url":"https://news.ycombinator.com/item?id=25492551","originalUrl":"https://lists.gnu.org/archive/html/info-gnu/2020-12/msg00003.html","imageRemote":null,"video":null,"channel":null,"channelUrl":null,"author":"aleclm","authorUrl":"https://news.ycombinator.com/user?id=aleclm","authorImage":null,"authorSlug":null,"score":198,"views":null,"sharedCount":null,"likeCount":null,"sharedContent":null,"parent":{"__typename":"HnJson","localize":[{"title":"Bash 5.1","locale":"zh"},{"title":"Bash 5.1","locale":"zh-Hant"}]}},{"__typename":"SocialMediaPost","id":"HnPost-25491568","excerpt":"","slug":"/hn/25491568","title":"Cakelisp: A Programming Language for Games","date":"December 21, 2020","dateISO":"2020-12-21T09:32:46.093Z","datetime":"2020-12-21 09:32","tags":["story","Hacker News"],"image":null,"imageAlt":null,"provider":"Hacker News","thirdPartyId":"25491568","url":"https://news.ycombinator.com/item?id=25491568","originalUrl":"https://macoy.me/blog/programming/CakelispIntro","imageRemote":null,"video":null,"channel":null,"channelUrl":null,"author":"makuto","authorUrl":"https://news.ycombinator.com/user?id=makuto","authorImage":null,"authorSlug":null,"score":178,"views":null,"sharedCount":null,"likeCount":null,"sharedContent":null,"parent":{"__typename":"HnJson","localize":[{"title":"Cakelisp：一种游戏编程语言","locale":"zh"},{"title":"Cakelisp：一種遊戲編程語言","locale":"zh-Hant"}]}},{"__typename":"SocialMediaPost","id":"HnPost-25491790","excerpt":"","slug":"/hn/25491790","title":"Unix Recovery Legend (1986)","date":"December 21, 2020","dateISO":"2020-12-21T08:32:22.500Z","datetime":"2020-12-21 08:32","tags":["story","Hacker News"],"image":null,"imageAlt":null,"provider":"Hacker News","thirdPartyId":"25491790","url":"https://news.ycombinator.com/item?id=25491790","originalUrl":"https://www.ee.ryerson.ca/~elf/hack/recovery.html","imageRemote":null,"video":null,"channel":null,"channelUrl":null,"author":"signa11","authorUrl":"https://news.ycombinator.com/user?id=signa11","authorImage":null,"authorSlug":null,"score":168,"views":null,"sharedCount":null,"likeCount":null,"sharedContent":null,"parent":{"__typename":"HnJson","localize":[{"title":"UNIX恢复传奇(1986)","locale":"zh"},{"title":"UNIX恢復傳奇(1986)","locale":"zh-Hant"}]}},{"__typename":"SocialMediaPost","id":"HnPost-25488887","excerpt":"","slug":"/hn/25488887","title":"On the Graying of Gnome","date":"December 21, 2020","dateISO":"2020-12-21T07:48:10.681Z","datetime":"2020-12-21 07:48","tags":["story","Hacker News"],"image":null,"imageAlt":null,"provider":"Hacker News","thirdPartyId":"25488887","url":"https://news.ycombinator.com/item?id=25488887","originalUrl":"https://hpjansson.org/blag/2020/12/16/on-the-graying-of-gnome/","imageRemote":"https://hpjansson.org/blag/wp-content/uploads/2020/12/gnome-authors-firstyear-year-2020.png","video":null,"channel":null,"channelUrl":null,"author":"yankcrime","authorUrl":"https://news.ycombinator.com/user?id=yankcrime","authorImage":null,"authorSlug":null,"score":138,"views":null,"sharedCount":null,"likeCount":null,"sharedContent":null,"parent":{"__typename":"HnJson","localize":[{"title":"论侏儒的灰色化","locale":"zh"},{"title":"論侏儒的灰色化","locale":"zh-Hant"}]}},{"__typename":"SocialMediaPost","id":"HnPost-25489140","excerpt":"","slug":"/hn/25489140","title":"Dozens of Al Jazeera journalists allegedly hacked using NSO Group spyware","date":"December 21, 2020","dateISO":"2020-12-21T07:02:35.707Z","datetime":"2020-12-21 07:02","tags":["story","Hacker News"],"image":null,"imageAlt":null,"provider":"Hacker News","thirdPartyId":"25489140","url":"https://news.ycombinator.com/item?id=25489140","originalUrl":"https://www.theguardian.com/media/2020/dec/20/citizen-lab-nso-dozens-of-aljazeera-journalists-allegedly-hacked-using-israeli-firm-spyware","imageRemote":"https://i.guim.co.uk/img/media/7c09b66f8c90054c2d5a8e962665572fa195c998/0_232_3500_2101/master/3500.jpg?width=1200&height=630&quality=85&auto=format&fit=crop&overlay-align=bottom%2Cleft&overlay-width=100p&overlay-base64=L2ltZy9zdGF0aWMvb3ZlcmxheXMvdGctZGVmYXVsdC5wbmc&enable=upscale&s=ea50247b22ccf51782077e6a70a3108b","video":null,"channel":null,"channelUrl":null,"author":"aleksei","authorUrl":"https://news.ycombinator.com/user?id=aleksei","authorImage":null,"authorSlug":null,"score":111,"views":null,"sharedCount":null,"likeCount":null,"sharedContent":null,"parent":{"__typename":"HnJson","localize":[{"title":"数十名半岛电视台记者涉嫌使用NSO集团间谍软件进行黑客攻击","locale":"zh"},{"title":"數十名半島電視臺記者涉嫌使用NSO集團間諜軟件進行黑客攻擊","locale":"zh-Hant"}]}}]}},"pageContext":{"basePath":"/","pageType":"home","tagsFilter":{"id":{"glob":"!*Post-1"}},"filter":{"id":{"glob":"!*Post-1"}},"limit":25,"skip":1525,"totalPages":79,"total":1972,"currentPage":62,"maxWidth":1024,"maxHeight":512,"locale":"zh","hrefLang":"zh-Hans","originalPath":"/page/62","dateFormat":"YYYY-MM-DD"}},"staticQueryHashes":["1239077767","2506312863","2744905544","3025052997","3493603132","3493603132","3513215887","386998304"]}