{"componentChunkName":"component---gatsby-theme-buzzing-src-gatsby-theme-timeline-templates-posts-query-js","path":"/en/tags/hacker-news/page/13","result":{"data":{"site":{"siteMetadata":{"title":"Reddit 热门","description":"用中文浏览Reddit热门内容","social":[{"name":"Twitter","url":"https://twitter.com/gatsbyjs","external":null,"prefetch":null},{"name":"GitHub","url":"https://github.com/gatsbyjs","external":null,"prefetch":null}],"menuLinks":[],"localize":[{"locale":"en","title":"Buzzing on Reddit","description":"See what's buzzing on Reddit in your native language","social":[{"name":"Reddit","url":"https://www.reddit.com/","external":true,"prefetch":null}],"menuLinks":[{"name":"Weekly Selection","url":"/issues","external":null,"prefetch":null},{"name":"RSS","url":"/rss.xml","external":null,"prefetch":false}]},{"locale":"zh-Hant","title":"Reddit 熱門","description":"用中文瀏覽Reddit熱門內容","social":null,"menuLinks":null}]}},"tagsGroup":{"group":[{"fieldValue":"ASK HN","totalCount":23},{"fieldValue":"Bitcoin","totalCount":3},{"fieldValue":"Hacker News","totalCount":974},{"fieldValue":"Poll","totalCount":1},{"fieldValue":"Show HN","totalCount":35},{"fieldValue":"investing","totalCount":209},{"fieldValue":"poll","totalCount":1},{"fieldValue":"reddit","totalCount":891},{"fieldValue":"science","totalCount":1},{"fieldValue":"stocks","totalCount":370},{"fieldValue":"story","totalCount":973},{"fieldValue":"tweet","totalCount":285},{"fieldValue":"wallstreetbets","totalCount":312}]},"allBlogPost":{"nodes":[{"__typename":"SocialMediaPost","id":"HnPost-25632048","excerpt":"","slug":"/hn/25632048","title":"Slack Running Slow / Hanging?","date":"January 04, 2021","dateISO":"2021-01-04T15:52:20.660Z","datetime":"2021-01-04 15:52","tags":["story","Hacker News"],"image":null,"imageAlt":null,"provider":"Hacker News","thirdPartyId":"25632048","url":"https://news.ycombinator.com/item?id=25632048","originalUrl":"https://news.ycombinator.com/item?id=25632048","imageRemote":null,"video":null,"channel":null,"channelUrl":null,"author":"seibelj","authorUrl":"https://news.ycombinator.com/user?id=seibelj","authorImage":null,"authorSlug":null,"score":186,"views":null,"sharedCount":null,"likeCount":null,"sharedContent":null,"parent":{"__typename":"HnJson","localize":[{"title":"慢跑/悬吊？","locale":"zh"},{"title":"慢跑/懸吊？","locale":"zh-Hant"}]}},{"__typename":"SocialMediaPost","id":"HnPost-25632346","excerpt":"","slug":"/hn/25632346","title":"Slack Ongoing Connection Issues","date":"January 04, 2021","dateISO":"2021-01-04T15:52:20.660Z","datetime":"2021-01-04 15:52","tags":["story","Hacker News"],"image":null,"imageAlt":null,"provider":"Hacker News","thirdPartyId":"25632346","url":"https://news.ycombinator.com/item?id=25632346","originalUrl":"https://status.slack.com/2021-01/9ecc1bc75347b6d1","imageRemote":"https://status.slack.com/img/v2_rebrand/slack_hash_256.png","video":null,"channel":null,"channelUrl":null,"author":"gpmcadam","authorUrl":"https://news.ycombinator.com/user?id=gpmcadam","authorImage":null,"authorSlug":null,"score":988,"views":null,"sharedCount":null,"likeCount":null,"sharedContent":null,"parent":{"__typename":"HnJson","localize":[{"title":"松懈的持续连接问题","locale":"zh"},{"title":"鬆懈的持續連接問題","locale":"zh-Hant"}]}},{"__typename":"SocialMediaPost","id":"HnPost-25629774","excerpt":"","slug":"/hn/25629774","title":"China: The Disappearing Millionaires (2019) [video]","date":"January 04, 2021","dateISO":"2021-01-04T15:22:28.602Z","datetime":"2021-01-04 15:22","tags":["story","Hacker News"],"image":null,"imageAlt":null,"provider":"Hacker News","thirdPartyId":"25629774","url":"https://news.ycombinator.com/item?id=25629774","originalUrl":"https://www.arte.tv/en/videos/083456-000-A/china-the-disappearing-millionaires/","imageRemote":"https://api-cdn.arte.tv/api/mami/v1/program/en/083456-000-A/940x530?text=true","video":null,"channel":null,"channelUrl":null,"author":"aminozuur","authorUrl":"https://news.ycombinator.com/user?id=aminozuur","authorImage":null,"authorSlug":null,"score":240,"views":null,"sharedCount":null,"likeCount":null,"sharedContent":null,"parent":{"__typename":"HnJson","localize":[{"title":"中国：正在消失的百万富翁(2019)[视频]","locale":"zh"},{"title":"中國：正在消失的百萬富翁(2019)[視頻]","locale":"zh-Hant"}]}},{"__typename":"SocialMediaPost","id":"HnPost-25629948","excerpt":"","slug":"/hn/25629948","title":"Julian Assange extradition to US blocked by UK court","date":"January 04, 2021","dateISO":"2021-01-04T14:03:47.768Z","datetime":"2021-01-04 14:03","tags":["story","Hacker News"],"image":null,"imageAlt":null,"provider":"Hacker News","thirdPartyId":"25629948","url":"https://news.ycombinator.com/item?id=25629948","originalUrl":"https://www.bbc.com/news/uk-55528241","imageRemote":"https://ichef.bbci.co.uk/news/1024/branded_news/12F88/production/_116340777_hi062193132.jpg","video":null,"channel":null,"channelUrl":null,"author":"layer8","authorUrl":"https://news.ycombinator.com/user?id=layer8","authorImage":null,"authorSlug":null,"score":418,"views":null,"sharedCount":null,"likeCount":null,"sharedContent":null,"parent":{"__typename":"HnJson","localize":[{"title":"朱利安·阿桑奇引渡到美国被英国法院阻止","locale":"zh"},{"title":"朱利安·阿桑奇引渡到美國被英國法院阻止","locale":"zh-Hant"}]}},{"__typename":"SocialMediaPost","id":"HnPost-25624718","excerpt":"","slug":"/hn/25624718","title":"Show HN: Pluto – macOS system monitor app","date":"January 04, 2021","dateISO":"2021-01-04T13:52:43.815Z","datetime":"2021-01-04 13:52","tags":["story","Show HN","Hacker News"],"image":null,"imageAlt":null,"provider":"Hacker News","thirdPartyId":"25624718","url":"https://news.ycombinator.com/item?id=25624718","originalUrl":"https://apps.apple.com/us/app/pluto-hud/id1544577573?mt=12","imageRemote":"https://is3-ssl.mzstatic.com/image/thumb/Purple124/v4/c1/c7/c4/c1c7c47f-07eb-66b3-9765-c508058fe4c4/AppIcon-85-220-4-2x.png/1200x630bb.png","video":null,"channel":"Show HN","channelUrl":"https://news.ycombinator.com/show","author":"lupinglade","authorUrl":"https://news.ycombinator.com/user?id=lupinglade","authorImage":null,"authorSlug":null,"score":158,"views":null,"sharedCount":null,"likeCount":null,"sharedContent":null,"parent":{"__typename":"HnJson","localize":[{"title":"HN新产品：冥王星-MacOS系统监控APP","locale":"zh"},{"title":"HN新產品：冥王星-MacOS系統監控APP","locale":"zh-Hant"}]}},{"__typename":"SocialMediaPost","id":"HnPost-25629852","excerpt":"","slug":"/hn/25629852","title":"We’re Google Workers, and We Are Forming a Union","date":"January 04, 2021","dateISO":"2021-01-04T13:52:43.815Z","datetime":"2021-01-04 13:52","tags":["story","Hacker News"],"image":null,"imageAlt":null,"provider":"Hacker News","thirdPartyId":"25629852","url":"https://news.ycombinator.com/item?id=25629852","originalUrl":"https://www.nytimes.com/2021/01/04/opinion/google-union.html","imageRemote":"https://static01.nyt.com/images/2021/01/04/opinion/04google-02/04google-02-facebookJumbo.jpg","video":null,"channel":null,"channelUrl":null,"author":"ingve","authorUrl":"https://news.ycombinator.com/user?id=ingve","authorImage":null,"authorSlug":null,"score":261,"views":null,"sharedCount":null,"likeCount":null,"sharedContent":null,"parent":{"__typename":"HnJson","localize":[{"title":"我们是谷歌员工，我们正在组建一个工会","locale":"zh"},{"title":"我們是谷歌員工，我們正在組建一個工會","locale":"zh-Hant"}]}},{"__typename":"SocialMediaPost","id":"HnPost-25629801","excerpt":"","slug":"/hn/25629801","title":"USA vs. Julian Assange Judgment","date":"January 04, 2021","dateISO":"2021-01-04T12:40:30.580Z","datetime":"2021-01-04 12:40","tags":["story","Hacker News"],"image":null,"imageAlt":null,"provider":"Hacker News","thirdPartyId":"25629801","url":"https://news.ycombinator.com/item?id=25629801","originalUrl":"https://www.judiciary.uk/judgments/usa-v-julian-assange/","imageRemote":"https://www.judiciary.uk/wp-content/themes/judiciary/assets/img/card.png","video":null,"channel":null,"channelUrl":null,"author":"yuriko","authorUrl":"https://news.ycombinator.com/user?id=yuriko","authorImage":null,"authorSlug":null,"score":810,"views":null,"sharedCount":null,"likeCount":null,"sharedContent":null,"parent":{"__typename":"HnJson","localize":[{"title":"美国诉朱利安·阿桑奇案判决","locale":"zh"},{"title":"美國訴朱利安·阿桑奇案判決","locale":"zh-Hant"}]}},{"__typename":"SocialMediaPost","id":"HnPost-25630011","excerpt":"","slug":"/hn/25630011","title":"Google workers announce plans to unionize","date":"January 04, 2021","dateISO":"2021-01-04T12:40:30.580Z","datetime":"2021-01-04 12:40","tags":["story","Hacker News"],"image":null,"imageAlt":null,"provider":"Hacker News","thirdPartyId":"25630011","url":"https://news.ycombinator.com/item?id=25630011","originalUrl":"https://www.theverge.com/2021/1/4/22212347/google-employees-contractors-announce-union-cwa-alphabet","imageRemote":"https://cdn.vox-cdn.com/thumbor/vJl1qOCBr6Kht69G9bUfbVy1RM4=/0x428:5978x3558/fit-in/1200x630/cdn.vox-cdn.com/uploads/chorus_asset/file/22211774/1056016730.jpg","video":null,"channel":null,"channelUrl":null,"author":"virde","authorUrl":"https://news.ycombinator.com/user?id=virde","authorImage":null,"authorSlug":null,"score":1638,"views":null,"sharedCount":null,"likeCount":null,"sharedContent":null,"parent":{"__typename":"HnJson","localize":[{"title":"谷歌员工宣布成立工会的计划","locale":"zh"},{"title":"谷歌員工宣佈成立工會的計劃","locale":"zh-Hant"}]}},{"__typename":"SocialMediaPost","id":"HnPost-25620785","excerpt":"","slug":"/hn/25620785","title":"Opensource your abandonware (2010)","date":"January 04, 2021","dateISO":"2021-01-04T11:10:15.621Z","datetime":"2021-01-04 11:10","tags":["story","Hacker News"],"image":null,"imageAlt":null,"provider":"Hacker News","thirdPartyId":"25620785","url":"https://news.ycombinator.com/item?id=25620785","originalUrl":"http://pulkomandy.tk/_/_Development/_Opensource%20your%20abandonware","imageRemote":"http://www.gravatar.com/avatar.php?gravatar_id=3ad73a58bf5565045e570e7b0ea10e60&size=30","video":null,"channel":null,"channelUrl":null,"author":"app4soft","authorUrl":"https://news.ycombinator.com/user?id=app4soft","authorImage":null,"authorSlug":null,"score":157,"views":null,"sharedCount":null,"likeCount":null,"sharedContent":null,"parent":{"__typename":"HnJson","localize":[{"title":"开源你的废弃软件(2010)","locale":"zh"},{"title":"開源你的廢棄軟件(2010)","locale":"zh-Hant"}]}},{"__typename":"SocialMediaPost","id":"HnPost-25622685","excerpt":"","slug":"/hn/25622685","title":"Italy Will Rebuild Colosseum’s Floor","date":"January 04, 2021","dateISO":"2021-01-04T11:10:15.621Z","datetime":"2021-01-04 11:10","tags":["story","Hacker News"],"image":null,"imageAlt":null,"provider":"Hacker News","thirdPartyId":"25622685","url":"https://news.ycombinator.com/item?id=25622685","originalUrl":"https://www.smithsonianmag.com/smart-news/italy-plans-install-floors-colosseum-1-180976635/","imageRemote":"https://thumbs-prod.si-cdn.com/deV4WMRfUXzKuiNnGzYJpw5-_eI=/fit-in/1600x0/filters:focal(2183x1356:2184x1357)/https://public-media.si-cdn.com/filer/41/4f/414f4c9f-b197-4778-9dc6-2a0105cc2908/colosseum_in_rome-april_2007-1-_copie_2b.jpg","video":null,"channel":null,"channelUrl":null,"author":"pseudolus","authorUrl":"https://news.ycombinator.com/user?id=pseudolus","authorImage":null,"authorSlug":null,"score":164,"views":null,"sharedCount":null,"likeCount":null,"sharedContent":null,"parent":{"__typename":"HnJson","localize":[{"title":"意大利将重建竞技场地板","locale":"zh"},{"title":"意大利將重建競技場地板","locale":"zh-Hant"}]}},{"__typename":"SocialMediaPost","id":"HnPost-25624982","excerpt":"","slug":"/hn/25624982","title":"Look Up Unknown Phone Numbers Using Facebook Reset Password","date":"January 04, 2021","dateISO":"2021-01-04T10:12:23.403Z","datetime":"2021-01-04 10:12","tags":["story","Hacker News"],"image":null,"imageAlt":null,"provider":"Hacker News","thirdPartyId":"25624982","url":"https://news.ycombinator.com/item?id=25624982","originalUrl":"https://bytexd.com/look-up-unknown-phone-numbers/","imageRemote":"https://y7p8z3w8.stackpathcdn.com/wp-content/uploads/2020/12/Look-Up-Unknown-Phone-Numbers-using-Facebook-Reset-Password-and-WhatsApp.jpg.webp","video":null,"channel":null,"channelUrl":null,"author":"punkspider","authorUrl":"https://news.ycombinator.com/user?id=punkspider","authorImage":null,"authorSlug":null,"score":243,"views":null,"sharedCount":null,"likeCount":null,"sharedContent":null,"parent":{"__typename":"HnJson","localize":[{"title":"使用Facebook重置密码查找未知电话号码","locale":"zh"},{"title":"使用Facebook重置密碼查找未知電話號碼","locale":"zh-Hant"}]}},{"__typename":"SocialMediaPost","id":"HnPost-25627081","excerpt":"","slug":"/hn/25627081","title":"20 months, 2K hours, 200K € lost. A story about resilience and sunk cost fallacy","date":"January 04, 2021","dateISO":"2021-01-04T08:47:43.768Z","datetime":"2021-01-04 08:47","tags":["story","Hacker News"],"image":null,"imageAlt":null,"provider":"Hacker News","thirdPartyId":"25627081","url":"https://news.ycombinator.com/item?id=25627081","originalUrl":"https://dsebastien.medium.com/20-months-in-2k-hours-spent-and-200k-lost-a-story-about-resilience-and-the-sunk-cost-fallacy-69fd4f61ef59","imageRemote":"https://miro.medium.com/max/668/1*a0Dt7T9lXYGJlhpXHvOaSw.jpeg","video":null,"channel":null,"channelUrl":null,"author":"dSebastien","authorUrl":"https://news.ycombinator.com/user?id=dSebastien","authorImage":null,"authorSlug":null,"score":333,"views":null,"sharedCount":null,"likeCount":null,"sharedContent":null,"parent":{"__typename":"HnJson","localize":[{"title":"20个月，2K小时，20万欧元损失。关于弹性和沉没成本谬论的故事","locale":"zh"},{"title":"20個月，2K小時，20萬歐元損失。關於彈性和沉沒成本謬論的故事","locale":"zh-Hant"}]}},{"__typename":"SocialMediaPost","id":"HnPost-25621133","excerpt":"","slug":"/hn/25621133","title":"The Toyota Production System","date":"January 04, 2021","dateISO":"2021-01-04T06:01:40.941Z","datetime":"2021-01-04 06:01","tags":["story","Hacker News"],"image":null,"imageAlt":null,"provider":"Hacker News","thirdPartyId":"25621133","url":"https://news.ycombinator.com/item?id=25621133","originalUrl":"https://blog.toyota.co.uk/toyota-production-system-glossary","imageRemote":"https://d1r57ja1amoclf.cloudfront.net/wp-content/uploads/2013/05/Heijunka-gallery.jpg","video":null,"channel":null,"channelUrl":null,"author":"louis-paul","authorUrl":"https://news.ycombinator.com/user?id=louis-paul","authorImage":null,"authorSlug":null,"score":224,"views":null,"sharedCount":null,"likeCount":null,"sharedContent":null,"parent":{"__typename":"HnJson","localize":[{"title":"丰田生产方式","locale":"zh"},{"title":"豐田生產方式","locale":"zh-Hant"}]}},{"__typename":"SocialMediaPost","id":"HnPost-25621700","excerpt":"","slug":"/hn/25621700","title":"GTK4 for Graphical User Interfaces","date":"January 04, 2021","dateISO":"2021-01-04T05:37:19.959Z","datetime":"2021-01-04 05:37","tags":["story","Hacker News"],"image":null,"imageAlt":null,"provider":"Hacker News","thirdPartyId":"25621700","url":"https://news.ycombinator.com/item?id=25621700","originalUrl":"http://ssalewski.de/gtkprogramming.html","imageRemote":"http://ssalewski.de/gtkimages/simplegtk3c.png","video":null,"channel":null,"channelUrl":null,"author":"chauhankiran","authorUrl":"https://news.ycombinator.com/user?id=chauhankiran","authorImage":null,"authorSlug":null,"score":160,"views":null,"sharedCount":null,"likeCount":null,"sharedContent":null,"parent":{"__typename":"HnJson","localize":[{"title":"用于图形用户界面的GTK4","locale":"zh"},{"title":"用於圖形用戶界面的GTK4","locale":"zh-Hant"}]}},{"__typename":"SocialMediaPost","id":"HnPost-25621966","excerpt":"","slug":"/hn/25621966","title":"Castlevania III Password Algorithm","date":"January 04, 2021","dateISO":"2021-01-04T05:37:19.959Z","datetime":"2021-01-04 05:37","tags":["story","Hacker News"],"image":null,"imageAlt":null,"provider":"Hacker News","thirdPartyId":"25621966","url":"https://news.ycombinator.com/item?id=25621966","originalUrl":"https://meatfighter.com/castlevania3-password/","imageRemote":"https://meatfighter.com/castlevania3-password/enter-your-name.png","video":null,"channel":null,"channelUrl":null,"author":"kiyanwang","authorUrl":"https://news.ycombinator.com/user?id=kiyanwang","authorImage":null,"authorSlug":null,"score":168,"views":null,"sharedCount":null,"likeCount":null,"sharedContent":null,"parent":{"__typename":"HnJson","localize":[{"title":"Castlevania III密码算法","locale":"zh"},{"title":"Castlevania III密碼算法","locale":"zh-Hant"}]}},{"__typename":"SocialMediaPost","id":"HnPost-25622528","excerpt":"","slug":"/hn/25622528","title":"Why Clojure? (2018)","date":"January 04, 2021","dateISO":"2021-01-04T04:57:28.295Z","datetime":"2021-01-04 04:57","tags":["story","Hacker News"],"image":null,"imageAlt":null,"provider":"Hacker News","thirdPartyId":"25622528","url":"https://news.ycombinator.com/item?id=25622528","originalUrl":"https://briansunter.com/blog/why-clojure/","imageRemote":"https://briansunter.com/images/meta/twitter.jpg","video":null,"channel":null,"channelUrl":null,"author":"bribri","authorUrl":"https://news.ycombinator.com/user?id=bribri","authorImage":null,"authorSlug":null,"score":185,"views":null,"sharedCount":null,"likeCount":null,"sharedContent":null,"parent":{"__typename":"HnJson","localize":[{"title":"为什么是Clojure？(2018年)","locale":"zh"},{"title":"爲什麼是Clojure？(2018年)","locale":"zh-Hant"}]}},{"__typename":"SocialMediaPost","id":"HnPost-25619137","excerpt":"","slug":"/hn/25619137","title":"The Perfect Media Server","date":"January 04, 2021","dateISO":"2021-01-04T04:13:35.812Z","datetime":"2021-01-04 04:13","tags":["story","Hacker News"],"image":null,"imageAlt":null,"provider":"Hacker News","thirdPartyId":"25619137","url":"https://news.ycombinator.com/item?id=25619137","originalUrl":"https://perfectmediaserver.com/","imageRemote":"https://perfectmediaserver.com/images/assets/logo.png","video":null,"channel":null,"channelUrl":null,"author":"hanklazard","authorUrl":"https://news.ycombinator.com/user?id=hanklazard","authorImage":null,"authorSlug":null,"score":157,"views":null,"sharedCount":null,"likeCount":null,"sharedContent":null,"parent":{"__typename":"HnJson","localize":[{"title":"完美的媒体服务器","locale":"zh"},{"title":"完美的媒體服務器","locale":"zh-Hant"}]}},{"__typename":"SocialMediaPost","id":"HnPost-25611425","excerpt":"","slug":"/hn/25611425","title":"Idyll – toolkit for creating data-driven stories and explorable explanations","date":"January 04, 2021","dateISO":"2021-01-04T03:51:27.434Z","datetime":"2021-01-04 03:51","tags":["story","Hacker News"],"image":null,"imageAlt":null,"provider":"Hacker News","thirdPartyId":"25611425","url":"https://news.ycombinator.com/item?id=25611425","originalUrl":"https://idyll-lang.org/","imageRemote":"https://idyll-lang.org/static/images/twitter-share.png","video":null,"channel":null,"channelUrl":null,"author":"felixr","authorUrl":"https://news.ycombinator.com/user?id=felixr","authorImage":null,"authorSlug":null,"score":168,"views":null,"sharedCount":null,"likeCount":null,"sharedContent":null,"parent":{"__typename":"HnJson","localize":[{"title":"idyll-用于创建数据驱动的故事和可探索的解释的工具包","locale":"zh"},{"title":"idyll-用於創建數據驅動的故事和可探索的解釋的工具包","locale":"zh-Hant"}]}},{"__typename":"SocialMediaPost","id":"HnPost-25612275","excerpt":"","slug":"/hn/25612275","title":"Looks vs. Results: My ugly ad got 150% more clicks than a professional design","date":"January 04, 2021","dateISO":"2021-01-04T02:36:34.670Z","datetime":"2021-01-04 02:36","tags":["story","Hacker News"],"image":null,"imageAlt":null,"provider":"Hacker News","thirdPartyId":"25612275","url":"https://news.ycombinator.com/item?id=25612275","originalUrl":"https://www.gkogan.co/blog/looks-vs-results/?r=2","imageRemote":"https://d33wubrfki0l68.cloudfront.net/b38efe41c13f8c6ce04f4b37ce9cc1190d842109/13687/images/uploads/ad-test.png","video":null,"channel":null,"channelUrl":null,"author":"gk1","authorUrl":"https://news.ycombinator.com/user?id=gk1","authorImage":null,"authorSlug":null,"score":178,"views":null,"sharedCount":null,"likeCount":null,"sharedContent":null,"parent":{"__typename":"HnJson","localize":[{"title":"外观与效果：我的丑陋广告点击量比专业设计多150%","locale":"zh"},{"title":"外觀與效果：我的醜陋廣告點擊量比專業設計多150%","locale":"zh-Hant"}]}},{"__typename":"SocialMediaPost","id":"HnPost-25623652","excerpt":"","slug":"/hn/25623652","title":"Reviving Old X Code","date":"January 04, 2021","dateISO":"2021-01-04T02:36:34.670Z","datetime":"2021-01-04 02:36","tags":["story","Hacker News"],"image":null,"imageAlt":null,"provider":"Hacker News","thirdPartyId":"25623652","url":"https://news.ycombinator.com/item?id=25623652","originalUrl":"https://keithp.com/blogs/kgames/","imageRemote":"https://keithp.com/pictures/xmille-orig.png","video":null,"channel":null,"channelUrl":null,"author":"fcambus","authorUrl":"https://news.ycombinator.com/user?id=fcambus","authorImage":null,"authorSlug":null,"score":247,"views":null,"sharedCount":null,"likeCount":null,"sharedContent":null,"parent":{"__typename":"HnJson","localize":[{"title":"复兴旧的X代码","locale":"zh"},{"title":"復興舊的X代碼","locale":"zh-Hant"}]}},{"__typename":"SocialMediaPost","id":"HnPost-25614098","excerpt":"","slug":"/hn/25614098","title":"50 Years of Text Games – A 2021 Journey from Oregon Trail to A.I. Dungeon","date":"January 04, 2021","dateISO":"2021-01-04T01:32:35.034Z","datetime":"2021-01-04 01:32","tags":["story","Hacker News"],"image":null,"imageAlt":null,"provider":"Hacker News","thirdPartyId":"25614098","url":"https://news.ycombinator.com/item?id=25614098","originalUrl":"https://if50.substack.com/p/introduction","imageRemote":"https://cdn.substack.com/image/fetch/h_600,c_limit,f_auto,q_auto:good,fl_progressive:steep/https%3A%2F%2Fbucketeer-e05bbc84-baa3-437e-9518-adb32be77984.s3.amazonaws.com%2Fpublic%2Fimages%2Ffa583ddb-c430-4f4e-aa04-a60276694a19_1800x700.jpeg","video":null,"channel":null,"channelUrl":null,"author":"homarp","authorUrl":"https://news.ycombinator.com/user?id=homarp","authorImage":null,"authorSlug":null,"score":152,"views":null,"sharedCount":null,"likeCount":null,"sharedContent":null,"parent":{"__typename":"HnJson","localize":[{"title":"文字游戏50年-2021年从俄勒冈小径到A.I.地牢的旅程","locale":"zh"},{"title":"文字遊戲50年-2021年從俄勒岡小徑到A.I.地牢的旅程","locale":"zh-Hant"}]}},{"__typename":"SocialMediaPost","id":"HnPost-25622095","excerpt":"","slug":"/hn/25622095","title":"Show HN: OpenScan – open-source document scanner app","date":"January 04, 2021","dateISO":"2021-01-04T01:32:35.034Z","datetime":"2021-01-04 01:32","tags":["story","Show HN","Hacker News"],"image":null,"imageAlt":null,"provider":"Hacker News","thirdPartyId":"25622095","url":"https://news.ycombinator.com/item?id=25622095","originalUrl":"https://github.com/Ethereal-Developers-Inc/OpenScan","imageRemote":"https://avatars2.githubusercontent.com/u/68118808?s=400&v=4","video":null,"channel":"Show HN","channelUrl":"https://news.ycombinator.com/show","author":"mighty3xodus","authorUrl":"https://news.ycombinator.com/user?id=mighty3xodus","authorImage":null,"authorSlug":null,"score":200,"views":null,"sharedCount":null,"likeCount":null,"sharedContent":null,"parent":{"__typename":"HnJson","localize":[{"title":"HN新产品：openScan-开源文档扫描仪应用","locale":"zh"},{"title":"HN新產品：openScan-開源文檔掃描儀應用","locale":"zh-Hant"}]}},{"__typename":"SocialMediaPost","id":"HnPost-25623616","excerpt":"","slug":"/hn/25623616","title":"Philly scientist behind COVID vaccine tech was demoted by UPenn","date":"January 04, 2021","dateISO":"2021-01-04T01:32:35.034Z","datetime":"2021-01-04 01:32","tags":["story","Hacker News"],"image":null,"imageAlt":null,"provider":"Hacker News","thirdPartyId":"25623616","url":"https://news.ycombinator.com/item?id=25623616","originalUrl":"https://billypenn.com/2020/12/29/university-pennsylvania-covid-vaccine-mrna-kariko-demoted-biontech-pfizer/","imageRemote":"https://billypenn.com/wp-content/uploads/2020/12/katalinkariko-covidvaccinescientist-1200x630.jpg","video":null,"channel":null,"channelUrl":null,"author":"apsec112","authorUrl":"https://news.ycombinator.com/user?id=apsec112","authorImage":null,"authorSlug":null,"score":310,"views":null,"sharedCount":null,"likeCount":null,"sharedContent":null,"parent":{"__typename":"HnJson","localize":[{"title":"费城科学家研发COVID疫苗技术被宾夕法尼亚大学降级","locale":"zh"},{"title":"費城科學家研發COVID疫苗技術被賓夕法尼亞大學降級","locale":"zh-Hant"}]}},{"__typename":"SocialMediaPost","id":"HnPost-25623305","excerpt":"","slug":"/hn/25623305","title":"AMD Patent Reveals Hybrid CPU-FPGA Design That Could Be Enabled by Xilinx Tech","date":"January 04, 2021","dateISO":"2021-01-04T00:05:48.246Z","datetime":"2021-01-04 00:05","tags":["story","Hacker News"],"image":null,"imageAlt":null,"provider":"Hacker News","thirdPartyId":"25623305","url":"https://news.ycombinator.com/item?id=25623305","originalUrl":"https://hothardware.com/news/amd-patent-hybrid-cpu-fpga-design-xilinx","imageRemote":"https://images.hothardware.com/contentimages/newsitem/53861/content/xilinx-office.jpg","video":null,"channel":null,"channelUrl":null,"author":"craigjb","authorUrl":"https://news.ycombinator.com/user?id=craigjb","authorImage":null,"authorSlug":null,"score":277,"views":null,"sharedCount":null,"likeCount":null,"sharedContent":null,"parent":{"__typename":"HnJson","localize":[{"title":"AMD专利揭示可由Xilinx技术实现的CPU-FPGA混合设计","locale":"zh"},{"title":"AMD專利揭示可由Xilinx技術實現的CPU-FPGA混合設計","locale":"zh-Hant"}]}},{"__typename":"SocialMediaPost","id":"HnPost-25620707","excerpt":"","slug":"/hn/25620707","title":"When Big Brands Stopped Spending on Digital Ads, Nothing Happened. Why?","date":"January 03, 2021","dateISO":"2021-01-03T23:39:50.972Z","datetime":"2021-01-03 23:39","tags":["story","Hacker News"],"image":null,"imageAlt":null,"provider":"Hacker News","thirdPartyId":"25620707","url":"https://news.ycombinator.com/item?id=25620707","originalUrl":"https://www.forbes.com/sites/augustinefou/2021/01/02/when-big-brands-stopped-spending-on-digital-ads-nothing-happened-why/","imageRemote":"https://thumbor.forbes.com/thumbor/fit-in/1200x0/filters%3Aformat(jpg)/https%3A%2F%2Fspecials-images.forbesimg.com%2Fimageserve%2F5ff07d45bcd52228b578e8e7%2F0x0.jpg%3FcropX1%3D235%26cropX2%3D4677%26cropY1%3D183%26cropY2%3D2265","video":null,"channel":null,"channelUrl":null,"author":"ZeljkoS","authorUrl":"https://news.ycombinator.com/user?id=ZeljkoS","authorImage":null,"authorSlug":null,"score":277,"views":null,"sharedCount":null,"likeCount":null,"sharedContent":null,"parent":{"__typename":"HnJson","localize":[{"title":"当大品牌停止在数字广告上投入资金时，什么也没有发生。为什么？","locale":"zh"},{"title":"當大品牌停止在數字廣告上投入資金時，什麼也沒有發生。爲什麼？","locale":"zh-Hant"}]}}]}},"pageContext":{"basePath":"/","pageType":"tag","tag":"Hacker News","tagsFilter":{"id":{"glob":"!*Post-1"}},"filter":{"id":{"glob":"!*Post-1"},"tags":{"eq":"Hacker News"}},"limit":25,"skip":300,"total":974,"totalPages":39,"currentPage":13,"maxWidth":1024,"maxHeight":512,"locale":"en","hrefLang":"en-US","originalPath":"/tags/hacker-news/page/13","dateFormat":"MM/DD/YYYY"}},"staticQueryHashes":["1239077767","2506312863","2744905544","3025052997","3493603132","3493603132","3513215887","386998304"]}