{"componentChunkName":"component---gatsby-theme-buzzing-src-gatsby-theme-timeline-templates-posts-query-js","path":"/en/tags/story/page/77","result":{"data":{"site":{"siteMetadata":{"title":"Reddit 热门","description":"用中文浏览Reddit热门内容","social":[{"name":"Twitter","url":"https://twitter.com/gatsbyjs","external":null,"prefetch":null},{"name":"GitHub","url":"https://github.com/gatsbyjs","external":null,"prefetch":null}],"menuLinks":[],"localize":[{"locale":"en","title":"Buzzing on Reddit","description":"See what's buzzing on Reddit in your native language","social":[{"name":"Reddit","url":"https://www.reddit.com/","external":true,"prefetch":null}],"menuLinks":[{"name":"Weekly Selection","url":"/issues","external":null,"prefetch":null},{"name":"RSS","url":"/rss.xml","external":null,"prefetch":false}]},{"locale":"zh-Hant","title":"Reddit 熱門","description":"用中文瀏覽Reddit熱門內容","social":null,"menuLinks":null}]}},"tagsGroup":{"group":[{"fieldValue":"ASK HN","totalCount":42},{"fieldValue":"Bitcoin","totalCount":4},{"fieldValue":"Hacker News","totalCount":2409},{"fieldValue":"Poll","totalCount":1},{"fieldValue":"SaveAMC","totalCount":1},{"fieldValue":"Show HN","totalCount":81},{"fieldValue":"bitcoin","totalCount":3},{"fieldValue":"investing","totalCount":755},{"fieldValue":"poll","totalCount":1},{"fieldValue":"reddit","totalCount":4525},{"fieldValue":"science","totalCount":1},{"fieldValue":"stocks","totalCount":1482},{"fieldValue":"story","totalCount":2408},{"fieldValue":"tweet","totalCount":767},{"fieldValue":"wallstreetbets","totalCount":2288}]},"allBlogPost":{"nodes":[{"__typename":"SocialMediaPost","id":"HnPost-25570207","excerpt":"","slug":"/hn/25570207","title":"Apple’s longtime supplier accused of using forced labor in China","date":"December 29, 2020","dateISO":"2020-12-29T22:28:51.804Z","datetime":"2020-12-29 22:28","tags":["story","Hacker News"],"image":null,"imageAlt":null,"provider":"Hacker News","thirdPartyId":"25570207","url":"https://news.ycombinator.com/item?id=25570207","originalUrl":"https://www.washingtonpost.com/technology/2020/12/29/lens-technology-apple-uighur/","imageRemote":"https://www.washingtonpost.com/wp-apps/imrs.php?src=https://arc-anglerfish-washpost-prod-washpost.s3.amazonaws.com/public/YXDA4KCGDYI6XLBKHLAPFOGO5M.jpg&w=1440","video":null,"channel":null,"channelUrl":null,"author":"mzs","authorUrl":"https://news.ycombinator.com/user?id=mzs","authorImage":null,"authorSlug":null,"score":391,"views":null,"sharedCount":null,"likeCount":null,"sharedContent":null,"parent":{"__typename":"HnJson","localize":[{"title":"苹果的长期供应商被控在中国使用强迫劳动","locale":"zh"},{"title":"蘋果的長期供應商被控在中國使用強迫勞動","locale":"zh-Hant"}]}},{"__typename":"SocialMediaPost","id":"HnPost-25570611","excerpt":"","slug":"/hn/25570611","title":"The Life in the Simpsons Is No Longer Attainable","date":"December 29, 2020","dateISO":"2020-12-29T21:34:21.075Z","datetime":"2020-12-29 21:34","tags":["story","Hacker News"],"image":null,"imageAlt":null,"provider":"Hacker News","thirdPartyId":"25570611","url":"https://news.ycombinator.com/item?id=25570611","originalUrl":"https://www.theatlantic.com/ideas/archive/2020/12/life-simpsons-no-longer-attainable/617499/","imageRemote":"https://cdn.theatlantic.com/thumbor/sMtViFcsDrwrXHWhBzRJdHB09WY=/0x53:2496x1353/960x500/https://cdn.theatlantic.com/assets/media/img/mt/2020/12/TheSimpsons_3119_UndercoverBurns_ZABF19Sc2057AvidColorCorrected/original.jpg","video":null,"channel":null,"channelUrl":null,"author":"MrJagil","authorUrl":"https://news.ycombinator.com/user?id=MrJagil","authorImage":null,"authorSlug":null,"score":162,"views":null,"sharedCount":null,"likeCount":null,"sharedContent":null,"parent":{"__typename":"HnJson","localize":[{"title":"“辛普森一家的生活”不再可取","locale":"zh"},{"title":"“辛普森一家的生活”不再可取","locale":"zh-Hant"}]}},{"__typename":"SocialMediaPost","id":"HnPost-25571072","excerpt":"","slug":"/hn/25571072","title":"YouTube removed a Cybersecurity channel without much reason","date":"December 29, 2020","dateISO":"2020-12-29T21:08:30.030Z","datetime":"2020-12-29 21:08","tags":["story","Hacker News"],"image":null,"imageAlt":null,"provider":"Hacker News","thirdPartyId":"25571072","url":"https://news.ycombinator.com/item?id=25571072","originalUrl":"https://www.linkedin.com/posts/mohammedadam24_cybersecurity-infosec-penetrationtesting-activity-6749595324978987008-UFbn","imageRemote":"https://media-exp1.licdn.com/dms/image/C5622AQEBtuGBM0sAXw/feedshare-shrink_1280-alternative/0/1609228925193?e=1612396800&v=beta&t=BwKdJ7uTfdjw7hEu-R3VO-HumLnT7glO4DYUGHFCX2c","video":null,"channel":null,"channelUrl":null,"author":"amrrs","authorUrl":"https://news.ycombinator.com/user?id=amrrs","authorImage":null,"authorSlug":null,"score":282,"views":null,"sharedCount":null,"likeCount":null,"sharedContent":null,"parent":{"__typename":"HnJson","localize":[{"title":"YouTube无缘无故删除了一个网络安全频道","locale":"zh"},{"title":"YouTube無緣無故刪除了一個網絡安全頻道","locale":"zh-Hant"}]}},{"__typename":"SocialMediaPost","id":"HnPost-25569963","excerpt":"","slug":"/hn/25569963","title":"We should administer Covid-19 vaccines as fast as possible, not reserve doses","date":"December 29, 2020","dateISO":"2020-12-29T20:34:58.107Z","datetime":"2020-12-29 20:34","tags":["story","Hacker News"],"image":null,"imageAlt":null,"provider":"Hacker News","thirdPartyId":"25569963","url":"https://news.ycombinator.com/item?id=25569963","originalUrl":"https://www.theglobeandmail.com/canada/article-new-data-favour-administering-covid-19-vaccines-as-fast-as-possible/","imageRemote":"https://www.theglobeandmail.com/resizer/RFppO_cj6ttxmhjVR50R9QyOoOo=/1200x0/filters:quality(80)/cloudfront-us-east-1.images.arcpublishing.com/tgam/CVW7JCT3F5DX5AUKPLBPIXDI7Y.JPG","video":null,"channel":null,"channelUrl":null,"author":"elsewhen","authorUrl":"https://news.ycombinator.com/user?id=elsewhen","authorImage":null,"authorSlug":null,"score":170,"views":null,"sharedCount":null,"likeCount":null,"sharedContent":null,"parent":{"__typename":"HnJson","localize":[{"title":"我们应该尽快接种冠状病毒疫苗，而不是储备剂量。","locale":"zh"},{"title":"我們應該儘快接種冠狀病毒疫苗，而不是儲備劑量。","locale":"zh-Hant"}]}},{"__typename":"SocialMediaPost","id":"HnPost-25573327","excerpt":"","slug":"/hn/25573327","title":"Boston Dynamics: Do You Love Me?","date":"December 29, 2020","dateISO":"2020-12-29T20:34:58.107Z","datetime":"2020-12-29 20:34","tags":["story","Hacker News"],"image":null,"imageAlt":null,"provider":"Hacker News","thirdPartyId":"25573327","url":"https://news.ycombinator.com/item?id=25573327","originalUrl":"https://www.youtube.com/watch?v=fn3KWM1kuAw","imageRemote":"https://i.ytimg.com/vi/fn3KWM1kuAw/maxresdefault.jpg","video":null,"channel":null,"channelUrl":null,"author":"modeless","authorUrl":"https://news.ycombinator.com/user?id=modeless","authorImage":null,"authorSlug":null,"score":1194,"views":null,"sharedCount":null,"likeCount":null,"sharedContent":null,"parent":{"__typename":"HnJson","localize":[{"title":"波士顿动力：你爱我吗？","locale":"zh"},{"title":"波士頓動力：你愛我嗎？","locale":"zh-Hant"}]}},{"__typename":"SocialMediaPost","id":"HnPost-25568668","excerpt":"","slug":"/hn/25568668","title":"Show HN: LinkAce – Your self-hosted, FOSS bookmark archive","date":"December 29, 2020","dateISO":"2020-12-29T20:04:37.555Z","datetime":"2020-12-29 20:04","tags":["story","Show HN","Hacker News"],"image":null,"imageAlt":null,"provider":"Hacker News","thirdPartyId":"25568668","url":"https://news.ycombinator.com/item?id=25568668","originalUrl":"https://www.linkace.org/","imageRemote":"https://www.linkace.org/images/linkace-social.jpg","video":null,"channel":"Show HN","channelUrl":"https://news.ycombinator.com/show","author":"Kovah","authorUrl":"https://news.ycombinator.com/user?id=Kovah","authorImage":null,"authorSlug":null,"score":222,"views":null,"sharedCount":null,"likeCount":null,"sharedContent":null,"parent":{"__typename":"HnJson","localize":[{"title":"HN新产品：LinkAce-您的自托管自由/开源软件书签档案","locale":"zh"},{"title":"HN新產品：LinkAce-您的自託管自由/開源軟件書籤檔案","locale":"zh-Hant"}]}},{"__typename":"SocialMediaPost","id":"HnPost-25572852","excerpt":"","slug":"/hn/25572852","title":"Computer Science textbooks that are freely available online","date":"December 29, 2020","dateISO":"2020-12-29T20:04:37.555Z","datetime":"2020-12-29 20:04","tags":["story","Hacker News"],"image":null,"imageAlt":null,"provider":"Hacker News","thirdPartyId":"25572852","url":"https://news.ycombinator.com/item?id=25572852","originalUrl":"https://csgordon.github.io/books.html","imageRemote":null,"video":null,"channel":null,"channelUrl":null,"author":"MrXOR","authorUrl":"https://news.ycombinator.com/user?id=MrXOR","authorImage":null,"authorSlug":null,"score":560,"views":null,"sharedCount":null,"likeCount":null,"sharedContent":null,"parent":{"__typename":"HnJson","localize":[{"title":"在线免费提供的计算机科学教科书","locale":"zh"},{"title":"在線免費提供的計算機科學教科書","locale":"zh-Hant"}]}},{"__typename":"SocialMediaPost","id":"HnPost-25569148","excerpt":"","slug":"/hn/25569148","title":"Against Essential and Accidental Complexity","date":"December 29, 2020","dateISO":"2020-12-29T19:48:26.769Z","datetime":"2020-12-29 19:48","tags":["story","Hacker News"],"image":null,"imageAlt":null,"provider":"Hacker News","thirdPartyId":"25569148","url":"https://news.ycombinator.com/item?id=25569148","originalUrl":"https://danluu.com/essential-complexity/","imageRemote":null,"video":null,"channel":null,"channelUrl":null,"author":"weinzierl","authorUrl":"https://news.ycombinator.com/user?id=weinzierl","authorImage":null,"authorSlug":null,"score":243,"views":null,"sharedCount":null,"likeCount":null,"sharedContent":null,"parent":{"__typename":"HnJson","localize":[{"title":"对抗本质和偶然的复杂性","locale":"zh"},{"title":"對抗本質和偶然的複雜性","locale":"zh-Hant"}]}},{"__typename":"SocialMediaPost","id":"HnPost-25567079","excerpt":"","slug":"/hn/25567079","title":"Japan developing wooden satellites to cut down on space junk","date":"December 29, 2020","dateISO":"2020-12-29T17:52:52.491Z","datetime":"2020-12-29 17:52","tags":["story","Hacker News"],"image":null,"imageAlt":null,"provider":"Hacker News","thirdPartyId":"25567079","url":"https://news.ycombinator.com/item?id=25567079","originalUrl":"https://www.bbc.com/news/business-55463366","imageRemote":"https://ichef.bbci.co.uk/news/1024/branded_news/16C49/production/_116275239_woodensatellite.jpg","video":null,"channel":null,"channelUrl":null,"author":"mmhsieh","authorUrl":"https://news.ycombinator.com/user?id=mmhsieh","authorImage":null,"authorSlug":null,"score":213,"views":null,"sharedCount":null,"likeCount":null,"sharedContent":null,"parent":{"__typename":"HnJson","localize":[{"title":"日本开发木制卫星以减少太空垃圾","locale":"zh"},{"title":"日本開發木製衛星以減少太空垃圾","locale":"zh-Hant"}]}},{"__typename":"SocialMediaPost","id":"HnPost-25568181","excerpt":"","slug":"/hn/25568181","title":"Cider 1.0","date":"December 29, 2020","dateISO":"2020-12-29T17:52:52.491Z","datetime":"2020-12-29 17:52","tags":["story","Hacker News"],"image":null,"imageAlt":null,"provider":"Hacker News","thirdPartyId":"25568181","url":"https://news.ycombinator.com/item?id=25568181","originalUrl":"https://metaredux.com/posts/2020/12/28/cider-1-0.html","imageRemote":null,"video":null,"channel":null,"channelUrl":null,"author":"rayxi271828","authorUrl":"https://news.ycombinator.com/user?id=rayxi271828","authorImage":null,"authorSlug":null,"score":233,"views":null,"sharedCount":null,"likeCount":null,"sharedContent":null,"parent":{"__typename":"HnJson","localize":[{"title":"苹果酒1.0","locale":"zh"},{"title":"蘋果酒1.0","locale":"zh-Hant"}]}},{"__typename":"SocialMediaPost","id":"HnPost-25569883","excerpt":"","slug":"/hn/25569883","title":"Brexit deal mentions Netscape browser and Mozilla Mail","date":"December 29, 2020","dateISO":"2020-12-29T16:56:30.706Z","datetime":"2020-12-29 16:56","tags":["story","Hacker News"],"image":null,"imageAlt":null,"provider":"Hacker News","thirdPartyId":"25569883","url":"https://news.ycombinator.com/item?id=25569883","originalUrl":"https://www.bbc.co.uk/news/technology-55475433","imageRemote":"https://ichef.bbci.co.uk/news/1024/branded_news/6B75/production/_116290572_gettyimages-113425375.jpg","video":null,"channel":null,"channelUrl":null,"author":"spzb","authorUrl":"https://news.ycombinator.com/user?id=spzb","authorImage":null,"authorSlug":null,"score":338,"views":null,"sharedCount":null,"likeCount":null,"sharedContent":null,"parent":{"__typename":"HnJson","localize":[{"title":"英国退欧协议提到Netscape Browser和Mozilla Mail","locale":"zh"},{"title":"英國退歐協議提到Netscape Browser和Mozilla Mail","locale":"zh-Hant"}]}},{"__typename":"SocialMediaPost","id":"HnPost-25570038","excerpt":"","slug":"/hn/25570038","title":"Ten year study: No link between violent video games and aggressive behavior","date":"December 29, 2020","dateISO":"2020-12-29T16:56:30.706Z","datetime":"2020-12-29 16:56","tags":["story","Hacker News"],"image":null,"imageAlt":null,"provider":"Hacker News","thirdPartyId":"25570038","url":"https://news.ycombinator.com/item?id=25570038","originalUrl":"https://gamesage.net/blogs/news/ten-year-long-study-confirms-no-link-between-playing-violent-video-games-as-early-as-ten-years-old-and-aggressive-behavior-later-in-life","imageRemote":"https://cdn.shopify.com/s/files/1/0267/3111/8669/articles/GTA-V-Logo-Banner_1024x.png?v=1609244377","video":null,"channel":null,"channelUrl":null,"author":"chops","authorUrl":"https://news.ycombinator.com/user?id=chops","authorImage":null,"authorSlug":null,"score":1012,"views":null,"sharedCount":null,"likeCount":null,"sharedContent":null,"parent":{"__typename":"HnJson","localize":[{"title":"十年研究：暴力电子游戏和攻击性行为之间没有联系","locale":"zh"},{"title":"十年研究：暴力電子遊戲和攻擊性行爲之間沒有聯繫","locale":"zh-Hant"}]}},{"__typename":"SocialMediaPost","id":"HnPost-25570247","excerpt":"","slug":"/hn/25570247","title":"iPhone workers given choice of forced labor or being sent to detention centers","date":"December 29, 2020","dateISO":"2020-12-29T16:56:30.706Z","datetime":"2020-12-29 16:56","tags":["story","Hacker News"],"image":null,"imageAlt":null,"provider":"Hacker News","thirdPartyId":"25570247","url":"https://news.ycombinator.com/item?id=25570247","originalUrl":"https://9to5mac.com/2020/12/29/iphone-workers-forced-labor/","imageRemote":"https://i0.wp.com/9to5mac.com/wp-content/uploads/sites/6/2020/12/iPhone-workers-%E2%80%93-forced-labor-or-detention-centers-says-report.jpg?resize=1200%2C628&quality=82&strip=all&ssl=1","video":null,"channel":null,"channelUrl":null,"author":"notRobot","authorUrl":"https://news.ycombinator.com/user?id=notRobot","authorImage":null,"authorSlug":null,"score":572,"views":null,"sharedCount":null,"likeCount":null,"sharedContent":null,"parent":{"__typename":"HnJson","localize":[{"title":"iPhone工人可以选择强迫劳动或被送往拘留中心","locale":"zh"},{"title":"iPhone工人可以選擇強迫勞動或被送往拘留中心","locale":"zh-Hant"}]}},{"__typename":"SocialMediaPost","id":"HnPost-25568856","excerpt":"","slug":"/hn/25568856","title":"Show HN: Thruhikes – A list of long distance hikes around the world","date":"December 29, 2020","dateISO":"2020-12-29T15:33:30.877Z","datetime":"2020-12-29 15:33","tags":["story","Show HN","Hacker News"],"image":null,"imageAlt":null,"provider":"Hacker News","thirdPartyId":"25568856","url":"https://news.ycombinator.com/item?id=25568856","originalUrl":"https://thruhikes.net/","imageRemote":"https://thruhikes.net/logo.png","video":null,"channel":"Show HN","channelUrl":"https://news.ycombinator.com/show","author":"oguzcanhuner","authorUrl":"https://news.ycombinator.com/user?id=oguzcanhuner","authorImage":null,"authorSlug":null,"score":398,"views":null,"sharedCount":null,"likeCount":null,"sharedContent":null,"parent":{"__typename":"HnJson","localize":[{"title":"HN新产品：Thruhikes-世界长途徒步旅行清单","locale":"zh"},{"title":"HN新產品：Thruhikes-世界長途徒步旅行清單","locale":"zh-Hant"}]}},{"__typename":"SocialMediaPost","id":"HnPost-25567659","excerpt":"","slug":"/hn/25567659","title":"CIA vs. Wikileaks [video]","date":"December 29, 2020","dateISO":"2020-12-29T15:00:52.855Z","datetime":"2020-12-29 15:00","tags":["story","Hacker News"],"image":null,"imageAlt":null,"provider":"Hacker News","thirdPartyId":"25567659","url":"https://news.ycombinator.com/item?id=25567659","originalUrl":"https://media.ccc.de/v/rc3-11512-cia_vs_wikileaks","imageRemote":"https://static.media.ccc.de/media/events/rc3/11512-52f30691-75bc-4759-94a5-ce2225c1e849_preview.jpg","video":null,"channel":null,"channelUrl":null,"author":"pdkl95","authorUrl":"https://news.ycombinator.com/user?id=pdkl95","authorImage":null,"authorSlug":null,"score":338,"views":null,"sharedCount":null,"likeCount":null,"sharedContent":null,"parent":{"__typename":"HnJson","localize":[{"title":"中情局VS维基解密[视频]","locale":"zh"},{"title":"中情局VS維基解密[視頻]","locale":"zh-Hant"}]}},{"__typename":"SocialMediaPost","id":"HnPost-25568335","excerpt":"","slug":"/hn/25568335","title":"Google Maps' Moat Is Evaporating","date":"December 29, 2020","dateISO":"2020-12-29T15:00:52.855Z","datetime":"2020-12-29 15:00","tags":["story","Hacker News"],"image":null,"imageAlt":null,"provider":"Hacker News","thirdPartyId":"25568335","url":"https://news.ycombinator.com/item?id=25568335","originalUrl":"https://joemorrison.substack.com/p/google-maps-moat-is-evaporating","imageRemote":"https://cdn.substack.com/image/fetch/h_600,c_limit,f_auto,q_auto:good,fl_progressive:steep/https%3A%2F%2Fbucketeer-e05bbc84-baa3-437e-9518-adb32be77984.s3.amazonaws.com%2Fpublic%2Fimages%2Fad1bcd4e-092d-4a10-a7d2-4beebe5a1a05_4382x2921.jpeg","video":null,"channel":null,"channelUrl":null,"author":"ephesee","authorUrl":"https://news.ycombinator.com/user?id=ephesee","authorImage":null,"authorSlug":null,"score":620,"views":null,"sharedCount":null,"likeCount":null,"sharedContent":null,"parent":{"__typename":"HnJson","localize":[{"title":"谷歌地图的护城河正在蒸发","locale":"zh"},{"title":"谷歌地圖的護城河正在蒸發","locale":"zh-Hant"}]}},{"__typename":"SocialMediaPost","id":"HnPost-25566642","excerpt":"","slug":"/hn/25566642","title":"The Mac that saved Apple","date":"December 29, 2020","dateISO":"2020-12-29T13:13:03.171Z","datetime":"2020-12-29 13:13","tags":["story","Hacker News"],"image":null,"imageAlt":null,"provider":"Hacker News","thirdPartyId":"25566642","url":"https://news.ycombinator.com/item?id=25566642","originalUrl":"https://sixcolors.com/post/2020/12/20-macs-for-2020-1-imac-g3/","imageRemote":"https://149426355.v2.pressablecdn.com/wp-content/uploads/2020/12/Bondi-IMG_3168.jpeg?w=640","video":null,"channel":null,"channelUrl":null,"author":"a_band","authorUrl":"https://news.ycombinator.com/user?id=a_band","authorImage":null,"authorSlug":null,"score":266,"views":null,"sharedCount":null,"likeCount":null,"sharedContent":null,"parent":{"__typename":"HnJson","localize":[{"title":"拯救苹果的Mac","locale":"zh"},{"title":"拯救蘋果的Mac","locale":"zh-Hant"}]}},{"__typename":"SocialMediaPost","id":"HnPost-25557431","excerpt":"","slug":"/hn/25557431","title":"Why are video games graphics challenging? Productionizing rendering algorithms","date":"December 29, 2020","dateISO":"2020-12-29T11:51:28.912Z","datetime":"2020-12-29 11:51","tags":["story","Hacker News"],"image":null,"imageAlt":null,"provider":"Hacker News","thirdPartyId":"25557431","url":"https://news.ycombinator.com/item?id=25557431","originalUrl":"https://bartwronski.com/2020/12/27/why-are-video-games-graphics-still-a-challenge-productionizing-rendering-algorithms/","imageRemote":"https://lh3.googleusercontent.com/51bdx_bCzH7HBQ7NjppuafWVspC1jLwJ4OwbTLwYq1DLDnnOlxNGZtXby8mLGdqhnjC00WyxAfq1L3d8EIOatPflkT4phHF4Xq2WxOeUSlRCymYNEPQW3WiOeywiz8edAD592PNh","video":null,"channel":null,"channelUrl":null,"author":"bartwr","authorUrl":"https://news.ycombinator.com/user?id=bartwr","authorImage":null,"authorSlug":null,"score":307,"views":null,"sharedCount":null,"likeCount":null,"sharedContent":null,"parent":{"__typename":"HnJson","localize":[{"title":"为什么视频游戏图形具有挑战性？产品化渲染算法","locale":"zh"},{"title":"爲什麼視頻遊戲圖形具有挑戰性？產品化渲染算法","locale":"zh-Hant"}]}},{"__typename":"SocialMediaPost","id":"HnPost-25562800","excerpt":"","slug":"/hn/25562800","title":"Functional programming in C++ (2012)","date":"December 29, 2020","dateISO":"2020-12-29T10:37:12.911Z","datetime":"2020-12-29 10:37","tags":["story","Hacker News"],"image":null,"imageAlt":null,"provider":"Hacker News","thirdPartyId":"25562800","url":"https://news.ycombinator.com/item?id=25562800","originalUrl":"https://gamasutra.com/view/news/169296/Indepth_Functional_programming_in_C.php","imageRemote":"http://gamasutra.com/db_area/images/news2001/169296/jc.jpg","video":null,"channel":null,"channelUrl":null,"author":"tosh","authorUrl":"https://news.ycombinator.com/user?id=tosh","authorImage":null,"authorSlug":null,"score":162,"views":null,"sharedCount":null,"likeCount":null,"sharedContent":null,"parent":{"__typename":"HnJson","localize":[{"title":"C++中的函数式编程(2012)","locale":"zh"},{"title":"C++中的函數式編程(2012)","locale":"zh-Hant"}]}},{"__typename":"SocialMediaPost","id":"HnPost-25550393","excerpt":"","slug":"/hn/25550393","title":"NumPy Illustrated: The Visual Guide to NumPy","date":"December 29, 2020","dateISO":"2020-12-29T10:01:41.829Z","datetime":"2020-12-29 10:01","tags":["story","Hacker News"],"image":null,"imageAlt":null,"provider":"Hacker News","thirdPartyId":"25550393","url":"https://news.ycombinator.com/item?id=25550393","originalUrl":"https://medium.com/better-programming/numpy-illustrated-the-visual-guide-to-numpy-3b1d4976de1d","imageRemote":"https://miro.medium.com/max/1200/1*VyadDu7CyuF5-7rKVoFSrw.png","video":null,"channel":null,"channelUrl":null,"author":"rbanffy","authorUrl":"https://news.ycombinator.com/user?id=rbanffy","authorImage":null,"authorSlug":null,"score":333,"views":null,"sharedCount":null,"likeCount":null,"sharedContent":null,"parent":{"__typename":"HnJson","localize":[{"title":"NumPy插图：NumPy的视觉指南","locale":"zh"},{"title":"NumPy插圖：NumPy的視覺指南","locale":"zh-Hant"}]}},{"__typename":"SocialMediaPost","id":"HnPost-25556990","excerpt":"","slug":"/hn/25556990","title":"HN Alternative UIs","date":"December 29, 2020","dateISO":"2020-12-29T08:33:35.884Z","datetime":"2020-12-29 08:33","tags":["story","Hacker News"],"image":null,"imageAlt":null,"provider":"Hacker News","thirdPartyId":"25556990","url":"https://news.ycombinator.com/item?id=25556990","originalUrl":"https://blog.luke.lol/tech/hacker-news-alternatives/","imageRemote":"https://secure.gravatar.com/avatar/f6259872b5bb1a69250705d3c64bce67?s=50&d=mm&r=g","video":null,"channel":null,"channelUrl":null,"author":"lgats","authorUrl":"https://news.ycombinator.com/user?id=lgats","authorImage":null,"authorSlug":null,"score":158,"views":null,"sharedCount":null,"likeCount":null,"sharedContent":null,"parent":{"__typename":"HnJson","localize":[{"title":"HN替代UI","locale":"zh"},{"title":"HN替代UI","locale":"zh-Hant"}]}},{"__typename":"SocialMediaPost","id":"HnPost-25549462","excerpt":"","slug":"/hn/25549462","title":"Using GNU Stow to manage your dotfiles (2012)","date":"December 29, 2020","dateISO":"2020-12-29T07:57:25.905Z","datetime":"2020-12-29 07:57","tags":["story","Hacker News"],"image":null,"imageAlt":null,"provider":"Hacker News","thirdPartyId":"25549462","url":"https://news.ycombinator.com/item?id=25549462","originalUrl":"http://brandon.invergo.net/news/2012-05-26-using-gnu-stow-to-manage-your-dotfiles.html","imageRemote":"http://i.creativecommons.org/l/by-sa/3.0/88x31.png","video":null,"channel":null,"channelUrl":null,"author":"matthberg","authorUrl":"https://news.ycombinator.com/user?id=matthberg","authorImage":null,"authorSlug":null,"score":201,"views":null,"sharedCount":null,"likeCount":null,"sharedContent":null,"parent":{"__typename":"HnJson","localize":[{"title":"使用GNU Stow管理您的dotfile(2012)","locale":"zh"},{"title":"使用GNU Stow管理您的dotfile(2012)","locale":"zh-Hant"}]}},{"__typename":"SocialMediaPost","id":"HnPost-25566652","excerpt":"","slug":"/hn/25566652","title":"Why Is There a Bucatini Shortage in America?","date":"December 29, 2020","dateISO":"2020-12-29T07:01:23.764Z","datetime":"2020-12-29 07:01","tags":["story","Hacker News"],"image":null,"imageAlt":null,"provider":"Hacker News","thirdPartyId":"25566652","url":"https://news.ycombinator.com/item?id=25566652","originalUrl":"https://www.grubstreet.com/2020/12/2020-bucatini-shortage-investigation.html","imageRemote":"https://pyxis.nymag.com/v1/imgs/20b/5ff/78dda4d1bdf3f94804367e40bb9bed10c3-bucatini.1x.rsocial.w1200.jpg","video":null,"channel":null,"channelUrl":null,"author":"polm23","authorUrl":"https://news.ycombinator.com/user?id=polm23","authorImage":null,"authorSlug":null,"score":836,"views":null,"sharedCount":null,"likeCount":null,"sharedContent":null,"parent":{"__typename":"HnJson","localize":[{"title":"为什么美国会出现布卡蒂尼短缺的情况？","locale":"zh"},{"title":"爲什麼美國會出現布卡蒂尼短缺的情況？","locale":"zh-Hant"}]}},{"__typename":"SocialMediaPost","id":"HnPost-25566132","excerpt":"","slug":"/hn/25566132","title":"Show HN: Raspberry Pi 400 with a $2 IPS 240x240 micro display","date":"December 29, 2020","dateISO":"2020-12-29T06:32:04.312Z","datetime":"2020-12-29 06:32","tags":["story","Show HN","Hacker News"],"image":null,"imageAlt":null,"provider":"Hacker News","thirdPartyId":"25566132","url":"https://news.ycombinator.com/item?id=25566132","originalUrl":"https://github.com/igbit/micro-displays/blob/main/README.md","imageRemote":"https://avatars3.githubusercontent.com/u/75217607?s=400&v=4","video":null,"channel":"Show HN","channelUrl":"https://news.ycombinator.com/show","author":"sgroppino","authorUrl":"https://news.ycombinator.com/user?id=sgroppino","authorImage":null,"authorSlug":null,"score":355,"views":null,"sharedCount":null,"likeCount":null,"sharedContent":null,"parent":{"__typename":"HnJson","localize":[{"title":"HN新产品：覆盆子PI400，配有2美元的IPS 240x240微型显示屏","locale":"zh"},{"title":"HN新產品：覆盆子PI400，配有2美元的IPS 240x240微型顯示屏","locale":"zh-Hant"}]}},{"__typename":"SocialMediaPost","id":"HnPost-25564619","excerpt":"","slug":"/hn/25564619","title":"Architecture of the Game Boy Advance","date":"December 29, 2020","dateISO":"2020-12-29T04:41:12.454Z","datetime":"2020-12-29 04:41","tags":["story","Hacker News"],"image":null,"imageAlt":null,"provider":"Hacker News","thirdPartyId":"25564619","url":"https://news.ycombinator.com/item?id=25564619","originalUrl":"https://www.copetti.org/writings/consoles/game-boy-advance/","imageRemote":"https://www.copetti.org/images/consoles/gba/diagram.png","video":null,"channel":null,"channelUrl":null,"author":"biwasa","authorUrl":"https://news.ycombinator.com/user?id=biwasa","authorImage":null,"authorSlug":null,"score":259,"views":null,"sharedCount":null,"likeCount":null,"sharedContent":null,"parent":{"__typename":"HnJson","localize":[{"title":"“游戏机进军”的架构","locale":"zh"},{"title":"“遊戲機進軍”的架構","locale":"zh-Hant"}]}}]}},"pageContext":{"basePath":"/","pageType":"tag","tag":"story","tagsFilter":{"id":{"glob":"!*Post-1"}},"filter":{"id":{"glob":"!*Post-1"},"tags":{"eq":"story"}},"limit":25,"skip":1900,"total":2408,"totalPages":97,"currentPage":77,"maxWidth":1024,"maxHeight":512,"locale":"en","hrefLang":"en-US","originalPath":"/tags/story/page/77","dateFormat":"MM/DD/YYYY"}},"staticQueryHashes":["1239077767","2506312863","2744905544","3025052997","3493603132","3493603132","3513215887","386998304"]}