{"componentChunkName":"component---gatsby-theme-buzzing-src-gatsby-theme-timeline-templates-posts-query-js","path":"/tags/hacker-news/page/71","result":{"data":{"site":{"siteMetadata":{"title":"Reddit 热门","description":"用中文浏览Reddit热门内容","social":[{"name":"Twitter","url":"https://twitter.com/gatsbyjs","external":null,"prefetch":null},{"name":"GitHub","url":"https://github.com/gatsbyjs","external":null,"prefetch":null}],"menuLinks":[],"localize":[{"locale":"en","title":"Buzzing on Reddit","description":"See what's buzzing on Reddit in your native language","social":[{"name":"Reddit","url":"https://www.reddit.com/","external":true,"prefetch":null}],"menuLinks":[{"name":"Weekly Selection","url":"/issues","external":null,"prefetch":null},{"name":"RSS","url":"/rss.xml","external":null,"prefetch":false}]},{"locale":"zh-Hant","title":"Reddit 熱門","description":"用中文瀏覽Reddit熱門內容","social":null,"menuLinks":null}]}},"tagsGroup":{"group":[{"fieldValue":"ASK HN","totalCount":42},{"fieldValue":"Bitcoin","totalCount":4},{"fieldValue":"Hacker News","totalCount":2409},{"fieldValue":"Poll","totalCount":1},{"fieldValue":"SaveAMC","totalCount":1},{"fieldValue":"Show HN","totalCount":81},{"fieldValue":"bitcoin","totalCount":3},{"fieldValue":"investing","totalCount":755},{"fieldValue":"poll","totalCount":1},{"fieldValue":"reddit","totalCount":4525},{"fieldValue":"science","totalCount":1},{"fieldValue":"stocks","totalCount":1482},{"fieldValue":"story","totalCount":2408},{"fieldValue":"tweet","totalCount":767},{"fieldValue":"wallstreetbets","totalCount":2288}]},"allBlogPost":{"nodes":[{"__typename":"SocialMediaPost","id":"HnPost-25622528","excerpt":"","slug":"/hn/25622528","title":"Why Clojure? (2018)","date":"January 04, 2021","dateISO":"2021-01-04T04:57:28.295Z","datetime":"2021-01-04 04:57","tags":["story","Hacker News"],"image":null,"imageAlt":null,"provider":"Hacker News","thirdPartyId":"25622528","url":"https://news.ycombinator.com/item?id=25622528","originalUrl":"https://briansunter.com/blog/why-clojure/","imageRemote":"https://briansunter.com/images/meta/twitter.jpg","video":null,"channel":null,"channelUrl":null,"author":"bribri","authorUrl":"https://news.ycombinator.com/user?id=bribri","authorImage":null,"authorSlug":null,"score":185,"views":null,"sharedCount":null,"likeCount":null,"sharedContent":null,"parent":{"__typename":"HnJson","localize":[{"title":"为什么是Clojure？(2018年)","locale":"zh"},{"title":"爲什麼是Clojure？(2018年)","locale":"zh-Hant"}]}},{"__typename":"SocialMediaPost","id":"HnPost-25619137","excerpt":"","slug":"/hn/25619137","title":"The Perfect Media Server","date":"January 04, 2021","dateISO":"2021-01-04T04:13:35.812Z","datetime":"2021-01-04 04:13","tags":["story","Hacker News"],"image":null,"imageAlt":null,"provider":"Hacker News","thirdPartyId":"25619137","url":"https://news.ycombinator.com/item?id=25619137","originalUrl":"https://perfectmediaserver.com/","imageRemote":"https://perfectmediaserver.com/images/assets/logo.png","video":null,"channel":null,"channelUrl":null,"author":"hanklazard","authorUrl":"https://news.ycombinator.com/user?id=hanklazard","authorImage":null,"authorSlug":null,"score":157,"views":null,"sharedCount":null,"likeCount":null,"sharedContent":null,"parent":{"__typename":"HnJson","localize":[{"title":"完美的媒体服务器","locale":"zh"},{"title":"完美的媒體服務器","locale":"zh-Hant"}]}},{"__typename":"SocialMediaPost","id":"HnPost-25611425","excerpt":"","slug":"/hn/25611425","title":"Idyll – toolkit for creating data-driven stories and explorable explanations","date":"January 04, 2021","dateISO":"2021-01-04T03:51:27.434Z","datetime":"2021-01-04 03:51","tags":["story","Hacker News"],"image":null,"imageAlt":null,"provider":"Hacker News","thirdPartyId":"25611425","url":"https://news.ycombinator.com/item?id=25611425","originalUrl":"https://idyll-lang.org/","imageRemote":"https://idyll-lang.org/static/images/twitter-share.png","video":null,"channel":null,"channelUrl":null,"author":"felixr","authorUrl":"https://news.ycombinator.com/user?id=felixr","authorImage":null,"authorSlug":null,"score":168,"views":null,"sharedCount":null,"likeCount":null,"sharedContent":null,"parent":{"__typename":"HnJson","localize":[{"title":"idyll-用于创建数据驱动的故事和可探索的解释的工具包","locale":"zh"},{"title":"idyll-用於創建數據驅動的故事和可探索的解釋的工具包","locale":"zh-Hant"}]}},{"__typename":"SocialMediaPost","id":"HnPost-25612275","excerpt":"","slug":"/hn/25612275","title":"Looks vs. Results: My ugly ad got 150% more clicks than a professional design","date":"January 04, 2021","dateISO":"2021-01-04T02:36:34.670Z","datetime":"2021-01-04 02:36","tags":["story","Hacker News"],"image":null,"imageAlt":null,"provider":"Hacker News","thirdPartyId":"25612275","url":"https://news.ycombinator.com/item?id=25612275","originalUrl":"https://www.gkogan.co/blog/looks-vs-results/?r=2","imageRemote":"https://d33wubrfki0l68.cloudfront.net/b38efe41c13f8c6ce04f4b37ce9cc1190d842109/13687/images/uploads/ad-test.png","video":null,"channel":null,"channelUrl":null,"author":"gk1","authorUrl":"https://news.ycombinator.com/user?id=gk1","authorImage":null,"authorSlug":null,"score":178,"views":null,"sharedCount":null,"likeCount":null,"sharedContent":null,"parent":{"__typename":"HnJson","localize":[{"title":"外观与效果：我的丑陋广告点击量比专业设计多150%","locale":"zh"},{"title":"外觀與效果：我的醜陋廣告點擊量比專業設計多150%","locale":"zh-Hant"}]}},{"__typename":"SocialMediaPost","id":"HnPost-25623652","excerpt":"","slug":"/hn/25623652","title":"Reviving Old X Code","date":"January 04, 2021","dateISO":"2021-01-04T02:36:34.670Z","datetime":"2021-01-04 02:36","tags":["story","Hacker News"],"image":null,"imageAlt":null,"provider":"Hacker News","thirdPartyId":"25623652","url":"https://news.ycombinator.com/item?id=25623652","originalUrl":"https://keithp.com/blogs/kgames/","imageRemote":"https://keithp.com/pictures/xmille-orig.png","video":null,"channel":null,"channelUrl":null,"author":"fcambus","authorUrl":"https://news.ycombinator.com/user?id=fcambus","authorImage":null,"authorSlug":null,"score":247,"views":null,"sharedCount":null,"likeCount":null,"sharedContent":null,"parent":{"__typename":"HnJson","localize":[{"title":"复兴旧的X代码","locale":"zh"},{"title":"復興舊的X代碼","locale":"zh-Hant"}]}},{"__typename":"SocialMediaPost","id":"HnPost-25614098","excerpt":"","slug":"/hn/25614098","title":"50 Years of Text Games – A 2021 Journey from Oregon Trail to A.I. Dungeon","date":"January 04, 2021","dateISO":"2021-01-04T01:32:35.034Z","datetime":"2021-01-04 01:32","tags":["story","Hacker News"],"image":null,"imageAlt":null,"provider":"Hacker News","thirdPartyId":"25614098","url":"https://news.ycombinator.com/item?id=25614098","originalUrl":"https://if50.substack.com/p/introduction","imageRemote":"https://cdn.substack.com/image/fetch/h_600,c_limit,f_auto,q_auto:good,fl_progressive:steep/https%3A%2F%2Fbucketeer-e05bbc84-baa3-437e-9518-adb32be77984.s3.amazonaws.com%2Fpublic%2Fimages%2Ffa583ddb-c430-4f4e-aa04-a60276694a19_1800x700.jpeg","video":null,"channel":null,"channelUrl":null,"author":"homarp","authorUrl":"https://news.ycombinator.com/user?id=homarp","authorImage":null,"authorSlug":null,"score":152,"views":null,"sharedCount":null,"likeCount":null,"sharedContent":null,"parent":{"__typename":"HnJson","localize":[{"title":"文字游戏50年-2021年从俄勒冈小径到A.I.地牢的旅程","locale":"zh"},{"title":"文字遊戲50年-2021年從俄勒岡小徑到A.I.地牢的旅程","locale":"zh-Hant"}]}},{"__typename":"SocialMediaPost","id":"HnPost-25622095","excerpt":"","slug":"/hn/25622095","title":"Show HN: OpenScan – open-source document scanner app","date":"January 04, 2021","dateISO":"2021-01-04T01:32:35.034Z","datetime":"2021-01-04 01:32","tags":["story","Show HN","Hacker News"],"image":null,"imageAlt":null,"provider":"Hacker News","thirdPartyId":"25622095","url":"https://news.ycombinator.com/item?id=25622095","originalUrl":"https://github.com/Ethereal-Developers-Inc/OpenScan","imageRemote":"https://avatars2.githubusercontent.com/u/68118808?s=400&v=4","video":null,"channel":"Show HN","channelUrl":"https://news.ycombinator.com/show","author":"mighty3xodus","authorUrl":"https://news.ycombinator.com/user?id=mighty3xodus","authorImage":null,"authorSlug":null,"score":200,"views":null,"sharedCount":null,"likeCount":null,"sharedContent":null,"parent":{"__typename":"HnJson","localize":[{"title":"HN新产品：openScan-开源文档扫描仪应用","locale":"zh"},{"title":"HN新產品：openScan-開源文檔掃描儀應用","locale":"zh-Hant"}]}},{"__typename":"SocialMediaPost","id":"HnPost-25623616","excerpt":"","slug":"/hn/25623616","title":"Philly scientist behind COVID vaccine tech was demoted by UPenn","date":"January 04, 2021","dateISO":"2021-01-04T01:32:35.034Z","datetime":"2021-01-04 01:32","tags":["story","Hacker News"],"image":null,"imageAlt":null,"provider":"Hacker News","thirdPartyId":"25623616","url":"https://news.ycombinator.com/item?id=25623616","originalUrl":"https://billypenn.com/2020/12/29/university-pennsylvania-covid-vaccine-mrna-kariko-demoted-biontech-pfizer/","imageRemote":"https://billypenn.com/wp-content/uploads/2020/12/katalinkariko-covidvaccinescientist-1200x630.jpg","video":null,"channel":null,"channelUrl":null,"author":"apsec112","authorUrl":"https://news.ycombinator.com/user?id=apsec112","authorImage":null,"authorSlug":null,"score":310,"views":null,"sharedCount":null,"likeCount":null,"sharedContent":null,"parent":{"__typename":"HnJson","localize":[{"title":"费城科学家研发COVID疫苗技术被宾夕法尼亚大学降级","locale":"zh"},{"title":"費城科學家研發COVID疫苗技術被賓夕法尼亞大學降級","locale":"zh-Hant"}]}},{"__typename":"SocialMediaPost","id":"HnPost-25623305","excerpt":"","slug":"/hn/25623305","title":"AMD Patent Reveals Hybrid CPU-FPGA Design That Could Be Enabled by Xilinx Tech","date":"January 04, 2021","dateISO":"2021-01-04T00:05:48.246Z","datetime":"2021-01-04 00:05","tags":["story","Hacker News"],"image":null,"imageAlt":null,"provider":"Hacker News","thirdPartyId":"25623305","url":"https://news.ycombinator.com/item?id=25623305","originalUrl":"https://hothardware.com/news/amd-patent-hybrid-cpu-fpga-design-xilinx","imageRemote":"https://images.hothardware.com/contentimages/newsitem/53861/content/xilinx-office.jpg","video":null,"channel":null,"channelUrl":null,"author":"craigjb","authorUrl":"https://news.ycombinator.com/user?id=craigjb","authorImage":null,"authorSlug":null,"score":277,"views":null,"sharedCount":null,"likeCount":null,"sharedContent":null,"parent":{"__typename":"HnJson","localize":[{"title":"AMD专利揭示可由Xilinx技术实现的CPU-FPGA混合设计","locale":"zh"},{"title":"AMD專利揭示可由Xilinx技術實現的CPU-FPGA混合設計","locale":"zh-Hant"}]}},{"__typename":"SocialMediaPost","id":"HnPost-25620707","excerpt":"","slug":"/hn/25620707","title":"When Big Brands Stopped Spending on Digital Ads, Nothing Happened. Why?","date":"January 03, 2021","dateISO":"2021-01-03T23:39:50.972Z","datetime":"2021-01-03 23:39","tags":["story","Hacker News"],"image":null,"imageAlt":null,"provider":"Hacker News","thirdPartyId":"25620707","url":"https://news.ycombinator.com/item?id=25620707","originalUrl":"https://www.forbes.com/sites/augustinefou/2021/01/02/when-big-brands-stopped-spending-on-digital-ads-nothing-happened-why/","imageRemote":"https://thumbor.forbes.com/thumbor/fit-in/1200x0/filters%3Aformat(jpg)/https%3A%2F%2Fspecials-images.forbesimg.com%2Fimageserve%2F5ff07d45bcd52228b578e8e7%2F0x0.jpg%3FcropX1%3D235%26cropX2%3D4677%26cropY1%3D183%26cropY2%3D2265","video":null,"channel":null,"channelUrl":null,"author":"ZeljkoS","authorUrl":"https://news.ycombinator.com/user?id=ZeljkoS","authorImage":null,"authorSlug":null,"score":277,"views":null,"sharedCount":null,"likeCount":null,"sharedContent":null,"parent":{"__typename":"HnJson","localize":[{"title":"当大品牌停止在数字广告上投入资金时，什么也没有发生。为什么？","locale":"zh"},{"title":"當大品牌停止在數字廣告上投入資金時，什麼也沒有發生。爲什麼？","locale":"zh-Hant"}]}},{"__typename":"SocialMediaPost","id":"HnPost-25622756","excerpt":"","slug":"/hn/25622756","title":"How to open a file in Emacs: a story about Lisp, technology, and human progress","date":"January 03, 2021","dateISO":"2021-01-03T23:39:50.972Z","datetime":"2021-01-03 23:39","tags":["story","Hacker News"],"image":null,"imageAlt":null,"provider":"Hacker News","thirdPartyId":"25622756","url":"https://news.ycombinator.com/item?id=25622756","originalUrl":"https://www.murilopereira.com/how-to-open-a-file-in-emacs/","imageRemote":"https://www.murilopereira.com/tron.jpg","video":null,"channel":null,"channelUrl":null,"author":"mpereira","authorUrl":"https://news.ycombinator.com/user?id=mpereira","authorImage":null,"authorSlug":null,"score":249,"views":null,"sharedCount":null,"likeCount":null,"sharedContent":null,"parent":{"__typename":"HnJson","localize":[{"title":"如何在Emacs中打开文件：关于Lisp、技术和人类进步的故事","locale":"zh"},{"title":"如何在Emacs中打開文件：關於Lisp、技術和人類進步的故事","locale":"zh-Hant"}]}},{"__typename":"SocialMediaPost","id":"HnPost-25624112","excerpt":"","slug":"/hn/25624112","title":"URL shorteners set ad tracking cookies","date":"January 03, 2021","dateISO":"2021-01-03T23:04:52.459Z","datetime":"2021-01-03 23:04","tags":["story","Hacker News"],"image":null,"imageAlt":null,"provider":"Hacker News","thirdPartyId":"25624112","url":"https://news.ycombinator.com/item?id=25624112","originalUrl":"https://ylukem.com/blog/url-shorteners-set-ad-tracking-cookies","imageRemote":null,"video":null,"channel":null,"channelUrl":null,"author":"firloop","authorUrl":"https://news.ycombinator.com/user?id=firloop","authorImage":null,"authorSlug":null,"score":495,"views":null,"sharedCount":null,"likeCount":null,"sharedContent":null,"parent":{"__typename":"HnJson","localize":[{"title":"URL缩短器设置广告跟踪cookie","locale":"zh"},{"title":"URL縮短器設置廣告跟蹤cookie","locale":"zh-Hant"}]}},{"__typename":"SocialMediaPost","id":"HnPost-25624044","excerpt":"","slug":"/hn/25624044","title":"Unanswered user makes question their MS thesis and answers self 2 years later","date":"January 03, 2021","dateISO":"2021-01-03T22:34:17.811Z","datetime":"2021-01-03 22:34","tags":["story","Hacker News"],"image":null,"imageAlt":null,"provider":"Hacker News","thirdPartyId":"25624044","url":"https://news.ycombinator.com/item?id=25624044","originalUrl":"https://stackoverflow.com/questions/47444189/immediate-mode-gui-performance","imageRemote":"https://cdn.sstatic.net/Sites/stackoverflow/Img/apple-touch-icon@2.png?v=73d79a89bded","video":null,"channel":null,"channelUrl":null,"author":"anderspitman","authorUrl":"https://news.ycombinator.com/user?id=anderspitman","authorImage":null,"authorSlug":null,"score":417,"views":null,"sharedCount":null,"likeCount":null,"sharedContent":null,"parent":{"__typename":"HnJson","localize":[{"title":"2年后，未回答的用户将问题作为他们的硕士论文并自行回答","locale":"zh"},{"title":"2年後，未回答的用戶將問題作爲他們的碩士論文並自行回答","locale":"zh-Hant"}]}},{"__typename":"SocialMediaPost","id":"HnPost-25621519","excerpt":"","slug":"/hn/25621519","title":"Tell HN: Please update your DNS records when abandoning servers","date":"January 03, 2021","dateISO":"2021-01-03T21:35:47.047Z","datetime":"2021-01-03 21:35","tags":["story","Hacker News"],"image":null,"imageAlt":null,"provider":"Hacker News","thirdPartyId":"25621519","url":"https://news.ycombinator.com/item?id=25621519","originalUrl":"https://news.ycombinator.com/item?id=25621519","imageRemote":null,"video":null,"channel":null,"channelUrl":null,"author":"mwgarcia","authorUrl":"https://news.ycombinator.com/user?id=mwgarcia","authorImage":null,"authorSlug":null,"score":175,"views":null,"sharedCount":null,"likeCount":null,"sharedContent":null,"parent":{"__typename":"HnJson","localize":[{"title":"告诉HN：请在放弃服务器时更新您的DNS记录","locale":"zh"},{"title":"告訴HN：請在放棄服務器時更新您的DNS記錄","locale":"zh-Hant"}]}},{"__typename":"SocialMediaPost","id":"HnPost-25623634","excerpt":"","slug":"/hn/25623634","title":"Rust is now overall faster than C in benchmarks","date":"January 03, 2021","dateISO":"2021-01-03T21:11:16.141Z","datetime":"2021-01-03 21:11","tags":["story","Hacker News"],"image":null,"imageAlt":null,"provider":"Hacker News","thirdPartyId":"25623634","url":"https://news.ycombinator.com/item?id=25623634","originalUrl":"https://benchmarksgame-team.pages.debian.net/benchmarksgame/which-programs-are-fastest.html","imageRemote":"https://benchmarksgame-team.pages.debian.net/benchmarksgame/download/fastest-more.svg","video":null,"channel":null,"channelUrl":null,"author":"wiineeth","authorUrl":"https://news.ycombinator.com/user?id=wiineeth","authorImage":null,"authorSlug":null,"score":692,"views":null,"sharedCount":null,"likeCount":null,"sharedContent":null,"parent":{"__typename":"HnJson","localize":[{"title":"在基准测试中，Rust现在总体上比C语言快","locale":"zh"},{"title":"在基準測試中，Rust現在總體上比C語言快","locale":"zh-Hant"}]}},{"__typename":"SocialMediaPost","id":"HnPost-25607397","excerpt":"","slug":"/hn/25607397","title":"A megacorp is not your dream job","date":"January 03, 2021","dateISO":"2021-01-03T19:42:11.174Z","datetime":"2021-01-03 19:42","tags":["story","Hacker News"],"image":null,"imageAlt":null,"provider":"Hacker News","thirdPartyId":"25607397","url":"https://news.ycombinator.com/item?id=25607397","originalUrl":"https://drewdevault.com/2021/01/01/Megacorps-are-not-your-dream-job.html","imageRemote":null,"video":null,"channel":null,"channelUrl":null,"author":"ddevault","authorUrl":"https://news.ycombinator.com/user?id=ddevault","authorImage":null,"authorSlug":null,"score":154,"views":null,"sharedCount":null,"likeCount":null,"sharedContent":null,"parent":{"__typename":"HnJson","localize":[{"title":"大公司不是你梦想的工作","locale":"zh"},{"title":"大公司不是你夢想的工作","locale":"zh-Hant"}]}},{"__typename":"SocialMediaPost","id":"HnPost-25622149","excerpt":"","slug":"/hn/25622149","title":"How to Stop Endless Discussions","date":"January 03, 2021","dateISO":"2021-01-03T19:42:11.174Z","datetime":"2021-01-03 19:42","tags":["story","Hacker News"],"image":null,"imageAlt":null,"provider":"Hacker News","thirdPartyId":"25622149","url":"https://news.ycombinator.com/item?id=25622149","originalUrl":"https://candost.blog/how-to-stop-endless-discussions/","imageRemote":"https://candost.blog/content/images/2020/12/30daysreplay-marketingberatung-KpTZRPEpGC0-unsplash-1.jpg","video":null,"channel":null,"channelUrl":null,"author":"candost","authorUrl":"https://news.ycombinator.com/user?id=candost","authorImage":null,"authorSlug":null,"score":340,"views":null,"sharedCount":null,"likeCount":null,"sharedContent":null,"parent":{"__typename":"HnJson","localize":[{"title":"如何停止没完没了的讨论","locale":"zh"},{"title":"如何停止沒完沒了的討論","locale":"zh-Hant"}]}},{"__typename":"SocialMediaPost","id":"HnPost-25623010","excerpt":"","slug":"/hn/25623010","title":"I logged my activities at 15-minute intervals for the whole year","date":"January 03, 2021","dateISO":"2021-01-03T19:42:11.174Z","datetime":"2021-01-03 19:42","tags":["story","Hacker News"],"image":null,"imageAlt":null,"provider":"Hacker News","thirdPartyId":"25623010","url":"https://news.ycombinator.com/item?id=25623010","originalUrl":"https://samplesize.one/blog/posts/my_year_in_data/","imageRemote":"https://samplesize.one/img/spreadsheet_banner.png","video":null,"channel":null,"channelUrl":null,"author":"HuangYuSan","authorUrl":"https://news.ycombinator.com/user?id=HuangYuSan","authorImage":null,"authorSlug":null,"score":684,"views":null,"sharedCount":null,"likeCount":null,"sharedContent":null,"parent":{"__typename":"HnJson","localize":[{"title":"我全年每隔15分钟记录我的活动。","locale":"zh"},{"title":"我全年每隔15分鐘記錄我的活動。","locale":"zh-Hant"}]}},{"__typename":"SocialMediaPost","id":"HnPost-25623858","excerpt":"","slug":"/hn/25623858","title":"Uber discovered they’d been defrauded out of 2/3 of their ad spend","date":"January 03, 2021","dateISO":"2021-01-03T19:42:11.174Z","datetime":"2021-01-03 19:42","tags":["story","Hacker News"],"image":null,"imageAlt":null,"provider":"Hacker News","thirdPartyId":"25623858","url":"https://news.ycombinator.com/item?id=25623858","originalUrl":"https://twitter.com/nandoodles/status/1345774768746852353","imageRemote":null,"video":null,"channel":null,"channelUrl":null,"author":"rbanffy","authorUrl":"https://news.ycombinator.com/user?id=rbanffy","authorImage":null,"authorSlug":null,"score":1785,"views":null,"sharedCount":null,"likeCount":null,"sharedContent":null,"parent":{"__typename":"HnJson","localize":[{"title":"优步发现他们被骗走了三分之二的广告支出","locale":"zh"},{"title":"優步發現他們被騙走了三分之二的廣告支出","locale":"zh-Hant"}]}},{"__typename":"SocialMediaPost","id":"HnPost-25619319","excerpt":"","slug":"/hn/25619319","title":"Dockerfile Best Practices","date":"January 03, 2021","dateISO":"2021-01-03T18:21:09.170Z","datetime":"2021-01-03 18:21","tags":["story","Hacker News"],"image":null,"imageAlt":null,"provider":"Hacker News","thirdPartyId":"25619319","url":"https://news.ycombinator.com/item?id=25619319","originalUrl":"https://github.com/hexops/dockerfile","imageRemote":"https://avatars2.githubusercontent.com/u/19482899?s=400&v=4","video":null,"channel":null,"channelUrl":null,"author":"sidcool","authorUrl":"https://news.ycombinator.com/user?id=sidcool","authorImage":null,"authorSlug":null,"score":195,"views":null,"sharedCount":null,"likeCount":null,"sharedContent":null,"parent":{"__typename":"HnJson","localize":[{"title":"Dockerfile最佳实践","locale":"zh"},{"title":"Dockerfile最佳實踐","locale":"zh-Hant"}]}},{"__typename":"SocialMediaPost","id":"HnPost-25621809","excerpt":"","slug":"/hn/25621809","title":"Indian Govt to buy bulk subscription of scientific journals and give free access","date":"January 03, 2021","dateISO":"2021-01-03T17:41:25.110Z","datetime":"2021-01-03 17:41","tags":["story","Hacker News"],"image":null,"imageAlt":null,"provider":"Hacker News","thirdPartyId":"25621809","url":"https://news.ycombinator.com/item?id=25621809","originalUrl":"https://indianexpress.com/article/india/pune/one-nation-one-subscription-govt-draft-policy-7128799/lite/","imageRemote":"https://images.indianexpress.com/2021/01/research.jpg","video":null,"channel":null,"channelUrl":null,"author":"sandGorgon","authorUrl":"https://news.ycombinator.com/user?id=sandGorgon","authorImage":null,"authorSlug":null,"score":279,"views":null,"sharedCount":null,"likeCount":null,"sharedContent":null,"parent":{"__typename":"HnJson","localize":[{"title":"印度政府将购买批量订阅科学期刊并提供免费访问","locale":"zh"},{"title":"印度政府將購買批量訂閱科學期刊並提供免費訪問","locale":"zh-Hant"}]}},{"__typename":"SocialMediaPost","id":"HnPost-25622015","excerpt":"","slug":"/hn/25622015","title":"The Great Suspender: New maintainer is probably malicious","date":"January 03, 2021","dateISO":"2021-01-03T16:53:46.160Z","datetime":"2021-01-03 16:53","tags":["story","Hacker News"],"image":null,"imageAlt":null,"provider":"Hacker News","thirdPartyId":"25622015","url":"https://news.ycombinator.com/item?id=25622015","originalUrl":"https://github.com/greatsuspender/thegreatsuspender/issues/1263","imageRemote":"https://avatars0.githubusercontent.com/u/11603828?s=400&v=4","video":null,"channel":null,"channelUrl":null,"author":"AdamGibbins","authorUrl":"https://news.ycombinator.com/user?id=AdamGibbins","authorImage":null,"authorSlug":null,"score":381,"views":null,"sharedCount":null,"likeCount":null,"sharedContent":null,"parent":{"__typename":"HnJson","localize":[{"title":"伟大的悬挂者：新的维护者可能是恶意的","locale":"zh"},{"title":"偉大的懸掛者：新的維護者可能是惡意的","locale":"zh-Hant"}]}},{"__typename":"SocialMediaPost","id":"HnPost-25622322","excerpt":"","slug":"/hn/25622322","title":"Linus Torvalds: ECC matters","date":"January 03, 2021","dateISO":"2021-01-03T16:53:46.160Z","datetime":"2021-01-03 16:53","tags":["story","Hacker News"],"image":null,"imageAlt":null,"provider":"Hacker News","thirdPartyId":"25622322","url":"https://news.ycombinator.com/item?id=25622322","originalUrl":"https://www.realworldtech.com/forum/?threadid=198497&curpostid=198647","imageRemote":"https://www.realworldtech.com/wp-content/themes/child/images/facebook.png","video":null,"channel":null,"channelUrl":null,"author":"rajesh-s","authorUrl":"https://news.ycombinator.com/user?id=rajesh-s","authorImage":null,"authorSlug":null,"score":1045,"views":null,"sharedCount":null,"likeCount":null,"sharedContent":null,"parent":{"__typename":"HnJson","localize":[{"title":"莱纳斯·托瓦尔兹：ECC问题","locale":"zh"},{"title":"萊納斯·託瓦爾茲：ECC問題","locale":"zh-Hant"}]}},{"__typename":"SocialMediaPost","id":"HnPost-25613187","excerpt":"","slug":"/hn/25613187","title":"Setting up personal OKR (objectives and key-results)","date":"January 03, 2021","dateISO":"2021-01-03T16:00:51.470Z","datetime":"2021-01-03 16:00","tags":["story","Hacker News"],"image":null,"imageAlt":null,"provider":"Hacker News","thirdPartyId":"25613187","url":"https://news.ycombinator.com/item?id=25613187","originalUrl":"https://hackpravj.com/blog/personal-okr-2021-plan/","imageRemote":"https://hackpravj.com/images/pageimage-setting-up-personal-okr-jfm-2021.png","video":null,"channel":null,"channelUrl":null,"author":"pravj","authorUrl":"https://news.ycombinator.com/user?id=pravj","authorImage":null,"authorSlug":null,"score":161,"views":null,"sharedCount":null,"likeCount":null,"sharedContent":null,"parent":{"__typename":"HnJson","localize":[{"title":"设置个人OKR(目标和关键结果)","locale":"zh"},{"title":"設置個人OKR(目標和關鍵結果)","locale":"zh-Hant"}]}},{"__typename":"SocialMediaPost","id":"HnPost-25620448","excerpt":"","slug":"/hn/25620448","title":"A new release for GNU Octave","date":"January 03, 2021","dateISO":"2021-01-03T16:00:51.470Z","datetime":"2021-01-03 16:00","tags":["story","Hacker News"],"image":null,"imageAlt":null,"provider":"Hacker News","thirdPartyId":"25620448","url":"https://news.ycombinator.com/item?id=25620448","originalUrl":"https://lwn.net/Articles/840050/","imageRemote":"https://static.lwn.net/images/logo/barepenguin-70.png","video":null,"channel":null,"channelUrl":null,"author":"signa11","authorUrl":"https://news.ycombinator.com/user?id=signa11","authorImage":null,"authorSlug":null,"score":197,"views":null,"sharedCount":null,"likeCount":null,"sharedContent":null,"parent":{"__typename":"HnJson","localize":[{"title":"GNU Octave的新版本","locale":"zh"},{"title":"GNU Octave的新版本","locale":"zh-Hant"}]}}]}},"pageContext":{"basePath":"/","pageType":"tag","tag":"Hacker News","tagsFilter":{"id":{"glob":"!*Post-1"}},"filter":{"id":{"glob":"!*Post-1"},"tags":{"eq":"Hacker News"}},"limit":25,"skip":1750,"total":2409,"totalPages":97,"currentPage":71,"maxWidth":1024,"maxHeight":512,"locale":"zh","hrefLang":"zh-Hans","originalPath":"/tags/hacker-news/page/71","dateFormat":"YYYY-MM-DD"}},"staticQueryHashes":["1239077767","2506312863","2744905544","3025052997","3493603132","3493603132","3513215887","386998304"]}