{"componentChunkName":"component---gatsby-theme-buzzing-src-gatsby-theme-timeline-templates-posts-query-js","path":"/zh-Hant/tags/story/page/35","result":{"data":{"site":{"siteMetadata":{"title":"Reddit 热门","description":"用中文浏览Reddit热门内容","social":[{"name":"Twitter","url":"https://twitter.com/gatsbyjs","external":null,"prefetch":null},{"name":"GitHub","url":"https://github.com/gatsbyjs","external":null,"prefetch":null}],"menuLinks":[],"localize":[{"locale":"en","title":"Buzzing on Reddit","description":"See what's buzzing on Reddit in your native language","social":[{"name":"Reddit","url":"https://www.reddit.com/","external":true,"prefetch":null}],"menuLinks":[{"name":"Weekly Selection","url":"/issues","external":null,"prefetch":null},{"name":"RSS","url":"/rss.xml","external":null,"prefetch":false}]},{"locale":"zh-Hant","title":"Reddit 熱門","description":"用中文瀏覽Reddit熱門內容","social":null,"menuLinks":null}]}},"tagsGroup":{"group":[{"fieldValue":"ASK HN","totalCount":44},{"fieldValue":"Bitcoin","totalCount":4},{"fieldValue":"Hacker News","totalCount":2600},{"fieldValue":"Poll","totalCount":1},{"fieldValue":"SaveAMC","totalCount":1},{"fieldValue":"Show HN","totalCount":89},{"fieldValue":"bitcoin","totalCount":3},{"fieldValue":"investing","totalCount":797},{"fieldValue":"poll","totalCount":1},{"fieldValue":"reddit","totalCount":4938},{"fieldValue":"science","totalCount":1},{"fieldValue":"stocks","totalCount":1592},{"fieldValue":"story","totalCount":2599},{"fieldValue":"tweet","totalCount":814},{"fieldValue":"wallstreetbets","totalCount":2549}]},"allBlogPost":{"nodes":[{"__typename":"SocialMediaPost","id":"HnPost-26134240","excerpt":"","slug":"/hn/26134240","title":"(Very) Basic Intro to Elliptic Curve Cryptography","date":"February 15, 2021","dateISO":"2021-02-15T02:07:46.767Z","datetime":"2021-02-15 02:07","tags":["story","Hacker News"],"image":null,"imageAlt":null,"provider":"Hacker News","thirdPartyId":"26134240","url":"https://news.ycombinator.com/item?id=26134240","originalUrl":"https://qvault.io/2020/09/17/very-basic-intro-to-elliptic-curve-cryptography/","imageRemote":"https://qvault.io/wp-content/uploads/2020/09/Basic-Intro-to-Elliptic-Curve-Cryptography-1024x576.jpg","video":null,"channel":null,"channelUrl":null,"author":"wagslane","authorUrl":"https://news.ycombinator.com/user?id=wagslane","authorImage":null,"authorSlug":null,"score":222,"views":null,"sharedCount":null,"likeCount":null,"sharedContent":null,"parent":{"__typename":"HnJson","localize":[{"title":"(非常)椭圆曲线密码学基础介绍","locale":"zh"},{"title":"(非常)橢圓曲線密碼學基礎介紹","locale":"zh-Hant"}]}},{"__typename":"SocialMediaPost","id":"HnPost-26134773","excerpt":"","slug":"/hn/26134773","title":"Half Doses of Moderna Vaccine Produce Neutralizing Antibodies","date":"February 15, 2021","dateISO":"2021-02-15T01:37:32.304Z","datetime":"2021-02-15 01:37","tags":["story","Hacker News"],"image":null,"imageAlt":null,"provider":"Hacker News","thirdPartyId":"26134773","url":"https://news.ycombinator.com/item?id=26134773","originalUrl":"https://marginalrevolution.com/marginalrevolution/2021/02/half-doses-of-moderna-produce-neutralizing-antibodies.html","imageRemote":"https://marginalrevolution.com/wp-content/uploads/2016/10/MR-logo-thumbnail.png","video":null,"channel":null,"channelUrl":null,"author":"elsewhen","authorUrl":"https://news.ycombinator.com/user?id=elsewhen","authorImage":null,"authorSlug":null,"score":339,"views":null,"sharedCount":null,"likeCount":null,"sharedContent":null,"parent":{"__typename":"HnJson","localize":[{"title":"半剂量莫德纳疫苗可产生中和抗体","locale":"zh"},{"title":"半劑量莫德納疫苗可產生中和抗體","locale":"zh-Hant"}]}},{"__typename":"SocialMediaPost","id":"HnPost-26121775","excerpt":"","slug":"/hn/26121775","title":"Extruding Ice from Steel Fences and Pipes with Diurnal Freeze/Thaw (2008)","date":"February 15, 2021","dateISO":"2021-02-15T00:55:23.732Z","datetime":"2021-02-15 00:55","tags":["story","Hacker News"],"image":null,"imageAlt":null,"provider":"Hacker News","thirdPartyId":"26121775","url":"https://news.ycombinator.com/item?id=26121775","originalUrl":"http://my.ilstu.edu/~jrcarter/ice/diurnal/extrude/","imageRemote":"http://my.ilstu.edu/~jrcarter/ice/diurnal/extrude/Curls-3-fence-WM.jpg","video":null,"channel":null,"channelUrl":null,"author":"yosamino","authorUrl":"https://news.ycombinator.com/user?id=yosamino","authorImage":null,"authorSlug":null,"score":261,"views":null,"sharedCount":null,"likeCount":null,"sharedContent":null,"parent":{"__typename":"HnJson","localize":[{"title":"昼夜冻融的钢制围栏和管道中的挤出冰块 (2008)","locale":"zh"},{"title":"晝夜凍融的鋼製圍欄和管道中的擠出冰塊 (2008)","locale":"zh-Hant"}]}},{"__typename":"SocialMediaPost","id":"HnPost-26131043","excerpt":"","slug":"/hn/26131043","title":"Brendan Eich on the Lex Fridman Podcast [video]","date":"February 15, 2021","dateISO":"2021-02-15T00:55:23.732Z","datetime":"2021-02-15 00:55","tags":["story","Hacker News"],"image":null,"imageAlt":null,"provider":"Hacker News","thirdPartyId":"26131043","url":"https://news.ycombinator.com/item?id=26131043","originalUrl":"https://www.youtube.com/watch?v=krB0enBeSiE","imageRemote":"https://i.ytimg.com/vi/krB0enBeSiE/maxresdefault.jpg","video":null,"channel":null,"channelUrl":null,"author":"bekantan","authorUrl":"https://news.ycombinator.com/user?id=bekantan","authorImage":null,"authorSlug":null,"score":223,"views":null,"sharedCount":null,"likeCount":null,"sharedContent":null,"parent":{"__typename":"HnJson","localize":[{"title":"布伦丹-艾希在莱克斯-弗里德曼播客[视频]。","locale":"zh"},{"title":"布倫丹-艾希在萊克斯-弗裏德曼播客[視頻]。","locale":"zh-Hant"}]}},{"__typename":"SocialMediaPost","id":"HnPost-26134181","excerpt":"","slug":"/hn/26134181","title":"No Qualified Immunity for Cops Who Made Stuff Up to Justify Phone Seizure","date":"February 14, 2021","dateISO":"2021-02-14T23:57:53.012Z","datetime":"2021-02-14 23:57","tags":["story","Hacker News"],"image":null,"imageAlt":null,"provider":"Hacker News","thirdPartyId":"26134181","url":"https://news.ycombinator.com/item?id=26134181","originalUrl":"https://www.techdirt.com/articles/20210106/18521446009/no-qualified-immunity-cops-who-made-stuff-up-to-justify-seizing-mans-phone-twelve-days.shtml","imageRemote":"https://ii.techdirt.com/s/t/i/td_icon_300.png","video":null,"channel":null,"channelUrl":null,"author":"pmiller2","authorUrl":"https://news.ycombinator.com/user?id=pmiller2","authorImage":null,"authorSlug":null,"score":233,"views":null,"sharedCount":null,"likeCount":null,"sharedContent":null,"parent":{"__typename":"HnJson","localize":[{"title":"警察编造谎言以证明手机被扣押是正确的，不享有无条件豁免权。","locale":"zh"},{"title":"警察編造謊言以證明手機被扣押是正確的，不享有無條件豁免權。","locale":"zh-Hant"}]}},{"__typename":"SocialMediaPost","id":"HnPost-26134915","excerpt":"","slug":"/hn/26134915","title":"Show HN: Khan-dl – Khan Academy Course Downloader","date":"February 14, 2021","dateISO":"2021-02-14T22:42:58.040Z","datetime":"2021-02-14 22:42","tags":["story","Show HN","Hacker News"],"image":null,"imageAlt":null,"provider":"Hacker News","thirdPartyId":"26134915","url":"https://news.ycombinator.com/item?id=26134915","originalUrl":"https://github.com/rand-net/khan-dl","imageRemote":"https://avatars.githubusercontent.com/u/34341872?s=400&v=4","video":null,"channel":"Show HN","channelUrl":"https://news.ycombinator.com/show","author":"rand_net","authorUrl":"https://news.ycombinator.com/user?id=rand_net","authorImage":null,"authorSlug":null,"score":472,"views":null,"sharedCount":null,"likeCount":null,"sharedContent":null,"parent":{"__typename":"HnJson","localize":[{"title":"显示HN：Khan-dl - 可汗学院课程下载器。","locale":"zh"},{"title":"顯示HN：Khan-dl - 可汗學院課程下載器。","locale":"zh-Hant"}]}},{"__typename":"SocialMediaPost","id":"HnPost-26130341","excerpt":"","slug":"/hn/26130341","title":"Fluxus – A 3D game engine for live-coding worlds into existence","date":"February 14, 2021","dateISO":"2021-02-14T22:24:35.755Z","datetime":"2021-02-14 22:24","tags":["story","Hacker News"],"image":null,"imageAlt":null,"provider":"Hacker News","thirdPartyId":"26130341","url":"https://news.ycombinator.com/item?id=26130341","originalUrl":"http://www.pawfal.org/fluxus/","imageRemote":"http://www.pawfal.org/fluxus/images/slubfave06c.jpg","video":null,"channel":null,"channelUrl":null,"author":"joubert","authorUrl":"https://news.ycombinator.com/user?id=joubert","authorImage":null,"authorSlug":null,"score":182,"views":null,"sharedCount":null,"likeCount":null,"sharedContent":null,"parent":{"__typename":"HnJson","localize":[{"title":"Fluxus - 一个3D游戏引擎，用于实时编码世界的存在。","locale":"zh"},{"title":"Fluxus - 一個3D遊戲引擎，用於實時編碼世界的存在。","locale":"zh-Hant"}]}},{"__typename":"SocialMediaPost","id":"HnPost-26133798","excerpt":"","slug":"/hn/26133798","title":"DeepMind achieves SOTA image recognition with 8.7x faster training","date":"February 14, 2021","dateISO":"2021-02-14T21:51:42.888Z","datetime":"2021-02-14 21:51","tags":["story","Hacker News"],"image":null,"imageAlt":null,"provider":"Hacker News","thirdPartyId":"26133798","url":"https://news.ycombinator.com/item?id=26133798","originalUrl":"https://arxiv.org/abs/2102.06171","imageRemote":"https://static.arxiv.org/static/browse/0.3.2.6/images/icons/social/bibsonomy.png","video":null,"channel":null,"channelUrl":null,"author":"highfrequency","authorUrl":"https://news.ycombinator.com/user?id=highfrequency","authorImage":null,"authorSlug":null,"score":288,"views":null,"sharedCount":null,"likeCount":null,"sharedContent":null,"parent":{"__typename":"HnJson","localize":[{"title":"DeepMind实现SOTA图像识别，训练速度提高8.7倍。","locale":"zh"},{"title":"DeepMind實現SOTA圖像識別，訓練速度提高8.7倍。","locale":"zh-Hant"}]}},{"__typename":"SocialMediaPost","id":"HnPost-26130104","excerpt":"","slug":"/hn/26130104","title":"Roaring Kitty to testify on GameStop alongside hedge fund managers","date":"February 14, 2021","dateISO":"2021-02-14T19:46:00.426Z","datetime":"2021-02-14 19:46","tags":["story","Hacker News"],"image":null,"imageAlt":null,"provider":"Hacker News","thirdPartyId":"26130104","url":"https://news.ycombinator.com/item?id=26130104","originalUrl":"https://www.reuters.com/article/retail-trading-congress-gamestop/update-1-roaring-kitty-to-testify-on-gamestop-alongside-hedge-fund-managers-idUSL1N2KJ0IU","imageRemote":"https://static.reuters.com/resources/r/?m=02&d=20210213&t=2&i=1551393678&r=LYNXMPEH1C01L&w=800","video":null,"channel":null,"channelUrl":null,"author":"IamZeroBalance","authorUrl":"https://news.ycombinator.com/user?id=IamZeroBalance","authorImage":null,"authorSlug":null,"score":172,"views":null,"sharedCount":null,"likeCount":null,"sharedContent":null,"parent":{"__typename":"HnJson","localize":[{"title":"Roaring Kitty将与对冲基金经理一起为GameStop作证。","locale":"zh"},{"title":"Roaring Kitty將與對沖基金經理一起爲GameStop作證。","locale":"zh-Hant"}]}},{"__typename":"SocialMediaPost","id":"HnPost-26132801","excerpt":"","slug":"/hn/26132801","title":"Julia 1.6: what has changed since Julia 1.0?","date":"February 14, 2021","dateISO":"2021-02-14T19:41:04.895Z","datetime":"2021-02-14 19:41","tags":["story","Hacker News"],"image":null,"imageAlt":null,"provider":"Hacker News","thirdPartyId":"26132801","url":"https://news.ycombinator.com/item?id=26132801","originalUrl":"https://www.oxinabox.net/2021/02/13/Julia-1.6-what-has-changed-since-1.0.html","imageRemote":"https://www.oxinabox.net/posts_assets/Julia-1.0-1.6-changes/julia-1.0-code-llvm.png","video":null,"channel":null,"channelUrl":null,"author":"Sukera","authorUrl":"https://news.ycombinator.com/user?id=Sukera","authorImage":null,"authorSlug":null,"score":260,"views":null,"sharedCount":null,"likeCount":null,"sharedContent":null,"parent":{"__typename":"HnJson","localize":[{"title":"Julia 1.6：从Julia 1.0开始，有什么变化？","locale":"zh"},{"title":"Julia 1.6：從Julia 1.0開始，有什麼變化？","locale":"zh-Hant"}]}},{"__typename":"SocialMediaPost","id":"HnPost-26131138","excerpt":"","slug":"/hn/26131138","title":"“Location-Based Pay” – Who Are You to Complain?","date":"February 14, 2021","dateISO":"2021-02-14T17:56:20.354Z","datetime":"2021-02-14 17:56","tags":["story","Hacker News"],"image":null,"imageAlt":null,"provider":"Hacker News","thirdPartyId":"26131138","url":"https://news.ycombinator.com/item?id=26131138","originalUrl":"https://blackshaw.substack.com/p/pay","imageRemote":"https://cdn.substack.com/image/fetch/w_1200,c_limit,f_jpg,q_auto:good,fl_progressive:steep/https%3A%2F%2Fbucketeer-e05bbc84-baa3-437e-9518-adb32be77984.s3.amazonaws.com%2Fpublic%2Fimages%2F146b234d-73fa-46df-89c7-d19c606a9324_1000x667.jpeg","video":null,"channel":null,"channelUrl":null,"author":"whoooooo123","authorUrl":"https://news.ycombinator.com/user?id=whoooooo123","authorImage":null,"authorSlug":null,"score":365,"views":null,"sharedCount":null,"likeCount":null,"sharedContent":null,"parent":{"__typename":"HnJson","localize":[{"title":"\"按位置付费\"--你凭什么投诉？","locale":"zh"},{"title":"\"按位置付費\"--你憑什麼投訴？","locale":"zh-Hant"}]}},{"__typename":"SocialMediaPost","id":"HnPost-26130320","excerpt":"","slug":"/hn/26130320","title":"GTA III and Vice City fully reverse engineered: re3","date":"February 14, 2021","dateISO":"2021-02-14T16:49:31.784Z","datetime":"2021-02-14 16:49","tags":["story","Hacker News"],"image":null,"imageAlt":null,"provider":"Hacker News","thirdPartyId":"26130320","url":"https://news.ycombinator.com/item?id=26130320","originalUrl":"https://github.com/GTAmodding/re3","imageRemote":"https://avatars.githubusercontent.com/u/24976438?s=400&v=4","video":null,"channel":null,"channelUrl":null,"author":"blewboarwastake","authorUrl":"https://news.ycombinator.com/user?id=blewboarwastake","authorImage":null,"authorSlug":null,"score":431,"views":null,"sharedCount":null,"likeCount":null,"sharedContent":null,"parent":{"__typename":"HnJson","localize":[{"title":"GTA III和副城完全逆向工程：re3","locale":"zh"},{"title":"GTA III和副城完全逆向工程：re3","locale":"zh-Hant"}]}},{"__typename":"SocialMediaPost","id":"HnPost-26131075","excerpt":"","slug":"/hn/26131075","title":"Learn Functional Programming Visually","date":"February 14, 2021","dateISO":"2021-02-14T16:49:31.784Z","datetime":"2021-02-14 16:49","tags":["story","Hacker News"],"image":null,"imageAlt":null,"provider":"Hacker News","thirdPartyId":"26131075","url":"https://news.ycombinator.com/item?id=26131075","originalUrl":"https://david-peter.de/cube-composer/","imageRemote":"https://david-peter.de/cube-composer/img/cube-composer.svg","video":null,"channel":null,"channelUrl":null,"author":"polyrand","authorUrl":"https://news.ycombinator.com/user?id=polyrand","authorImage":null,"authorSlug":null,"score":351,"views":null,"sharedCount":null,"likeCount":null,"sharedContent":null,"parent":{"__typename":"HnJson","localize":[{"title":"直观地学习功能编程","locale":"zh"},{"title":"直觀地學習功能編程","locale":"zh-Hant"}]}},{"__typename":"SocialMediaPost","id":"HnPost-26129190","excerpt":"","slug":"/hn/26129190","title":"On navigating a large codebase","date":"February 14, 2021","dateISO":"2021-02-14T11:52:00.267Z","datetime":"2021-02-14 11:52","tags":["story","Hacker News"],"image":null,"imageAlt":null,"provider":"Hacker News","thirdPartyId":"26129190","url":"https://news.ycombinator.com/item?id=26129190","originalUrl":"https://blog.royalsloth.eu/posts/on-navigating-a-large-codebase/","imageRemote":"https://blog.royalsloth.eu/images/logoOpenGraphImage_min.png","video":null,"channel":null,"channelUrl":null,"author":"mooreds","authorUrl":"https://news.ycombinator.com/user?id=mooreds","authorImage":null,"authorSlug":null,"score":273,"views":null,"sharedCount":null,"likeCount":null,"sharedContent":null,"parent":{"__typename":"HnJson","localize":[{"title":"关于浏览一个庞大的代码库","locale":"zh"},{"title":"關於瀏覽一個龐大的代碼庫","locale":"zh-Hant"}]}},{"__typename":"SocialMediaPost","id":"HnPost-26125842","excerpt":"","slug":"/hn/26125842","title":"Clubhouse user IDs, Chatroom IDs are transmitted in plaintext over the internet","date":"February 14, 2021","dateISO":"2021-02-14T09:58:36.898Z","datetime":"2021-02-14 09:58","tags":["story","Hacker News"],"image":null,"imageAlt":null,"provider":"Hacker News","thirdPartyId":"26125842","url":"https://news.ycombinator.com/item?id=26125842","originalUrl":"https://twitter.com/stanfordio/status/1360423163125919749","imageRemote":null,"video":null,"channel":null,"channelUrl":null,"author":"amrrs","authorUrl":"https://news.ycombinator.com/user?id=amrrs","authorImage":null,"authorSlug":null,"score":179,"views":null,"sharedCount":null,"likeCount":null,"sharedContent":null,"parent":{"__typename":"HnJson","localize":[{"title":"会所用户ID、聊天室ID在互联网上以明文形式传输。","locale":"zh"},{"title":"會所用戶ID、聊天室ID在互聯網上以明文形式傳輸。","locale":"zh-Hant"}]}},{"__typename":"SocialMediaPost","id":"HnPost-26126010","excerpt":"","slug":"/hn/26126010","title":"Tutorial – Write a Shell in C","date":"February 14, 2021","dateISO":"2021-02-14T06:12:37.837Z","datetime":"2021-02-14 06:12","tags":["story","Hacker News"],"image":null,"imageAlt":null,"provider":"Hacker News","thirdPartyId":"26126010","url":"https://news.ycombinator.com/item?id=26126010","originalUrl":"https://brennan.io/2015/01/16/write-a-shell-in-c/","imageRemote":"https://brennan.io/images/me.jpg","video":null,"channel":null,"channelUrl":null,"author":"mindcrime","authorUrl":"https://news.ycombinator.com/user?id=mindcrime","authorImage":null,"authorSlug":null,"score":276,"views":null,"sharedCount":null,"likeCount":null,"sharedContent":null,"parent":{"__typename":"HnJson","localize":[{"title":"教程--用C语言写一个Shell","locale":"zh"},{"title":"教程--用C語言寫一個Shell","locale":"zh-Hant"}]}},{"__typename":"SocialMediaPost","id":"HnPost-26128388","excerpt":"","slug":"/hn/26128388","title":"Show HN: M1 Chart – The stock market adjusted for the US-dollar money supply","date":"February 14, 2021","dateISO":"2021-02-14T05:29:43.719Z","datetime":"2021-02-14 05:29","tags":["story","Show HN","Hacker News"],"image":null,"imageAlt":null,"provider":"Hacker News","thirdPartyId":"26128388","url":"https://news.ycombinator.com/item?id=26128388","originalUrl":"https://m1chart.com/?ref=hn","imageRemote":"https://m1chart.com/assets/social.png?1613258495","video":null,"channel":"Show HN","channelUrl":"https://news.ycombinator.com/show","author":"pieterhg","authorUrl":"https://news.ycombinator.com/user?id=pieterhg","authorImage":null,"authorSlug":null,"score":205,"views":null,"sharedCount":null,"likeCount":null,"sharedContent":null,"parent":{"__typename":"HnJson","localize":[{"title":"显示HN：M1图--股市调整后的美圆货币供应量","locale":"zh"},{"title":"顯示HN：M1圖--股市調整後的美圓貨幣供應量","locale":"zh-Hant"}]}},{"__typename":"SocialMediaPost","id":"HnPost-26128752","excerpt":"","slug":"/hn/26128752","title":"Statement on New York Times Article","date":"February 14, 2021","dateISO":"2021-02-14T04:56:10.974Z","datetime":"2021-02-14 04:56","tags":["story","Hacker News"],"image":null,"imageAlt":null,"provider":"Hacker News","thirdPartyId":"26128752","url":"https://news.ycombinator.com/item?id=26128752","originalUrl":"https://astralcodexten.substack.com/p/statement-on-new-york-times-article","imageRemote":"https://cdn.substack.com/image/fetch/w_1200,c_limit,f_jpg,q_auto:good,fl_progressive:steep/https%3A%2F%2Fbucketeer-e05bbc84-baa3-437e-9518-adb32be77984.s3.amazonaws.com%2Fpublic%2Fimages%2Ff79365ba-cfb1-4887-ba59-d167e4cf62f1_480x393.jpeg","video":null,"channel":null,"channelUrl":null,"author":"jger15","authorUrl":"https://news.ycombinator.com/user?id=jger15","authorImage":null,"authorSlug":null,"score":863,"views":null,"sharedCount":null,"likeCount":null,"sharedContent":null,"parent":{"__typename":"HnJson","localize":[{"title":"关于《纽约时报》文章的声明","locale":"zh"},{"title":"關於《紐約時報》文章的聲明","locale":"zh-Hant"}]}},{"__typename":"SocialMediaPost","id":"HnPost-26126067","excerpt":"","slug":"/hn/26126067","title":"The worst of the two worlds: Excel meets Outlook","date":"February 14, 2021","dateISO":"2021-02-14T02:00:20.392Z","datetime":"2021-02-14 02:00","tags":["story","Hacker News"],"image":null,"imageAlt":null,"provider":"Hacker News","thirdPartyId":"26126067","url":"https://news.ycombinator.com/item?id=26126067","originalUrl":"https://adepts.of0x.cc/vba-outlook/","imageRemote":"https://adepts.of0x.cc/assets/img/ogp.png","video":null,"channel":null,"channelUrl":null,"author":"mooreds","authorUrl":"https://news.ycombinator.com/user?id=mooreds","authorImage":null,"authorSlug":null,"score":273,"views":null,"sharedCount":null,"likeCount":null,"sharedContent":null,"parent":{"__typename":"HnJson","localize":[{"title":"两个世界中最糟糕的：Excel遇上Outlook","locale":"zh"},{"title":"兩個世界中最糟糕的：Excel遇上Outlook","locale":"zh-Hant"}]}},{"__typename":"SocialMediaPost","id":"HnPost-26126455","excerpt":"","slug":"/hn/26126455","title":"Comp.lang.c Google Group has been banned","date":"February 14, 2021","dateISO":"2021-02-14T00:30:06.430Z","datetime":"2021-02-14 00:30","tags":["story","Hacker News"],"image":null,"imageAlt":null,"provider":"Hacker News","thirdPartyId":"26126455","url":"https://news.ycombinator.com/item?id=26126455","originalUrl":"https://groups.google.com/g/comp.lang.c","imageRemote":null,"video":null,"channel":null,"channelUrl":null,"author":"veltas","authorUrl":"https://news.ycombinator.com/user?id=veltas","authorImage":null,"authorSlug":null,"score":347,"views":null,"sharedCount":null,"likeCount":null,"sharedContent":null,"parent":{"__typename":"HnJson","localize":[{"title":"Comp.lang.c谷歌小组被禁止了","locale":"zh"},{"title":"Comp.lang.c谷歌小組被禁止了","locale":"zh-Hant"}]}},{"__typename":"SocialMediaPost","id":"HnPost-26125145","excerpt":"","slug":"/hn/26125145","title":"US raises ‘deep concerns’ over WHO report on Covid’s Wuhan origins","date":"February 13, 2021","dateISO":"2021-02-13T22:23:40.835Z","datetime":"2021-02-13 22:23","tags":["story","Hacker News"],"image":null,"imageAlt":null,"provider":"Hacker News","thirdPartyId":"26125145","url":"https://news.ycombinator.com/item?id=26125145","originalUrl":"https://www.reuters.com/article/us-health-coronavirus-usa-idUSKBN2AD0FX","imageRemote":"https://static.reuters.com/resources/r/?m=02&d=20210213&t=2&i=1551432367&r=LYNXMPEH1C0BQ&w=800","video":null,"channel":null,"channelUrl":null,"author":"lazycrazyowl","authorUrl":"https://news.ycombinator.com/user?id=lazycrazyowl","authorImage":null,"authorSlug":null,"score":502,"views":null,"sharedCount":null,"likeCount":null,"sharedContent":null,"parent":{"__typename":"HnJson","localize":[{"title":"美国对世卫组织关于科维德武汉产地的报告提出 \"深切关注","locale":"zh"},{"title":"美國對世衛組織關於科維德武漢產地的報告提出 \"深切關注","locale":"zh-Hant"}]}},{"__typename":"SocialMediaPost","id":"HnPost-26125605","excerpt":"","slug":"/hn/26125605","title":"AirPods Causing Tinnitus (600+ reports since 2019?)","date":"February 13, 2021","dateISO":"2021-02-13T21:57:54.386Z","datetime":"2021-02-13 21:57","tags":["story","Hacker News"],"image":null,"imageAlt":null,"provider":"Hacker News","thirdPartyId":"26125605","url":"https://news.ycombinator.com/item?id=26125605","originalUrl":"https://discussions.apple.com/thread/250886390","imageRemote":"https://discussions.apple.com/public/assets/avatars/SYSTEM_DEFAULT_AVATAR_EN_8999.png","video":null,"channel":null,"channelUrl":null,"author":"albertTJames","authorUrl":"https://news.ycombinator.com/user?id=albertTJames","authorImage":null,"authorSlug":null,"score":231,"views":null,"sharedCount":null,"likeCount":null,"sharedContent":null,"parent":{"__typename":"HnJson","localize":[{"title":"AirPods导致耳鸣（2019年以来600多起报道？","locale":"zh"},{"title":"AirPods導致耳鳴（2019年以來600多起報道？","locale":"zh-Hant"}]}},{"__typename":"SocialMediaPost","id":"HnPost-26126183","excerpt":"","slug":"/hn/26126183","title":"50 Years Ago, Sugar Industry Quietly Paid Scientists to Blame Fat (2016)","date":"February 13, 2021","dateISO":"2021-02-13T21:19:08.901Z","datetime":"2021-02-13 21:19","tags":["story","Hacker News"],"image":null,"imageAlt":null,"provider":"Hacker News","thirdPartyId":"26126183","url":"https://news.ycombinator.com/item?id=26126183","originalUrl":"https://www.npr.org/sections/thetwo-way/2016/09/13/493739074/50-years-ago-sugar-industry-quietly-paid-scientists-to-point-blame-at-fat","imageRemote":"https://media.npr.org/assets/img/2016/09/13/sugar_wide-c334d683622a1f40a8f97f8acc8199a44f233e68.jpg?s=1400","video":null,"channel":null,"channelUrl":null,"author":"mgh2","authorUrl":"https://news.ycombinator.com/user?id=mgh2","authorImage":null,"authorSlug":null,"score":788,"views":null,"sharedCount":null,"likeCount":null,"sharedContent":null,"parent":{"__typename":"HnJson","localize":[{"title":"50年前，糖业悄悄付钱给科学家，让他们把责任推给脂肪(2016)","locale":"zh"},{"title":"50年前，糖業悄悄付錢給科學家，讓他們把責任推給脂肪(2016)","locale":"zh-Hant"}]}},{"__typename":"SocialMediaPost","id":"HnPost-26125063","excerpt":"","slug":"/hn/26125063","title":"Ziglings: Learn the Zig programming language by fixing tiny broken programs","date":"February 13, 2021","dateISO":"2021-02-13T20:44:00.126Z","datetime":"2021-02-13 20:44","tags":["story","Hacker News"],"image":null,"imageAlt":null,"provider":"Hacker News","thirdPartyId":"26125063","url":"https://news.ycombinator.com/item?id=26125063","originalUrl":"https://github.com/ratfactor/ziglings","imageRemote":"https://avatars.githubusercontent.com/u/1458409?s=400&v=4","video":null,"channel":null,"channelUrl":null,"author":"DyslexicAtheist","authorUrl":"https://news.ycombinator.com/user?id=DyslexicAtheist","authorImage":null,"authorSlug":null,"score":396,"views":null,"sharedCount":null,"likeCount":null,"sharedContent":null,"parent":{"__typename":"HnJson","localize":[{"title":"Ziglings。学习Zig编程语言，修复微小的破损程序。","locale":"zh"},{"title":"Ziglings。學習Zig編程語言，修復微小的破損程序。","locale":"zh-Hant"}]}},{"__typename":"SocialMediaPost","id":"HnPost-26125003","excerpt":"","slug":"/hn/26125003","title":"Our Brutal Science System Almost Cost Us a Pioneer of mRNA Vaccines","date":"February 13, 2021","dateISO":"2021-02-13T20:34:03.706Z","datetime":"2021-02-13 20:34","tags":["story","Hacker News"],"image":null,"imageAlt":null,"provider":"Hacker News","thirdPartyId":"26125003","url":"https://news.ycombinator.com/item?id=26125003","originalUrl":"https://www.wbur.org/commonhealth/2021/02/12/brutal-science-system-mrna-pioneer","imageRemote":"http://d279m997dpfwgl.cloudfront.net/wp/2020/12/GettyImages-1230011480-1000x667.jpg","video":null,"channel":null,"channelUrl":null,"author":"dsr12","authorUrl":"https://news.ycombinator.com/user?id=dsr12","authorImage":null,"authorSlug":null,"score":565,"views":null,"sharedCount":null,"likeCount":null,"sharedContent":null,"parent":{"__typename":"HnJson","localize":[{"title":"我们残酷的科学体系几乎让我们失去了一个mRNA疫苗的先驱者","locale":"zh"},{"title":"我們殘酷的科學體系幾乎讓我們失去了一個mRNA疫苗的先驅者","locale":"zh-Hant"}]}}]}},"pageContext":{"basePath":"/","pageType":"tag","tag":"story","tagsFilter":{"id":{"glob":"!*Post-1"}},"filter":{"id":{"glob":"!*Post-1"},"tags":{"eq":"story"}},"limit":25,"skip":850,"total":2599,"totalPages":104,"currentPage":35,"maxWidth":1024,"maxHeight":512,"locale":"zh-Hant","hrefLang":"zh-Hant","originalPath":"/tags/story/page/35","dateFormat":"YYYY-MM-DD"}},"staticQueryHashes":["1239077767","2506312863","2744905544","3025052997","3493603132","3493603132","3513215887","386998304"]}