{"componentChunkName":"component---gatsby-theme-buzzing-src-gatsby-theme-timeline-templates-posts-query-js","path":"/tags/reddit/page/31","result":{"data":{"site":{"siteMetadata":{"title":"Reddit 热门","description":"用中文浏览Reddit热门内容","social":[{"name":"Twitter","url":"https://twitter.com/gatsbyjs","external":null,"prefetch":null},{"name":"GitHub","url":"https://github.com/gatsbyjs","external":null,"prefetch":null}],"menuLinks":[],"localize":[{"locale":"en","title":"Buzzing on Reddit","description":"See what's buzzing on Reddit in your native language","social":[{"name":"Reddit","url":"https://www.reddit.com/","external":true,"prefetch":null}],"menuLinks":[{"name":"Weekly Selection","url":"/issues","external":null,"prefetch":null},{"name":"RSS","url":"/rss.xml","external":null,"prefetch":false}]},{"locale":"zh-Hant","title":"Reddit 熱門","description":"用中文瀏覽Reddit熱門內容","social":null,"menuLinks":null}]}},"tagsGroup":{"group":[{"fieldValue":"ASK HN","totalCount":22},{"fieldValue":"Bitcoin","totalCount":3},{"fieldValue":"Hacker News","totalCount":906},{"fieldValue":"Poll","totalCount":1},{"fieldValue":"Show HN","totalCount":34},{"fieldValue":"investing","totalCount":194},{"fieldValue":"poll","totalCount":1},{"fieldValue":"reddit","totalCount":752},{"fieldValue":"science","totalCount":1},{"fieldValue":"stocks","totalCount":330},{"fieldValue":"story","totalCount":905},{"fieldValue":"tweet","totalCount":272},{"fieldValue":"wallstreetbets","totalCount":228}]},"allBlogPost":{"nodes":[{"__typename":"SocialMediaPost","id":"RedditPost-k9sfem","excerpt":"https://www.thestreet.com/investing/tesla-trading-at-650-gets-90-price-target-from-jp-morgan\n\n\n\n> JPMorgan analyst Ryan Brinkman has told clients not to increase their holdings\n> in Tesla to approximate its weight in the S&P 500 ahead of its inclusion to\n> the benchmark on December 21.","slug":"/reddit/r/stocks/comments/k9sfem/tesla_trading_at_650_gets_90_price_target_from/","title":"Tesla, Trading at $650, Gets $90 Price Target From JPMorgan","date":"December 14, 2020","dateISO":"2020-12-14T11:28:17.000Z","datetime":"2020-12-14 11:28","tags":["stocks","reddit"],"image":null,"imageAlt":null,"provider":"Reddit","thirdPartyId":"k9sfem","url":"https://www.reddit.com/r/stocks/comments/k9sfem/tesla_trading_at_650_gets_90_price_target_from/","originalUrl":"https://www.reddit.com/r/stocks/comments/k9sfem/tesla_trading_at_650_gets_90_price_target_from/","imageRemote":null,"video":null,"channel":"stocks","channelUrl":"https://www.reddit.com/r/stocks","author":"thatshopifyguy","authorUrl":"https://www.reddit.com/user/thatshopifyguy","authorImage":null,"authorSlug":"thatshopifyguy","score":2280,"views":null,"sharedCount":null,"likeCount":null,"sharedContent":null,"parent":{"__typename":"RedditJson","localize":[{"title":"特斯拉，交易价格650美元，从摩根大通获得90美元的目标价","the_new_excerpt":"https://www.thestreet.com/investing/tesla-trading-at-650-gets-90-price-target-from-jp-morgan\n\n\n\n>摩根大通分析师Ryan Brinkman告诉客户不要增持\n>在特斯拉，以接近其在标准普尔500指数中的权重，然后将其纳入\n>12月21日的基准。","locale":"zh"},{"title":"特斯拉，交易價格650美元，從摩根大通獲得90美元的目標價","the_new_excerpt":"https://www.thestreet.com/investing/tesla-trading-at-650-gets-90-price-target-from-jp-morgan\n\n\n\n>摩根大通分析師Ryan Brinkman告訴客戶不要增持\n>在特斯拉，以接近其在標準普爾500指數中的權重，然後將其納入\n>12月21日的基準。","locale":"zh-Hant"}]}},{"__typename":"SocialMediaPost","id":"RedditPost-kagdre","excerpt":"You're a complete and utter fool. Let's take a look at the issues:\n\n1) No moat at all. Sure they have 50% market share but there are competitors.\nThey're a delivery service - anyone can do what they do. Not only does this pose\na risk to market share, but it poses a huge risk to the already thin…","slug":"/reddit/r/stocks/comments/kagdre/if_you_bought_doordash_at_180/","title":"If you bought DoorDash at $180...","date":"December 14, 2020","dateISO":"2020-12-14T11:28:17.000Z","datetime":"2020-12-14 11:28","tags":["stocks","reddit"],"image":null,"imageAlt":null,"provider":"Reddit","thirdPartyId":"kagdre","url":"https://www.reddit.com/r/stocks/comments/kagdre/if_you_bought_doordash_at_180/","originalUrl":"https://www.reddit.com/r/stocks/comments/kagdre/if_you_bought_doordash_at_180/","imageRemote":null,"video":null,"channel":"stocks","channelUrl":"https://www.reddit.com/r/stocks","author":"SirGasleak","authorUrl":"https://www.reddit.com/user/SirGasleak","authorImage":null,"authorSlug":"SirGasleak","score":4034,"views":null,"sharedCount":null,"likeCount":null,"sharedContent":null,"parent":{"__typename":"RedditJson","localize":[{"title":"如果你花180美元买了DoorDash.","the_new_excerpt":"你是个彻头彻尾的傻瓜。让我们来看看这些问题：\n\n1)没有护城河。当然，他们有50%的市场份额，但也有竞争对手。\n他们是送货服务-任何人都可以做他们做的事情。这个姿势不仅是\n这是对市场份额的风险，但对已经很薄的…构成了巨大的风险","locale":"zh"},{"title":"如果你花180美元買了DoorDash.","the_new_excerpt":"你是個徹頭徹尾的傻瓜。讓我們來看看這些問題：\n\n1)沒有護城河。當然，他們有50%的市場份額，但也有競爭對手。\n他們是送貨服務-任何人都可以做他們做的事情。這個姿勢不僅是\n這是對市場份額的風險，但對已經很薄的…構成了巨大的風險","locale":"zh-Hant"}]}}]}},"pageContext":{"basePath":"/","pageType":"tag","tag":"reddit","tagsFilter":{"id":{"glob":"!*Post-1"}},"filter":{"id":{"glob":"!*Post-1"},"tags":{"eq":"reddit"}},"limit":25,"skip":750,"total":752,"totalPages":31,"currentPage":31,"maxWidth":1024,"maxHeight":512,"locale":"zh","hrefLang":"zh-Hans","originalPath":"/tags/reddit/page/31","dateFormat":"YYYY-MM-DD"}},"staticQueryHashes":["1239077767","2506312863","2744905544","3025052997","3493603132","3493603132","3513215887","386998304"]}