{"componentChunkName":"component---gatsby-theme-buzzing-src-gatsby-theme-timeline-templates-posts-query-js","path":"/zh-Hant/tags/story/page/55","result":{"data":{"site":{"siteMetadata":{"title":"Reddit 热门","description":"用中文浏览Reddit热门内容","social":[{"name":"Twitter","url":"https://twitter.com/gatsbyjs","external":null,"prefetch":null},{"name":"GitHub","url":"https://github.com/gatsbyjs","external":null,"prefetch":null}],"menuLinks":[],"localize":[{"locale":"en","title":"Buzzing on Reddit","description":"See what's buzzing on Reddit in your native language","social":[{"name":"Reddit","url":"https://www.reddit.com/","external":true,"prefetch":null}],"menuLinks":[{"name":"Weekly Selection","url":"/issues","external":null,"prefetch":null},{"name":"RSS","url":"/rss.xml","external":null,"prefetch":false}]},{"locale":"zh-Hant","title":"Reddit 熱門","description":"用中文瀏覽Reddit熱門內容","social":null,"menuLinks":null}]}},"tagsGroup":{"group":[{"fieldValue":"ASK HN","totalCount":44},{"fieldValue":"Bitcoin","totalCount":4},{"fieldValue":"Hacker News","totalCount":2600},{"fieldValue":"Poll","totalCount":1},{"fieldValue":"SaveAMC","totalCount":1},{"fieldValue":"Show HN","totalCount":89},{"fieldValue":"bitcoin","totalCount":3},{"fieldValue":"investing","totalCount":797},{"fieldValue":"poll","totalCount":1},{"fieldValue":"reddit","totalCount":4938},{"fieldValue":"science","totalCount":1},{"fieldValue":"stocks","totalCount":1592},{"fieldValue":"story","totalCount":2599},{"fieldValue":"tweet","totalCount":814},{"fieldValue":"wallstreetbets","totalCount":2549}]},"allBlogPost":{"nodes":[{"__typename":"SocialMediaPost","id":"HnPost-25916513","excerpt":"","slug":"/hn/25916513","title":"Firefox 85 Cracks Down on Supercookies","date":"January 26, 2021","dateISO":"2021-01-26T17:37:25.432Z","datetime":"2021-01-26 17:37","tags":["story","Hacker News"],"image":null,"imageAlt":null,"provider":"Hacker News","thirdPartyId":"25916513","url":"https://news.ycombinator.com/item?id=25916513","originalUrl":"https://blog.mozilla.org/security/2021/01/26/supercookie-protections/","imageRemote":null,"video":null,"channel":null,"channelUrl":null,"author":"todsacerdoti","authorUrl":"https://news.ycombinator.com/user?id=todsacerdoti","authorImage":null,"authorSlug":null,"score":367,"views":null,"sharedCount":null,"likeCount":null,"sharedContent":null,"parent":{"__typename":"HnJson","localize":[{"title":"火狐85打击超级cookies","locale":"zh"},{"title":"火狐85打擊超級cookies","locale":"zh-Hant"}]}},{"__typename":"SocialMediaPost","id":"HnPost-25915023","excerpt":"","slug":"/hn/25915023","title":"Postgres scaling advice","date":"January 26, 2021","dateISO":"2021-01-26T16:09:48.303Z","datetime":"2021-01-26 16:09","tags":["story","Hacker News"],"image":null,"imageAlt":null,"provider":"Hacker News","thirdPartyId":"25915023","url":"https://news.ycombinator.com/item?id=25915023","originalUrl":"https://www.cybertec-postgresql.com/en/postgres-scaling-advice-for-2021/","imageRemote":"https://www.cybertec-postgresql.com/wp-content/uploads/2021/01/Postgres-scaling-advice-for-2021_Zeichenfl%C3%A4che-1.jpg","video":null,"channel":null,"channelUrl":null,"author":"BrentOzar","authorUrl":"https://news.ycombinator.com/user?id=BrentOzar","authorImage":null,"authorSlug":null,"score":180,"views":null,"sharedCount":null,"likeCount":null,"sharedContent":null,"parent":{"__typename":"HnJson","localize":[{"title":"Postgres的扩展建议","locale":"zh"},{"title":"Postgres的擴展建議","locale":"zh-Hant"}]}},{"__typename":"SocialMediaPost","id":"HnPost-25915896","excerpt":"","slug":"/hn/25915896","title":"Firefox 85","date":"January 26, 2021","dateISO":"2021-01-26T15:47:11.005Z","datetime":"2021-01-26 15:47","tags":["story","Hacker News"],"image":null,"imageAlt":null,"provider":"Hacker News","thirdPartyId":"25915896","url":"https://news.ycombinator.com/item?id=25915896","originalUrl":"https://www.mozilla.org/en-US/firefox/85.0/releasenotes/","imageRemote":"https://www.mozilla.org/media/protocol/img/logos/firefox/browser/og.4ad05d4125a5.png","video":null,"channel":null,"channelUrl":null,"author":"amake","authorUrl":"https://news.ycombinator.com/user?id=amake","authorImage":null,"authorSlug":null,"score":163,"views":null,"sharedCount":null,"likeCount":null,"sharedContent":null,"parent":{"__typename":"HnJson","localize":[{"title":"火狐85","locale":"zh"},{"title":"火狐85","locale":"zh-Hant"}]}},{"__typename":"SocialMediaPost","id":"HnPost-25914112","excerpt":"","slug":"/hn/25914112","title":"System separation in the Continental Europe Synchronous Area on 8 January 2021","date":"January 26, 2021","dateISO":"2021-01-26T13:40:36.048Z","datetime":"2021-01-26 13:40","tags":["story","Hacker News"],"image":null,"imageAlt":null,"provider":"Hacker News","thirdPartyId":"25914112","url":"https://news.ycombinator.com/item?id=25914112","originalUrl":"https://www.entsoe.eu/news/2021/01/26/system-separation-in-the-continental-europe-synchronous-area-on-8-january-2021-2nd-update/","imageRemote":"https://www.entsoe.eu/Style%20Library/EntsoePublishingBranding/Images/entsoe-logo1.png","video":null,"channel":null,"channelUrl":null,"author":"andreasley","authorUrl":"https://news.ycombinator.com/user?id=andreasley","authorImage":null,"authorSlug":null,"score":170,"views":null,"sharedCount":null,"likeCount":null,"sharedContent":null,"parent":{"__typename":"HnJson","localize":[{"title":"2021年1月8日欧洲大陆同步区的系统分离。","locale":"zh"},{"title":"2021年1月8日歐洲大陸同步區的系統分離。","locale":"zh-Hant"}]}},{"__typename":"SocialMediaPost","id":"HnPost-25905829","excerpt":"","slug":"/hn/25905829","title":"Introducing Open Web Docs","date":"January 26, 2021","dateISO":"2021-01-26T13:14:34.388Z","datetime":"2021-01-26 13:14","tags":["story","Hacker News"],"image":null,"imageAlt":null,"provider":"Hacker News","thirdPartyId":"25905829","url":"https://news.ycombinator.com/item?id=25905829","originalUrl":"https://opencollective.com/open-web-docs/updates/introducing-open-web-docs","imageRemote":"https://images.opencollective.com/open-web-docs/7e9997a/logo.png","video":null,"channel":null,"channelUrl":null,"author":"kylealden","authorUrl":"https://news.ycombinator.com/user?id=kylealden","authorImage":null,"authorSlug":null,"score":183,"views":null,"sharedCount":null,"likeCount":null,"sharedContent":null,"parent":{"__typename":"HnJson","localize":[{"title":"开放式网络文档介绍","locale":"zh"},{"title":"開放式網絡文檔介紹","locale":"zh-Hant"}]}},{"__typename":"SocialMediaPost","id":"HnPost-25910869","excerpt":"","slug":"/hn/25910869","title":"New campaign targeting security researchers","date":"January 26, 2021","dateISO":"2021-01-26T13:14:34.388Z","datetime":"2021-01-26 13:14","tags":["story","Hacker News"],"image":null,"imageAlt":null,"provider":"Hacker News","thirdPartyId":"25910869","url":"https://news.ycombinator.com/item?id=25910869","originalUrl":"https://blog.google/threat-analysis-group/new-campaign-targeting-security-researchers/","imageRemote":"https://blog.google/static/blogv2/images/google-1000x1000.png","video":null,"channel":null,"channelUrl":null,"author":"el_duderino","authorUrl":"https://news.ycombinator.com/user?id=el_duderino","authorImage":null,"authorSlug":null,"score":180,"views":null,"sharedCount":null,"likeCount":null,"sharedContent":null,"parent":{"__typename":"HnJson","localize":[{"title":"针对安全研究人员的新活动","locale":"zh"},{"title":"針對安全研究人員的新活動","locale":"zh-Hant"}]}},{"__typename":"SocialMediaPost","id":"HnPost-25911687","excerpt":"","slug":"/hn/25911687","title":"The Battle of GameStop","date":"January 26, 2021","dateISO":"2021-01-26T13:14:34.388Z","datetime":"2021-01-26 13:14","tags":["story","Hacker News"],"image":null,"imageAlt":null,"provider":"Hacker News","thirdPartyId":"25911687","url":"https://news.ycombinator.com/item?id=25911687","originalUrl":"https://paranoidenough.com/2021/01/25/The-Battle-of-Gamestop.html","imageRemote":"https://paranoidenough.com/assets/wsb.jpg","video":null,"channel":null,"channelUrl":null,"author":"gringoDan","authorUrl":"https://news.ycombinator.com/user?id=gringoDan","authorImage":null,"authorSlug":null,"score":176,"views":null,"sharedCount":null,"likeCount":null,"sharedContent":null,"parent":{"__typename":"HnJson","localize":[{"title":"GameStop之战","locale":"zh"},{"title":"GameStop之戰","locale":"zh-Hant"}]}},{"__typename":"SocialMediaPost","id":"HnPost-25913954","excerpt":"","slug":"/hn/25913954","title":"Grindr app issued an almost €10M GDPR fine by Norway","date":"January 26, 2021","dateISO":"2021-01-26T13:14:34.388Z","datetime":"2021-01-26 13:14","tags":["story","Hacker News"],"image":null,"imageAlt":null,"provider":"Hacker News","thirdPartyId":"25913954","url":"https://news.ycombinator.com/item?id=25913954","originalUrl":"https://noyb.eu/en/gay-dating-app-grindr-be-fined-almost-eu-10-mio","imageRemote":"https://noyb.eu/sites/default/files/styles/facebook/public/2020-01/grindr_partners-69-69-scaled_0.jpg?h=60a81d31&itok=JHoNb8fI","video":null,"channel":null,"channelUrl":null,"author":"izacus","authorUrl":"https://news.ycombinator.com/user?id=izacus","authorImage":null,"authorSlug":null,"score":179,"views":null,"sharedCount":null,"likeCount":null,"sharedContent":null,"parent":{"__typename":"HnJson","localize":[{"title":"Grindr应用被挪威开出近1000万欧元GDPR罚单","locale":"zh"},{"title":"Grindr應用被挪威開出近1000萬歐元GDPR罰單","locale":"zh-Hant"}]}},{"__typename":"SocialMediaPost","id":"HnPost-25905467","excerpt":"","slug":"/hn/25905467","title":"Launch HN: Aviron (YC W21) – High-Intensity Peloton for Rowing","date":"January 26, 2021","dateISO":"2021-01-26T11:45:21.588Z","datetime":"2021-01-26 11:45","tags":["story","Hacker News"],"image":null,"imageAlt":null,"provider":"Hacker News","thirdPartyId":"25905467","url":"https://news.ycombinator.com/item?id=25905467","originalUrl":"https://news.ycombinator.com/item?id=25905467","imageRemote":null,"video":null,"channel":null,"channelUrl":null,"author":"FullNameAndy","authorUrl":"https://news.ycombinator.com/user?id=FullNameAndy","authorImage":null,"authorSlug":null,"score":161,"views":null,"sharedCount":null,"likeCount":null,"sharedContent":null,"parent":{"__typename":"HnJson","localize":[{"title":"发射HN：Aviron(YC W21)--划船用高强度Peloton。","locale":"zh"},{"title":"發射HN：Aviron(YC W21)--划船用高強度Peloton。","locale":"zh-Hant"}]}},{"__typename":"SocialMediaPost","id":"HnPost-25910108","excerpt":"","slug":"/hn/25910108","title":"Collapse OS – bootstrap post-collapse technology","date":"January 26, 2021","dateISO":"2021-01-26T11:45:21.588Z","datetime":"2021-01-26 11:45","tags":["story","Hacker News"],"image":null,"imageAlt":null,"provider":"Hacker News","thirdPartyId":"25910108","url":"https://news.ycombinator.com/item?id=25910108","originalUrl":"https://collapseos.org/","imageRemote":null,"video":null,"channel":null,"channelUrl":null,"author":"rewir","authorUrl":"https://news.ycombinator.com/user?id=rewir","authorImage":null,"authorSlug":null,"score":165,"views":null,"sharedCount":null,"likeCount":null,"sharedContent":null,"parent":{"__typename":"HnJson","localize":[{"title":"Collapse OS - Bootstrap后崩溃技术","locale":"zh"},{"title":"Collapse OS - Bootstrap後崩潰技術","locale":"zh-Hant"}]}},{"__typename":"SocialMediaPost","id":"HnPost-25906486","excerpt":"","slug":"/hn/25906486","title":"Improving how we deploy GitHub","date":"January 26, 2021","dateISO":"2021-01-26T09:05:38.953Z","datetime":"2021-01-26 09:05","tags":["story","Hacker News"],"image":null,"imageAlt":null,"provider":"Hacker News","thirdPartyId":"25906486","url":"https://news.ycombinator.com/item?id=25906486","originalUrl":"https://github.blog/2021-01-25-improving-how-we-deploy-github/","imageRemote":"https://github.blog/wp-content/uploads/2021/01/card.png?fit=1200%2C630","video":null,"channel":null,"channelUrl":null,"author":"todsacerdoti","authorUrl":"https://news.ycombinator.com/user?id=todsacerdoti","authorImage":null,"authorSlug":null,"score":160,"views":null,"sharedCount":null,"likeCount":null,"sharedContent":null,"parent":{"__typename":"HnJson","localize":[{"title":"改进我们部署GitHub的方式","locale":"zh"},{"title":"改進我們部署GitHub的方式","locale":"zh-Hant"}]}},{"__typename":"SocialMediaPost","id":"HnPost-25908084","excerpt":"","slug":"/hn/25908084","title":"The nihilism of r/wallstreetbets","date":"January 26, 2021","dateISO":"2021-01-26T09:05:38.953Z","datetime":"2021-01-26 09:05","tags":["story","Hacker News"],"image":null,"imageAlt":null,"provider":"Hacker News","thirdPartyId":"25908084","url":"https://news.ycombinator.com/item?id=25908084","originalUrl":"https://jeromysonne.com/the-nihilism-of-r-wallstreetbets/","imageRemote":null,"video":null,"channel":null,"channelUrl":null,"author":"jsonne","authorUrl":"https://news.ycombinator.com/user?id=jsonne","authorImage":null,"authorSlug":null,"score":160,"views":null,"sharedCount":null,"likeCount":null,"sharedContent":null,"parent":{"__typename":"HnJson","localize":[{"title":"r/wallstreetbets的虚无主义。","locale":"zh"},{"title":"r/wallstreetbets的虛無主義。","locale":"zh-Hant"}]}},{"__typename":"SocialMediaPost","id":"HnPost-25909638","excerpt":"","slug":"/hn/25909638","title":"Dinosaur unearthed in Argentina could be largest land animal ever","date":"January 26, 2021","dateISO":"2021-01-26T09:05:38.953Z","datetime":"2021-01-26 09:05","tags":["story","Hacker News"],"image":null,"imageAlt":null,"provider":"Hacker News","thirdPartyId":"25909638","url":"https://news.ycombinator.com/item?id=25909638","originalUrl":"https://www.smithsonianmag.com/smart-news/dinosaur-unearthed-argentina-could-be-largest-land-animal-ever-180976813/","imageRemote":"https://thumbs-prod.si-cdn.com/BEBBL8w5_lb9mcha49MCHUDOruM=/fit-in/1600x0/filters:focal(511x346:512x347)/https://public-media.si-cdn.com/filer/b3/22/b322d390-e1de-4f19-b983-90982e9a58e8/handoutpictu.jpg","video":null,"channel":null,"channelUrl":null,"author":"gmays","authorUrl":"https://news.ycombinator.com/user?id=gmays","authorImage":null,"authorSlug":null,"score":168,"views":null,"sharedCount":null,"likeCount":null,"sharedContent":null,"parent":{"__typename":"HnJson","localize":[{"title":"阿根廷出土的恐龙可能是史上最大的陆地动物","locale":"zh"},{"title":"阿根廷出土的恐龍可能是史上最大的陸地動物","locale":"zh-Hant"}]}},{"__typename":"SocialMediaPost","id":"HnPost-25910277","excerpt":"","slug":"/hn/25910277","title":"Our Journey to PostgreSQL 12","date":"January 26, 2021","dateISO":"2021-01-26T09:05:38.953Z","datetime":"2021-01-26 09:05","tags":["story","Hacker News"],"image":null,"imageAlt":null,"provider":"Hacker News","thirdPartyId":"25910277","url":"https://news.ycombinator.com/item?id=25910277","originalUrl":"https://tech.coffeemeetsbagel.com/our-journey-to-postgresql-12-3d6ee15d305a","imageRemote":"https://miro.medium.com/max/1200/1*ON2xA0iB_H5_zrmW3TmfRQ.jpeg","video":null,"channel":null,"channelUrl":null,"author":"tommyzli","authorUrl":"https://news.ycombinator.com/user?id=tommyzli","authorImage":null,"authorSlug":null,"score":160,"views":null,"sharedCount":null,"likeCount":null,"sharedContent":null,"parent":{"__typename":"HnJson","localize":[{"title":"我们的PostgreSQL 12之旅","locale":"zh"},{"title":"我們的PostgreSQL 12之旅","locale":"zh-Hant"}]}},{"__typename":"SocialMediaPost","id":"HnPost-25912241","excerpt":"","slug":"/hn/25912241","title":"Halt and Catch Fire Syllabus","date":"January 26, 2021","dateISO":"2021-01-26T07:06:26.648Z","datetime":"2021-01-26 07:06","tags":["story","Hacker News"],"image":null,"imageAlt":null,"provider":"Hacker News","thirdPartyId":"25912241","url":"https://news.ycombinator.com/item?id=25912241","originalUrl":"https://bits.ashleyblewer.com/halt-and-catch-fire-syllabus/","imageRemote":"https://bits.ashleyblewer.com/halt-and-catch-fire-syllabus/assets/img/cam-dither.jpg","video":null,"channel":null,"channelUrl":null,"author":"gammarator","authorUrl":"https://news.ycombinator.com/user?id=gammarator","authorImage":null,"authorSlug":null,"score":160,"views":null,"sharedCount":null,"likeCount":null,"sharedContent":null,"parent":{"__typename":"HnJson","localize":[{"title":"停住脚步，抓住火苗》教学大纲","locale":"zh"},{"title":"停住腳步，抓住火苗》教學大綱","locale":"zh-Hant"}]}},{"__typename":"SocialMediaPost","id":"HnPost-25903596","excerpt":"","slug":"/hn/25903596","title":"Everything I Know","date":"January 26, 2021","dateISO":"2021-01-26T06:55:17.093Z","datetime":"2021-01-26 06:55","tags":["story","Hacker News"],"image":null,"imageAlt":null,"provider":"Hacker News","thirdPartyId":"25903596","url":"https://news.ycombinator.com/item?id=25903596","originalUrl":"https://wiki.nikitavoloboev.xyz","imageRemote":"https://app.gitbook.com/share/space/thumbnail/-LP0U0ZiMJ4gYWIek-BI.png","video":null,"channel":null,"channelUrl":null,"author":"nikivi","authorUrl":"https://news.ycombinator.com/user?id=nikivi","authorImage":null,"authorSlug":null,"score":160,"views":null,"sharedCount":null,"likeCount":null,"sharedContent":null,"parent":{"__typename":"HnJson","localize":[{"title":"我所知道的一切","locale":"zh"},{"title":"我所知道的一切","locale":"zh-Hant"}]}},{"__typename":"SocialMediaPost","id":"HnPost-25908571","excerpt":"","slug":"/hn/25908571","title":"First atomic clock wristwatch (2003)","date":"January 26, 2021","dateISO":"2021-01-26T06:55:17.093Z","datetime":"2021-01-26 06:55","tags":["story","Hacker News"],"image":null,"imageAlt":null,"provider":"Hacker News","thirdPartyId":"25908571","url":"https://news.ycombinator.com/item?id=25908571","originalUrl":"http://leapsecond.com/pages/atomic-bill/","imageRemote":"http://leapsecond.com/pages/atomic-bill/wrist-5071a1.jpg","video":null,"channel":null,"channelUrl":null,"author":"dddddaviddddd","authorUrl":"https://news.ycombinator.com/user?id=dddddaviddddd","authorImage":null,"authorSlug":null,"score":173,"views":null,"sharedCount":null,"likeCount":null,"sharedContent":null,"parent":{"__typename":"HnJson","localize":[{"title":"首款原子钟腕表(2003年)","locale":"zh"},{"title":"首款原子鐘腕錶(2003年)","locale":"zh-Hant"}]}},{"__typename":"SocialMediaPost","id":"HnPost-25909336","excerpt":"","slug":"/hn/25909336","title":"Replacing Dropbox in favor of DigitalOcean spaces","date":"January 26, 2021","dateISO":"2021-01-26T06:55:17.093Z","datetime":"2021-01-26 06:55","tags":["story","Hacker News"],"image":null,"imageAlt":null,"provider":"Hacker News","thirdPartyId":"25909336","url":"https://news.ycombinator.com/item?id=25909336","originalUrl":"https://mitjafelicijan.com/replacing-dropbox-in-favor-of-digitalocean-spaces.html","imageRemote":"https://mitjafelicijan.com/assets/dropbox-sync/dropbox-spaces.png","video":null,"channel":null,"channelUrl":null,"author":"mitjafelicijan","authorUrl":"https://news.ycombinator.com/user?id=mitjafelicijan","authorImage":null,"authorSlug":null,"score":165,"views":null,"sharedCount":null,"likeCount":null,"sharedContent":null,"parent":{"__typename":"HnJson","localize":[{"title":"取代Dropbox，改用DigitalOcean空间。","locale":"zh"},{"title":"取代Dropbox，改用DigitalOcean空間。","locale":"zh-Hant"}]}},{"__typename":"SocialMediaPost","id":"HnPost-25894420","excerpt":"","slug":"/hn/25894420","title":"PfSense Is Closed Source","date":"January 26, 2021","dateISO":"2021-01-26T05:52:48.687Z","datetime":"2021-01-26 05:52","tags":["story","Hacker News"],"image":null,"imageAlt":null,"provider":"Hacker News","thirdPartyId":"25894420","url":"https://news.ycombinator.com/item?id=25894420","originalUrl":"https://github.com/rapi3/pfsense-is-closed-source","imageRemote":"https://avatars.githubusercontent.com/u/18531150?s=400&v=4","video":null,"channel":null,"channelUrl":null,"author":"zdw","authorUrl":"https://news.ycombinator.com/user?id=zdw","authorImage":null,"authorSlug":null,"score":181,"views":null,"sharedCount":null,"likeCount":null,"sharedContent":null,"parent":{"__typename":"HnJson","localize":[{"title":"PfSense是封闭源","locale":"zh"},{"title":"PfSense是封閉源","locale":"zh-Hant"}]}},{"__typename":"SocialMediaPost","id":"HnPost-25906513","excerpt":"","slug":"/hn/25906513","title":"SpaceX sends laser-linked Starlinks to the polar orbit","date":"January 26, 2021","dateISO":"2021-01-26T05:52:48.687Z","datetime":"2021-01-26 05:52","tags":["story","Hacker News"],"image":null,"imageAlt":null,"provider":"Hacker News","thirdPartyId":"25906513","url":"https://news.ycombinator.com/item?id=25906513","originalUrl":"https://www.teslaoracle.com/2021/01/25/spacx-record-143-satellites-laser-starlinks/","imageRemote":"https://www.teslaoracle.com/wp-content/uploads/2021/01/Falcon-9-143-Satellites-Launched-Starlink.jpg","video":null,"channel":null,"channelUrl":null,"author":"CarCooler","authorUrl":"https://news.ycombinator.com/user?id=CarCooler","authorImage":null,"authorSlug":null,"score":198,"views":null,"sharedCount":null,"likeCount":null,"sharedContent":null,"parent":{"__typename":"HnJson","localize":[{"title":"SpaceX将激光链接的Starlinks送入极地轨道。","locale":"zh"},{"title":"SpaceX將激光鏈接的Starlinks送入極地軌道。","locale":"zh-Hant"}]}},{"__typename":"SocialMediaPost","id":"HnPost-25907312","excerpt":"","slug":"/hn/25907312","title":"Scaling Kubernetes to 7,500 Nodes","date":"January 26, 2021","dateISO":"2021-01-26T05:52:48.687Z","datetime":"2021-01-26 05:52","tags":["story","Hacker News"],"image":null,"imageAlt":null,"provider":"Hacker News","thirdPartyId":"25907312","url":"https://news.ycombinator.com/item?id=25907312","originalUrl":"https://openai.com/blog/scaling-kubernetes-to-7500-nodes/","imageRemote":"https://openai.com/content/images/2021/01/twitter-image-6.png","video":null,"channel":null,"channelUrl":null,"author":"sillysaurusx","authorUrl":"https://news.ycombinator.com/user?id=sillysaurusx","authorImage":null,"authorSlug":null,"score":186,"views":null,"sharedCount":null,"likeCount":null,"sharedContent":null,"parent":{"__typename":"HnJson","localize":[{"title":"将Kubernetes扩展至7500个节点","locale":"zh"},{"title":"將Kubernetes擴展至7500個節點","locale":"zh-Hant"}]}},{"__typename":"SocialMediaPost","id":"HnPost-25909428","excerpt":"","slug":"/hn/25909428","title":"Right to Repair off to the races in 2021 with 14 active states","date":"January 26, 2021","dateISO":"2021-01-26T02:06:46.896Z","datetime":"2021-01-26 02:06","tags":["story","Hacker News"],"image":null,"imageAlt":null,"provider":"Hacker News","thirdPartyId":"25909428","url":"https://news.ycombinator.com/item?id=25909428","originalUrl":"https://uspirg.org/blogs/blog/usp/right-repair-races-2021-14-active-states","imageRemote":"https://uspirg.org/sites/pirg/files/Phones-banner.png","video":null,"channel":null,"channelUrl":null,"author":"CharlesW","authorUrl":"https://news.ycombinator.com/user?id=CharlesW","authorImage":null,"authorSlug":null,"score":182,"views":null,"sharedCount":null,"likeCount":null,"sharedContent":null,"parent":{"__typename":"HnJson","localize":[{"title":"修理权在2021年与14个活跃的州展开竞选。","locale":"zh"},{"title":"修理權在2021年與14個活躍的州展開競選。","locale":"zh-Hant"}]}},{"__typename":"SocialMediaPost","id":"HnPost-25910400","excerpt":"","slug":"/hn/25910400","title":"Time-lapse of a single cell transforming into a salamander (2019)","date":"January 26, 2021","dateISO":"2021-01-26T02:06:46.896Z","datetime":"2021-01-26 02:06","tags":["story","Hacker News"],"image":null,"imageAlt":null,"provider":"Hacker News","thirdPartyId":"25910400","url":"https://news.ycombinator.com/item?id=25910400","originalUrl":"https://www.nationalgeographic.com/animals/2019/02/time-lapse-film-shows-salamander-development/","imageRemote":"https://pmdvod.nationalgeographic.com/NG_Video/772/995/smpost_1550184769850.jpg","video":null,"channel":null,"channelUrl":null,"author":"smusamashah","authorUrl":"https://news.ycombinator.com/user?id=smusamashah","authorImage":null,"authorSlug":null,"score":178,"views":null,"sharedCount":null,"likeCount":null,"sharedContent":null,"parent":{"__typename":"HnJson","localize":[{"title":"单个细胞转变为蝾螈的时间推移(2019)","locale":"zh"},{"title":"單個細胞轉變爲蠑螈的時間推移(2019)","locale":"zh-Hant"}]}},{"__typename":"SocialMediaPost","id":"HnPost-25905899","excerpt":"","slug":"/hn/25905899","title":"The Hundred-Page Machine Learning Book","date":"January 25, 2021","dateISO":"2021-01-25T23:58:52.631Z","datetime":"2021-01-25 23:58","tags":["story","Hacker News"],"image":null,"imageAlt":null,"provider":"Hacker News","thirdPartyId":"25905899","url":"https://news.ycombinator.com/item?id=25905899","originalUrl":"http://themlbook.com/","imageRemote":"http://themlbook.com/images/og-image3.png","video":null,"channel":null,"channelUrl":null,"author":"gk1","authorUrl":"https://news.ycombinator.com/user?id=gk1","authorImage":null,"authorSlug":null,"score":162,"views":null,"sharedCount":null,"likeCount":null,"sharedContent":null,"parent":{"__typename":"HnJson","localize":[{"title":"百页机器学习书","locale":"zh"},{"title":"百頁機器學習書","locale":"zh-Hant"}]}},{"__typename":"SocialMediaPost","id":"HnPost-25903277","excerpt":"","slug":"/hn/25903277","title":"Finland has slashed homelessness; the rest of Europe is failing","date":"January 25, 2021","dateISO":"2021-01-25T23:08:24.103Z","datetime":"2021-01-25 23:08","tags":["story","Hacker News"],"image":null,"imageAlt":null,"provider":"Hacker News","thirdPartyId":"25903277","url":"https://news.ycombinator.com/item?id=25903277","originalUrl":"https://www.economist.com/europe/2019/12/18/finland-has-slashed-homelessness-the-rest-of-europe-is-failing","imageRemote":"https://www.economist.com/img/b/1280/720/90/sites/default/files/images/print-edition/20191221_EUP001_0.jpg","video":null,"channel":null,"channelUrl":null,"author":"ashergill","authorUrl":"https://news.ycombinator.com/user?id=ashergill","authorImage":null,"authorSlug":null,"score":163,"views":null,"sharedCount":null,"likeCount":null,"sharedContent":null,"parent":{"__typename":"HnJson","localize":[{"title":"芬兰减少了无家可归者的人数，欧洲其他国家却没有这样做。","locale":"zh"},{"title":"芬蘭減少了無家可歸者的人數，歐洲其他國家卻沒有這樣做。","locale":"zh-Hant"}]}}]}},"pageContext":{"basePath":"/","pageType":"tag","tag":"story","tagsFilter":{"id":{"glob":"!*Post-1"}},"filter":{"id":{"glob":"!*Post-1"},"tags":{"eq":"story"}},"limit":25,"skip":1350,"total":2599,"totalPages":104,"currentPage":55,"maxWidth":1024,"maxHeight":512,"locale":"zh-Hant","hrefLang":"zh-Hant","originalPath":"/tags/story/page/55","dateFormat":"YYYY-MM-DD"}},"staticQueryHashes":["1239077767","2506312863","2744905544","3025052997","3493603132","3493603132","3513215887","386998304"]}