{"componentChunkName":"component---gatsby-theme-buzzing-src-gatsby-theme-timeline-templates-posts-query-js","path":"/page/112","result":{"data":{"site":{"siteMetadata":{"title":"Reddit 热门","description":"用中文浏览Reddit热门内容","social":[{"name":"Twitter","url":"https://twitter.com/gatsbyjs","external":null,"prefetch":null},{"name":"GitHub","url":"https://github.com/gatsbyjs","external":null,"prefetch":null}],"menuLinks":[],"localize":[{"locale":"en","title":"Buzzing on Reddit","description":"See what's buzzing on Reddit in your native language","social":[{"name":"Reddit","url":"https://www.reddit.com/","external":true,"prefetch":null}],"menuLinks":[{"name":"Weekly Selection","url":"/issues","external":null,"prefetch":null},{"name":"RSS","url":"/rss.xml","external":null,"prefetch":false}]},{"locale":"zh-Hant","title":"Reddit 熱門","description":"用中文瀏覽Reddit熱門內容","social":null,"menuLinks":null}]}},"tagsGroup":{"group":[{"fieldValue":"ASK HN","totalCount":54},{"fieldValue":"Hacker News","totalCount":3107},{"fieldValue":"Poll","totalCount":1},{"fieldValue":"Show HN","totalCount":100},{"fieldValue":"poll","totalCount":1},{"fieldValue":"story","totalCount":3106}]},"allBlogPost":{"nodes":[{"__typename":"SocialMediaPost","id":"HnPost-25520639","excerpt":"","slug":"/hn/25520639","title":"Build a tiny certificate authority for your homelab","date":"December 24, 2020","dateISO":"2020-12-24T04:49:43.180Z","datetime":"2020-12-24 04:49","tags":["story","Hacker News"],"image":null,"imageAlt":null,"provider":"Hacker News","thirdPartyId":"25520639","url":"https://news.ycombinator.com/item?id=25520639","originalUrl":"https://smallstep.com/blog/build-a-tiny-ca-with-raspberry-pi-yubikey/","imageRemote":"https://smallstep.com/images/blog/tiny-ca-unfurl.png","video":null,"channel":null,"channelUrl":null,"author":"fanf2","authorUrl":"https://news.ycombinator.com/user?id=fanf2","authorImage":null,"authorSlug":null,"score":193,"views":null,"sharedCount":null,"likeCount":null,"sharedContent":null,"parent":{"__typename":"HnJson","localize":[{"title":"为您的家庭实验室构建一个小型证书颁发机构","locale":"zh"},{"title":"爲您的家庭實驗室構建一個小型證書頒發機構","locale":"zh-Hant"}]}},{"__typename":"SocialMediaPost","id":"HnPost-25521679","excerpt":"","slug":"/hn/25521679","title":"Going All in on the Mac App Store","date":"December 24, 2020","dateISO":"2020-12-24T03:49:41.585Z","datetime":"2020-12-24 03:49","tags":["story","Hacker News"],"image":null,"imageAlt":null,"provider":"Hacker News","thirdPartyId":"25521679","url":"https://news.ycombinator.com/item?id=25521679","originalUrl":"https://www.unboundapp.com/blog/mac-app-store/","imageRemote":"https://www.unboundapp.com/images/la-jolla-web.jpg","video":null,"channel":null,"channelUrl":null,"author":"s3cur3","authorUrl":"https://news.ycombinator.com/user?id=s3cur3","authorImage":null,"authorSlug":null,"score":127,"views":null,"sharedCount":null,"likeCount":null,"sharedContent":null,"parent":{"__typename":"HnJson","localize":[{"title":"全力以赴在Mac应用商店上下注","locale":"zh"},{"title":"全力以赴在Mac應用商店上下注","locale":"zh-Hant"}]}},{"__typename":"SocialMediaPost","id":"HnPost-25521138","excerpt":"","slug":"/hn/25521138","title":"Jepsen: Scylla 4.2-rc3","date":"December 24, 2020","dateISO":"2020-12-24T02:16:59.834Z","datetime":"2020-12-24 02:16","tags":["story","Hacker News"],"image":null,"imageAlt":null,"provider":"Hacker News","thirdPartyId":"25521138","url":"https://news.ycombinator.com/item?id=25521138","originalUrl":"https://jepsen.io/analyses/scylla-4.2-rc3","imageRemote":"https://jepsen.io/images/file-pdf.svg","video":null,"channel":null,"channelUrl":null,"author":"aphyr","authorUrl":"https://news.ycombinator.com/user?id=aphyr","authorImage":null,"authorSlug":null,"score":171,"views":null,"sharedCount":null,"likeCount":null,"sharedContent":null,"parent":{"__typename":"HnJson","localize":[{"title":"杰普森：“锡拉4.2-RC3”","locale":"zh"},{"title":"傑普森：“錫拉4.2-RC3”","locale":"zh-Hant"}]}},{"__typename":"SocialMediaPost","id":"HnPost-25517050","excerpt":"","slug":"/hn/25517050","title":"Interactive C++ for Data Science","date":"December 24, 2020","dateISO":"2020-12-24T01:14:38.345Z","datetime":"2020-12-24 01:14","tags":["story","Hacker News"],"image":null,"imageAlt":null,"provider":"Hacker News","thirdPartyId":"25517050","url":"https://news.ycombinator.com/item?id=25517050","originalUrl":"https://blog.llvm.org/posts/2020-12-21-interactive-cpp-for-data-science/","imageRemote":"https://blog.llvm.org/img/cling-2020-12-21-figure1.png","video":null,"channel":null,"channelUrl":null,"author":"Bootvis","authorUrl":"https://news.ycombinator.com/user?id=Bootvis","authorImage":null,"authorSlug":null,"score":156,"views":null,"sharedCount":null,"likeCount":null,"sharedContent":null,"parent":{"__typename":"HnJson","localize":[{"title":"用于数据科学的交互式C++","locale":"zh"},{"title":"用於數據科學的交互式C++","locale":"zh-Hant"}]}},{"__typename":"SocialMediaPost","id":"HnPost-25520549","excerpt":"","slug":"/hn/25520549","title":"Web Authentication Methods Compared","date":"December 24, 2020","dateISO":"2020-12-24T01:14:38.345Z","datetime":"2020-12-24 01:14","tags":["story","Hacker News"],"image":null,"imageAlt":null,"provider":"Hacker News","thirdPartyId":"25520549","url":"https://news.ycombinator.com/item?id=25520549","originalUrl":"https://testdriven.io/blog/web-authentication-methods/","imageRemote":"https://testdriven.io/static/images/blog/web-authentication-methods/web_authentication_methods.png","video":null,"channel":null,"channelUrl":null,"author":"luord","authorUrl":"https://news.ycombinator.com/user?id=luord","authorImage":null,"authorSlug":null,"score":180,"views":null,"sharedCount":null,"likeCount":null,"sharedContent":null,"parent":{"__typename":"HnJson","localize":[{"title":"比较Web身份验证方法","locale":"zh"},{"title":"比較Web身份驗證方法","locale":"zh-Hant"}]}},{"__typename":"SocialMediaPost","id":"HnPost-25519176","excerpt":"","slug":"/hn/25519176","title":"MuZero: Mastering Go, chess, shogi and Atari without rules","date":"December 23, 2020","dateISO":"2020-12-23T23:35:56.001Z","datetime":"2020-12-23 23:35","tags":["story","Hacker News"],"image":null,"imageAlt":null,"provider":"Hacker News","thirdPartyId":"25519176","url":"https://news.ycombinator.com/item?id=25519176","originalUrl":"https://deepmind.com/blog/article/muzero-mastering-go-chess-shogi-and-atari-without-rules","imageRemote":"https://lh3.googleusercontent.com/1_D5dKtTSzSN2-CemHJHMiQzJVV5slBcVZMkBQKZQUV80JvlsKPRpuInNpCoxg5uMSNB3k0lg1ZmmSRQ-sq5THfQJW5VcqovJVKXMw","video":null,"channel":null,"channelUrl":null,"author":"johannesha","authorUrl":"https://news.ycombinator.com/user?id=johannesha","authorImage":null,"authorSlug":null,"score":196,"views":null,"sharedCount":null,"likeCount":null,"sharedContent":null,"parent":{"__typename":"HnJson","localize":[{"title":"MuZero：在没有规则的情况下掌握围棋、国际象棋、幕府和雅达利","locale":"zh"},{"title":"MuZero：在沒有規則的情況下掌握圍棋、國際象棋、幕府和雅達利","locale":"zh-Hant"}]}},{"__typename":"SocialMediaPost","id":"HnPost-25521836","excerpt":"","slug":"/hn/25521836","title":"How We Saved Dot Org","date":"December 23, 2020","dateISO":"2020-12-23T23:03:29.004Z","datetime":"2020-12-23 23:03","tags":["story","Hacker News"],"image":null,"imageAlt":null,"provider":"Hacker News","thirdPartyId":"25521836","url":"https://news.ycombinator.com/item?id=25521836","originalUrl":"https://www.eff.org/deeplinks/2020/12/how-we-saved-org-2020-review","imageRemote":"https://www.eff.org/files/banner_library/2020-dark-2.jpg","video":null,"channel":null,"channelUrl":null,"author":"thomasahle","authorUrl":"https://news.ycombinator.com/user?id=thomasahle","authorImage":null,"authorSlug":null,"score":1184,"views":null,"sharedCount":null,"likeCount":null,"sharedContent":null,"parent":{"__typename":"HnJson","localize":[{"title":"我们如何拯救Dot Org","locale":"zh"},{"title":"我們如何拯救Dot Org","locale":"zh-Hant"}]}},{"__typename":"SocialMediaPost","id":"HnPost-25520655","excerpt":"","slug":"/hn/25520655","title":"How to Favicon in 2021: Six files that fit most needs","date":"December 23, 2020","dateISO":"2020-12-23T22:39:31.048Z","datetime":"2020-12-23 22:39","tags":["story","Hacker News"],"image":null,"imageAlt":null,"provider":"Hacker News","thirdPartyId":"25520655","url":"https://news.ycombinator.com/item?id=25520655","originalUrl":"https://evilmartians.com/chronicles/how-to-favicon-in-2021-six-files-that-fit-most-needs","imageRemote":"https://cdn.evilmartians.com/front/blocks/common/images/social-5e5bfff.png","video":null,"channel":null,"channelUrl":null,"author":"iskin","authorUrl":"https://news.ycombinator.com/user?id=iskin","authorImage":null,"authorSlug":null,"score":349,"views":null,"sharedCount":null,"likeCount":null,"sharedContent":null,"parent":{"__typename":"HnJson","localize":[{"title":"2021年如何宠爱图标：最适合需求的六个文件","locale":"zh"},{"title":"2021年如何寵愛圖標：最適合需求的六個文件","locale":"zh-Hant"}]}},{"__typename":"SocialMediaPost","id":"HnPost-25518730","excerpt":"","slug":"/hn/25518730","title":"Tips for a Better Life","date":"December 23, 2020","dateISO":"2020-12-23T22:05:16.017Z","datetime":"2020-12-23 22:05","tags":["story","Hacker News"],"image":null,"imageAlt":null,"provider":"Hacker News","thirdPartyId":"25518730","url":"https://news.ycombinator.com/item?id=25518730","originalUrl":"https://www.lesswrong.com/posts/7hFeMWC6Y5eaSixbD/100-tips-for-a-better-life","imageRemote":"https://res.cloudinary.com/lesswrong-2-0/image/upload/v1503704344/sequencesgrid/h6vrwdypijqgsop7xwa0.jpg","video":null,"channel":null,"channelUrl":null,"author":"CapitalistCartr","authorUrl":"https://news.ycombinator.com/user?id=CapitalistCartr","authorImage":null,"authorSlug":null,"score":1257,"views":null,"sharedCount":null,"likeCount":null,"sharedContent":null,"parent":{"__typename":"HnJson","localize":[{"title":"让生活更美好的小贴士","locale":"zh"},{"title":"讓生活更美好的小貼士","locale":"zh-Hant"}]}},{"__typename":"SocialMediaPost","id":"HnPost-25521487","excerpt":"","slug":"/hn/25521487","title":"UX Issues with Notion","date":"December 23, 2020","dateISO":"2020-12-23T22:05:16.017Z","datetime":"2020-12-23 22:05","tags":["story","Hacker News"],"image":null,"imageAlt":null,"provider":"Hacker News","thirdPartyId":"25521487","url":"https://news.ycombinator.com/item?id=25521487","originalUrl":"https://telegra.ph/Notion-is-a-UX-Disaster-12-23","imageRemote":null,"video":null,"channel":null,"channelUrl":null,"author":"g7r","authorUrl":"https://news.ycombinator.com/user?id=g7r","authorImage":null,"authorSlug":null,"score":209,"views":null,"sharedCount":null,"likeCount":null,"sharedContent":null,"parent":{"__typename":"HnJson","localize":[{"title":"UX与概念相关的问题","locale":"zh"},{"title":"UX與概念相關的問題","locale":"zh-Hant"}]}},{"__typename":"SocialMediaPost","id":"HnPost-25520510","excerpt":"","slug":"/hn/25520510","title":"Comic Mono","date":"December 23, 2020","dateISO":"2020-12-23T20:32:18.387Z","datetime":"2020-12-23 20:32","tags":["story","Hacker News"],"image":null,"imageAlt":null,"provider":"Hacker News","thirdPartyId":"25520510","url":"https://news.ycombinator.com/item?id=25520510","originalUrl":"https://dtinth.github.io/comic-mono-font/","imageRemote":"https://repository-images.githubusercontent.com/164606802/cd83d680-894c-11e9-83f7-c353c70df1cb","video":null,"channel":null,"channelUrl":null,"author":"thesephist","authorUrl":"https://news.ycombinator.com/user?id=thesephist","authorImage":null,"authorSlug":null,"score":639,"views":null,"sharedCount":null,"likeCount":null,"sharedContent":null,"parent":{"__typename":"HnJson","localize":[{"title":"漫画单声道","locale":"zh"},{"title":"漫畫單聲道","locale":"zh-Hant"}]}},{"__typename":"SocialMediaPost","id":"HnPost-25520729","excerpt":"","slug":"/hn/25520729","title":"Google/Fitbit will monetise health data and harm consumers [pdf]","date":"December 23, 2020","dateISO":"2020-12-23T20:32:18.387Z","datetime":"2020-12-23 20:32","tags":["story","Hacker News"],"image":null,"imageAlt":null,"provider":"Hacker News","thirdPartyId":"25520729","url":"https://news.ycombinator.com/item?id=25520729","originalUrl":"https://cepr.org/sites/default/files/policy_insights/PolicyInsight107.pdf","imageRemote":null,"video":null,"channel":null,"channelUrl":null,"author":"partingshots","authorUrl":"https://news.ycombinator.com/user?id=partingshots","authorImage":null,"authorSlug":null,"score":302,"views":null,"sharedCount":null,"likeCount":null,"sharedContent":null,"parent":{"__typename":"HnJson","localize":[{"title":"谷歌/Fitbit将把健康数据货币化并伤害消费者[pdf]","locale":"zh"},{"title":"谷歌/Fitbit將把健康數據貨幣化並傷害消費者[pdf]","locale":"zh-Hant"}]}},{"__typename":"SocialMediaPost","id":"HnPost-25520353","excerpt":"","slug":"/hn/25520353","title":"Tokio, the async runtime for Rust, hits 1.0","date":"December 23, 2020","dateISO":"2020-12-23T19:33:50.552Z","datetime":"2020-12-23 19:33","tags":["story","Hacker News"],"image":null,"imageAlt":null,"provider":"Hacker News","thirdPartyId":"25520353","url":"https://news.ycombinator.com/item?id=25520353","originalUrl":"https://tokio.rs/blog/2020-12-tokio-1-0","imageRemote":"https://tokio.rs/img/tokio-horizontal.svg","video":null,"channel":null,"channelUrl":null,"author":"carllerche","authorUrl":"https://news.ycombinator.com/user?id=carllerche","authorImage":null,"authorSlug":null,"score":768,"views":null,"sharedCount":null,"likeCount":null,"sharedContent":null,"parent":{"__typename":"HnJson","localize":[{"title":"Rust的异步运行时Tokio达到了1.0","locale":"zh"},{"title":"Rust的異步運行時Tokio達到了1.0","locale":"zh-Hant"}]}},{"__typename":"SocialMediaPost","id":"HnPost-25520481","excerpt":"","slug":"/hn/25520481","title":"No, Cellebrite Cannot “Break Signal Encryption”","date":"December 23, 2020","dateISO":"2020-12-23T19:33:50.552Z","datetime":"2020-12-23 19:33","tags":["story","Hacker News"],"image":null,"imageAlt":null,"provider":"Hacker News","thirdPartyId":"25520481","url":"https://news.ycombinator.com/item?id=25520481","originalUrl":"https://signal.org/blog/cellebrite-and-clickbait/","imageRemote":"https://signal.org/assets/og/og-image-ff2096df535eee499356de64b19fa8cebb9681ab1e78cca7330e7f8b8d5ec6d5.png","video":null,"channel":null,"channelUrl":null,"author":"hprotagonist","authorUrl":"https://news.ycombinator.com/user?id=hprotagonist","authorImage":null,"authorSlug":null,"score":643,"views":null,"sharedCount":null,"likeCount":null,"sharedContent":null,"parent":{"__typename":"HnJson","localize":[{"title":"不，Cellebrite不能“破解信号加密”","locale":"zh"},{"title":"不，Cellebrite不能“破解信號加密”","locale":"zh-Hant"}]}},{"__typename":"SocialMediaPost","id":"HnPost-25517226","excerpt":"","slug":"/hn/25517226","title":"Show HN: Django and React SaaS boilerplate tutorial","date":"December 23, 2020","dateISO":"2020-12-23T18:58:13.068Z","datetime":"2020-12-23 18:58","tags":["story","Show HN","Hacker News"],"image":null,"imageAlt":null,"provider":"Hacker News","thirdPartyId":"25517226","url":"https://news.ycombinator.com/item?id=25517226","originalUrl":"https://github.com/saasitive/django-react-boilerplate","imageRemote":"https://avatars1.githubusercontent.com/u/71877212?s=400&v=4","video":null,"channel":"Show HN","channelUrl":"https://news.ycombinator.com/show","author":"pplonski86","authorUrl":"https://news.ycombinator.com/user?id=pplonski86","authorImage":null,"authorSlug":null,"score":135,"views":null,"sharedCount":null,"likeCount":null,"sharedContent":null,"parent":{"__typename":"HnJson","localize":[{"title":"HN新产品：Django和Reaction SaaS样板教程","locale":"zh"},{"title":"HN新產品：Django和Reaction SaaS樣板教程","locale":"zh-Hant"}]}},{"__typename":"SocialMediaPost","id":"HnPost-25519678","excerpt":"","slug":"/hn/25519678","title":"Windows 0day privilege escalation still not fixed","date":"December 23, 2020","dateISO":"2020-12-23T18:58:13.068Z","datetime":"2020-12-23 18:58","tags":["story","Hacker News"],"image":null,"imageAlt":null,"provider":"Hacker News","thirdPartyId":"25519678","url":"https://news.ycombinator.com/item?id=25519678","originalUrl":"https://bugs.chromium.org/p/project-zero/issues/detail?id=2096","imageRemote":null,"video":null,"channel":null,"channelUrl":null,"author":"zaltekk","authorUrl":"https://news.ycombinator.com/user?id=zaltekk","authorImage":null,"authorSlug":null,"score":408,"views":null,"sharedCount":null,"likeCount":null,"sharedContent":null,"parent":{"__typename":"HnJson","localize":[{"title":"Windows 0day权限提升仍未修复","locale":"zh"},{"title":"Windows 0day權限提升仍未修復","locale":"zh-Hant"}]}},{"__typename":"SocialMediaPost","id":"HnPost-25519718","excerpt":"","slug":"/hn/25519718","title":"Interview advice that got me offers from Google, Microsoft, and Stripe","date":"December 23, 2020","dateISO":"2020-12-23T18:58:13.068Z","datetime":"2020-12-23 18:58","tags":["story","Hacker News"],"image":null,"imageAlt":null,"provider":"Hacker News","thirdPartyId":"25519718","url":"https://news.ycombinator.com/item?id=25519718","originalUrl":"https://www.zainrizvi.io/blog/the-interviewing-advice-no-one-shares/","imageRemote":"https://images.unsplash.com/photo-1573497491208-6b1acb260507?ixlib=rb-1.2.1&q=80&fm=jpg&crop=entropy&cs=tinysrgb&w=2000&fit=max&ixid=eyJhcHBfaWQiOjExNzczfQ","video":null,"channel":null,"channelUrl":null,"author":"ZainRiz","authorUrl":"https://news.ycombinator.com/user?id=ZainRiz","authorImage":null,"authorSlug":null,"score":638,"views":null,"sharedCount":null,"likeCount":null,"sharedContent":null,"parent":{"__typename":"HnJson","localize":[{"title":"面试建议让我得到了谷歌、微软和斯利普的录用","locale":"zh"},{"title":"面試建議讓我得到了谷歌、微軟和斯利普的錄用","locale":"zh-Hant"}]}},{"__typename":"SocialMediaPost","id":"HnPost-25505701","excerpt":"","slug":"/hn/25505701","title":"Don’t Think, Just Defunctionalize","date":"December 23, 2020","dateISO":"2020-12-23T18:22:08.243Z","datetime":"2020-12-23 18:22","tags":["story","Hacker News"],"image":null,"imageAlt":null,"provider":"Hacker News","thirdPartyId":"25505701","url":"https://news.ycombinator.com/item?id=25505701","originalUrl":"https://www.joachim-breitner.de/blog/778-Don%E2%80%99t_think%2C_just_defunctionalize","imageRemote":null,"video":null,"channel":null,"channelUrl":null,"author":"gbrown_","authorUrl":"https://news.ycombinator.com/user?id=gbrown_","authorImage":null,"authorSlug":null,"score":118,"views":null,"sharedCount":null,"likeCount":null,"sharedContent":null,"parent":{"__typename":"HnJson","localize":[{"title":"别想了，去功能化就行了","locale":"zh"},{"title":"別想了，去功能化就行了","locale":"zh-Hant"}]}},{"__typename":"SocialMediaPost","id":"HnPost-25516498","excerpt":"","slug":"/hn/25516498","title":"Military scrambling to understand aviation crash risk from new 5G sale","date":"December 23, 2020","dateISO":"2020-12-23T17:58:06.363Z","datetime":"2020-12-23 17:58","tags":["story","Hacker News"],"image":null,"imageAlt":null,"provider":"Hacker News","thirdPartyId":"25516498","url":"https://news.ycombinator.com/item?id=25516498","originalUrl":"https://www.defensenews.com/2020/12/21/the-military-is-scrambling-to-understand-the-aviation-crash-risk-from-a-new-5g-sale/","imageRemote":"https://www.armytimes.com/resizer/zq5a0r6Kmr7eYqZWbCt3EgX82yc=/1200x630/filters:quality(100)/cloudfront-us-east-1.images.arcpublishing.com/mco/6VT3YQ7IANE5NB5JBB74UBIVGU.jpg","video":null,"channel":null,"channelUrl":null,"author":"bookofjoe","authorUrl":"https://news.ycombinator.com/user?id=bookofjoe","authorImage":null,"authorSlug":null,"score":120,"views":null,"sharedCount":null,"likeCount":null,"sharedContent":null,"parent":{"__typename":"HnJson","localize":[{"title":"军方争先恐后地了解新的5G销售带来的空难风险","locale":"zh"},{"title":"軍方爭先恐後地瞭解新的5G銷售帶來的空難風險","locale":"zh-Hant"}]}},{"__typename":"SocialMediaPost","id":"HnPost-25517628","excerpt":"","slug":"/hn/25517628","title":"We rendered a million web pages to find out what makes the web slow","date":"December 23, 2020","dateISO":"2020-12-23T17:58:06.363Z","datetime":"2020-12-23 17:58","tags":["story","Hacker News"],"image":null,"imageAlt":null,"provider":"Hacker News","thirdPartyId":"25517628","url":"https://news.ycombinator.com/item?id=25517628","originalUrl":"https://itnext.io/we-rendered-a-million-web-pages-to-find-out-what-makes-the-web-slow-72bbba9ade96","imageRemote":"https://miro.medium.com/max/482/1*A9rIo0Q9X23sEztb0ZLDpA.png","video":null,"channel":null,"channelUrl":null,"author":"KukiAirani","authorUrl":"https://news.ycombinator.com/user?id=KukiAirani","authorImage":null,"authorSlug":null,"score":186,"views":null,"sharedCount":null,"likeCount":null,"sharedContent":null,"parent":{"__typename":"HnJson","localize":[{"title":"我们绘制了一百万个网页，以找出是什么原因导致网络速度变慢。","locale":"zh"},{"title":"我們繪製了一百萬個網頁，以找出是什麼原因導致網絡速度變慢。","locale":"zh-Hant"}]}},{"__typename":"SocialMediaPost","id":"HnPost-25518831","excerpt":"","slug":"/hn/25518831","title":"Anti-diarrhoea drug drives cancer cells to cell death","date":"December 23, 2020","dateISO":"2020-12-23T17:58:06.363Z","datetime":"2020-12-23 17:58","tags":["story","Hacker News"],"image":null,"imageAlt":null,"provider":"Hacker News","thirdPartyId":"25518831","url":"https://news.ycombinator.com/item?id=25518831","originalUrl":"https://aktuelles.uni-frankfurt.de/englisch/anti-diarrhoea-drug-drives-cancer-cells-to-cell-death/","imageRemote":"https://aktuelles.uni-frankfurt.de/wp-content/uploads/2020/12/beitragsbild_durchfallmittel-krebszellen.jpg","video":null,"channel":null,"channelUrl":null,"author":"gmays","authorUrl":"https://news.ycombinator.com/user?id=gmays","authorImage":null,"authorSlug":null,"score":354,"views":null,"sharedCount":null,"likeCount":null,"sharedContent":null,"parent":{"__typename":"HnJson","localize":[{"title":"止泻药导致癌细胞死亡","locale":"zh"},{"title":"止瀉藥導致癌細胞死亡","locale":"zh-Hant"}]}},{"__typename":"SocialMediaPost","id":"HnPost-25515566","excerpt":"","slug":"/hn/25515566","title":"Linux 5.10 BTRFS performance regression","date":"December 23, 2020","dateISO":"2020-12-23T16:59:51.390Z","datetime":"2020-12-23 16:59","tags":["story","Hacker News"],"image":null,"imageAlt":null,"provider":"Hacker News","thirdPartyId":"25515566","url":"https://news.ycombinator.com/item?id=25515566","originalUrl":"https://www.reddit.com/r/linux/comments/kieqyu/warning_linux_510_has_a_500_to_2000_btrfs/","imageRemote":"https://external-preview.redd.it/IklchxiV3iUXpn90YKUrR9WvJvdymj6-RVf8E2EwCEo.jpg?auto=webp&s=88b40f5c8697d4444ba4329eeb0812c619fb40d8","video":null,"channel":null,"channelUrl":null,"author":"shrikant","authorUrl":"https://news.ycombinator.com/user?id=shrikant","authorImage":null,"authorSlug":null,"score":141,"views":null,"sharedCount":null,"likeCount":null,"sharedContent":null,"parent":{"__typename":"HnJson","localize":[{"title":"Linux 5.10 BTRFS性能回归","locale":"zh"},{"title":"Linux 5.10 BTRFS性能迴歸","locale":"zh-Hant"}]}},{"__typename":"SocialMediaPost","id":"HnPost-25515761","excerpt":"","slug":"/hn/25515761","title":"Telegram Voice Chats","date":"December 23, 2020","dateISO":"2020-12-23T16:59:51.390Z","datetime":"2020-12-23 16:59","tags":["story","Hacker News"],"image":null,"imageAlt":null,"provider":"Hacker News","thirdPartyId":"25515761","url":"https://news.ycombinator.com/item?id=25515761","originalUrl":"https://telegram.org/blog/voice-chats","imageRemote":"https://telegram.org/file/464001202/4/Mo4VjRb1ndM.81564/729451f158ff1f6267","video":null,"channel":null,"channelUrl":null,"author":"ffpip","authorUrl":"https://news.ycombinator.com/user?id=ffpip","authorImage":null,"authorSlug":null,"score":189,"views":null,"sharedCount":null,"likeCount":null,"sharedContent":null,"parent":{"__typename":"HnJson","localize":[{"title":"电报语音聊天","locale":"zh"},{"title":"電報語音聊天","locale":"zh-Hant"}]}},{"__typename":"SocialMediaPost","id":"HnPost-25516214","excerpt":"","slug":"/hn/25516214","title":"Stan is a state-of-the-art platform for statistical modeling","date":"December 23, 2020","dateISO":"2020-12-23T16:05:11.668Z","datetime":"2020-12-23 16:05","tags":["story","Hacker News"],"image":null,"imageAlt":null,"provider":"Hacker News","thirdPartyId":"25516214","url":"https://news.ycombinator.com/item?id=25516214","originalUrl":"https://mc-stan.org/","imageRemote":"https://mc-stan.org/images/feature/wide_ensemble.png","video":null,"channel":null,"channelUrl":null,"author":"Tomte","authorUrl":"https://news.ycombinator.com/user?id=Tomte","authorImage":null,"authorSlug":null,"score":190,"views":null,"sharedCount":null,"likeCount":null,"sharedContent":null,"parent":{"__typename":"HnJson","localize":[{"title":"STAN是一个最先进的统计建模平台","locale":"zh"},{"title":"STAN是一個最先進的統計建模平臺","locale":"zh-Hant"}]}},{"__typename":"SocialMediaPost","id":"HnPost-25516672","excerpt":"","slug":"/hn/25516672","title":"Open Source Stash – Privacy-focused, powerful, secure open-source alternatives","date":"December 23, 2020","dateISO":"2020-12-23T15:42:50.931Z","datetime":"2020-12-23 15:42","tags":["story","Hacker News"],"image":null,"imageAlt":null,"provider":"Hacker News","thirdPartyId":"25516672","url":"https://news.ycombinator.com/item?id=25516672","originalUrl":"https://opensourcestash.com","imageRemote":null,"video":null,"channel":null,"channelUrl":null,"author":"adithyaba","authorUrl":"https://news.ycombinator.com/user?id=adithyaba","authorImage":null,"authorSlug":null,"score":262,"views":null,"sharedCount":null,"likeCount":null,"sharedContent":null,"parent":{"__typename":"HnJson","localize":[{"title":"Open Source Stash-关注隐私、功能强大、安全的开源替代方案","locale":"zh"},{"title":"Open Source Stash-關注隱私、功能強大、安全的開源替代方案","locale":"zh-Hant"}]}}]}},"pageContext":{"basePath":"/","pageType":"home","tagsFilter":{"id":{"glob":"!*Post-1"}},"filter":{"id":{"glob":"!*Post-1"}},"limit":25,"skip":2775,"totalPages":125,"total":3107,"currentPage":112,"maxWidth":1024,"maxHeight":512,"locale":"zh","hrefLang":"zh-Hans","originalPath":"/page/112","dateFormat":"YYYY-MM-DD"}},"staticQueryHashes":["1239077767","2506312863","2744905544","3025052997","3493603132","3493603132","3513215887","386998304"]}