{"componentChunkName":"component---gatsby-theme-buzzing-src-gatsby-theme-timeline-templates-posts-query-js","path":"/ja/tags/story/","result":{"data":{"site":{"siteMetadata":{"title":"Reddit 热门","description":"用中文浏览Reddit热门内容","social":[{"name":"Twitter","url":"https://twitter.com/gatsbyjs","external":null,"prefetch":null},{"name":"GitHub","url":"https://github.com/gatsbyjs","external":null,"prefetch":null}],"menuLinks":[],"localize":[{"locale":"en","title":"Buzzing on Reddit","description":"See what's buzzing on Reddit in your native language","social":[{"name":"Reddit","url":"https://www.reddit.com/","external":true,"prefetch":null}],"menuLinks":[{"name":"Weekly Selection","url":"/issues","external":null,"prefetch":null},{"name":"RSS","url":"/rss.xml","external":null,"prefetch":false}]},{"locale":"zh-Hant","title":"Reddit 熱門","description":"用中文瀏覽Reddit熱門內容","social":null,"menuLinks":null}]}},"tagsGroup":{"group":[{"fieldValue":"ASK HN","totalCount":54},{"fieldValue":"Hacker News","totalCount":3107},{"fieldValue":"Poll","totalCount":1},{"fieldValue":"Show HN","totalCount":100},{"fieldValue":"poll","totalCount":1},{"fieldValue":"story","totalCount":3106}]},"allBlogPost":{"nodes":[{"__typename":"SocialMediaPost","id":"HnPost-26707498","excerpt":"","slug":"/hn/26707498","title":"In Support of Richard Stallman","date":"April 06, 2021","dateISO":"2021-04-06T18:21:56.178Z","datetime":"2021-04-06 18:21","tags":["story","Hacker News"],"image":null,"imageAlt":null,"provider":"Hacker News","thirdPartyId":"26707498","url":"https://news.ycombinator.com/item?id=26707498","originalUrl":"https://stallmansupport.org/#intro","imageRemote":"https://stallmansupport.org/images/richard_stallman_small.png","video":null,"channel":null,"channelUrl":null,"author":"todsacerdoti","authorUrl":"https://news.ycombinator.com/user?id=todsacerdoti","authorImage":null,"authorSlug":null,"score":151,"views":null,"sharedCount":null,"likeCount":null,"sharedContent":null,"parent":{"__typename":"HnJson","localize":[{"title":"リチャード・ストールマンへの支援","locale":"ja"},{"title":"支持Richard Stallman","locale":"zh"},{"title":"支持Richard Stallman","locale":"zh-Hant"}]}},{"__typename":"SocialMediaPost","id":"HnPost-26713037","excerpt":"","slug":"/hn/26713037","title":"Eliminating Data Races in Firefox","date":"April 06, 2021","dateISO":"2021-04-06T18:21:56.178Z","datetime":"2021-04-06 18:21","tags":["story","Hacker News"],"image":null,"imageAlt":null,"provider":"Hacker News","thirdPartyId":"26713037","url":"https://news.ycombinator.com/item?id=26713037","originalUrl":"https://hacks.mozilla.org/2021/04/eliminating-data-races-in-firefox-a-technical-report/","imageRemote":"https://hacks.mozilla.org/wp-content/themes/Hax/img/hacks-meta-image.jpg","video":null,"channel":null,"channelUrl":null,"author":"caution","authorUrl":"https://news.ycombinator.com/user?id=caution","authorImage":null,"authorSlug":null,"score":191,"views":null,"sharedCount":null,"likeCount":null,"sharedContent":null,"parent":{"__typename":"HnJson","localize":[{"title":"Firefoxでのデータ・レースの排除","locale":"ja"},{"title":"消除Firefox中的数据竞赛","locale":"zh"},{"title":"消除Firefox中的數據競賽","locale":"zh-Hant"}]}},{"__typename":"SocialMediaPost","id":"HnPost-26707879","excerpt":"","slug":"/hn/26707879","title":"Bruce Perens: On Non-Judicical Punishment of Individuals","date":"April 06, 2021","dateISO":"2021-04-06T15:31:49.287Z","datetime":"2021-04-06 15:31","tags":["story","Hacker News"],"image":null,"imageAlt":null,"provider":"Hacker News","thirdPartyId":"26707879","url":"https://news.ycombinator.com/item?id=26707879","originalUrl":"https://perens.com/2021/04/04/on-non-judicical-punishment-of-individuals/","imageRemote":null,"video":null,"channel":null,"channelUrl":null,"author":"upofadown","authorUrl":"https://news.ycombinator.com/user?id=upofadown","authorImage":null,"authorSlug":null,"score":140,"views":null,"sharedCount":null,"likeCount":null,"sharedContent":null,"parent":{"__typename":"HnJson","localize":[{"title":"ブルース・ペレンズ 個人に対する非判例的な処罰について","locale":"ja"},{"title":"Bruce Perens。论对个人的非司法惩罚","locale":"zh"},{"title":"Bruce Perens。論對個人的非司法懲罰","locale":"zh-Hant"}]}},{"__typename":"SocialMediaPost","id":"HnPost-26711862","excerpt":"","slug":"/hn/26711862","title":"Programming is hard","date":"April 06, 2021","dateISO":"2021-04-06T15:31:49.287Z","datetime":"2021-04-06 15:31","tags":["story","Hacker News"],"image":null,"imageAlt":null,"provider":"Hacker News","thirdPartyId":"26711862","url":"https://news.ycombinator.com/item?id=26711862","originalUrl":"https://dorinlazar.ro/2021-02-programming-is-hard/","imageRemote":"https://dorinlazar.ro/dorinlazar.logo.jpg","video":null,"channel":null,"channelUrl":null,"author":"zuzuleinen","authorUrl":"https://news.ycombinator.com/user?id=zuzuleinen","authorImage":null,"authorSlug":null,"score":140,"views":null,"sharedCount":null,"likeCount":null,"sharedContent":null,"parent":{"__typename":"HnJson","localize":[{"title":"プログラミングは難しい","locale":"ja"},{"title":"编程是很难的","locale":"zh"},{"title":"編程是很難的","locale":"zh-Hant"}]}},{"__typename":"SocialMediaPost","id":"HnPost-26712524","excerpt":"","slug":"/hn/26712524","title":"Please don't make me go back: some reasons I hope to never return to the office","date":"April 06, 2021","dateISO":"2021-04-06T15:31:49.287Z","datetime":"2021-04-06 15:31","tags":["story","Hacker News"],"image":null,"imageAlt":null,"provider":"Hacker News","thirdPartyId":"26712524","url":"https://news.ycombinator.com/item?id=26712524","originalUrl":"https://www.ryanmercer.com/ryansthoughts/2021/4/6/some-of-the-reasons-i-hope-work-from-home-continues-and-i-never-have-to-return-to-an-office","imageRemote":null,"video":null,"channel":null,"channelUrl":null,"author":"ryanmercer","authorUrl":"https://news.ycombinator.com/user?id=ryanmercer","authorImage":null,"authorSlug":null,"score":146,"views":null,"sharedCount":null,"likeCount":null,"sharedContent":null,"parent":{"__typename":"HnJson","localize":[{"title":"復帰させないでください：会社に復帰したくない理由","locale":"ja"},{"title":"请不要让我回去：我希望永远不回办公室的一些理由。","locale":"zh"},{"title":"請不要讓我回去：我希望永遠不回辦公室的一些理由。","locale":"zh-Hant"}]}},{"__typename":"SocialMediaPost","id":"HnPost-26709617","excerpt":"","slug":"/hn/26709617","title":"Jakub Konka Hired Full Time","date":"April 06, 2021","dateISO":"2021-04-06T14:36:51.858Z","datetime":"2021-04-06 14:36","tags":["story","Hacker News"],"image":null,"imageAlt":null,"provider":"Hacker News","thirdPartyId":"26709617","url":"https://news.ycombinator.com/item?id=26709617","originalUrl":"https://ziglang.org/news/jakub-konka-hired-full-time/","imageRemote":"https://ziglang.org/news/jakub-konka-hired-full-time/kubkon-linkers.png","video":null,"channel":null,"channelUrl":null,"author":"komuW","authorUrl":"https://news.ycombinator.com/user?id=komuW","authorImage":null,"authorSlug":null,"score":143,"views":null,"sharedCount":null,"likeCount":null,"sharedContent":null,"parent":{"__typename":"HnJson","localize":[{"title":"Jakub Konkaがフルタイムで採用されました。","locale":"ja"},{"title":"Jakub Konka 全职受聘","locale":"zh"},{"title":"Jakub Konka 全職受聘","locale":"zh-Hant"}]}},{"__typename":"SocialMediaPost","id":"HnPost-26707737","excerpt":"","slug":"/hn/26707737","title":"To upgrade the SSD in a Mac Pro, you need a second Mac computer","date":"April 06, 2021","dateISO":"2021-04-06T14:13:28.580Z","datetime":"2021-04-06 14:13","tags":["story","Hacker News"],"image":null,"imageAlt":null,"provider":"Hacker News","thirdPartyId":"26707737","url":"https://news.ycombinator.com/item?id=26707737","originalUrl":"https://support.apple.com/en-us/HT210626","imageRemote":"https://support.apple.com/library/content/dam/edam/applecare/images/en_US/more_icons/callout-icon-exclamation-circle.png","video":null,"channel":null,"channelUrl":null,"author":"fortran77","authorUrl":"https://news.ycombinator.com/user?id=fortran77","authorImage":null,"authorSlug":null,"score":140,"views":null,"sharedCount":null,"likeCount":null,"sharedContent":null,"parent":{"__typename":"HnJson","localize":[{"title":"Mac ProのSSDをアップグレードするには、2台目のMacコンピュータが必要です。","locale":"ja"},{"title":"要升级 Mac Pro 的固态硬盘，你需要第二台 Mac 电脑。","locale":"zh"},{"title":"要升級 Mac Pro 的固態硬盤，你需要第二臺 Mac 電腦。","locale":"zh-Hant"}]}},{"__typename":"SocialMediaPost","id":"HnPost-26708061","excerpt":"","slug":"/hn/26708061","title":"Facebook Analytics will no longer be available","date":"April 06, 2021","dateISO":"2021-04-06T13:53:04.179Z","datetime":"2021-04-06 13:53","tags":["story","Hacker News"],"image":null,"imageAlt":null,"provider":"Hacker News","thirdPartyId":"26708061","url":"https://news.ycombinator.com/item?id=26708061","originalUrl":"https://www.facebook.com/business/help/966883707418907","imageRemote":"https://scontent-iad3-1.xx.fbcdn.net/v/t39.2365-6/77413822_549090175923468_5500135011883417600_n.png?_nc_cat=1&ccb=1-3&_nc_sid=ad8a9d&_nc_ohc=kYywT2avSroAX-RYdve&_nc_ht=scontent-iad3-1.xx&oh=2f232ada0a9bf45bab6fc12d6715daaf&oe=60916FD3","video":null,"channel":null,"channelUrl":null,"author":"oblib","authorUrl":"https://news.ycombinator.com/user?id=oblib","authorImage":null,"authorSlug":null,"score":143,"views":null,"sharedCount":null,"likeCount":null,"sharedContent":null,"parent":{"__typename":"HnJson","localize":[{"title":"Facebookアナリティクスが利用できなくなる","locale":"ja"},{"title":"Facebook分析将不再可用","locale":"zh"},{"title":"Facebook分析將不再可用","locale":"zh-Hant"}]}},{"__typename":"SocialMediaPost","id":"HnPost-26704088","excerpt":"","slug":"/hn/26704088","title":"NASA's helicopter survives first freezing night on Mars","date":"April 06, 2021","dateISO":"2021-04-06T13:38:29.077Z","datetime":"2021-04-06 13:38","tags":["story","Hacker News"],"image":null,"imageAlt":null,"provider":"Hacker News","thirdPartyId":"26704088","url":"https://news.ycombinator.com/item?id=26704088","originalUrl":"https://edition.cnn.com/2021/04/05/world/mars-helicopter-ingenuity-nasa-rotorcraft-scn-trnd/index.html","imageRemote":"https://cdn.cnn.com/cnnnext/dam/assets/210405111945-01-ingenuity-helicopter-0404-super-tease.jpeg","video":null,"channel":null,"channelUrl":null,"author":"imagine99","authorUrl":"https://news.ycombinator.com/user?id=imagine99","authorImage":null,"authorSlug":null,"score":140,"views":null,"sharedCount":null,"likeCount":null,"sharedContent":null,"parent":{"__typename":"HnJson","localize":[{"title":"NASAのヘリコプターが火星で初めて凍える夜を乗り越えた","locale":"ja"},{"title":"美国宇航局的直升机在火星上度过了第一个冰冷的夜晚。","locale":"zh"},{"title":"美國宇航局的直升機在火星上度過了第一個冰冷的夜晚。","locale":"zh-Hant"}]}},{"__typename":"SocialMediaPost","id":"HnPost-26708089","excerpt":"","slug":"/hn/26708089","title":"Show HN: Xplr – A hackable, minimal, fast TUI file explorer, written in Rust","date":"April 06, 2021","dateISO":"2021-04-06T13:38:29.077Z","datetime":"2021-04-06 13:38","tags":["story","Show HN","Hacker News"],"image":null,"imageAlt":null,"provider":"Hacker News","thirdPartyId":"26708089","url":"https://news.ycombinator.com/item?id=26708089","originalUrl":"https://github.com/sayanarijit/xplr","imageRemote":"https://repository-images.githubusercontent.com/342030057/26086880-9511-11eb-9ac6-5baf81da1087","video":null,"channel":"Show HN","channelUrl":"https://news.ycombinator.com/show","author":"sayanarijit","authorUrl":"https://news.ycombinator.com/user?id=sayanarijit","authorImage":null,"authorSlug":null,"score":149,"views":null,"sharedCount":null,"likeCount":null,"sharedContent":null,"parent":{"__typename":"HnJson","localize":[{"title":"HNを表示: Xplr - Rustで書かれた、ハッキング可能で、最小限で、高速なTUIファイルエクスプローラー","locale":"ja"},{"title":"显示 HN: Xplr - 一个用 Rust 编写的可破解的、最小的、快速的 TUI 文件浏览器。","locale":"zh"},{"title":"顯示 HN: Xplr - 一個用 Rust 編寫的可破解的、最小的、快速的 TUI 文件瀏覽器。","locale":"zh-Hant"}]}},{"__typename":"SocialMediaPost","id":"HnPost-26708324","excerpt":"","slug":"/hn/26708324","title":"Contaminated surface has under 1 in 10k chance of causing an infection","date":"April 06, 2021","dateISO":"2021-04-06T13:38:29.077Z","datetime":"2021-04-06 13:38","tags":["story","Hacker News"],"image":null,"imageAlt":null,"provider":"Hacker News","thirdPartyId":"26708324","url":"https://news.ycombinator.com/item?id=26708324","originalUrl":"https://www.cdc.gov/coronavirus/2019-ncov/more/science-and-research/surface-transmission.html","imageRemote":"https://www.cdc.gov/coronavirus/2019-ncov/images/COVID-19-SM-1200px-v2.jpg","video":null,"channel":null,"channelUrl":null,"author":"mulvya","authorUrl":"https://news.ycombinator.com/user?id=mulvya","authorImage":null,"authorSlug":null,"score":142,"views":null,"sharedCount":null,"likeCount":null,"sharedContent":null,"parent":{"__typename":"HnJson","localize":[{"title":"表面が汚染されていると、10万分の1以下の確率で感染症を引き起こす。","locale":"ja"},{"title":"受污染的表面造成感染的几率低于1/10万。","locale":"zh"},{"title":"受污染的表面造成感染的機率低於1/10萬。","locale":"zh-Hant"}]}},{"__typename":"SocialMediaPost","id":"HnPost-26709019","excerpt":"","slug":"/hn/26709019","title":"Things I Hate About PostgreSQL (2020)","date":"April 06, 2021","dateISO":"2021-04-06T13:38:29.077Z","datetime":"2021-04-06 13:38","tags":["story","Hacker News"],"image":null,"imageAlt":null,"provider":"Hacker News","thirdPartyId":"26709019","url":"https://news.ycombinator.com/item?id=26709019","originalUrl":"https://rbranson.medium.com/10-things-i-hate-about-postgresql-20dbab8c2791","imageRemote":"https://miro.medium.com/max/1200/0*aoP9QjslvvSOS-jM.png","video":null,"channel":null,"channelUrl":null,"author":"latch","authorUrl":"https://news.ycombinator.com/user?id=latch","authorImage":null,"authorSlug":null,"score":165,"views":null,"sharedCount":null,"likeCount":null,"sharedContent":null,"parent":{"__typename":"HnJson","localize":[{"title":"PostgreSQLで嫌なこと（2020年","locale":"ja"},{"title":"我讨厌PostgreSQL的事情(2020)","locale":"zh"},{"title":"我討厭PostgreSQL的事情(2020)","locale":"zh-Hant"}]}},{"__typename":"SocialMediaPost","id":"HnPost-26709848","excerpt":"","slug":"/hn/26709848","title":"The Facebook Phone Numbers Are Now Searchable in Have I Been Pwned","date":"April 06, 2021","dateISO":"2021-04-06T12:36:55.060Z","datetime":"2021-04-06 12:36","tags":["story","Hacker News"],"image":null,"imageAlt":null,"provider":"Hacker News","thirdPartyId":"26709848","url":"https://news.ycombinator.com/item?id=26709848","originalUrl":"https://www.troyhunt.com/the-facebook-phone-numbers-are-now-searchable-in-have-i-been-pwned/","imageRemote":"https://www.troyhunt.com/content/images/2021/04/HIBP-Banner.jpg","video":null,"channel":null,"channelUrl":null,"author":"helb","authorUrl":"https://news.ycombinator.com/user?id=helb","authorImage":null,"authorSlug":null,"score":166,"views":null,"sharedCount":null,"likeCount":null,"sharedContent":null,"parent":{"__typename":"HnJson","localize":[{"title":"Facebookの電話番号がHave I Been Pwnedで検索可能に","locale":"ja-JA"},{"title":"脸谱网的电话号码现在可以在《我被偷袭了吗》中搜索到。","locale":"zh"},{"title":"臉譜網的電話號碼現在可以在《我被偷襲了嗎》中搜索到。","locale":"zh-Hant"},{"title":"Facebookの電話番号がHave I Been Pwnedで検索可能に","locale":"ja"}]}},{"__typename":"SocialMediaPost","id":"HnPost-26710013","excerpt":"","slug":"/hn/26710013","title":"Django 3.2","date":"April 06, 2021","dateISO":"2021-04-06T12:36:55.060Z","datetime":"2021-04-06 12:36","tags":["story","Hacker News"],"image":null,"imageAlt":null,"provider":"Hacker News","thirdPartyId":"26710013","url":"https://news.ycombinator.com/item?id=26710013","originalUrl":"https://www.djangoproject.com/weblog/2021/apr/06/django-32-released/","imageRemote":"https://static.djangoproject.com/img/fundraising-heart.cd6bb84ffd33.svg","video":null,"channel":null,"channelUrl":null,"author":"samirelanduk","authorUrl":"https://news.ycombinator.com/user?id=samirelanduk","authorImage":null,"authorSlug":null,"score":142,"views":null,"sharedCount":null,"likeCount":null,"sharedContent":null,"parent":{"__typename":"HnJson","localize":[{"title":"Django 3.2","locale":"ja-JA"},{"title":"Django 3.2","locale":"zh"},{"title":"Django 3.2","locale":"zh-Hant"},{"title":"Django 3.2","locale":"ja"}]}},{"__typename":"SocialMediaPost","id":"HnPost-26708959","excerpt":"","slug":"/hn/26708959","title":"Booking.com fined €475k for reporting data breach too late","date":"April 06, 2021","dateISO":"2021-04-06T10:52:48.080Z","datetime":"2021-04-06 10:52","tags":["story","Hacker News"],"image":null,"imageAlt":null,"provider":"Hacker News","thirdPartyId":"26708959","url":"https://news.ycombinator.com/item?id=26708959","originalUrl":"https://therecord.media/booking-com-fined-e475000-for-reporting-data-breach-too-late/","imageRemote":"https://therecord.media/wp-content/uploads/2021/03/Booking-com.jpg","video":null,"channel":null,"channelUrl":null,"author":"DyslexicAtheist","authorUrl":"https://news.ycombinator.com/user?id=DyslexicAtheist","authorImage":null,"authorSlug":null,"score":140,"views":null,"sharedCount":null,"likeCount":null,"sharedContent":null,"parent":{"__typename":"HnJson","localize":[{"title":"ブッキング・ドットコム、データ流出の報告が遅すぎたとして475万ユーロの罰金を科される","locale":"ja-JA"},{"title":"Booking.com因太晚报告数据泄露被罚47.5万欧元","locale":"zh"},{"title":"Booking.com因太晚報告數據泄露被罰47.5萬歐元","locale":"zh-Hant"},{"title":"ブッキング・ドットコム、データ流出の報告が遅すぎたとして475万ユーロの罰金を科される","locale":"ja"}]}},{"__typename":"SocialMediaPost","id":"HnPost-26698074","excerpt":"","slug":"/hn/26698074","title":"Petition to LG to open source their phones","date":"April 06, 2021","dateISO":"2021-04-06T08:53:11.483Z","datetime":"2021-04-06 08:53","tags":["story","Hacker News"],"image":null,"imageAlt":null,"provider":"Hacker News","thirdPartyId":"26698074","url":"https://news.ycombinator.com/item?id=26698074","originalUrl":"https://www.change.org/p/lg-electronics-lg-to-open-source-their-phones-as-they-are-shutting-down-production-for-good/","imageRemote":"https://assets.change.org/photos/0/cy/og/YecyogkaxKbnKmh-1600x900-noPad.jpg?1617624307","video":null,"channel":null,"channelUrl":null,"author":"danielEM","authorUrl":"https://news.ycombinator.com/user?id=danielEM","authorImage":null,"authorSlug":null,"score":140,"views":null,"sharedCount":null,"likeCount":null,"sharedContent":null,"parent":{"__typename":"HnJson","localize":[{"title":"LGの携帯電話のオープンソース化を求める署名活動","locale":"ja-JA"},{"title":"请愿LG开源他们的手机","locale":"zh"},{"title":"請願LG開源他們的手機","locale":"zh-Hant"},{"title":"LGの携帯電話のオープンソース化を求める署名活動","locale":"ja"}]}},{"__typename":"SocialMediaPost","id":"HnPost-26706424","excerpt":"","slug":"/hn/26706424","title":"“I’ll Finish It This Week” and Other Lies","date":"April 06, 2021","dateISO":"2021-04-06T08:53:11.483Z","datetime":"2021-04-06 08:53","tags":["story","Hacker News"],"image":null,"imageAlt":null,"provider":"Hacker News","thirdPartyId":"26706424","url":"https://news.ycombinator.com/item?id=26706424","originalUrl":"https://arxiv.org/abs/2103.16574","imageRemote":"https://static.arxiv.org/static/browse/0.3.2.6/images/icons/social/bibsonomy.png","video":null,"channel":null,"channelUrl":null,"author":"lnwlebjel","authorUrl":"https://news.ycombinator.com/user?id=lnwlebjel","authorImage":null,"authorSlug":null,"score":142,"views":null,"sharedCount":null,"likeCount":null,"sharedContent":null,"parent":{"__typename":"HnJson","localize":[{"title":"\"今週中に仕上げる \"などの嘘","locale":"ja-JA"},{"title":"\"我这周会完成它 \"和其他谎言","locale":"zh"},{"title":"\"我這週會完成它 \"和其他謊言","locale":"zh-Hant"},{"title":"\"今週中に仕上げる \"などの嘘","locale":"ja"}]}},{"__typename":"SocialMediaPost","id":"HnPost-26707368","excerpt":"","slug":"/hn/26707368","title":"How Browsers Lay Out Web Pages","date":"April 06, 2021","dateISO":"2021-04-06T08:53:11.483Z","datetime":"2021-04-06 08:53","tags":["story","Hacker News"],"image":null,"imageAlt":null,"provider":"Hacker News","thirdPartyId":"26707368","url":"https://news.ycombinator.com/item?id=26707368","originalUrl":"https://browser.engineering/layout.html","imageRemote":null,"video":null,"channel":null,"channelUrl":null,"author":"pavpanchekha","authorUrl":"https://news.ycombinator.com/user?id=pavpanchekha","authorImage":null,"authorSlug":null,"score":147,"views":null,"sharedCount":null,"likeCount":null,"sharedContent":null,"parent":{"__typename":"HnJson","localize":[{"title":"ブラウザのページ構成","locale":"ja-JA"},{"title":"浏览器如何布局网页","locale":"zh"},{"title":"瀏覽器如何佈局網頁","locale":"zh-Hant"},{"title":"ブラウザのページ構成","locale":"ja"}]}},{"__typename":"SocialMediaPost","id":"HnPost-26693705","excerpt":"","slug":"/hn/26693705","title":"Exploring Databases Visually","date":"April 06, 2021","dateISO":"2021-04-06T08:06:07.428Z","datetime":"2021-04-06 08:06","tags":["story","Hacker News"],"image":null,"imageAlt":null,"provider":"Hacker News","thirdPartyId":"26693705","url":"https://news.ycombinator.com/item?id=26693705","originalUrl":"https://di.nmfay.com/exploring-databases-visually","imageRemote":"https://di.nmfay.com/images/fks-film.png","video":null,"channel":null,"channelUrl":null,"author":"dmfay","authorUrl":"https://news.ycombinator.com/user?id=dmfay","authorImage":null,"authorSlug":null,"score":141,"views":null,"sharedCount":null,"likeCount":null,"sharedContent":null,"parent":{"__typename":"HnJson","localize":[{"title":"データベースを視覚的に操作する","locale":"ja-JA"},{"title":"视觉上探索数据库","locale":"zh"},{"title":"視覺上探索數據庫","locale":"zh-Hant"},{"title":"データベースを視覚的に操作する","locale":"ja"}]}},{"__typename":"SocialMediaPost","id":"HnPost-26698180","excerpt":"","slug":"/hn/26698180","title":"One woman's struggle to remove all traces of videotaped sexual assault","date":"April 06, 2021","dateISO":"2021-04-06T08:06:07.428Z","datetime":"2021-04-06 08:06","tags":["story","Hacker News"],"image":null,"imageAlt":null,"provider":"Hacker News","thirdPartyId":"26698180","url":"https://news.ycombinator.com/item?id=26698180","originalUrl":"https://www.ctvnews.ca/w5/i-will-always-be-someone-s-porn-one-woman-s-struggle-to-remove-all-traces-of-her-videotaped-sexual-assault-1.5371804","imageRemote":"https://www.ctvnews.ca/polopoly_fs/1.5371829.1617308492!/httpImage/image.jpg_gen/derivatives/landscape_620/image.jpg","video":null,"channel":null,"channelUrl":null,"author":"barry-cotter","authorUrl":"https://news.ycombinator.com/user?id=barry-cotter","authorImage":null,"authorSlug":null,"score":203,"views":null,"sharedCount":null,"likeCount":null,"sharedContent":null,"parent":{"__typename":"HnJson","localize":[{"title":"ビデオに撮られた性的暴行の痕跡を消すためのある女性の闘い","locale":"ja-JA"},{"title":"一名妇女为消除性侵犯录像的所有痕迹而进行的斗争。","locale":"zh"},{"title":"一名婦女爲消除性侵犯錄像的所有痕跡而進行的鬥爭。","locale":"zh-Hant"},{"title":"ビデオに撮られた性的暴行の痕跡を消すためのある女性の闘い","locale":"ja"}]}},{"__typename":"SocialMediaPost","id":"HnPost-26698898","excerpt":"","slug":"/hn/26698898","title":"Prescriptive software is better than descriptive software","date":"April 06, 2021","dateISO":"2021-04-06T08:06:07.428Z","datetime":"2021-04-06 08:06","tags":["story","Hacker News"],"image":null,"imageAlt":null,"provider":"Hacker News","thirdPartyId":"26698898","url":"https://news.ycombinator.com/item?id=26698898","originalUrl":"https://kilianvalkhof.com/2021/web/prescriptive-software-is-better-than-descriptive-software/","imageRemote":"https://kilianvalkhof.com/wp-content/uploads/bg2.jpg","video":null,"channel":null,"channelUrl":null,"author":"sergiomattei","authorUrl":"https://news.ycombinator.com/user?id=sergiomattei","authorImage":null,"authorSlug":null,"score":162,"views":null,"sharedCount":null,"likeCount":null,"sharedContent":null,"parent":{"__typename":"HnJson","localize":[{"title":"描写的なソフトウェアは、記述的なソフトウェアよりも優れている","locale":"ja-JA"},{"title":"规定性软件优于描述性软件","locale":"zh"},{"title":"規定性軟件優於描述性軟件","locale":"zh-Hant"},{"title":"描写的なソフトウェアは、記述的なソフトウェアよりも優れている","locale":"ja"}]}},{"__typename":"SocialMediaPost","id":"HnPost-26701045","excerpt":"","slug":"/hn/26701045","title":"Yahoo Answers to shut down May 4, 2021","date":"April 06, 2021","dateISO":"2021-04-06T08:06:07.428Z","datetime":"2021-04-06 08:06","tags":["story","Hacker News"],"image":null,"imageAlt":null,"provider":"Hacker News","thirdPartyId":"26701045","url":"https://news.ycombinator.com/item?id=26701045","originalUrl":"https://uk.help.yahoo.com/kb/SLN35642.html","imageRemote":"https://s.yimg.com/cv/apiv2/social/images/yahoo_default_logo.png","video":null,"channel":null,"channelUrl":null,"author":"Gaessaki","authorUrl":"https://news.ycombinator.com/user?id=Gaessaki","authorImage":null,"authorSlug":null,"score":445,"views":null,"sharedCount":null,"likeCount":null,"sharedContent":null,"parent":{"__typename":"HnJson","localize":[{"title":"Yahoo Answers、2021年5月4日にシャットダウン","locale":"ja-JA"},{"title":"雅虎问答将于2021年5月4日关闭。","locale":"zh"},{"title":"雅虎問答將於2021年5月4日關閉。","locale":"zh-Hant"},{"title":"Yahoo Answers、2021年5月4日にシャットダウン","locale":"ja"}]}},{"__typename":"SocialMediaPost","id":"HnPost-26701149","excerpt":"","slug":"/hn/26701149","title":"Behind GitHub’s new authentication token formats","date":"April 06, 2021","dateISO":"2021-04-06T08:06:07.428Z","datetime":"2021-04-06 08:06","tags":["story","Hacker News"],"image":null,"imageAlt":null,"provider":"Hacker News","thirdPartyId":"26701149","url":"https://news.ycombinator.com/item?id=26701149","originalUrl":"https://github.blog/2021-04-05-behind-githubs-new-authentication-token-formats/","imageRemote":"https://github.blog/wp-content/uploads/2019/09/security-1200-630.png?fit=1200%2C630","video":null,"channel":null,"channelUrl":null,"author":"todsacerdoti","authorUrl":"https://news.ycombinator.com/user?id=todsacerdoti","authorImage":null,"authorSlug":null,"score":226,"views":null,"sharedCount":null,"likeCount":null,"sharedContent":null,"parent":{"__typename":"HnJson","localize":[{"title":"GitHubの新しい認証トークン形式の背景","locale":"ja-JA"},{"title":"GitHub新的身份验证令牌格式的背后","locale":"zh"},{"title":"GitHub新的身份驗證令牌格式的背後","locale":"zh-Hant"},{"title":"GitHubの新しい認証トークン形式の背景","locale":"ja"}]}},{"__typename":"SocialMediaPost","id":"HnPost-26701602","excerpt":"","slug":"/hn/26701602","title":"Things I learned while developing a billing system","date":"April 06, 2021","dateISO":"2021-04-06T08:06:07.428Z","datetime":"2021-04-06 08:06","tags":["story","Hacker News"],"image":null,"imageAlt":null,"provider":"Hacker News","thirdPartyId":"26701602","url":"https://news.ycombinator.com/item?id=26701602","originalUrl":"https://arnon.dk/5-things-i-learned-developing-billing-system/","imageRemote":"https://arnon.dk/wp-content/uploads/2021/04/learned_developing_billing.png","video":null,"channel":null,"channelUrl":null,"author":"arnon","authorUrl":"https://news.ycombinator.com/user?id=arnon","authorImage":null,"authorSlug":null,"score":243,"views":null,"sharedCount":null,"likeCount":null,"sharedContent":null,"parent":{"__typename":"HnJson","localize":[{"title":"課金システムの開発で学んだこと","locale":"ja-JA"},{"title":"我在开发计费系统时学到的东西","locale":"zh"},{"title":"我在開發計費系統時學到的東西","locale":"zh-Hant"},{"title":"課金システムの開発で学んだこと","locale":"ja"}]}},{"__typename":"SocialMediaPost","id":"HnPost-26702222","excerpt":"","slug":"/hn/26702222","title":"Elixir and Phoenix after two years","date":"April 06, 2021","dateISO":"2021-04-06T08:06:07.428Z","datetime":"2021-04-06 08:06","tags":["story","Hacker News"],"image":null,"imageAlt":null,"provider":"Hacker News","thirdPartyId":"26702222","url":"https://news.ycombinator.com/item?id=26702222","originalUrl":"https://nts.strzibny.name/elixir-phoenix-after-two-year/","imageRemote":"https://nts.strzibny.name/img/elixir.png","video":null,"channel":null,"channelUrl":null,"author":"bfm","authorUrl":"https://news.ycombinator.com/user?id=bfm","authorImage":null,"authorSlug":null,"score":242,"views":null,"sharedCount":null,"likeCount":null,"sharedContent":null,"parent":{"__typename":"HnJson","localize":[{"title":"2年後のエリクサーとフェニックス","locale":"ja-JA"},{"title":"两年后的伊莱克斯和凤凰","locale":"zh"},{"title":"兩年後的伊萊克斯和鳳凰","locale":"zh-Hant"},{"title":"2年後のエリクサーとフェニックス","locale":"ja"}]}}]}},"pageContext":{"basePath":"/","pageType":"tag","tag":"story","tagsFilter":{"id":{"glob":"!*Post-1"}},"filter":{"id":{"glob":"!*Post-1"},"tags":{"eq":"story"}},"limit":25,"skip":0,"total":3106,"totalPages":125,"currentPage":1,"maxWidth":1024,"maxHeight":512,"locale":"ja","hrefLang":"ja-JA","originalPath":"/tags/story/","dateFormat":"YYYY-MM-DD"}},"staticQueryHashes":["1239077767","2506312863","2744905544","3025052997","3493603132","3493603132","3513215887","386998304"]}