{"componentChunkName":"component---gatsby-theme-buzzing-src-gatsby-theme-timeline-templates-posts-query-js","path":"/en/tags/story/page/36","result":{"data":{"site":{"siteMetadata":{"title":"Reddit 热门","description":"用中文浏览Reddit热门内容","social":[{"name":"Twitter","url":"https://twitter.com/gatsbyjs","external":null,"prefetch":null},{"name":"GitHub","url":"https://github.com/gatsbyjs","external":null,"prefetch":null}],"menuLinks":[],"localize":[{"locale":"en","title":"Buzzing on Reddit","description":"See what's buzzing on Reddit in your native language","social":[{"name":"Reddit","url":"https://www.reddit.com/","external":true,"prefetch":null}],"menuLinks":[{"name":"Weekly Selection","url":"/issues","external":null,"prefetch":null},{"name":"RSS","url":"/rss.xml","external":null,"prefetch":false}]},{"locale":"zh-Hant","title":"Reddit 熱門","description":"用中文瀏覽Reddit熱門內容","social":null,"menuLinks":null}]}},"tagsGroup":{"group":[{"fieldValue":"ASK HN","totalCount":42},{"fieldValue":"Bitcoin","totalCount":4},{"fieldValue":"Hacker News","totalCount":2409},{"fieldValue":"Poll","totalCount":1},{"fieldValue":"SaveAMC","totalCount":1},{"fieldValue":"Show HN","totalCount":81},{"fieldValue":"bitcoin","totalCount":3},{"fieldValue":"investing","totalCount":755},{"fieldValue":"poll","totalCount":1},{"fieldValue":"reddit","totalCount":4525},{"fieldValue":"science","totalCount":1},{"fieldValue":"stocks","totalCount":1482},{"fieldValue":"story","totalCount":2408},{"fieldValue":"tweet","totalCount":767},{"fieldValue":"wallstreetbets","totalCount":2288}]},"allBlogPost":{"nodes":[{"__typename":"SocialMediaPost","id":"HnPost-26046461","excerpt":"","slug":"/hn/26046461","title":"I told a cat food company how much they’d save by using taller cans (2020)","date":"February 06, 2021","dateISO":"2021-02-06T19:16:59.525Z","datetime":"2021-02-06 19:16","tags":["story","Hacker News"],"image":null,"imageAlt":null,"provider":"Hacker News","thirdPartyId":"26046461","url":"https://news.ycombinator.com/item?id=26046461","originalUrl":"https://twitter.com/mathematicsprof/status/1235553604016070656","imageRemote":null,"video":null,"channel":null,"channelUrl":null,"author":"Tomte","authorUrl":"https://news.ycombinator.com/user?id=Tomte","authorImage":null,"authorSlug":null,"score":246,"views":null,"sharedCount":null,"likeCount":null,"sharedContent":null,"parent":{"__typename":"HnJson","localize":[{"title":"我告诉一家猫粮公司，使用高罐头可以节省多少钱（2020年）。","locale":"zh"},{"title":"我告訴一家貓糧公司，使用高罐頭可以節省多少錢（2020年）。","locale":"zh-Hant"}]}},{"__typename":"SocialMediaPost","id":"HnPost-26046642","excerpt":"","slug":"/hn/26046642","title":"NordVPN disables features when you turn off auto-renew","date":"February 06, 2021","dateISO":"2021-02-06T18:33:28.032Z","datetime":"2021-02-06 18:33","tags":["story","Hacker News"],"image":null,"imageAlt":null,"provider":"Hacker News","thirdPartyId":"26046642","url":"https://news.ycombinator.com/item?id=26046642","originalUrl":"https://www.reddit.com/r/assholedesign/comments/ldf9g9/nordvpn_disables_features_when_you_turn_off/","imageRemote":"https://external-preview.redd.it/2AfPpF0p0A8jRQ4E502hBZJ9pM_x_YqJJuhgttnHvYY.jpg?auto=webp&s=5969accc930748f7b6b92677b7e3bf0121fbd8d8","video":null,"channel":null,"channelUrl":null,"author":"decrypt","authorUrl":"https://news.ycombinator.com/user?id=decrypt","authorImage":null,"authorSlug":null,"score":426,"views":null,"sharedCount":null,"likeCount":null,"sharedContent":null,"parent":{"__typename":"HnJson","localize":[{"title":"当你关闭自动续费时，NordVPN就会失去功能。","locale":"zh"},{"title":"當你關閉自動續費時，NordVPN就會失去功能。","locale":"zh-Hant"}]}},{"__typename":"SocialMediaPost","id":"HnPost-26046942","excerpt":"","slug":"/hn/26046942","title":"Big name corporations more likely to commit fraud","date":"February 06, 2021","dateISO":"2021-02-06T18:33:28.032Z","datetime":"2021-02-06 18:33","tags":["story","Hacker News"],"image":null,"imageAlt":null,"provider":"Hacker News","thirdPartyId":"26046942","url":"https://news.ycombinator.com/item?id=26046942","originalUrl":"https://news.wsu.edu/2021/02/02/big-name-corporations-likely-commit-fraud/","imageRemote":"https://s3.wp.wsu.edu/uploads/sites/609/2021/02/sean-pollock-PhYq704ffdA-unsplash.jpg","video":null,"channel":null,"channelUrl":null,"author":"CapitalistCartr","authorUrl":"https://news.ycombinator.com/user?id=CapitalistCartr","authorImage":null,"authorSlug":null,"score":261,"views":null,"sharedCount":null,"likeCount":null,"sharedContent":null,"parent":{"__typename":"HnJson","localize":[{"title":"大名鼎鼎的公司更有可能进行欺诈","locale":"zh"},{"title":"大名鼎鼎的公司更有可能進行欺詐","locale":"zh-Hant"}]}},{"__typename":"SocialMediaPost","id":"HnPost-26037687","excerpt":"","slug":"/hn/26037687","title":"8 Bits Are Enough for a Version Number","date":"February 06, 2021","dateISO":"2021-02-06T17:10:05.690Z","datetime":"2021-02-06 17:10","tags":["story","Hacker News"],"image":null,"imageAlt":null,"provider":"Hacker News","thirdPartyId":"26037687","url":"https://news.ycombinator.com/item?id=26037687","originalUrl":"http://kroah.com/log/blog/2021/02/05/8-bits-are-enough-for-a-version-number-dot-dot-dot/","imageRemote":"http://i.creativecommons.org/l/by-nc-sa/3.0/80x15.png","video":null,"channel":null,"channelUrl":null,"author":"Foxboron","authorUrl":"https://news.ycombinator.com/user?id=Foxboron","authorImage":null,"authorSlug":null,"score":167,"views":null,"sharedCount":null,"likeCount":null,"sharedContent":null,"parent":{"__typename":"HnJson","localize":[{"title":"8个位数就够一个版本号了","locale":"zh"},{"title":"8個位數就夠一個版本號了","locale":"zh-Hant"}]}},{"__typename":"SocialMediaPost","id":"HnPost-26045835","excerpt":"","slug":"/hn/26045835","title":"Complexity Explained","date":"February 06, 2021","dateISO":"2021-02-06T16:37:27.121Z","datetime":"2021-02-06 16:37","tags":["story","Hacker News"],"image":null,"imageAlt":null,"provider":"Hacker News","thirdPartyId":"26045835","url":"https://news.ycombinator.com/item?id=26045835","originalUrl":"https://complexityexplained.github.io/","imageRemote":"https://complexityexplained.github.io/images/booklet.png","video":null,"channel":null,"channelUrl":null,"author":"harscoat","authorUrl":"https://news.ycombinator.com/user?id=harscoat","authorImage":null,"authorSlug":null,"score":335,"views":null,"sharedCount":null,"likeCount":null,"sharedContent":null,"parent":{"__typename":"HnJson","localize":[{"title":"复杂性解释","locale":"zh"},{"title":"複雜性解釋","locale":"zh-Hant"}]}},{"__typename":"SocialMediaPost","id":"HnPost-26037041","excerpt":"","slug":"/hn/26037041","title":"Galaxy-Size Gravitational-Wave Detector Hints at Exotic Physics","date":"February 06, 2021","dateISO":"2021-02-06T15:29:56.442Z","datetime":"2021-02-06 15:29","tags":["story","Hacker News"],"image":null,"imageAlt":null,"provider":"Hacker News","thirdPartyId":"26037041","url":"https://news.ycombinator.com/item?id=26037041","originalUrl":"https://www.scientificamerican.com/article/galaxy-size-gravitational-wave-detector-hints-at-exotic-physics/","imageRemote":"https://static.scientificamerican.com/sciam/cache/file/E9080E88-6CEB-4EDF-A31E4E812B1F27E5.png","video":null,"channel":null,"channelUrl":null,"author":"pseudolus","authorUrl":"https://news.ycombinator.com/user?id=pseudolus","authorImage":null,"authorSlug":null,"score":168,"views":null,"sharedCount":null,"likeCount":null,"sharedContent":null,"parent":{"__typename":"HnJson","localize":[{"title":"银河系大小的引力波探测器暗示了奇异的物理现象","locale":"zh"},{"title":"銀河系大小的引力波探測器暗示了奇異的物理現象","locale":"zh-Hant"}]}},{"__typename":"SocialMediaPost","id":"HnPost-26042463","excerpt":"","slug":"/hn/26042463","title":"Show HN: Ht – HTTPie Clone in Rust","date":"February 06, 2021","dateISO":"2021-02-06T10:44:45.483Z","datetime":"2021-02-06 10:44","tags":["story","Show HN","Hacker News"],"image":null,"imageAlt":null,"provider":"Hacker News","thirdPartyId":"26042463","url":"https://news.ycombinator.com/item?id=26042463","originalUrl":"https://github.com/ducaale/ht","imageRemote":"https://avatars.githubusercontent.com/u/16341131?s=400&v=4","video":null,"channel":"Show HN","channelUrl":"https://news.ycombinator.com/show","author":"ducaale","authorUrl":"https://news.ycombinator.com/user?id=ducaale","authorImage":null,"authorSlug":null,"score":250,"views":null,"sharedCount":null,"likeCount":null,"sharedContent":null,"parent":{"__typename":"HnJson","localize":[{"title":"显示HN：Ht - Rust中的HTTPie克隆。","locale":"zh"},{"title":"顯示HN：Ht - Rust中的HTTPie克隆。","locale":"zh-Hant"}]}},{"__typename":"SocialMediaPost","id":"HnPost-26043815","excerpt":"","slug":"/hn/26043815","title":"In historic shift, Virginia lawmakers pass marijuana legalization bills","date":"February 06, 2021","dateISO":"2021-02-06T08:21:43.284Z","datetime":"2021-02-06 08:21","tags":["story","Hacker News"],"image":null,"imageAlt":null,"provider":"Hacker News","thirdPartyId":"26043815","url":"https://news.ycombinator.com/item?id=26043815","originalUrl":"https://wset.com/news/local/virginia-house-votes-legalize-marijuana","imageRemote":"https://static-29.sinclairstoryline.com/resources/media/c21e5f15-6004-49dd-9d0b-74d06b801372-large16x9_Marijuana.jpeg?1612545843811","video":null,"channel":null,"channelUrl":null,"author":"underseacables","authorUrl":"https://news.ycombinator.com/user?id=underseacables","authorImage":null,"authorSlug":null,"score":228,"views":null,"sharedCount":null,"likeCount":null,"sharedContent":null,"parent":{"__typename":"HnJson","localize":[{"title":"历史性转变，弗吉尼亚州立法者通过大麻合法化法案","locale":"zh"},{"title":"歷史性轉變，弗吉尼亞州立法者通過大麻合法化法案","locale":"zh-Hant"}]}},{"__typename":"SocialMediaPost","id":"HnPost-26043294","excerpt":"","slug":"/hn/26043294","title":"Netflix's Annual Reports (10-Ks) used to be a work of art. What happened?","date":"February 06, 2021","dateISO":"2021-02-06T07:49:49.568Z","datetime":"2021-02-06 07:49","tags":["story","Hacker News"],"image":null,"imageAlt":null,"provider":"Hacker News","thirdPartyId":"26043294","url":"https://news.ycombinator.com/item?id=26043294","originalUrl":"https://singhkays.com/blog/netflix-annual-reports-work-of-art/","imageRemote":"https://singhkays.com/blog/netflix-annual-reports-work-of-art/media/netflix-annual-report-10k-2002.png","video":null,"channel":null,"channelUrl":null,"author":"singhkays","authorUrl":"https://news.ycombinator.com/user?id=singhkays","authorImage":null,"authorSlug":null,"score":242,"views":null,"sharedCount":null,"likeCount":null,"sharedContent":null,"parent":{"__typename":"HnJson","localize":[{"title":"Netflix的年报（10-Ks）曾经是一件艺术品。怎么了？","locale":"zh"},{"title":"Netflix的年報（10-Ks）曾經是一件藝術品。怎麼了？","locale":"zh-Hant"}]}},{"__typename":"SocialMediaPost","id":"HnPost-26035623","excerpt":"","slug":"/hn/26035623","title":"Reloadr – Hot code reloading tool for Python","date":"February 06, 2021","dateISO":"2021-02-06T06:59:00.352Z","datetime":"2021-02-06 06:59","tags":["story","Hacker News"],"image":null,"imageAlt":null,"provider":"Hacker News","thirdPartyId":"26035623","url":"https://news.ycombinator.com/item?id=26035623","originalUrl":"https://github.com/hoh/reloadr","imageRemote":"https://avatars.githubusercontent.com/u/404665?s=400&v=4","video":null,"channel":null,"channelUrl":null,"author":"albertzeyer","authorUrl":"https://news.ycombinator.com/user?id=albertzeyer","authorImage":null,"authorSlug":null,"score":175,"views":null,"sharedCount":null,"likeCount":null,"sharedContent":null,"parent":{"__typename":"HnJson","localize":[{"title":"Reloadr - Python的热代码重载工具","locale":"zh"},{"title":"Reloadr - Python的熱代碼重載工具","locale":"zh-Hant"}]}},{"__typename":"SocialMediaPost","id":"HnPost-26041001","excerpt":"","slug":"/hn/26041001","title":"Notes on My Chemotherapy","date":"February 06, 2021","dateISO":"2021-02-06T06:52:12.063Z","datetime":"2021-02-06 06:52","tags":["story","Hacker News"],"image":null,"imageAlt":null,"provider":"Hacker News","thirdPartyId":"26041001","url":"https://news.ycombinator.com/item?id=26041001","originalUrl":"https://www.charlieharrington.com/chemotherapy","imageRemote":"https://www.charlieharrington.com/static/plugged-a2b9526d8bba6f700a5e341eb34f2d35.jpg","video":null,"channel":null,"channelUrl":null,"author":"whatrocks","authorUrl":"https://news.ycombinator.com/user?id=whatrocks","authorImage":null,"authorSlug":null,"score":206,"views":null,"sharedCount":null,"likeCount":null,"sharedContent":null,"parent":{"__typename":"HnJson","localize":[{"title":"我的化疗笔记","locale":"zh"},{"title":"我的化療筆記","locale":"zh-Hant"}]}},{"__typename":"SocialMediaPost","id":"HnPost-26020732","excerpt":"","slug":"/hn/26020732","title":"You don't really need a virtualenv","date":"February 06, 2021","dateISO":"2021-02-06T04:22:22.849Z","datetime":"2021-02-06 04:22","tags":["story","Hacker News"],"image":null,"imageAlt":null,"provider":"Hacker News","thirdPartyId":"26020732","url":"https://news.ycombinator.com/item?id=26020732","originalUrl":"https://frostming.com/2021/01-22/introducing-pdm/","imageRemote":"https://images.unsplash.com/photo-1512418490979-92798cec1380?ixlib=rb-1.2.1&ixid=eyJhcHBfaWQiOjEyMDd9&auto=format&fit=crop&w=1350&q=80","video":null,"channel":null,"channelUrl":null,"author":"gilad","authorUrl":"https://news.ycombinator.com/user?id=gilad","authorImage":null,"authorSlug":null,"score":169,"views":null,"sharedCount":null,"likeCount":null,"sharedContent":null,"parent":{"__typename":"HnJson","localize":[{"title":"你真的不需要virtualenv。","locale":"zh"},{"title":"你真的不需要virtualenv。","locale":"zh-Hant"}]}},{"__typename":"SocialMediaPost","id":"HnPost-26042416","excerpt":"","slug":"/hn/26042416","title":"I'm the high QA guy. Let me test your website","date":"February 06, 2021","dateISO":"2021-02-06T02:34:08.295Z","datetime":"2021-02-06 02:34","tags":["story","Hacker News"],"image":null,"imageAlt":null,"provider":"Hacker News","thirdPartyId":"26042416","url":"https://news.ycombinator.com/item?id=26042416","originalUrl":"http://www.highqaguy.com/","imageRemote":null,"video":null,"channel":null,"channelUrl":null,"author":"highqaguy","authorUrl":"https://news.ycombinator.com/user?id=highqaguy","authorImage":null,"authorSlug":null,"score":409,"views":null,"sharedCount":null,"likeCount":null,"sharedContent":null,"parent":{"__typename":"HnJson","localize":[{"title":"我是高QA的人。让我来测试你的网站","locale":"zh"},{"title":"我是高QA的人。讓我來測試你的網站","locale":"zh-Hant"}]}},{"__typename":"SocialMediaPost","id":"HnPost-26038501","excerpt":"","slug":"/hn/26038501","title":"Show HN: Remarkbox – Hosted comments without ads or tracking","date":"February 06, 2021","dateISO":"2021-02-06T01:19:23.354Z","datetime":"2021-02-06 01:19","tags":["story","Show HN","Hacker News"],"image":null,"imageAlt":null,"provider":"Hacker News","thirdPartyId":"26038501","url":"https://news.ycombinator.com/item?id=26038501","originalUrl":"https://www.remarkbox.com/remarkbox-is-now-pay-what-you-can.html","imageRemote":"https://www.remarkbox.com/remarkbox-minified.png","video":null,"channel":"Show HN","channelUrl":"https://news.ycombinator.com/show","author":"foxhop","authorUrl":"https://news.ycombinator.com/user?id=foxhop","authorImage":null,"authorSlug":null,"score":232,"views":null,"sharedCount":null,"likeCount":null,"sharedContent":null,"parent":{"__typename":"HnJson","localize":[{"title":"显示 HN: Remarkbox - 无广告或跟踪的托管评论。","locale":"zh"},{"title":"顯示 HN: Remarkbox - 無廣告或跟蹤的託管評論。","locale":"zh-Hant"}]}},{"__typename":"SocialMediaPost","id":"HnPost-26040234","excerpt":"","slug":"/hn/26040234","title":"Spyder – a free and open source scientific environment written in Python","date":"February 05, 2021","dateISO":"2021-02-05T23:23:33.449Z","datetime":"2021-02-05 23:23","tags":["story","Hacker News"],"image":null,"imageAlt":null,"provider":"Hacker News","thirdPartyId":"26040234","url":"https://news.ycombinator.com/item?id=26040234","originalUrl":"https://www.spyder-ide.org/","imageRemote":"https://www.spyder-ide.org/static/images/spyder_logo.png?h=5c3a431e","video":null,"channel":null,"channelUrl":null,"author":"jka","authorUrl":"https://news.ycombinator.com/user?id=jka","authorImage":null,"authorSlug":null,"score":386,"views":null,"sharedCount":null,"likeCount":null,"sharedContent":null,"parent":{"__typename":"HnJson","localize":[{"title":"Spyder - 一个用Python编写的免费和开源的科学环境。","locale":"zh"},{"title":"Spyder - 一個用Python編寫的免費和開源的科學環境。","locale":"zh-Hant"}]}},{"__typename":"SocialMediaPost","id":"HnPost-26039111","excerpt":"","slug":"/hn/26039111","title":"CodeMirror 6","date":"February 05, 2021","dateISO":"2021-02-05T22:42:00.990Z","datetime":"2021-02-05 22:42","tags":["story","Hacker News"],"image":null,"imageAlt":null,"provider":"Hacker News","thirdPartyId":"26039111","url":"https://news.ycombinator.com/item?id=26039111","originalUrl":"https://codemirror.net/6/","imageRemote":null,"video":null,"channel":null,"channelUrl":null,"author":"gtirloni","authorUrl":"https://news.ycombinator.com/user?id=gtirloni","authorImage":null,"authorSlug":null,"score":218,"views":null,"sharedCount":null,"likeCount":null,"sharedContent":null,"parent":{"__typename":"HnJson","localize":[{"title":"CodeMirror 6","locale":"zh"},{"title":"CodeMirror 6","locale":"zh-Hant"}]}},{"__typename":"SocialMediaPost","id":"HnPost-26036613","excerpt":"","slug":"/hn/26036613","title":"Modifying Telegram's “People Nearby” feature to pinpoint people's homes","date":"February 05, 2021","dateISO":"2021-02-05T22:22:16.643Z","datetime":"2021-02-05 22:22","tags":["story","Hacker News"],"image":null,"imageAlt":null,"provider":"Hacker News","thirdPartyId":"26036613","url":"https://news.ycombinator.com/item?id=26036613","originalUrl":"https://owlspace.xyz/cybersec/tg-nearby/","imageRemote":"https://owlspace.xyz/images/tg-nearby/hero.png","video":null,"channel":null,"channelUrl":null,"author":"todsacerdoti","authorUrl":"https://news.ycombinator.com/user?id=todsacerdoti","authorImage":null,"authorSlug":null,"score":232,"views":null,"sharedCount":null,"likeCount":null,"sharedContent":null,"parent":{"__typename":"HnJson","localize":[{"title":"修改Telegram的 \"附近的人 \"功能，精准定位人们的家。","locale":"zh"},{"title":"修改Telegram的 \"附近的人 \"功能，精準定位人們的家。","locale":"zh-Hant"}]}},{"__typename":"SocialMediaPost","id":"HnPost-26022750","excerpt":"","slug":"/hn/26022750","title":"Making Vaccine","date":"February 05, 2021","dateISO":"2021-02-05T20:58:55.803Z","datetime":"2021-02-05 20:58","tags":["story","Hacker News"],"image":null,"imageAlt":null,"provider":"Hacker News","thirdPartyId":"26022750","url":"https://news.ycombinator.com/item?id=26022750","originalUrl":"https://www.lesswrong.com/posts/niQ3heWwF6SydhS7R/making-vaccine","imageRemote":"https://lh6.googleusercontent.com/uxoGOAa3HAA1jUr_ZH4vS461fKSfu5La-0MU3J-zjPmR20Zb7A045ddiLNOEGvgKXvlZ03mup2W7DzIibwlkwIuK5cGujHqqI_FAkpcyx0ErVKa5ihlYakPsHx9JClXCxfJNfNrE","video":null,"channel":null,"channelUrl":null,"author":"di","authorUrl":"https://news.ycombinator.com/user?id=di","authorImage":null,"authorSlug":null,"score":534,"views":null,"sharedCount":null,"likeCount":null,"sharedContent":null,"parent":{"__typename":"HnJson","localize":[{"title":"制造疫苗","locale":"zh"},{"title":"製造疫苗","locale":"zh-Hant"}]}},{"__typename":"SocialMediaPost","id":"HnPost-26036695","excerpt":"","slug":"/hn/26036695","title":"Chromium cleans up its act and daily DNS root server queries drop by 60B","date":"February 05, 2021","dateISO":"2021-02-05T20:42:20.544Z","datetime":"2021-02-05 20:42","tags":["story","Hacker News"],"image":null,"imageAlt":null,"provider":"Hacker News","thirdPartyId":"26036695","url":"https://news.ycombinator.com/item?id=26036695","originalUrl":"https://www.theregister.com/2021/02/04/chromium_dns_traffic_drop/","imageRemote":"https://regmedia.co.uk/2021/02/04/digital_tap_shutterstock.jpg","video":null,"channel":null,"channelUrl":null,"author":"bdcravens","authorUrl":"https://news.ycombinator.com/user?id=bdcravens","authorImage":null,"authorSlug":null,"score":208,"views":null,"sharedCount":null,"likeCount":null,"sharedContent":null,"parent":{"__typename":"HnJson","localize":[{"title":"Chromium清理行为，DNS根服务器日查询量下降60B。","locale":"zh"},{"title":"Chromium清理行爲，DNS根服務器日查詢量下降60B。","locale":"zh-Hant"}]}},{"__typename":"SocialMediaPost","id":"HnPost-26034399","excerpt":"","slug":"/hn/26034399","title":"The endless browser wars","date":"February 05, 2021","dateISO":"2021-02-05T19:53:55.007Z","datetime":"2021-02-05 19:53","tags":["story","Hacker News"],"image":null,"imageAlt":null,"provider":"Hacker News","thirdPartyId":"26034399","url":"https://news.ycombinator.com/item?id=26034399","originalUrl":"https://lwn.net/Articles/843607/","imageRemote":"https://static.lwn.net/images/logo/barepenguin-70.png","video":null,"channel":null,"channelUrl":null,"author":"signa11","authorUrl":"https://news.ycombinator.com/user?id=signa11","authorImage":null,"authorSlug":null,"score":207,"views":null,"sharedCount":null,"likeCount":null,"sharedContent":null,"parent":{"__typename":"HnJson","localize":[{"title":"无休止的浏览器战争","locale":"zh"},{"title":"無休止的瀏覽器戰爭","locale":"zh-Hant"}]}},{"__typename":"SocialMediaPost","id":"HnPost-26037461","excerpt":"","slug":"/hn/26037461","title":"Veloren – Open-source MMORPG written in Rust","date":"February 05, 2021","dateISO":"2021-02-05T18:56:30.339Z","datetime":"2021-02-05 18:56","tags":["story","Hacker News"],"image":null,"imageAlt":null,"provider":"Hacker News","thirdPartyId":"26037461","url":"https://news.ycombinator.com/item?id=26037461","originalUrl":"https://veloren.net/","imageRemote":"https://veloren.net/Logo_Square.png","video":null,"channel":null,"channelUrl":null,"author":"agluszak","authorUrl":"https://news.ycombinator.com/user?id=agluszak","authorImage":null,"authorSlug":null,"score":307,"views":null,"sharedCount":null,"likeCount":null,"sharedContent":null,"parent":{"__typename":"HnJson","localize":[{"title":"Veloren - 用Rust编写的开源MMORPG。","locale":"zh"},{"title":"Veloren - 用Rust編寫的開源MMORPG。","locale":"zh-Hant"}]}},{"__typename":"SocialMediaPost","id":"HnPost-26037613","excerpt":"","slug":"/hn/26037613","title":"Fecal transplant turns cancer immunotherapy non-responders into responders","date":"February 05, 2021","dateISO":"2021-02-05T18:56:30.339Z","datetime":"2021-02-05 18:56","tags":["story","Hacker News"],"image":null,"imageAlt":null,"provider":"Hacker News","thirdPartyId":"26037613","url":"https://news.ycombinator.com/item?id=26037613","originalUrl":"https://www.eurekalert.org/pub_releases/2021-02/uop-ftt012921.php","imageRemote":"https://www.eurekalert.org/multimedia/pub/web/254964_web.jpg","video":null,"channel":null,"channelUrl":null,"author":"CharlesW","authorUrl":"https://news.ycombinator.com/user?id=CharlesW","authorImage":null,"authorSlug":null,"score":407,"views":null,"sharedCount":null,"likeCount":null,"sharedContent":null,"parent":{"__typename":"HnJson","localize":[{"title":"粪便移植使癌症免疫治疗的非应答者变成应答者","locale":"zh"},{"title":"糞便移植使癌症免疫治療的非應答者變成應答者","locale":"zh-Hant"}]}},{"__typename":"SocialMediaPost","id":"HnPost-26036790","excerpt":"","slug":"/hn/26036790","title":"The Elements of Computing Systems, Second Edition","date":"February 05, 2021","dateISO":"2021-02-05T18:44:34.908Z","datetime":"2021-02-05 18:44","tags":["story","Hacker News"],"image":null,"imageAlt":null,"provider":"Hacker News","thirdPartyId":"26036790","url":"https://news.ycombinator.com/item?id=26036790","originalUrl":"https://mitpress.mit.edu/books/elements-computing-systems-second-edition","imageRemote":"https://mitpress.mit.edu/sites/default/files/styles/large_book_cover/http/mitp-content-server.mit.edu%3A18180/books/covers/cover/%3Fcollid%3Dbooks_covers_0%26isbn%3D9780262539807%26type%3D.jpg?itok=KlT7RdFp","video":null,"channel":null,"channelUrl":null,"author":"VitalyAnkh","authorUrl":"https://news.ycombinator.com/user?id=VitalyAnkh","authorImage":null,"authorSlug":null,"score":573,"views":null,"sharedCount":null,"likeCount":null,"sharedContent":null,"parent":{"__typename":"HnJson","localize":[{"title":"计算系统要素》，第二版","locale":"zh"},{"title":"計算系統要素》，第二版","locale":"zh-Hant"}]}},{"__typename":"SocialMediaPost","id":"HnPost-26035449","excerpt":"","slug":"/hn/26035449","title":"Google, Apple cave to Pakistan pressure to take down apps by Ahmadiyya Muslims","date":"February 05, 2021","dateISO":"2021-02-05T16:15:57.460Z","datetime":"2021-02-05 16:15","tags":["story","Hacker News"],"image":null,"imageAlt":null,"provider":"Hacker News","thirdPartyId":"26035449","url":"https://news.ycombinator.com/item?id=26035449","originalUrl":"https://www.buzzfeednews.com/article/meghara/pakistan-forced-down-ahmadiyya-apps","imageRemote":"https://img.buzzfeed.com/buzzfeed-static/static/2021-02/4/21/enhanced/cc78f6165d8e/longform-original-88-1612474654-11.jpg?crop=1373:719;116,203","video":null,"channel":null,"channelUrl":null,"author":"shalmanese","authorUrl":"https://news.ycombinator.com/user?id=shalmanese","authorImage":null,"authorSlug":null,"score":426,"views":null,"sharedCount":null,"likeCount":null,"sharedContent":null,"parent":{"__typename":"HnJson","localize":[{"title":"谷歌、苹果向巴基斯坦施压屈服，要求删除艾哈迈迪耶派穆斯林的应用程序","locale":"zh"},{"title":"谷歌、蘋果向巴基斯坦施壓屈服，要求刪除艾哈邁迪耶派穆斯林的應用程序","locale":"zh-Hant"}]}},{"__typename":"SocialMediaPost","id":"HnPost-26028146","excerpt":"","slug":"/hn/26028146","title":"Stepping Down as CEO of the Wikimedia Foundation","date":"February 05, 2021","dateISO":"2021-02-05T15:48:13.168Z","datetime":"2021-02-05 15:48","tags":["story","Hacker News"],"image":null,"imageAlt":null,"provider":"Hacker News","thirdPartyId":"26028146","url":"https://news.ycombinator.com/item?id=26028146","originalUrl":"https://diff.wikimedia.org/2021/02/04/stepping-down-as-ceo-of-the-wikimedia-foundation/","imageRemote":"https://diff.wikimedia.org/wp-content/uploads/2021/02/20180523_WIKI_KM_205.jpg?fit=6322%2C4215","video":null,"channel":null,"channelUrl":null,"author":"Amorymeltzer","authorUrl":"https://news.ycombinator.com/user?id=Amorymeltzer","authorImage":null,"authorSlug":null,"score":205,"views":null,"sharedCount":null,"likeCount":null,"sharedContent":null,"parent":{"__typename":"HnJson","localize":[{"title":"卸任维基媒体基金会首席执行官一职","locale":"zh"},{"title":"卸任維基媒體基金會首席執行官一職","locale":"zh-Hant"}]}}]}},"pageContext":{"basePath":"/","pageType":"tag","tag":"story","tagsFilter":{"id":{"glob":"!*Post-1"}},"filter":{"id":{"glob":"!*Post-1"},"tags":{"eq":"story"}},"limit":25,"skip":875,"total":2408,"totalPages":97,"currentPage":36,"maxWidth":1024,"maxHeight":512,"locale":"en","hrefLang":"en-US","originalPath":"/tags/story/page/36","dateFormat":"MM/DD/YYYY"}},"staticQueryHashes":["1239077767","2506312863","2744905544","3025052997","3493603132","3493603132","3513215887","386998304"]}