{"componentChunkName":"component---gatsby-theme-buzzing-src-gatsby-theme-timeline-templates-posts-query-js","path":"/zh-Hant/tags/story/page/27","result":{"data":{"site":{"siteMetadata":{"title":"Reddit 热门","description":"用中文浏览Reddit热门内容","social":[{"name":"Twitter","url":"https://twitter.com/gatsbyjs","external":null,"prefetch":null},{"name":"GitHub","url":"https://github.com/gatsbyjs","external":null,"prefetch":null}],"menuLinks":[],"localize":[{"locale":"en","title":"Buzzing on Reddit","description":"See what's buzzing on Reddit in your native language","social":[{"name":"Reddit","url":"https://www.reddit.com/","external":true,"prefetch":null}],"menuLinks":[{"name":"Weekly Selection","url":"/issues","external":null,"prefetch":null},{"name":"RSS","url":"/rss.xml","external":null,"prefetch":false}]},{"locale":"zh-Hant","title":"Reddit 熱門","description":"用中文瀏覽Reddit熱門內容","social":null,"menuLinks":null}]}},"tagsGroup":{"group":[{"fieldValue":"ASK HN","totalCount":44},{"fieldValue":"Bitcoin","totalCount":4},{"fieldValue":"Hacker News","totalCount":2600},{"fieldValue":"Poll","totalCount":1},{"fieldValue":"SaveAMC","totalCount":1},{"fieldValue":"Show HN","totalCount":89},{"fieldValue":"bitcoin","totalCount":3},{"fieldValue":"investing","totalCount":797},{"fieldValue":"poll","totalCount":1},{"fieldValue":"reddit","totalCount":4938},{"fieldValue":"science","totalCount":1},{"fieldValue":"stocks","totalCount":1592},{"fieldValue":"story","totalCount":2599},{"fieldValue":"tweet","totalCount":814},{"fieldValue":"wallstreetbets","totalCount":2549}]},"allBlogPost":{"nodes":[{"__typename":"SocialMediaPost","id":"HnPost-26225201","excerpt":"","slug":"/hn/26225201","title":"Daft Punk Break Up","date":"February 22, 2021","dateISO":"2021-02-22T15:36:57.616Z","datetime":"2021-02-22 15:36","tags":["story","Hacker News"],"image":null,"imageAlt":null,"provider":"Hacker News","thirdPartyId":"26225201","url":"https://news.ycombinator.com/item?id=26225201","originalUrl":"https://pitchfork.com/news/daft-punk-call-it-quits/","imageRemote":"https://media.pitchfork.com/photos/6033c2aa3221fafe5fc2d1a7/16:9/w_1280,c_limit/Daft-Punk.jpg","video":null,"channel":null,"channelUrl":null,"author":"psychanarch","authorUrl":"https://news.ycombinator.com/user?id=psychanarch","authorImage":null,"authorSlug":null,"score":1102,"views":null,"sharedCount":null,"likeCount":null,"sharedContent":null,"parent":{"__typename":"HnJson","localize":[{"title":"Daft Punk分手","locale":"zh"},{"title":"Daft Punk分手","locale":"zh-Hant"}]}},{"__typename":"SocialMediaPost","id":"HnPost-26222709","excerpt":"","slug":"/hn/26222709","title":"Ethereum Isn't Fun Anymore","date":"February 22, 2021","dateISO":"2021-02-22T15:22:32.456Z","datetime":"2021-02-22 15:22","tags":["story","Hacker News"],"image":null,"imageAlt":null,"provider":"Hacker News","thirdPartyId":"26222709","url":"https://news.ycombinator.com/item?id=26222709","originalUrl":"https://timdaub.github.io/2021/02/22/ethereum-isnt-fun-anymore/","imageRemote":"https://timdaub.github.io/assets/images/pedro.gif","video":null,"channel":null,"channelUrl":null,"author":"timdaub","authorUrl":"https://news.ycombinator.com/user?id=timdaub","authorImage":null,"authorSlug":null,"score":291,"views":null,"sharedCount":null,"likeCount":null,"sharedContent":null,"parent":{"__typename":"HnJson","localize":[{"title":"Ethereum不再好玩了","locale":"zh"},{"title":"Ethereum不再好玩了","locale":"zh-Hant"}]}},{"__typename":"SocialMediaPost","id":"HnPost-26223303","excerpt":"","slug":"/hn/26223303","title":"Twitter locks out Irish Bishop after he criticized euthanasia","date":"February 22, 2021","dateISO":"2021-02-22T14:22:39.508Z","datetime":"2021-02-22 14:22","tags":["story","Hacker News"],"image":null,"imageAlt":null,"provider":"Hacker News","thirdPartyId":"26223303","url":"https://news.ycombinator.com/item?id=26223303","originalUrl":"https://reclaimthenet.org/twitter-locks-out-irish-bishop-after-he-criticized-euthanasia/","imageRemote":"https://reclaimthenet.org/wp-content/uploads/2021/02/bishop-34.png","video":null,"channel":null,"channelUrl":null,"author":"URfejk","authorUrl":"https://news.ycombinator.com/user?id=URfejk","authorImage":null,"authorSlug":null,"score":221,"views":null,"sharedCount":null,"likeCount":null,"sharedContent":null,"parent":{"__typename":"HnJson","localize":[{"title":"爱尔兰主教批评安乐死后，推特锁定了他的名字","locale":"zh"},{"title":"愛爾蘭主教批評安樂死後，推特鎖定了他的名字","locale":"zh-Hant"}]}},{"__typename":"SocialMediaPost","id":"HnPost-26221607","excerpt":"","slug":"/hn/26221607","title":"Indian Government Breached, Massive Amount of Critical Vulnerabilities","date":"February 22, 2021","dateISO":"2021-02-22T12:42:48.831Z","datetime":"2021-02-22 12:42","tags":["story","Hacker News"],"image":null,"imageAlt":null,"provider":"Hacker News","thirdPartyId":"26221607","url":"https://news.ycombinator.com/item?id=26221607","originalUrl":"https://johnjhacking.com/blog/indian-government-breached-massive-amount-of-critical-vulnerabilities/","imageRemote":"https://johnjhacking.com/uploads/shutterstock_1483042820.png","video":null,"channel":null,"channelUrl":null,"author":"astroanax","authorUrl":"https://news.ycombinator.com/user?id=astroanax","authorImage":null,"authorSlug":null,"score":301,"views":null,"sharedCount":null,"likeCount":null,"sharedContent":null,"parent":{"__typename":"HnJson","localize":[{"title":"印度政府被攻破，存在大量关键漏洞","locale":"zh"},{"title":"印度政府被攻破，存在大量關鍵漏洞","locale":"zh-Hant"}]}},{"__typename":"SocialMediaPost","id":"HnPost-26217754","excerpt":"","slug":"/hn/26217754","title":"Cross-Database Queries in SQLite","date":"February 22, 2021","dateISO":"2021-02-22T11:58:11.720Z","datetime":"2021-02-22 11:58","tags":["story","Hacker News"],"image":null,"imageAlt":null,"provider":"Hacker News","thirdPartyId":"26217754","url":"https://news.ycombinator.com/item?id=26217754","originalUrl":"https://simonwillison.net/2021/Feb/21/cross-database-queries/","imageRemote":"https://avatars0.githubusercontent.com/u/9599?v=4&s=200","video":null,"channel":null,"channelUrl":null,"author":"chmaynard","authorUrl":"https://news.ycombinator.com/user?id=chmaynard","authorImage":null,"authorSlug":null,"score":197,"views":null,"sharedCount":null,"likeCount":null,"sharedContent":null,"parent":{"__typename":"HnJson","localize":[{"title":"SQLite中的跨数据库查询","locale":"zh"},{"title":"SQLite中的跨數據庫查詢","locale":"zh-Hant"}]}},{"__typename":"SocialMediaPost","id":"HnPost-26221211","excerpt":"","slug":"/hn/26221211","title":"Hitchhikers Guide to the Galaxy – 30th Anniversary Edition – Free Play Online","date":"February 22, 2021","dateISO":"2021-02-22T10:40:31.806Z","datetime":"2021-02-22 10:40","tags":["story","Hacker News"],"image":null,"imageAlt":null,"provider":"Hacker News","thirdPartyId":"26221211","url":"https://news.ycombinator.com/item?id=26221211","originalUrl":"https://www.bbc.co.uk/programmes/articles/1g84m0sXpnNCv84GpN2PLZG/the-game-30th-anniversary-edition","imageRemote":"https://ichef.bbci.co.uk/images/ic/1200x675/p01td1wq.jpg","video":null,"channel":null,"channelUrl":null,"author":"sep_field","authorUrl":"https://news.ycombinator.com/user?id=sep_field","authorImage":null,"authorSlug":null,"score":247,"views":null,"sharedCount":null,"likeCount":null,"sharedContent":null,"parent":{"__typename":"HnJson","localize":[{"title":"银河系漫游指南 - 30周年纪念版 - 免费在线播放","locale":"zh"},{"title":"銀河系漫遊指南 - 30週年紀念版 - 免費在線播放","locale":"zh-Hant"}]}},{"__typename":"SocialMediaPost","id":"HnPost-26203282","excerpt":"","slug":"/hn/26203282","title":"What Is Huffman Coding?","date":"February 22, 2021","dateISO":"2021-02-22T08:51:50.101Z","datetime":"2021-02-22 08:51","tags":["story","Hacker News"],"image":null,"imageAlt":null,"provider":"Hacker News","thirdPartyId":"26203282","url":"https://news.ycombinator.com/item?id=26203282","originalUrl":"https://www.baseclass.io/huffman-coding/","imageRemote":"https://www.baseclass.io/huffman-coding/2.png","video":null,"channel":null,"channelUrl":null,"author":"davethedevguy","authorUrl":"https://news.ycombinator.com/user?id=davethedevguy","authorImage":null,"authorSlug":null,"score":280,"views":null,"sharedCount":null,"likeCount":null,"sharedContent":null,"parent":{"__typename":"HnJson","localize":[{"title":"什么是赫夫曼编码？","locale":"zh"},{"title":"什麼是赫夫曼編碼？","locale":"zh-Hant"}]}},{"__typename":"SocialMediaPost","id":"HnPost-26205941","excerpt":"","slug":"/hn/26205941","title":"I paid for Spotify playlist placements so you don’t have to","date":"February 22, 2021","dateISO":"2021-02-22T08:21:30.919Z","datetime":"2021-02-22 08:21","tags":["story","Hacker News"],"image":null,"imageAlt":null,"provider":"Hacker News","thirdPartyId":"26205941","url":"https://news.ycombinator.com/item?id=26205941","originalUrl":"https://najinsan.wordpress.com/2021/02/15/i-paid-for-spotify-playlist-placements-so-you-dont-have-to/","imageRemote":"https://najinsan.files.wordpress.com/2021/02/screenshot-2021-02-15-at-14.27.08.png","video":null,"channel":null,"channelUrl":null,"author":"pgl","authorUrl":"https://news.ycombinator.com/user?id=pgl","authorImage":null,"authorSlug":null,"score":221,"views":null,"sharedCount":null,"likeCount":null,"sharedContent":null,"parent":{"__typename":"HnJson","localize":[{"title":"我花钱买了Spotify的播放列表的位置，所以你不需要","locale":"zh"},{"title":"我花錢買了Spotify的播放列表的位置，所以你不需要","locale":"zh-Hant"}]}},{"__typename":"SocialMediaPost","id":"HnPost-26212491","excerpt":"","slug":"/hn/26212491","title":"Passerine: A small extensible language designed for concise expression","date":"February 22, 2021","dateISO":"2021-02-22T08:21:30.919Z","datetime":"2021-02-22 08:21","tags":["story","Hacker News"],"image":null,"imageAlt":null,"provider":"Hacker News","thirdPartyId":"26212491","url":"https://news.ycombinator.com/item?id=26212491","originalUrl":"http://passerine.io","imageRemote":"https://raw.githubusercontent.com/vrtbl/passerine/master/Logo.svg","video":null,"channel":null,"channelUrl":null,"author":"isaacimagine","authorUrl":"https://news.ycombinator.com/user?id=isaacimagine","authorImage":null,"authorSlug":null,"score":227,"views":null,"sharedCount":null,"likeCount":null,"sharedContent":null,"parent":{"__typename":"HnJson","localize":[{"title":"Passerine。一个小型的可扩展语言，旨在实现简明的表达方式。","locale":"zh"},{"title":"Passerine。一個小型的可擴展語言，旨在實現簡明的表達方式。","locale":"zh-Hant"}]}},{"__typename":"SocialMediaPost","id":"HnPost-26218693","excerpt":"","slug":"/hn/26218693","title":"TransferWise: World, Meet Wise","date":"February 22, 2021","dateISO":"2021-02-22T07:28:44.318Z","datetime":"2021-02-22 07:28","tags":["story","Hacker News"],"image":null,"imageAlt":null,"provider":"Hacker News","thirdPartyId":"26218693","url":"https://news.ycombinator.com/item?id=26218693","originalUrl":"https://wise.com/gb/blog/world-meet-wise","imageRemote":"https://wise.com/imaginary/d23daaf9cb26799c420f0e0dc2ea89d7.gif","video":null,"channel":null,"channelUrl":null,"author":"watbe","authorUrl":"https://news.ycombinator.com/user?id=watbe","authorImage":null,"authorSlug":null,"score":242,"views":null,"sharedCount":null,"likeCount":null,"sharedContent":null,"parent":{"__typename":"HnJson","localize":[{"title":"传智。世界，遇见智者","locale":"zh"},{"title":"傳智。世界，遇見智者","locale":"zh-Hant"}]}},{"__typename":"SocialMediaPost","id":"HnPost-26205969","excerpt":"","slug":"/hn/26205969","title":"How Swift achieved dynamic linking where Rust couldn't (2019)","date":"February 22, 2021","dateISO":"2021-02-22T07:18:12.958Z","datetime":"2021-02-22 07:18","tags":["story","Hacker News"],"image":null,"imageAlt":null,"provider":"Hacker News","thirdPartyId":"26205969","url":"https://news.ycombinator.com/item?id=26205969","originalUrl":"https://gankra.github.io/blah/swift-abi/","imageRemote":null,"video":null,"channel":null,"channelUrl":null,"author":"zdw","authorUrl":"https://news.ycombinator.com/user?id=zdw","authorImage":null,"authorSlug":null,"score":162,"views":null,"sharedCount":null,"likeCount":null,"sharedContent":null,"parent":{"__typename":"HnJson","localize":[{"title":"Swift如何在Rust无法实现的地方实现动态链接(2019)","locale":"zh"},{"title":"Swift如何在Rust無法實現的地方實現動態鏈接(2019)","locale":"zh-Hant"}]}},{"__typename":"SocialMediaPost","id":"HnPost-26212787","excerpt":"","slug":"/hn/26212787","title":"Nuklear: A cross-platform GUI library in C","date":"February 22, 2021","dateISO":"2021-02-22T07:18:12.958Z","datetime":"2021-02-22 07:18","tags":["story","Hacker News"],"image":null,"imageAlt":null,"provider":"Hacker News","thirdPartyId":"26212787","url":"https://news.ycombinator.com/item?id=26212787","originalUrl":"https://github.com/Immediate-Mode-UI/Nuklear","imageRemote":"https://avatars.githubusercontent.com/u/58210959?s=400&v=4","video":null,"channel":null,"channelUrl":null,"author":"ducktective","authorUrl":"https://news.ycombinator.com/user?id=ducktective","authorImage":null,"authorSlug":null,"score":338,"views":null,"sharedCount":null,"likeCount":null,"sharedContent":null,"parent":{"__typename":"HnJson","localize":[{"title":"Nuklear：一个跨平台的C语言GUI库。","locale":"zh"},{"title":"Nuklear：一個跨平臺的C語言GUI庫。","locale":"zh-Hant"}]}},{"__typename":"SocialMediaPost","id":"HnPost-26220693","excerpt":"","slug":"/hn/26220693","title":"Go is not an easy language","date":"February 22, 2021","dateISO":"2021-02-22T07:18:12.958Z","datetime":"2021-02-22 07:18","tags":["story","Hacker News"],"image":null,"imageAlt":null,"provider":"Hacker News","thirdPartyId":"26220693","url":"https://news.ycombinator.com/item?id=26220693","originalUrl":"https://www.arp242.net/go-easy.html","imageRemote":"https://www.arp242.net/images/me.jpg","video":null,"channel":null,"channelUrl":null,"author":"jen20","authorUrl":"https://news.ycombinator.com/user?id=jen20","authorImage":null,"authorSlug":null,"score":481,"views":null,"sharedCount":null,"likeCount":null,"sharedContent":null,"parent":{"__typename":"HnJson","localize":[{"title":"围棋不是一门简单的语言","locale":"zh"},{"title":"圍棋不是一門簡單的語言","locale":"zh-Hant"}]}},{"__typename":"SocialMediaPost","id":"HnPost-26215378","excerpt":"","slug":"/hn/26215378","title":"Show HN: Ad Network for Sideprojects","date":"February 22, 2021","dateISO":"2021-02-22T05:16:17.587Z","datetime":"2021-02-22 05:16","tags":["story","Show HN","Hacker News"],"image":null,"imageAlt":null,"provider":"Hacker News","thirdPartyId":"26215378","url":"https://news.ycombinator.com/item?id=26215378","originalUrl":"https://tinyads.io","imageRemote":"https://tinyads.io/img/tinyads.min.png","video":null,"channel":"Show HN","channelUrl":"https://news.ycombinator.com/show","author":"ezzato","authorUrl":"https://news.ycombinator.com/user?id=ezzato","authorImage":null,"authorSlug":null,"score":217,"views":null,"sharedCount":null,"likeCount":null,"sharedContent":null,"parent":{"__typename":"HnJson","localize":[{"title":"显示HN：侧面项目的广告网络。","locale":"zh"},{"title":"顯示HN：側面項目的廣告網絡。","locale":"zh-Hant"}]}},{"__typename":"SocialMediaPost","id":"HnPost-26217821","excerpt":"","slug":"/hn/26217821","title":"Uighurs: 'Credible case' China carrying out genocide","date":"February 22, 2021","dateISO":"2021-02-22T04:56:43.184Z","datetime":"2021-02-22 04:56","tags":["story","Hacker News"],"image":null,"imageAlt":null,"provider":"Hacker News","thirdPartyId":"26217821","url":"https://news.ycombinator.com/item?id=26217821","originalUrl":"https://www.bbc.com/news/uk-55973215","imageRemote":"https://ichef.bbci.co.uk/news/1024/branded_news/13017/production/_116574877_8f530031-6ccc-4fec-bc52-895c3ffb5511.jpg","video":null,"channel":null,"channelUrl":null,"author":"undefined1","authorUrl":"https://news.ycombinator.com/user?id=undefined1","authorImage":null,"authorSlug":null,"score":336,"views":null,"sharedCount":null,"likeCount":null,"sharedContent":null,"parent":{"__typename":"HnJson","localize":[{"title":"维吾尔人。\"可信的案例 \"中国正在进行种族灭绝。","locale":"zh"},{"title":"維吾爾人。\"可信的案例 \"中國正在進行種族滅絕。","locale":"zh-Hant"}]}},{"__typename":"SocialMediaPost","id":"HnPost-26218476","excerpt":"","slug":"/hn/26218476","title":"YouTube blocked chess channel after mistaken detection of racial slurs","date":"February 22, 2021","dateISO":"2021-02-22T02:34:51.039Z","datetime":"2021-02-22 02:34","tags":["story","Hacker News"],"image":null,"imageAlt":null,"provider":"Hacker News","thirdPartyId":"26218476","url":"https://news.ycombinator.com/item?id=26218476","originalUrl":"https://www.news18.com/news/buzz/youtube-ai-blocked-chess-channel-after-confusing-black-and-white-for-racist-slurs-3454316.html","imageRemote":"https://images.news18.com/ibnlive/uploads/2020/10/1603703184_untitled-design-2020-10-26t143537.093.png","video":null,"channel":null,"channelUrl":null,"author":"anigbrowl","authorUrl":"https://news.ycombinator.com/user?id=anigbrowl","authorImage":null,"authorSlug":null,"score":513,"views":null,"sharedCount":null,"likeCount":null,"sharedContent":null,"parent":{"__typename":"HnJson","localize":[{"title":"YouTube因误检出种族污言秽语而封杀国际象棋频道","locale":"zh"},{"title":"YouTube因誤檢出種族污言穢語而封殺國際象棋頻道","locale":"zh-Hant"}]}},{"__typename":"SocialMediaPost","id":"HnPost-26215112","excerpt":"","slug":"/hn/26215112","title":"Please do not put IP addresses into DNS MX records","date":"February 22, 2021","dateISO":"2021-02-22T02:08:48.054Z","datetime":"2021-02-22 02:08","tags":["story","Hacker News"],"image":null,"imageAlt":null,"provider":"Hacker News","thirdPartyId":"26215112","url":"https://news.ycombinator.com/item?id=26215112","originalUrl":"https://blog.hboeck.de/archives/904-Please-do-not-put-IP-addresses-into-DNS-MX-records.html","imageRemote":"https://blog.hboeck.de/uploads/postbox.jpg","video":null,"channel":null,"channelUrl":null,"author":"hannob","authorUrl":"https://news.ycombinator.com/user?id=hannob","authorImage":null,"authorSlug":null,"score":228,"views":null,"sharedCount":null,"likeCount":null,"sharedContent":null,"parent":{"__typename":"HnJson","localize":[{"title":"请不要将IP地址放入DNS MX记录中。","locale":"zh"},{"title":"請不要將IP地址放入DNS MX記錄中。","locale":"zh-Hant"}]}},{"__typename":"SocialMediaPost","id":"HnPost-26217564","excerpt":"","slug":"/hn/26217564","title":"Apparent hackers behind Kia ransomware attack demand millions in Bitcoin","date":"February 22, 2021","dateISO":"2021-02-22T02:08:48.054Z","datetime":"2021-02-22 02:08","tags":["story","Hacker News"],"image":null,"imageAlt":null,"provider":"Hacker News","thirdPartyId":"26217564","url":"https://news.ycombinator.com/item?id=26217564","originalUrl":"https://www.thedrive.com/tech/39309/the-apparent-hackers-behind-kias-ransomware-attack-are-demanding-millions-in-bitcoin","imageRemote":"https://api.thedrive.com/wp-content/uploads/2021/02/Kia-Topshot.jpg?quality=85","video":null,"channel":null,"channelUrl":null,"author":"ourmandave","authorUrl":"https://news.ycombinator.com/user?id=ourmandave","authorImage":null,"authorSlug":null,"score":225,"views":null,"sharedCount":null,"likeCount":null,"sharedContent":null,"parent":{"__typename":"HnJson","localize":[{"title":"起亚勒索软件攻击背后明显的黑客索要数百万比特币。","locale":"zh"},{"title":"起亞勒索軟件攻擊背後明顯的黑客索要數百萬比特幣。","locale":"zh-Hant"}]}},{"__typename":"SocialMediaPost","id":"HnPost-26214593","excerpt":"","slug":"/hn/26214593","title":"Formalising Mathematics: An Introduction","date":"February 22, 2021","dateISO":"2021-02-22T01:47:51.664Z","datetime":"2021-02-22 01:47","tags":["story","Hacker News"],"image":null,"imageAlt":null,"provider":"Hacker News","thirdPartyId":"26214593","url":"https://news.ycombinator.com/item?id=26214593","originalUrl":"https://xenaproject.wordpress.com/2021/01/21/formalising-mathematics-an-introduction/","imageRemote":"https://xenaproject.files.wordpress.com/2020/05/cropped-twitchpfc.png?w=200","video":null,"channel":null,"channelUrl":null,"author":"panic","authorUrl":"https://news.ycombinator.com/user?id=panic","authorImage":null,"authorSlug":null,"score":204,"views":null,"sharedCount":null,"likeCount":null,"sharedContent":null,"parent":{"__typename":"HnJson","localize":[{"title":"形式化数学。介紹","locale":"zh"},{"title":"形式化數學。介紹","locale":"zh-Hant"}]}},{"__typename":"SocialMediaPost","id":"HnPost-26213693","excerpt":"","slug":"/hn/26213693","title":"When Bitcoin miners take over a town (2018)","date":"February 22, 2021","dateISO":"2021-02-22T00:57:25.441Z","datetime":"2021-02-22 00:57","tags":["story","Hacker News"],"image":null,"imageAlt":null,"provider":"Hacker News","thirdPartyId":"26213693","url":"https://news.ycombinator.com/item?id=26213693","originalUrl":"https://www.politico.eu/article/this-is-what-happens-when-bitcoin-miners-take-over-your-town/","imageRemote":"https://www.politico.eu/wp-content/uploads/2018/03/GettyImages-832201542-1200x628.jpg","video":null,"channel":null,"channelUrl":null,"author":"edward","authorUrl":"https://news.ycombinator.com/user?id=edward","authorImage":null,"authorSlug":null,"score":203,"views":null,"sharedCount":null,"likeCount":null,"sharedContent":null,"parent":{"__typename":"HnJson","localize":[{"title":"当比特币矿工占领一个小镇(2018)","locale":"zh"},{"title":"當比特幣礦工佔領一個小鎮(2018)","locale":"zh-Hant"}]}},{"__typename":"SocialMediaPost","id":"HnPost-26213984","excerpt":"","slug":"/hn/26213984","title":"Activists who embrace nuclear power","date":"February 21, 2021","dateISO":"2021-02-21T23:39:34.675Z","datetime":"2021-02-21 23:39","tags":["story","Hacker News"],"image":null,"imageAlt":null,"provider":"Hacker News","thirdPartyId":"26213984","url":"https://news.ycombinator.com/item?id=26213984","originalUrl":"https://www.newyorker.com/tech/annals-of-technology/the-activists-who-embrace-nuclear-power","imageRemote":"https://media.newyorker.com/photos/5fd7d2ff2413c37c7b813855/16:9/w_1280,c_limit/Tuhus-Dubrow-MothersForNuclear-WEB.jpg","video":null,"channel":null,"channelUrl":null,"author":"pseudolus","authorUrl":"https://news.ycombinator.com/user?id=pseudolus","authorImage":null,"authorSlug":null,"score":247,"views":null,"sharedCount":null,"likeCount":null,"sharedContent":null,"parent":{"__typename":"HnJson","localize":[{"title":"拥护核电的积极分子","locale":"zh"},{"title":"擁護核電的積極分子","locale":"zh-Hant"}]}},{"__typename":"SocialMediaPost","id":"HnPost-26216016","excerpt":"","slug":"/hn/26216016","title":"Mistakes I've Made as an Engineering Manager","date":"February 21, 2021","dateISO":"2021-02-21T23:39:34.675Z","datetime":"2021-02-21 23:39","tags":["story","Hacker News"],"image":null,"imageAlt":null,"provider":"Hacker News","thirdPartyId":"26216016","url":"https://news.ycombinator.com/item?id=26216016","originalUrl":"https://css-tricks.com/mistakes-ive-made-as-an-engineering-manager/","imageRemote":"https://i2.wp.com/css-tricks.com/wp-content/uploads/2021/02/charles-deluvio-Lks7vei-eAg-unsplash.jpg?fit=640%2C427&ssl=1","video":null,"channel":null,"channelUrl":null,"author":"sebg","authorUrl":"https://news.ycombinator.com/user?id=sebg","authorImage":null,"authorSlug":null,"score":512,"views":null,"sharedCount":null,"likeCount":null,"sharedContent":null,"parent":{"__typename":"HnJson","localize":[{"title":"作为一个工程经理，我犯过的错误","locale":"zh"},{"title":"作爲一個工程經理，我犯過的錯誤","locale":"zh-Hant"}]}},{"__typename":"SocialMediaPost","id":"HnPost-26203853","excerpt":"","slug":"/hn/26203853","title":"The modern packager’s security nightmare","date":"February 21, 2021","dateISO":"2021-02-21T23:25:07.695Z","datetime":"2021-02-21 23:25","tags":["story","Hacker News"],"image":null,"imageAlt":null,"provider":"Hacker News","thirdPartyId":"26203853","url":"https://news.ycombinator.com/item?id=26203853","originalUrl":"https://blogs.gentoo.org/mgorny/2021/02/19/the-modern-packagers-security-nightmare/","imageRemote":"https://secure.gravatar.com/avatar/002974244d9ac2f3b490cc5d86a764e5?s=100&d=retro&r=pg","video":null,"channel":null,"channelUrl":null,"author":"summm","authorUrl":"https://news.ycombinator.com/user?id=summm","authorImage":null,"authorSlug":null,"score":320,"views":null,"sharedCount":null,"likeCount":null,"sharedContent":null,"parent":{"__typename":"HnJson","localize":[{"title":"现代包装商的安全梦魇","locale":"zh"},{"title":"現代包裝商的安全夢魘","locale":"zh-Hant"}]}},{"__typename":"SocialMediaPost","id":"HnPost-26204691","excerpt":"","slug":"/hn/26204691","title":"Metallica's BlizzCon Performance Ruined by Twitch","date":"February 21, 2021","dateISO":"2021-02-21T22:41:08.454Z","datetime":"2021-02-21 22:41","tags":["story","Hacker News"],"image":null,"imageAlt":null,"provider":"Hacker News","thirdPartyId":"26204691","url":"https://news.ycombinator.com/item?id=26204691","originalUrl":"https://www.gamespot.com/articles/metallicas-blizzcon-performance-ruined-by-twitch/1100-6487855/","imageRemote":"https://gamespot1.cbsistatic.com/uploads/screen_kubrick/1597/15971423/3798961-2178171702-Elah4cWWkAMeODb.jpg","video":null,"channel":null,"channelUrl":null,"author":"croes","authorUrl":"https://news.ycombinator.com/user?id=croes","authorImage":null,"authorSlug":null,"score":161,"views":null,"sharedCount":null,"likeCount":null,"sharedContent":null,"parent":{"__typename":"HnJson","localize":[{"title":"Metallica的BlizzCon表演被Twitch破坏了。","locale":"zh"},{"title":"Metallica的BlizzCon表演被Twitch破壞了。","locale":"zh-Hant"}]}},{"__typename":"SocialMediaPost","id":"HnPost-26212975","excerpt":"","slug":"/hn/26212975","title":"Silent Running: The sci-fi that predicted modern crises","date":"February 21, 2021","dateISO":"2021-02-21T21:33:16.461Z","datetime":"2021-02-21 21:33","tags":["story","Hacker News"],"image":null,"imageAlt":null,"provider":"Hacker News","thirdPartyId":"26212975","url":"https://news.ycombinator.com/item?id=26212975","originalUrl":"https://www.bbc.com/culture/article/20210212-silent-running-the-sci-fi-that-predicted-modern-crises","imageRemote":"https://ychef.files.bbci.co.uk/live/624x351/p096v355.jpg","video":null,"channel":null,"channelUrl":null,"author":"bobkrusty","authorUrl":"https://news.ycombinator.com/user?id=bobkrusty","authorImage":null,"authorSlug":null,"score":217,"views":null,"sharedCount":null,"likeCount":null,"sharedContent":null,"parent":{"__typename":"HnJson","localize":[{"title":"沉默的奔跑 预测现代危机的科幻片。","locale":"zh"},{"title":"沉默的奔跑 預測現代危機的科幻片。","locale":"zh-Hant"}]}}]}},"pageContext":{"basePath":"/","pageType":"tag","tag":"story","tagsFilter":{"id":{"glob":"!*Post-1"}},"filter":{"id":{"glob":"!*Post-1"},"tags":{"eq":"story"}},"limit":25,"skip":650,"total":2599,"totalPages":104,"currentPage":27,"maxWidth":1024,"maxHeight":512,"locale":"zh-Hant","hrefLang":"zh-Hant","originalPath":"/tags/story/page/27","dateFormat":"YYYY-MM-DD"}},"staticQueryHashes":["1239077767","2506312863","2744905544","3025052997","3493603132","3493603132","3513215887","386998304"]}