{"componentChunkName":"component---gatsby-theme-buzzing-src-gatsby-theme-timeline-templates-posts-query-js","path":"/zh-Hant/tags/hacker-news/page/66","result":{"data":{"site":{"siteMetadata":{"title":"Reddit 热门","description":"用中文浏览Reddit热门内容","social":[{"name":"Twitter","url":"https://twitter.com/gatsbyjs","external":null,"prefetch":null},{"name":"GitHub","url":"https://github.com/gatsbyjs","external":null,"prefetch":null}],"menuLinks":[],"localize":[{"locale":"en","title":"Buzzing on Reddit","description":"See what's buzzing on Reddit in your native language","social":[{"name":"Reddit","url":"https://www.reddit.com/","external":true,"prefetch":null}],"menuLinks":[{"name":"Weekly Selection","url":"/issues","external":null,"prefetch":null},{"name":"RSS","url":"/rss.xml","external":null,"prefetch":false}]},{"locale":"zh-Hant","title":"Reddit 熱門","description":"用中文瀏覽Reddit熱門內容","social":null,"menuLinks":null}]}},"tagsGroup":{"group":[{"fieldValue":"ASK HN","totalCount":54},{"fieldValue":"Hacker News","totalCount":3105},{"fieldValue":"Poll","totalCount":1},{"fieldValue":"Show HN","totalCount":100},{"fieldValue":"poll","totalCount":1},{"fieldValue":"story","totalCount":3104}]},"allBlogPost":{"nodes":[{"__typename":"SocialMediaPost","id":"HnPost-26012189","excerpt":"","slug":"/hn/26012189","title":"My product is my garden","date":"February 04, 2021","dateISO":"2021-02-04T08:47:21.993Z","datetime":"2021-02-04 08:47","tags":["story","Hacker News"],"image":null,"imageAlt":null,"provider":"Hacker News","thirdPartyId":"26012189","url":"https://news.ycombinator.com/item?id=26012189","originalUrl":"https://herman.bearblog.dev/my-product-is-my-garden/","imageRemote":"https://i.imgur.com/b499n4R.png","video":null,"channel":null,"channelUrl":null,"author":"square_usual","authorUrl":"https://news.ycombinator.com/user?id=square_usual","authorImage":null,"authorSlug":null,"score":687,"views":null,"sharedCount":null,"likeCount":null,"sharedContent":null,"parent":{"__typename":"HnJson","localize":[{"title":"我的产品就是我的花园","locale":"zh"},{"title":"我的產品就是我的花園","locale":"zh-Hant"}]}},{"__typename":"SocialMediaPost","id":"HnPost-26022159","excerpt":"","slug":"/hn/26022159","title":"Amazon shortchanged drivers $61.7M in tips","date":"February 04, 2021","dateISO":"2021-02-04T06:24:38.043Z","datetime":"2021-02-04 06:24","tags":["story","Hacker News"],"image":null,"imageAlt":null,"provider":"Hacker News","thirdPartyId":"26022159","url":"https://news.ycombinator.com/item?id=26022159","originalUrl":"https://www.washingtonpost.com/technology/2021/02/02/amazon-ftc-tip-settlement/","imageRemote":"https://www.washingtonpost.com/wp-apps/imrs.php?src=https://arc-anglerfish-washpost-prod-washpost.s3.amazonaws.com/public/GE7LJNCQ7AI6XIPV7WXSRT6KSA.jpg&w=1440","video":null,"channel":null,"channelUrl":null,"author":"ummonk","authorUrl":"https://news.ycombinator.com/user?id=ummonk","authorImage":null,"authorSlug":null,"score":294,"views":null,"sharedCount":null,"likeCount":null,"sharedContent":null,"parent":{"__typename":"HnJson","localize":[{"title":"亚马逊亏空司机6170万美元小费","locale":"zh"},{"title":"亞馬遜虧空司機6170萬美元小費","locale":"zh-Hant"}]}},{"__typename":"SocialMediaPost","id":"HnPost-26019479","excerpt":"","slug":"/hn/26019479","title":"I converted my demoscene font collection to PNG and put it on GitHub","date":"February 04, 2021","dateISO":"2021-02-04T05:50:52.909Z","datetime":"2021-02-04 05:50","tags":["story","Hacker News"],"image":null,"imageAlt":null,"provider":"Hacker News","thirdPartyId":"26019479","url":"https://news.ycombinator.com/item?id=26019479","originalUrl":"https://github.com/ianhan/BitmapFonts","imageRemote":"https://avatars.githubusercontent.com/u/6833412?s=400&v=4","video":null,"channel":null,"channelUrl":null,"author":"ianhanschen","authorUrl":"https://news.ycombinator.com/user?id=ianhanschen","authorImage":null,"authorSlug":null,"score":359,"views":null,"sharedCount":null,"likeCount":null,"sharedContent":null,"parent":{"__typename":"HnJson","localize":[{"title":"我将我的demoscene字体集合转换为PNG，并将其放在GitHub上。","locale":"zh"},{"title":"我將我的demoscene字體集合轉換爲PNG，並將其放在GitHub上。","locale":"zh-Hant"}]}},{"__typename":"SocialMediaPost","id":"HnPost-26021191","excerpt":"","slug":"/hn/26021191","title":"Parler CEO says he was fired by board","date":"February 04, 2021","dateISO":"2021-02-04T05:42:51.161Z","datetime":"2021-02-04 05:42","tags":["story","Hacker News"],"image":null,"imageAlt":null,"provider":"Hacker News","thirdPartyId":"26021191","url":"https://news.ycombinator.com/item?id=26021191","originalUrl":"https://www.reuters.com/article/ctech-us-parler-ceo-idCAKBN2A33B0-OCATC","imageRemote":"https://static.reuters.com/resources/r/?m=02&d=20210204&t=2&i=1550258318&r=LYNXMPEH1300X-OCATC&w=800","video":null,"channel":null,"channelUrl":null,"author":"mrzimmerman","authorUrl":"https://news.ycombinator.com/user?id=mrzimmerman","authorImage":null,"authorSlug":null,"score":296,"views":null,"sharedCount":null,"likeCount":null,"sharedContent":null,"parent":{"__typename":"HnJson","localize":[{"title":"帕勒CEO称被董事会解雇","locale":"zh"},{"title":"帕勒CEO稱被董事會解僱","locale":"zh-Hant"}]}},{"__typename":"SocialMediaPost","id":"HnPost-26018684","excerpt":"","slug":"/hn/26018684","title":"Asdf – An Extendable Version Manager","date":"February 04, 2021","dateISO":"2021-02-04T03:42:22.488Z","datetime":"2021-02-04 03:42","tags":["story","Hacker News"],"image":null,"imageAlt":null,"provider":"Hacker News","thirdPartyId":"26018684","url":"https://news.ycombinator.com/item?id=26018684","originalUrl":"https://asdf-vm.com/","imageRemote":null,"video":null,"channel":null,"channelUrl":null,"author":"BerislavLopac","authorUrl":"https://news.ycombinator.com/user?id=BerislavLopac","authorImage":null,"authorSlug":null,"score":235,"views":null,"sharedCount":null,"likeCount":null,"sharedContent":null,"parent":{"__typename":"HnJson","localize":[{"title":"Asdf - 一个可扩展的版本管理器","locale":"zh"},{"title":"Asdf - 一個可擴展的版本管理器","locale":"zh-Hant"}]}},{"__typename":"SocialMediaPost","id":"HnPost-26014616","excerpt":"","slug":"/hn/26014616","title":"Myths of Vaccine Manufacturing","date":"February 04, 2021","dateISO":"2021-02-04T02:27:21.882Z","datetime":"2021-02-04 02:27","tags":["story","Hacker News"],"image":null,"imageAlt":null,"provider":"Hacker News","thirdPartyId":"26014616","url":"https://news.ycombinator.com/item?id=26014616","originalUrl":"https://blogs.sciencemag.org/pipeline/archives/2021/02/02/myths-of-vaccine-manufacturing","imageRemote":"https://blogs.sciencemag.org/pipeline/wp-content/uploads/sites/2/2015/06/logo-in-the-pipeline.svg","video":null,"channel":null,"channelUrl":null,"author":"undefined1","authorUrl":"https://news.ycombinator.com/user?id=undefined1","authorImage":null,"authorSlug":null,"score":217,"views":null,"sharedCount":null,"likeCount":null,"sharedContent":null,"parent":{"__typename":"HnJson","localize":[{"title":"疫苗生产的误区","locale":"zh"},{"title":"疫苗生產的誤區","locale":"zh-Hant"}]}},{"__typename":"SocialMediaPost","id":"HnPost-26018928","excerpt":"","slug":"/hn/26018928","title":"Google’s approach to replacing the cookie is drawing antitrust scrutiny","date":"February 04, 2021","dateISO":"2021-02-04T02:27:21.882Z","datetime":"2021-02-04 02:27","tags":["story","Hacker News"],"image":null,"imageAlt":null,"provider":"Hacker News","thirdPartyId":"26018928","url":"https://news.ycombinator.com/item?id=26018928","originalUrl":"https://digiday.com/media/why-googles-approach-to-replacing-the-cookie-is-drawing-antitrust-scrutiny","imageRemote":"https://i0.wp.com/digiday.com/wp-content/uploads/2018/08/googleamp.jpg?fit=6000%2C2500&ssl=1","video":null,"channel":null,"channelUrl":null,"author":"Manheim","authorUrl":"https://news.ycombinator.com/user?id=Manheim","authorImage":null,"authorSlug":null,"score":456,"views":null,"sharedCount":null,"likeCount":null,"sharedContent":null,"parent":{"__typename":"HnJson","localize":[{"title":"谷歌取代cookie的做法正引起反垄断审查。","locale":"zh"},{"title":"谷歌取代cookie的做法正引起反壟斷審查。","locale":"zh-Hant"}]}},{"__typename":"SocialMediaPost","id":"HnPost-26016890","excerpt":"","slug":"/hn/26016890","title":"Cargo Cult Software Engineering (2000)","date":"February 04, 2021","dateISO":"2021-02-04T01:57:41.270Z","datetime":"2021-02-04 01:57","tags":["story","Hacker News"],"image":null,"imageAlt":null,"provider":"Hacker News","thirdPartyId":"26016890","url":"https://news.ycombinator.com/item?id=26016890","originalUrl":"https://stevemcconnell.com/articles/cargo-cult-software-engineering/","imageRemote":"http://stevemcconnell.com/wp-content/uploads/2017/08/software-logo-black-220x70.png","video":null,"channel":null,"channelUrl":null,"author":"srirangr","authorUrl":"https://news.ycombinator.com/user?id=srirangr","authorImage":null,"authorSlug":null,"score":205,"views":null,"sharedCount":null,"likeCount":null,"sharedContent":null,"parent":{"__typename":"HnJson","localize":[{"title":"货物崇拜软件工程（2000年）","locale":"zh"},{"title":"貨物崇拜軟件工程（2000年）","locale":"zh-Hant"}]}},{"__typename":"SocialMediaPost","id":"HnPost-26012652","excerpt":"","slug":"/hn/26012652","title":"DVD Laser Scanner Microscope","date":"February 04, 2021","dateISO":"2021-02-04T01:25:00.769Z","datetime":"2021-02-04 01:25","tags":["story","Hacker News"],"image":null,"imageAlt":null,"provider":"Hacker News","thirdPartyId":"26012652","url":"https://news.ycombinator.com/item?id=26012652","originalUrl":"https://www.gaudi.ch/GaudiLabs/?page_id=652","imageRemote":"http://www.gaudi.ch/GaudiLabs/wp-content/uploads/DVDLaserScannerGaudiLabs.jpg","video":null,"channel":null,"channelUrl":null,"author":"_Microft","authorUrl":"https://news.ycombinator.com/user?id=_Microft","authorImage":null,"authorSlug":null,"score":474,"views":null,"sharedCount":null,"likeCount":null,"sharedContent":null,"parent":{"__typename":"HnJson","localize":[{"title":"DVD激光扫描仪显微镜","locale":"zh"},{"title":"DVD激光掃描儀顯微鏡","locale":"zh-Hant"}]}},{"__typename":"SocialMediaPost","id":"HnPost-26013953","excerpt":"","slug":"/hn/26013953","title":"The Relentless Jeff Bezos","date":"February 04, 2021","dateISO":"2021-02-04T01:25:00.769Z","datetime":"2021-02-04 01:25","tags":["story","Hacker News"],"image":null,"imageAlt":null,"provider":"Hacker News","thirdPartyId":"26013953","url":"https://news.ycombinator.com/item?id=26013953","originalUrl":"https://stratechery.com/2021/the-relentless-jeff-bezos/","imageRemote":"https://stratechery.com/wp-content/uploads/2016/03/stratechery-Year-One-274.png","video":null,"channel":null,"channelUrl":null,"author":"ingve","authorUrl":"https://news.ycombinator.com/user?id=ingve","authorImage":null,"authorSlug":null,"score":173,"views":null,"sharedCount":null,"likeCount":null,"sharedContent":null,"parent":{"__typename":"HnJson","localize":[{"title":"无情的杰夫-贝佐斯","locale":"zh"},{"title":"無情的傑夫-貝佐斯","locale":"zh-Hant"}]}},{"__typename":"SocialMediaPost","id":"HnPost-26016638","excerpt":"","slug":"/hn/26016638","title":"Threadripper 3990X: The Quest To Compile 1B Lines Of C++ On 64 Cores","date":"February 03, 2021","dateISO":"2021-02-03T23:25:29.695Z","datetime":"2021-02-03 23:25","tags":["story","Hacker News"],"image":null,"imageAlt":null,"provider":"Hacker News","thirdPartyId":"26016638","url":"https://news.ycombinator.com/item?id=26016638","originalUrl":"https://blogs.embarcadero.com/threadripper-3990x-the-quest-to-compile-1-billion-lines-of-c-on-64-cores/","imageRemote":"https://i1.wp.com/blogs.embarcadero.com/wp-content/uploads/2021/02/3990xthreadripper-7589456.png?fit=1024%2C536&ssl=1","video":null,"channel":null,"channelUrl":null,"author":"fmxexpress","authorUrl":"https://news.ycombinator.com/user?id=fmxexpress","authorImage":null,"authorSlug":null,"score":228,"views":null,"sharedCount":null,"likeCount":null,"sharedContent":null,"parent":{"__typename":"HnJson","localize":[{"title":"Threadripper 3990X：在64个核心上编译1B行C++的探索。","locale":"zh"},{"title":"Threadripper 3990X：在64個核心上編譯1B行C++的探索。","locale":"zh-Hant"}]}},{"__typename":"SocialMediaPost","id":"HnPost-26015866","excerpt":"","slug":"/hn/26015866","title":"Apple urged to root out rating scams as developer highlights enforcement failure","date":"February 03, 2021","dateISO":"2021-02-03T21:45:17.798Z","datetime":"2021-02-03 21:45","tags":["story","Hacker News"],"image":null,"imageAlt":null,"provider":"Hacker News","thirdPartyId":"26015866","url":"https://news.ycombinator.com/item?id=26015866","originalUrl":"https://techcrunch.com/2021/02/03/apple-urged-to-root-out-rating-scams-as-developer-highlights-ugly-cost-of-enforcement-failure/","imageRemote":"https://techcrunch.com/wp-content/uploads/2019/10/app-store-icon-2.jpg?w=712","video":null,"channel":null,"channelUrl":null,"author":"egocentric","authorUrl":"https://news.ycombinator.com/user?id=egocentric","authorImage":null,"authorSlug":null,"score":195,"views":null,"sharedCount":null,"likeCount":null,"sharedContent":null,"parent":{"__typename":"HnJson","localize":[{"title":"开发商强调执法不力，敦促苹果根治评级骗局","locale":"zh"},{"title":"開發商強調執法不力，敦促蘋果根治評級騙局","locale":"zh-Hant"}]}},{"__typename":"SocialMediaPost","id":"HnPost-26010927","excerpt":"","slug":"/hn/26010927","title":"Product Manager vs. Product Marketing Manager vs. Product Owner","date":"February 03, 2021","dateISO":"2021-02-03T20:50:21.730Z","datetime":"2021-02-03 20:50","tags":["story","Hacker News"],"image":null,"imageAlt":null,"provider":"Hacker News","thirdPartyId":"26010927","url":"https://news.ycombinator.com/item?id=26010927","originalUrl":"https://www.damilolaa.xyz/Product-Manager-vs-Product-Marketing-Manager-vs-Product-Owner","imageRemote":"https://damilolaa.xyz/static/fdc4627aea64248f973ddd07cbbcb980/0ff54/hero.jpg","video":null,"channel":null,"channelUrl":null,"author":"DamilolaA","authorUrl":"https://news.ycombinator.com/user?id=DamilolaA","authorImage":null,"authorSlug":null,"score":175,"views":null,"sharedCount":null,"likeCount":null,"sharedContent":null,"parent":{"__typename":"HnJson","localize":[{"title":"产品经理VS产品营销经理VS产品负责人","locale":"zh"},{"title":"產品經理VS產品營銷經理VS產品負責人","locale":"zh-Hant"}]}},{"__typename":"SocialMediaPost","id":"HnPost-26014421","excerpt":"","slug":"/hn/26014421","title":"Sequencing your DNA with a USB dongle and open source code","date":"February 03, 2021","dateISO":"2021-02-03T20:50:21.730Z","datetime":"2021-02-03 20:50","tags":["story","Hacker News"],"image":null,"imageAlt":null,"provider":"Hacker News","thirdPartyId":"26014421","url":"https://news.ycombinator.com/item?id=26014421","originalUrl":"https://stackoverflow.blog/2021/02/03/sequencing-your-dna-with-a-usb-dongle-and-open-source-code/","imageRemote":"https://149351115.v2.pressablecdn.com/wp-content/uploads/2021/02/Stackoverflow-Data-Science-Alex-Francis.jpg","video":null,"channel":null,"channelUrl":null,"author":"TangerineDream","authorUrl":"https://news.ycombinator.com/user?id=TangerineDream","authorImage":null,"authorSlug":null,"score":267,"views":null,"sharedCount":null,"likeCount":null,"sharedContent":null,"parent":{"__typename":"HnJson","localize":[{"title":"用USB加密狗和开放源代码对你的DNA进行测序。","locale":"zh"},{"title":"用USB加密狗和開放源代碼對你的DNA進行測序。","locale":"zh-Hant"}]}},{"__typename":"SocialMediaPost","id":"HnPost-26014455","excerpt":"","slug":"/hn/26014455","title":"How The Expanse went from game concept to blockbuster TV series","date":"February 03, 2021","dateISO":"2021-02-03T20:16:30.431Z","datetime":"2021-02-03 20:16","tags":["story","Hacker News"],"image":null,"imageAlt":null,"provider":"Hacker News","thirdPartyId":"26014455","url":"https://news.ycombinator.com/item?id=26014455","originalUrl":"https://andrewliptak.substack.com/p/the-expanse-james-sa-corey-syfy-amazon","imageRemote":"https://cdn.substack.com/image/fetch/h_600,c_limit,f_auto,q_auto:good,fl_progressive:steep/https%3A%2F%2Fbucketeer-e05bbc84-baa3-437e-9518-adb32be77984.s3.amazonaws.com%2Fpublic%2Fimages%2Fcc662ca1-2564-4d8f-b77d-9bff5489ff32_1067x1600.jpeg","video":null,"channel":null,"channelUrl":null,"author":"AndrewLiptak","authorUrl":"https://news.ycombinator.com/user?id=AndrewLiptak","authorImage":null,"authorSlug":null,"score":202,"views":null,"sharedCount":null,"likeCount":null,"sharedContent":null,"parent":{"__typename":"HnJson","localize":[{"title":"远征》是如何从游戏概念变成电视剧大片的？","locale":"zh"},{"title":"遠征》是如何從遊戲概念變成電視劇大片的？","locale":"zh-Hant"}]}},{"__typename":"SocialMediaPost","id":"HnPost-26017086","excerpt":"","slug":"/hn/26017086","title":"Computer Graphics from Scratch","date":"February 03, 2021","dateISO":"2021-02-03T20:16:30.431Z","datetime":"2021-02-03 20:16","tags":["story","Hacker News"],"image":null,"imageAlt":null,"provider":"Hacker News","thirdPartyId":"26017086","url":"https://news.ycombinator.com/item?id=26017086","originalUrl":"https://gabrielgambetta.com/computer-graphics-from-scratch/","imageRemote":"https://gabrielgambetta.com/computer-graphics-from-scratch/images/cover.png","video":null,"channel":null,"channelUrl":null,"author":"AlexeyBrin","authorUrl":"https://news.ycombinator.com/user?id=AlexeyBrin","authorImage":null,"authorSlug":null,"score":777,"views":null,"sharedCount":null,"likeCount":null,"sharedContent":null,"parent":{"__typename":"HnJson","localize":[{"title":"计算机图形学从零开始","locale":"zh"},{"title":"計算機圖形學從零開始","locale":"zh-Hant"}]}},{"__typename":"SocialMediaPost","id":"HnPost-26013178","excerpt":"","slug":"/hn/26013178","title":"LibreOffice 7.1 Community Edition","date":"February 03, 2021","dateISO":"2021-02-03T19:42:06.802Z","datetime":"2021-02-03 19:42","tags":["story","Hacker News"],"image":null,"imageAlt":null,"provider":"Hacker News","thirdPartyId":"26013178","url":"https://news.ycombinator.com/item?id=26013178","originalUrl":"https://blog.documentfoundation.org/blog/2021/02/03/libreoffice-7-1-community/","imageRemote":"https://blog.documentfoundation.org/wp-content/uploads/2021/02/lo71banner-1024x201.png","video":null,"channel":null,"channelUrl":null,"author":"varbhat","authorUrl":"https://news.ycombinator.com/user?id=varbhat","authorImage":null,"authorSlug":null,"score":184,"views":null,"sharedCount":null,"likeCount":null,"sharedContent":null,"parent":{"__typename":"HnJson","localize":[{"title":"LibreOffice 7.1社区版","locale":"zh"},{"title":"LibreOffice 7.1社區版","locale":"zh-Hant"}]}},{"__typename":"SocialMediaPost","id":"HnPost-26005758","excerpt":"","slug":"/hn/26005758","title":"Engineering productivity can be measured, just not how you'd expect","date":"February 03, 2021","dateISO":"2021-02-03T18:44:03.715Z","datetime":"2021-02-03 18:44","tags":["story","Hacker News"],"image":null,"imageAlt":null,"provider":"Hacker News","thirdPartyId":"26005758","url":"https://news.ycombinator.com/item?id=26005758","originalUrl":"https://www.okayhq.com/blog/engineering-productivity-can-be-measured","imageRemote":"https://www.okayhq.com/assets/img/antoine_blog.2b91cc0.jpg","video":null,"channel":null,"channelUrl":null,"author":"tomasrb","authorUrl":"https://news.ycombinator.com/user?id=tomasrb","authorImage":null,"authorSlug":null,"score":167,"views":null,"sharedCount":null,"likeCount":null,"sharedContent":null,"parent":{"__typename":"HnJson","localize":[{"title":"工程生产力是可以衡量的，只是不是你所期望的那样。","locale":"zh"},{"title":"工程生產力是可以衡量的，只是不是你所期望的那樣。","locale":"zh-Hant"}]}},{"__typename":"SocialMediaPost","id":"HnPost-26014344","excerpt":"","slug":"/hn/26014344","title":"I Still Use RSS","date":"February 03, 2021","dateISO":"2021-02-03T18:44:03.715Z","datetime":"2021-02-03 18:44","tags":["story","Hacker News"],"image":null,"imageAlt":null,"provider":"Hacker News","thirdPartyId":"26014344","url":"https://news.ycombinator.com/item?id=26014344","originalUrl":"https://atthis.link/blog/2021/rss.html","imageRemote":"https://atthis.link/assets/img/rss.jpg","video":null,"channel":null,"channelUrl":null,"author":"todsacerdoti","authorUrl":"https://news.ycombinator.com/user?id=todsacerdoti","authorImage":null,"authorSlug":null,"score":971,"views":null,"sharedCount":null,"likeCount":null,"sharedContent":null,"parent":{"__typename":"HnJson","localize":[{"title":"我仍然使用RSS","locale":"zh"},{"title":"我仍然使用RSS","locale":"zh-Hant"}]}},{"__typename":"SocialMediaPost","id":"HnPost-26006731","excerpt":"","slug":"/hn/26006731","title":"Show HN: Archivy – Extensible Self Hosted Knowledge Base – v1 Release","date":"February 03, 2021","dateISO":"2021-02-03T16:47:25.900Z","datetime":"2021-02-03 16:47","tags":["story","Show HN","Hacker News"],"image":null,"imageAlt":null,"provider":"Hacker News","thirdPartyId":"26006731","url":"https://news.ycombinator.com/item?id=26006731","originalUrl":"https://archivy.github.io","imageRemote":"https://archivy.github.io/img/logo.png","video":null,"channel":"Show HN","channelUrl":"https://news.ycombinator.com/show","author":"etherio","authorUrl":"https://news.ycombinator.com/user?id=etherio","authorImage":null,"authorSlug":null,"score":173,"views":null,"sharedCount":null,"likeCount":null,"sharedContent":null,"parent":{"__typename":"HnJson","localize":[{"title":"显示 HN: Archivy - 可扩展的自助式知识库 - v1 版本","locale":"zh"},{"title":"顯示 HN: Archivy - 可擴展的自助式知識庫 - v1 版本","locale":"zh-Hant"}]}},{"__typename":"SocialMediaPost","id":"HnPost-26011025","excerpt":"","slug":"/hn/26011025","title":"What Is Applied Category Theory? (2018)","date":"February 03, 2021","dateISO":"2021-02-03T16:47:25.900Z","datetime":"2021-02-03 16:47","tags":["story","Hacker News"],"image":null,"imageAlt":null,"provider":"Hacker News","thirdPartyId":"26011025","url":"https://news.ycombinator.com/item?id=26011025","originalUrl":"https://arxiv.org/abs/1809.05923","imageRemote":"https://static.arxiv.org/static/browse/0.3.2.6/images/icons/social/bibsonomy.png","video":null,"channel":null,"channelUrl":null,"author":"behnamoh","authorUrl":"https://news.ycombinator.com/user?id=behnamoh","authorImage":null,"authorSlug":null,"score":197,"views":null,"sharedCount":null,"likeCount":null,"sharedContent":null,"parent":{"__typename":"HnJson","localize":[{"title":"什么是应用范畴理论？(2018)","locale":"zh"},{"title":"什麼是應用範疇理論？(2018)","locale":"zh-Hant"}]}},{"__typename":"SocialMediaPost","id":"HnPost-26013715","excerpt":"","slug":"/hn/26013715","title":"Show HN: Haven – Run a private website to share with only the people you choose","date":"February 03, 2021","dateISO":"2021-02-03T16:47:25.900Z","datetime":"2021-02-03 16:47","tags":["story","Show HN","Hacker News"],"image":null,"imageAlt":null,"provider":"Hacker News","thirdPartyId":"26013715","url":"https://news.ycombinator.com/item?id=26013715","originalUrl":"https://havenweb.org/","imageRemote":"https://havenweb.org/undraw_content_creator_xeju.svg","video":null,"channel":"Show HN","channelUrl":"https://news.ycombinator.com/show","author":"mawise","authorUrl":"https://news.ycombinator.com/user?id=mawise","authorImage":null,"authorSlug":null,"score":534,"views":null,"sharedCount":null,"likeCount":null,"sharedContent":null,"parent":{"__typename":"HnJson","localize":[{"title":"显示HN：Haven - 运行一个私人网站，只与您选择的人分享。","locale":"zh"},{"title":"顯示HN：Haven - 運行一個私人網站，只與您選擇的人分享。","locale":"zh-Hant"}]}},{"__typename":"SocialMediaPost","id":"HnPost-26014921","excerpt":"","slug":"/hn/26014921","title":"Yellen Accepted $700K Speaking Fees from Citadel; Will Not Recuse from Hearing","date":"February 03, 2021","dateISO":"2021-02-03T16:47:25.899Z","datetime":"2021-02-03 16:47","tags":["story","Hacker News"],"image":null,"imageAlt":null,"provider":"Hacker News","thirdPartyId":"26014921","url":"https://news.ycombinator.com/item?id=26014921","originalUrl":"https://www.bloomberg.com/news/articles/2021-02-03/yellen-summons-regulators-to-discuss-financial-market-volatility","imageRemote":null,"video":null,"channel":null,"channelUrl":null,"author":"disgrunt","authorUrl":"https://news.ycombinator.com/user?id=disgrunt","authorImage":null,"authorSlug":null,"score":384,"views":null,"sharedCount":null,"likeCount":null,"sharedContent":null,"parent":{"__typename":"HnJson","localize":[{"title":"耶伦接受花旗银行70万美元演讲费；不会回避听证会。","locale":"zh"},{"title":"耶倫接受花旗銀行70萬美元演講費；不會迴避聽證會。","locale":"zh-Hant"}]}},{"__typename":"SocialMediaPost","id":"HnPost-26010782","excerpt":"","slug":"/hn/26010782","title":"UCSF team has engineered a tiny antibody capable of neutralizing the coronavirus","date":"February 03, 2021","dateISO":"2021-02-03T14:34:13.769Z","datetime":"2021-02-03 14:34","tags":["story","Hacker News"],"image":null,"imageAlt":null,"provider":"Hacker News","thirdPartyId":"26010782","url":"https://news.ycombinator.com/item?id=26010782","originalUrl":"https://www.ucsf.edu/magazine/covid-aeronabs","imageRemote":"https://www.ucsf.edu/sites/default/files/2021-01/aeronabs-inhaler-kouzou-sakai-featured.jpg","video":null,"channel":null,"channelUrl":null,"author":"pfd1986","authorUrl":"https://news.ycombinator.com/user?id=pfd1986","authorImage":null,"authorSlug":null,"score":212,"views":null,"sharedCount":null,"likeCount":null,"sharedContent":null,"parent":{"__typename":"HnJson","localize":[{"title":"美国加州大学旧金山分校团队设计了一种能够中和冠状病毒的微小抗体。","locale":"zh"},{"title":"美國加州大學舊金山分校團隊設計了一種能夠中和冠狀病毒的微小抗體。","locale":"zh-Hant"}]}},{"__typename":"SocialMediaPost","id":"HnPost-26012405","excerpt":"","slug":"/hn/26012405","title":"A terminal stock watcher and stock position tracker","date":"February 03, 2021","dateISO":"2021-02-03T14:34:13.769Z","datetime":"2021-02-03 14:34","tags":["story","Hacker News"],"image":null,"imageAlt":null,"provider":"Hacker News","thirdPartyId":"26012405","url":"https://news.ycombinator.com/item?id=26012405","originalUrl":"https://github.com/achannarasappa/ticker","imageRemote":"https://avatars.githubusercontent.com/u/1489983?s=400&v=4","video":null,"channel":null,"channelUrl":null,"author":"maydemir","authorUrl":"https://news.ycombinator.com/user?id=maydemir","authorImage":null,"authorSlug":null,"score":389,"views":null,"sharedCount":null,"likeCount":null,"sharedContent":null,"parent":{"__typename":"HnJson","localize":[{"title":"终端股票观察器和股票仓位跟踪器。","locale":"zh"},{"title":"終端股票觀察器和股票倉位跟蹤器。","locale":"zh-Hant"}]}}]}},"pageContext":{"basePath":"/","pageType":"tag","tag":"Hacker News","tagsFilter":{"id":{"glob":"!*Post-1"}},"filter":{"id":{"glob":"!*Post-1"},"tags":{"eq":"Hacker News"}},"limit":25,"skip":1625,"total":3105,"totalPages":125,"currentPage":66,"maxWidth":1024,"maxHeight":512,"locale":"zh-Hant","hrefLang":"zh-Hant","originalPath":"/tags/hacker-news/page/66","dateFormat":"YYYY-MM-DD"}},"staticQueryHashes":["1239077767","2506312863","2744905544","3025052997","3493603132","3493603132","3513215887","386998304"]}