{"componentChunkName":"component---gatsby-theme-buzzing-src-gatsby-theme-timeline-templates-posts-query-js","path":"/en/page/4","result":{"data":{"site":{"siteMetadata":{"title":"Reddit 热门","description":"用中文浏览Reddit热门内容","social":[{"name":"Twitter","url":"https://twitter.com/gatsbyjs","external":null,"prefetch":null},{"name":"GitHub","url":"https://github.com/gatsbyjs","external":null,"prefetch":null}],"menuLinks":[],"localize":[{"locale":"en","title":"Buzzing on Reddit","description":"See what's buzzing on Reddit in your native language","social":[{"name":"Reddit","url":"https://www.reddit.com/","external":true,"prefetch":null}],"menuLinks":[{"name":"Weekly Selection","url":"/issues","external":null,"prefetch":null},{"name":"RSS","url":"/rss.xml","external":null,"prefetch":false}]},{"locale":"zh-Hant","title":"Reddit 熱門","description":"用中文瀏覽Reddit熱門內容","social":null,"menuLinks":null}]}},"tagsGroup":{"group":[{"fieldValue":"ASK HN","totalCount":54},{"fieldValue":"Hacker News","totalCount":3107},{"fieldValue":"Poll","totalCount":1},{"fieldValue":"Show HN","totalCount":100},{"fieldValue":"poll","totalCount":1},{"fieldValue":"story","totalCount":3106}]},"allBlogPost":{"nodes":[{"__typename":"SocialMediaPost","id":"HnPost-26681672","excerpt":"","slug":"/hn/26681672","title":"How to do things safely in Bash (2018)","date":"April 04, 2021","dateISO":"2021-04-04T05:32:11.811Z","datetime":"2021-04-04 05:32","tags":["story","Hacker News"],"image":null,"imageAlt":null,"provider":"Hacker News","thirdPartyId":"26681672","url":"https://news.ycombinator.com/item?id=26681672","originalUrl":"https://github.com/anordal/shellharden/blob/master/how_to_do_things_safely_in_bash.md","imageRemote":"https://avatars.githubusercontent.com/u/4992374?s=400&v=4","video":null,"channel":null,"channelUrl":null,"author":"soheilpro","authorUrl":"https://news.ycombinator.com/user?id=soheilpro","authorImage":null,"authorSlug":null,"score":141,"views":null,"sharedCount":null,"likeCount":null,"sharedContent":null,"parent":{"__typename":"HnJson","localize":[{"title":"如何在Bash中安全做事(2018)","locale":"zh"},{"title":"如何在Bash中安全做事(2018)","locale":"zh-Hant"},{"title":"バッシュで安全に行動する方法（2018年版","locale":"ja-JA"},{"title":"バッシュで安全に行動する方法（2018年版","locale":"ja"}]}},{"__typename":"SocialMediaPost","id":"HnPost-26683832","excerpt":"","slug":"/hn/26683832","title":"SQLite Plus: Missing SQLite functions","date":"April 03, 2021","dateISO":"2021-04-03T23:32:14.171Z","datetime":"2021-04-03 23:32","tags":["story","Hacker News"],"image":null,"imageAlt":null,"provider":"Hacker News","thirdPartyId":"26683832","url":"https://news.ycombinator.com/item?id=26683832","originalUrl":"https://github.com/nalgeon/sqlite-plus/","imageRemote":"https://avatars.githubusercontent.com/u/2946182?s=400&v=4","video":null,"channel":null,"channelUrl":null,"author":"tosh","authorUrl":"https://news.ycombinator.com/user?id=tosh","authorImage":null,"authorSlug":null,"score":154,"views":null,"sharedCount":null,"likeCount":null,"sharedContent":null,"parent":{"__typename":"HnJson","localize":[{"title":"SQLite Plus：缺少SQLite函数","locale":"zh"},{"title":"SQLite Plus：缺少SQLite函數","locale":"zh-Hant"},{"title":"SQLite Plus: 欠落しているSQLite関数","locale":"ja-JA"},{"title":"SQLite Plus: 欠落しているSQLite関数","locale":"ja"}]}},{"__typename":"SocialMediaPost","id":"HnPost-26684519","excerpt":"","slug":"/hn/26684519","title":"“Why We Sleep” Is Riddled with Scientific and Factual Errors","date":"April 03, 2021","dateISO":"2021-04-03T23:32:14.171Z","datetime":"2021-04-03 23:32","tags":["story","Hacker News"],"image":null,"imageAlt":null,"provider":"Hacker News","thirdPartyId":"26684519","url":"https://news.ycombinator.com/item?id=26684519","originalUrl":"https://guzey.com/books/why-we-sleep/","imageRemote":"https://guzey.com/files/books/why-we-sleep/why-we-sleep-preview.png?4","video":null,"channel":null,"channelUrl":null,"author":"giansegato","authorUrl":"https://news.ycombinator.com/user?id=giansegato","authorImage":null,"authorSlug":null,"score":150,"views":null,"sharedCount":null,"likeCount":null,"sharedContent":null,"parent":{"__typename":"HnJson","localize":[{"title":"\"我们为什么要睡觉 \"充满了科学和事实的错误。","locale":"zh"},{"title":"\"我們爲什麼要睡覺 \"充滿了科學和事實的錯誤。","locale":"zh-Hant"},{"title":"\"Why We Sleep\" は科学的にも事実的にも間違いだらけです。","locale":"ja-JA"},{"title":"\"Why We Sleep\" は科学的にも事実的にも間違いだらけです。","locale":"ja"}]}},{"__typename":"SocialMediaPost","id":"HnPost-26683755","excerpt":"","slug":"/hn/26683755","title":"Lawsuit against TSA and DEA over airport seizures achieves first victory","date":"April 03, 2021","dateISO":"2021-04-03T22:53:06.693Z","datetime":"2021-04-03 22:53","tags":["story","Hacker News"],"image":null,"imageAlt":null,"provider":"Hacker News","thirdPartyId":"26683755","url":"https://news.ycombinator.com/item?id=26683755","originalUrl":"https://ij.org/press-release/major-class-action-lawsuit-against-tsa-and-dea-over-airport-seizures-achieves-first-round-victory/","imageRemote":"https://ij.org/wp-content/uploads/2020/01/Rebecca-Brown-032A7971-683x1024.jpg","video":null,"channel":null,"channelUrl":null,"author":"tomohawk","authorUrl":"https://news.ycombinator.com/user?id=tomohawk","authorImage":null,"authorSlug":null,"score":140,"views":null,"sharedCount":null,"likeCount":null,"sharedContent":null,"parent":{"__typename":"HnJson","localize":[{"title":"针对TSA和DEA的机场扣押诉讼案取得首胜","locale":"zh"},{"title":"針對TSA和DEA的機場扣押訴訟案取得首勝","locale":"zh-Hant"},{"title":"TSAとDEAを相手取った、空港での押収に関する訴訟で初の勝利を収める","locale":"ja-JA"},{"title":"TSAとDEAを相手取った、空港での押収に関する訴訟で初の勝利を収める","locale":"ja"}]}},{"__typename":"SocialMediaPost","id":"HnPost-26681936","excerpt":"","slug":"/hn/26681936","title":"The cesspool of the internet is to be found in a village in North Holland","date":"April 03, 2021","dateISO":"2021-04-03T21:39:54.598Z","datetime":"2021-04-03 21:39","tags":["story","Hacker News"],"image":null,"imageAlt":null,"provider":"Hacker News","thirdPartyId":"26681936","url":"https://news.ycombinator.com/item?id=26681936","originalUrl":"https://www.nrc.nl/nieuws/2021/04/02/the-cesspool-of-the-internet-is-to-be-found-in-a-village-in-north-holland-a4038369","imageRemote":"https://images.nrc.nl/Ng2P_vjVmIv6GjgStLipnITegdo=/1200x627/smart/filters:no_upscale()/s3/static.nrc.nl/bvhw/files/2021/04/web030421ihndruppel-1.gif","video":null,"channel":null,"channelUrl":null,"author":"ahubert","authorUrl":"https://news.ycombinator.com/user?id=ahubert","authorImage":null,"authorSlug":null,"score":144,"views":null,"sharedCount":null,"likeCount":null,"sharedContent":null,"parent":{"__typename":"HnJson","localize":[{"title":"网络的粪坑在北荷兰的一个村子里。","locale":"zh"},{"title":"網絡的糞坑在北荷蘭的一個村子裏。","locale":"zh-Hant"},{"title":"インターネットの掃き溜めは北オランダの村にある","locale":"ja-JA"},{"title":"インターネットの掃き溜めは北オランダの村にある","locale":"ja"}]}},{"__typename":"SocialMediaPost","id":"HnPost-26670495","excerpt":"","slug":"/hn/26670495","title":"MapLibre GL is a free and open-source fork of mapbox-gl-JS","date":"April 03, 2021","dateISO":"2021-04-03T19:11:52.095Z","datetime":"2021-04-03 19:11","tags":["story","Hacker News"],"image":null,"imageAlt":null,"provider":"Hacker News","thirdPartyId":"26670495","url":"https://news.ycombinator.com/item?id=26670495","originalUrl":"https://github.com/maplibre/maplibre-gl-js","imageRemote":"https://repository-images.githubusercontent.com/319779344/38baac00-8c8c-11eb-9b8b-01990f75f4f5","video":null,"channel":null,"channelUrl":null,"author":"atriix","authorUrl":"https://news.ycombinator.com/user?id=atriix","authorImage":null,"authorSlug":null,"score":142,"views":null,"sharedCount":null,"likeCount":null,"sharedContent":null,"parent":{"__typename":"HnJson","localize":[{"title":"MapLibre GL是mapbox-gl-js的一个免费开源的fork。","locale":"zh"},{"title":"MapLibre GL是mapbox-gl-js的一個免費開源的fork。","locale":"zh-Hant"},{"title":"MapLibre GLは、mapbox-gl-JSのフリーでオープンソースのフォークです。","locale":"ja-JA"},{"title":"MapLibre GLは、mapbox-gl-JSのフリーでオープンソースのフォークです。","locale":"ja"}]}},{"__typename":"SocialMediaPost","id":"HnPost-26682097","excerpt":"","slug":"/hn/26682097","title":"Lithium battery costs have fallen by 98% in three decades","date":"April 03, 2021","dateISO":"2021-04-03T19:11:52.095Z","datetime":"2021-04-03 19:11","tags":["story","Hacker News"],"image":null,"imageAlt":null,"provider":"Hacker News","thirdPartyId":"26682097","url":"https://news.ycombinator.com/item?id=26682097","originalUrl":"https://www.economist.com/graphic-detail/2021/03/31/lithium-battery-costs-have-fallen-by-98-in-three-decades","imageRemote":"https://www.economist.com/img/b/1280/755/90/sites/default/files/images/2021/03/articles/main/20210403_woc382.png","video":null,"channel":null,"channelUrl":null,"author":"hhs","authorUrl":"https://news.ycombinator.com/user?id=hhs","authorImage":null,"authorSlug":null,"score":176,"views":null,"sharedCount":null,"likeCount":null,"sharedContent":null,"parent":{"__typename":"HnJson","localize":[{"title":"三十年来，锂电池成本下降了98%。","locale":"zh"},{"title":"三十年來，鋰電池成本下降了98%。","locale":"zh-Hant"},{"title":"リチウム電池のコストは30年間で98％も下がった","locale":"ja-JA"},{"title":"リチウム電池のコストは30年間で98％も下がった","locale":"ja"}]}},{"__typename":"SocialMediaPost","id":"HnPost-26681984","excerpt":"","slug":"/hn/26681984","title":"My NAS exposes itself over the internet without permission","date":"April 03, 2021","dateISO":"2021-04-03T18:52:15.004Z","datetime":"2021-04-03 18:52","tags":["story","Hacker News"],"image":null,"imageAlt":null,"provider":"Hacker News","thirdPartyId":"26681984","url":"https://news.ycombinator.com/item?id=26681984","originalUrl":"https://kn100.me/terramaster-nas-exposing-itself-over-upnp/","imageRemote":"https://kn100.me/terramaster-upnp-1.png","video":null,"channel":null,"channelUrl":null,"author":"kn100","authorUrl":"https://news.ycombinator.com/user?id=kn100","authorImage":null,"authorSlug":null,"score":162,"views":null,"sharedCount":null,"likeCount":null,"sharedContent":null,"parent":{"__typename":"HnJson","localize":[{"title":"我的NAS在未经允许的情况下，在互联网上暴露了自己。","locale":"zh"},{"title":"我的NAS在未經允許的情況下，在互聯網上暴露了自己。","locale":"zh-Hant"},{"title":"私のNASがインターネット上で勝手に公開されている","locale":"ja-JA"},{"title":"私のNASがインターネット上で勝手に公開されている","locale":"ja"}]}},{"__typename":"SocialMediaPost","id":"HnPost-26678723","excerpt":"","slug":"/hn/26678723","title":"VPNCloud: Open-source peer-to-peer VPN written in rust","date":"April 03, 2021","dateISO":"2021-04-03T18:17:09.551Z","datetime":"2021-04-03 18:17","tags":["story","Hacker News"],"image":null,"imageAlt":null,"provider":"Hacker News","thirdPartyId":"26678723","url":"https://news.ycombinator.com/item?id=26678723","originalUrl":"https://vpncloud.ddswd.de/","imageRemote":"https://vpncloud.ddswd.de/img/logo.png?b2a8c493e1","video":null,"channel":null,"channelUrl":null,"author":"albatruss","authorUrl":"https://news.ycombinator.com/user?id=albatruss","authorImage":null,"authorSlug":null,"score":143,"views":null,"sharedCount":null,"likeCount":null,"sharedContent":null,"parent":{"__typename":"HnJson","localize":[{"title":"VPNCloud。用rust编写的开放源码点对点VPN","locale":"zh"},{"title":"VPNCloud。用rust編寫的開放源碼點對點VPN","locale":"zh-Hant"},{"title":"VPNCloudです。rust で書かれたオープンソースのピアツーピア VPN。","locale":"ja-JA"},{"title":"VPNCloudです。rust で書かれたオープンソースのピアツーピア VPN。","locale":"ja"}]}},{"__typename":"SocialMediaPost","id":"HnPost-26680872","excerpt":"","slug":"/hn/26680872","title":"Amazon acknowledges issue of drivers urinating in bottles in apology","date":"April 03, 2021","dateISO":"2021-04-03T17:38:41.174Z","datetime":"2021-04-03 17:38","tags":["story","Hacker News"],"image":null,"imageAlt":null,"provider":"Hacker News","thirdPartyId":"26680872","url":"https://news.ycombinator.com/item?id=26680872","originalUrl":"https://www.reuters.com/article/idUSKBN2BQ0DC","imageRemote":"https://static.reuters.com/resources/r/?m=02&d=20210403&t=2&i=1557209653&r=LYNXMPEH32082&w=800","video":null,"channel":null,"channelUrl":null,"author":"reddotX","authorUrl":"https://news.ycombinator.com/user?id=reddotX","authorImage":null,"authorSlug":null,"score":144,"views":null,"sharedCount":null,"likeCount":null,"sharedContent":null,"parent":{"__typename":"HnJson","localize":[{"title":"亚马逊承认司机在瓶子里撒尿的问题致歉","locale":"zh"},{"title":"亞馬遜承認司機在瓶子裏撒尿的問題致歉","locale":"zh-Hant"},{"title":"アマゾン、ドライバーがボトルに排尿した問題を謝罪で認める","locale":"ja-JA"},{"title":"アマゾン、ドライバーがボトルに排尿した問題を謝罪で認める","locale":"ja"}]}},{"__typename":"SocialMediaPost","id":"HnPost-26681969","excerpt":"","slug":"/hn/26681969","title":"533M Facebook users' phone numbers and personal data have been leaked online","date":"April 03, 2021","dateISO":"2021-04-03T16:54:38.485Z","datetime":"2021-04-03 16:54","tags":["story","Hacker News"],"image":null,"imageAlt":null,"provider":"Hacker News","thirdPartyId":"26681969","url":"https://news.ycombinator.com/item?id=26681969","originalUrl":"https://www.businessinsider.com/stolen-data-of-533-million-facebook-users-leaked-online-2021-4","imageRemote":"https://i.insider.com/60686ebe856cd700198a30b8?width=1200&format=jpeg","video":null,"channel":null,"channelUrl":null,"author":"cjbprime","authorUrl":"https://news.ycombinator.com/user?id=cjbprime","authorImage":null,"authorSlug":null,"score":217,"views":null,"sharedCount":null,"likeCount":null,"sharedContent":null,"parent":{"__typename":"HnJson","localize":[{"title":"5.33亿Facebook用户的电话号码和个人资料已在网上泄露","locale":"zh"},{"title":"5.33億Facebook用戶的電話號碼和個人資料已在網上泄露","locale":"zh-Hant"},{"title":"533M人のFacebookユーザーの電話番号と個人情報がネット上に流出","locale":"ja-JA"},{"title":"533M人のFacebookユーザーの電話番号と個人情報がネット上に流出","locale":"ja"}]}},{"__typename":"SocialMediaPost","id":"HnPost-26679067","excerpt":"","slug":"/hn/26679067","title":"ShipMap","date":"April 03, 2021","dateISO":"2021-04-03T15:27:29.953Z","datetime":"2021-04-03 15:27","tags":["story","Hacker News"],"image":null,"imageAlt":null,"provider":"Hacker News","thirdPartyId":"26679067","url":"https://news.ycombinator.com/item?id=26679067","originalUrl":"https://www.shipmap.org/","imageRemote":"https://www.shipmap.org/shipmap_image.jpg","video":null,"channel":null,"channelUrl":null,"author":"wingworks","authorUrl":"https://news.ycombinator.com/user?id=wingworks","authorImage":null,"authorSlug":null,"score":148,"views":null,"sharedCount":null,"likeCount":null,"sharedContent":null,"parent":{"__typename":"HnJson","localize":[{"title":"船舶地图","locale":"zh"},{"title":"船舶地圖","locale":"zh-Hant"},{"title":"船の地図","locale":"ja-JA"},{"title":"船の地図","locale":"ja"}]}},{"__typename":"SocialMediaPost","id":"HnPost-26657686","excerpt":"","slug":"/hn/26657686","title":"Zoomable lens without any moving parts","date":"April 03, 2021","dateISO":"2021-04-03T14:42:07.262Z","datetime":"2021-04-03 14:42","tags":["story","Hacker News"],"image":null,"imageAlt":null,"provider":"Hacker News","thirdPartyId":"26657686","url":"https://news.ycombinator.com/item?id=26657686","originalUrl":"https://medium.com/extremetech-access/mit-creates-zoomable-lens-without-any-moving-parts-87286a791047","imageRemote":"https://miro.medium.com/max/640/0*ZGfKo3tc9ctv7ByI.jpg","video":null,"channel":null,"channelUrl":null,"author":"simonebrunozzi","authorUrl":"https://news.ycombinator.com/user?id=simonebrunozzi","authorImage":null,"authorSlug":null,"score":142,"views":null,"sharedCount":null,"likeCount":null,"sharedContent":null,"parent":{"__typename":"HnJson","localize":[{"title":"可变焦镜头，无任何活动部件","locale":"zh"},{"title":"可變焦鏡頭，無任何活動部件","locale":"zh-Hant"},{"title":"可動部のないズーミングレンズ","locale":"ja-JA"},{"title":"可動部のないズーミングレンズ","locale":"ja"}]}},{"__typename":"SocialMediaPost","id":"HnPost-26673892","excerpt":"","slug":"/hn/26673892","title":"CEO of Waymo John Krafcik is leaving","date":"April 03, 2021","dateISO":"2021-04-03T14:26:09.933Z","datetime":"2021-04-03 14:26","tags":["story","Hacker News"],"image":null,"imageAlt":null,"provider":"Hacker News","thirdPartyId":"26673892","url":"https://news.ycombinator.com/item?id=26673892","originalUrl":"https://blog.waymo.com/2021/04/capstone-of-my-career-email-from-john.html","imageRemote":"https://1.bp.blogspot.com/-jLmwag0Fjao/YGdKF4cGblI/AAAAAAAAFwo/TGmzmbQFYUM2XJp4jGwfptqJRbIvs_XfwCNcBGAsYHQ/s72-c/image%2B%287%29.png","video":null,"channel":null,"channelUrl":null,"author":"mgreg","authorUrl":"https://news.ycombinator.com/user?id=mgreg","authorImage":null,"authorSlug":null,"score":140,"views":null,"sharedCount":null,"likeCount":null,"sharedContent":null,"parent":{"__typename":"HnJson","localize":[{"title":"Waymo的CEO约翰-克拉夫西克将离开。","locale":"zh"},{"title":"Waymo的CEO約翰-克拉夫西克將離開。","locale":"zh-Hant"},{"title":"WaymoのCEOであるJohn Krafcik氏が退社します。","locale":"ja-JA"},{"title":"WaymoのCEOであるJohn Krafcik氏が退社します。","locale":"ja"}]}},{"__typename":"SocialMediaPost","id":"HnPost-26676625","excerpt":"","slug":"/hn/26676625","title":"Handles are the better pointers (2018)","date":"April 03, 2021","dateISO":"2021-04-03T14:26:09.933Z","datetime":"2021-04-03 14:26","tags":["story","Hacker News"],"image":null,"imageAlt":null,"provider":"Hacker News","thirdPartyId":"26676625","url":"https://news.ycombinator.com/item?id=26676625","originalUrl":"https://floooh.github.io/2018/06/17/handles-vs-pointers.html","imageRemote":null,"video":null,"channel":null,"channelUrl":null,"author":"zdw","authorUrl":"https://news.ycombinator.com/user?id=zdw","authorImage":null,"authorSlug":null,"score":141,"views":null,"sharedCount":null,"likeCount":null,"sharedContent":null,"parent":{"__typename":"HnJson","localize":[{"title":"手柄是更好的指向标(2018)","locale":"zh"},{"title":"手柄是更好的指向標(2018)","locale":"zh-Hant"},{"title":"ハンドルはより良いポインターである（2018年","locale":"ja-JA"},{"title":"ハンドルはより良いポインターである（2018年","locale":"ja"}]}},{"__typename":"SocialMediaPost","id":"HnPost-26678700","excerpt":"","slug":"/hn/26678700","title":"GitHub investigating crypto-mining campaign abusing its server infrastructure","date":"April 03, 2021","dateISO":"2021-04-03T14:26:09.933Z","datetime":"2021-04-03 14:26","tags":["story","Hacker News"],"image":null,"imageAlt":null,"provider":"Hacker News","thirdPartyId":"26678700","url":"https://news.ycombinator.com/item?id=26678700","originalUrl":"https://therecord.media/github-investigating-crypto-mining-campaign-abusing-its-server-infrastructure/","imageRemote":"https://therecord.media/wp-content/uploads/2021/04/GitHub-Logo.png","video":null,"channel":null,"channelUrl":null,"author":"sysoleg","authorUrl":"https://news.ycombinator.com/user?id=sysoleg","authorImage":null,"authorSlug":null,"score":143,"views":null,"sharedCount":null,"likeCount":null,"sharedContent":null,"parent":{"__typename":"HnJson","localize":[{"title":"GitHub调查滥用其服务器基础设施的加密采矿活动","locale":"zh"},{"title":"GitHub調查濫用其服務器基礎設施的加密採礦活動","locale":"zh-Hant"},{"title":"GitHub、サーバーインフラを悪用したクリプトマイニングキャンペーンを調査中","locale":"ja-JA"},{"title":"GitHub、サーバーインフラを悪用したクリプトマイニングキャンペーンを調査中","locale":"ja"}]}},{"__typename":"SocialMediaPost","id":"HnPost-26678946","excerpt":"","slug":"/hn/26678946","title":"China pressured Concordia University to cancel event with Uighur activist (2019)","date":"April 03, 2021","dateISO":"2021-04-03T13:19:30.348Z","datetime":"2021-04-03 13:19","tags":["story","Hacker News"],"image":null,"imageAlt":null,"provider":"Hacker News","thirdPartyId":"26678946","url":"https://news.ycombinator.com/item?id=26678946","originalUrl":"https://www.cbc.ca/news/canada/montreal/chinese-officials-concordia-university-cancel-event-with-uighur-activist-1.5074423","imageRemote":"https://i.cbc.ca/1.5074434.1553728634!/fileImage/httpImage/image.jpg_gen/derivatives/16x9_620/dolkun-isa.jpg","video":null,"channel":null,"channelUrl":null,"author":"baylearn","authorUrl":"https://news.ycombinator.com/user?id=baylearn","authorImage":null,"authorSlug":null,"score":154,"views":null,"sharedCount":null,"likeCount":null,"sharedContent":null,"parent":{"__typename":"HnJson","localize":[{"title":"中国施压协和大学取消与维吾尔族活动人士的活动(2019)","locale":"zh"},{"title":"中國施壓協和大學取消與維吾爾族活動人士的活動(2019)","locale":"zh-Hant"},{"title":"中国がコンコーディア大学に圧力をかけ、ウイグル人活動家のイベントを中止させたことについて（2019年","locale":"ja-JA"},{"title":"中国がコンコーディア大学に圧力をかけ、ウイグル人活動家のイベントを中止させたことについて（2019年","locale":"ja"}]}},{"__typename":"SocialMediaPost","id":"HnPost-26676729","excerpt":"","slug":"/hn/26676729","title":"The matrix calculus you need for deep learning (2018)","date":"April 03, 2021","dateISO":"2021-04-03T12:21:00.579Z","datetime":"2021-04-03 12:21","tags":["story","Hacker News"],"image":null,"imageAlt":null,"provider":"Hacker News","thirdPartyId":"26676729","url":"https://news.ycombinator.com/item?id=26676729","originalUrl":"https://arxiv.org/abs/1802.01528","imageRemote":"https://static.arxiv.org/static/browse/0.3.2.6/images/icons/social/bibsonomy.png","video":null,"channel":null,"channelUrl":null,"author":"Anon84","authorUrl":"https://news.ycombinator.com/user?id=Anon84","authorImage":null,"authorSlug":null,"score":142,"views":null,"sharedCount":null,"likeCount":null,"sharedContent":null,"parent":{"__typename":"HnJson","localize":[{"title":"深度学习所需的矩阵微积分(2018)","locale":"zh"},{"title":"深度學習所需的矩陣微積分(2018)","locale":"zh-Hant"},{"title":"深層学習に必要な行列計算機（2018年版","locale":"ja-JA"},{"title":"深層学習に必要な行列計算機（2018年版","locale":"ja"}]}},{"__typename":"SocialMediaPost","id":"HnPost-26671136","excerpt":"","slug":"/hn/26671136","title":"The Norway Problem","date":"April 03, 2021","dateISO":"2021-04-03T09:29:38.555Z","datetime":"2021-04-03 09:29","tags":["story","Hacker News"],"image":null,"imageAlt":null,"provider":"Hacker News","thirdPartyId":"26671136","url":"https://news.ycombinator.com/item?id=26671136","originalUrl":"https://hitchdev.com/strictyaml/why/implicit-typing-removed/","imageRemote":"https://hitchdev.com/images/logo.png","video":null,"channel":null,"channelUrl":null,"author":"dedalus","authorUrl":"https://news.ycombinator.com/user?id=dedalus","authorImage":null,"authorSlug":null,"score":141,"views":null,"sharedCount":null,"likeCount":null,"sharedContent":null,"parent":{"__typename":"HnJson","localize":[{"title":"挪威问题","locale":"zh"},{"title":"挪威問題","locale":"zh-Hant"},{"title":"ノルウェー問題","locale":"ja-JA"},{"title":"ノルウェー問題","locale":"ja"}]}},{"__typename":"SocialMediaPost","id":"HnPost-26677035","excerpt":"","slug":"/hn/26677035","title":"Fed up with the Mac, I spent six months with a Linux laptop","date":"April 03, 2021","dateISO":"2021-04-03T07:59:29.521Z","datetime":"2021-04-03 07:59","tags":["story","Hacker News"],"image":null,"imageAlt":null,"provider":"Hacker News","thirdPartyId":"26677035","url":"https://news.ycombinator.com/item?id=26677035","originalUrl":"https://cfenollosa.com/blog/fed-up-with-the-mac-i-spent-six-months-with-a-linux-laptop-the-grass-is-not-greener-on-the-other-side.html","imageRemote":"https://cfenollosa.com/img/cfenollosa-small.png","video":null,"channel":null,"channelUrl":null,"author":"ecliptik","authorUrl":"https://news.ycombinator.com/user?id=ecliptik","authorImage":null,"authorSlug":null,"score":140,"views":null,"sharedCount":null,"likeCount":null,"sharedContent":null,"parent":{"__typename":"HnJson","localize":[{"title":"厌倦了Mac，我花了6个月的时间使用Linux笔记本电脑。","locale":"zh"},{"title":"厭倦了Mac，我花了6個月的時間使用Linux筆記本電腦。","locale":"zh-Hant"},{"title":"Macにうんざりしていた私は、Linuxのノートパソコンを半年間使ってみました。","locale":"ja-JA"},{"title":"Macにうんざりしていた私は、Linuxのノートパソコンを半年間使ってみました。","locale":"ja"}]}},{"__typename":"SocialMediaPost","id":"HnPost-26671089","excerpt":"","slug":"/hn/26671089","title":"A lot of free software is free as in piano","date":"April 03, 2021","dateISO":"2021-04-03T04:36:45.434Z","datetime":"2021-04-03 04:36","tags":["story","Hacker News"],"image":null,"imageAlt":null,"provider":"Hacker News","thirdPartyId":"26671089","url":"https://news.ycombinator.com/item?id=26671089","originalUrl":"https://twitter.com/leahvelleman/status/1377829865504833536","imageRemote":null,"video":null,"channel":null,"channelUrl":null,"author":"PretzelFisch","authorUrl":"https://news.ycombinator.com/user?id=PretzelFisch","authorImage":null,"authorSlug":null,"score":140,"views":null,"sharedCount":null,"likeCount":null,"sharedContent":null,"parent":{"__typename":"HnJson","localize":[{"title":"很多免费软件都是免费的，就像钢琴一样","locale":"zh"},{"title":"很多免費軟件都是免費的，就像鋼琴一樣","locale":"zh-Hant"},{"title":"多くのフリーソフトは、ピアノのように自由に","locale":"ja-JA"},{"title":"多くのフリーソフトは、ピアノのように自由に","locale":"ja"}]}},{"__typename":"SocialMediaPost","id":"HnPost-26674863","excerpt":"","slug":"/hn/26674863","title":"An insider-trading indictment shows ties to Bloomberg News scoops","date":"April 03, 2021","dateISO":"2021-04-03T03:17:30.681Z","datetime":"2021-04-03 03:17","tags":["story","Hacker News"],"image":null,"imageAlt":null,"provider":"Hacker News","thirdPartyId":"26674863","url":"https://news.ycombinator.com/item?id=26674863","originalUrl":"https://www.cjr.org/business_of_news/an-insider-trading-indictment-shows-ties-to-bloomberg-news-scoops.php","imageRemote":"https://www.cjr.org/wp-content/uploads/2021/04/GettyImages-1224069206-800x419.jpg?122376","video":null,"channel":null,"channelUrl":null,"author":"onetimemanytime","authorUrl":"https://news.ycombinator.com/user?id=onetimemanytime","authorImage":null,"authorSlug":null,"score":140,"views":null,"sharedCount":null,"likeCount":null,"sharedContent":null,"parent":{"__typename":"HnJson","localize":[{"title":"内幕交易起诉书显示与彭博新闻社的独家新闻有关","locale":"zh"},{"title":"內幕交易起訴書顯示與彭博新聞社的獨家新聞有關","locale":"zh-Hant"},{"title":"インサイダー取引で起訴されたBloomberg Newsのスクープとの関係を示す","locale":"ja-JA"},{"title":"インサイダー取引で起訴されたBloomberg Newsのスクープとの関係を示す","locale":"ja"}]}},{"__typename":"SocialMediaPost","id":"HnPost-26676957","excerpt":"","slug":"/hn/26676957","title":"Windows 95 – How Does It Look Today?","date":"April 03, 2021","dateISO":"2021-04-03T03:17:30.681Z","datetime":"2021-04-03 03:17","tags":["story","Hacker News"],"image":null,"imageAlt":null,"provider":"Hacker News","thirdPartyId":"26676957","url":"https://news.ycombinator.com/item?id=26676957","originalUrl":"https://dmitryelj.medium.com/windows-95-how-does-it-look-today-feda837922d9","imageRemote":"https://miro.medium.com/max/638/1*nxNyqqDAGi9L6-m1e-jdEQ.png","video":null,"channel":null,"channelUrl":null,"author":"hu3","authorUrl":"https://news.ycombinator.com/user?id=hu3","authorImage":null,"authorSlug":null,"score":147,"views":null,"sharedCount":null,"likeCount":null,"sharedContent":null,"parent":{"__typename":"HnJson","localize":[{"title":"Windows 95 - 它今天看起来如何？","locale":"zh"},{"title":"Windows 95 - 它今天看起來如何？","locale":"zh-Hant"},{"title":"Windows 95 - 現在の様子は？","locale":"ja-JA"},{"title":"Windows 95 - 現在の様子は？","locale":"ja"}]}},{"__typename":"SocialMediaPost","id":"HnPost-26672263","excerpt":"","slug":"/hn/26672263","title":"I bought ISO 8601-1:2019 and 8601-2:2019","date":"April 03, 2021","dateISO":"2021-04-03T02:17:44.956Z","datetime":"2021-04-03 02:17","tags":["story","Hacker News"],"image":null,"imageAlt":null,"provider":"Hacker News","thirdPartyId":"26672263","url":"https://news.ycombinator.com/item?id=26672263","originalUrl":"https://www.reddit.com/r/ISO8601/comments/mikuj1/i_bought_iso_860112019_and_860122019_ask_me/","imageRemote":"https://www.redditstatic.com/desktop2x/img/renderTimingPixel.png","video":null,"channel":null,"channelUrl":null,"author":"DyslexicAtheist","authorUrl":"https://news.ycombinator.com/user?id=DyslexicAtheist","authorImage":null,"authorSlug":null,"score":147,"views":null,"sharedCount":null,"likeCount":null,"sharedContent":null,"parent":{"__typename":"HnJson","localize":[{"title":"我买了ISO 8601-1:2019和8601-2:2019。","locale":"zh"},{"title":"我買了ISO 8601-1:2019和8601-2:2019。","locale":"zh-Hant"},{"title":"ISO 8601-1:2019と8601-2:2019を購入しました。","locale":"ja-JA"},{"title":"ISO 8601-1:2019と8601-2:2019を購入しました。","locale":"ja"}]}},{"__typename":"SocialMediaPost","id":"HnPost-26673221","excerpt":"","slug":"/hn/26673221","title":"Show HN: Grit – a multitree-based personal task manager","date":"April 03, 2021","dateISO":"2021-04-03T02:17:44.956Z","datetime":"2021-04-03 02:17","tags":["story","Show HN","Hacker News"],"image":null,"imageAlt":null,"provider":"Hacker News","thirdPartyId":"26673221","url":"https://news.ycombinator.com/item?id=26673221","originalUrl":"https://github.com/climech/grit","imageRemote":"https://avatars.githubusercontent.com/u/71132215?s=400&v=4","video":null,"channel":"Show HN","channelUrl":"https://news.ycombinator.com/show","author":"climech","authorUrl":"https://news.ycombinator.com/user?id=climech","authorImage":null,"authorSlug":null,"score":150,"views":null,"sharedCount":null,"likeCount":null,"sharedContent":null,"parent":{"__typename":"HnJson","localize":[{"title":"显示HN：Grit--一个基于多平台的个人任务管理器。","locale":"zh"},{"title":"顯示HN：Grit--一個基於多平臺的個人任務管理器。","locale":"zh-Hant"},{"title":"Show HN: Grit - マルチツリーベースのパーソナルタスクマネージャー","locale":"ja-JA"},{"title":"Show HN: Grit - マルチツリーベースのパーソナルタスクマネージャー","locale":"ja"}]}}]}},"pageContext":{"basePath":"/","pageType":"home","tagsFilter":{"id":{"glob":"!*Post-1"}},"filter":{"id":{"glob":"!*Post-1"}},"limit":25,"skip":75,"totalPages":125,"total":3107,"currentPage":4,"maxWidth":1024,"maxHeight":512,"locale":"en","hrefLang":"en-US","originalPath":"/page/4","dateFormat":"MM/DD/YYYY"}},"staticQueryHashes":["1239077767","2506312863","2744905544","3025052997","3493603132","3493603132","3513215887","386998304"]}