{"componentChunkName":"component---gatsby-theme-buzzing-src-gatsby-theme-timeline-templates-posts-query-js","path":"/en/page/63","result":{"data":{"site":{"siteMetadata":{"title":"Reddit 热门","description":"用中文浏览Reddit热门内容","social":[{"name":"Twitter","url":"https://twitter.com/gatsbyjs","external":null,"prefetch":null},{"name":"GitHub","url":"https://github.com/gatsbyjs","external":null,"prefetch":null}],"menuLinks":[],"localize":[{"locale":"en","title":"Buzzing on Reddit","description":"See what's buzzing on Reddit in your native language","social":[{"name":"Reddit","url":"https://www.reddit.com/","external":true,"prefetch":null}],"menuLinks":[{"name":"Weekly Selection","url":"/issues","external":null,"prefetch":null},{"name":"RSS","url":"/rss.xml","external":null,"prefetch":false}]},{"locale":"zh-Hant","title":"Reddit 熱門","description":"用中文瀏覽Reddit熱門內容","social":null,"menuLinks":null}]}},"tagsGroup":{"group":[{"fieldValue":"ASK HN","totalCount":54},{"fieldValue":"Hacker News","totalCount":3105},{"fieldValue":"Poll","totalCount":1},{"fieldValue":"Show HN","totalCount":100},{"fieldValue":"poll","totalCount":1},{"fieldValue":"story","totalCount":3104}]},"allBlogPost":{"nodes":[{"__typename":"SocialMediaPost","id":"HnPost-26035433","excerpt":"","slug":"/hn/26035433","title":"‘Smallest reptile on earth’ discovered in Madagascar","date":"February 07, 2021","dateISO":"2021-02-07T19:19:08.189Z","datetime":"2021-02-07 19:19","tags":["story","Hacker News"],"image":null,"imageAlt":null,"provider":"Hacker News","thirdPartyId":"26035433","url":"https://news.ycombinator.com/item?id=26035433","originalUrl":"https://www.bbc.com/news/world-africa-55945948","imageRemote":"https://ichef.bbci.co.uk/news/1024/branded_news/11E89/production/_116835337_efa43879-7b8d-4dda-aa22-455044bba1e8.jpg","video":null,"channel":null,"channelUrl":null,"author":"pseudolus","authorUrl":"https://news.ycombinator.com/user?id=pseudolus","authorImage":null,"authorSlug":null,"score":243,"views":null,"sharedCount":null,"likeCount":null,"sharedContent":null,"parent":{"__typename":"HnJson","localize":[{"title":"马达加斯加发现 \"地球上最小的爬行动物","locale":"zh"},{"title":"馬達加斯加發現 \"地球上最小的爬行動物","locale":"zh-Hant"}]}},{"__typename":"SocialMediaPost","id":"HnPost-26054545","excerpt":"","slug":"/hn/26054545","title":"Science fiction hasn’t prepared us to imagine machine learning","date":"February 07, 2021","dateISO":"2021-02-07T19:19:08.189Z","datetime":"2021-02-07 19:19","tags":["story","Hacker News"],"image":null,"imageAlt":null,"provider":"Hacker News","thirdPartyId":"26054545","url":"https://news.ycombinator.com/item?id=26054545","originalUrl":"https://tedunderwood.com/2021/02/02/why-sf-hasnt-prepared-us-to-imagine-machine-learning/","imageRemote":"https://tedunderwood.files.wordpress.com/2021/02/screen-shot-2021-02-07-at-7.41.34-am.png?w=1200","video":null,"channel":null,"channelUrl":null,"author":"polm23","authorUrl":"https://news.ycombinator.com/user?id=polm23","authorImage":null,"authorSlug":null,"score":205,"views":null,"sharedCount":null,"likeCount":null,"sharedContent":null,"parent":{"__typename":"HnJson","localize":[{"title":"科幻小说还没有让我们做好想象机器学习的准备","locale":"zh"},{"title":"科幻小說還沒有讓我們做好想象機器學習的準備","locale":"zh-Hant"}]}},{"__typename":"SocialMediaPost","id":"HnPost-26045380","excerpt":"","slug":"/hn/26045380","title":"Seeking the Productive Life: Some Details of My Personal Infrastructure (2019)","date":"February 07, 2021","dateISO":"2021-02-07T14:36:47.124Z","datetime":"2021-02-07 14:36","tags":["story","Hacker News"],"image":null,"imageAlt":null,"provider":"Hacker News","thirdPartyId":"26045380","url":"https://news.ycombinator.com/item?id=26045380","originalUrl":"https://writings.stephenwolfram.com/2019/02/seeking-the-productive-life-some-details-of-my-personal-infrastructure/","imageRemote":"https://writings.stephenwolfram.com/data/uploads/2019/02/sw-gear-circle-image5-e1551798624458.png","video":null,"channel":null,"channelUrl":null,"author":"not_knuth","authorUrl":"https://news.ycombinator.com/user?id=not_knuth","authorImage":null,"authorSlug":null,"score":165,"views":null,"sharedCount":null,"likeCount":null,"sharedContent":null,"parent":{"__typename":"HnJson","localize":[{"title":"追求卓有成效的生活。我个人基础设施的一些细节(2019年)","locale":"zh"},{"title":"追求卓有成效的生活。我個人基礎設施的一些細節(2019年)","locale":"zh-Hant"}]}},{"__typename":"SocialMediaPost","id":"HnPost-26048946","excerpt":"","slug":"/hn/26048946","title":"Show HN: You-tldr – easy-to-read transcripts of Youtube videos","date":"February 07, 2021","dateISO":"2021-02-07T12:36:45.454Z","datetime":"2021-02-07 12:36","tags":["story","Show HN","Hacker News"],"image":null,"imageAlt":null,"provider":"Hacker News","thirdPartyId":"26048946","url":"https://news.ycombinator.com/item?id=26048946","originalUrl":"https://you-tldr.com/","imageRemote":null,"video":null,"channel":"Show HN","channelUrl":"https://news.ycombinator.com/show","author":"bilater","authorUrl":"https://news.ycombinator.com/user?id=bilater","authorImage":null,"authorSlug":null,"score":187,"views":null,"sharedCount":null,"likeCount":null,"sharedContent":null,"parent":{"__typename":"HnJson","localize":[{"title":"显示HN：You-tldr - 易于阅读的Youtube视频转录。","locale":"zh"},{"title":"顯示HN：You-tldr - 易於閱讀的Youtube視頻轉錄。","locale":"zh-Hant"}]}},{"__typename":"SocialMediaPost","id":"HnPost-26053323","excerpt":"","slug":"/hn/26053323","title":"A visual guide to SSH tunnels","date":"February 07, 2021","dateISO":"2021-02-07T11:21:54.795Z","datetime":"2021-02-07 11:21","tags":["story","Hacker News"],"image":null,"imageAlt":null,"provider":"Hacker News","thirdPartyId":"26053323","url":"https://news.ycombinator.com/item?id=26053323","originalUrl":"https://robotmoon.com/ssh-tunnels/","imageRemote":null,"video":null,"channel":null,"channelUrl":null,"author":"brendanfalk","authorUrl":"https://news.ycombinator.com/user?id=brendanfalk","authorImage":null,"authorSlug":null,"score":956,"views":null,"sharedCount":null,"likeCount":null,"sharedContent":null,"parent":{"__typename":"HnJson","localize":[{"title":"SSH隧道的可视化指南","locale":"zh"},{"title":"SSH隧道的可視化指南","locale":"zh-Hant"}]}},{"__typename":"SocialMediaPost","id":"HnPost-26051883","excerpt":"","slug":"/hn/26051883","title":"Scientists develop transparent wood that is stronger and lighter than glass","date":"February 07, 2021","dateISO":"2021-02-07T10:36:57.697Z","datetime":"2021-02-07 10:36","tags":["story","Hacker News"],"image":null,"imageAlt":null,"provider":"Hacker News","thirdPartyId":"26051883","url":"https://news.ycombinator.com/item?id=26051883","originalUrl":"https://www.cbc.ca/1.5902739","imageRemote":"https://i.cbc.ca/1.5902788.1612553036!/fileImage/httpImage/image.jpg_gen/derivatives/16x9_620/transparent-wood-university-of-maryland.jpg","video":null,"channel":null,"channelUrl":null,"author":"lazycrazyowl","authorUrl":"https://news.ycombinator.com/user?id=lazycrazyowl","authorImage":null,"authorSlug":null,"score":308,"views":null,"sharedCount":null,"likeCount":null,"sharedContent":null,"parent":{"__typename":"HnJson","localize":[{"title":"科学家开发出比玻璃更强更轻的透明木材","locale":"zh"},{"title":"科學家開發出比玻璃更強更輕的透明木材","locale":"zh-Hant"}]}},{"__typename":"SocialMediaPost","id":"HnPost-26051255","excerpt":"","slug":"/hn/26051255","title":"Mezzano: Operating system written in Common Lisp","date":"February 07, 2021","dateISO":"2021-02-07T09:40:17.130Z","datetime":"2021-02-07 09:40","tags":["story","Hacker News"],"image":null,"imageAlt":null,"provider":"Hacker News","thirdPartyId":"26051255","url":"https://news.ycombinator.com/item?id=26051255","originalUrl":"https://github.com/froggey/Mezzano#mezzano-an-operating-system-written-in-common-lisp","imageRemote":"https://avatars.githubusercontent.com/u/72612?s=400&v=4","video":null,"channel":null,"channelUrl":null,"author":"ingve","authorUrl":"https://news.ycombinator.com/user?id=ingve","authorImage":null,"authorSlug":null,"score":224,"views":null,"sharedCount":null,"likeCount":null,"sharedContent":null,"parent":{"__typename":"HnJson","localize":[{"title":"Mezzano。用通用Lisp编写的操作系统","locale":"zh"},{"title":"Mezzano。用通用Lisp編寫的操作系統","locale":"zh-Hant"}]}},{"__typename":"SocialMediaPost","id":"HnPost-26051254","excerpt":"","slug":"/hn/26051254","title":"FreeBSD 13.0 Beta1 Now Available","date":"February 07, 2021","dateISO":"2021-02-07T09:25:59.208Z","datetime":"2021-02-07 09:25","tags":["story","Hacker News"],"image":null,"imageAlt":null,"provider":"Hacker News","thirdPartyId":"26051254","url":"https://news.ycombinator.com/item?id=26051254","originalUrl":"https://lists.freebsd.org/pipermail/freebsd-stable/2021-February/093047.html","imageRemote":null,"video":null,"channel":null,"channelUrl":null,"author":"vermaden","authorUrl":"https://news.ycombinator.com/user?id=vermaden","authorImage":null,"authorSlug":null,"score":193,"views":null,"sharedCount":null,"likeCount":null,"sharedContent":null,"parent":{"__typename":"HnJson","localize":[{"title":"FreeBSD 13.0 Beta1 现在可用","locale":"zh"},{"title":"FreeBSD 13.0 Beta1 現在可用","locale":"zh-Hant"}]}},{"__typename":"SocialMediaPost","id":"HnPost-26042085","excerpt":"","slug":"/hn/26042085","title":"How will 'chipageddon' affect you?","date":"February 07, 2021","dateISO":"2021-02-07T08:45:29.035Z","datetime":"2021-02-07 08:45","tags":["story","Hacker News"],"image":null,"imageAlt":null,"provider":"Hacker News","thirdPartyId":"26042085","url":"https://news.ycombinator.com/item?id=26042085","originalUrl":"https://www.bbc.com/news/technology-55936011","imageRemote":"https://ichef.bbci.co.uk/news/1024/branded_news/13291/production/_116818487_chip1.jpg","video":null,"channel":null,"channelUrl":null,"author":"throwaway4good","authorUrl":"https://news.ycombinator.com/user?id=throwaway4good","authorImage":null,"authorSlug":null,"score":164,"views":null,"sharedCount":null,"likeCount":null,"sharedContent":null,"parent":{"__typename":"HnJson","localize":[{"title":"chipageddon \"对你有什么影响？","locale":"zh"},{"title":"chipageddon \"對你有什麼影響？","locale":"zh-Hant"}]}},{"__typename":"SocialMediaPost","id":"HnPost-26051386","excerpt":"","slug":"/hn/26051386","title":"Operating Systems: Three Easy Pieces","date":"February 07, 2021","dateISO":"2021-02-07T08:27:20.366Z","datetime":"2021-02-07 08:27","tags":["story","Hacker News"],"image":null,"imageAlt":null,"provider":"Hacker News","thirdPartyId":"26051386","url":"https://news.ycombinator.com/item?id=26051386","originalUrl":"https://pages.cs.wisc.edu/~remzi/OSTEP/","imageRemote":"https://pages.cs.wisc.edu/~remzi/OSTEP/book-cover-two.jpg","video":null,"channel":null,"channelUrl":null,"author":"ingve","authorUrl":"https://news.ycombinator.com/user?id=ingve","authorImage":null,"authorSlug":null,"score":323,"views":null,"sharedCount":null,"likeCount":null,"sharedContent":null,"parent":{"__typename":"HnJson","localize":[{"title":"操作系统。三个简单的部分","locale":"zh"},{"title":"操作系統。三個簡單的部分","locale":"zh-Hant"}]}},{"__typename":"SocialMediaPost","id":"HnPost-26035272","excerpt":"","slug":"/hn/26035272","title":"New quantum receiver the first to detect entire radio frequency spectrum","date":"February 07, 2021","dateISO":"2021-02-07T06:41:43.009Z","datetime":"2021-02-07 06:41","tags":["story","Hacker News"],"image":null,"imageAlt":null,"provider":"Hacker News","thirdPartyId":"26035272","url":"https://news.ycombinator.com/item?id=26035272","originalUrl":"https://phys.org/news/2021-02-quantum-entire-radio-frequency-spectrum.html","imageRemote":"https://scx2.b-cdn.net/gfx/news/hires/2021/newquantumre.jpg","video":null,"channel":null,"channelUrl":null,"author":"dnetesn","authorUrl":"https://news.ycombinator.com/user?id=dnetesn","authorImage":null,"authorSlug":null,"score":184,"views":null,"sharedCount":null,"likeCount":null,"sharedContent":null,"parent":{"__typename":"HnJson","localize":[{"title":"新型量子接收器首次探测整个无线电频谱","locale":"zh"},{"title":"新型量子接收器首次探測整個無線電頻譜","locale":"zh-Hant"}]}},{"__typename":"SocialMediaPost","id":"HnPost-26051370","excerpt":"","slug":"/hn/26051370","title":"Supercookie: Browser Fingerprinting via Favicon","date":"February 07, 2021","dateISO":"2021-02-07T05:52:53.476Z","datetime":"2021-02-07 05:52","tags":["story","Hacker News"],"image":null,"imageAlt":null,"provider":"Hacker News","thirdPartyId":"26051370","url":"https://news.ycombinator.com/item?id=26051370","originalUrl":"https://github.com/jonasstrehle/supercookie","imageRemote":"https://repository-images.githubusercontent.com/332757634/08085880-6281-11eb-8154-932024e037a6","video":null,"channel":null,"channelUrl":null,"author":"qtoxic","authorUrl":"https://news.ycombinator.com/user?id=qtoxic","authorImage":null,"authorSlug":null,"score":401,"views":null,"sharedCount":null,"likeCount":null,"sharedContent":null,"parent":{"__typename":"HnJson","localize":[{"title":"超级cookie: 通过Favicon进行浏览器指纹识别","locale":"zh"},{"title":"超級cookie: 通過Favicon進行瀏覽器指紋識別","locale":"zh-Hant"}]}},{"__typename":"SocialMediaPost","id":"HnPost-26048800","excerpt":"","slug":"/hn/26048800","title":"Show HN: LibreTranslate – Open-source neural machine translation API","date":"February 07, 2021","dateISO":"2021-02-07T05:30:01.067Z","datetime":"2021-02-07 05:30","tags":["story","Show HN","Hacker News"],"image":null,"imageAlt":null,"provider":"Hacker News","thirdPartyId":"26048800","url":"https://news.ycombinator.com/item?id=26048800","originalUrl":"https://libretranslate.com/","imageRemote":"https://user-images.githubusercontent.com/1951843/102724116-32a6df00-42db-11eb-8cc0-129ab39cdfb5.png","video":null,"channel":"Show HN","channelUrl":"https://news.ycombinator.com/show","author":"pjfin123","authorUrl":"https://news.ycombinator.com/user?id=pjfin123","authorImage":null,"authorSlug":null,"score":215,"views":null,"sharedCount":null,"likeCount":null,"sharedContent":null,"parent":{"__typename":"HnJson","localize":[{"title":"显示 HN: LibreTranslate - 开源神经机器翻译 API","locale":"zh"},{"title":"顯示 HN: LibreTranslate - 開源神經機器翻譯 API","locale":"zh-Hant"}]}},{"__typename":"SocialMediaPost","id":"HnPost-26048993","excerpt":"","slug":"/hn/26048993","title":"Show HN: Epub.to – ePub to pdf, mobi, Kindle, and an API","date":"February 07, 2021","dateISO":"2021-02-07T04:58:37.198Z","datetime":"2021-02-07 04:58","tags":["story","Show HN","Hacker News"],"image":null,"imageAlt":null,"provider":"Hacker News","thirdPartyId":"26048993","url":"https://news.ycombinator.com/item?id=26048993","originalUrl":"https://epub.to","imageRemote":"https://epub.to/static/epub.png","video":null,"channel":"Show HN","channelUrl":"https://news.ycombinator.com/show","author":"nadermx","authorUrl":"https://news.ycombinator.com/user?id=nadermx","authorImage":null,"authorSlug":null,"score":245,"views":null,"sharedCount":null,"likeCount":null,"sharedContent":null,"parent":{"__typename":"HnJson","localize":[{"title":"显示HN：Epub.to - 电子书到pdf，mobi，Kindle，和一个API。","locale":"zh"},{"title":"顯示HN：Epub.to - 電子書到pdf，mobi，Kindle，和一個API。","locale":"zh-Hant"}]}},{"__typename":"SocialMediaPost","id":"HnPost-26045797","excerpt":"","slug":"/hn/26045797","title":"What data on myself I collect and why (2020)","date":"February 07, 2021","dateISO":"2021-02-07T02:46:51.012Z","datetime":"2021-02-07 02:46","tags":["story","Hacker News"],"image":null,"imageAlt":null,"provider":"Hacker News","thirdPartyId":"26045797","url":"https://news.ycombinator.com/item?id=26045797","originalUrl":"https://beepb00p.xyz/my-data.html","imageRemote":"https://beepb00p.xyz/assets/favicon.png","video":null,"channel":null,"channelUrl":null,"author":"karlicoss","authorUrl":"https://news.ycombinator.com/user?id=karlicoss","authorImage":null,"authorSlug":null,"score":187,"views":null,"sharedCount":null,"likeCount":null,"sharedContent":null,"parent":{"__typename":"HnJson","localize":[{"title":"我收集了自己的哪些数据，为什么要收集这些数据(2020年)","locale":"zh"},{"title":"我收集了自己的哪些數據，爲什麼要收集這些數據(2020年)","locale":"zh-Hant"}]}},{"__typename":"SocialMediaPost","id":"HnPost-26049111","excerpt":"","slug":"/hn/26049111","title":"How to lower the price of plant-based meat","date":"February 07, 2021","dateISO":"2021-02-07T00:58:43.600Z","datetime":"2021-02-07 00:58","tags":["story","Hacker News"],"image":null,"imageAlt":null,"provider":"Hacker News","thirdPartyId":"26049111","url":"https://news.ycombinator.com/item?id=26049111","originalUrl":"https://us14.campaign-archive.com/?u=66df320da8400b581cbc1b539&id=cea38367f1","imageRemote":"https://mcusercontent.com/66df320da8400b581cbc1b539/images/979d5883-c52c-413b-ac7a-42572c2917d9.png","video":null,"channel":null,"channelUrl":null,"author":"pantalaimon","authorUrl":"https://news.ycombinator.com/user?id=pantalaimon","authorImage":null,"authorSlug":null,"score":292,"views":null,"sharedCount":null,"likeCount":null,"sharedContent":null,"parent":{"__typename":"HnJson","localize":[{"title":"如何降低植物性肉类的价格","locale":"zh"},{"title":"如何降低植物性肉類的價格","locale":"zh-Hant"}]}},{"__typename":"SocialMediaPost","id":"HnPost-26047846","excerpt":"","slug":"/hn/26047846","title":"Turn to RSS Feeds to Regain Control of the World Wide Web","date":"February 06, 2021","dateISO":"2021-02-06T23:11:59.658Z","datetime":"2021-02-06 23:11","tags":["story","Hacker News"],"image":null,"imageAlt":null,"provider":"Hacker News","thirdPartyId":"26047846","url":"https://news.ycombinator.com/item?id=26047846","originalUrl":"http://techrights.org/2021/02/06/rss-feeds-www/","imageRemote":"http://techrights.org/wp-content/uploads/2017/02/Techrights-pillars.jpg","video":null,"channel":null,"channelUrl":null,"author":"URfejk","authorUrl":"https://news.ycombinator.com/user?id=URfejk","authorImage":null,"authorSlug":null,"score":251,"views":null,"sharedCount":null,"likeCount":null,"sharedContent":null,"parent":{"__typename":"HnJson","localize":[{"title":"转向RSS Feeds，重新控制万维网。","locale":"zh"},{"title":"轉向RSS Feeds，重新控制萬維網。","locale":"zh-Hant"}]}},{"__typename":"SocialMediaPost","id":"HnPost-26047444","excerpt":"","slug":"/hn/26047444","title":"Parents of daughters are more likely to divorce than those with sons","date":"February 06, 2021","dateISO":"2021-02-06T22:48:46.986Z","datetime":"2021-02-06 22:48","tags":["story","Hacker News"],"image":null,"imageAlt":null,"provider":"Hacker News","thirdPartyId":"26047444","url":"https://news.ycombinator.com/item?id=26047444","originalUrl":"https://www.economist.com/science-and-technology/2021/02/06/daughters-provoke-parental-strife","imageRemote":"https://www.economist.com/img/b/1280/720/90/sites/default/files/images/2021/02/articles/main/20210206_stp501.jpg","video":null,"channel":null,"channelUrl":null,"author":"jkuria","authorUrl":"https://news.ycombinator.com/user?id=jkuria","authorImage":null,"authorSlug":null,"score":479,"views":null,"sharedCount":null,"likeCount":null,"sharedContent":null,"parent":{"__typename":"HnJson","localize":[{"title":"女儿的父母比儿子的父母更容易离婚。","locale":"zh"},{"title":"女兒的父母比兒子的父母更容易離婚。","locale":"zh-Hant"}]}},{"__typename":"SocialMediaPost","id":"HnPost-26045088","excerpt":"","slug":"/hn/26045088","title":"The war on disinformation is a war on dissent","date":"February 06, 2021","dateISO":"2021-02-06T21:42:07.767Z","datetime":"2021-02-06 21:42","tags":["story","Hacker News"],"image":null,"imageAlt":null,"provider":"Hacker News","thirdPartyId":"26045088","url":"https://news.ycombinator.com/item?id=26045088","originalUrl":"https://humanevents.com/2021/02/04/the-war-on-disinformation-is-a-war-on-dissent/","imageRemote":"https://humanevents.com/wp-content/uploads/2021/02/header-disinfo.png","video":null,"channel":null,"channelUrl":null,"author":"AndrewBissell","authorUrl":"https://news.ycombinator.com/user?id=AndrewBissell","authorImage":null,"authorSlug":null,"score":300,"views":null,"sharedCount":null,"likeCount":null,"sharedContent":null,"parent":{"__typename":"HnJson","localize":[{"title":"对虚假信息的战争就是对异议的战争。","locale":"zh"},{"title":"對虛假信息的戰爭就是對異議的戰爭。","locale":"zh-Hant"}]}},{"__typename":"SocialMediaPost","id":"HnPost-26036592","excerpt":"","slug":"/hn/26036592","title":"Petabyte tape cartridges are coming","date":"February 06, 2021","dateISO":"2021-02-06T21:15:59.258Z","datetime":"2021-02-06 21:15","tags":["story","Hacker News"],"image":null,"imageAlt":null,"provider":"Hacker News","thirdPartyId":"26036592","url":"https://news.ycombinator.com/item?id=26036592","originalUrl":"https://blocksandfiles.com/2021/02/04/petabyte-tape-cartridges-are-coming/","imageRemote":"https://blocksandfiles.com/wp-content/uploads/2021/02/BaFe-SrFe-Epsilon-Ferrite-media.jpg","video":null,"channel":null,"channelUrl":null,"author":"TangerineDream","authorUrl":"https://news.ycombinator.com/user?id=TangerineDream","authorImage":null,"authorSlug":null,"score":166,"views":null,"sharedCount":null,"likeCount":null,"sharedContent":null,"parent":{"__typename":"HnJson","localize":[{"title":"Petabyte磁带盒来了","locale":"zh"},{"title":"Petabyte磁帶盒來了","locale":"zh-Hant"}]}},{"__typename":"SocialMediaPost","id":"HnPost-26035757","excerpt":"","slug":"/hn/26035757","title":"Inkscape Ray Tracing – an extension for Inkscape to draw optical diagrams","date":"February 06, 2021","dateISO":"2021-02-06T19:16:59.526Z","datetime":"2021-02-06 19:16","tags":["story","Hacker News"],"image":null,"imageAlt":null,"provider":"Hacker News","thirdPartyId":"26035757","url":"https://news.ycombinator.com/item?id=26035757","originalUrl":"https://github.com/damienBloch/Inkscape-raytracing","imageRemote":"https://avatars.githubusercontent.com/u/49733418?s=400&v=4","video":null,"channel":null,"channelUrl":null,"author":"app4soft","authorUrl":"https://news.ycombinator.com/user?id=app4soft","authorImage":null,"authorSlug":null,"score":276,"views":null,"sharedCount":null,"likeCount":null,"sharedContent":null,"parent":{"__typename":"HnJson","localize":[{"title":"Inkscape Ray Tracing - 一个用于Inkscape绘制光学图的扩展。","locale":"zh"},{"title":"Inkscape Ray Tracing - 一個用於Inkscape繪製光學圖的擴展。","locale":"zh-Hant"}]}},{"__typename":"SocialMediaPost","id":"HnPost-26046461","excerpt":"","slug":"/hn/26046461","title":"I told a cat food company how much they’d save by using taller cans (2020)","date":"February 06, 2021","dateISO":"2021-02-06T19:16:59.525Z","datetime":"2021-02-06 19:16","tags":["story","Hacker News"],"image":null,"imageAlt":null,"provider":"Hacker News","thirdPartyId":"26046461","url":"https://news.ycombinator.com/item?id=26046461","originalUrl":"https://twitter.com/mathematicsprof/status/1235553604016070656","imageRemote":null,"video":null,"channel":null,"channelUrl":null,"author":"Tomte","authorUrl":"https://news.ycombinator.com/user?id=Tomte","authorImage":null,"authorSlug":null,"score":246,"views":null,"sharedCount":null,"likeCount":null,"sharedContent":null,"parent":{"__typename":"HnJson","localize":[{"title":"我告诉一家猫粮公司，使用高罐头可以节省多少钱（2020年）。","locale":"zh"},{"title":"我告訴一家貓糧公司，使用高罐頭可以節省多少錢（2020年）。","locale":"zh-Hant"}]}},{"__typename":"SocialMediaPost","id":"HnPost-26046642","excerpt":"","slug":"/hn/26046642","title":"NordVPN disables features when you turn off auto-renew","date":"February 06, 2021","dateISO":"2021-02-06T18:33:28.032Z","datetime":"2021-02-06 18:33","tags":["story","Hacker News"],"image":null,"imageAlt":null,"provider":"Hacker News","thirdPartyId":"26046642","url":"https://news.ycombinator.com/item?id=26046642","originalUrl":"https://www.reddit.com/r/assholedesign/comments/ldf9g9/nordvpn_disables_features_when_you_turn_off/","imageRemote":"https://external-preview.redd.it/2AfPpF0p0A8jRQ4E502hBZJ9pM_x_YqJJuhgttnHvYY.jpg?auto=webp&s=5969accc930748f7b6b92677b7e3bf0121fbd8d8","video":null,"channel":null,"channelUrl":null,"author":"decrypt","authorUrl":"https://news.ycombinator.com/user?id=decrypt","authorImage":null,"authorSlug":null,"score":426,"views":null,"sharedCount":null,"likeCount":null,"sharedContent":null,"parent":{"__typename":"HnJson","localize":[{"title":"当你关闭自动续费时，NordVPN就会失去功能。","locale":"zh"},{"title":"當你關閉自動續費時，NordVPN就會失去功能。","locale":"zh-Hant"}]}},{"__typename":"SocialMediaPost","id":"HnPost-26046942","excerpt":"","slug":"/hn/26046942","title":"Big name corporations more likely to commit fraud","date":"February 06, 2021","dateISO":"2021-02-06T18:33:28.032Z","datetime":"2021-02-06 18:33","tags":["story","Hacker News"],"image":null,"imageAlt":null,"provider":"Hacker News","thirdPartyId":"26046942","url":"https://news.ycombinator.com/item?id=26046942","originalUrl":"https://news.wsu.edu/2021/02/02/big-name-corporations-likely-commit-fraud/","imageRemote":"https://s3.wp.wsu.edu/uploads/sites/609/2021/02/sean-pollock-PhYq704ffdA-unsplash.jpg","video":null,"channel":null,"channelUrl":null,"author":"CapitalistCartr","authorUrl":"https://news.ycombinator.com/user?id=CapitalistCartr","authorImage":null,"authorSlug":null,"score":261,"views":null,"sharedCount":null,"likeCount":null,"sharedContent":null,"parent":{"__typename":"HnJson","localize":[{"title":"大名鼎鼎的公司更有可能进行欺诈","locale":"zh"},{"title":"大名鼎鼎的公司更有可能進行欺詐","locale":"zh-Hant"}]}},{"__typename":"SocialMediaPost","id":"HnPost-26037687","excerpt":"","slug":"/hn/26037687","title":"8 Bits Are Enough for a Version Number","date":"February 06, 2021","dateISO":"2021-02-06T17:10:05.690Z","datetime":"2021-02-06 17:10","tags":["story","Hacker News"],"image":null,"imageAlt":null,"provider":"Hacker News","thirdPartyId":"26037687","url":"https://news.ycombinator.com/item?id=26037687","originalUrl":"http://kroah.com/log/blog/2021/02/05/8-bits-are-enough-for-a-version-number-dot-dot-dot/","imageRemote":"http://i.creativecommons.org/l/by-nc-sa/3.0/80x15.png","video":null,"channel":null,"channelUrl":null,"author":"Foxboron","authorUrl":"https://news.ycombinator.com/user?id=Foxboron","authorImage":null,"authorSlug":null,"score":167,"views":null,"sharedCount":null,"likeCount":null,"sharedContent":null,"parent":{"__typename":"HnJson","localize":[{"title":"8个位数就够一个版本号了","locale":"zh"},{"title":"8個位數就夠一個版本號了","locale":"zh-Hant"}]}}]}},"pageContext":{"basePath":"/","pageType":"home","tagsFilter":{"id":{"glob":"!*Post-1"}},"filter":{"id":{"glob":"!*Post-1"}},"limit":25,"skip":1550,"totalPages":125,"total":3105,"currentPage":63,"maxWidth":1024,"maxHeight":512,"locale":"en","hrefLang":"en-US","originalPath":"/page/63","dateFormat":"MM/DD/YYYY"}},"staticQueryHashes":["1239077767","2506312863","2744905544","3025052997","3493603132","3493603132","3513215887","386998304"]}