{"componentChunkName":"component---gatsby-theme-buzzing-src-gatsby-theme-timeline-templates-posts-query-js","path":"/zh-Hant/tags/story/page/49","result":{"data":{"site":{"siteMetadata":{"title":"Reddit 热门","description":"用中文浏览Reddit热门内容","social":[{"name":"Twitter","url":"https://twitter.com/gatsbyjs","external":null,"prefetch":null},{"name":"GitHub","url":"https://github.com/gatsbyjs","external":null,"prefetch":null}],"menuLinks":[],"localize":[{"locale":"en","title":"Buzzing on Reddit","description":"See what's buzzing on Reddit in your native language","social":[{"name":"Reddit","url":"https://www.reddit.com/","external":true,"prefetch":null}],"menuLinks":[{"name":"Weekly Selection","url":"/issues","external":null,"prefetch":null},{"name":"RSS","url":"/rss.xml","external":null,"prefetch":false}]},{"locale":"zh-Hant","title":"Reddit 熱門","description":"用中文瀏覽Reddit熱門內容","social":null,"menuLinks":null}]}},"tagsGroup":{"group":[{"fieldValue":"ASK HN","totalCount":42},{"fieldValue":"Bitcoin","totalCount":4},{"fieldValue":"Hacker News","totalCount":2407},{"fieldValue":"Poll","totalCount":1},{"fieldValue":"SaveAMC","totalCount":1},{"fieldValue":"Show HN","totalCount":81},{"fieldValue":"bitcoin","totalCount":3},{"fieldValue":"investing","totalCount":753},{"fieldValue":"poll","totalCount":1},{"fieldValue":"reddit","totalCount":4523},{"fieldValue":"science","totalCount":1},{"fieldValue":"stocks","totalCount":1482},{"fieldValue":"story","totalCount":2406},{"fieldValue":"tweet","totalCount":767},{"fieldValue":"wallstreetbets","totalCount":2288}]},"allBlogPost":{"nodes":[{"__typename":"SocialMediaPost","id":"HnPost-25892874","excerpt":"","slug":"/hn/25892874","title":"Czech trainers teach dogs to sniff out Covid: 95-percent success rate","date":"January 25, 2021","dateISO":"2021-01-25T14:12:39.245Z","datetime":"2021-01-25 14:12","tags":["story","Hacker News"],"image":null,"imageAlt":null,"provider":"Hacker News","thirdPartyId":"25892874","url":"https://news.ycombinator.com/item?id=25892874","originalUrl":"https://www.france24.com/en/live-news/20210124-czech-trainers-teach-dogs-to-sniff-out-covid","imageRemote":"https://s.france24.com/media/display/5183aa02-5dfc-11eb-b903-005056bff430/w:1280/p:16x9/0be11f45be5c6393b383cfa86c00d6996919d462.jpg","video":null,"channel":null,"channelUrl":null,"author":"respinal","authorUrl":"https://news.ycombinator.com/user?id=respinal","authorImage":null,"authorSlug":null,"score":161,"views":null,"sharedCount":null,"likeCount":null,"sharedContent":null,"parent":{"__typename":"HnJson","localize":[{"title":"捷克训导员教狗嗅出科维德：成功率95%。","locale":"zh"},{"title":"捷克訓導員教狗嗅出科維德：成功率95%。","locale":"zh-Hant"}]}},{"__typename":"SocialMediaPost","id":"HnPost-25892889","excerpt":"","slug":"/hn/25892889","title":"Show HN: Sokyokuban, a puzzle game in a non-Euclidian world","date":"January 25, 2021","dateISO":"2021-01-25T14:12:39.245Z","datetime":"2021-01-25 14:12","tags":["story","Show HN","Hacker News"],"image":null,"imageAlt":null,"provider":"Hacker News","thirdPartyId":"25892889","url":"https://news.ycombinator.com/item?id=25892889","originalUrl":"https://sokyokuban.com/","imageRemote":"https://sokyokuban.com/sculpture.38fd0393.png","video":null,"channel":"Show HN","channelUrl":"https://news.ycombinator.com/show","author":"jaspervdj","authorUrl":"https://news.ycombinator.com/user?id=jaspervdj","authorImage":null,"authorSlug":null,"score":167,"views":null,"sharedCount":null,"likeCount":null,"sharedContent":null,"parent":{"__typename":"HnJson","localize":[{"title":"展示HN：非欧几里得世界里的解谜游戏Sokyokuban。","locale":"zh"},{"title":"展示HN：非歐幾里得世界裏的解謎遊戲Sokyokuban。","locale":"zh-Hant"}]}},{"__typename":"SocialMediaPost","id":"HnPost-25893626","excerpt":"","slug":"/hn/25893626","title":"Delta Chat – decentralized chat via email","date":"January 25, 2021","dateISO":"2021-01-25T14:12:39.245Z","datetime":"2021-01-25 14:12","tags":["story","Hacker News"],"image":null,"imageAlt":null,"provider":"Hacker News","thirdPartyId":"25893626","url":"https://news.ycombinator.com/item?id=25893626","originalUrl":"https://delta.chat/en/","imageRemote":"https://delta.chat/assets/home/intro1.png","video":null,"channel":null,"channelUrl":null,"author":"buster","authorUrl":"https://news.ycombinator.com/user?id=buster","authorImage":null,"authorSlug":null,"score":202,"views":null,"sharedCount":null,"likeCount":null,"sharedContent":null,"parent":{"__typename":"HnJson","localize":[{"title":"Delta Chat - 通过电子邮件进行分散式聊天","locale":"zh"},{"title":"Delta Chat - 通過電子郵件進行分散式聊天","locale":"zh-Hant"}]}},{"__typename":"SocialMediaPost","id":"HnPost-25893832","excerpt":"","slug":"/hn/25893832","title":"Ghost cities and abandoned areas with a declining population","date":"January 25, 2021","dateISO":"2021-01-25T14:12:39.245Z","datetime":"2021-01-25 14:12","tags":["story","Hacker News"],"image":null,"imageAlt":null,"provider":"Hacker News","thirdPartyId":"25893832","url":"https://news.ycombinator.com/item?id=25893832","originalUrl":"https://www.theguardian.com/world/2021/jan/24/as-birth-rates-fall-animals-prowl-in-our-abandoned-ghost-villages","imageRemote":"https://i.guim.co.uk/img/media/d3d01da9b2530b9ef72486ce852ff10d303d4cd1/0_420_4500_2702/master/4500.jpg?width=1200&height=630&quality=85&auto=format&fit=crop&overlay-align=bottom%2Cleft&overlay-width=100p&overlay-base64=L2ltZy9zdGF0aWMvb3ZlcmxheXMvdG8tZGVmYXVsdC5wbmc&enable=upscale&s=c2810dd5c22cb42dc7928e6b04f053b2","video":null,"channel":null,"channelUrl":null,"author":"haakonhr","authorUrl":"https://news.ycombinator.com/user?id=haakonhr","authorImage":null,"authorSlug":null,"score":172,"views":null,"sharedCount":null,"likeCount":null,"sharedContent":null,"parent":{"__typename":"HnJson","localize":[{"title":"幽灵城市和人口减少的废弃地区。","locale":"zh"},{"title":"幽靈城市和人口減少的廢棄地區。","locale":"zh-Hant"}]}},{"__typename":"SocialMediaPost","id":"HnPost-25894045","excerpt":"","slug":"/hn/25894045","title":"Make Boring Plans","date":"January 25, 2021","dateISO":"2021-01-25T14:12:39.245Z","datetime":"2021-01-25 14:12","tags":["story","Hacker News"],"image":null,"imageAlt":null,"provider":"Hacker News","thirdPartyId":"25894045","url":"https://news.ycombinator.com/item?id=25894045","originalUrl":"https://skamille.medium.com/make-boring-plans-9438ce5cb053","imageRemote":"https://miro.medium.com/proxy/1*3sela1OADrJr7dJk_CXaEQ.png","video":null,"channel":null,"channelUrl":null,"author":"kelseyhightower","authorUrl":"https://news.ycombinator.com/user?id=kelseyhightower","authorImage":null,"authorSlug":null,"score":172,"views":null,"sharedCount":null,"likeCount":null,"sharedContent":null,"parent":{"__typename":"HnJson","localize":[{"title":"制定无聊的计划","locale":"zh"},{"title":"制定無聊的計劃","locale":"zh-Hant"}]}},{"__typename":"SocialMediaPost","id":"HnPost-25894233","excerpt":"","slug":"/hn/25894233","title":"Racket Compiler and Runtime Status","date":"January 25, 2021","dateISO":"2021-01-25T14:12:39.245Z","datetime":"2021-01-25 14:12","tags":["story","Hacker News"],"image":null,"imageAlt":null,"provider":"Hacker News","thirdPartyId":"25894233","url":"https://news.ycombinator.com/item?id=25894233","originalUrl":"https://blog.racket-lang.org/2021/01/racket-status.html","imageRemote":"https://blog.racket-lang.org/img/posts/2021-01-24-racket-status/pict.svg","video":null,"channel":null,"channelUrl":null,"author":"gleb_the_human","authorUrl":"https://news.ycombinator.com/user?id=gleb_the_human","authorImage":null,"authorSlug":null,"score":176,"views":null,"sharedCount":null,"likeCount":null,"sharedContent":null,"parent":{"__typename":"HnJson","localize":[{"title":"Racket编译器和运行时状态","locale":"zh"},{"title":"Racket編譯器和運行時狀態","locale":"zh-Hant"}]}},{"__typename":"SocialMediaPost","id":"HnPost-25901384","excerpt":"","slug":"/hn/25901384","title":"We Crush, Poison, and Destroy Insects at Our Own Peril","date":"January 25, 2021","dateISO":"2021-01-25T14:12:39.245Z","datetime":"2021-01-25 14:12","tags":["story","Hacker News"],"image":null,"imageAlt":null,"provider":"Hacker News","thirdPartyId":"25901384","url":"https://news.ycombinator.com/item?id=25901384","originalUrl":"https://nautil.us/issue/95/escape/we-crush-poison-and-destroy-insects-at-our-own-peril","imageRemote":"http://static.nautil.us/18109_0dacff7f88d2efe2d6190327ca13d283.png","video":null,"channel":null,"channelUrl":null,"author":"CapitalistCartr","authorUrl":"https://news.ycombinator.com/user?id=CapitalistCartr","authorImage":null,"authorSlug":null,"score":166,"views":null,"sharedCount":null,"likeCount":null,"sharedContent":null,"parent":{"__typename":"HnJson","localize":[{"title":"我们在自找麻烦的情况下粉碎、毒害和消灭昆虫。","locale":"zh"},{"title":"我們在自找麻煩的情況下粉碎、毒害和消滅昆蟲。","locale":"zh-Hant"}]}},{"__typename":"SocialMediaPost","id":"HnPost-25900898","excerpt":"","slug":"/hn/25900898","title":"Boeing 737 Max cleared to fly again 'too early'","date":"January 25, 2021","dateISO":"2021-01-25T12:58:32.676Z","datetime":"2021-01-25 12:58","tags":["story","Hacker News"],"image":null,"imageAlt":null,"provider":"Hacker News","thirdPartyId":"25900898","url":"https://news.ycombinator.com/item?id=25900898","originalUrl":"https://www.bbc.co.uk/news/business-55751150","imageRemote":"https://ichef.bbci.co.uk/news/1024/branded_news/181CF/production/_116576789_boeing737max_reuters.jpg","video":null,"channel":null,"channelUrl":null,"author":"dustinmoris","authorUrl":"https://news.ycombinator.com/user?id=dustinmoris","authorImage":null,"authorSlug":null,"score":164,"views":null,"sharedCount":null,"likeCount":null,"sharedContent":null,"parent":{"__typename":"HnJson","localize":[{"title":"波音737 Max获准再飞 \"太早","locale":"zh"},{"title":"波音737 Max獲准再飛 \"太早","locale":"zh-Hant"}]}},{"__typename":"SocialMediaPost","id":"HnPost-25895996","excerpt":"","slug":"/hn/25895996","title":"Proof of X","date":"January 25, 2021","dateISO":"2021-01-25T12:00:17.463Z","datetime":"2021-01-25 12:00","tags":["story","Hacker News"],"image":null,"imageAlt":null,"provider":"Hacker News","thirdPartyId":"25895996","url":"https://news.ycombinator.com/item?id=25895996","originalUrl":"https://julian.digital/2020/08/06/proof-of-x/","imageRemote":"https://julian.digital/wp-content/uploads/2020/08/proofofxprev.png","video":null,"channel":null,"channelUrl":null,"author":"dguo","authorUrl":"https://news.ycombinator.com/user?id=dguo","authorImage":null,"authorSlug":null,"score":165,"views":null,"sharedCount":null,"likeCount":null,"sharedContent":null,"parent":{"__typename":"HnJson","localize":[{"title":"X的证明","locale":"zh"},{"title":"X的證明","locale":"zh-Hant"}]}},{"__typename":"SocialMediaPost","id":"HnPost-25898391","excerpt":"","slug":"/hn/25898391","title":"Sales of electric cars up by 43% in 2020","date":"January 25, 2021","dateISO":"2021-01-25T11:09:37.630Z","datetime":"2021-01-25 11:09","tags":["story","Hacker News"],"image":null,"imageAlt":null,"provider":"Hacker News","thirdPartyId":"25898391","url":"https://news.ycombinator.com/item?id=25898391","originalUrl":"https://www.theguardian.com/environment/2021/jan/19/global-sales-of-electric-cars-accelerate-fast-in-2020-despite-covid-pandemic","imageRemote":"https://i.guim.co.uk/img/media/f8ece723868f0738a242276a377291ecd4fb65ca/0_0_3500_2101/master/3500.jpg?width=1200&height=630&quality=85&auto=format&fit=crop&overlay-align=bottom%2Cleft&overlay-width=100p&overlay-base64=L2ltZy9zdGF0aWMvb3ZlcmxheXMvdGctZGVmYXVsdC5wbmc&enable=upscale&s=d73ad85fd75348f79ff63f83e34a8d91","video":null,"channel":null,"channelUrl":null,"author":"apsec112","authorUrl":"https://news.ycombinator.com/user?id=apsec112","authorImage":null,"authorSlug":null,"score":192,"views":null,"sharedCount":null,"likeCount":null,"sharedContent":null,"parent":{"__typename":"HnJson","localize":[{"title":"2020年电动汽车销量增长43%。","locale":"zh"},{"title":"2020年電動汽車銷量增長43%。","locale":"zh-Hant"}]}},{"__typename":"SocialMediaPost","id":"HnPost-25898443","excerpt":"","slug":"/hn/25898443","title":"18.7 Million Americans Vaccinated","date":"January 25, 2021","dateISO":"2021-01-25T11:09:37.630Z","datetime":"2021-01-25 11:09","tags":["story","Hacker News"],"image":null,"imageAlt":null,"provider":"Hacker News","thirdPartyId":"25898443","url":"https://news.ycombinator.com/item?id=25898443","originalUrl":"https://covidvaxcount.live/","imageRemote":null,"video":null,"channel":null,"channelUrl":null,"author":"codeconut","authorUrl":"https://news.ycombinator.com/user?id=codeconut","authorImage":null,"authorSlug":null,"score":166,"views":null,"sharedCount":null,"likeCount":null,"sharedContent":null,"parent":{"__typename":"HnJson","localize":[{"title":"1870万美国人接种了疫苗","locale":"zh"},{"title":"1870萬美國人接種了疫苗","locale":"zh-Hant"}]}},{"__typename":"SocialMediaPost","id":"HnPost-25899031","excerpt":"","slug":"/hn/25899031","title":"Peering agreements between Backblaze and Cloudflare","date":"January 25, 2021","dateISO":"2021-01-25T11:09:37.630Z","datetime":"2021-01-25 11:09","tags":["story","Hacker News"],"image":null,"imageAlt":null,"provider":"Hacker News","thirdPartyId":"25899031","url":"https://news.ycombinator.com/item?id=25899031","originalUrl":"https://www.reddit.com/r/backblaze/comments/l2lq42/how_long_will_cloudflare_peering_stay_for/gk6qie0/","imageRemote":"https://www.redditstatic.com/desktop2x/img/renderTimingPixel.png","video":null,"channel":null,"channelUrl":null,"author":"decrypt","authorUrl":"https://news.ycombinator.com/user?id=decrypt","authorImage":null,"authorSlug":null,"score":160,"views":null,"sharedCount":null,"likeCount":null,"sharedContent":null,"parent":{"__typename":"HnJson","localize":[{"title":"Backblaze和Cloudflare之间的对等协议。","locale":"zh"},{"title":"Backblaze和Cloudflare之間的對等協議。","locale":"zh-Hant"}]}},{"__typename":"SocialMediaPost","id":"HnPost-25899416","excerpt":"","slug":"/hn/25899416","title":"5nm in the USA: TSMC's Board Approves $3.5B Fab in Arizona","date":"January 25, 2021","dateISO":"2021-01-25T11:09:37.630Z","datetime":"2021-01-25 11:09","tags":["story","Hacker News"],"image":null,"imageAlt":null,"provider":"Hacker News","thirdPartyId":"25899416","url":"https://news.ycombinator.com/item?id=25899416","originalUrl":"https://www.tomshardware.com/news/tsmc-arizona-fab-investment","imageRemote":"https://cdn.mos.cms.futurecdn.net/ab7BGsYK2pbLRAmfxJ9NjL-1200-80.jpg","video":null,"channel":null,"channelUrl":null,"author":"mardiyah","authorUrl":"https://news.ycombinator.com/user?id=mardiyah","authorImage":null,"authorSlug":null,"score":167,"views":null,"sharedCount":null,"likeCount":null,"sharedContent":null,"parent":{"__typename":"HnJson","localize":[{"title":"美国5纳米技术：台积电董事会批准在亚利桑那州建立35亿美元的工厂。","locale":"zh"},{"title":"美國5納米技術：臺積電董事會批准在亞利桑那州建立35億美元的工廠。","locale":"zh-Hant"}]}},{"__typename":"SocialMediaPost","id":"HnPost-25895391","excerpt":"","slug":"/hn/25895391","title":"Waymo CEO dismisses Tesla self-driving plan: “This is not how it works”","date":"January 25, 2021","dateISO":"2021-01-25T10:09:55.878Z","datetime":"2021-01-25 10:09","tags":["story","Hacker News"],"image":null,"imageAlt":null,"provider":"Hacker News","thirdPartyId":"25895391","url":"https://news.ycombinator.com/item?id=25895391","originalUrl":"https://arstechnica.com/cars/2021/01/waymo-ceo-tesla-is-not-a-competitor-at-all/","imageRemote":"https://cdn.arstechnica.net/wp-content/uploads/2021/01/GettyImages-956121586-760x380.jpg","video":null,"channel":null,"channelUrl":null,"author":"sytelus","authorUrl":"https://news.ycombinator.com/user?id=sytelus","authorImage":null,"authorSlug":null,"score":207,"views":null,"sharedCount":null,"likeCount":null,"sharedContent":null,"parent":{"__typename":"HnJson","localize":[{"title":"Waymo CEO否定了特斯拉的自动驾驶计划。\"这不是它的工作方式\"","locale":"zh"},{"title":"Waymo CEO否定了特斯拉的自動駕駛計劃。\"這不是它的工作方式\"","locale":"zh-Hant"}]}},{"__typename":"SocialMediaPost","id":"HnPost-25898063","excerpt":"","slug":"/hn/25898063","title":"Papercraft Models of Computers","date":"January 25, 2021","dateISO":"2021-01-25T10:09:55.878Z","datetime":"2021-01-25 10:09","tags":["story","Hacker News"],"image":null,"imageAlt":null,"provider":"Hacker News","thirdPartyId":"25898063","url":"https://news.ycombinator.com/item?id=25898063","originalUrl":"http://rockybergen.com/papercraft","imageRemote":null,"video":null,"channel":null,"channelUrl":null,"author":"laurex","authorUrl":"https://news.ycombinator.com/user?id=laurex","authorImage":null,"authorSlug":null,"score":164,"views":null,"sharedCount":null,"likeCount":null,"sharedContent":null,"parent":{"__typename":"HnJson","localize":[{"title":"计算机的纸艺模型","locale":"zh"},{"title":"計算機的紙藝模型","locale":"zh-Hant"}]}},{"__typename":"SocialMediaPost","id":"HnPost-25898447","excerpt":"","slug":"/hn/25898447","title":"Need advice or assistance for son who is in prison","date":"January 25, 2021","dateISO":"2021-01-25T10:09:55.878Z","datetime":"2021-01-25 10:09","tags":["story","Hacker News"],"image":null,"imageAlt":null,"provider":"Hacker News","thirdPartyId":"25898447","url":"https://news.ycombinator.com/item?id=25898447","originalUrl":"https://mathoverflow.net/questions/382003/need-advice-or-assistance-for-son-who-is-in-prison-his-interest-is-scattering-t","imageRemote":"https://cdn.sstatic.net/Sites/mathoverflow/Img/apple-touch-icon@2.png?v=f1c9606b77ff","video":null,"channel":null,"channelUrl":null,"author":"mathgenius","authorUrl":"https://news.ycombinator.com/user?id=mathgenius","authorImage":null,"authorSlug":null,"score":160,"views":null,"sharedCount":null,"likeCount":null,"sharedContent":null,"parent":{"__typename":"HnJson","localize":[{"title":"监狱中的儿子需要建议或援助。","locale":"zh"},{"title":"監獄中的兒子需要建議或援助。","locale":"zh-Hant"}]}},{"__typename":"SocialMediaPost","id":"HnPost-25899286","excerpt":"","slug":"/hn/25899286","title":"PGM Indexes: Learned indexes that match B-tree performance with 83x less space","date":"January 25, 2021","dateISO":"2021-01-25T10:09:55.878Z","datetime":"2021-01-25 10:09","tags":["story","Hacker News"],"image":null,"imageAlt":null,"provider":"Hacker News","thirdPartyId":"25899286","url":"https://news.ycombinator.com/item?id=25899286","originalUrl":"https://pgm.di.unipi.it/","imageRemote":"https://pgm.di.unipi.it/images/logo_raster.png","video":null,"channel":null,"channelUrl":null,"author":"hbrundage","authorUrl":"https://news.ycombinator.com/user?id=hbrundage","authorImage":null,"authorSlug":null,"score":219,"views":null,"sharedCount":null,"likeCount":null,"sharedContent":null,"parent":{"__typename":"HnJson","localize":[{"title":"PGM索引。学习型索引，与B树性能相匹配，但空间却减少了83倍。","locale":"zh"},{"title":"PGM索引。學習型索引，與B樹性能相匹配，但空間卻減少了83倍。","locale":"zh-Hant"}]}},{"__typename":"SocialMediaPost","id":"HnPost-25899814","excerpt":"","slug":"/hn/25899814","title":"My Entire company Gsuite access has been banned","date":"January 25, 2021","dateISO":"2021-01-25T10:09:55.878Z","datetime":"2021-01-25 10:09","tags":["story","Hacker News"],"image":null,"imageAlt":null,"provider":"Hacker News","thirdPartyId":"25899814","url":"https://news.ycombinator.com/item?id=25899814","originalUrl":"https://news.ycombinator.com/item?id=25899814","imageRemote":null,"video":null,"channel":null,"channelUrl":null,"author":"ameyv","authorUrl":"https://news.ycombinator.com/user?id=ameyv","authorImage":null,"authorSlug":null,"score":193,"views":null,"sharedCount":null,"likeCount":null,"sharedContent":null,"parent":{"__typename":"HnJson","localize":[{"title":"我整个公司的Gsuite访问被禁止了。","locale":"zh"},{"title":"我整個公司的Gsuite訪問被禁止了。","locale":"zh-Hant"}]}},{"__typename":"SocialMediaPost","id":"HnPost-25897208","excerpt":"","slug":"/hn/25897208","title":"The computer revolution hasn’t happened yet (1997)","date":"January 25, 2021","dateISO":"2021-01-25T07:16:54.957Z","datetime":"2021-01-25 07:16","tags":["story","Hacker News"],"image":null,"imageAlt":null,"provider":"Hacker News","thirdPartyId":"25897208","url":"https://news.ycombinator.com/item?id=25897208","originalUrl":"https://catonmat.net/videos/the-computer-revolution-hasnt-happened-yet","imageRemote":"https://catonmat.net/images/catonmat-preview-image.png","video":null,"channel":null,"channelUrl":null,"author":"tosh","authorUrl":"https://news.ycombinator.com/user?id=tosh","authorImage":null,"authorSlug":null,"score":164,"views":null,"sharedCount":null,"likeCount":null,"sharedContent":null,"parent":{"__typename":"HnJson","localize":[{"title":"计算机革命还没有发生（1997年）。","locale":"zh"},{"title":"計算機革命還沒有發生（1997年）。","locale":"zh-Hant"}]}},{"__typename":"SocialMediaPost","id":"HnPost-25897535","excerpt":"","slug":"/hn/25897535","title":"Ordering burritos from my SPARC (1992)","date":"January 25, 2021","dateISO":"2021-01-25T07:16:54.957Z","datetime":"2021-01-25 07:16","tags":["story","Hacker News"],"image":null,"imageAlt":null,"provider":"Hacker News","thirdPartyId":"25897535","url":"https://news.ycombinator.com/item?id=25897535","originalUrl":"http://www.mit.edu/afs.new/sipb/user/marthag/postscript/burritos","imageRemote":null,"video":null,"channel":null,"channelUrl":null,"author":"dhotson","authorUrl":"https://news.ycombinator.com/user?id=dhotson","authorImage":null,"authorSlug":null,"score":171,"views":null,"sharedCount":null,"likeCount":null,"sharedContent":null,"parent":{"__typename":"HnJson","localize":[{"title":"用我的SPARC(1992)订购卷饼。","locale":"zh"},{"title":"用我的SPARC(1992)訂購捲餅。","locale":"zh-Hant"}]}},{"__typename":"SocialMediaPost","id":"HnPost-25897736","excerpt":"","slug":"/hn/25897736","title":"WhatsApp loses millions of users after terms update","date":"January 25, 2021","dateISO":"2021-01-25T04:26:40.415Z","datetime":"2021-01-25 04:26","tags":["story","Hacker News"],"image":null,"imageAlt":null,"provider":"Hacker News","thirdPartyId":"25897736","url":"https://news.ycombinator.com/item?id=25897736","originalUrl":"https://www.theguardian.com/technology/2021/jan/24/whatsapp-loses-millions-of-users-after-terms-update","imageRemote":"https://i.guim.co.uk/img/media/724dcdf3476aeacffafb9c3a2441e19fe75d58af/0_182_3500_2100/master/3500.jpg?width=1200&height=630&quality=85&auto=format&fit=crop&overlay-align=bottom%2Cleft&overlay-width=100p&overlay-base64=L2ltZy9zdGF0aWMvb3ZlcmxheXMvdGctZGVmYXVsdC5wbmc&enable=upscale&s=020ad5b765b50f2e2c5c4ff4bc0eb440","video":null,"channel":null,"channelUrl":null,"author":"pseudolus","authorUrl":"https://news.ycombinator.com/user?id=pseudolus","authorImage":null,"authorSlug":null,"score":206,"views":null,"sharedCount":null,"likeCount":null,"sharedContent":null,"parent":{"__typename":"HnJson","localize":[{"title":"WhatsApp在条款更新后损失数百万用户","locale":"zh"},{"title":"WhatsApp在條款更新後損失數百萬用戶","locale":"zh-Hant"}]}},{"__typename":"SocialMediaPost","id":"HnPost-25892588","excerpt":"","slug":"/hn/25892588","title":"Hush: Noiseless Browsing for Safari","date":"January 25, 2021","dateISO":"2021-01-25T02:34:29.288Z","datetime":"2021-01-25 02:34","tags":["story","Hacker News"],"image":null,"imageAlt":null,"provider":"Hacker News","thirdPartyId":"25892588","url":"https://news.ycombinator.com/item?id=25892588","originalUrl":"https://daringfireball.net/linked/2021/01/23/hush","imageRemote":"https://daringfireball.net/graphics/df-square-1024.png","video":null,"channel":null,"channelUrl":null,"author":"ggoo","authorUrl":"https://news.ycombinator.com/user?id=ggoo","authorImage":null,"authorSlug":null,"score":161,"views":null,"sharedCount":null,"likeCount":null,"sharedContent":null,"parent":{"__typename":"HnJson","localize":[{"title":"嘘。Safari的无声浏览","locale":"zh"},{"title":"噓。Safari的無聲瀏覽","locale":"zh-Hant"}]}},{"__typename":"SocialMediaPost","id":"HnPost-25896626","excerpt":"","slug":"/hn/25896626","title":"Military intelligence buys location data instead of getting warrants","date":"January 25, 2021","dateISO":"2021-01-25T02:34:29.288Z","datetime":"2021-01-25 02:34","tags":["story","Hacker News"],"image":null,"imageAlt":null,"provider":"Hacker News","thirdPartyId":"25896626","url":"https://news.ycombinator.com/item?id=25896626","originalUrl":"https://arstechnica.com/tech-policy/2021/01/military-intelligence-buys-location-data-instead-of-getting-warrants-memo-shows/","imageRemote":"https://cdn.arstechnica.net/wp-content/uploads/2021/01/GettyImages-1180189782-760x380.jpg","video":null,"channel":null,"channelUrl":null,"author":"lazycrazyowl","authorUrl":"https://news.ycombinator.com/user?id=lazycrazyowl","authorImage":null,"authorSlug":null,"score":177,"views":null,"sharedCount":null,"likeCount":null,"sharedContent":null,"parent":{"__typename":"HnJson","localize":[{"title":"军事情报购买位置数据，而不是获得搜查令。","locale":"zh"},{"title":"軍事情報購買位置數據，而不是獲得搜查令。","locale":"zh-Hant"}]}},{"__typename":"SocialMediaPost","id":"HnPost-25892897","excerpt":"","slug":"/hn/25892897","title":"The Michael Scott Theory of Social Class","date":"January 25, 2021","dateISO":"2021-01-25T00:53:12.920Z","datetime":"2021-01-25 00:53","tags":["story","Hacker News"],"image":null,"imageAlt":null,"provider":"Hacker News","thirdPartyId":"25892897","url":"https://news.ycombinator.com/item?id=25892897","originalUrl":"https://danco.substack.com/p/the-michael-scott-theory-of-social","imageRemote":"https://cdn.substack.com/image/fetch/h_600,c_limit,f_auto,q_auto:good,fl_progressive:steep/https%3A%2F%2Fbucketeer-e05bbc84-baa3-437e-9518-adb32be77984.s3.amazonaws.com%2Fpublic%2Fimages%2Fa627f1cf-3ac3-440d-860d-92b924f8fd74_1024x640.png","video":null,"channel":null,"channelUrl":null,"author":"jger15","authorUrl":"https://news.ycombinator.com/user?id=jger15","authorImage":null,"authorSlug":null,"score":188,"views":null,"sharedCount":null,"likeCount":null,"sharedContent":null,"parent":{"__typename":"HnJson","localize":[{"title":"迈克尔-斯科特的社会阶层理论","locale":"zh"},{"title":"邁克爾-斯科特的社會階層理論","locale":"zh-Hant"}]}},{"__typename":"SocialMediaPost","id":"HnPost-25894414","excerpt":"","slug":"/hn/25894414","title":"Our experience with the Fediverse, and why we left","date":"January 25, 2021","dateISO":"2021-01-25T00:53:12.920Z","datetime":"2021-01-25 00:53","tags":["story","Hacker News"],"image":null,"imageAlt":null,"provider":"Hacker News","thirdPartyId":"25894414","url":"https://news.ycombinator.com/item?id=25894414","originalUrl":"https://infosec-handbook.eu/news/2020-12-05-leaving-the-fediverse/","imageRemote":"https://infosec-handbook.eu/banners/ish-news-b.jpg","video":null,"channel":null,"channelUrl":null,"author":"dsego","authorUrl":"https://news.ycombinator.com/user?id=dsego","authorImage":null,"authorSlug":null,"score":163,"views":null,"sharedCount":null,"likeCount":null,"sharedContent":null,"parent":{"__typename":"HnJson","localize":[{"title":"我们在Fediverse的经历，以及我们离开的原因。","locale":"zh"},{"title":"我們在Fediverse的經歷，以及我們離開的原因。","locale":"zh-Hant"}]}}]}},"pageContext":{"basePath":"/","pageType":"tag","tag":"story","tagsFilter":{"id":{"glob":"!*Post-1"}},"filter":{"id":{"glob":"!*Post-1"},"tags":{"eq":"story"}},"limit":25,"skip":1200,"total":2406,"totalPages":97,"currentPage":49,"maxWidth":1024,"maxHeight":512,"locale":"zh-Hant","hrefLang":"zh-Hant","originalPath":"/tags/story/page/49","dateFormat":"YYYY-MM-DD"}},"staticQueryHashes":["1239077767","2506312863","2744905544","3025052997","3493603132","3493603132","3513215887","386998304"]}