{"componentChunkName":"component---gatsby-theme-buzzing-src-gatsby-theme-timeline-templates-posts-query-js","path":"/tags/wallstreetbets/page/6","result":{"data":{"site":{"siteMetadata":{"title":"Reddit 热门","description":"用中文浏览Reddit热门内容","social":[{"name":"Reddit","url":"https://www.reddit.com/","external":true,"prefetch":null},{"name":"GitHub","url":"https://github.com/gatsbyjs","external":null,"prefetch":null}],"menuLinks":[{"name":"每周精选","url":"/issues","external":null,"prefetch":null},{"name":"RSS","url":"/rss.xml","external":null,"prefetch":false}],"localize":[{"locale":"en","title":"Buzzing on Reddit","description":"See what's buzzing on Reddit in your native language","social":[{"name":"Reddit","url":"https://www.reddit.com/","external":true,"prefetch":null}],"menuLinks":[{"name":"Weekly Selection","url":"/issues","external":null,"prefetch":null},{"name":"RSS","url":"/rss.xml","external":null,"prefetch":false}]},{"locale":"zh-Hant","title":"Reddit 熱門","description":"用中文瀏覽Reddit熱門內容","social":null,"menuLinks":null}]}},"tagsGroup":{"group":[{"fieldValue":"Bitcoin","totalCount":3},{"fieldValue":"investing","totalCount":153},{"fieldValue":"reddit","totalCount":546},{"fieldValue":"stocks","totalCount":266},{"fieldValue":"tweet","totalCount":235},{"fieldValue":"wallstreetbets","totalCount":127}]},"allBlogPost":{"nodes":[{"__typename":"SocialMediaPost","id":"RedditPost-kny2rx","excerpt":"","slug":"/reddit/r/wallstreetbets/comments/kny2rx/gme_yolo_yearend_update_dec_31_2020/","title":"GME YOLO year-end update — Dec 31 2020","date":"January 01, 2021","dateISO":"2021-01-01T05:28:59.000Z","datetime":"2021-01-01 05:28","tags":["wallstreetbets","reddit"],"image":null,"imageAlt":"Reddit Image","provider":"Reddit","thirdPartyId":"kny2rx","url":"https://www.reddit.com/r/wallstreetbets/comments/kny2rx/gme_yolo_yearend_update_dec_31_2020/","originalUrl":"https://www.reddit.com/r/wallstreetbets/comments/kny2rx/gme_yolo_yearend_update_dec_31_2020/","imageRemote":"https://preview.redd.it/fc401csk7l861.png?width=1080&crop=smart&auto=webp&s=d03302ebb0af797148fd37a958a6d01eabf6eaf2","video":null,"channel":"wallstreetbets","channelUrl":"https://www.reddit.com/r/wallstreetbets","author":"DeepFuckingValue","authorUrl":"https://www.reddit.com/user/DeepFuckingValue","authorImage":null,"authorSlug":"DeepFuckingValue","score":1667,"views":null,"sharedCount":null,"likeCount":null,"sharedContent":null,"parent":{"__typename":"RedditJson","localize":[{"title":"GME YOLO年终更新-2020年12月31日","the_new_excerpt":null,"locale":"zh"},{"title":"GME YOLO年終更新-2020年12月31日","the_new_excerpt":null,"locale":"zh-Hant"}]}},{"__typename":"SocialMediaPost","id":"RedditPost-ko0nmp","excerpt":"","slug":"/reddit/r/wallstreetbets/comments/ko0nmp/buying_pltr_be_like_buy_high_sell_low/","title":"Buying $PLTR be like.... Buy high sell low","date":"January 01, 2021","dateISO":"2021-01-01T05:28:59.000Z","datetime":"2021-01-01 05:28","tags":["wallstreetbets","reddit"],"image":null,"imageAlt":"Reddit Image","provider":"Reddit","thirdPartyId":"ko0nmp","url":"https://www.reddit.com/r/wallstreetbets/comments/ko0nmp/buying_pltr_be_like_buy_high_sell_low/","originalUrl":"https://www.reddit.com/r/wallstreetbets/comments/ko0nmp/buying_pltr_be_like_buy_high_sell_low/","imageRemote":"https://preview.redd.it/es6k4aa0zl861.jpg?width=1080&crop=smart&auto=webp&s=69fd9a51b7b7aec154e34ce0abcbb11f211618db","video":null,"channel":"wallstreetbets","channelUrl":"https://www.reddit.com/r/wallstreetbets","author":"AntiquesAndSo","authorUrl":"https://www.reddit.com/user/AntiquesAndSo","authorImage":null,"authorSlug":"AntiquesAndSo","score":3343,"views":null,"sharedCount":null,"likeCount":null,"sharedContent":null,"parent":{"__typename":"RedditJson","localize":[{"title":"购买潘多拉媒ltr就像.高买低卖","the_new_excerpt":null,"locale":"zh"},{"title":"購買潘多拉媒ltr就像.高買低賣","the_new_excerpt":null,"locale":"zh-Hant"}]}}]}},"pageContext":{"basePath":"/","pageType":"tag","tag":"wallstreetbets","tagsFilter":{"id":{"glob":"!*Post-1"}},"filter":{"id":{"glob":"!*Post-1"},"tags":{"eq":"wallstreetbets"}},"limit":25,"skip":125,"total":127,"totalPages":6,"currentPage":6,"maxWidth":1024,"maxHeight":512,"locale":"zh","hrefLang":"zh-Hans","originalPath":"/tags/wallstreetbets/page/6","dateFormat":"YYYY-MM-DD"}},"staticQueryHashes":["1239077767","2506312863","2744905544","3493603132","3493603132","386998304","4203388852"]}