{"componentChunkName":"component---gatsby-theme-buzzing-src-gatsby-theme-timeline-templates-posts-query-js","path":"/tags/show-hn/","result":{"data":{"site":{"siteMetadata":{"title":"Reddit 热门","description":"用中文浏览Reddit热门内容","social":[{"name":"Twitter","url":"https://twitter.com/gatsbyjs","external":null,"prefetch":null},{"name":"GitHub","url":"https://github.com/gatsbyjs","external":null,"prefetch":null}],"menuLinks":[],"localize":[{"locale":"en","title":"Buzzing on Reddit","description":"See what's buzzing on Reddit in your native language","social":[{"name":"Reddit","url":"https://www.reddit.com/","external":true,"prefetch":null}],"menuLinks":[{"name":"Weekly Selection","url":"/issues","external":null,"prefetch":null},{"name":"RSS","url":"/rss.xml","external":null,"prefetch":false}]},{"locale":"zh-Hant","title":"Reddit 熱門","description":"用中文瀏覽Reddit熱門內容","social":null,"menuLinks":null}]}},"tagsGroup":{"group":[{"fieldValue":"ASK HN","totalCount":36},{"fieldValue":"Bitcoin","totalCount":4},{"fieldValue":"Hacker News","totalCount":2185},{"fieldValue":"Poll","totalCount":1},{"fieldValue":"SaveAMC","totalCount":1},{"fieldValue":"Show HN","totalCount":76},{"fieldValue":"bitcoin","totalCount":3},{"fieldValue":"investing","totalCount":686},{"fieldValue":"poll","totalCount":1},{"fieldValue":"reddit","totalCount":4012},{"fieldValue":"science","totalCount":1},{"fieldValue":"stocks","totalCount":1322},{"fieldValue":"story","totalCount":2184},{"fieldValue":"tweet","totalCount":697},{"fieldValue":"wallstreetbets","totalCount":2004}]},"allBlogPost":{"nodes":[{"__typename":"SocialMediaPost","id":"HnPost-26277602","excerpt":"","slug":"/hn/26277602","title":"Show HN: Hummingbard – decentralized communities built on Matrix","date":"February 26, 2021","dateISO":"2021-02-26T22:26:01.459Z","datetime":"2021-02-26 22:26","tags":["story","Show HN","Hacker News"],"image":null,"imageAlt":null,"provider":"Hacker News","thirdPartyId":"26277602","url":"https://news.ycombinator.com/item?id=26277602","originalUrl":"https://hummingbard.com/hummingbard/introducing-hummingbard","imageRemote":"https://matrix.hummingbard.com/_matrix/media/r0/thumbnail/hummingbard.com/9e74f23dde4b76f9b832db34ee5a51e6624e2efe68784edc6d25d365c3ea1443?width=800&height=600&method=scale","video":null,"channel":"Show HN","channelUrl":"https://news.ycombinator.com/show","author":"SubGenius","authorUrl":"https://news.ycombinator.com/user?id=SubGenius","authorImage":null,"authorSlug":null,"score":169,"views":null,"sharedCount":null,"likeCount":null,"sharedContent":null,"parent":{"__typename":"HnJson","localize":[{"title":"展示HN：Hummingbard--建立在Matrix上的去中心化社区。","locale":"zh"},{"title":"展示HN：Hummingbard--建立在Matrix上的去中心化社區。","locale":"zh-Hant"}]}},{"__typename":"SocialMediaPost","id":"HnPost-26271117","excerpt":"","slug":"/hn/26271117","title":"Show HN: Redbean – Single-file distributable web server","date":"February 26, 2021","dateISO":"2021-02-26T08:28:25.661Z","datetime":"2021-02-26 08:28","tags":["story","Show HN","Hacker News"],"image":null,"imageAlt":null,"provider":"Hacker News","thirdPartyId":"26271117","url":"https://news.ycombinator.com/item?id=26271117","originalUrl":"https://justine.lol/redbean/index.html","imageRemote":"https://storage.googleapis.com/justine/redbean/redbean.png","video":null,"channel":"Show HN","channelUrl":"https://news.ycombinator.com/show","author":"jart","authorUrl":"https://news.ycombinator.com/user?id=jart","authorImage":null,"authorSlug":null,"score":232,"views":null,"sharedCount":null,"likeCount":null,"sharedContent":null,"parent":{"__typename":"HnJson","localize":[{"title":"显示HN：红豆 - 单文件可分发的Web服务器","locale":"zh"},{"title":"顯示HN：紅豆 - 單文件可分發的Web服務器","locale":"zh-Hant"}]}},{"__typename":"SocialMediaPost","id":"HnPost-26250809","excerpt":"","slug":"/hn/26250809","title":"Show HN: CalcuLaTeX, a pretty-printing calculator language","date":"February 26, 2021","dateISO":"2021-02-26T03:55:07.745Z","datetime":"2021-02-26 03:55","tags":["story","Show HN","Hacker News"],"image":null,"imageAlt":null,"provider":"Hacker News","thirdPartyId":"26250809","url":"https://news.ycombinator.com/item?id=26250809","originalUrl":"https://mkhan45.github.io/CalcuLaTeX-Web/","imageRemote":null,"video":null,"channel":"Show HN","channelUrl":"https://news.ycombinator.com/show","author":"fish45","authorUrl":"https://news.ycombinator.com/user?id=fish45","authorImage":null,"authorSlug":null,"score":160,"views":null,"sharedCount":null,"likeCount":null,"sharedContent":null,"parent":{"__typename":"HnJson","localize":[{"title":"展示HN：CalcuLaTeX，一种漂亮的打印计算器语言。","locale":"zh"},{"title":"展示HN：CalcuLaTeX，一種漂亮的打印計算器語言。","locale":"zh-Hant"}]}},{"__typename":"SocialMediaPost","id":"HnPost-26260390","excerpt":"","slug":"/hn/26260390","title":"Show HN: QEMU front end for M1 and Intel Macs","date":"February 25, 2021","dateISO":"2021-02-25T10:51:30.585Z","datetime":"2021-02-25 10:51","tags":["story","Show HN","Hacker News"],"image":null,"imageAlt":null,"provider":"Hacker News","thirdPartyId":"26260390","url":"https://news.ycombinator.com/item?id=26260390","originalUrl":"https://mac.getutm.app/","imageRemote":"https://mac.getutm.app/images/logo.png","video":null,"channel":"Show HN","channelUrl":"https://news.ycombinator.com/show","author":"osy","authorUrl":"https://news.ycombinator.com/user?id=osy","authorImage":null,"authorSlug":null,"score":398,"views":null,"sharedCount":null,"likeCount":null,"sharedContent":null,"parent":{"__typename":"HnJson","localize":[{"title":"显示HN：M1和英特尔Mac的QEMU前端。","locale":"zh"},{"title":"顯示HN：M1和英特爾Mac的QEMU前端。","locale":"zh-Hant"}]}},{"__typename":"SocialMediaPost","id":"HnPost-26253281","excerpt":"","slug":"/hn/26253281","title":"Show HN: I wrote a book about using data science to solve “everyday” problems","date":"February 24, 2021","dateISO":"2021-02-24T21:10:00.995Z","datetime":"2021-02-24 21:10","tags":["story","Show HN","Hacker News"],"image":null,"imageAlt":null,"provider":"Hacker News","thirdPartyId":"26253281","url":"https://news.ycombinator.com/item?id=26253281","originalUrl":"https://andrewnc.github.io/blog/everyday_data_science.html","imageRemote":"https://andrewnc.github.io/blog/blog_files/toc.png","video":null,"channel":"Show HN","channelUrl":"https://news.ycombinator.com/show","author":"andrewnc","authorUrl":"https://news.ycombinator.com/user?id=andrewnc","authorImage":null,"authorSlug":null,"score":600,"views":null,"sharedCount":null,"likeCount":null,"sharedContent":null,"parent":{"__typename":"HnJson","localize":[{"title":"显示HN：我写了一本关于用数据科学解决 \"日常 \"问题的书。","locale":"zh"},{"title":"顯示HN：我寫了一本關於用數據科學解決 \"日常 \"問題的書。","locale":"zh-Hant"}]}},{"__typename":"SocialMediaPost","id":"HnPost-26226805","excerpt":"","slug":"/hn/26226805","title":"Show HN: Call a Dev – Pay Stack Overflow users $1/min for live programming help","date":"February 22, 2021","dateISO":"2021-02-22T23:24:40.791Z","datetime":"2021-02-22 23:24","tags":["story","Show HN","Hacker News"],"image":null,"imageAlt":null,"provider":"Hacker News","thirdPartyId":"26226805","url":"https://news.ycombinator.com/item?id=26226805","originalUrl":"https://calladev.com/","imageRemote":"https://files.calladev.com/images/help_devs_save_time.png","video":null,"channel":"Show HN","channelUrl":"https://news.ycombinator.com/show","author":"mcadenhe","authorUrl":"https://news.ycombinator.com/user?id=mcadenhe","authorImage":null,"authorSlug":null,"score":449,"views":null,"sharedCount":null,"likeCount":null,"sharedContent":null,"parent":{"__typename":"HnJson","localize":[{"title":"秀HN：叫一个开发--向Stack Overflow用户支付1美元/分钟的现场编程帮助费。","locale":"zh"},{"title":"秀HN：叫一個開發--向Stack Overflow用戶支付1美元/分鐘的現場編程幫助費。","locale":"zh-Hant"}]}},{"__typename":"SocialMediaPost","id":"HnPost-26215378","excerpt":"","slug":"/hn/26215378","title":"Show HN: Ad Network for Sideprojects","date":"February 22, 2021","dateISO":"2021-02-22T05:16:17.587Z","datetime":"2021-02-22 05:16","tags":["story","Show HN","Hacker News"],"image":null,"imageAlt":null,"provider":"Hacker News","thirdPartyId":"26215378","url":"https://news.ycombinator.com/item?id=26215378","originalUrl":"https://tinyads.io","imageRemote":"https://tinyads.io/img/tinyads.min.png","video":null,"channel":"Show HN","channelUrl":"https://news.ycombinator.com/show","author":"ezzato","authorUrl":"https://news.ycombinator.com/user?id=ezzato","authorImage":null,"authorSlug":null,"score":217,"views":null,"sharedCount":null,"likeCount":null,"sharedContent":null,"parent":{"__typename":"HnJson","localize":[{"title":"显示HN：侧面项目的广告网络。","locale":"zh"},{"title":"顯示HN：側面項目的廣告網絡。","locale":"zh-Hant"}]}},{"__typename":"SocialMediaPost","id":"HnPost-26179311","excerpt":"","slug":"/hn/26179311","title":"Show HN: Split Keyboards Gallery","date":"February 20, 2021","dateISO":"2021-02-20T07:44:31.129Z","datetime":"2021-02-20 07:44","tags":["story","Show HN","Hacker News"],"image":null,"imageAlt":null,"provider":"Hacker News","thirdPartyId":"26179311","url":"https://news.ycombinator.com/item?id=26179311","originalUrl":"https://aposymbiont.github.io/split-keyboards/","imageRemote":"https://aposymbiont.github.io/split-keyboards/img/wheatfield_s75.jpg","video":null,"channel":"Show HN","channelUrl":"https://news.ycombinator.com/show","author":"Symbiote","authorUrl":"https://news.ycombinator.com/user?id=Symbiote","authorImage":null,"authorSlug":null,"score":248,"views":null,"sharedCount":null,"likeCount":null,"sharedContent":null,"parent":{"__typename":"HnJson","localize":[{"title":"显示HN：分体式键盘画廊","locale":"zh"},{"title":"顯示HN：分體式鍵盤畫廊","locale":"zh-Hant"}]}},{"__typename":"SocialMediaPost","id":"HnPost-26168285","excerpt":"","slug":"/hn/26168285","title":"Show HN: Ray.so – Create beautiful images of your code","date":"February 17, 2021","dateISO":"2021-02-17T19:54:10.491Z","datetime":"2021-02-17 19:54","tags":["story","Show HN","Hacker News"],"image":null,"imageAlt":null,"provider":"Hacker News","thirdPartyId":"26168285","url":"https://news.ycombinator.com/item?id=26168285","originalUrl":"https://ray.so","imageRemote":null,"video":null,"channel":"Show HN","channelUrl":"https://news.ycombinator.com/show","author":"thomaspaulmann","authorUrl":"https://news.ycombinator.com/user?id=thomaspaulmann","authorImage":null,"authorSlug":null,"score":379,"views":null,"sharedCount":null,"likeCount":null,"sharedContent":null,"parent":{"__typename":"HnJson","localize":[{"title":"显示HN：Ray.so - 为您的代码创建美丽的图像。","locale":"zh"},{"title":"顯示HN：Ray.so - 爲您的代碼創建美麗的圖像。","locale":"zh-Hant"}]}},{"__typename":"SocialMediaPost","id":"HnPost-26154038","excerpt":"","slug":"/hn/26154038","title":"Show HN: Endgame – An AWS Pentesting tool to backdoor or expose AWS resources","date":"February 16, 2021","dateISO":"2021-02-16T17:39:26.032Z","datetime":"2021-02-16 17:39","tags":["story","Show HN","Hacker News"],"image":null,"imageAlt":null,"provider":"Hacker News","thirdPartyId":"26154038","url":"https://news.ycombinator.com/item?id=26154038","originalUrl":"https://github.com/salesforce/endgame","imageRemote":"https://avatars.githubusercontent.com/u/453694?s=400&v=4","video":null,"channel":"Show HN","channelUrl":"https://news.ycombinator.com/show","author":"kmcquade","authorUrl":"https://news.ycombinator.com/user?id=kmcquade","authorImage":null,"authorSlug":null,"score":366,"views":null,"sharedCount":null,"likeCount":null,"sharedContent":null,"parent":{"__typename":"HnJson","localize":[{"title":"显示 HN: Endgame - 一个 AWS Pentesting 工具，用于后门或暴露 AWS 资源。","locale":"zh"},{"title":"顯示 HN: Endgame - 一個 AWS Pentesting 工具，用於後門或暴露 AWS 資源。","locale":"zh-Hant"}]}},{"__typename":"SocialMediaPost","id":"HnPost-26131123","excerpt":"","slug":"/hn/26131123","title":"Show HN: Jam, an Open Source Clubhouse (w/ WebRTC)","date":"February 16, 2021","dateISO":"2021-02-16T06:16:09.715Z","datetime":"2021-02-16 06:16","tags":["story","Show HN","Hacker News"],"image":null,"imageAlt":null,"provider":"Hacker News","thirdPartyId":"26131123","url":"https://news.ycombinator.com/item?id=26131123","originalUrl":"https://jam.systems","imageRemote":"https://jam.systems/img/jam-illustration.png","video":null,"channel":"Show HN","channelUrl":"https://news.ycombinator.com/show","author":"tosh","authorUrl":"https://news.ycombinator.com/user?id=tosh","authorImage":null,"authorSlug":null,"score":312,"views":null,"sharedCount":null,"likeCount":null,"sharedContent":null,"parent":{"__typename":"HnJson","localize":[{"title":"显示HN：Jam，一个开放源码的会所(W/WebRTC)","locale":"zh"},{"title":"顯示HN：Jam，一個開放源碼的會所(W/WebRTC)","locale":"zh-Hant"}]}},{"__typename":"SocialMediaPost","id":"HnPost-26138446","excerpt":"","slug":"/hn/26138446","title":"Show HN: ustaxes.org – open-source tax filing webapp","date":"February 15, 2021","dateISO":"2021-02-15T09:06:54.536Z","datetime":"2021-02-15 09:06","tags":["story","Show HN","Hacker News"],"image":null,"imageAlt":null,"provider":"Hacker News","thirdPartyId":"26138446","url":"https://news.ycombinator.com/item?id=26138446","originalUrl":"https://github.com/thegrims/UsTaxes","imageRemote":"https://avatars.githubusercontent.com/u/8848557?s=400&v=4","video":null,"channel":"Show HN","channelUrl":"https://news.ycombinator.com/show","author":"aidangrimshaw","authorUrl":"https://news.ycombinator.com/user?id=aidangrimshaw","authorImage":null,"authorSlug":null,"score":460,"views":null,"sharedCount":null,"likeCount":null,"sharedContent":null,"parent":{"__typename":"HnJson","localize":[{"title":"显示 HN: ustaxes.org - 开源报税网络应用。","locale":"zh"},{"title":"顯示 HN: ustaxes.org - 開源報稅網絡應用。","locale":"zh-Hant"}]}},{"__typename":"SocialMediaPost","id":"HnPost-26134915","excerpt":"","slug":"/hn/26134915","title":"Show HN: Khan-dl – Khan Academy Course Downloader","date":"February 14, 2021","dateISO":"2021-02-14T22:42:58.040Z","datetime":"2021-02-14 22:42","tags":["story","Show HN","Hacker News"],"image":null,"imageAlt":null,"provider":"Hacker News","thirdPartyId":"26134915","url":"https://news.ycombinator.com/item?id=26134915","originalUrl":"https://github.com/rand-net/khan-dl","imageRemote":"https://avatars.githubusercontent.com/u/34341872?s=400&v=4","video":null,"channel":"Show HN","channelUrl":"https://news.ycombinator.com/show","author":"rand_net","authorUrl":"https://news.ycombinator.com/user?id=rand_net","authorImage":null,"authorSlug":null,"score":472,"views":null,"sharedCount":null,"likeCount":null,"sharedContent":null,"parent":{"__typename":"HnJson","localize":[{"title":"显示HN：Khan-dl - 可汗学院课程下载器。","locale":"zh"},{"title":"顯示HN：Khan-dl - 可汗學院課程下載器。","locale":"zh-Hant"}]}},{"__typename":"SocialMediaPost","id":"HnPost-26128388","excerpt":"","slug":"/hn/26128388","title":"Show HN: M1 Chart – The stock market adjusted for the US-dollar money supply","date":"February 14, 2021","dateISO":"2021-02-14T05:29:43.719Z","datetime":"2021-02-14 05:29","tags":["story","Show HN","Hacker News"],"image":null,"imageAlt":null,"provider":"Hacker News","thirdPartyId":"26128388","url":"https://news.ycombinator.com/item?id=26128388","originalUrl":"https://m1chart.com/?ref=hn","imageRemote":"https://m1chart.com/assets/social.png?1613258495","video":null,"channel":"Show HN","channelUrl":"https://news.ycombinator.com/show","author":"pieterhg","authorUrl":"https://news.ycombinator.com/user?id=pieterhg","authorImage":null,"authorSlug":null,"score":205,"views":null,"sharedCount":null,"likeCount":null,"sharedContent":null,"parent":{"__typename":"HnJson","localize":[{"title":"显示HN：M1图--股市调整后的美圆货币供应量","locale":"zh"},{"title":"顯示HN：M1圖--股市調整後的美圓貨幣供應量","locale":"zh-Hant"}]}},{"__typename":"SocialMediaPost","id":"HnPost-26118756","excerpt":"","slug":"/hn/26118756","title":"Show HN: Search inside YouTube videos using natural language queries","date":"February 13, 2021","dateISO":"2021-02-13T08:52:50.969Z","datetime":"2021-02-13 08:52","tags":["story","Show HN","Hacker News"],"image":null,"imageAlt":null,"provider":"Hacker News","thirdPartyId":"26118756","url":"https://news.ycombinator.com/item?id=26118756","originalUrl":"https://github.com/haltakov/natural-language-youtube-search","imageRemote":"https://repository-images.githubusercontent.com/335095422/b964b080-6cbb-11eb-812b-cadbab4bae19","video":null,"channel":"Show HN","channelUrl":"https://news.ycombinator.com/show","author":"vladoh","authorUrl":"https://news.ycombinator.com/user?id=vladoh","authorImage":null,"authorSlug":null,"score":261,"views":null,"sharedCount":null,"likeCount":null,"sharedContent":null,"parent":{"__typename":"HnJson","localize":[{"title":"显示HN：使用自然语言查询在YouTube视频内搜索。","locale":"zh"},{"title":"顯示HN：使用自然語言查詢在YouTube視頻內搜索。","locale":"zh-Hant"}]}},{"__typename":"SocialMediaPost","id":"HnPost-26087892","excerpt":"","slug":"/hn/26087892","title":"Show HN: I wrote an entire book to build a mouseless dev environment","date":"February 11, 2021","dateISO":"2021-02-11T05:49:22.846Z","datetime":"2021-02-11 05:49","tags":["story","Show HN","Hacker News"],"image":null,"imageAlt":null,"provider":"Hacker News","thirdPartyId":"26087892","url":"https://news.ycombinator.com/item?id=26087892","originalUrl":"https://themouseless.dev/","imageRemote":"https://themouseless.dev/images/book_cover_mouseless_2_300.jpg","video":null,"channel":"Show HN","channelUrl":"https://news.ycombinator.com/show","author":"thanato0s","authorUrl":"https://news.ycombinator.com/user?id=thanato0s","authorImage":null,"authorSlug":null,"score":337,"views":null,"sharedCount":null,"likeCount":null,"sharedContent":null,"parent":{"__typename":"HnJson","localize":[{"title":"显示HN：我写了整整一本书来构建一个无鼠标的开发环境。","locale":"zh"},{"title":"顯示HN：我寫了整整一本書來構建一個無鼠標的開發環境。","locale":"zh-Hant"}]}},{"__typename":"SocialMediaPost","id":"HnPost-26066340","excerpt":"","slug":"/hn/26066340","title":"Show HN: \"Programming Algorithms in Lisp” Book","date":"February 08, 2021","dateISO":"2021-02-08T23:32:12.847Z","datetime":"2021-02-08 23:32","tags":["story","Show HN","Hacker News"],"image":null,"imageAlt":null,"provider":"Hacker News","thirdPartyId":"26066340","url":"https://news.ycombinator.com/item?id=26066340","originalUrl":"https://www.apress.com/gp/book/9781484264270","imageRemote":"https://images.springer.com/sgw/books/medium/9781484264270.jpg","video":null,"channel":"Show HN","channelUrl":"https://news.ycombinator.com/show","author":"vseloved","authorUrl":"https://news.ycombinator.com/user?id=vseloved","authorImage":null,"authorSlug":null,"score":232,"views":null,"sharedCount":null,"likeCount":null,"sharedContent":null,"parent":{"__typename":"HnJson","localize":[{"title":"出示HN：《Lisp编程算法》一书","locale":"zh"},{"title":"出示HN：《Lisp編程算法》一書","locale":"zh-Hant"}]}},{"__typename":"SocialMediaPost","id":"HnPost-26069621","excerpt":"","slug":"/hn/26069621","title":"Show HN: Clerk – all of user management as-a-service, not just authentication","date":"February 08, 2021","dateISO":"2021-02-08T21:58:04.534Z","datetime":"2021-02-08 21:58","tags":["story","Show HN","Hacker News"],"image":null,"imageAlt":null,"provider":"Hacker News","thirdPartyId":"26069621","url":"https://news.ycombinator.com/item?id=26069621","originalUrl":"https://clerk.dev/blog/all-of-user-management-not-just-authentication","imageRemote":"https://uploads-ssl.webflow.com/5fd7bfc6e6f1ce2fd6ab58c5/6019dff6fd671523538092e1_blog-clerk.png","video":null,"channel":"Show HN","channelUrl":"https://news.ycombinator.com/show","author":"colinclerk","authorUrl":"https://news.ycombinator.com/user?id=colinclerk","authorImage":null,"authorSlug":null,"score":579,"views":null,"sharedCount":null,"likeCount":null,"sharedContent":null,"parent":{"__typename":"HnJson","localize":[{"title":"显示HN：办事器--所有的用户管理即服务，而不仅仅是身份验证","locale":"zh"},{"title":"顯示HN：辦事器--所有的用戶管理即服務，而不僅僅是身份驗證","locale":"zh-Hant"}]}},{"__typename":"SocialMediaPost","id":"HnPost-26056052","excerpt":"","slug":"/hn/26056052","title":"Show HN: Stamp turns a folder into a plain text file and a file into a folder","date":"February 08, 2021","dateISO":"2021-02-08T03:23:01.741Z","datetime":"2021-02-08 03:23","tags":["story","Show HN","Hacker News"],"image":null,"imageAlt":null,"provider":"Hacker News","thirdPartyId":"26056052","url":"https://news.ycombinator.com/item?id=26056052","originalUrl":"https://github.com/treenotation/jtree/tree/master/langs/stamp","imageRemote":"https://avatars.githubusercontent.com/u/51207659?s=400&v=4","video":null,"channel":"Show HN","channelUrl":"https://news.ycombinator.com/show","author":"breck","authorUrl":"https://news.ycombinator.com/user?id=breck","authorImage":null,"authorSlug":null,"score":195,"views":null,"sharedCount":null,"likeCount":null,"sharedContent":null,"parent":{"__typename":"HnJson","localize":[{"title":"出示HN：印章把文件夹变成纯文本文件，把文件变成文件夹。","locale":"zh"},{"title":"出示HN：印章把文件夾變成純文本文件，把文件變成文件夾。","locale":"zh-Hant"}]}},{"__typename":"SocialMediaPost","id":"HnPost-26048946","excerpt":"","slug":"/hn/26048946","title":"Show HN: You-tldr – easy-to-read transcripts of Youtube videos","date":"February 07, 2021","dateISO":"2021-02-07T12:36:45.454Z","datetime":"2021-02-07 12:36","tags":["story","Show HN","Hacker News"],"image":null,"imageAlt":null,"provider":"Hacker News","thirdPartyId":"26048946","url":"https://news.ycombinator.com/item?id=26048946","originalUrl":"https://you-tldr.com/","imageRemote":null,"video":null,"channel":"Show HN","channelUrl":"https://news.ycombinator.com/show","author":"bilater","authorUrl":"https://news.ycombinator.com/user?id=bilater","authorImage":null,"authorSlug":null,"score":187,"views":null,"sharedCount":null,"likeCount":null,"sharedContent":null,"parent":{"__typename":"HnJson","localize":[{"title":"显示HN：You-tldr - 易于阅读的Youtube视频转录。","locale":"zh"},{"title":"顯示HN：You-tldr - 易於閱讀的Youtube視頻轉錄。","locale":"zh-Hant"}]}},{"__typename":"SocialMediaPost","id":"HnPost-26048800","excerpt":"","slug":"/hn/26048800","title":"Show HN: LibreTranslate – Open-source neural machine translation API","date":"February 07, 2021","dateISO":"2021-02-07T05:30:01.067Z","datetime":"2021-02-07 05:30","tags":["story","Show HN","Hacker News"],"image":null,"imageAlt":null,"provider":"Hacker News","thirdPartyId":"26048800","url":"https://news.ycombinator.com/item?id=26048800","originalUrl":"https://libretranslate.com/","imageRemote":"https://user-images.githubusercontent.com/1951843/102724116-32a6df00-42db-11eb-8cc0-129ab39cdfb5.png","video":null,"channel":"Show HN","channelUrl":"https://news.ycombinator.com/show","author":"pjfin123","authorUrl":"https://news.ycombinator.com/user?id=pjfin123","authorImage":null,"authorSlug":null,"score":215,"views":null,"sharedCount":null,"likeCount":null,"sharedContent":null,"parent":{"__typename":"HnJson","localize":[{"title":"显示 HN: LibreTranslate - 开源神经机器翻译 API","locale":"zh"},{"title":"顯示 HN: LibreTranslate - 開源神經機器翻譯 API","locale":"zh-Hant"}]}},{"__typename":"SocialMediaPost","id":"HnPost-26048993","excerpt":"","slug":"/hn/26048993","title":"Show HN: Epub.to – ePub to pdf, mobi, Kindle, and an API","date":"February 07, 2021","dateISO":"2021-02-07T04:58:37.198Z","datetime":"2021-02-07 04:58","tags":["story","Show HN","Hacker News"],"image":null,"imageAlt":null,"provider":"Hacker News","thirdPartyId":"26048993","url":"https://news.ycombinator.com/item?id=26048993","originalUrl":"https://epub.to","imageRemote":"https://epub.to/static/epub.png","video":null,"channel":"Show HN","channelUrl":"https://news.ycombinator.com/show","author":"nadermx","authorUrl":"https://news.ycombinator.com/user?id=nadermx","authorImage":null,"authorSlug":null,"score":245,"views":null,"sharedCount":null,"likeCount":null,"sharedContent":null,"parent":{"__typename":"HnJson","localize":[{"title":"显示HN：Epub.to - 电子书到pdf，mobi，Kindle，和一个API。","locale":"zh"},{"title":"顯示HN：Epub.to - 電子書到pdf，mobi，Kindle，和一個API。","locale":"zh-Hant"}]}},{"__typename":"SocialMediaPost","id":"HnPost-26042463","excerpt":"","slug":"/hn/26042463","title":"Show HN: Ht – HTTPie Clone in Rust","date":"February 06, 2021","dateISO":"2021-02-06T10:44:45.483Z","datetime":"2021-02-06 10:44","tags":["story","Show HN","Hacker News"],"image":null,"imageAlt":null,"provider":"Hacker News","thirdPartyId":"26042463","url":"https://news.ycombinator.com/item?id=26042463","originalUrl":"https://github.com/ducaale/ht","imageRemote":"https://avatars.githubusercontent.com/u/16341131?s=400&v=4","video":null,"channel":"Show HN","channelUrl":"https://news.ycombinator.com/show","author":"ducaale","authorUrl":"https://news.ycombinator.com/user?id=ducaale","authorImage":null,"authorSlug":null,"score":250,"views":null,"sharedCount":null,"likeCount":null,"sharedContent":null,"parent":{"__typename":"HnJson","localize":[{"title":"显示HN：Ht - Rust中的HTTPie克隆。","locale":"zh"},{"title":"顯示HN：Ht - Rust中的HTTPie克隆。","locale":"zh-Hant"}]}},{"__typename":"SocialMediaPost","id":"HnPost-26038501","excerpt":"","slug":"/hn/26038501","title":"Show HN: Remarkbox – Hosted comments without ads or tracking","date":"February 06, 2021","dateISO":"2021-02-06T01:19:23.354Z","datetime":"2021-02-06 01:19","tags":["story","Show HN","Hacker News"],"image":null,"imageAlt":null,"provider":"Hacker News","thirdPartyId":"26038501","url":"https://news.ycombinator.com/item?id=26038501","originalUrl":"https://www.remarkbox.com/remarkbox-is-now-pay-what-you-can.html","imageRemote":"https://www.remarkbox.com/remarkbox-minified.png","video":null,"channel":"Show HN","channelUrl":"https://news.ycombinator.com/show","author":"foxhop","authorUrl":"https://news.ycombinator.com/user?id=foxhop","authorImage":null,"authorSlug":null,"score":232,"views":null,"sharedCount":null,"likeCount":null,"sharedContent":null,"parent":{"__typename":"HnJson","localize":[{"title":"显示 HN: Remarkbox - 无广告或跟踪的托管评论。","locale":"zh"},{"title":"顯示 HN: Remarkbox - 無廣告或跟蹤的託管評論。","locale":"zh-Hant"}]}},{"__typename":"SocialMediaPost","id":"HnPost-26018098","excerpt":"","slug":"/hn/26018098","title":"Show HN: YTT Tech – My curated database of instructional YouTube Videos","date":"February 04, 2021","dateISO":"2021-02-04T11:00:44.770Z","datetime":"2021-02-04 11:00","tags":["story","Show HN","Hacker News"],"image":null,"imageAlt":null,"provider":"Hacker News","thirdPartyId":"26018098","url":"https://news.ycombinator.com/item?id=26018098","originalUrl":"https://ytt-tech.com","imageRemote":null,"video":null,"channel":"Show HN","channelUrl":"https://news.ycombinator.com/show","author":"jrowen","authorUrl":"https://news.ycombinator.com/user?id=jrowen","authorImage":null,"authorSlug":null,"score":205,"views":null,"sharedCount":null,"likeCount":null,"sharedContent":null,"parent":{"__typename":"HnJson","localize":[{"title":"显示 HN：YTT Tech - 我策划的YouTube教学视频数据库。","locale":"zh"},{"title":"顯示 HN：YTT Tech - 我策劃的YouTube教學視頻數據庫。","locale":"zh-Hant"}]}}]}},"pageContext":{"basePath":"/","pageType":"tag","tag":"Show HN","tagsFilter":{"id":{"glob":"!*Post-1"}},"filter":{"id":{"glob":"!*Post-1"},"tags":{"eq":"Show HN"}},"limit":25,"skip":0,"total":76,"totalPages":4,"currentPage":1,"maxWidth":1024,"maxHeight":512,"locale":"zh","hrefLang":"zh-Hans","originalPath":"/tags/show-hn/","dateFormat":"YYYY-MM-DD"}},"staticQueryHashes":["1239077767","2506312863","2744905544","3025052997","3493603132","3493603132","3513215887","386998304"]}