{"componentChunkName":"component---gatsby-theme-buzzing-src-gatsby-theme-timeline-templates-posts-query-js","path":"/tags/hacker-news/page/37","result":{"data":{"site":{"siteMetadata":{"title":"Reddit 热门","description":"用中文浏览Reddit热门内容","social":[{"name":"Twitter","url":"https://twitter.com/gatsbyjs","external":null,"prefetch":null},{"name":"GitHub","url":"https://github.com/gatsbyjs","external":null,"prefetch":null}],"menuLinks":[],"localize":[{"locale":"en","title":"Buzzing on Reddit","description":"See what's buzzing on Reddit in your native language","social":[{"name":"Reddit","url":"https://www.reddit.com/","external":true,"prefetch":null}],"menuLinks":[{"name":"Weekly Selection","url":"/issues","external":null,"prefetch":null},{"name":"RSS","url":"/rss.xml","external":null,"prefetch":false}]},{"locale":"zh-Hant","title":"Reddit 熱門","description":"用中文瀏覽Reddit熱門內容","social":null,"menuLinks":null}]}},"tagsGroup":{"group":[{"fieldValue":"ASK HN","totalCount":54},{"fieldValue":"Hacker News","totalCount":3107},{"fieldValue":"Poll","totalCount":1},{"fieldValue":"Show HN","totalCount":100},{"fieldValue":"poll","totalCount":1},{"fieldValue":"story","totalCount":3106}]},"allBlogPost":{"nodes":[{"__typename":"SocialMediaPost","id":"HnPost-26339126","excerpt":"","slug":"/hn/26339126","title":"Gab Has Been Breached","date":"March 04, 2021","dateISO":"2021-03-04T07:47:12.926Z","datetime":"2021-03-04 07:47","tags":["story","Hacker News"],"image":null,"imageAlt":null,"provider":"Hacker News","thirdPartyId":"26339126","url":"https://news.ycombinator.com/item?id=26339126","originalUrl":"https://www.troyhunt.com/gab-has-been-breached/","imageRemote":"https://www.troyhunt.com/content/images/2021/03/Troy-hunt-Gab-Data.png","video":null,"channel":null,"channelUrl":null,"author":"nikbackm","authorUrl":"https://news.ycombinator.com/user?id=nikbackm","authorImage":null,"authorSlug":null,"score":216,"views":null,"sharedCount":null,"likeCount":null,"sharedContent":null,"parent":{"__typename":"HnJson","localize":[{"title":"Gab已经被攻破了","locale":"zh"},{"title":"Gab已經被攻破了","locale":"zh-Hant"}]}},{"__typename":"SocialMediaPost","id":"HnPost-26336076","excerpt":"","slug":"/hn/26336076","title":"Godot maintainer removes controversial satirical piece from documentation","date":"March 04, 2021","dateISO":"2021-03-04T07:34:58.638Z","datetime":"2021-03-04 07:34","tags":["story","Hacker News"],"image":null,"imageAlt":null,"provider":"Hacker News","thirdPartyId":"26336076","url":"https://news.ycombinator.com/item?id=26336076","originalUrl":"https://github.com/godotengine/godot-docs/commit/b872229427dddb9b749f46af597e85e25cf2955a","imageRemote":"https://avatars.githubusercontent.com/u/6318500?s=400&v=4","video":null,"channel":null,"channelUrl":null,"author":"phreack","authorUrl":"https://news.ycombinator.com/user?id=phreack","authorImage":null,"authorSlug":null,"score":370,"views":null,"sharedCount":null,"likeCount":null,"sharedContent":null,"parent":{"__typename":"HnJson","localize":[{"title":"Godot维护者从文档中删除了有争议的讽刺性文章。","locale":"zh"},{"title":"Godot維護者從文檔中刪除了有爭議的諷刺性文章。","locale":"zh-Hant"}]}},{"__typename":"SocialMediaPost","id":"HnPost-26334535","excerpt":"","slug":"/hn/26334535","title":"Emily Riehl is rewriting the foundations of higher category theory","date":"March 04, 2021","dateISO":"2021-03-04T05:21:44.582Z","datetime":"2021-03-04 05:21","tags":["story","Hacker News"],"image":null,"imageAlt":null,"provider":"Hacker News","thirdPartyId":"26334535","url":"https://news.ycombinator.com/item?id=26334535","originalUrl":"https://www.quantamagazine.org/emily-riehl-conducts-the-mathematical-orchestra-from-the-middle-20200902/","imageRemote":"https://d2r55xnwy6nx47.cloudfront.net/uploads/2020/09/Emily-Riehl_1200_Social.jpg","video":null,"channel":null,"channelUrl":null,"author":"guerrilla","authorUrl":"https://news.ycombinator.com/user?id=guerrilla","authorImage":null,"authorSlug":null,"score":229,"views":null,"sharedCount":null,"likeCount":null,"sharedContent":null,"parent":{"__typename":"HnJson","localize":[{"title":"艾米丽-里尔正在重写高等范畴理论的基础。","locale":"zh"},{"title":"艾米麗-里爾正在重寫高等範疇理論的基礎。","locale":"zh-Hant"}]}},{"__typename":"SocialMediaPost","id":"HnPost-26337046","excerpt":"","slug":"/hn/26337046","title":"It Can Happen to You","date":"March 04, 2021","dateISO":"2021-03-04T02:55:45.637Z","datetime":"2021-03-04 02:55","tags":["story","Hacker News"],"image":null,"imageAlt":null,"provider":"Hacker News","thirdPartyId":"26337046","url":"https://news.ycombinator.com/item?id=26337046","originalUrl":"https://www.mattkeeter.com/blog/2021-03-01-happen/","imageRemote":"https://www.mattkeeter.com/blog/2021-03-01-happen/porsche.png","video":null,"channel":null,"channelUrl":null,"author":"mooreds","authorUrl":"https://news.ycombinator.com/user?id=mooreds","authorImage":null,"authorSlug":null,"score":1586,"views":null,"sharedCount":null,"likeCount":null,"sharedContent":null,"parent":{"__typename":"HnJson","localize":[{"title":"它可能发生在你身上","locale":"zh"},{"title":"它可能發生在你身上","locale":"zh-Hant"}]}},{"__typename":"SocialMediaPost","id":"HnPost-26328872","excerpt":"","slug":"/hn/26328872","title":"Brave is launching its own search engine with the help of ex-Cliqz devs and tech","date":"March 04, 2021","dateISO":"2021-03-04T02:13:05.916Z","datetime":"2021-03-04 02:13","tags":["story","Hacker News"],"image":null,"imageAlt":null,"provider":"Hacker News","thirdPartyId":"26328872","url":"https://news.ycombinator.com/item?id=26328872","originalUrl":"https://techcrunch.com/2021/03/03/brave-is-launching-its-own-search-engine-with-the-help-of-ex-cliqz-devs-and-tech/","imageRemote":"https://techcrunch.com/wp-content/uploads/2021/03/brave_rewards_3devices_2x-c-1.png?w=569","video":null,"channel":null,"channelUrl":null,"author":"quick_brown_fox","authorUrl":"https://news.ycombinator.com/user?id=quick_brown_fox","authorImage":null,"authorSlug":null,"score":171,"views":null,"sharedCount":null,"likeCount":null,"sharedContent":null,"parent":{"__typename":"HnJson","localize":[{"title":"Brave在前Cliqz开发和技术的帮助下，推出了自己的搜索引擎。","locale":"zh"},{"title":"Brave在前Cliqz開發和技術的幫助下，推出了自己的搜索引擎。","locale":"zh-Hant"}]}},{"__typename":"SocialMediaPost","id":"HnPost-26333369","excerpt":"","slug":"/hn/26333369","title":"M1 MacBook Air hits 900 GFlops in the browser with Safari's experimental WebGPU","date":"March 04, 2021","dateISO":"2021-03-04T01:49:25.873Z","datetime":"2021-03-04 01:49","tags":["story","Hacker News"],"image":null,"imageAlt":null,"provider":"Hacker News","thirdPartyId":"26333369","url":"https://news.ycombinator.com/item?id=26333369","originalUrl":"https://jott.live/markdown/m1_webgpu_perf","imageRemote":null,"video":null,"channel":null,"channelUrl":null,"author":"brrrrrm","authorUrl":"https://news.ycombinator.com/user?id=brrrrrm","authorImage":null,"authorSlug":null,"score":415,"views":null,"sharedCount":null,"likeCount":null,"sharedContent":null,"parent":{"__typename":"HnJson","localize":[{"title":"M1 MacBook Air凭借Safari的实验性WebGPU在浏览器中达到900 GFlops的速度","locale":"zh"},{"title":"M1 MacBook Air憑藉Safari的實驗性WebGPU在瀏覽器中達到900 GFlops的速度","locale":"zh-Hant"}]}},{"__typename":"SocialMediaPost","id":"HnPost-26332348","excerpt":"","slug":"/hn/26332348","title":"Every Google Cloud service described in 4 words (2021 update)","date":"March 04, 2021","dateISO":"2021-03-04T00:57:19.400Z","datetime":"2021-03-04 00:57","tags":["story","Hacker News"],"image":null,"imageAlt":null,"provider":"Hacker News","thirdPartyId":"26332348","url":"https://news.ycombinator.com/item?id=26332348","originalUrl":"https://cloud.google.com/blog/topics/developers-practitioners/back-popular-demand-google-cloud-products-4-words-or-less-2021-edition","imageRemote":"https://storage.googleapis.com/gweb-cloudblog-publish/images/4words-hero-top.max-2200x2200.png","video":null,"channel":null,"channelUrl":null,"author":"gw5815","authorUrl":"https://news.ycombinator.com/user?id=gw5815","authorImage":null,"authorSlug":null,"score":267,"views":null,"sharedCount":null,"likeCount":null,"sharedContent":null,"parent":{"__typename":"HnJson","localize":[{"title":"用4个字描述每一项谷歌云服务（2021年更新）。","locale":"zh"},{"title":"用4個字描述每一項谷歌雲服務（2021年更新）。","locale":"zh-Hant"}]}},{"__typename":"SocialMediaPost","id":"HnPost-26336311","excerpt":"","slug":"/hn/26336311","title":"Live feed of Starship SN10 flight test [video]","date":"March 04, 2021","dateISO":"2021-03-04T00:57:19.400Z","datetime":"2021-03-04 00:57","tags":["story","Hacker News"],"image":null,"imageAlt":null,"provider":"Hacker News","thirdPartyId":"26336311","url":"https://news.ycombinator.com/item?id=26336311","originalUrl":"https://twitter.com/SpaceX/status/1367250900041953280","imageRemote":null,"video":null,"channel":null,"channelUrl":null,"author":"bpierre","authorUrl":"https://news.ycombinator.com/user?id=bpierre","authorImage":null,"authorSlug":null,"score":281,"views":null,"sharedCount":null,"likeCount":null,"sharedContent":null,"parent":{"__typename":"HnJson","localize":[{"title":"星际飞船SN10飞行测试直播[视频]。","locale":"zh"},{"title":"星際飛船SN10飛行測試直播[視頻]。","locale":"zh-Hant"}]}},{"__typename":"SocialMediaPost","id":"HnPost-26333649","excerpt":"","slug":"/hn/26333649","title":"The Air Force is having to reverse engineer parts of its own stealth bomber","date":"March 03, 2021","dateISO":"2021-03-03T23:33:51.225Z","datetime":"2021-03-03 23:33","tags":["story","Hacker News"],"image":null,"imageAlt":null,"provider":"Hacker News","thirdPartyId":"26333649","url":"https://news.ycombinator.com/item?id=26333649","originalUrl":"https://www.thedrive.com/the-war-zone/39537/the-air-force-needs-to-reverse-engineer-parts-of-its-own-stealth-bomber","imageRemote":"https://api.thedrive.com/wp-content/uploads/2021/03/b2spirit.jpeg?quality=85","video":null,"channel":null,"channelUrl":null,"author":"alrs","authorUrl":"https://news.ycombinator.com/user?id=alrs","authorImage":null,"authorSlug":null,"score":444,"views":null,"sharedCount":null,"likeCount":null,"sharedContent":null,"parent":{"__typename":"HnJson","localize":[{"title":"空军不得不对自己的隐身轰炸机的部分进行逆向工程。","locale":"zh"},{"title":"空軍不得不對自己的隱身轟炸機的部分進行逆向工程。","locale":"zh-Hant"}]}},{"__typename":"SocialMediaPost","id":"HnPost-26334086","excerpt":"","slug":"/hn/26334086","title":"Did Schnorr destroy RSA? Show me the factors","date":"March 03, 2021","dateISO":"2021-03-03T23:33:51.225Z","datetime":"2021-03-03 23:33","tags":["story","Hacker News"],"image":null,"imageAlt":null,"provider":"Hacker News","thirdPartyId":"26334086","url":"https://news.ycombinator.com/item?id=26334086","originalUrl":"https://sweis.medium.com/did-schnorr-destroy-rsa-show-me-the-factors-dcb1bb980ab0","imageRemote":"https://miro.medium.com/max/819/0*nFI_nptqdicLWzo3","video":null,"channel":null,"channelUrl":null,"author":"sweis","authorUrl":"https://news.ycombinator.com/user?id=sweis","authorImage":null,"authorSlug":null,"score":283,"views":null,"sharedCount":null,"likeCount":null,"sharedContent":null,"parent":{"__typename":"HnJson","localize":[{"title":"Schnorr摧毁了RSA吗？给我看看其中的因素","locale":"zh"},{"title":"Schnorr摧毀了RSA嗎？給我看看其中的因素","locale":"zh-Hant"}]}},{"__typename":"SocialMediaPost","id":"HnPost-26334516","excerpt":"","slug":"/hn/26334516","title":"Okta to Acquire Auth0 for $6.5B","date":"March 03, 2021","dateISO":"2021-03-03T23:33:51.225Z","datetime":"2021-03-03 23:33","tags":["story","Hacker News"],"image":null,"imageAlt":null,"provider":"Hacker News","thirdPartyId":"26334516","url":"https://news.ycombinator.com/item?id=26334516","originalUrl":"https://www.cnbc.com/2021/03/03/okta-is-buying-security-rival-auth0-for-6point5-billion-stock-falls.html","imageRemote":"https://image.cnbcfm.com/api/v1/image/106311641-1577222889472mckinnon2.jpg?v=1577222956","video":null,"channel":null,"channelUrl":null,"author":"lpage","authorUrl":"https://news.ycombinator.com/user?id=lpage","authorImage":null,"authorSlug":null,"score":617,"views":null,"sharedCount":null,"likeCount":null,"sharedContent":null,"parent":{"__typename":"HnJson","localize":[{"title":"Okta将以65亿美元收购Auth0。","locale":"zh"},{"title":"Okta將以65億美元收購Auth0。","locale":"zh-Hant"}]}},{"__typename":"SocialMediaPost","id":"HnPost-26334659","excerpt":"","slug":"/hn/26334659","title":"Okta to Acquire Auth0 for $6.5B","date":"March 03, 2021","dateISO":"2021-03-03T22:26:52.320Z","datetime":"2021-03-03 22:26","tags":["story","Hacker News"],"image":null,"imageAlt":null,"provider":"Hacker News","thirdPartyId":"26334659","url":"https://news.ycombinator.com/item?id=26334659","originalUrl":"https://investor.okta.com/news-releases/news-release-details/okta-signs-definitive-agreement-acquire-auth0-provide-customer","imageRemote":"https://mms.businesswire.com/media/20210303005911/en/862947/4/OktaArdbegAnnounceGraphic.jpg","video":null,"channel":null,"channelUrl":null,"author":"marc__1","authorUrl":"https://news.ycombinator.com/user?id=marc__1","authorImage":null,"authorSlug":null,"score":187,"views":null,"sharedCount":null,"likeCount":null,"sharedContent":null,"parent":{"__typename":"HnJson","localize":[{"title":"Okta将以65亿美元收购Auth0。","locale":"zh"},{"title":"Okta將以65億美元收購Auth0。","locale":"zh-Hant"}]}},{"__typename":"SocialMediaPost","id":"HnPost-26330841","excerpt":"","slug":"/hn/26330841","title":"How the AWS team will contribute to Rust’s success","date":"March 03, 2021","dateISO":"2021-03-03T21:16:55.988Z","datetime":"2021-03-03 21:16","tags":["story","Hacker News"],"image":null,"imageAlt":null,"provider":"Hacker News","thirdPartyId":"26330841","url":"https://news.ycombinator.com/item?id=26330841","originalUrl":"https://aws.amazon.com/blogs/opensource/how-our-aws-rust-team-will-contribute-to-rusts-future-successes/","imageRemote":"https://d2908q01vomqb2.cloudfront.net/ca3512f4dfa95a03169c5a670a4c91a19b3077b4/2019/09/20/rust-social-wide.jpg","video":null,"channel":null,"channelUrl":null,"author":"steveklabnik","authorUrl":"https://news.ycombinator.com/user?id=steveklabnik","authorImage":null,"authorSlug":null,"score":179,"views":null,"sharedCount":null,"likeCount":null,"sharedContent":null,"parent":{"__typename":"HnJson","localize":[{"title":"AWS团队将如何为Rust的成功做出贡献？","locale":"zh"},{"title":"AWS團隊將如何爲Rust的成功做出貢獻？","locale":"zh-Hant"}]}},{"__typename":"SocialMediaPost","id":"HnPost-26325425","excerpt":"","slug":"/hn/26325425","title":"Gigerenzer’s simple rules of thumb often outperform complex models","date":"March 03, 2021","dateISO":"2021-03-03T20:50:11.189Z","datetime":"2021-03-03 20:50","tags":["story","Hacker News"],"image":null,"imageAlt":null,"provider":"Hacker News","thirdPartyId":"26325425","url":"https://news.ycombinator.com/item?id=26325425","originalUrl":"https://www.foundingfuel.com/article/gigerenzers-simple-rules/","imageRemote":"https://d25ecq9zgd9hts.cloudfront.net/img/2017/02/gizerenger.jpg","video":null,"channel":null,"channelUrl":null,"author":"haltingproblem","authorUrl":"https://news.ycombinator.com/user?id=haltingproblem","authorImage":null,"authorSlug":null,"score":179,"views":null,"sharedCount":null,"likeCount":null,"sharedContent":null,"parent":{"__typename":"HnJson","localize":[{"title":"Gigerenzer的简单经验法则往往优于复杂的模型。","locale":"zh"},{"title":"Gigerenzer的簡單經驗法則往往優於複雜的模型。","locale":"zh-Hant"}]}},{"__typename":"SocialMediaPost","id":"HnPost-26329791","excerpt":"","slug":"/hn/26329791","title":"Schnorr confirms paper is his, claims it “destroys RSA cryptosystem”","date":"March 03, 2021","dateISO":"2021-03-03T20:27:24.551Z","datetime":"2021-03-03 20:27","tags":["story","Hacker News"],"image":null,"imageAlt":null,"provider":"Hacker News","thirdPartyId":"26329791","url":"https://news.ycombinator.com/item?id=26329791","originalUrl":"https://twitter.com/FredericJacobs/status/1367115794363088897","imageRemote":null,"video":null,"channel":null,"channelUrl":null,"author":"EthanHeilman","authorUrl":"https://news.ycombinator.com/user?id=EthanHeilman","authorImage":null,"authorSlug":null,"score":230,"views":null,"sharedCount":null,"likeCount":null,"sharedContent":null,"parent":{"__typename":"HnJson","localize":[{"title":"施诺尔确认论文是他的，称其 \"破坏了RSA密码系统\"","locale":"zh"},{"title":"施諾爾確認論文是他的，稱其 \"破壞了RSA密碼系統\"","locale":"zh-Hant"}]}},{"__typename":"SocialMediaPost","id":"HnPost-26332944","excerpt":"","slug":"/hn/26332944","title":"Flutter 2","date":"March 03, 2021","dateISO":"2021-03-03T20:27:24.551Z","datetime":"2021-03-03 20:27","tags":["story","Hacker News"],"image":null,"imageAlt":null,"provider":"Hacker News","thirdPartyId":"26332944","url":"https://news.ycombinator.com/item?id=26332944","originalUrl":"https://developers.googleblog.com/2021/03/announcing-flutter-2.html","imageRemote":"https://1.bp.blogspot.com/-ptTaJcEkdGQ/YD1yk1m-4pI/AAAAAAAAJ4s/tQkX7gwqc1ktlEANx-SENSk3MBFFnD87QCLcBGAsYHQ/s0/image%2B10.png","video":null,"channel":null,"channelUrl":null,"author":"wstrange","authorUrl":"https://news.ycombinator.com/user?id=wstrange","authorImage":null,"authorSlug":null,"score":772,"views":null,"sharedCount":null,"likeCount":null,"sharedContent":null,"parent":{"__typename":"HnJson","localize":[{"title":"翩翩2","locale":"zh"},{"title":"翩翩2","locale":"zh-Hant"}]}},{"__typename":"SocialMediaPost","id":"HnPost-26327678","excerpt":"","slug":"/hn/26327678","title":"A Cephalopod Has Passed a Cognitive Test Designed for Human Children","date":"March 03, 2021","dateISO":"2021-03-03T19:54:28.209Z","datetime":"2021-03-03 19:54","tags":["story","Hacker News"],"image":null,"imageAlt":null,"provider":"Hacker News","thirdPartyId":"26327678","url":"https://news.ycombinator.com/item?id=26327678","originalUrl":"https://www.sciencealert.com/cuttlefish-can-pass-a-cognitive-test-designed-for-children","imageRemote":"https://www.sciencealert.com/images/2021-03/processed/cuttlefren_1024.jpg","video":null,"channel":null,"channelUrl":null,"author":"daegloe","authorUrl":"https://news.ycombinator.com/user?id=daegloe","authorImage":null,"authorSlug":null,"score":204,"views":null,"sharedCount":null,"likeCount":null,"sharedContent":null,"parent":{"__typename":"HnJson","localize":[{"title":"一种头足类动物通过了为人类儿童设计的认知测试。","locale":"zh"},{"title":"一種頭足類動物通過了爲人類兒童設計的認知測試。","locale":"zh-Hant"}]}},{"__typename":"SocialMediaPost","id":"HnPost-26329144","excerpt":"","slug":"/hn/26329144","title":"Piracy is not theft, Lost sales don't exist, says Minecraft creator (2011)","date":"March 03, 2021","dateISO":"2021-03-03T19:30:16.686Z","datetime":"2021-03-03 19:30","tags":["story","Hacker News"],"image":null,"imageAlt":null,"provider":"Hacker News","thirdPartyId":"26329144","url":"https://news.ycombinator.com/item?id=26329144","originalUrl":"https://torrentfreak.com/piracy-is-theft-ridiculous-lost-sales-they-dont-exist-says-minecraft-creator-110303/","imageRemote":"http://torrentfreak.com/images/minecraft.jpg","video":null,"channel":null,"channelUrl":null,"author":"ROARosen","authorUrl":"https://news.ycombinator.com/user?id=ROARosen","authorImage":null,"authorSlug":null,"score":298,"views":null,"sharedCount":null,"likeCount":null,"sharedContent":null,"parent":{"__typename":"HnJson","localize":[{"title":"盗版不是盗窃，损失的销售额不存在，说Minecraft创造者 (2011)","locale":"zh"},{"title":"盜版不是盜竊，損失的銷售額不存在，說Minecraft創造者 (2011)","locale":"zh-Hant"}]}},{"__typename":"SocialMediaPost","id":"HnPost-26327022","excerpt":"","slug":"/hn/26327022","title":"Robinhood is facing nearly 50 lawsuits over GameStop frenzy","date":"March 03, 2021","dateISO":"2021-03-03T17:46:47.249Z","datetime":"2021-03-03 17:46","tags":["story","Hacker News"],"image":null,"imageAlt":null,"provider":"Hacker News","thirdPartyId":"26327022","url":"https://news.ycombinator.com/item?id=26327022","originalUrl":"https://www.nytimes.com/2021/02/26/business/robinhood-gamestop.html","imageRemote":"https://static01.nyt.com/newsgraphics/images/icons/defaultPromoCrop.png","video":null,"channel":null,"channelUrl":null,"author":"pedro-guimaraes","authorUrl":"https://news.ycombinator.com/user?id=pedro-guimaraes","authorImage":null,"authorSlug":null,"score":215,"views":null,"sharedCount":null,"likeCount":null,"sharedContent":null,"parent":{"__typename":"HnJson","localize":[{"title":"Robinhood因GameStop的疯狂而面临近50起诉讼。","locale":"zh"},{"title":"Robinhood因GameStop的瘋狂而面臨近50起訴訟。","locale":"zh-Hant"}]}},{"__typename":"SocialMediaPost","id":"HnPost-26328428","excerpt":"","slug":"/hn/26328428","title":"Google to Stop Selling Ads Based on Your Specific Web Browsing","date":"March 03, 2021","dateISO":"2021-03-03T17:46:47.249Z","datetime":"2021-03-03 17:46","tags":["story","Hacker News"],"image":null,"imageAlt":null,"provider":"Hacker News","thirdPartyId":"26328428","url":"https://news.ycombinator.com/item?id=26328428","originalUrl":"https://www.wsj.com/articles/google-to-stop-selling-ads-based-on-your-specific-web-browsing-11614780021","imageRemote":"https://images.wsj.net/im-306482/social","video":null,"channel":null,"channelUrl":null,"author":"ghshephard","authorUrl":"https://news.ycombinator.com/user?id=ghshephard","authorImage":null,"authorSlug":null,"score":656,"views":null,"sharedCount":null,"likeCount":null,"sharedContent":null,"parent":{"__typename":"HnJson","localize":[{"title":"谷歌将停止根据你的特定网页浏览量出售广告","locale":"zh"},{"title":"谷歌將停止根據你的特定網頁瀏覽量出售廣告","locale":"zh-Hant"}]}},{"__typename":"SocialMediaPost","id":"HnPost-26330584","excerpt":"","slug":"/hn/26330584","title":"Killing TurboTax","date":"March 03, 2021","dateISO":"2021-03-03T17:46:47.249Z","datetime":"2021-03-03 17:46","tags":["story","Hacker News"],"image":null,"imageAlt":null,"provider":"Hacker News","thirdPartyId":"26330584","url":"https://news.ycombinator.com/item?id=26330584","originalUrl":"https://kunle.app/feb-2021-how-to-dismantle-turbotax.html","imageRemote":"https://kunle.app/images/appstore.jpeg","video":null,"channel":null,"channelUrl":null,"author":"kunle","authorUrl":"https://news.ycombinator.com/user?id=kunle","authorImage":null,"authorSlug":null,"score":863,"views":null,"sharedCount":null,"likeCount":null,"sharedContent":null,"parent":{"__typename":"HnJson","localize":[{"title":"杀死TurboTax","locale":"zh"},{"title":"殺死TurboTax","locale":"zh-Hant"}]}},{"__typename":"SocialMediaPost","id":"HnPost-26328758","excerpt":"","slug":"/hn/26328758","title":"Brave buys a search engine, promises no tracking, no profiling","date":"March 03, 2021","dateISO":"2021-03-03T17:12:42.131Z","datetime":"2021-03-03 17:12","tags":["story","Hacker News"],"image":null,"imageAlt":null,"provider":"Hacker News","thirdPartyId":"26328758","url":"https://news.ycombinator.com/item?id=26328758","originalUrl":"https://www.theregister.com/2021/03/03/brave_buys_a_search_engine/","imageRemote":"https://regmedia.co.uk/2021/03/03/shutterstock_web_search.jpg","video":null,"channel":null,"channelUrl":null,"author":"samizdis","authorUrl":"https://news.ycombinator.com/user?id=samizdis","authorImage":null,"authorSlug":null,"score":904,"views":null,"sharedCount":null,"likeCount":null,"sharedContent":null,"parent":{"__typename":"HnJson","localize":[{"title":"勇敢的买了一个搜索引擎，承诺没有跟踪，没有侧写。","locale":"zh"},{"title":"勇敢的買了一個搜索引擎，承諾沒有跟蹤，沒有側寫。","locale":"zh-Hant"}]}},{"__typename":"SocialMediaPost","id":"HnPost-26327815","excerpt":"","slug":"/hn/26327815","title":"Google no longer wanted to sponsor the AI   ethics conference","date":"March 03, 2021","dateISO":"2021-03-03T16:27:14.817Z","datetime":"2021-03-03 16:27","tags":["story","Hacker News"],"image":null,"imageAlt":null,"provider":"Hacker News","thirdPartyId":"26327815","url":"https://news.ycombinator.com/item?id=26327815","originalUrl":"https://www.heise.de/news/Google-als-Sponsor-fuer-KI-Ethik-Konferenz-nicht-mehr-erwuenscht-5070341.html","imageRemote":"https://heise.cloudimg.io/bound/1200x1200/q85.png-lossy-85.webp-lossy-85.foil1/_www-heise-de_/imgs/18/3/0/6/6/0/4/5/shutterstock_1869421615-3bb841112822530d.jpeg","video":null,"channel":null,"channelUrl":null,"author":"imagine99","authorUrl":"https://news.ycombinator.com/user?id=imagine99","authorImage":null,"authorSlug":null,"score":289,"views":null,"sharedCount":null,"likeCount":null,"sharedContent":null,"parent":{"__typename":"HnJson","localize":[{"title":"谷歌不想再赞助AI伦理会议了","locale":"zh"},{"title":"谷歌不想再贊助AI倫理會議了","locale":"zh-Hant"}]}},{"__typename":"SocialMediaPost","id":"HnPost-26327779","excerpt":"","slug":"/hn/26327779","title":"PipeWire: The Linux audio/video bus","date":"March 03, 2021","dateISO":"2021-03-03T16:00:54.405Z","datetime":"2021-03-03 16:00","tags":["story","Hacker News"],"image":null,"imageAlt":null,"provider":"Hacker News","thirdPartyId":"26327779","url":"https://news.ycombinator.com/item?id=26327779","originalUrl":"https://lwn.net/SubscriberLink/847412/d7826b1353e33734","imageRemote":"https://static.lwn.net/images/logo/barepenguin-70.png","video":null,"channel":null,"channelUrl":null,"author":"darwi","authorUrl":"https://news.ycombinator.com/user?id=darwi","authorImage":null,"authorSlug":null,"score":443,"views":null,"sharedCount":null,"likeCount":null,"sharedContent":null,"parent":{"__typename":"HnJson","localize":[{"title":"PipeWire: Linux音频/视频总线","locale":"zh"},{"title":"PipeWire: Linux音頻/視頻總線","locale":"zh-Hant"}]}},{"__typename":"SocialMediaPost","id":"HnPost-26326599","excerpt":"","slug":"/hn/26326599","title":"Icons – Google Fonts","date":"March 03, 2021","dateISO":"2021-03-03T15:52:16.001Z","datetime":"2021-03-03 15:52","tags":["story","Hacker News"],"image":null,"imageAlt":null,"provider":"Hacker News","thirdPartyId":"26326599","url":"https://news.ycombinator.com/item?id=26326599","originalUrl":"https://fonts.google.com/icons","imageRemote":"http://www.gstatic.com/images/icons/material/apps/fonts/1x/catalog/v5/opengraph_color.png","video":null,"channel":null,"channelUrl":null,"author":"zuhayeer","authorUrl":"https://news.ycombinator.com/user?id=zuhayeer","authorImage":null,"authorSlug":null,"score":327,"views":null,"sharedCount":null,"likeCount":null,"sharedContent":null,"parent":{"__typename":"HnJson","localize":[{"title":"图标 - Google Fonts","locale":"zh"},{"title":"圖標 - Google Fonts","locale":"zh-Hant"}]}}]}},"pageContext":{"basePath":"/","pageType":"tag","tag":"Hacker News","tagsFilter":{"id":{"glob":"!*Post-1"}},"filter":{"id":{"glob":"!*Post-1"},"tags":{"eq":"Hacker News"}},"limit":25,"skip":900,"total":3107,"totalPages":125,"currentPage":37,"maxWidth":1024,"maxHeight":512,"locale":"zh","hrefLang":"zh-Hans","originalPath":"/tags/hacker-news/page/37","dateFormat":"YYYY-MM-DD"}},"staticQueryHashes":["1239077767","2506312863","2744905544","3025052997","3493603132","3493603132","3513215887","386998304"]}