{"componentChunkName":"component---gatsby-theme-buzzing-src-gatsby-theme-timeline-templates-posts-query-js","path":"/tags/hacker-news/page/26","result":{"data":{"site":{"siteMetadata":{"title":"Reddit 热门","description":"用中文浏览Reddit热门内容","social":[{"name":"Twitter","url":"https://twitter.com/gatsbyjs","external":null,"prefetch":null},{"name":"GitHub","url":"https://github.com/gatsbyjs","external":null,"prefetch":null}],"menuLinks":[],"localize":[{"locale":"en","title":"Buzzing on Reddit","description":"See what's buzzing on Reddit in your native language","social":[{"name":"Reddit","url":"https://www.reddit.com/","external":true,"prefetch":null}],"menuLinks":[{"name":"Weekly Selection","url":"/issues","external":null,"prefetch":null},{"name":"RSS","url":"/rss.xml","external":null,"prefetch":false}]},{"locale":"zh-Hant","title":"Reddit 熱門","description":"用中文瀏覽Reddit熱門內容","social":null,"menuLinks":null}]}},"tagsGroup":{"group":[{"fieldValue":"ASK HN","totalCount":54},{"fieldValue":"Hacker News","totalCount":3107},{"fieldValue":"Poll","totalCount":1},{"fieldValue":"Show HN","totalCount":100},{"fieldValue":"poll","totalCount":1},{"fieldValue":"story","totalCount":3106}]},"allBlogPost":{"nodes":[{"__typename":"SocialMediaPost","id":"HnPost-26459258","excerpt":"","slug":"/hn/26459258","title":"Stripe valuation soars to $95B after latest fundraising","date":"March 15, 2021","dateISO":"2021-03-15T06:28:15.505Z","datetime":"2021-03-15 06:28","tags":["story","Hacker News"],"image":null,"imageAlt":null,"provider":"Hacker News","thirdPartyId":"26459258","url":"https://news.ycombinator.com/item?id=26459258","originalUrl":"https://www.ft.com/content/b9949a88-6c09-4de5-92e7-73994bb2b62f","imageRemote":"https://d1e00ek4ebabms.cloudfront.net/production/6d592372-e238-47a2-a2f1-63adeb835add.jpg","video":null,"channel":null,"channelUrl":null,"author":"minimaxir","authorUrl":"https://news.ycombinator.com/user?id=minimaxir","authorImage":null,"authorSlug":null,"score":183,"views":null,"sharedCount":null,"likeCount":null,"sharedContent":null,"parent":{"__typename":"HnJson","localize":[{"title":"最新募资后Stripe估值飙升至950亿美元","locale":"zh"},{"title":"最新募資後Stripe估值飆升至950億美元","locale":"zh-Hant"}]}},{"__typename":"SocialMediaPost","id":"HnPost-26458863","excerpt":"","slug":"/hn/26458863","title":"LeoCAD 21.03","date":"March 15, 2021","dateISO":"2021-03-15T05:53:39.747Z","datetime":"2021-03-15 05:53","tags":["story","Hacker News"],"image":null,"imageAlt":null,"provider":"Hacker News","thirdPartyId":"26458863","url":"https://news.ycombinator.com/item?id=26458863","originalUrl":"https://www.leocad.org/","imageRemote":"https://www.leocad.org/leocad-32.png","video":null,"channel":null,"channelUrl":null,"author":"app4soft","authorUrl":"https://news.ycombinator.com/user?id=app4soft","authorImage":null,"authorSlug":null,"score":248,"views":null,"sharedCount":null,"likeCount":null,"sharedContent":null,"parent":{"__typename":"HnJson","localize":[{"title":"LeoCAD 21.03","locale":"zh"},{"title":"LeoCAD 21.03","locale":"zh-Hant"}]}},{"__typename":"SocialMediaPost","id":"HnPost-26455956","excerpt":"","slug":"/hn/26455956","title":"Is Being Salaried a Scam?","date":"March 15, 2021","dateISO":"2021-03-15T04:57:09.244Z","datetime":"2021-03-15 04:57","tags":["story","Hacker News"],"image":null,"imageAlt":null,"provider":"Hacker News","thirdPartyId":"26455956","url":"https://news.ycombinator.com/item?id=26455956","originalUrl":"https://www.askamanager.org/2021/03/is-being-salaried-a-scam.html","imageRemote":"https://www.askamanager.org/wp-content/uploads/2014/04/bannersmfb.png","video":null,"channel":null,"channelUrl":null,"author":"jasonhansel","authorUrl":"https://news.ycombinator.com/user?id=jasonhansel","authorImage":null,"authorSlug":null,"score":176,"views":null,"sharedCount":null,"likeCount":null,"sharedContent":null,"parent":{"__typename":"HnJson","localize":[{"title":"受薪是骗局吗？","locale":"zh"},{"title":"受薪是騙局嗎？","locale":"zh-Hant"}]}},{"__typename":"SocialMediaPost","id":"HnPost-26460390","excerpt":"","slug":"/hn/26460390","title":"Satellite imagery shows Northern California kelp forests have collapsed","date":"March 15, 2021","dateISO":"2021-03-15T02:16:42.498Z","datetime":"2021-03-15 02:16","tags":["story","Hacker News"],"image":null,"imageAlt":null,"provider":"Hacker News","thirdPartyId":"26460390","url":"https://news.ycombinator.com/item?id=26460390","originalUrl":"https://www.smithsonianmag.com/smart-news/satellite-imagery-shows-northern-california-kelp-forests-have-collapsed-180977214/","imageRemote":"https://thumbs-prod.si-cdn.com/-U93aErE4MLJqpeBIq3crdnPV7o=/fit-in/1600x0/filters:focal(251x173:252x174)/https://public-media.si-cdn.com/filer/66/d6/66d664d5-b6bd-41c4-bf1f-8c6a342016b8/kelp-canopy.jpg","video":null,"channel":null,"channelUrl":null,"author":"PretzelFisch","authorUrl":"https://news.ycombinator.com/user?id=PretzelFisch","authorImage":null,"authorSlug":null,"score":656,"views":null,"sharedCount":null,"likeCount":null,"sharedContent":null,"parent":{"__typename":"HnJson","localize":[{"title":"卫星图像显示，北加州海带林已经坍塌。","locale":"zh"},{"title":"衛星圖像顯示，北加州海帶林已經坍塌。","locale":"zh-Hant"}]}},{"__typename":"SocialMediaPost","id":"HnPost-26457047","excerpt":"","slug":"/hn/26457047","title":"Israel's autonomous 'robo-snipers' and suicide drones raise ethical dilemma","date":"March 14, 2021","dateISO":"2021-03-14T23:56:42.529Z","datetime":"2021-03-14 23:56","tags":["story","Hacker News"],"image":null,"imageAlt":null,"provider":"Hacker News","thirdPartyId":"26457047","url":"https://news.ycombinator.com/item?id=26457047","originalUrl":"https://www.trtworld.com/magazine/israel-s-autonomous-robo-snipers-and-suicide-drones-raise-ethical-dilemma-44557","imageRemote":"https://cdni0.trtworld.com/w480/h270/q75/99870_Israelisentrytechtower_1614351480853.jpg","video":null,"channel":null,"channelUrl":null,"author":"YeGoblynQueenne","authorUrl":"https://news.ycombinator.com/user?id=YeGoblynQueenne","authorImage":null,"authorSlug":null,"score":203,"views":null,"sharedCount":null,"likeCount":null,"sharedContent":null,"parent":{"__typename":"HnJson","localize":[{"title":"以色列自主 \"机器人狙击手 \"和自杀式无人机引发伦理困境","locale":"zh"},{"title":"以色列自主 \"機器人狙擊手 \"和自殺式無人機引發倫理困境","locale":"zh-Hant"}]}},{"__typename":"SocialMediaPost","id":"HnPost-26453970","excerpt":"","slug":"/hn/26453970","title":"Metakovan, the mystery Beeple art buyer, and his NFT/DeFi scheme","date":"March 14, 2021","dateISO":"2021-03-14T23:30:29.581Z","datetime":"2021-03-14 23:30","tags":["story","Hacker News"],"image":null,"imageAlt":null,"provider":"Hacker News","thirdPartyId":"26453970","url":"https://news.ycombinator.com/item?id=26453970","originalUrl":"https://amycastor.com/2021/03/14/metakovan-the-mystery-beeple-art-buyer-and-his-nft-defi-scheme/","imageRemote":"https://amyhcastor.files.wordpress.com/2021/03/beeple-1.jpg?w=1200","video":null,"channel":null,"channelUrl":null,"author":"davidgerard","authorUrl":"https://news.ycombinator.com/user?id=davidgerard","authorImage":null,"authorSlug":null,"score":206,"views":null,"sharedCount":null,"likeCount":null,"sharedContent":null,"parent":{"__typename":"HnJson","localize":[{"title":"梅塔科万，神秘的Beeple艺术品买家，以及他的NFT/DeFi计划。","locale":"zh"},{"title":"梅塔科萬，神祕的Beeple藝術品買家，以及他的NFT/DeFi計劃。","locale":"zh-Hant"}]}},{"__typename":"SocialMediaPost","id":"HnPost-26456524","excerpt":"","slug":"/hn/26456524","title":"Refund of pre-installed Windows: Lenovo must pay 20k euros in damages","date":"March 14, 2021","dateISO":"2021-03-14T23:08:49.102Z","datetime":"2021-03-14 23:08","tags":["story","Hacker News"],"image":null,"imageAlt":null,"provider":"Hacker News","thirdPartyId":"26456524","url":"https://news.ycombinator.com/item?id=26456524","originalUrl":"https://fsfe.org/news/2021/news-20210302-01.html","imageRemote":"https://pics.fsfe.org/uploads/medium/dd3557bac3956a64521d172e32569377.jpg","video":null,"channel":null,"channelUrl":null,"author":"rendx","authorUrl":"https://news.ycombinator.com/user?id=rendx","authorImage":null,"authorSlug":null,"score":253,"views":null,"sharedCount":null,"likeCount":null,"sharedContent":null,"parent":{"__typename":"HnJson","localize":[{"title":"退还预装Windows。联想必须赔偿2万欧元损失","locale":"zh"},{"title":"退還預裝Windows。聯想必須賠償2萬歐元損失","locale":"zh-Hant"}]}},{"__typename":"SocialMediaPost","id":"HnPost-26459184","excerpt":"","slug":"/hn/26459184","title":"Why are tar.xz files 15x smaller when using Python's tar compared to macOS tar?","date":"March 14, 2021","dateISO":"2021-03-14T22:41:05.066Z","datetime":"2021-03-14 22:41","tags":["story","Hacker News"],"image":null,"imageAlt":null,"provider":"Hacker News","thirdPartyId":"26459184","url":"https://news.ycombinator.com/item?id=26459184","originalUrl":"https://superuser.com/questions/1633073/why-are-tar-xz-files-15x-smaller-when-using-pythons-tar-library-compared-to-mac","imageRemote":"https://cdn.sstatic.net/Sites/superuser/Img/apple-touch-icon@2.png?v=e869e4459439","video":null,"channel":null,"channelUrl":null,"author":"personjerry","authorUrl":"https://news.ycombinator.com/user?id=personjerry","authorImage":null,"authorSlug":null,"score":501,"views":null,"sharedCount":null,"likeCount":null,"sharedContent":null,"parent":{"__typename":"HnJson","localize":[{"title":"为什么使用Python的tar与macOS的tar相比，tar.xz文件要小15倍？","locale":"zh"},{"title":"爲什麼使用Python的tar與macOS的tar相比，tar.xz文件要小15倍？","locale":"zh-Hant"}]}},{"__typename":"SocialMediaPost","id":"HnPost-26453083","excerpt":"","slug":"/hn/26453083","title":"Repealing Section 230 won’t do what anyone wants","date":"March 14, 2021","dateISO":"2021-03-14T21:25:05.561Z","datetime":"2021-03-14 21:25","tags":["story","Hacker News"],"image":null,"imageAlt":null,"provider":"Hacker News","thirdPartyId":"26453083","url":"https://news.ycombinator.com/item?id=26453083","originalUrl":"https://superwuster.medium.com/liberals-and-conservatives-are-both-totally-wrong-about-section-230-11faacc4b117","imageRemote":"https://miro.medium.com/max/1200/1*yySt5pFr1OuN18r_ngKsSA.jpeg","video":null,"channel":null,"channelUrl":null,"author":"spzx","authorUrl":"https://news.ycombinator.com/user?id=spzx","authorImage":null,"authorSlug":null,"score":170,"views":null,"sharedCount":null,"likeCount":null,"sharedContent":null,"parent":{"__typename":"HnJson","localize":[{"title":"废除第230条并不能如大家所愿。","locale":"zh"},{"title":"廢除第230條並不能如大家所願。","locale":"zh-Hant"}]}},{"__typename":"SocialMediaPost","id":"HnPost-26458296","excerpt":"","slug":"/hn/26458296","title":"Tweeting “Memphis” autolocks your Twitter account","date":"March 14, 2021","dateISO":"2021-03-14T20:39:10.919Z","datetime":"2021-03-14 20:39","tags":["story","Hacker News"],"image":null,"imageAlt":null,"provider":"Hacker News","thirdPartyId":"26458296","url":"https://news.ycombinator.com/item?id=26458296","originalUrl":"https://twitter.com/SwiftOnSecurity/status/1371183849712009219","imageRemote":null,"video":null,"channel":null,"channelUrl":null,"author":"hirsin","authorUrl":"https://news.ycombinator.com/user?id=hirsin","authorImage":null,"authorSlug":null,"score":534,"views":null,"sharedCount":null,"likeCount":null,"sharedContent":null,"parent":{"__typename":"HnJson","localize":[{"title":"发推特 \"Memphis \"会自动锁定你的推特账号。","locale":"zh"},{"title":"發推特 \"Memphis \"會自動鎖定你的推特賬號。","locale":"zh-Hant"}]}},{"__typename":"SocialMediaPost","id":"HnPost-26455058","excerpt":"","slug":"/hn/26455058","title":"EBPFSnitch: An eBPF based Linux Application Firewall","date":"March 14, 2021","dateISO":"2021-03-14T18:27:36.480Z","datetime":"2021-03-14 18:27","tags":["story","Hacker News"],"image":null,"imageAlt":null,"provider":"Hacker News","thirdPartyId":"26455058","url":"https://news.ycombinator.com/item?id=26455058","originalUrl":"https://github.com/harporoeder/ebpfsnitch","imageRemote":"https://avatars.githubusercontent.com/u/41245426?s=400&v=4","video":null,"channel":null,"channelUrl":null,"author":"harporoeder","authorUrl":"https://news.ycombinator.com/user?id=harporoeder","authorImage":null,"authorSlug":null,"score":290,"views":null,"sharedCount":null,"likeCount":null,"sharedContent":null,"parent":{"__typename":"HnJson","localize":[{"title":"EBPFSnitch。一个基于eBPF的Linux应用防火墙","locale":"zh"},{"title":"EBPFSnitch。一個基於eBPF的Linux應用防火牆","locale":"zh-Hant"}]}},{"__typename":"SocialMediaPost","id":"HnPost-26448100","excerpt":"","slug":"/hn/26448100","title":"Fitting Cubic Bézier Curves","date":"March 14, 2021","dateISO":"2021-03-14T17:48:18.698Z","datetime":"2021-03-14 17:48","tags":["story","Hacker News"],"image":null,"imageAlt":null,"provider":"Hacker News","thirdPartyId":"26448100","url":"https://news.ycombinator.com/item?id=26448100","originalUrl":"https://raphlinus.github.io/curves/2021/03/11/bezier-fitting.html","imageRemote":"https://raphlinus.github.io/assets/cubic_bez_chord_norm.svg","video":null,"channel":null,"channelUrl":null,"author":"raphlinus","authorUrl":"https://news.ycombinator.com/user?id=raphlinus","authorImage":null,"authorSlug":null,"score":178,"views":null,"sharedCount":null,"likeCount":null,"sharedContent":null,"parent":{"__typename":"HnJson","localize":[{"title":"拟合立方贝兹尔曲线。","locale":"zh"},{"title":"擬合立方貝茲爾曲線。","locale":"zh-Hant"}]}},{"__typename":"SocialMediaPost","id":"HnPost-26454520","excerpt":"","slug":"/hn/26454520","title":"Hit Japanese app Crabhouse forced to change name on iOS","date":"March 14, 2021","dateISO":"2021-03-14T17:48:18.698Z","datetime":"2021-03-14 17:48","tags":["story","Hacker News"],"image":null,"imageAlt":null,"provider":"Hacker News","thirdPartyId":"26454520","url":"https://news.ycombinator.com/item?id=26454520","originalUrl":"https://japantoday.com/category/tech/hit-japanese-app-crabhouse-forced-to-change-name-on-ios","imageRemote":"https://japantoday-asset.scdn3.secure.raxcdn.com/img/store/6a/15/bbbb224a5259607ed5784950be55ea6ff265/Photo-2021-03-09-13-15-23.jpg","video":null,"channel":null,"channelUrl":null,"author":"edandersen","authorUrl":"https://news.ycombinator.com/user?id=edandersen","authorImage":null,"authorSlug":null,"score":224,"views":null,"sharedCount":null,"likeCount":null,"sharedContent":null,"parent":{"__typename":"HnJson","localize":[{"title":"日本热门应用Crabhouse在iOS上被迫改名","locale":"zh"},{"title":"日本熱門應用Crabhouse在iOS上被迫改名","locale":"zh-Hant"}]}},{"__typename":"SocialMediaPost","id":"HnPost-26455493","excerpt":"","slug":"/hn/26455493","title":"security.txt","date":"March 14, 2021","dateISO":"2021-03-14T17:48:18.698Z","datetime":"2021-03-14 17:48","tags":["story","Hacker News"],"image":null,"imageAlt":null,"provider":"Hacker News","thirdPartyId":"26455493","url":"https://news.ycombinator.com/item?id=26455493","originalUrl":"https://securitytxt.org/","imageRemote":"https://user-images.githubusercontent.com/18099289/38439741-1f302c68-39df-11e8-8626-78ff25934379.png","video":null,"channel":null,"channelUrl":null,"author":"tosh","authorUrl":"https://news.ycombinator.com/user?id=tosh","authorImage":null,"authorSlug":null,"score":744,"views":null,"sharedCount":null,"likeCount":null,"sharedContent":null,"parent":{"__typename":"HnJson","localize":[{"title":"security.txt","locale":"zh"},{"title":"security.txt","locale":"zh-Hant"}]}},{"__typename":"SocialMediaPost","id":"HnPost-26448901","excerpt":"","slug":"/hn/26448901","title":"Chomsky – The Machine, the Ghost and the Limits of Understanding (2012) [video]","date":"March 14, 2021","dateISO":"2021-03-14T17:17:43.396Z","datetime":"2021-03-14 17:17","tags":["story","Hacker News"],"image":null,"imageAlt":null,"provider":"Hacker News","thirdPartyId":"26448901","url":"https://news.ycombinator.com/item?id=26448901","originalUrl":"https://www.youtube.com/watch?v=D5in5EdjhD0","imageRemote":"https://i.ytimg.com/vi/D5in5EdjhD0/maxresdefault.jpg","video":null,"channel":null,"channelUrl":null,"author":"nsomaru","authorUrl":"https://news.ycombinator.com/user?id=nsomaru","authorImage":null,"authorSlug":null,"score":171,"views":null,"sharedCount":null,"likeCount":null,"sharedContent":null,"parent":{"__typename":"HnJson","localize":[{"title":"乔姆斯基--《机器、幽灵和理解的极限》(2012) [视频] 。","locale":"zh"},{"title":"喬姆斯基--《機器、幽靈和理解的極限》(2012) [視頻] 。","locale":"zh-Hant"}]}},{"__typename":"SocialMediaPost","id":"HnPost-26443792","excerpt":"","slug":"/hn/26443792","title":"Hubble Space Telescope is back online after software glitch","date":"March 14, 2021","dateISO":"2021-03-14T16:38:29.665Z","datetime":"2021-03-14 16:38","tags":["story","Hacker News"],"image":null,"imageAlt":null,"provider":"Hacker News","thirdPartyId":"26443792","url":"https://news.ycombinator.com/item?id=26443792","originalUrl":"https://www.space.com/hubble-space-telescope-recovers-from-glitch-march-2021","imageRemote":"https://cdn.mos.cms.futurecdn.net/JQben9ivaDxTtpeWNLAZQC-1200-80.jpg","video":null,"channel":null,"channelUrl":null,"author":"wglb","authorUrl":"https://news.ycombinator.com/user?id=wglb","authorImage":null,"authorSlug":null,"score":174,"views":null,"sharedCount":null,"likeCount":null,"sharedContent":null,"parent":{"__typename":"HnJson","localize":[{"title":"哈勃太空望远镜在软件故障后重新上线","locale":"zh"},{"title":"哈勃太空望遠鏡在軟件故障後重新上線","locale":"zh-Hant"}]}},{"__typename":"SocialMediaPost","id":"HnPost-26451540","excerpt":"","slug":"/hn/26451540","title":"Ask HN: Is Minix dead? No commits since 2018","date":"March 14, 2021","dateISO":"2021-03-14T09:21:22.681Z","datetime":"2021-03-14 09:21","tags":["story","ASK HN","Hacker News"],"image":null,"imageAlt":null,"provider":"Hacker News","thirdPartyId":"26451540","url":"https://news.ycombinator.com/item?id=26451540","originalUrl":"https://git.minix3.org/index.cgi?p=minix.git;a=summary","imageRemote":"https://git.minix3.org/static/git-logo.png","video":null,"channel":"ASK HN","channelUrl":"https://news.ycombinator.com/ask","author":"haunter","authorUrl":"https://news.ycombinator.com/user?id=haunter","authorImage":null,"authorSlug":null,"score":219,"views":null,"sharedCount":null,"likeCount":null,"sharedContent":null,"parent":{"__typename":"HnJson","localize":[{"title":"问HN：Minix死了吗？自2018年以来没有提交过","locale":"zh"},{"title":"問HN：Minix死了嗎？自2018年以來沒有提交過","locale":"zh-Hant"}]}},{"__typename":"SocialMediaPost","id":"HnPost-26447540","excerpt":"","slug":"/hn/26447540","title":"Federal investigators blast Tesla, call for stricter safety standards","date":"March 14, 2021","dateISO":"2021-03-14T07:45:49.249Z","datetime":"2021-03-14 07:45","tags":["story","Hacker News"],"image":null,"imageAlt":null,"provider":"Hacker News","thirdPartyId":"26447540","url":"https://news.ycombinator.com/item?id=26447540","originalUrl":"https://arstechnica.com/cars/2021/03/federal-investigators-blast-tesla-call-for-stricter-safety-standads/","imageRemote":"https://cdn.arstechnica.net/wp-content/uploads/2021/03/GettyImages-668940744-1-760x380.jpg","video":null,"channel":null,"channelUrl":null,"author":"AndrewDucker","authorUrl":"https://news.ycombinator.com/user?id=AndrewDucker","authorImage":null,"authorSlug":null,"score":202,"views":null,"sharedCount":null,"likeCount":null,"sharedContent":null,"parent":{"__typename":"HnJson","localize":[{"title":"联邦调查人员炮轰特斯拉，呼吁制定更严格的安全标准。","locale":"zh"},{"title":"聯邦調查人員炮轟特斯拉，呼籲制定更嚴格的安全標準。","locale":"zh-Hant"}]}},{"__typename":"SocialMediaPost","id":"HnPost-26452504","excerpt":"","slug":"/hn/26452504","title":"Reprojecting the Perseverance landing footage onto satellite imagery","date":"March 14, 2021","dateISO":"2021-03-14T07:34:52.341Z","datetime":"2021-03-14 07:34","tags":["story","Hacker News"],"image":null,"imageAlt":null,"provider":"Hacker News","thirdPartyId":"26452504","url":"https://news.ycombinator.com/item?id=26452504","originalUrl":"https://matthewearl.github.io/2021/03/06/mars2020-reproject/","imageRemote":"https://matthewearl.github.io/assets/mars2020-reproject/title.jpg","video":null,"channel":null,"channelUrl":null,"author":"bmease","authorUrl":"https://news.ycombinator.com/user?id=bmease","authorImage":null,"authorSlug":null,"score":629,"views":null,"sharedCount":null,"likeCount":null,"sharedContent":null,"parent":{"__typename":"HnJson","localize":[{"title":"将 \"锲而不舍 \"号着陆镜头重新投射到卫星图像上。","locale":"zh"},{"title":"將 \"鍥而不捨 \"號着陸鏡頭重新投射到衛星圖像上。","locale":"zh-Hant"}]}},{"__typename":"SocialMediaPost","id":"HnPost-26451894","excerpt":"","slug":"/hn/26451894","title":"I wrote one of the fastest DataFrame libraries","date":"March 14, 2021","dateISO":"2021-03-14T06:17:58.250Z","datetime":"2021-03-14 06:17","tags":["story","Hacker News"],"image":null,"imageAlt":null,"provider":"Hacker News","thirdPartyId":"26451894","url":"https://news.ycombinator.com/item?id=26451894","originalUrl":"https://www.ritchievink.com/blog/2021/02/28/i-wrote-one-of-the-fastest-dataframe-libraries/","imageRemote":"https://www.ritchievink.com/img/post-34-polars/polars.webp","video":null,"channel":null,"channelUrl":null,"author":"polyrand","authorUrl":"https://news.ycombinator.com/user?id=polyrand","authorImage":null,"authorSlug":null,"score":389,"views":null,"sharedCount":null,"likeCount":null,"sharedContent":null,"parent":{"__typename":"HnJson","localize":[{"title":"我写了一个最快的DataFrame库。","locale":"zh"},{"title":"我寫了一個最快的DataFrame庫。","locale":"zh-Hant"}]}},{"__typename":"SocialMediaPost","id":"HnPost-26449407","excerpt":"","slug":"/hn/26449407","title":"Understanding Coinbase","date":"March 14, 2021","dateISO":"2021-03-14T05:56:31.976Z","datetime":"2021-03-14 05:56","tags":["story","Hacker News"],"image":null,"imageAlt":null,"provider":"Hacker News","thirdPartyId":"26449407","url":"https://news.ycombinator.com/item?id=26449407","originalUrl":"https://diff.substack.com/p/understanding-coinbase","imageRemote":"https://cdn.substack.com/image/fetch/w_1200,c_limit,f_jpg,q_auto:good,fl_progressive:steep/https%3A%2F%2Fbucketeer-e05bbc84-baa3-437e-9518-adb32be77984.s3.amazonaws.com%2Fpublic%2Fimages%2F54c208c7-6775-4867-bcee-477772d76746_1234x778.jpeg","video":null,"channel":null,"channelUrl":null,"author":"jger15","authorUrl":"https://news.ycombinator.com/user?id=jger15","authorImage":null,"authorSlug":null,"score":198,"views":null,"sharedCount":null,"likeCount":null,"sharedContent":null,"parent":{"__typename":"HnJson","localize":[{"title":"了解Coinbase","locale":"zh"},{"title":"瞭解Coinbase","locale":"zh-Hant"}]}},{"__typename":"SocialMediaPost","id":"HnPost-26446685","excerpt":"","slug":"/hn/26446685","title":"An Object-Oriented Language for the '20s","date":"March 14, 2021","dateISO":"2021-03-14T05:49:47.595Z","datetime":"2021-03-14 05:49","tags":["story","Hacker News"],"image":null,"imageAlt":null,"provider":"Hacker News","thirdPartyId":"26446685","url":"https://news.ycombinator.com/item?id=26446685","originalUrl":"https://adam.nels.onl/blog/an-oo-languge-for-the-20s/","imageRemote":"https://adam.nels.onl/images/blog/a-small-price-to-pay.gif","video":null,"channel":null,"channelUrl":null,"author":"ar-nelson","authorUrl":"https://news.ycombinator.com/user?id=ar-nelson","authorImage":null,"authorSlug":null,"score":177,"views":null,"sharedCount":null,"likeCount":null,"sharedContent":null,"parent":{"__typename":"HnJson","localize":[{"title":"20年代的面向对象语言","locale":"zh"},{"title":"20年代的面嚮對象語言","locale":"zh-Hant"}]}},{"__typename":"SocialMediaPost","id":"HnPost-26436872","excerpt":"","slug":"/hn/26436872","title":"How Git servers work, and how to keep yours secure","date":"March 14, 2021","dateISO":"2021-03-14T04:41:51.604Z","datetime":"2021-03-14 04:41","tags":["story","Hacker News"],"image":null,"imageAlt":null,"provider":"Hacker News","thirdPartyId":"26436872","url":"https://news.ycombinator.com/item?id=26436872","originalUrl":"https://gemini.nytpu.com/gemlog/2021-03-07.gmi","imageRemote":null,"video":null,"channel":null,"channelUrl":null,"author":"danielg0","authorUrl":"https://news.ycombinator.com/user?id=danielg0","authorImage":null,"authorSlug":null,"score":166,"views":null,"sharedCount":null,"likeCount":null,"sharedContent":null,"parent":{"__typename":"HnJson","localize":[{"title":"Git服务器的工作原理，以及如何保证你的服务器的安全。","locale":"zh"},{"title":"Git服務器的工作原理，以及如何保證你的服務器的安全。","locale":"zh-Hant"}]}},{"__typename":"SocialMediaPost","id":"HnPost-26450096","excerpt":"","slug":"/hn/26450096","title":"Experimental Nintendo Switch Emulator written in C#","date":"March 14, 2021","dateISO":"2021-03-14T03:26:15.944Z","datetime":"2021-03-14 03:26","tags":["story","Hacker News"],"image":null,"imageAlt":null,"provider":"Hacker News","thirdPartyId":"26450096","url":"https://news.ycombinator.com/item?id=26450096","originalUrl":"https://github.com/Ryujinx/Ryujinx","imageRemote":"https://avatars.githubusercontent.com/u/39036280?s=400&v=4","video":null,"channel":null,"channelUrl":null,"author":"chwolfe","authorUrl":"https://news.ycombinator.com/user?id=chwolfe","authorImage":null,"authorSlug":null,"score":332,"views":null,"sharedCount":null,"likeCount":null,"sharedContent":null,"parent":{"__typename":"HnJson","localize":[{"title":"用C#编写的实验性任天堂Switch模拟器","locale":"zh"},{"title":"用C#編寫的實驗性任天堂Switch模擬器","locale":"zh-Hant"}]}},{"__typename":"SocialMediaPost","id":"HnPost-26449377","excerpt":"","slug":"/hn/26449377","title":"Vaccines should end the pandemic, despite the variants, say experts","date":"March 14, 2021","dateISO":"2021-03-14T01:22:04.203Z","datetime":"2021-03-14 01:22","tags":["story","Hacker News"],"image":null,"imageAlt":null,"provider":"Hacker News","thirdPartyId":"26449377","url":"https://news.ycombinator.com/item?id=26449377","originalUrl":"https://news.harvard.edu/gazette/story/2021/02/vaccines-should-end-the-pandemic-despite-the-variants-say-experts/","imageRemote":"https://news.harvard.edu/wp-content/uploads/2021/02/iStock-12168123691-945x630.jpg","video":null,"channel":null,"channelUrl":null,"author":"mrfusion","authorUrl":"https://news.ycombinator.com/user?id=mrfusion","authorImage":null,"authorSlug":null,"score":346,"views":null,"sharedCount":null,"likeCount":null,"sharedContent":null,"parent":{"__typename":"HnJson","localize":[{"title":"专家表示，尽管存在变异，但疫苗应该能终结这场大流行。","locale":"zh"},{"title":"專家表示，儘管存在變異，但疫苗應該能終結這場大流行。","locale":"zh-Hant"}]}}]}},"pageContext":{"basePath":"/","pageType":"tag","tag":"Hacker News","tagsFilter":{"id":{"glob":"!*Post-1"}},"filter":{"id":{"glob":"!*Post-1"},"tags":{"eq":"Hacker News"}},"limit":25,"skip":625,"total":3107,"totalPages":125,"currentPage":26,"maxWidth":1024,"maxHeight":512,"locale":"zh","hrefLang":"zh-Hans","originalPath":"/tags/hacker-news/page/26","dateFormat":"YYYY-MM-DD"}},"staticQueryHashes":["1239077767","2506312863","2744905544","3025052997","3493603132","3493603132","3513215887","386998304"]}