{"componentChunkName":"component---gatsby-theme-buzzing-src-gatsby-theme-timeline-templates-posts-query-js","path":"/ja/tags/story/page/114","result":{"data":{"site":{"siteMetadata":{"title":"Reddit 热门","description":"用中文浏览Reddit热门内容","social":[{"name":"Twitter","url":"https://twitter.com/gatsbyjs","external":null,"prefetch":null},{"name":"GitHub","url":"https://github.com/gatsbyjs","external":null,"prefetch":null}],"menuLinks":[],"localize":[{"locale":"en","title":"Buzzing on Reddit","description":"See what's buzzing on Reddit in your native language","social":[{"name":"Reddit","url":"https://www.reddit.com/","external":true,"prefetch":null}],"menuLinks":[{"name":"Weekly Selection","url":"/issues","external":null,"prefetch":null},{"name":"RSS","url":"/rss.xml","external":null,"prefetch":false}]},{"locale":"zh-Hant","title":"Reddit 熱門","description":"用中文瀏覽Reddit熱門內容","social":null,"menuLinks":null}]}},"tagsGroup":{"group":[{"fieldValue":"ASK HN","totalCount":54},{"fieldValue":"Hacker News","totalCount":3107},{"fieldValue":"Poll","totalCount":1},{"fieldValue":"Show HN","totalCount":100},{"fieldValue":"poll","totalCount":1},{"fieldValue":"story","totalCount":3106}]},"allBlogPost":{"nodes":[{"__typename":"SocialMediaPost","id":"HnPost-25503190","excerpt":"","slug":"/hn/25503190","title":"Suspicions grow that nanoparticles in Pfizer vaccine trigger allergic reactions","date":"December 23, 2020","dateISO":"2020-12-23T03:50:19.274Z","datetime":"2020-12-23 03:50","tags":["story","Hacker News"],"image":null,"imageAlt":null,"provider":"Hacker News","thirdPartyId":"25503190","url":"https://news.ycombinator.com/item?id=25503190","originalUrl":"https://www.sciencemag.org/news/2020/12/suspicions-grow-nanoparticles-pfizer-s-covid-19-vaccine-trigger-rare-allergic-reactions","imageRemote":"https://www.sciencemag.org/sites/default/files/styles/article_main_large/public/vaccine_1280p_3.jpg?itok=kXASrlTq","video":null,"channel":null,"channelUrl":null,"author":"longdefeat","authorUrl":"https://news.ycombinator.com/user?id=longdefeat","authorImage":null,"authorSlug":null,"score":104,"views":null,"sharedCount":null,"likeCount":null,"sharedContent":null,"parent":{"__typename":"HnJson","localize":[{"title":"越来越多的人怀疑辉瑞疫苗中的纳米颗粒会引发过敏反应","locale":"zh"},{"title":"越來越多的人懷疑輝瑞疫苗中的納米顆粒會引發過敏反應","locale":"zh-Hant"}]}},{"__typename":"SocialMediaPost","id":"HnPost-25509619","excerpt":"","slug":"/hn/25509619","title":"Mark Rober (former NASA) launches a 30 day Creative Engineering Class","date":"December 22, 2020","dateISO":"2020-12-22T23:32:46.873Z","datetime":"2020-12-22 23:32","tags":["story","Hacker News"],"image":null,"imageAlt":null,"provider":"Hacker News","thirdPartyId":"25509619","url":"https://news.ycombinator.com/item?id=25509619","originalUrl":"https://monthly.com/mark-rober-engineering","imageRemote":"https://d1b2grdnesao2u.cloudfront.net/homepage/OG_Meta.jpg","video":null,"channel":null,"channelUrl":null,"author":"O_H_E","authorUrl":"https://news.ycombinator.com/user?id=O_H_E","authorImage":null,"authorSlug":null,"score":134,"views":null,"sharedCount":null,"likeCount":null,"sharedContent":null,"parent":{"__typename":"HnJson","localize":[{"title":"马克·罗伯(前NASA)开设为期30天的创意工程班","locale":"zh"},{"title":"馬克·羅伯(前NASA)開設爲期30天的創意工程班","locale":"zh-Hant"}]}},{"__typename":"SocialMediaPost","id":"HnPost-25510945","excerpt":"","slug":"/hn/25510945","title":"SEC Charges Ripple with Conducting $1.3B Unregistered Securities Offering","date":"December 22, 2020","dateISO":"2020-12-22T22:37:32.292Z","datetime":"2020-12-22 22:37","tags":["story","Hacker News"],"image":null,"imageAlt":null,"provider":"Hacker News","thirdPartyId":"25510945","url":"https://news.ycombinator.com/item?id=25510945","originalUrl":"https://www.sec.gov/news/press-release/2020-338","imageRemote":"https://www.sec.gov/files/sec-logo.png","video":null,"channel":null,"channelUrl":null,"author":"tempsy","authorUrl":"https://news.ycombinator.com/user?id=tempsy","authorImage":null,"authorSlug":null,"score":356,"views":null,"sharedCount":null,"likeCount":null,"sharedContent":null,"parent":{"__typename":"HnJson","localize":[{"title":"SEC指控Ripple进行13亿美元的未注册证券发行","locale":"zh"},{"title":"SEC指控Ripple進行13億美元的未註冊證券發行","locale":"zh-Hant"}]}},{"__typename":"SocialMediaPost","id":"HnPost-25511073","excerpt":"","slug":"/hn/25511073","title":"V(vlang) 0.2 Is Out","date":"December 22, 2020","dateISO":"2020-12-22T22:37:32.292Z","datetime":"2020-12-22 22:37","tags":["story","Hacker News"],"image":null,"imageAlt":null,"provider":"Hacker News","thirdPartyId":"25511073","url":"https://news.ycombinator.com/item?id=25511073","originalUrl":"https://github.com/vlang/v/discussions/7474","imageRemote":"https://github.com/opengraph.png","video":null,"channel":null,"channelUrl":null,"author":"theBashShell","authorUrl":"https://news.ycombinator.com/user?id=theBashShell","authorImage":null,"authorSlug":null,"score":247,"views":null,"sharedCount":null,"likeCount":null,"sharedContent":null,"parent":{"__typename":"HnJson","localize":[{"title":"V(Vlang)0.2不在","locale":"zh"},{"title":"V(Vlang)0.2不在","locale":"zh-Hant"}]}},{"__typename":"SocialMediaPost","id":"HnPost-25507627","excerpt":"","slug":"/hn/25507627","title":"Claude Shannon Invented the Future","date":"December 22, 2020","dateISO":"2020-12-22T21:48:23.695Z","datetime":"2020-12-22 21:48","tags":["story","Hacker News"],"image":null,"imageAlt":null,"provider":"Hacker News","thirdPartyId":"25507627","url":"https://news.ycombinator.com/item?id=25507627","originalUrl":"https://www.quantamagazine.org/how-claude-shannons-information-theory-invented-the-future-20201222/","imageRemote":"https://d2r55xnwy6nx47.cloudfront.net/uploads/2020/12/Claude-Shannon_1200_social.jpg","video":null,"channel":null,"channelUrl":null,"author":"theafh","authorUrl":"https://news.ycombinator.com/user?id=theafh","authorImage":null,"authorSlug":null,"score":258,"views":null,"sharedCount":null,"likeCount":null,"sharedContent":null,"parent":{"__typename":"HnJson","localize":[{"title":"克劳德·香农创造了未来","locale":"zh"},{"title":"克勞德·香農創造了未來","locale":"zh-Hant"}]}},{"__typename":"SocialMediaPost","id":"HnPost-25510979","excerpt":"","slug":"/hn/25510979","title":"SEC formally sues cryptocurrency company Ripple","date":"December 22, 2020","dateISO":"2020-12-22T21:48:23.695Z","datetime":"2020-12-22 21:48","tags":["story","Hacker News"],"image":null,"imageAlt":null,"provider":"Hacker News","thirdPartyId":"25510979","url":"https://news.ycombinator.com/item?id=25510979","originalUrl":"https://www.axios.com/sec-formally-sues-cryptocurrency-company-ripple-83bfed3a-60dd-45d2-ae67-35431676f957.html","imageRemote":"https://images.axios.com/YIgVIQtJUwMpkaDbpoB40wfbdKo=/0x0:1920x1080/1366x768/2020/12/22/1608670152896.jpg","video":null,"channel":null,"channelUrl":null,"author":"coloneltcb","authorUrl":"https://news.ycombinator.com/user?id=coloneltcb","authorImage":null,"authorSlug":null,"score":239,"views":null,"sharedCount":null,"likeCount":null,"sharedContent":null,"parent":{"__typename":"HnJson","localize":[{"title":"SEC正式起诉加密货币公司Ripple","locale":"zh"},{"title":"SEC正式起訴加密貨幣公司Ripple","locale":"zh-Hant"}]}},{"__typename":"SocialMediaPost","id":"HnPost-25509265","excerpt":"","slug":"/hn/25509265","title":"WiFi 6 gets 1.34 Gbps on the Raspberry Pi CM4","date":"December 22, 2020","dateISO":"2020-12-22T21:27:14.051Z","datetime":"2020-12-22 21:27","tags":["story","Hacker News"],"image":null,"imageAlt":null,"provider":"Hacker News","thirdPartyId":"25509265","url":"https://news.ycombinator.com/item?id=25509265","originalUrl":"https://www.jeffgeerling.com/blog/2020/wifi-6-gets-134-gbps-on-raspberry-pi-cm4","imageRemote":"https://www.jeffgeerling.com/sites/default/files/images/edup-in-raspberry-pi-wifi-6-compute-module-4-pcie-io-board.jpeg","video":null,"channel":null,"channelUrl":null,"author":"geerlingguy","authorUrl":"https://news.ycombinator.com/user?id=geerlingguy","authorImage":null,"authorSlug":null,"score":311,"views":null,"sharedCount":null,"likeCount":null,"sharedContent":null,"parent":{"__typename":"HnJson","localize":[{"title":"WiFi 6在Raspberry Pi CM4上获得1.34 Gbps","locale":"zh"},{"title":"WiFi 6在Raspberry Pi CM4上獲得1.34 Gbps","locale":"zh-Hant"}]}},{"__typename":"SocialMediaPost","id":"HnPost-25510351","excerpt":"","slug":"/hn/25510351","title":"A janitor making $4/hr walked into a Fortune 500 company boardroom","date":"December 22, 2020","dateISO":"2020-12-22T21:27:14.051Z","datetime":"2020-12-22 21:27","tags":["story","Hacker News"],"image":null,"imageAlt":null,"provider":"Hacker News","thirdPartyId":"25510351","url":"https://news.ycombinator.com/item?id=25510351","originalUrl":"https://twitter.com/ankithharathi/status/1341193051184611331","imageRemote":null,"video":null,"channel":null,"channelUrl":null,"author":"80mph","authorUrl":"https://news.ycombinator.com/user?id=80mph","authorImage":null,"authorSlug":null,"score":406,"views":null,"sharedCount":null,"likeCount":null,"sharedContent":null,"parent":{"__typename":"HnJson","localize":[{"title":"一名时薪4美元的看门人走进一家财富500强公司的董事会会议室。","locale":"zh"},{"title":"一名時薪4美元的看門人走進一家財富500強公司的董事會會議室。","locale":"zh-Hant"}]}},{"__typename":"SocialMediaPost","id":"HnPost-25510562","excerpt":"","slug":"/hn/25510562","title":"U.S. approves NYSE listing plan to cut out Wall Street middlemen","date":"December 22, 2020","dateISO":"2020-12-22T21:27:14.051Z","datetime":"2020-12-22 21:27","tags":["story","Hacker News"],"image":null,"imageAlt":null,"provider":"Hacker News","thirdPartyId":"25510562","url":"https://news.ycombinator.com/item?id=25510562","originalUrl":"https://www.reuters.com/article/us-usa-sec-nyse/u-s-approves-nyse-listing-plan-to-cut-out-wall-street-middlemen-idUSKBN28W2D4","imageRemote":"https://static.reuters.com/resources/r/?m=02&d=20201223&t=2&i=1545506016&r=LYNXMPEGBL1EK&w=800","video":null,"channel":null,"channelUrl":null,"author":"pseudolus","authorUrl":"https://news.ycombinator.com/user?id=pseudolus","authorImage":null,"authorSlug":null,"score":521,"views":null,"sharedCount":null,"likeCount":null,"sharedContent":null,"parent":{"__typename":"HnJson","localize":[{"title":"美国批准纽约证交所上市计划以剔除华尔街中间商","locale":"zh"},{"title":"美國批准紐約證交所上市計劃以剔除華爾街中間商","locale":"zh-Hant"}]}},{"__typename":"SocialMediaPost","id":"HnPost-25508777","excerpt":"","slug":"/hn/25508777","title":"What Does Privacy Mean Under Surveillance Capitalism?","date":"December 22, 2020","dateISO":"2020-12-22T20:49:44.232Z","datetime":"2020-12-22 20:49","tags":["story","Hacker News"],"image":null,"imageAlt":null,"provider":"Hacker News","thirdPartyId":"25508777","url":"https://news.ycombinator.com/item?id=25508777","originalUrl":"https://lithub.com/what-does-privacy-really-mean-under-surveillance-capitalism/","imageRemote":"https://lithub.com/wp-content/uploads/2020/09/surveillance.jpg","video":null,"channel":null,"channelUrl":null,"author":"freddyym","authorUrl":"https://news.ycombinator.com/user?id=freddyym","authorImage":null,"authorSlug":null,"score":242,"views":null,"sharedCount":null,"likeCount":null,"sharedContent":null,"parent":{"__typename":"HnJson","localize":[{"title":"在监视资本主义下，隐私意味着什么？","locale":"zh"},{"title":"在監視資本主義下，隱私意味着什麼？","locale":"zh-Hant"}]}},{"__typename":"SocialMediaPost","id":"HnPost-25506371","excerpt":"","slug":"/hn/25506371","title":"You Should Write a User Guide","date":"December 22, 2020","dateISO":"2020-12-22T20:29:45.063Z","datetime":"2020-12-22 20:29","tags":["story","Hacker News"],"image":null,"imageAlt":null,"provider":"Hacker News","thirdPartyId":"25506371","url":"https://news.ycombinator.com/item?id=25506371","originalUrl":"https://boringstartupstuff.com/newsletter/dec-22nd-2020-write-a-user-guide","imageRemote":"https://boringstartupstuff.comhttps://cdn.buttercms.com/aTVVdqU8Qm6LDym8h0q6","video":null,"channel":null,"channelUrl":null,"author":"opsgal","authorUrl":"https://news.ycombinator.com/user?id=opsgal","authorImage":null,"authorSlug":null,"score":143,"views":null,"sharedCount":null,"likeCount":null,"sharedContent":null,"parent":{"__typename":"HnJson","localize":[{"title":"你应该写一本用户指南","locale":"zh"},{"title":"你應該寫一本用戶指南","locale":"zh-Hant"}]}},{"__typename":"SocialMediaPost","id":"HnPost-25507413","excerpt":"","slug":"/hn/25507413","title":"Should you Work Hard? (2019)","date":"December 22, 2020","dateISO":"2020-12-22T20:29:45.063Z","datetime":"2020-12-22 20:29","tags":["story","Hacker News"],"image":null,"imageAlt":null,"provider":"Hacker News","thirdPartyId":"25507413","url":"https://news.ycombinator.com/item?id=25507413","originalUrl":"https://jacobobryant.com/post/2019/alignment/","imageRemote":"https://jacobobryant.com/img/main_square.jpg","video":null,"channel":null,"channelUrl":null,"author":"axiomdata316","authorUrl":"https://news.ycombinator.com/user?id=axiomdata316","authorImage":null,"authorSlug":null,"score":107,"views":null,"sharedCount":null,"likeCount":null,"sharedContent":null,"parent":{"__typename":"HnJson","localize":[{"title":"你应该努力工作吗？(2019年)","locale":"zh"},{"title":"你應該努力工作嗎？(2019年)","locale":"zh-Hant"}]}},{"__typename":"SocialMediaPost","id":"HnPost-25508394","excerpt":"","slug":"/hn/25508394","title":"Tibor Gánti may have found the key to the origins of life","date":"December 22, 2020","dateISO":"2020-12-22T20:29:45.063Z","datetime":"2020-12-22 20:29","tags":["story","Hacker News"],"image":null,"imageAlt":null,"provider":"Hacker News","thirdPartyId":"25508394","url":"https://news.ycombinator.com/item?id=25508394","originalUrl":"https://www.nationalgeographic.com/science/2020/12/he-may-have-found-the-key-to-origins-of-life-tibor-ganti-chemoton","imageRemote":"https://www.nationalgeographic.com/content/dam/science/2020/12/08/-Tibor-Ganti/og-gantitibor-gulyaslaszlo.ngsversion.1607628120228.adapt.1900.1.jpg","video":null,"channel":null,"channelUrl":null,"author":"BlanketLogic","authorUrl":"https://news.ycombinator.com/user?id=BlanketLogic","authorImage":null,"authorSlug":null,"score":205,"views":null,"sharedCount":null,"likeCount":null,"sharedContent":null,"parent":{"__typename":"HnJson","localize":[{"title":"Tibor GáNTi可能已经找到了生命起源的钥匙","locale":"zh"},{"title":"Tibor GáNTi可能已經找到了生命起源的鑰匙","locale":"zh-Hant"}]}},{"__typename":"SocialMediaPost","id":"HnPost-25502828","excerpt":"","slug":"/hn/25502828","title":"This Community is Available in the App","date":"December 22, 2020","dateISO":"2020-12-22T19:49:44.595Z","datetime":"2020-12-22 19:49","tags":["story","Hacker News"],"image":null,"imageAlt":null,"provider":"Hacker News","thirdPartyId":"25502828","url":"https://news.ycombinator.com/item?id=25502828","originalUrl":"https://ruky.me/2020/12/22/this-community-is-available-in-the-app/","imageRemote":"https://ruky.me/wp-content/uploads/2020/12/15A7DE22-2C11-4D5A-A2EE-9CCE51B929B5.jpeg","video":null,"channel":null,"channelUrl":null,"author":"rukshn","authorUrl":"https://news.ycombinator.com/user?id=rukshn","authorImage":null,"authorSlug":null,"score":111,"views":null,"sharedCount":null,"likeCount":null,"sharedContent":null,"parent":{"__typename":"HnJson","localize":[{"title":"此社区在应用程序中可用","locale":"zh"},{"title":"此社區在應用程序中可用","locale":"zh-Hant"}]}},{"__typename":"SocialMediaPost","id":"HnPost-25508782","excerpt":"","slug":"/hn/25508782","title":"Nintendo “stalked” hackers with private investigators, coercing into settlements","date":"December 22, 2020","dateISO":"2020-12-22T19:32:18.724Z","datetime":"2020-12-22 19:32","tags":["story","Hacker News"],"image":null,"imageAlt":null,"provider":"Hacker News","thirdPartyId":"25508782","url":"https://news.ycombinator.com/item?id=25508782","originalUrl":"https://twitter.com/forestillusion/status/1341222991619792897","imageRemote":null,"video":null,"channel":null,"channelUrl":null,"author":"meibo","authorUrl":"https://news.ycombinator.com/user?id=meibo","authorImage":null,"authorSlug":null,"score":274,"views":null,"sharedCount":null,"likeCount":null,"sharedContent":null,"parent":{"__typename":"HnJson","localize":[{"title":"任天堂带着私家侦探“跟踪”黑客，强行达成和解","locale":"zh"},{"title":"任天堂帶着私家偵探“跟蹤”黑客，強行達成和解","locale":"zh-Hant"}]}},{"__typename":"SocialMediaPost","id":"HnPost-25506593","excerpt":"","slug":"/hn/25506593","title":"Ask HN: Co-founder wants me to leave but won't entertain a buy out offer","date":"December 22, 2020","dateISO":"2020-12-22T19:06:11.852Z","datetime":"2020-12-22 19:06","tags":["story","ASK HN","Hacker News"],"image":null,"imageAlt":null,"provider":"Hacker News","thirdPartyId":"25506593","url":"https://news.ycombinator.com/item?id=25506593","originalUrl":"https://news.ycombinator.com/item?id=25506593","imageRemote":null,"video":null,"channel":"ASK HN","channelUrl":"https://news.ycombinator.com/ask","author":"fortydegrees","authorUrl":"https://news.ycombinator.com/user?id=fortydegrees","authorImage":null,"authorSlug":null,"score":399,"views":null,"sharedCount":null,"likeCount":null,"sharedContent":null,"parent":{"__typename":"HnJson","localize":[{"title":"HN提问：联合创始人希望我离开，但不会考虑收购要约","locale":"zh"},{"title":"HN提問：聯合創始人希望我離開，但不會考慮收購要約","locale":"zh-Hant"}]}},{"__typename":"SocialMediaPost","id":"HnPost-25494583","excerpt":"","slug":"/hn/25494583","title":"Underwater Roundabout in the Faroe Islands","date":"December 22, 2020","dateISO":"2020-12-22T18:13:08.961Z","datetime":"2020-12-22 18:13","tags":["story","Hacker News"],"image":null,"imageAlt":null,"provider":"Hacker News","thirdPartyId":"25494583","url":"https://news.ycombinator.com/item?id=25494583","originalUrl":"https://www.bbc.com/news/world-europe-55195390","imageRemote":"https://ichef.bbci.co.uk/news/1024/branded_news/13394/production/_115804787_30nov20_75a6676.jpg","video":null,"channel":null,"channelUrl":null,"author":"lqet","authorUrl":"https://news.ycombinator.com/user?id=lqet","authorImage":null,"authorSlug":null,"score":156,"views":null,"sharedCount":null,"likeCount":null,"sharedContent":null,"parent":{"__typename":"HnJson","localize":[{"title":"法罗群岛的水下环岛","locale":"zh"},{"title":"法羅羣島的水下環島","locale":"zh-Hant"}]}},{"__typename":"SocialMediaPost","id":"HnPost-25504641","excerpt":"","slug":"/hn/25504641","title":"Why FSF Endorsing PureOS Matters","date":"December 22, 2020","dateISO":"2020-12-22T18:13:08.961Z","datetime":"2020-12-22 18:13","tags":["story","Hacker News"],"image":null,"imageAlt":null,"provider":"Hacker News","thirdPartyId":"25504641","url":"https://news.ycombinator.com/item?id=25504641","originalUrl":"https://puri.sm/posts/why-fsf-endorsing-pureos-matters/","imageRemote":"https://puri.sm/wp-content/uploads/2019/01/es-graphic04.jpg","video":null,"channel":null,"channelUrl":null,"author":"fsflover","authorUrl":"https://news.ycombinator.com/user?id=fsflover","authorImage":null,"authorSlug":null,"score":161,"views":null,"sharedCount":null,"likeCount":null,"sharedContent":null,"parent":{"__typename":"HnJson","localize":[{"title":"为什么FSF认可PureOS很重要","locale":"zh"},{"title":"爲什麼FSF認可PureOS很重要","locale":"zh-Hant"}]}},{"__typename":"SocialMediaPost","id":"HnPost-25504819","excerpt":"","slug":"/hn/25504819","title":"Thai baby elephant hit by motorcycle survives after receiving CPR","date":"December 22, 2020","dateISO":"2020-12-22T16:50:15.788Z","datetime":"2020-12-22 16:50","tags":["story","Hacker News"],"image":null,"imageAlt":null,"provider":"Hacker News","thirdPartyId":"25504819","url":"https://news.ycombinator.com/item?id=25504819","originalUrl":"https://www.reuters.com/article/us-thailand-accident-baby-elephant/thai-baby-elephant-hit-by-motorcycle-survives-after-receiving-cpr-idUSKBN28V1J8","imageRemote":"https://s1.reutersmedia.net/resources_v2/images/rcom-default.png?w=800","video":null,"channel":null,"channelUrl":null,"author":"billyharris","authorUrl":"https://news.ycombinator.com/user?id=billyharris","authorImage":null,"authorSlug":null,"score":111,"views":null,"sharedCount":null,"likeCount":null,"sharedContent":null,"parent":{"__typename":"HnJson","localize":[{"title":"被摩托车撞到的泰国小象在接受心肺复苏术后幸存下来","locale":"zh"},{"title":"被摩托車撞到的泰國小象在接受心肺復甦術後倖存下來","locale":"zh-Hant"}]}},{"__typename":"SocialMediaPost","id":"HnPost-25505874","excerpt":"","slug":"/hn/25505874","title":"Microsoft and Google join Facebook’s legal battle against NSO","date":"December 22, 2020","dateISO":"2020-12-22T16:50:15.788Z","datetime":"2020-12-22 16:50","tags":["story","Hacker News"],"image":null,"imageAlt":null,"provider":"Hacker News","thirdPartyId":"25505874","url":"https://news.ycombinator.com/item?id=25505874","originalUrl":"https://venturebeat.com/2020/12/22/microsoft-and-google-join-facebooks-legal-battle-against-hacking-company-nso/","imageRemote":"https://venturebeat.com/wp-content/uploads/2019/11/microsoft-1-e1580261336710.jpg?w=1200&strip=all","video":null,"channel":null,"channelUrl":null,"author":"KoftaBob","authorUrl":"https://news.ycombinator.com/user?id=KoftaBob","authorImage":null,"authorSlug":null,"score":180,"views":null,"sharedCount":null,"likeCount":null,"sharedContent":null,"parent":{"__typename":"HnJson","localize":[{"title":"微软和谷歌加入Facebook对NSO的法律战","locale":"zh"},{"title":"微軟和谷歌加入Facebook對NSO的法律戰","locale":"zh-Hant"}]}},{"__typename":"SocialMediaPost","id":"HnPost-25506007","excerpt":"","slug":"/hn/25506007","title":"2k Parents Demand Major Academic Publisher Drop Proctorio Surveillance Tech","date":"December 22, 2020","dateISO":"2020-12-22T16:50:15.788Z","datetime":"2020-12-22 16:50","tags":["story","Hacker News"],"image":null,"imageAlt":null,"provider":"Hacker News","thirdPartyId":"25506007","url":"https://news.ycombinator.com/item?id=25506007","originalUrl":"https://www.vice.com/en/article/88am8k/2000-parents-demand-major-academic-publisher-drop-proctorio-surveillance-tech","imageRemote":"https://video-images.vice.com/articles/5fdd22976819ad009684c617/lede/1608328081225-gettyimages-1230151269.jpeg?image-resize-opts=Y3JvcD0xeHc6MC44NzV4aDsweHcsMC4wODR4aCZyZXNpemU9MTIwMDoqJnJlc2l6ZT0xMjAwOio","video":null,"channel":null,"channelUrl":null,"author":"elsewhen","authorUrl":"https://news.ycombinator.com/user?id=elsewhen","authorImage":null,"authorSlug":null,"score":258,"views":null,"sharedCount":null,"likeCount":null,"sharedContent":null,"parent":{"__typename":"HnJson","localize":[{"title":"2000名家长要求主要学术出版商Drop Proctorio监视技术","locale":"zh"},{"title":"2000名家長要求主要學術出版商Drop Proctorio監視技術","locale":"zh-Hant"}]}},{"__typename":"SocialMediaPost","id":"HnPost-25505735","excerpt":"","slug":"/hn/25505735","title":"Bare-Metal Kubernetes with K3s","date":"December 22, 2020","dateISO":"2020-12-22T15:59:02.492Z","datetime":"2020-12-22 15:59","tags":["story","Hacker News"],"image":null,"imageAlt":null,"provider":"Hacker News","thirdPartyId":"25505735","url":"https://news.ycombinator.com/item?id=25505735","originalUrl":"https://blog.alexellis.io/bare-metal-kubernetes-with-k3s/","imageRemote":"https://blog.alexellis.io/content/images/2020/12/bare-metal-background.jpg","video":null,"channel":null,"channelUrl":null,"author":"alexellisuk","authorUrl":"https://news.ycombinator.com/user?id=alexellisuk","authorImage":null,"authorSlug":null,"score":189,"views":null,"sharedCount":null,"likeCount":null,"sharedContent":null,"parent":{"__typename":"HnJson","localize":[{"title":"带K3的裸机Kubernetes","locale":"zh"},{"title":"帶K3的裸機Kubernetes","locale":"zh-Hant"}]}},{"__typename":"SocialMediaPost","id":"HnPost-25506998","excerpt":"","slug":"/hn/25506998","title":"Illegal Streaming to be a felony soon","date":"December 22, 2020","dateISO":"2020-12-22T15:59:02.492Z","datetime":"2020-12-22 15:59","tags":["story","Hacker News"],"image":null,"imageAlt":null,"provider":"Hacker News","thirdPartyId":"25506998","url":"https://news.ycombinator.com/item?id=25506998","originalUrl":"https://www.tillis.senate.gov/2020/12/tillis-releases-text-of-bipartisan-legislation-to-fight-illegal-streaming-by-criminal-organizations","imageRemote":"https://www.tillis.senate.gov/services/images/177AD974-2828-450B-A4E8-3C772246B3DB/social","video":null,"channel":null,"channelUrl":null,"author":"totaldude87","authorUrl":"https://news.ycombinator.com/user?id=totaldude87","authorImage":null,"authorSlug":null,"score":525,"views":null,"sharedCount":null,"likeCount":null,"sharedContent":null,"parent":{"__typename":"HnJson","localize":[{"title":"非法流媒体很快将成为重罪","locale":"zh"},{"title":"非法流媒體很快將成爲重罪","locale":"zh-Hant"}]}},{"__typename":"SocialMediaPost","id":"HnPost-25505108","excerpt":"","slug":"/hn/25505108","title":"Microplastics found in the placentas of human fetuses","date":"December 22, 2020","dateISO":"2020-12-22T15:36:12.091Z","datetime":"2020-12-22 15:36","tags":["story","Hacker News"],"image":null,"imageAlt":null,"provider":"Hacker News","thirdPartyId":"25505108","url":"https://news.ycombinator.com/item?id=25505108","originalUrl":"https://www.theguardian.com/environment/2020/dec/22/microplastics-revealed-in-placentas-unborn-babies","imageRemote":"https://i.guim.co.uk/img/media/294635653dcf9c2e923a9f7a8d2c9eedf0344587/0_220_4199_2519/master/4199.jpg?width=1200&height=630&quality=85&auto=format&fit=crop&overlay-align=bottom%2Cleft&overlay-width=100p&overlay-base64=L2ltZy9zdGF0aWMvb3ZlcmxheXMvdGctZGVmYXVsdC5wbmc&enable=upscale&s=6ce15dc3fc4d81eee304a8639d5cf5d8","video":null,"channel":null,"channelUrl":null,"author":"samizdis","authorUrl":"https://news.ycombinator.com/user?id=samizdis","authorImage":null,"authorSlug":null,"score":207,"views":null,"sharedCount":null,"likeCount":null,"sharedContent":null,"parent":{"__typename":"HnJson","localize":[{"title":"在人类胎儿胎盘中发现的微塑料","locale":"zh"},{"title":"在人類胎兒胎盤中發現的微塑料","locale":"zh-Hant"}]}},{"__typename":"SocialMediaPost","id":"HnPost-25503210","excerpt":"","slug":"/hn/25503210","title":"Google, Facebook Agreed to Team Up Against Possible Antitrust Action","date":"December 22, 2020","dateISO":"2020-12-22T11:58:25.596Z","datetime":"2020-12-22 11:58","tags":["story","Hacker News"],"image":null,"imageAlt":null,"provider":"Hacker News","thirdPartyId":"25503210","url":"https://news.ycombinator.com/item?id=25503210","originalUrl":"https://www.wsj.com/articles/google-facebook-agreed-to-team-up-against-possible-antitrust-action-draft-lawsuit-says-11608612219","imageRemote":"https://images.wsj.net/im-276581/social","video":null,"channel":null,"channelUrl":null,"author":"Despegar","authorUrl":"https://news.ycombinator.com/user?id=Despegar","authorImage":null,"authorSlug":null,"score":213,"views":null,"sharedCount":null,"likeCount":null,"sharedContent":null,"parent":{"__typename":"HnJson","localize":[{"title":"谷歌，Facebook同意联手对抗可能的反垄断行动","locale":"zh"},{"title":"谷歌，Facebook同意聯手對抗可能的反壟斷行動","locale":"zh-Hant"}]}}]}},"pageContext":{"basePath":"/","pageType":"tag","tag":"story","tagsFilter":{"id":{"glob":"!*Post-1"}},"filter":{"id":{"glob":"!*Post-1"},"tags":{"eq":"story"}},"limit":25,"skip":2825,"total":3106,"totalPages":125,"currentPage":114,"maxWidth":1024,"maxHeight":512,"locale":"ja","hrefLang":"ja-JA","originalPath":"/tags/story/page/114","dateFormat":"YYYY-MM-DD"}},"staticQueryHashes":["1239077767","2506312863","2744905544","3025052997","3493603132","3493603132","3513215887","386998304"]}