{"componentChunkName":"component---gatsby-theme-buzzing-src-gatsby-theme-timeline-templates-posts-query-js","path":"/tags/story/page/47","result":{"data":{"site":{"siteMetadata":{"title":"Reddit 热门","description":"用中文浏览Reddit热门内容","social":[{"name":"Twitter","url":"https://twitter.com/gatsbyjs","external":null,"prefetch":null},{"name":"GitHub","url":"https://github.com/gatsbyjs","external":null,"prefetch":null}],"menuLinks":[],"localize":[{"locale":"en","title":"Buzzing on Reddit","description":"See what's buzzing on Reddit in your native language","social":[{"name":"Reddit","url":"https://www.reddit.com/","external":true,"prefetch":null}],"menuLinks":[{"name":"Weekly Selection","url":"/issues","external":null,"prefetch":null},{"name":"RSS","url":"/rss.xml","external":null,"prefetch":false}]},{"locale":"zh-Hant","title":"Reddit 熱門","description":"用中文瀏覽Reddit熱門內容","social":null,"menuLinks":null}]}},"tagsGroup":{"group":[{"fieldValue":"ASK HN","totalCount":44},{"fieldValue":"Bitcoin","totalCount":4},{"fieldValue":"Hacker News","totalCount":2600},{"fieldValue":"Poll","totalCount":1},{"fieldValue":"SaveAMC","totalCount":1},{"fieldValue":"Show HN","totalCount":89},{"fieldValue":"bitcoin","totalCount":3},{"fieldValue":"investing","totalCount":797},{"fieldValue":"poll","totalCount":1},{"fieldValue":"reddit","totalCount":4938},{"fieldValue":"science","totalCount":1},{"fieldValue":"stocks","totalCount":1592},{"fieldValue":"story","totalCount":2599},{"fieldValue":"tweet","totalCount":814},{"fieldValue":"wallstreetbets","totalCount":2549}]},"allBlogPost":{"nodes":[{"__typename":"SocialMediaPost","id":"HnPost-26002543","excerpt":"","slug":"/hn/26002543","title":"Behaviours to avoid in a software architecture role","date":"February 03, 2021","dateISO":"2021-02-03T02:47:21.581Z","datetime":"2021-02-03 02:47","tags":["story","Hacker News"],"image":null,"imageAlt":null,"provider":"Hacker News","thirdPartyId":"26002543","url":"https://news.ycombinator.com/item?id=26002543","originalUrl":"https://www.danielwatts.info/post/7-behaviours-to-avoid-software-architect/","imageRemote":null,"video":null,"channel":null,"channelUrl":null,"author":"geidies","authorUrl":"https://news.ycombinator.com/user?id=geidies","authorImage":null,"authorSlug":null,"score":222,"views":null,"sharedCount":null,"likeCount":null,"sharedContent":null,"parent":{"__typename":"HnJson","localize":[{"title":"在软件架构角色中应避免的行为","locale":"zh"},{"title":"在軟件架構角色中應避免的行爲","locale":"zh-Hant"}]}},{"__typename":"SocialMediaPost","id":"HnPost-26005457","excerpt":"","slug":"/hn/26005457","title":"It’s Time for Real Time Settlement","date":"February 03, 2021","dateISO":"2021-02-03T00:39:46.242Z","datetime":"2021-02-03 00:39","tags":["story","Hacker News"],"image":null,"imageAlt":null,"provider":"Hacker News","thirdPartyId":"26005457","url":"https://news.ycombinator.com/item?id=26005457","originalUrl":"https://blog.robinhood.com/news/2021/2/2/its-time-for-real-time-settlement","imageRemote":"http://static1.squarespace.com/static/53fe4a70e4b0a2293ab0e42a/t/6019a60fa906ed11f2fde67e/1612293655012/blog_01.png?format=1500w","video":null,"channel":null,"channelUrl":null,"author":"marc__1","authorUrl":"https://news.ycombinator.com/user?id=marc__1","authorImage":null,"authorSlug":null,"score":254,"views":null,"sharedCount":null,"likeCount":null,"sharedContent":null,"parent":{"__typename":"HnJson","localize":[{"title":"是时候进行实时结算了","locale":"zh"},{"title":"是時候進行實時結算了","locale":"zh-Hant"}]}},{"__typename":"SocialMediaPost","id":"HnPost-26006271","excerpt":"","slug":"/hn/26006271","title":"SpaceX SN9 Explodes on Landing","date":"February 02, 2021","dateISO":"2021-02-02T22:51:23.459Z","datetime":"2021-02-02 22:51","tags":["story","Hacker News"],"image":null,"imageAlt":null,"provider":"Hacker News","thirdPartyId":"26006271","url":"https://news.ycombinator.com/item?id=26006271","originalUrl":"https://twitter.com/SpaceX/status/1356699321840721920","imageRemote":null,"video":null,"channel":null,"channelUrl":null,"author":"beervirus","authorUrl":"https://news.ycombinator.com/user?id=beervirus","authorImage":null,"authorSlug":null,"score":325,"views":null,"sharedCount":null,"likeCount":null,"sharedContent":null,"parent":{"__typename":"HnJson","localize":[{"title":"SpaceX SN9在降落时发生爆炸","locale":"zh"},{"title":"SpaceX SN9在降落時發生爆炸","locale":"zh-Hant"}]}},{"__typename":"SocialMediaPost","id":"HnPost-25985311","excerpt":"","slug":"/hn/25985311","title":"It Feels Like the Game Is Rigged","date":"February 02, 2021","dateISO":"2021-02-02T21:31:51.374Z","datetime":"2021-02-02 21:31","tags":["story","Hacker News"],"image":null,"imageAlt":null,"provider":"Hacker News","thirdPartyId":"25985311","url":"https://news.ycombinator.com/item?id=25985311","originalUrl":"https://theirrelevantinvestor.com/2021/02/01/it-feels-like-the-game-is-rigged/","imageRemote":"https://theirrelevantinvestor.com/wp-content/uploads/2021/02/cant-lsoe.jpg","video":null,"channel":null,"channelUrl":null,"author":"aloukissas","authorUrl":"https://news.ycombinator.com/user?id=aloukissas","authorImage":null,"authorSlug":null,"score":161,"views":null,"sharedCount":null,"likeCount":null,"sharedContent":null,"parent":{"__typename":"HnJson","localize":[{"title":"感觉游戏是被操纵的","locale":"zh"},{"title":"感覺遊戲是被操縱的","locale":"zh-Hant"}]}},{"__typename":"SocialMediaPost","id":"HnPost-26006656","excerpt":"","slug":"/hn/26006656","title":"Jeff Bezos to retire as CEO; AWS head to become CEO","date":"February 02, 2021","dateISO":"2021-02-02T21:31:51.374Z","datetime":"2021-02-02 21:31","tags":["story","Hacker News"],"image":null,"imageAlt":null,"provider":"Hacker News","thirdPartyId":"26006656","url":"https://news.ycombinator.com/item?id=26006656","originalUrl":"https://ir.aboutamazon.com/news-release/news-release-details/2021/Amazon.com-Announces-Fourth-Quarter-Results/default.aspx","imageRemote":"https://s2.q4cdn.com/299287126/files/design/amazon-logo-white.svg","video":null,"channel":null,"channelUrl":null,"author":"marc__1","authorUrl":"https://news.ycombinator.com/user?id=marc__1","authorImage":null,"authorSlug":null,"score":1926,"views":null,"sharedCount":null,"likeCount":null,"sharedContent":null,"parent":{"__typename":"HnJson","localize":[{"title":"杰夫-贝佐斯将退休，担任CEO；AWS负责人将出任CEO。","locale":"zh"},{"title":"傑夫-貝佐斯將退休，擔任CEO；AWS負責人將出任CEO。","locale":"zh-Hant"}]}},{"__typename":"SocialMediaPost","id":"HnPost-26002251","excerpt":"","slug":"/hn/26002251","title":"GoboLinux","date":"February 02, 2021","dateISO":"2021-02-02T20:33:28.604Z","datetime":"2021-02-02 20:33","tags":["story","Hacker News"],"image":null,"imageAlt":null,"provider":"Hacker News","thirdPartyId":"26002251","url":"https://news.ycombinator.com/item?id=26002251","originalUrl":"https://www.gobolinux.org/","imageRemote":"https://gobolinux.org/images/gobolinux_frontpage.png","video":null,"channel":null,"channelUrl":null,"author":"frabert","authorUrl":"https://news.ycombinator.com/user?id=frabert","authorImage":null,"authorSlug":null,"score":313,"views":null,"sharedCount":null,"likeCount":null,"sharedContent":null,"parent":{"__typename":"HnJson","localize":[{"title":"GoboLinux","locale":"zh"},{"title":"GoboLinux","locale":"zh-Hant"}]}},{"__typename":"SocialMediaPost","id":"HnPost-26002734","excerpt":"","slug":"/hn/26002734","title":"Accounts with GAN Faces Attack Belgium over 5G Restrictions","date":"February 02, 2021","dateISO":"2021-02-02T20:33:28.603Z","datetime":"2021-02-02 20:33","tags":["story","Hacker News"],"image":null,"imageAlt":null,"provider":"Hacker News","thirdPartyId":"26002734","url":"https://news.ycombinator.com/item?id=26002734","originalUrl":"https://public-assets.graphika.com/reports/graphika_report_fake_cluster_boosts_huawei.pdf","imageRemote":null,"video":null,"channel":null,"channelUrl":null,"author":"kbumsik","authorUrl":"https://news.ycombinator.com/user?id=kbumsik","authorImage":null,"authorSlug":null,"score":212,"views":null,"sharedCount":null,"likeCount":null,"sharedContent":null,"parent":{"__typename":"HnJson","localize":[{"title":"有GAN的账户因5G限制而面临攻击比利时。","locale":"zh"},{"title":"有GAN的賬戶因5G限制而面臨攻擊比利時。","locale":"zh-Hant"}]}},{"__typename":"SocialMediaPost","id":"HnPost-26002688","excerpt":"","slug":"/hn/26002688","title":"“WSB veterans know that they're making a suicide charge for the memes”","date":"February 02, 2021","dateISO":"2021-02-02T20:02:03.766Z","datetime":"2021-02-02 20:02","tags":["story","Hacker News"],"image":null,"imageAlt":null,"provider":"Hacker News","thirdPartyId":"26002688","url":"https://news.ycombinator.com/item?id=26002688","originalUrl":"https://www.reddit.com/r/AskReddit/comments/l7bl3z/brokers_of_reddit_how_crazy_is_it_where_you_work/gl64yau/","imageRemote":"https://www.redditstatic.com/desktop2x/img/renderTimingPixel.png","video":null,"channel":null,"channelUrl":null,"author":"throwaway5752","authorUrl":"https://news.ycombinator.com/user?id=throwaway5752","authorImage":null,"authorSlug":null,"score":219,"views":null,"sharedCount":null,"likeCount":null,"sharedContent":null,"parent":{"__typename":"HnJson","localize":[{"title":"\"WSB老兵知道他们是在为备忘录自杀收费\"","locale":"zh"},{"title":"\"WSB老兵知道他們是在爲備忘錄自殺收費\"","locale":"zh-Hant"}]}},{"__typename":"SocialMediaPost","id":"HnPost-26002656","excerpt":"","slug":"/hn/26002656","title":"A Framework for Writing Better Documentation","date":"February 02, 2021","dateISO":"2021-02-02T19:33:32.375Z","datetime":"2021-02-02 19:33","tags":["story","Hacker News"],"image":null,"imageAlt":null,"provider":"Hacker News","thirdPartyId":"26002656","url":"https://news.ycombinator.com/item?id=26002656","originalUrl":"https://documentation.divio.com/","imageRemote":"https://documentation.divio.com/_static/logo-divio-black.svg","video":null,"channel":null,"channelUrl":null,"author":"omginternets","authorUrl":"https://news.ycombinator.com/user?id=omginternets","authorImage":null,"authorSlug":null,"score":631,"views":null,"sharedCount":null,"likeCount":null,"sharedContent":null,"parent":{"__typename":"HnJson","localize":[{"title":"编写更好的文件的框架","locale":"zh"},{"title":"編寫更好的文件的框架","locale":"zh-Hant"}]}},{"__typename":"SocialMediaPost","id":"HnPost-26000698","excerpt":"","slug":"/hn/26000698","title":"AirPods Max: An Audiophile Review","date":"February 02, 2021","dateISO":"2021-02-02T18:40:38.967Z","datetime":"2021-02-02 18:40","tags":["story","Hacker News"],"image":null,"imageAlt":null,"provider":"Hacker News","thirdPartyId":"26000698","url":"https://news.ycombinator.com/item?id=26000698","originalUrl":"https://mariusmasalar.me/airpods-max","imageRemote":"https://blot.im/cdn/blog_3ba4e1dfed36497a98e7466a9c6b5a18/_thumbnails/0a86f7dc-e691-479e-b7e1-903a842791fc/large.jpg","video":null,"channel":null,"channelUrl":null,"author":"drclau","authorUrl":"https://news.ycombinator.com/user?id=drclau","authorImage":null,"authorSlug":null,"score":316,"views":null,"sharedCount":null,"likeCount":null,"sharedContent":null,"parent":{"__typename":"HnJson","localize":[{"title":"AirPods Max: 发烧友评测","locale":"zh"},{"title":"AirPods Max: 發燒友評測","locale":"zh-Hant"}]}},{"__typename":"SocialMediaPost","id":"HnPost-26001630","excerpt":"","slug":"/hn/26001630","title":"20k honey bees took over a tech company’s empty office during lockdown","date":"February 02, 2021","dateISO":"2021-02-02T18:40:38.967Z","datetime":"2021-02-02 18:40","tags":["story","Hacker News"],"image":null,"imageAlt":null,"provider":"Hacker News","thirdPartyId":"26001630","url":"https://news.ycombinator.com/item?id=26001630","originalUrl":"https://qz.com/work/1965925/20000-honey-bees-took-over-a-tech-office-during-covid-19/","imageRemote":"https://cms.qz.com/wp-content/uploads/2021/01/beeandhoneycomb.jpg?quality=75&strip=all&w=1200&h=630&crop=1","video":null,"channel":null,"channelUrl":null,"author":"codev","authorUrl":"https://news.ycombinator.com/user?id=codev","authorImage":null,"authorSlug":null,"score":282,"views":null,"sharedCount":null,"likeCount":null,"sharedContent":null,"parent":{"__typename":"HnJson","localize":[{"title":"2万只蜜蜂在封锁期间占领了一家科技公司的空办公室。","locale":"zh"},{"title":"2萬隻蜜蜂在封鎖期間佔領了一家科技公司的空辦公室。","locale":"zh-Hant"}]}},{"__typename":"SocialMediaPost","id":"HnPost-26002335","excerpt":"","slug":"/hn/26002335","title":"Getting better at Linux with mini-projects","date":"February 02, 2021","dateISO":"2021-02-02T18:03:19.212Z","datetime":"2021-02-02 18:03","tags":["story","Hacker News"],"image":null,"imageAlt":null,"provider":"Hacker News","thirdPartyId":"26002335","url":"https://news.ycombinator.com/item?id=26002335","originalUrl":"https://carltheperson.com/posts/10-things-linux","imageRemote":"https://carltheperson.com/media/10-things-linux/1_UNIX__Recat/screenshot.png","video":null,"channel":null,"channelUrl":null,"author":"carltheperson","authorUrl":"https://news.ycombinator.com/user?id=carltheperson","authorImage":null,"authorSlug":null,"score":997,"views":null,"sharedCount":null,"likeCount":null,"sharedContent":null,"parent":{"__typename":"HnJson","localize":[{"title":"通过小型项目更好地掌握Linux","locale":"zh"},{"title":"通過小型項目更好地掌握Linux","locale":"zh-Hant"}]}},{"__typename":"SocialMediaPost","id":"HnPost-25997619","excerpt":"","slug":"/hn/25997619","title":"Investigation Xoth: Smartphone location tracking","date":"February 02, 2021","dateISO":"2021-02-02T16:32:21.109Z","datetime":"2021-02-02 16:32","tags":["story","Hacker News"],"image":null,"imageAlt":null,"provider":"Hacker News","thirdPartyId":"25997619","url":"https://news.ycombinator.com/item?id=25997619","originalUrl":"https://www.expressvpn.com/digital-security-lab/investigation-xoth","imageRemote":"https://xvdrop.imgix.net/ff-fb-badge-e0c00340498c9742be8948c3f6f7f2156a0b6c76.png","video":null,"channel":null,"channelUrl":null,"author":"gilad","authorUrl":"https://news.ycombinator.com/user?id=gilad","authorImage":null,"authorSlug":null,"score":170,"views":null,"sharedCount":null,"likeCount":null,"sharedContent":null,"parent":{"__typename":"HnJson","localize":[{"title":"调查Xoth。智能手机定位追踪","locale":"zh"},{"title":"調查Xoth。智能手機定位追蹤","locale":"zh-Hant"}]}},{"__typename":"SocialMediaPost","id":"HnPost-26001179","excerpt":"","slug":"/hn/26001179","title":"I'm tired of this anti-Wayland horseshit","date":"February 02, 2021","dateISO":"2021-02-02T16:03:02.665Z","datetime":"2021-02-02 16:03","tags":["story","Hacker News"],"image":null,"imageAlt":null,"provider":"Hacker News","thirdPartyId":"26001179","url":"https://news.ycombinator.com/item?id=26001179","originalUrl":"https://drewdevault.com/2021/02/02/Anti-Wayland-horseshit.html","imageRemote":null,"video":null,"channel":null,"channelUrl":null,"author":"emersion","authorUrl":"https://news.ycombinator.com/user?id=emersion","authorImage":null,"authorSlug":null,"score":544,"views":null,"sharedCount":null,"likeCount":null,"sharedContent":null,"parent":{"__typename":"HnJson","localize":[{"title":"我厌倦了这种反韦兰的胡言乱语","locale":"zh"},{"title":"我厭倦了這種反韋蘭的胡言亂語","locale":"zh-Hant"}]}},{"__typename":"SocialMediaPost","id":"HnPost-26000405","excerpt":"","slug":"/hn/26000405","title":"Just because I have a vertical screen, doesn’t mean I’m on a phone","date":"February 02, 2021","dateISO":"2021-02-02T15:36:07.037Z","datetime":"2021-02-02 15:36","tags":["story","Hacker News"],"image":null,"imageAlt":null,"provider":"Hacker News","thirdPartyId":"26000405","url":"https://news.ycombinator.com/item?id=26000405","originalUrl":"https://shkspr.mobi/blog/2021/02/just-because-i-have-a-vertical-screen-doesnt-mean-im-on-a-phone/","imageRemote":"https://shkspr.mobi/blog/wp-content/uploads/2021/02/montje50.jpg","video":null,"channel":null,"channelUrl":null,"author":"edent","authorUrl":"https://news.ycombinator.com/user?id=edent","authorImage":null,"authorSlug":null,"score":545,"views":null,"sharedCount":null,"likeCount":null,"sharedContent":null,"parent":{"__typename":"HnJson","localize":[{"title":"我有一个垂直的屏幕，并不意味着我在手机上。","locale":"zh"},{"title":"我有一個垂直的屏幕，並不意味着我在手機上。","locale":"zh-Hant"}]}},{"__typename":"SocialMediaPost","id":"HnPost-25992782","excerpt":"","slug":"/hn/25992782","title":"Ask HN: What is your “I don't care if this succeeds” project?","date":"February 02, 2021","dateISO":"2021-02-02T13:32:17.549Z","datetime":"2021-02-02 13:32","tags":["story","ASK HN","Hacker News"],"image":null,"imageAlt":null,"provider":"Hacker News","thirdPartyId":"25992782","url":"https://news.ycombinator.com/item?id=25992782","originalUrl":"https://news.ycombinator.com/item?id=25992782","imageRemote":null,"video":null,"channel":"ASK HN","channelUrl":"https://news.ycombinator.com/ask","author":"as89","authorUrl":"https://news.ycombinator.com/user?id=as89","authorImage":null,"authorSlug":null,"score":225,"views":null,"sharedCount":null,"likeCount":null,"sharedContent":null,"parent":{"__typename":"HnJson","localize":[{"title":"问HN：你的 \"我不在乎这件事是否成功 \"的项目是什么？","locale":"zh"},{"title":"問HN：你的 \"我不在乎這件事是否成功 \"的項目是什麼？","locale":"zh-Hant"}]}},{"__typename":"SocialMediaPost","id":"HnPost-25999071","excerpt":"","slug":"/hn/25999071","title":"Wayland is not ready as a 1:1 compatible Xorg replacement just yet","date":"February 02, 2021","dateISO":"2021-02-02T13:32:17.549Z","datetime":"2021-02-02 13:32","tags":["story","Hacker News"],"image":null,"imageAlt":null,"provider":"Hacker News","thirdPartyId":"25999071","url":"https://news.ycombinator.com/item?id=25999071","originalUrl":"https://gist.github.com/probonopd/9feb7c20257af5dd915e3a9f2d1f2277","imageRemote":"https://github.githubassets.com/images/modules/gists/gist-og-image.png","video":null,"channel":null,"channelUrl":null,"author":"todsacerdoti","authorUrl":"https://news.ycombinator.com/user?id=todsacerdoti","authorImage":null,"authorSlug":null,"score":195,"views":null,"sharedCount":null,"likeCount":null,"sharedContent":null,"parent":{"__typename":"HnJson","localize":[{"title":"Wayland还没有准备好作为1:1兼容的Xorg替代品。","locale":"zh"},{"title":"Wayland還沒有準備好作爲1:1兼容的Xorg替代品。","locale":"zh-Hant"}]}},{"__typename":"SocialMediaPost","id":"HnPost-25994051","excerpt":"","slug":"/hn/25994051","title":"We Test PCIe 4.0 Storage: The AnandTech 2021 SSD Benchmark Suite","date":"February 02, 2021","dateISO":"2021-02-02T11:47:52.439Z","datetime":"2021-02-02 11:47","tags":["story","Hacker News"],"image":null,"imageAlt":null,"provider":"Hacker News","thirdPartyId":"25994051","url":"https://news.ycombinator.com/item?id=25994051","originalUrl":"https://www.anandtech.com/print/16458/2021-ssd-benchmark-suite","imageRemote":"https://images.anandtech.com/doci/16458/Q140_678x452.jpg","video":null,"channel":null,"channelUrl":null,"author":"pella","authorUrl":"https://news.ycombinator.com/user?id=pella","authorImage":null,"authorSlug":null,"score":183,"views":null,"sharedCount":null,"likeCount":null,"sharedContent":null,"parent":{"__typename":"HnJson","localize":[{"title":"我们测试PCIe 4.0存储。AnandTech 2021固态硬盘基准测试套件","locale":"zh"},{"title":"我們測試PCIe 4.0存儲。AnandTech 2021固態硬盤基準測試套件","locale":"zh-Hant"}]}},{"__typename":"SocialMediaPost","id":"HnPost-25998659","excerpt":"","slug":"/hn/25998659","title":"Scaleway announced Apple M1 instances","date":"February 02, 2021","dateISO":"2021-02-02T11:47:52.439Z","datetime":"2021-02-02 11:47","tags":["story","Hacker News"],"image":null,"imageAlt":null,"provider":"Hacker News","thirdPartyId":"25998659","url":"https://news.ycombinator.com/item?id=25998659","originalUrl":"https://www.scaleway.com/en/hello-m1/","imageRemote":"https://www.scaleway.com/scaleway-og.jpg","video":null,"channel":null,"channelUrl":null,"author":"edouardb","authorUrl":"https://news.ycombinator.com/user?id=edouardb","authorImage":null,"authorSlug":null,"score":360,"views":null,"sharedCount":null,"likeCount":null,"sharedContent":null,"parent":{"__typename":"HnJson","localize":[{"title":"史卡威公布苹果M1实例","locale":"zh"},{"title":"史卡威公佈蘋果M1實例","locale":"zh-Hant"}]}},{"__typename":"SocialMediaPost","id":"HnPost-25997506","excerpt":"","slug":"/hn/25997506","title":"Go 1.16 will make system calls through Libc on OpenBSD","date":"February 02, 2021","dateISO":"2021-02-02T09:43:16.583Z","datetime":"2021-02-02 09:43","tags":["story","Hacker News"],"image":null,"imageAlt":null,"provider":"Hacker News","thirdPartyId":"25997506","url":"https://news.ycombinator.com/item?id=25997506","originalUrl":"https://utcc.utoronto.ca/~cks/space/blog/programming/Go116OpenBSDUsesLibc","imageRemote":null,"video":null,"channel":null,"channelUrl":null,"author":"lladnar","authorUrl":"https://news.ycombinator.com/user?id=lladnar","authorImage":null,"authorSlug":null,"score":298,"views":null,"sharedCount":null,"likeCount":null,"sharedContent":null,"parent":{"__typename":"HnJson","localize":[{"title":"Go 1.16将在OpenBSD上通过Libc进行系统调用。","locale":"zh"},{"title":"Go 1.16將在OpenBSD上通過Libc進行系統調用。","locale":"zh-Hant"}]}},{"__typename":"SocialMediaPost","id":"HnPost-25989085","excerpt":"","slug":"/hn/25989085","title":"Launch HN: Albedo (YC W21) – Highest resolution satellite imagery","date":"February 02, 2021","dateISO":"2021-02-02T09:02:57.893Z","datetime":"2021-02-02 09:02","tags":["story","Hacker News"],"image":null,"imageAlt":null,"provider":"Hacker News","thirdPartyId":"25989085","url":"https://news.ycombinator.com/item?id=25989085","originalUrl":"https://news.ycombinator.com/item?id=25989085","imageRemote":null,"video":null,"channel":null,"channelUrl":null,"author":"topherhaddad","authorUrl":"https://news.ycombinator.com/user?id=topherhaddad","authorImage":null,"authorSlug":null,"score":200,"views":null,"sharedCount":null,"likeCount":null,"sharedContent":null,"parent":{"__typename":"HnJson","localize":[{"title":"发射HN： 反照率(YC W21)-最高分辨率卫星图像","locale":"zh"},{"title":"發射HN： 反照率(YC W21)-最高分辨率衛星圖像","locale":"zh-Hant"}]}},{"__typename":"SocialMediaPost","id":"HnPost-25993512","excerpt":"","slug":"/hn/25993512","title":"What’s Wrong With The Honeywell Humidifier","date":"February 02, 2021","dateISO":"2021-02-02T08:32:13.204Z","datetime":"2021-02-02 08:32","tags":["story","Hacker News"],"image":null,"imageAlt":null,"provider":"Hacker News","thirdPartyId":"25993512","url":"https://news.ycombinator.com/item?id=25993512","originalUrl":"https://angelalashbrook.medium.com/whats-wrong-with-the-honeywell-humidifier-f165284aeaa4","imageRemote":"https://miro.medium.com/max/1200/0*MDk1XgUNdMtX2Whm","video":null,"channel":null,"channelUrl":null,"author":"antigizmo","authorUrl":"https://news.ycombinator.com/user?id=antigizmo","authorImage":null,"authorSlug":null,"score":186,"views":null,"sharedCount":null,"likeCount":null,"sharedContent":null,"parent":{"__typename":"HnJson","localize":[{"title":"霍尼韦尔加湿器有什么问题？","locale":"zh"},{"title":"霍尼韋爾加溼器有什麼問題？","locale":"zh-Hant"}]}},{"__typename":"SocialMediaPost","id":"HnPost-25995839","excerpt":"","slug":"/hn/25995839","title":"A 25-Year-Old Bet Comes Due: Has Tech Destroyed Society?","date":"February 02, 2021","dateISO":"2021-02-02T05:51:38.374Z","datetime":"2021-02-02 05:51","tags":["story","Hacker News"],"image":null,"imageAlt":null,"provider":"Hacker News","thirdPartyId":"25995839","url":"https://news.ycombinator.com/item?id=25995839","originalUrl":"https://www.wired.com/story/a-25-year-old-bet-comes-due-has-tech-destroyed-society/","imageRemote":"https://media.wired.com/photos/5fe3dec0300505aee11d3eb5/191:100/w_1280,c_limit/backchannel-the-bet-2020.jpg","video":null,"channel":null,"channelUrl":null,"author":"coloneltcb","authorUrl":"https://news.ycombinator.com/user?id=coloneltcb","authorImage":null,"authorSlug":null,"score":369,"views":null,"sharedCount":null,"likeCount":null,"sharedContent":null,"parent":{"__typename":"HnJson","localize":[{"title":"一场25年的赌约到期了：科技毁灭了社会吗？","locale":"zh"},{"title":"一場25年的賭約到期了：科技毀滅了社會嗎？","locale":"zh-Hant"}]}},{"__typename":"SocialMediaPost","id":"HnPost-25995515","excerpt":"","slug":"/hn/25995515","title":"The first commercial astronaut mission to orbit Earth aboard Dragon","date":"February 02, 2021","dateISO":"2021-02-02T02:47:16.279Z","datetime":"2021-02-02 02:47","tags":["story","Hacker News"],"image":null,"imageAlt":null,"provider":"Hacker News","thirdPartyId":"25995515","url":"https://news.ycombinator.com/item?id=25995515","originalUrl":"https://www.spacex.com/updates/inspiration-4-mission/","imageRemote":"https://www.spacex.com/static/images/share.jpg","video":null,"channel":null,"channelUrl":null,"author":"edward","authorUrl":"https://news.ycombinator.com/user?id=edward","authorImage":null,"authorSlug":null,"score":223,"views":null,"sharedCount":null,"likeCount":null,"sharedContent":null,"parent":{"__typename":"HnJson","localize":[{"title":"第一次商业宇航员飞行任务乘坐 \"龙 \"号进入地球轨道。","locale":"zh"},{"title":"第一次商業宇航員飛行任務乘坐 \"龍 \"號進入地球軌道。","locale":"zh-Hant"}]}},{"__typename":"SocialMediaPost","id":"HnPost-25980060","excerpt":"","slug":"/hn/25980060","title":"Cab Ride: Drive a train, forever, through a dreamlike land","date":"February 02, 2021","dateISO":"2021-02-02T02:17:09.528Z","datetime":"2021-02-02 02:17","tags":["story","Hacker News"],"image":null,"imageAlt":null,"provider":"Hacker News","thirdPartyId":"25980060","url":"https://news.ycombinator.com/item?id=25980060","originalUrl":"https://powersaurus.itch.io/cab-ride","imageRemote":"https://img.itch.zone/aW1nLzUwODc0MTIuZ2lm/original/xFKoES.gif","video":null,"channel":null,"channelUrl":null,"author":"polm23","authorUrl":"https://news.ycombinator.com/user?id=polm23","authorImage":null,"authorSlug":null,"score":545,"views":null,"sharedCount":null,"likeCount":null,"sharedContent":null,"parent":{"__typename":"HnJson","localize":[{"title":"出租车之旅：开着火车，永远在梦幻般的土地上行驶。","locale":"zh"},{"title":"出租車之旅：開着火車，永遠在夢幻般的土地上行駛。","locale":"zh-Hant"}]}}]}},"pageContext":{"basePath":"/","pageType":"tag","tag":"story","tagsFilter":{"id":{"glob":"!*Post-1"}},"filter":{"id":{"glob":"!*Post-1"},"tags":{"eq":"story"}},"limit":25,"skip":1150,"total":2599,"totalPages":104,"currentPage":47,"maxWidth":1024,"maxHeight":512,"locale":"zh","hrefLang":"zh-Hans","originalPath":"/tags/story/page/47","dateFormat":"YYYY-MM-DD"}},"staticQueryHashes":["1239077767","2506312863","2744905544","3025052997","3493603132","3493603132","3513215887","386998304"]}