{"componentChunkName":"component---gatsby-theme-buzzing-src-gatsby-theme-timeline-templates-posts-query-js","path":"/ja/page/84","result":{"data":{"site":{"siteMetadata":{"title":"Reddit 热门","description":"用中文浏览Reddit热门内容","social":[{"name":"Twitter","url":"https://twitter.com/gatsbyjs","external":null,"prefetch":null},{"name":"GitHub","url":"https://github.com/gatsbyjs","external":null,"prefetch":null}],"menuLinks":[],"localize":[{"locale":"en","title":"Buzzing on Reddit","description":"See what's buzzing on Reddit in your native language","social":[{"name":"Reddit","url":"https://www.reddit.com/","external":true,"prefetch":null}],"menuLinks":[{"name":"Weekly Selection","url":"/issues","external":null,"prefetch":null},{"name":"RSS","url":"/rss.xml","external":null,"prefetch":false}]},{"locale":"zh-Hant","title":"Reddit 熱門","description":"用中文瀏覽Reddit熱門內容","social":null,"menuLinks":null}]}},"tagsGroup":{"group":[{"fieldValue":"ASK HN","totalCount":54},{"fieldValue":"Hacker News","totalCount":3105},{"fieldValue":"Poll","totalCount":1},{"fieldValue":"Show HN","totalCount":100},{"fieldValue":"poll","totalCount":1},{"fieldValue":"story","totalCount":3104}]},"allBlogPost":{"nodes":[{"__typename":"SocialMediaPost","id":"HnPost-25816753","excerpt":"","slug":"/hn/25816753","title":"The short, tormented life of computer genius Phil Katz (2000)","date":"January 19, 2021","dateISO":"2021-01-19T08:23:06.161Z","datetime":"2021-01-19 08:23","tags":["story","Hacker News"],"image":null,"imageAlt":null,"provider":"Hacker News","thirdPartyId":"25816753","url":"https://news.ycombinator.com/item?id=25816753","originalUrl":"https://web.archive.org/web/20000829071343/http://www2.jsonline.com/news/state/may00/katz21052000a.asp","imageRemote":"https://web.archive.org/_static/images/toolbar/wayback-toolbar-logo-200.png","video":null,"channel":null,"channelUrl":null,"author":"mmastrac","authorUrl":"https://news.ycombinator.com/user?id=mmastrac","authorImage":null,"authorSlug":null,"score":200,"views":null,"sharedCount":null,"likeCount":null,"sharedContent":null,"parent":{"__typename":"HnJson","localize":[{"title":"电脑天才菲尔-卡茨短暂而煎熬的一生（2000年）。","locale":"zh"},{"title":"電腦天才菲爾-卡茨短暫而煎熬的一生（2000年）。","locale":"zh-Hant"}]}},{"__typename":"SocialMediaPost","id":"HnPost-25827356","excerpt":"","slug":"/hn/25827356","title":"Software engineering is a learning process, working code is a side effect","date":"January 19, 2021","dateISO":"2021-01-19T07:40:33.841Z","datetime":"2021-01-19 07:40","tags":["story","Hacker News"],"image":null,"imageAlt":null,"provider":"Hacker News","thirdPartyId":"25827356","url":"https://news.ycombinator.com/item?id=25827356","originalUrl":"https://www.lambdabytes.io/posts/selearning/","imageRemote":null,"video":null,"channel":null,"channelUrl":null,"author":"io_nathan","authorUrl":"https://news.ycombinator.com/user?id=io_nathan","authorImage":null,"authorSlug":null,"score":236,"views":null,"sharedCount":null,"likeCount":null,"sharedContent":null,"parent":{"__typename":"HnJson","localize":[{"title":"软件工程是一个学习的过程，工作代码是一个副作用","locale":"zh"},{"title":"軟件工程是一個學習的過程，工作代碼是一個副作用","locale":"zh-Hant"}]}},{"__typename":"SocialMediaPost","id":"HnPost-25829748","excerpt":"","slug":"/hn/25829748","title":"What You Should Know Before Leaking a Zoom Meeting","date":"January 19, 2021","dateISO":"2021-01-19T06:55:24.050Z","datetime":"2021-01-19 06:55","tags":["story","Hacker News"],"image":null,"imageAlt":null,"provider":"Hacker News","thirdPartyId":"25829748","url":"https://news.ycombinator.com/item?id=25829748","originalUrl":"https://theintercept.com/2021/01/18/leak-zoom-meeting/","imageRemote":"https://theintercept.imgix.net/wp-uploads/sites/1/2021/01/zoom-leak-theintercept-SH-2.png?auto=compress%2Cformat&q=90&fit=crop&w=1200&h=800","video":null,"channel":null,"channelUrl":null,"author":"danso","authorUrl":"https://news.ycombinator.com/user?id=danso","authorImage":null,"authorSlug":null,"score":730,"views":null,"sharedCount":null,"likeCount":null,"sharedContent":null,"parent":{"__typename":"HnJson","localize":[{"title":"泄露Zoom会议之前，你应该知道什么？","locale":"zh"},{"title":"泄露Zoom會議之前，你應該知道什麼？","locale":"zh-Hant"}]}},{"__typename":"SocialMediaPost","id":"HnPost-25809640","excerpt":"","slug":"/hn/25809640","title":"Sosumi Snap – Download and Install macOS in Ubuntu","date":"January 19, 2021","dateISO":"2021-01-19T05:03:47.455Z","datetime":"2021-01-19 05:03","tags":["story","Hacker News"],"image":null,"imageAlt":null,"provider":"Hacker News","thirdPartyId":"25809640","url":"https://news.ycombinator.com/item?id=25809640","originalUrl":"https://github.com/popey/sosumi-snap","imageRemote":"https://avatars1.githubusercontent.com/u/1841272?s=400&v=4","video":null,"channel":null,"channelUrl":null,"author":"macco","authorUrl":"https://news.ycombinator.com/user?id=macco","authorImage":null,"authorSlug":null,"score":323,"views":null,"sharedCount":null,"likeCount":null,"sharedContent":null,"parent":{"__typename":"HnJson","localize":[{"title":"Sosumi Snap - 在Ubuntu中下载并安装macOS。","locale":"zh"},{"title":"Sosumi Snap - 在Ubuntu中下載並安裝macOS。","locale":"zh-Hant"}]}},{"__typename":"SocialMediaPost","id":"HnPost-25824799","excerpt":"","slug":"/hn/25824799","title":"Three reasons fungi are not plants","date":"January 19, 2021","dateISO":"2021-01-19T03:00:16.329Z","datetime":"2021-01-19 03:00","tags":["story","Hacker News"],"image":null,"imageAlt":null,"provider":"Hacker News","thirdPartyId":"25824799","url":"https://news.ycombinator.com/item?id=25824799","originalUrl":"https://asm.org/Articles/2021/January/Three-Reasons-Fungi-Are-Not-Plants","imageRemote":"https://asm.org/ASM/media/Article-Images/2021/January/Mushrooms-874x492.jpg?ext=.jpg","video":null,"channel":null,"channelUrl":null,"author":"chewbacha","authorUrl":"https://news.ycombinator.com/user?id=chewbacha","authorImage":null,"authorSlug":null,"score":219,"views":null,"sharedCount":null,"likeCount":null,"sharedContent":null,"parent":{"__typename":"HnJson","localize":[{"title":"真菌不是植物的三个原因","locale":"zh"},{"title":"真菌不是植物的三個原因","locale":"zh-Hant"}]}},{"__typename":"SocialMediaPost","id":"HnPost-25820203","excerpt":"","slug":"/hn/25820203","title":"Decluttering low-Earth orbit: It's time to tidy up space","date":"January 19, 2021","dateISO":"2021-01-19T01:47:32.186Z","datetime":"2021-01-19 01:47","tags":["story","Hacker News"],"image":null,"imageAlt":null,"provider":"Hacker News","thirdPartyId":"25820203","url":"https://news.ycombinator.com/item?id=25820203","originalUrl":"https://www.economist.com/leaders/2021/01/14/its-time-to-tidy-up-space","imageRemote":"https://www.economist.com/img/b/1280/720/90/sites/default/files/images/print-edition/20210116_LDD003_0.jpg","video":null,"channel":null,"channelUrl":null,"author":"edward","authorUrl":"https://news.ycombinator.com/user?id=edward","authorImage":null,"authorSlug":null,"score":174,"views":null,"sharedCount":null,"likeCount":null,"sharedContent":null,"parent":{"__typename":"HnJson","localize":[{"title":"疏通低地球轨道。是时候整理空间了","locale":"zh"},{"title":"疏通低地球軌道。是時候整理空間了","locale":"zh-Hant"}]}},{"__typename":"SocialMediaPost","id":"HnPost-25822718","excerpt":"","slug":"/hn/25822718","title":"Parler’s de-platforming shows the exceptional power of cloud providers","date":"January 19, 2021","dateISO":"2021-01-19T01:47:32.186Z","datetime":"2021-01-19 01:47","tags":["story","Hacker News"],"image":null,"imageAlt":null,"provider":"Hacker News","thirdPartyId":"25822718","url":"https://news.ycombinator.com/item?id=25822718","originalUrl":"https://www.cnbc.com/2021/01/16/how-parler-deplatforming-shows-power-of-cloud-providers.html","imageRemote":"https://image.cnbcfm.com/api/v1/image/106276448-1575399936185andyjassyfortt-4.jpg?v=1575399956","video":null,"channel":null,"channelUrl":null,"author":"BlackPlot","authorUrl":"https://news.ycombinator.com/user?id=BlackPlot","authorImage":null,"authorSlug":null,"score":420,"views":null,"sharedCount":null,"likeCount":null,"sharedContent":null,"parent":{"__typename":"HnJson","localize":[{"title":"Parler的去平台化显示了云服务商的非凡实力。","locale":"zh"},{"title":"Parler的去平臺化顯示了雲服務商的非凡實力。","locale":"zh-Hant"}]}},{"__typename":"SocialMediaPost","id":"HnPost-25825245","excerpt":"","slug":"/hn/25825245","title":"Tech companies are profiling us from before birth","date":"January 19, 2021","dateISO":"2021-01-19T01:47:32.186Z","datetime":"2021-01-19 01:47","tags":["story","Hacker News"],"image":null,"imageAlt":null,"provider":"Hacker News","thirdPartyId":"25825245","url":"https://news.ycombinator.com/item?id=25825245","originalUrl":"https://thereader.mitpress.mit.edu/tech-companies-are-profiling-us-from-before-birth/","imageRemote":"https://thereader.mitpress.mit.edu/wp-content/uploads/2020/12/lead-post-effect.jpg","video":null,"channel":null,"channelUrl":null,"author":"DamnInteresting","authorUrl":"https://news.ycombinator.com/user?id=DamnInteresting","authorImage":null,"authorSlug":null,"score":377,"views":null,"sharedCount":null,"likeCount":null,"sharedContent":null,"parent":{"__typename":"HnJson","localize":[{"title":"科技公司从我们出生前就开始剖析我们","locale":"zh"},{"title":"科技公司從我們出生前就開始剖析我們","locale":"zh-Hant"}]}},{"__typename":"SocialMediaPost","id":"HnPost-25823048","excerpt":"","slug":"/hn/25823048","title":"The embedded YouTube player told me what you were watching","date":"January 19, 2021","dateISO":"2021-01-19T00:02:09.461Z","datetime":"2021-01-19 00:02","tags":["story","Hacker News"],"image":null,"imageAlt":null,"provider":"Hacker News","thirdPartyId":"25823048","url":"https://news.ycombinator.com/item?id=25823048","originalUrl":"https://bugs.xdavidhu.me/google/2021/01/18/the-embedded-youtube-player-told-me-what-you-were-watching-and-more/","imageRemote":"https://bugs.xdavidhu.me/assets/posts/2021-01-18-the-embedded-youtube-player-told-me-what-you-were-watching-and-more/twitter-card.png","video":null,"channel":null,"channelUrl":null,"author":"hackerpain","authorUrl":"https://news.ycombinator.com/user?id=hackerpain","authorImage":null,"authorSlug":null,"score":259,"views":null,"sharedCount":null,"likeCount":null,"sharedContent":null,"parent":{"__typename":"HnJson","localize":[{"title":"嵌入的YouTube播放器告诉我你在看什么。","locale":"zh"},{"title":"嵌入的YouTube播放器告訴我你在看什麼。","locale":"zh-Hant"}]}},{"__typename":"SocialMediaPost","id":"HnPost-25825917","excerpt":"","slug":"/hn/25825917","title":"I wasted $40k on a fantastic startup idea","date":"January 18, 2021","dateISO":"2021-01-18T23:07:41.407Z","datetime":"2021-01-18 23:07","tags":["story","Hacker News"],"image":null,"imageAlt":null,"provider":"Hacker News","thirdPartyId":"25825917","url":"https://news.ycombinator.com/item?id=25825917","originalUrl":"https://tjcx.me/p/i-wasted-40k-on-a-fantastic-startup-idea","imageRemote":"https://tjcx.me/rails/active_storage/blobs/eyJfcmFpbHMiOnsibWVzc2FnZSI6IkJBaHBHUT09IiwiZXhwIjpudWxsLCJwdXIiOiJibG9iX2lkIn19--3b585647f7bf3b12efce25b576b05d8a3d340c12/dollars.jpg","video":null,"channel":null,"channelUrl":null,"author":"swyx","authorUrl":"https://news.ycombinator.com/user?id=swyx","authorImage":null,"authorSlug":null,"score":832,"views":null,"sharedCount":null,"likeCount":null,"sharedContent":null,"parent":{"__typename":"HnJson","localize":[{"title":"我浪费了4万块钱在一个奇妙的创业点子上。","locale":"zh"},{"title":"我浪費了4萬塊錢在一個奇妙的創業點子上。","locale":"zh-Hant"}]}},{"__typename":"SocialMediaPost","id":"HnPost-25820533","excerpt":"","slug":"/hn/25820533","title":"I made Deskreen, open source app to make any device a second screen for computer","date":"January 18, 2021","dateISO":"2021-01-18T22:18:01.478Z","datetime":"2021-01-18 22:18","tags":["story","Hacker News"],"image":null,"imageAlt":null,"provider":"Hacker News","thirdPartyId":"25820533","url":"https://news.ycombinator.com/item?id=25820533","originalUrl":"https://www.deskreen.com","imageRemote":null,"video":null,"channel":null,"channelUrl":null,"author":"pavlobu","authorUrl":"https://news.ycombinator.com/user?id=pavlobu","authorImage":null,"authorSlug":null,"score":310,"views":null,"sharedCount":null,"likeCount":null,"sharedContent":null,"parent":{"__typename":"HnJson","localize":[{"title":"我做了Deskreen，开源的应用，让任何设备都能成为电脑的第二屏幕。","locale":"zh"},{"title":"我做了Deskreen，開源的應用，讓任何設備都能成爲電腦的第二屏幕。","locale":"zh-Hant"}]}},{"__typename":"SocialMediaPost","id":"HnPost-25824399","excerpt":"","slug":"/hn/25824399","title":"Ballista: Distributed compute platform implemented in Rust using Apache Arrow","date":"January 18, 2021","dateISO":"2021-01-18T21:47:18.746Z","datetime":"2021-01-18 21:47","tags":["story","Hacker News"],"image":null,"imageAlt":null,"provider":"Hacker News","thirdPartyId":"25824399","url":"https://news.ycombinator.com/item?id=25824399","originalUrl":"https://github.com/ballista-compute/ballista","imageRemote":"https://avatars0.githubusercontent.com/u/61914646?s=400&v=4","video":null,"channel":null,"channelUrl":null,"author":"Kinrany","authorUrl":"https://news.ycombinator.com/user?id=Kinrany","authorImage":null,"authorSlug":null,"score":222,"views":null,"sharedCount":null,"likeCount":null,"sharedContent":null,"parent":{"__typename":"HnJson","localize":[{"title":"Ballista。使用Apache Arrow在铁锈语言中实现的分布式计算平台。","locale":"zh"},{"title":"Ballista。使用Apache Arrow在鐵鏽語言中實現的分佈式計算平臺。","locale":"zh-Hant"}]}},{"__typename":"SocialMediaPost","id":"HnPost-25821664","excerpt":"","slug":"/hn/25821664","title":"A bot that converts Reddit threads into ace attorney scenes","date":"January 18, 2021","dateISO":"2021-01-18T21:05:42.210Z","datetime":"2021-01-18 21:05","tags":["story","Hacker News"],"image":null,"imageAlt":null,"provider":"Hacker News","thirdPartyId":"25821664","url":"https://news.ycombinator.com/item?id=25821664","originalUrl":"https://github.com/micah5/ace-attorney-reddit-bot","imageRemote":"https://avatars2.githubusercontent.com/u/40206415?s=400&v=4","video":null,"channel":null,"channelUrl":null,"author":"rvieira","authorUrl":"https://news.ycombinator.com/user?id=rvieira","authorImage":null,"authorSlug":null,"score":343,"views":null,"sharedCount":null,"likeCount":null,"sharedContent":null,"parent":{"__typename":"HnJson","localize":[{"title":"一个将Reddit线程转换为王牌律师场景的机器人。","locale":"zh"},{"title":"一個將Reddit線程轉換爲王牌律師場景的機器人。","locale":"zh-Hant"}]}},{"__typename":"SocialMediaPost","id":"HnPost-25822763","excerpt":"","slug":"/hn/25822763","title":"Data Scientist Rebekah Jones, Facing Arrest, Turns Herself in to Authorities","date":"January 18, 2021","dateISO":"2021-01-18T21:05:42.210Z","datetime":"2021-01-18 21:05","tags":["story","Hacker News"],"image":null,"imageAlt":null,"provider":"Hacker News","thirdPartyId":"25822763","url":"https://news.ycombinator.com/item?id=25822763","originalUrl":"https://www.npr.org/sections/coronavirus-live-updates/2021/01/18/957914495/data-scientist-rebekah-jones-facing-arrest-turns-herself-in-to-florida-authoriti","imageRemote":"https://media.npr.org/assets/img/2021/01/17/rebekah-jones-florida-covid_wide-c5ea74146eb13aeb6e374263473605af18165532.jpg?s=1400","video":null,"channel":null,"channelUrl":null,"author":"greenie_beans","authorUrl":"https://news.ycombinator.com/user?id=greenie_beans","authorImage":null,"authorSlug":null,"score":185,"views":null,"sharedCount":null,"likeCount":null,"sharedContent":null,"parent":{"__typename":"HnJson","localize":[{"title":"数据科学家丽贝卡-琼斯面临逮捕，向当局自首。","locale":"zh"},{"title":"數據科學家麗貝卡-瓊斯面臨逮捕，向當局自首。","locale":"zh-Hant"}]}},{"__typename":"SocialMediaPost","id":"HnPost-25825244","excerpt":"","slug":"/hn/25825244","title":"Software effort estimation is mostly fake research","date":"January 18, 2021","dateISO":"2021-01-18T21:05:42.210Z","datetime":"2021-01-18 21:05","tags":["story","Hacker News"],"image":null,"imageAlt":null,"provider":"Hacker News","thirdPartyId":"25825244","url":"https://news.ycombinator.com/item?id=25825244","originalUrl":"http://shape-of-code.coding-guidelines.com/2021/01/17/software-effort-estimation-is-mostly-fake-research/","imageRemote":null,"video":null,"channel":null,"channelUrl":null,"author":"walterclifford","authorUrl":"https://news.ycombinator.com/user?id=walterclifford","authorImage":null,"authorSlug":null,"score":778,"views":null,"sharedCount":null,"likeCount":null,"sharedContent":null,"parent":{"__typename":"HnJson","localize":[{"title":"软件工作估算多为假研究","locale":"zh"},{"title":"軟件工作估算多爲假研究","locale":"zh-Hant"}]}},{"__typename":"SocialMediaPost","id":"HnPost-25810102","excerpt":"","slug":"/hn/25810102","title":"MuseScore 3.6","date":"January 18, 2021","dateISO":"2021-01-18T18:42:04.227Z","datetime":"2021-01-18 18:42","tags":["story","Hacker News"],"image":null,"imageAlt":null,"provider":"Hacker News","thirdPartyId":"25810102","url":"https://news.ycombinator.com/item?id=25810102","originalUrl":"https://musescore.org/en/3.6","imageRemote":"https://s3.amazonaws.com/s.musescore.org/images/Beta_Launch_Image.jpg","video":null,"channel":null,"channelUrl":null,"author":"app4soft","authorUrl":"https://news.ycombinator.com/user?id=app4soft","authorImage":null,"authorSlug":null,"score":236,"views":null,"sharedCount":null,"likeCount":null,"sharedContent":null,"parent":{"__typename":"HnJson","localize":[{"title":"MuseScore 3.6","locale":"zh"},{"title":"MuseScore 3.6","locale":"zh-Hant"}]}},{"__typename":"SocialMediaPost","id":"HnPost-25817605","excerpt":"","slug":"/hn/25817605","title":"Can you treat loneliness by creating an imaginary friend?","date":"January 18, 2021","dateISO":"2021-01-18T17:54:28.794Z","datetime":"2021-01-18 17:54","tags":["story","Hacker News"],"image":null,"imageAlt":null,"provider":"Hacker News","thirdPartyId":"25817605","url":"https://news.ycombinator.com/item?id=25817605","originalUrl":"https://nautil.us/blog/can-you-treat-loneliness-by-creating-an-imaginary-friend","imageRemote":"http://static.nautil.us/18103_c2b8ebbde383625a81ba05a0f7b7192d.jpg","video":null,"channel":null,"channelUrl":null,"author":"pseudolus","authorUrl":"https://news.ycombinator.com/user?id=pseudolus","authorImage":null,"authorSlug":null,"score":188,"views":null,"sharedCount":null,"likeCount":null,"sharedContent":null,"parent":{"__typename":"HnJson","localize":[{"title":"你能通过创造一个想象中的朋友来治疗孤独吗？","locale":"zh"},{"title":"你能通過創造一個想象中的朋友來治療孤獨嗎？","locale":"zh-Hant"}]}},{"__typename":"SocialMediaPost","id":"HnPost-25821637","excerpt":"","slug":"/hn/25821637","title":"We are sending more foster kids to prison than to college","date":"January 18, 2021","dateISO":"2021-01-18T17:54:28.793Z","datetime":"2021-01-18 17:54","tags":["story","Hacker News"],"image":null,"imageAlt":null,"provider":"Hacker News","thirdPartyId":"25821637","url":"https://news.ycombinator.com/item?id=25821637","originalUrl":"https://www.kansascity.com/news/special-reports/article238206754.html","imageRemote":null,"video":null,"channel":null,"channelUrl":null,"author":"aminozuur","authorUrl":"https://news.ycombinator.com/user?id=aminozuur","authorImage":null,"authorSlug":null,"score":537,"views":null,"sharedCount":null,"likeCount":null,"sharedContent":null,"parent":{"__typename":"HnJson","localize":[{"title":"我们送去监狱的寄养儿童比送去大学的还多","locale":"zh"},{"title":"我們送去監獄的寄養兒童比送去大學的還多","locale":"zh-Hant"}]}},{"__typename":"SocialMediaPost","id":"HnPost-25821718","excerpt":"","slug":"/hn/25821718","title":"That XOR Trick (2020)","date":"January 18, 2021","dateISO":"2021-01-18T17:54:28.793Z","datetime":"2021-01-18 17:54","tags":["story","Hacker News"],"image":null,"imageAlt":null,"provider":"Hacker News","thirdPartyId":"25821718","url":"https://news.ycombinator.com/item?id=25821718","originalUrl":"https://florian.github.io/xor-trick","imageRemote":null,"video":null,"channel":null,"channelUrl":null,"author":"wagslane","authorUrl":"https://news.ycombinator.com/user?id=wagslane","authorImage":null,"authorSlug":null,"score":423,"views":null,"sharedCount":null,"likeCount":null,"sharedContent":null,"parent":{"__typename":"HnJson","localize":[{"title":"那个XOR技巧（2020年","locale":"zh"},{"title":"那個XOR技巧（2020年","locale":"zh-Hant"}]}},{"__typename":"SocialMediaPost","id":"HnPost-25821873","excerpt":"","slug":"/hn/25821873","title":"Show HN: Compare prices that US hospitals charge patients and insurance co's","date":"January 18, 2021","dateISO":"2021-01-18T17:54:28.793Z","datetime":"2021-01-18 17:54","tags":["story","Show HN","Hacker News"],"image":null,"imageAlt":null,"provider":"Hacker News","thirdPartyId":"25821873","url":"https://news.ycombinator.com/item?id=25821873","originalUrl":"https://turquoise.health/","imageRemote":"https://turquoise.health/static/images/logo.4d5f83c2f008.svg","video":null,"channel":"Show HN","channelUrl":"https://news.ycombinator.com/show","author":"ageitgey","authorUrl":"https://news.ycombinator.com/user?id=ageitgey","authorImage":null,"authorSlug":null,"score":445,"views":null,"sharedCount":null,"likeCount":null,"sharedContent":null,"parent":{"__typename":"HnJson","localize":[{"title":"HN新产品： 比较美国医院对患者和保险公司的收费价格。","locale":"zh"},{"title":"HN新產品： 比較美國醫院對患者和保險公司的收費價格。","locale":"zh-Hant"}]}},{"__typename":"SocialMediaPost","id":"HnPost-25820457","excerpt":"","slug":"/hn/25820457","title":"Julia adoption keeps climbing","date":"January 18, 2021","dateISO":"2021-01-18T16:29:09.555Z","datetime":"2021-01-18 16:29","tags":["story","Hacker News"],"image":null,"imageAlt":null,"provider":"Hacker News","thirdPartyId":"25820457","url":"https://news.ycombinator.com/item?id=25820457","originalUrl":"https://www.hpcwire.com/2021/01/13/julia-update-adoption-keeps-climbing-is-it-a-python-challenger/","imageRemote":"https://6lli539m39y3hpkelqsm3c2fg-wpengine.netdna-ssl.com/wp-content/uploads/2020/01/Julia-colorful-pixel-packing_800x.jpg","video":null,"channel":null,"channelUrl":null,"author":"newswasboring","authorUrl":"https://news.ycombinator.com/user?id=newswasboring","authorImage":null,"authorSlug":null,"score":276,"views":null,"sharedCount":null,"likeCount":null,"sharedContent":null,"parent":{"__typename":"HnJson","localize":[{"title":"茱莉亚的收养率不断攀升","locale":"zh"},{"title":"茱莉亞的收養率不斷攀升","locale":"zh-Hant"}]}},{"__typename":"SocialMediaPost","id":"HnPost-25821092","excerpt":"","slug":"/hn/25821092","title":"GitHub Stale Bots – A False Economy","date":"January 18, 2021","dateISO":"2021-01-18T16:29:09.555Z","datetime":"2021-01-18 16:29","tags":["story","Hacker News"],"image":null,"imageAlt":null,"provider":"Hacker News","thirdPartyId":"25821092","url":"https://news.ycombinator.com/item?id=25821092","originalUrl":"https://blog.benwinding.com/github-stale-bots/","imageRemote":"https://i.imgur.com/OOBT9Ta.png","video":null,"channel":null,"channelUrl":null,"author":"gitgud","authorUrl":"https://news.ycombinator.com/user?id=gitgud","authorImage":null,"authorSlug":null,"score":287,"views":null,"sharedCount":null,"likeCount":null,"sharedContent":null,"parent":{"__typename":"HnJson","localize":[{"title":"GitHub陈旧的机器人--虚假的经济","locale":"zh"},{"title":"GitHub陳舊的機器人--虛假的經濟","locale":"zh-Hant"}]}},{"__typename":"SocialMediaPost","id":"HnPost-25819803","excerpt":"","slug":"/hn/25819803","title":"GPT-Neo recreating GPT-3 free open source","date":"January 18, 2021","dateISO":"2021-01-18T11:53:36.650Z","datetime":"2021-01-18 11:53","tags":["story","Hacker News"],"image":null,"imageAlt":null,"provider":"Hacker News","thirdPartyId":"25819803","url":"https://news.ycombinator.com/item?id=25819803","originalUrl":"https://www.eleuther.ai/gpt-neo","imageRemote":"https://ssl.gstatic.com/atari/images/atari-logo.png","video":null,"channel":null,"channelUrl":null,"author":"sieste","authorUrl":"https://news.ycombinator.com/user?id=sieste","authorImage":null,"authorSlug":null,"score":723,"views":null,"sharedCount":null,"likeCount":null,"sharedContent":null,"parent":{"__typename":"HnJson","localize":[{"title":"GPT-Neo再造GPT-3免费开源。","locale":"zh"},{"title":"GPT-Neo再造GPT-3免費開源。","locale":"zh-Hant"}]}},{"__typename":"SocialMediaPost","id":"HnPost-25798148","excerpt":"","slug":"/hn/25798148","title":"State of JavaScript 2020","date":"January 18, 2021","dateISO":"2021-01-18T11:00:58.494Z","datetime":"2021-01-18 11:00","tags":["story","Hacker News"],"image":null,"imageAlt":null,"provider":"Hacker News","thirdPartyId":"25798148","url":"https://news.ycombinator.com/item?id=25798148","originalUrl":"https://2020.stateofjs.com/en-US/","imageRemote":"https://2020.stateofjs.com/images/stateofjs2020_socialmedia.png","video":null,"channel":null,"channelUrl":null,"author":"milkers","authorUrl":"https://news.ycombinator.com/user?id=milkers","authorImage":null,"authorSlug":null,"score":166,"views":null,"sharedCount":null,"likeCount":null,"sharedContent":null,"parent":{"__typename":"HnJson","localize":[{"title":"2020年的JavaScript现状","locale":"zh"},{"title":"2020年的JavaScript現狀","locale":"zh-Hant"}]}},{"__typename":"SocialMediaPost","id":"HnPost-25800237","excerpt":"","slug":"/hn/25800237","title":"Building DigitalOcean's API Gateway","date":"January 18, 2021","dateISO":"2021-01-18T11:00:58.494Z","datetime":"2021-01-18 11:00","tags":["story","Hacker News"],"image":null,"imageAlt":null,"provider":"Hacker News","thirdPartyId":"25800237","url":"https://news.ycombinator.com/item?id=25800237","originalUrl":"https://mauricio.github.io/2021/01/14/building-digitaloceans-api-gateway.html","imageRemote":"https://mauricio.github.io/images/api-gateway.png","video":null,"channel":null,"channelUrl":null,"author":"chynkm","authorUrl":"https://news.ycombinator.com/user?id=chynkm","authorImage":null,"authorSlug":null,"score":165,"views":null,"sharedCount":null,"likeCount":null,"sharedContent":null,"parent":{"__typename":"HnJson","localize":[{"title":"构建数字海洋的API网关","locale":"zh"},{"title":"構建數字海洋的API網關","locale":"zh-Hant"}]}}]}},"pageContext":{"basePath":"/","pageType":"home","tagsFilter":{"id":{"glob":"!*Post-1"}},"filter":{"id":{"glob":"!*Post-1"}},"limit":25,"skip":2075,"totalPages":125,"total":3105,"currentPage":84,"maxWidth":1024,"maxHeight":512,"locale":"ja","hrefLang":"ja-JA","originalPath":"/page/84","dateFormat":"YYYY-MM-DD"}},"staticQueryHashes":["1239077767","2506312863","2744905544","3025052997","3493603132","3493603132","3513215887","386998304"]}