{"componentChunkName":"component---gatsby-theme-buzzing-src-gatsby-theme-timeline-templates-posts-query-js","path":"/ja/page/87","result":{"data":{"site":{"siteMetadata":{"title":"Reddit 热门","description":"用中文浏览Reddit热门内容","social":[{"name":"Twitter","url":"https://twitter.com/gatsbyjs","external":null,"prefetch":null},{"name":"GitHub","url":"https://github.com/gatsbyjs","external":null,"prefetch":null}],"menuLinks":[],"localize":[{"locale":"en","title":"Buzzing on Reddit","description":"See what's buzzing on Reddit in your native language","social":[{"name":"Reddit","url":"https://www.reddit.com/","external":true,"prefetch":null}],"menuLinks":[{"name":"Weekly Selection","url":"/issues","external":null,"prefetch":null},{"name":"RSS","url":"/rss.xml","external":null,"prefetch":false}]},{"locale":"zh-Hant","title":"Reddit 熱門","description":"用中文瀏覽Reddit熱門內容","social":null,"menuLinks":null}]}},"tagsGroup":{"group":[{"fieldValue":"ASK HN","totalCount":54},{"fieldValue":"Hacker News","totalCount":3107},{"fieldValue":"Poll","totalCount":1},{"fieldValue":"Show HN","totalCount":100},{"fieldValue":"poll","totalCount":1},{"fieldValue":"story","totalCount":3106}]},"allBlogPost":{"nodes":[{"__typename":"SocialMediaPost","id":"HnPost-25802366","excerpt":"","slug":"/hn/25802366","title":"Google Safe Browsing can kill a startup","date":"January 16, 2021","dateISO":"2021-01-16T16:09:26.880Z","datetime":"2021-01-16 16:09","tags":["story","Hacker News"],"image":null,"imageAlt":null,"provider":"Hacker News","thirdPartyId":"25802366","url":"https://news.ycombinator.com/item?id=25802366","originalUrl":"https://gomox.medium.com/google-safe-browsing-can-kill-your-startup-7d73c474b98d","imageRemote":"https://miro.medium.com/max/1200/1*5mudWNIzqA8WptZxwZxpOQ.png","video":null,"channel":null,"channelUrl":null,"author":"gomox","authorUrl":"https://news.ycombinator.com/user?id=gomox","authorImage":null,"authorSlug":null,"score":1702,"views":null,"sharedCount":null,"likeCount":null,"sharedContent":null,"parent":{"__typename":"HnJson","localize":[{"title":"谷歌安全浏览可以杀死一家创业公司。","locale":"zh"},{"title":"谷歌安全瀏覽可以殺死一家創業公司。","locale":"zh-Hant"}]}},{"__typename":"SocialMediaPost","id":"HnPost-25801426","excerpt":"","slug":"/hn/25801426","title":"Running a fake power plant on the internet for a month","date":"January 16, 2021","dateISO":"2021-01-16T15:28:36.370Z","datetime":"2021-01-16 15:28","tags":["story","Hacker News"],"image":null,"imageAlt":null,"provider":"Hacker News","thirdPartyId":"25801426","url":"https://news.ycombinator.com/item?id=25801426","originalUrl":"https://grimminck.medium.com/running-a-fake-power-plant-on-the-internet-for-a-month-4a624f685aaa","imageRemote":"https://miro.medium.com/max/1024/1*fe1jmBrEL0AsXcJNfcuNlg.jpeg","video":null,"channel":null,"channelUrl":null,"author":"tutfbhuf","authorUrl":"https://news.ycombinator.com/user?id=tutfbhuf","authorImage":null,"authorSlug":null,"score":427,"views":null,"sharedCount":null,"likeCount":null,"sharedContent":null,"parent":{"__typename":"HnJson","localize":[{"title":"在互联网上经营假电厂一个月。","locale":"zh"},{"title":"在互聯網上經營假電廠一個月。","locale":"zh-Hant"}]}},{"__typename":"SocialMediaPost","id":"HnPost-25784683","excerpt":"","slug":"/hn/25784683","title":"English as She Is Spoke","date":"January 16, 2021","dateISO":"2021-01-16T12:25:14.748Z","datetime":"2021-01-16 12:25","tags":["story","Hacker News"],"image":null,"imageAlt":null,"provider":"Hacker News","thirdPartyId":"25784683","url":"https://news.ycombinator.com/item?id=25784683","originalUrl":"https://en.wikipedia.org/wiki/English_as_She_Is_Spoke","imageRemote":"https://upload.wikimedia.org/wikipedia/commons/thumb/1/1c/O_novo_guia_da_conversa%C3%A7ao_en_portuguez_e_inglez_1ere_edition.jpg/1200px-O_novo_guia_da_conversa%C3%A7ao_en_portuguez_e_inglez_1ere_edition.jpg","video":null,"channel":null,"channelUrl":null,"author":"benbreen","authorUrl":"https://news.ycombinator.com/user?id=benbreen","authorImage":null,"authorSlug":null,"score":245,"views":null,"sharedCount":null,"likeCount":null,"sharedContent":null,"parent":{"__typename":"HnJson","localize":[{"title":"她说的英语","locale":"zh"},{"title":"她說的英語","locale":"zh-Hant"}]}},{"__typename":"SocialMediaPost","id":"HnPost-25771953","excerpt":"","slug":"/hn/25771953","title":"Null","date":"January 16, 2021","dateISO":"2021-01-16T11:49:51.818Z","datetime":"2021-01-16 11:49","tags":["story","Hacker News"],"image":null,"imageAlt":null,"provider":"Hacker News","thirdPartyId":"25771953","url":"https://news.ycombinator.com/item?id=25771953","originalUrl":"https://popey.com/blog/2021/01/null/","imageRemote":"https://popey.com/blog/images/2021-01-13/launchpad.png","video":null,"channel":null,"channelUrl":null,"author":"JNRowe","authorUrl":"https://news.ycombinator.com/user?id=JNRowe","authorImage":null,"authorSlug":null,"score":726,"views":null,"sharedCount":null,"likeCount":null,"sharedContent":null,"parent":{"__typename":"HnJson","localize":[{"title":"虚无","locale":"zh"},{"title":"虛無","locale":"zh-Hant"}]}},{"__typename":"SocialMediaPost","id":"HnPost-25774546","excerpt":"","slug":"/hn/25774546","title":"Idris 2 version 0.3.0","date":"January 16, 2021","dateISO":"2021-01-16T11:49:51.818Z","datetime":"2021-01-16 11:49","tags":["story","Hacker News"],"image":null,"imageAlt":null,"provider":"Hacker News","thirdPartyId":"25774546","url":"https://news.ycombinator.com/item?id=25774546","originalUrl":"https://www.idris-lang.org/idris-2-version-030-released.html","imageRemote":"https://www.idris-lang.org/images/logo-small.png","video":null,"channel":null,"channelUrl":null,"author":"insulanian","authorUrl":"https://news.ycombinator.com/user?id=insulanian","authorImage":null,"authorSlug":null,"score":246,"views":null,"sharedCount":null,"likeCount":null,"sharedContent":null,"parent":{"__typename":"HnJson","localize":[{"title":"Idris 2 0.3.0版","locale":"zh"},{"title":"Idris 2 0.3.0版","locale":"zh-Hant"}]}},{"__typename":"SocialMediaPost","id":"HnPost-25775872","excerpt":"","slug":"/hn/25775872","title":"We don't need data scientists, we need data engineers","date":"January 16, 2021","dateISO":"2021-01-16T11:49:51.818Z","datetime":"2021-01-16 11:49","tags":["story","Hacker News"],"image":null,"imageAlt":null,"provider":"Hacker News","thirdPartyId":"25775872","url":"https://news.ycombinator.com/item?id=25775872","originalUrl":"https://www.mihaileric.com/posts/we-need-data-engineers-not-data-scientists/","imageRemote":"https://www.mihaileric.com/static/nasa-Q1p7bh3SHj8-unsplash-1d801dd5a6a5e44b7503e433b3a540b5-c6823.jpg","video":null,"channel":null,"channelUrl":null,"author":"winkywooster","authorUrl":"https://news.ycombinator.com/user?id=winkywooster","authorImage":null,"authorSlug":null,"score":716,"views":null,"sharedCount":null,"likeCount":null,"sharedContent":null,"parent":{"__typename":"HnJson","localize":[{"title":"我们不需要数据科学家，我们需要数据工程师。","locale":"zh"},{"title":"我們不需要數據科學家，我們需要數據工程師。","locale":"zh-Hant"}]}},{"__typename":"SocialMediaPost","id":"HnPost-25776225","excerpt":"","slug":"/hn/25776225","title":"Facebook Incubated the Insurrection","date":"January 16, 2021","dateISO":"2021-01-16T11:49:51.818Z","datetime":"2021-01-16 11:49","tags":["story","Hacker News"],"image":null,"imageAlt":null,"provider":"Hacker News","thirdPartyId":"25776225","url":"https://news.ycombinator.com/item?id=25776225","originalUrl":"https://www.nytimes.com/2021/01/14/opinion/facebook-far-right.html","imageRemote":"https://static01.nyt.com/images/2021/01/14/opinion/14tracked-warzel/14tracked-warzel-facebookJumbo-v2.jpg","video":null,"channel":null,"channelUrl":null,"author":"tysone","authorUrl":"https://news.ycombinator.com/user?id=tysone","authorImage":null,"authorSlug":null,"score":454,"views":null,"sharedCount":null,"likeCount":null,"sharedContent":null,"parent":{"__typename":"HnJson","localize":[{"title":"脸书孵化起义","locale":"zh"},{"title":"臉書孵化起義","locale":"zh-Hant"}]}},{"__typename":"SocialMediaPost","id":"HnPost-25776450","excerpt":"","slug":"/hn/25776450","title":"Fitbit is now officially part of Google","date":"January 16, 2021","dateISO":"2021-01-16T11:49:51.818Z","datetime":"2021-01-16 11:49","tags":["story","Hacker News"],"image":null,"imageAlt":null,"provider":"Hacker News","thirdPartyId":"25776450","url":"https://news.ycombinator.com/item?id=25776450","originalUrl":"https://blog.fitbit.com/2021-update/","imageRemote":"https://43nnuk1fz4a72826eo14gwfb-wpengine.netdna-ssl.com/wp-content/uploads/2017/03/Fitbit_Headshot_James.jpg","video":null,"channel":null,"channelUrl":null,"author":"blinky88","authorUrl":"https://news.ycombinator.com/user?id=blinky88","authorImage":null,"authorSlug":null,"score":292,"views":null,"sharedCount":null,"likeCount":null,"sharedContent":null,"parent":{"__typename":"HnJson","localize":[{"title":"Fitbit现在正式成为谷歌的一部分","locale":"zh"},{"title":"Fitbit現在正式成爲谷歌的一部分","locale":"zh-Hant"}]}},{"__typename":"SocialMediaPost","id":"HnPost-25776657","excerpt":"","slug":"/hn/25776657","title":"Licensing changes to Elasticsearch and Kibana","date":"January 16, 2021","dateISO":"2021-01-16T11:49:51.818Z","datetime":"2021-01-16 11:49","tags":["story","Hacker News"],"image":null,"imageAlt":null,"provider":"Hacker News","thirdPartyId":"25776657","url":"https://news.ycombinator.com/item?id=25776657","originalUrl":"https://www.elastic.co/blog/licensing-change","imageRemote":"https://static-www.elastic.co/v3/assets/bltefdd0b53724fa2ce/blt62f3b89a828cca66/60009475092adc41f184c868/blog-thumb-generic-elastic-lockup.png","video":null,"channel":null,"channelUrl":null,"author":"sl_","authorUrl":"https://news.ycombinator.com/user?id=sl_","authorImage":null,"authorSlug":null,"score":298,"views":null,"sharedCount":null,"likeCount":null,"sharedContent":null,"parent":{"__typename":"HnJson","localize":[{"title":"对Elasticsearch和Kibana的许可变更","locale":"zh"},{"title":"對Elasticsearch和Kibana的許可變更","locale":"zh-Hant"}]}},{"__typename":"SocialMediaPost","id":"HnPost-25783152","excerpt":"","slug":"/hn/25783152","title":"Ask HN: What are you working on?","date":"January 16, 2021","dateISO":"2021-01-16T11:49:51.818Z","datetime":"2021-01-16 11:49","tags":["story","ASK HN","Hacker News"],"image":null,"imageAlt":null,"provider":"Hacker News","thirdPartyId":"25783152","url":"https://news.ycombinator.com/item?id=25783152","originalUrl":"https://news.ycombinator.com/item?id=25783152","imageRemote":null,"video":null,"channel":"ASK HN","channelUrl":"https://news.ycombinator.com/ask","author":"dvt","authorUrl":"https://news.ycombinator.com/user?id=dvt","authorImage":null,"authorSlug":null,"score":526,"views":null,"sharedCount":null,"likeCount":null,"sharedContent":null,"parent":{"__typename":"HnJson","localize":[{"title":"HN提问：你在研究什么？","locale":"zh"},{"title":"HN提問：你在研究什麼？","locale":"zh-Hant"}]}},{"__typename":"SocialMediaPost","id":"HnPost-25790109","excerpt":"","slug":"/hn/25790109","title":"How I hijacked the top-level domain of a sovereign state","date":"January 16, 2021","dateISO":"2021-01-16T11:49:51.818Z","datetime":"2021-01-16 11:49","tags":["story","Hacker News"],"image":null,"imageAlt":null,"provider":"Hacker News","thirdPartyId":"25790109","url":"https://news.ycombinator.com/item?id=25790109","originalUrl":"https://labs.detectify.com/2021/01/15/how-i-hijacked-the-top-level-domain-of-a-sovereign-state/","imageRemote":"https://labs.detectify.com/wp-content/uploads/2021/01/210114_Labs_DNS_Kongo_Hijack.png","video":null,"channel":null,"channelUrl":null,"author":"Berg0X00","authorUrl":"https://news.ycombinator.com/user?id=Berg0X00","authorImage":null,"authorSlug":null,"score":295,"views":null,"sharedCount":null,"likeCount":null,"sharedContent":null,"parent":{"__typename":"HnJson","localize":[{"title":"我是如何劫持一个主权国家的顶级领域的？","locale":"zh"},{"title":"我是如何劫持一個主權國家的頂級領域的？","locale":"zh-Hant"}]}},{"__typename":"SocialMediaPost","id":"HnPost-25790530","excerpt":"","slug":"/hn/25790530","title":"Why cancer cells waste so much energy","date":"January 16, 2021","dateISO":"2021-01-16T11:49:51.818Z","datetime":"2021-01-16 11:49","tags":["story","Hacker News"],"image":null,"imageAlt":null,"provider":"Hacker News","thirdPartyId":"25790530","url":"https://news.ycombinator.com/item?id=25790530","originalUrl":"https://news.mit.edu/2021/cancer-cells-waste-energy-0115","imageRemote":"https://news.mit.edu/sites/default/files/images/202101/MIT-Warburg-Effect-01-press.jpg","video":null,"channel":null,"channelUrl":null,"author":"chmaynard","authorUrl":"https://news.ycombinator.com/user?id=chmaynard","authorImage":null,"authorSlug":null,"score":341,"views":null,"sharedCount":null,"likeCount":null,"sharedContent":null,"parent":{"__typename":"HnJson","localize":[{"title":"为什么癌细胞会浪费这么多能量","locale":"zh"},{"title":"爲什麼癌細胞會浪費這麼多能量","locale":"zh-Hant"}]}},{"__typename":"SocialMediaPost","id":"HnPost-25792316","excerpt":"","slug":"/hn/25792316","title":"The unsettling truth about the ‘Mostly Harmless’ hiker","date":"January 16, 2021","dateISO":"2021-01-16T11:49:51.818Z","datetime":"2021-01-16 11:49","tags":["story","Hacker News"],"image":null,"imageAlt":null,"provider":"Hacker News","thirdPartyId":"25792316","url":"https://news.ycombinator.com/item?id=25792316","originalUrl":"https://www.wired.com/story/unsettling-truth-mostly-harmless-hiker/","imageRemote":"https://media.wired.com/photos/5ff8e9cafff1735ab957fa1b/191:100/w_1280,c_limit/Identified-Hiker.jpg","video":null,"channel":null,"channelUrl":null,"author":"spking","authorUrl":"https://news.ycombinator.com/user?id=spking","authorImage":null,"authorSlug":null,"score":272,"views":null,"sharedCount":null,"likeCount":null,"sharedContent":null,"parent":{"__typename":"HnJson","localize":[{"title":"关于 \"大部分无害 \"的徒步旅行者的不解之谜。","locale":"zh"},{"title":"關於 \"大部分無害 \"的徒步旅行者的不解之謎。","locale":"zh-Hant"}]}},{"__typename":"SocialMediaPost","id":"HnPost-25793483","excerpt":"","slug":"/hn/25793483","title":"Signal is having technical difficulties","date":"January 16, 2021","dateISO":"2021-01-16T11:49:51.818Z","datetime":"2021-01-16 11:49","tags":["story","Hacker News"],"image":null,"imageAlt":null,"provider":"Hacker News","thirdPartyId":"25793483","url":"https://news.ycombinator.com/item?id=25793483","originalUrl":"HTTPS://status.signal.org/","imageRemote":null,"video":null,"channel":null,"channelUrl":null,"author":"tonymet","authorUrl":"https://news.ycombinator.com/user?id=tonymet","authorImage":null,"authorSlug":null,"score":907,"views":null,"sharedCount":null,"likeCount":null,"sharedContent":null,"parent":{"__typename":"HnJson","localize":[{"title":"信号有技术问题","locale":"zh"},{"title":"信號有技術問題","locale":"zh-Hant"}]}},{"__typename":"SocialMediaPost","id":"HnPost-25798008","excerpt":"","slug":"/hn/25798008","title":"Rust is a hard way to make a web API","date":"January 16, 2021","dateISO":"2021-01-16T11:49:51.818Z","datetime":"2021-01-16 11:49","tags":["story","Hacker News"],"image":null,"imageAlt":null,"provider":"Hacker News","thirdPartyId":"25798008","url":"https://news.ycombinator.com/item?id=25798008","originalUrl":"https://macwright.com/2021/01/15/rust.html","imageRemote":null,"video":null,"channel":null,"channelUrl":null,"author":"tmcw","authorUrl":"https://news.ycombinator.com/user?id=tmcw","authorImage":null,"authorSlug":null,"score":329,"views":null,"sharedCount":null,"likeCount":null,"sharedContent":null,"parent":{"__typename":"HnJson","localize":[{"title":"铁锈语言是制作网络API的硬道理。","locale":"zh"},{"title":"鐵鏽語言是製作網絡API的硬道理。","locale":"zh-Hant"}]}},{"__typename":"SocialMediaPost","id":"HnPost-25771885","excerpt":"","slug":"/hn/25771885","title":"German police take down 'world's largest darknet marketplace'","date":"January 16, 2021","dateISO":"2021-01-16T10:08:09.325Z","datetime":"2021-01-16 10:08","tags":["story","Hacker News"],"image":null,"imageAlt":null,"provider":"Hacker News","thirdPartyId":"25771885","url":"https://news.ycombinator.com/item?id=25771885","originalUrl":"https://www.barrons.com/news/german-police-take-down-world-s-largest-darknet-marketplace-01610449507","imageRemote":"https://www.barrons.com/asset/barrons/images/Barrons-Logo-AMP.png","video":null,"channel":null,"channelUrl":null,"author":"thinkloop","authorUrl":"https://news.ycombinator.com/user?id=thinkloop","authorImage":null,"authorSlug":null,"score":203,"views":null,"sharedCount":null,"likeCount":null,"sharedContent":null,"parent":{"__typename":"HnJson","localize":[{"title":"德国警方端掉 \"全球最大暗网市场","locale":"zh"},{"title":"德國警方端掉 \"全球最大暗網市場","locale":"zh-Hant"}]}},{"__typename":"SocialMediaPost","id":"HnPost-25789295","excerpt":"","slug":"/hn/25789295","title":"Maximizing Developer Effectiveness","date":"January 16, 2021","dateISO":"2021-01-16T10:08:09.325Z","datetime":"2021-01-16 10:08","tags":["story","Hacker News"],"image":null,"imageAlt":null,"provider":"Hacker News","thirdPartyId":"25789295","url":"https://news.ycombinator.com/item?id=25789295","originalUrl":"https://martinfowler.com/articles/developer-effectiveness.html","imageRemote":"https://martinfowler.com/articles/developer-effectiveness/micro-feedback-loops.png","video":null,"channel":null,"channelUrl":null,"author":"edoloughlin","authorUrl":"https://news.ycombinator.com/user?id=edoloughlin","authorImage":null,"authorSlug":null,"score":421,"views":null,"sharedCount":null,"likeCount":null,"sharedContent":null,"parent":{"__typename":"HnJson","localize":[{"title":"最大限度地提高开发人员的效率","locale":"zh"},{"title":"最大限度地提高開發人員的效率","locale":"zh-Hant"}]}},{"__typename":"SocialMediaPost","id":"HnPost-25797025","excerpt":"","slug":"/hn/25797025","title":"Why Zig when there is already C++, D, and Rust?","date":"January 16, 2021","dateISO":"2021-01-16T10:08:09.325Z","datetime":"2021-01-16 10:08","tags":["story","Hacker News"],"image":null,"imageAlt":null,"provider":"Hacker News","thirdPartyId":"25797025","url":"https://news.ycombinator.com/item?id=25797025","originalUrl":"https://ziglang.org/learn/why_zig_rust_d_cpp/","imageRemote":"https://ziglang.org/heart.svg","video":null,"channel":null,"channelUrl":null,"author":"mardiyah","authorUrl":"https://news.ycombinator.com/user?id=mardiyah","authorImage":null,"authorSlug":null,"score":276,"views":null,"sharedCount":null,"likeCount":null,"sharedContent":null,"parent":{"__typename":"HnJson","localize":[{"title":"既然已经有了C++、D和Rust，为什么还要Zig？","locale":"zh"},{"title":"既然已經有了C++、D和Rust，爲什麼還要Zig？","locale":"zh-Hant"}]}},{"__typename":"SocialMediaPost","id":"HnPost-25795731","excerpt":"","slug":"/hn/25795731","title":"Escaping VirtualBox 6.1: Part 1","date":"January 16, 2021","dateISO":"2021-01-16T01:48:22.878Z","datetime":"2021-01-16 01:48","tags":["story","Hacker News"],"image":null,"imageAlt":null,"provider":"Hacker News","thirdPartyId":"25795731","url":"https://news.ycombinator.com/item?id=25795731","originalUrl":"https://secret.club/2021/01/14/vbox-escape.html","imageRemote":"https://secret.club/assets/twitter.png","video":null,"channel":null,"channelUrl":null,"author":"lima","authorUrl":"https://news.ycombinator.com/user?id=lima","authorImage":null,"authorSlug":null,"score":323,"views":null,"sharedCount":null,"likeCount":null,"sharedContent":null,"parent":{"__typename":"HnJson","localize":[{"title":"Escaping VirtualBox 6.1: 第一部分","locale":"zh"},{"title":"Escaping VirtualBox 6.1: 第一部分","locale":"zh-Hant"}]}},{"__typename":"SocialMediaPost","id":"HnPost-25795575","excerpt":"","slug":"/hn/25795575","title":"WhatsApp delays privacy changes following backlash","date":"January 15, 2021","dateISO":"2021-01-15T23:08:17.085Z","datetime":"2021-01-15 23:08","tags":["story","Hacker News"],"image":null,"imageAlt":null,"provider":"Hacker News","thirdPartyId":"25795575","url":"https://news.ycombinator.com/item?id=25795575","originalUrl":"https://p.dw.com/p/3nzYg","imageRemote":"https://static.dw.com/image/52141889_6.jpg","video":null,"channel":null,"channelUrl":null,"author":"tchalla","authorUrl":"https://news.ycombinator.com/user?id=tchalla","authorImage":null,"authorSlug":null,"score":436,"views":null,"sharedCount":null,"likeCount":null,"sharedContent":null,"parent":{"__typename":"HnJson","localize":[{"title":"WhatsApp推迟隐私更改后的反弹","locale":"zh"},{"title":"WhatsApp推遲隱私更改後的反彈","locale":"zh-Hant"}]}},{"__typename":"SocialMediaPost","id":"HnPost-25793163","excerpt":"","slug":"/hn/25793163","title":"Be My Eyes","date":"January 15, 2021","dateISO":"2021-01-15T21:41:50.501Z","datetime":"2021-01-15 21:41","tags":["story","Hacker News"],"image":null,"imageAlt":null,"provider":"Hacker News","thirdPartyId":"25793163","url":"https://news.ycombinator.com/item?id=25793163","originalUrl":"https://www.bemyeyes.com/","imageRemote":"https://bemyeyes-assets.s3.amazonaws.com/website/OG/BME-illustration-tagline-01.png","video":null,"channel":null,"channelUrl":null,"author":"EndXA","authorUrl":"https://news.ycombinator.com/user?id=EndXA","authorImage":null,"authorSlug":null,"score":531,"views":null,"sharedCount":null,"likeCount":null,"sharedContent":null,"parent":{"__typename":"HnJson","localize":[{"title":"成为我的眼睛","locale":"zh"},{"title":"成爲我的眼睛","locale":"zh-Hant"}]}},{"__typename":"SocialMediaPost","id":"HnPost-25794962","excerpt":"","slug":"/hn/25794962","title":"Amazon Warehouse Workers to Decide Whether to Form Company's First U.S. Union","date":"January 15, 2021","dateISO":"2021-01-15T21:02:08.316Z","datetime":"2021-01-15 21:02","tags":["story","Hacker News"],"image":null,"imageAlt":null,"provider":"Hacker News","thirdPartyId":"25794962","url":"https://news.ycombinator.com/item?id=25794962","originalUrl":"https://www.npr.org/2021/01/15/948819324/amazon-warehouse-workers-to-decide-whether-to-form-companys-first-u-s-union","imageRemote":"https://media.npr.org/assets/img/2020/12/21/gettyimages-1124819752_wide-7c3600c4ac93e0f78f09f68cc366fd4023fc4acd.jpg?s=1400","video":null,"channel":null,"channelUrl":null,"author":"jimmy2020","authorUrl":"https://news.ycombinator.com/user?id=jimmy2020","authorImage":null,"authorSlug":null,"score":343,"views":null,"sharedCount":null,"likeCount":null,"sharedContent":null,"parent":{"__typename":"HnJson","localize":[{"title":"亚马逊仓库工人将决定是否成立公司在美国的第一个工会。","locale":"zh"},{"title":"亞馬遜倉庫工人將決定是否成立公司在美國的第一個工會。","locale":"zh-Hant"}]}},{"__typename":"SocialMediaPost","id":"HnPost-25788409","excerpt":"","slug":"/hn/25788409","title":"The Bit Short: Inside Crypto’s Doomsday Machine","date":"January 15, 2021","dateISO":"2021-01-15T20:17:32.198Z","datetime":"2021-01-15 20:17","tags":["story","Hacker News"],"image":null,"imageAlt":null,"provider":"Hacker News","thirdPartyId":"25788409","url":"https://news.ycombinator.com/item?id=25788409","originalUrl":"https://crypto-anonymous-2021.medium.com/the-bit-short-inside-cryptos-doomsday-machine-f8dcf78a64d3","imageRemote":"https://miro.medium.com/max/546/1*OgRN5NjsgNder22o8WCO-g.png","video":null,"channel":null,"channelUrl":null,"author":"tim333","authorUrl":"https://news.ycombinator.com/user?id=tim333","authorImage":null,"authorSlug":null,"score":315,"views":null,"sharedCount":null,"likeCount":null,"sharedContent":null,"parent":{"__typename":"HnJson","localize":[{"title":"比特短线：加密货币的末日机器内幕。","locale":"zh"},{"title":"比特短線：加密貨幣的末日機器內幕。","locale":"zh-Hant"}]}},{"__typename":"SocialMediaPost","id":"HnPost-25792719","excerpt":"","slug":"/hn/25792719","title":"Thanks HN: You helped save a company that now helps thousands make a living","date":"January 15, 2021","dateISO":"2021-01-15T20:17:32.198Z","datetime":"2021-01-15 20:17","tags":["story","Hacker News"],"image":null,"imageAlt":null,"provider":"Hacker News","thirdPartyId":"25792719","url":"https://news.ycombinator.com/item?id=25792719","originalUrl":"https://news.ycombinator.com/item?id=25792719","imageRemote":null,"video":null,"channel":null,"channelUrl":null,"author":"callmevlad","authorUrl":"https://news.ycombinator.com/user?id=callmevlad","authorImage":null,"authorSlug":null,"score":1361,"views":null,"sharedCount":null,"likeCount":null,"sharedContent":null,"parent":{"__typename":"HnJson","localize":[{"title":"谢谢HN：你帮助拯救了一家公司，现在帮助成千上万的人谋生。","locale":"zh"},{"title":"謝謝HN：你幫助拯救了一家公司，現在幫助成千上萬的人謀生。","locale":"zh-Hant"}]}},{"__typename":"SocialMediaPost","id":"HnPost-25788052","excerpt":"","slug":"/hn/25788052","title":"The Spoon Theory (2003)","date":"January 15, 2021","dateISO":"2021-01-15T18:27:32.492Z","datetime":"2021-01-15 18:27","tags":["story","Hacker News"],"image":null,"imageAlt":null,"provider":"Hacker News","thirdPartyId":"25788052","url":"https://news.ycombinator.com/item?id=25788052","originalUrl":"https://butyoudontlooksick.com/articles/written-by-christine/the-spoon-theory/","imageRemote":"https://cdn.totalcomputersusa.com/butyoudontlooksick.com/uploads/2011/05/thespoontheory_logo.jpg","video":null,"channel":null,"channelUrl":null,"author":"Eugeleo","authorUrl":"https://news.ycombinator.com/user?id=Eugeleo","authorImage":null,"authorSlug":null,"score":223,"views":null,"sharedCount":null,"likeCount":null,"sharedContent":null,"parent":{"__typename":"HnJson","localize":[{"title":"勺子理论(2003年)","locale":"zh"},{"title":"勺子理論(2003年)","locale":"zh-Hant"}]}}]}},"pageContext":{"basePath":"/","pageType":"home","tagsFilter":{"id":{"glob":"!*Post-1"}},"filter":{"id":{"glob":"!*Post-1"}},"limit":25,"skip":2150,"totalPages":125,"total":3107,"currentPage":87,"maxWidth":1024,"maxHeight":512,"locale":"ja","hrefLang":"ja-JA","originalPath":"/page/87","dateFormat":"YYYY-MM-DD"}},"staticQueryHashes":["1239077767","2506312863","2744905544","3025052997","3493603132","3493603132","3513215887","386998304"]}