{"componentChunkName":"component---gatsby-theme-buzzing-src-gatsby-theme-timeline-templates-posts-query-js","path":"/ja/tags/hacker-news/page/80","result":{"data":{"site":{"siteMetadata":{"title":"Reddit 热门","description":"用中文浏览Reddit热门内容","social":[{"name":"Twitter","url":"https://twitter.com/gatsbyjs","external":null,"prefetch":null},{"name":"GitHub","url":"https://github.com/gatsbyjs","external":null,"prefetch":null}],"menuLinks":[],"localize":[{"locale":"en","title":"Buzzing on Reddit","description":"See what's buzzing on Reddit in your native language","social":[{"name":"Reddit","url":"https://www.reddit.com/","external":true,"prefetch":null}],"menuLinks":[{"name":"Weekly Selection","url":"/issues","external":null,"prefetch":null},{"name":"RSS","url":"/rss.xml","external":null,"prefetch":false}]},{"locale":"zh-Hant","title":"Reddit 熱門","description":"用中文瀏覽Reddit熱門內容","social":null,"menuLinks":null}]}},"tagsGroup":{"group":[{"fieldValue":"ASK HN","totalCount":54},{"fieldValue":"Hacker News","totalCount":3105},{"fieldValue":"Poll","totalCount":1},{"fieldValue":"Show HN","totalCount":100},{"fieldValue":"poll","totalCount":1},{"fieldValue":"story","totalCount":3104}]},"allBlogPost":{"nodes":[{"__typename":"SocialMediaPost","id":"HnPost-25871990","excerpt":"","slug":"/hn/25871990","title":"Raspberry Pi Enters Microcontroller Game with $4 Pico","date":"January 22, 2021","dateISO":"2021-01-22T21:04:07.237Z","datetime":"2021-01-22 21:04","tags":["story","Hacker News"],"image":null,"imageAlt":null,"provider":"Hacker News","thirdPartyId":"25871990","url":"https://news.ycombinator.com/item?id=25871990","originalUrl":"https://hackaday.com/2021/01/20/raspberry-pi-enters-microcontroller-game-with-4-pico/","imageRemote":"https://hackaday.com/wp-content/uploads/2021/01/DSCF2185_featured.png","video":null,"channel":null,"channelUrl":null,"author":"dwpdwpdwpdwpdwp","authorUrl":"https://news.ycombinator.com/user?id=dwpdwpdwpdwpdwp","authorImage":null,"authorSlug":null,"score":175,"views":null,"sharedCount":null,"likeCount":null,"sharedContent":null,"parent":{"__typename":"HnJson","localize":[{"title":"树莓派以4美元Pico进入微控制器游戏","locale":"zh"},{"title":"樹莓派以4美元Pico進入微控制器遊戲","locale":"zh-Hant"}]}},{"__typename":"SocialMediaPost","id":"HnPost-25874497","excerpt":"","slug":"/hn/25874497","title":"First-ever atomic resolution video of salt crystals forming in real time","date":"January 22, 2021","dateISO":"2021-01-22T21:04:07.237Z","datetime":"2021-01-22 21:04","tags":["story","Hacker News"],"image":null,"imageAlt":null,"provider":"Hacker News","thirdPartyId":"25874497","url":"https://news.ycombinator.com/item?id=25874497","originalUrl":"https://www.u-tokyo.ac.jp/focus/en/press/z0508_00161.html","imageRemote":"https://www.u-tokyo.ac.jp/content/400152886.png","video":null,"channel":null,"channelUrl":null,"author":"rbanffy","authorUrl":"https://news.ycombinator.com/user?id=rbanffy","authorImage":null,"authorSlug":null,"score":187,"views":null,"sharedCount":null,"likeCount":null,"sharedContent":null,"parent":{"__typename":"HnJson","localize":[{"title":"有史以来第一段盐晶体实时形成的原子分辨率视频。","locale":"zh"},{"title":"有史以來第一段鹽晶體實時形成的原子分辨率視頻。","locale":"zh-Hant"}]}},{"__typename":"SocialMediaPost","id":"HnPost-25859588","excerpt":"","slug":"/hn/25859588","title":"VSCode, Dev Containers and Docker","date":"January 22, 2021","dateISO":"2021-01-22T19:33:47.939Z","datetime":"2021-01-22 19:33","tags":["story","Hacker News"],"image":null,"imageAlt":null,"provider":"Hacker News","thirdPartyId":"25859588","url":"https://news.ycombinator.com/item?id=25859588","originalUrl":"https://blog.feabhas.com/2021/01/vscode-dev-containers-and-docker-moving-software-development-forward/","imageRemote":"https://blog.feabhas.com/wp-content/uploads/2021/01/open-in-devcontainer-1024x874.png","video":null,"channel":null,"channelUrl":null,"author":"ingve","authorUrl":"https://news.ycombinator.com/user?id=ingve","authorImage":null,"authorSlug":null,"score":163,"views":null,"sharedCount":null,"likeCount":null,"sharedContent":null,"parent":{"__typename":"HnJson","localize":[{"title":"VSCode，开发容器和Docker。","locale":"zh"},{"title":"VSCode，開發容器和Docker。","locale":"zh-Hant"}]}},{"__typename":"SocialMediaPost","id":"HnPost-25868742","excerpt":"","slug":"/hn/25868742","title":"Tales of Favicons and Caches: Persistent Tracking in Modern Browsers [pdf]","date":"January 22, 2021","dateISO":"2021-01-22T19:33:47.939Z","datetime":"2021-01-22 19:33","tags":["story","Hacker News"],"image":null,"imageAlt":null,"provider":"Hacker News","thirdPartyId":"25868742","url":"https://news.ycombinator.com/item?id=25868742","originalUrl":"https://www.cs.uic.edu/~polakis/papers/solomos-ndss21.pdf","imageRemote":null,"video":null,"channel":null,"channelUrl":null,"author":"amenghra","authorUrl":"https://news.ycombinator.com/user?id=amenghra","authorImage":null,"authorSlug":null,"score":161,"views":null,"sharedCount":null,"likeCount":null,"sharedContent":null,"parent":{"__typename":"HnJson","localize":[{"title":"法宝和藏品的故事。现代浏览器中的持久跟踪 [pdf]","locale":"zh"},{"title":"法寶和藏品的故事。現代瀏覽器中的持久跟蹤 [pdf]","locale":"zh-Hant"}]}},{"__typename":"SocialMediaPost","id":"HnPost-25869918","excerpt":"","slug":"/hn/25869918","title":"Android Ported to RISC-V","date":"January 22, 2021","dateISO":"2021-01-22T19:33:47.939Z","datetime":"2021-01-22 19:33","tags":["story","Hacker News"],"image":null,"imageAlt":null,"provider":"Hacker News","thirdPartyId":"25869918","url":"https://news.ycombinator.com/item?id=25869918","originalUrl":"https://www.theregister.com/2021/01/21/android_riscv_port/","imageRemote":"https://regmedia.co.uk/2021/01/21/shutterstock_risc.jpg","video":null,"channel":null,"channelUrl":null,"author":"phkahler","authorUrl":"https://news.ycombinator.com/user?id=phkahler","authorImage":null,"authorSlug":null,"score":167,"views":null,"sharedCount":null,"likeCount":null,"sharedContent":null,"parent":{"__typename":"HnJson","localize":[{"title":"Android移植到RISC-V上","locale":"zh"},{"title":"Android移植到RISC-V上","locale":"zh-Hant"}]}},{"__typename":"SocialMediaPost","id":"HnPost-25871787","excerpt":"","slug":"/hn/25871787","title":"Remembering Windows 3.1 themes and user empowerment","date":"January 22, 2021","dateISO":"2021-01-22T19:33:47.939Z","datetime":"2021-01-22 19:33","tags":["story","Hacker News"],"image":null,"imageAlt":null,"provider":"Hacker News","thirdPartyId":"25871787","url":"https://news.ycombinator.com/item?id=25871787","originalUrl":"https://hisham.hm/2019/07/26/remembering-windows-31-themes-and-user-empowerment/","imageRemote":"https://hisham.hm/img/logo-sq.png","video":null,"channel":null,"channelUrl":null,"author":"ingve","authorUrl":"https://news.ycombinator.com/user?id=ingve","authorImage":null,"authorSlug":null,"score":200,"views":null,"sharedCount":null,"likeCount":null,"sharedContent":null,"parent":{"__typename":"HnJson","localize":[{"title":"记Windows3.1主题和用户授权情况","locale":"zh"},{"title":"記Windows3.1主題和用戶授權情況","locale":"zh-Hant"}]}},{"__typename":"SocialMediaPost","id":"HnPost-25872525","excerpt":"","slug":"/hn/25872525","title":"Pidgin – A Universal Chat Client","date":"January 22, 2021","dateISO":"2021-01-22T19:33:47.939Z","datetime":"2021-01-22 19:33","tags":["story","Hacker News"],"image":null,"imageAlt":null,"provider":"Hacker News","thirdPartyId":"25872525","url":"https://news.ycombinator.com/item?id=25872525","originalUrl":"https://www.pidgin.im/plugins","imageRemote":"https://pidgin.im/images/pidgin-circle-256.png","video":null,"channel":null,"channelUrl":null,"author":"smusamashah","authorUrl":"https://news.ycombinator.com/user?id=smusamashah","authorImage":null,"authorSlug":null,"score":383,"views":null,"sharedCount":null,"likeCount":null,"sharedContent":null,"parent":{"__typename":"HnJson","localize":[{"title":"Pidgin - 一个通用的聊天客户端","locale":"zh"},{"title":"Pidgin - 一個通用的聊天客戶端","locale":"zh-Hant"}]}},{"__typename":"SocialMediaPost","id":"HnPost-25872922","excerpt":"","slug":"/hn/25872922","title":"Show HN: Iconduck – 100k open source icons, downloadable and searchable","date":"January 22, 2021","dateISO":"2021-01-22T19:33:47.939Z","datetime":"2021-01-22 19:33","tags":["story","Show HN","Hacker News"],"image":null,"imageAlt":null,"provider":"Hacker News","thirdPartyId":"25872922","url":"https://news.ycombinator.com/item?id=25872922","originalUrl":"https://iconduck.com/","imageRemote":"https://iconduck.com/external/icons/static/images/og/fallback.png","video":null,"channel":"Show HN","channelUrl":"https://news.ycombinator.com/show","author":"onassar","authorUrl":"https://news.ycombinator.com/user?id=onassar","authorImage":null,"authorSlug":null,"score":233,"views":null,"sharedCount":null,"likeCount":null,"sharedContent":null,"parent":{"__typename":"HnJson","localize":[{"title":"HN新产品： Iconduck - 100k开源图标，可下载和搜索。","locale":"zh"},{"title":"HN新產品： Iconduck - 100k開源圖標，可下載和搜索。","locale":"zh-Hant"}]}},{"__typename":"SocialMediaPost","id":"HnPost-25873095","excerpt":"","slug":"/hn/25873095","title":"Audi announces end of combustion A4, A6 and A8 models","date":"January 22, 2021","dateISO":"2021-01-22T19:33:47.939Z","datetime":"2021-01-22 19:33","tags":["story","Hacker News"],"image":null,"imageAlt":null,"provider":"Hacker News","thirdPartyId":"25873095","url":"https://news.ycombinator.com/item?id=25873095","originalUrl":"https://www.electrive.com/2021/01/22/audi-announces-end-of-combustion-a4-a6-a8-models/","imageRemote":"https://www.electrive.com/wp-content/uploads/2021/01/audi-a4-a6-a8-collage-min.png","video":null,"channel":null,"channelUrl":null,"author":"reddotX","authorUrl":"https://news.ycombinator.com/user?id=reddotX","authorImage":null,"authorSlug":null,"score":259,"views":null,"sharedCount":null,"likeCount":null,"sharedContent":null,"parent":{"__typename":"HnJson","localize":[{"title":"奥迪宣布结束内燃式A4、A6和A8车型的研发工作","locale":"zh"},{"title":"奧迪宣佈結束內燃式A4、A6和A8車型的研發工作","locale":"zh-Hant"}]}},{"__typename":"SocialMediaPost","id":"HnPost-25873887","excerpt":"","slug":"/hn/25873887","title":"Dissecting the Apple M1 GPU, Part II","date":"January 22, 2021","dateISO":"2021-01-22T19:33:47.939Z","datetime":"2021-01-22 19:33","tags":["story","Hacker News"],"image":null,"imageAlt":null,"provider":"Hacker News","thirdPartyId":"25873887","url":"https://news.ycombinator.com/item?id=25873887","originalUrl":"https://rosenzweig.io/blog/asahi-gpu-part-2.html","imageRemote":"https://rosenzweig.io/M1HelloTriangle.png","video":null,"channel":null,"channelUrl":null,"author":"dddddaviddddd","authorUrl":"https://news.ycombinator.com/user?id=dddddaviddddd","authorImage":null,"authorSlug":null,"score":187,"views":null,"sharedCount":null,"likeCount":null,"sharedContent":null,"parent":{"__typename":"HnJson","localize":[{"title":"剖析苹果M1 GPU，第二部分。","locale":"zh"},{"title":"剖析蘋果M1 GPU，第二部分。","locale":"zh-Hant"}]}},{"__typename":"SocialMediaPost","id":"HnPost-25867693","excerpt":"","slug":"/hn/25867693","title":"Why isn't differential dataflow more popular?","date":"January 22, 2021","dateISO":"2021-01-22T15:59:57.819Z","datetime":"2021-01-22 15:59","tags":["story","Hacker News"],"image":null,"imageAlt":null,"provider":"Hacker News","thirdPartyId":"25867693","url":"https://news.ycombinator.com/item?id=25867693","originalUrl":"https://scattered-thoughts.net/writing/why-isnt-differential-dataflow-more-popular/","imageRemote":null,"video":null,"channel":null,"channelUrl":null,"author":"jamii","authorUrl":"https://news.ycombinator.com/user?id=jamii","authorImage":null,"authorSlug":null,"score":167,"views":null,"sharedCount":null,"likeCount":null,"sharedContent":null,"parent":{"__typename":"HnJson","localize":[{"title":"为什么差分数据流没有更受欢迎？","locale":"zh"},{"title":"爲什麼差分數據流沒有更受歡迎？","locale":"zh-Hant"}]}},{"__typename":"SocialMediaPost","id":"HnPost-25860819","excerpt":"","slug":"/hn/25860819","title":"Launch HN: Finmark (YC S20) – Financial planning software for startups","date":"January 22, 2021","dateISO":"2021-01-22T14:52:03.669Z","datetime":"2021-01-22 14:52","tags":["story","Hacker News"],"image":null,"imageAlt":null,"provider":"Hacker News","thirdPartyId":"25860819","url":"https://news.ycombinator.com/item?id=25860819","originalUrl":"https://news.ycombinator.com/item?id=25860819","imageRemote":null,"video":null,"channel":null,"channelUrl":null,"author":"ramie","authorUrl":"https://news.ycombinator.com/user?id=ramie","authorImage":null,"authorSlug":null,"score":160,"views":null,"sharedCount":null,"likeCount":null,"sharedContent":null,"parent":{"__typename":"HnJson","localize":[{"title":"发布会 HN：Finmark (YC S20)--初创企业财务规划软件。","locale":"zh"},{"title":"發佈會 HN：Finmark (YC S20)--初創企業財務規劃軟件。","locale":"zh-Hant"}]}},{"__typename":"SocialMediaPost","id":"HnPost-25868644","excerpt":"","slug":"/hn/25868644","title":"Monarch butterfly population in California spirals to another record low","date":"January 22, 2021","dateISO":"2021-01-22T14:52:03.669Z","datetime":"2021-01-22 14:52","tags":["story","Hacker News"],"image":null,"imageAlt":null,"provider":"Hacker News","thirdPartyId":"25868644","url":"https://news.ycombinator.com/item?id=25868644","originalUrl":"http://xerces.org/blog/monarch-population-in-california-spirals-to-another-record-low","imageRemote":"http://xerces.org/sites/default/files/inline-images/IMG_4134.JPG","video":null,"channel":null,"channelUrl":null,"author":"prostoalex","authorUrl":"https://news.ycombinator.com/user?id=prostoalex","authorImage":null,"authorSlug":null,"score":164,"views":null,"sharedCount":null,"likeCount":null,"sharedContent":null,"parent":{"__typename":"HnJson","localize":[{"title":"加利福尼亚的帝王斑蝶数量再创新低","locale":"zh"},{"title":"加利福尼亞的帝王斑蝶數量再創新低","locale":"zh-Hant"}]}},{"__typename":"SocialMediaPost","id":"HnPost-25860251","excerpt":"","slug":"/hn/25860251","title":"DDoS-Guard to forfeit internet space occupied by Parler","date":"January 22, 2021","dateISO":"2021-01-22T13:45:25.865Z","datetime":"2021-01-22 13:45","tags":["story","Hacker News"],"image":null,"imageAlt":null,"provider":"Hacker News","thirdPartyId":"25860251","url":"https://news.ycombinator.com/item?id=25860251","originalUrl":"https://krebsonsecurity.com/2021/01/ddos-guard-to-forfeit-internet-space-occupied-by-parler/","imageRemote":"https://krebsonsecurity.com/wp-content/uploads/2021/01/parler2.png","video":null,"channel":null,"channelUrl":null,"author":"todsacerdoti","authorUrl":"https://news.ycombinator.com/user?id=todsacerdoti","authorImage":null,"authorSlug":null,"score":164,"views":null,"sharedCount":null,"likeCount":null,"sharedContent":null,"parent":{"__typename":"HnJson","localize":[{"title":"DDoS-Guard将没收Parler占用的互联网空间。","locale":"zh"},{"title":"DDoS-Guard將沒收Parler佔用的互聯網空間。","locale":"zh-Hant"}]}},{"__typename":"SocialMediaPost","id":"HnPost-25865094","excerpt":"","slug":"/hn/25865094","title":"AWS announces forks of Elasticsearch and Kibana","date":"January 22, 2021","dateISO":"2021-01-22T13:45:25.865Z","datetime":"2021-01-22 13:45","tags":["story","Hacker News"],"image":null,"imageAlt":null,"provider":"Hacker News","thirdPartyId":"25865094","url":"https://news.ycombinator.com/item?id=25865094","originalUrl":"https://aws.amazon.com/blogs/opensource/stepping-up-for-a-truly-open-source-elasticsearch","imageRemote":"https://d2908q01vomqb2.cloudfront.net/ca3512f4dfa95a03169c5a670a4c91a19b3077b4/2019/01/10/open-source-logo-800x400.jpg","video":null,"channel":null,"channelUrl":null,"author":"ke4qqq","authorUrl":"https://news.ycombinator.com/user?id=ke4qqq","authorImage":null,"authorSlug":null,"score":1112,"views":null,"sharedCount":null,"likeCount":null,"sharedContent":null,"parent":{"__typename":"HnJson","localize":[{"title":"AWS宣布对Elasticsearch和Kibana进行分叉处理","locale":"zh"},{"title":"AWS宣佈對Elasticsearch和Kibana進行分叉處理","locale":"zh-Hant"}]}},{"__typename":"SocialMediaPost","id":"HnPost-25860094","excerpt":"","slug":"/hn/25860094","title":"FunkWhale: Decentralized Music Server","date":"January 22, 2021","dateISO":"2021-01-22T07:49:08.978Z","datetime":"2021-01-22 07:49","tags":["story","Hacker News"],"image":null,"imageAlt":null,"provider":"Hacker News","thirdPartyId":"25860094","url":"https://news.ycombinator.com/item?id=25860094","originalUrl":"https://funkwhale.audio/en_US/","imageRemote":"https://funkwhale.audio/favicon.png","video":null,"channel":null,"channelUrl":null,"author":"alexfromapex","authorUrl":"https://news.ycombinator.com/user?id=alexfromapex","authorImage":null,"authorSlug":null,"score":160,"views":null,"sharedCount":null,"likeCount":null,"sharedContent":null,"parent":{"__typename":"HnJson","localize":[{"title":"FunkWhale。分散式音乐服务器","locale":"zh"},{"title":"FunkWhale。分散式音樂服務器","locale":"zh-Hant"}]}},{"__typename":"SocialMediaPost","id":"HnPost-25868713","excerpt":"","slug":"/hn/25868713","title":"Google's Project Loon is shutting down","date":"January 22, 2021","dateISO":"2021-01-22T07:49:08.978Z","datetime":"2021-01-22 07:49","tags":["story","Hacker News"],"image":null,"imageAlt":null,"provider":"Hacker News","thirdPartyId":"25868713","url":"https://news.ycombinator.com/item?id=25868713","originalUrl":"https://blog.x.company/loons-final-flight-e9d699123a96?gi=b913b3d1667e","imageRemote":"https://miro.medium.com/max/1200/1*gEo3FCKfchd_3UWWUalsjg.jpeg","video":null,"channel":null,"channelUrl":null,"author":"sarthakjshetty","authorUrl":"https://news.ycombinator.com/user?id=sarthakjshetty","authorImage":null,"authorSlug":null,"score":184,"views":null,"sharedCount":null,"likeCount":null,"sharedContent":null,"parent":{"__typename":"HnJson","localize":[{"title":"谷歌的Project Loon要关闭了","locale":"zh"},{"title":"谷歌的Project Loon要關閉了","locale":"zh-Hant"}]}},{"__typename":"SocialMediaPost","id":"HnPost-25861998","excerpt":"","slug":"/hn/25861998","title":"Twitter sued for allegedly refusing to remove child porn","date":"January 22, 2021","dateISO":"2021-01-22T04:05:22.865Z","datetime":"2021-01-22 04:05","tags":["story","Hacker News"],"image":null,"imageAlt":null,"provider":"Hacker News","thirdPartyId":"25861998","url":"https://news.ycombinator.com/item?id=25861998","originalUrl":"https://nypost.com/2021/01/21/twitter-sued-for-allegedly-refusing-to-remove-child-porn/","imageRemote":"https://i0.wp.com/nypost.com/wp-content/uploads/sites/2/2021/01/twitter-lawsuit-01.jpg?quality=90&strip=all&ssl=1","video":null,"channel":null,"channelUrl":null,"author":"thereare5lights","authorUrl":"https://news.ycombinator.com/user?id=thereare5lights","authorImage":null,"authorSlug":null,"score":174,"views":null,"sharedCount":null,"likeCount":null,"sharedContent":null,"parent":{"__typename":"HnJson","localize":[{"title":"推特因涉嫌拒绝删除儿童色情而被起诉","locale":"zh"},{"title":"推特因涉嫌拒絕刪除兒童色情而被起訴","locale":"zh-Hant"}]}},{"__typename":"SocialMediaPost","id":"HnPost-25852438","excerpt":"","slug":"/hn/25852438","title":"The Apgar Score helped decrease the infant mortality rate","date":"January 22, 2021","dateISO":"2021-01-22T01:31:22.224Z","datetime":"2021-01-22 01:31","tags":["story","Hacker News"],"image":null,"imageAlt":null,"provider":"Hacker News","thirdPartyId":"25852438","url":"https://news.ycombinator.com/item?id=25852438","originalUrl":"https://massivesci.com/articles/virginia-apgar-score-anesthesiologist-our-science-heroes/","imageRemote":"https://images.takeshape.io/fd194db7-7b25-4b5a-8cc7-da7f31fab475/dev/f86656e9-c055-4b81-ad7c-7ed5cefabd4e/gabriel-tovar-zFatTAHadrU-unsplash.jpg?auto=compress%2Cformat&crop=faces&fit=crop&fm=jpg&h=630&q=75&w=1200","video":null,"channel":null,"channelUrl":null,"author":"allthebest","authorUrl":"https://news.ycombinator.com/user?id=allthebest","authorImage":null,"authorSlug":null,"score":163,"views":null,"sharedCount":null,"likeCount":null,"sharedContent":null,"parent":{"__typename":"HnJson","localize":[{"title":"Apgar评分有助于降低婴儿死亡率。","locale":"zh"},{"title":"Apgar評分有助於降低嬰兒死亡率。","locale":"zh-Hant"}]}},{"__typename":"SocialMediaPost","id":"HnPost-25858366","excerpt":"","slug":"/hn/25858366","title":"Support for the IPFS Protocol – Firefox Bugzilla","date":"January 22, 2021","dateISO":"2021-01-22T01:31:22.224Z","datetime":"2021-01-22 01:31","tags":["story","Hacker News"],"image":null,"imageAlt":null,"provider":"Hacker News","thirdPartyId":"25858366","url":"https://news.ycombinator.com/item?id=25858366","originalUrl":"https://bugzilla.mozilla.org/show_bug.cgi?id=1354807","imageRemote":"https://bugzilla.mozilla.org/static/v20201215.1/extensions/BMO/web/images/moz-fav-one-color-white-rgb.svg","video":null,"channel":null,"channelUrl":null,"author":"fossislife","authorUrl":"https://news.ycombinator.com/user?id=fossislife","authorImage":null,"authorSlug":null,"score":199,"views":null,"sharedCount":null,"likeCount":null,"sharedContent":null,"parent":{"__typename":"HnJson","localize":[{"title":"对IPFS协议的支持 - Firefox Bugzilla。","locale":"zh"},{"title":"對IPFS協議的支持 - Firefox Bugzilla。","locale":"zh-Hant"}]}},{"__typename":"SocialMediaPost","id":"HnPost-25863377","excerpt":"","slug":"/hn/25863377","title":"Bitwarden releases “emergency access” feature","date":"January 22, 2021","dateISO":"2021-01-22T01:31:22.224Z","datetime":"2021-01-22 01:31","tags":["story","Hacker News"],"image":null,"imageAlt":null,"provider":"Hacker News","thirdPartyId":"25863377","url":"https://news.ycombinator.com/item?id=25863377","originalUrl":"https://bitwarden.com/help/article/releasenotes/#2021-01-19","imageRemote":"https://bitwarden.com/images/logo-vertical-white.svg","video":null,"channel":null,"channelUrl":null,"author":"madsmtm","authorUrl":"https://news.ycombinator.com/user?id=madsmtm","authorImage":null,"authorSlug":null,"score":322,"views":null,"sharedCount":null,"likeCount":null,"sharedContent":null,"parent":{"__typename":"HnJson","localize":[{"title":"Bitwarden发布 \"紧急访问 \"功能","locale":"zh"},{"title":"Bitwarden發佈 \"緊急訪問 \"功能","locale":"zh-Hant"}]}},{"__typename":"SocialMediaPost","id":"HnPost-25865062","excerpt":"","slug":"/hn/25865062","title":"Still alive","date":"January 22, 2021","dateISO":"2021-01-22T01:31:22.224Z","datetime":"2021-01-22 01:31","tags":["story","Hacker News"],"image":null,"imageAlt":null,"provider":"Hacker News","thirdPartyId":"25865062","url":"https://news.ycombinator.com/item?id=25865062","originalUrl":"https://astralcodexten.substack.com/p/still-alive","imageRemote":"https://bucketeer-e05bbc84-baa3-437e-9518-adb32be77984.s3.amazonaws.com/public/images/c6711968-876b-4c79-ba53-5a6f9c60e338_920x720.jpeg","video":null,"channel":null,"channelUrl":null,"author":"Lewton","authorUrl":"https://news.ycombinator.com/user?id=Lewton","authorImage":null,"authorSlug":null,"score":678,"views":null,"sharedCount":null,"likeCount":null,"sharedContent":null,"parent":{"__typename":"HnJson","localize":[{"title":"还活着","locale":"zh"},{"title":"還活着","locale":"zh-Hant"}]}},{"__typename":"SocialMediaPost","id":"HnPost-25862948","excerpt":"","slug":"/hn/25862948","title":"Instacart to cut 1,900 jobs, including its only union roles","date":"January 21, 2021","dateISO":"2021-01-21T23:57:33.109Z","datetime":"2021-01-21 23:57","tags":["story","Hacker News"],"image":null,"imageAlt":null,"provider":"Hacker News","thirdPartyId":"25862948","url":"https://news.ycombinator.com/item?id=25862948","originalUrl":"https://www.bloomberg.com/news/articles/2021-01-21/instacart-to-cut-1-900-jobs-including-its-only-union-positions","imageRemote":null,"video":null,"channel":null,"channelUrl":null,"author":"Jerry2","authorUrl":"https://news.ycombinator.com/user?id=Jerry2","authorImage":null,"authorSlug":null,"score":237,"views":null,"sharedCount":null,"likeCount":null,"sharedContent":null,"parent":{"__typename":"HnJson","localize":[{"title":"Instacart将削减1900个工作岗位，包括其唯一的工会角色。","locale":"zh"},{"title":"Instacart將削減1900個工作崗位，包括其唯一的工會角色。","locale":"zh-Hant"}]}},{"__typename":"SocialMediaPost","id":"HnPost-25863999","excerpt":"","slug":"/hn/25863999","title":"Judge refuses to reinstate Parler after Amazon shut it down","date":"January 21, 2021","dateISO":"2021-01-21T23:57:33.109Z","datetime":"2021-01-21 23:57","tags":["story","Hacker News"],"image":null,"imageAlt":null,"provider":"Hacker News","thirdPartyId":"25863999","url":"https://news.ycombinator.com/item?id=25863999","originalUrl":"https://www.npr.org/2021/01/21/956486352/judge-refuses-to-reinstate-parler-after-amazon-shut-it-down","imageRemote":"https://media.npr.org/assets/img/2021/01/13/gettyimages-1230524224_wide-7f6730bd908167fcd9999b442955dfab46bdd926.jpg?s=1400","video":null,"channel":null,"channelUrl":null,"author":"eu","authorUrl":"https://news.ycombinator.com/user?id=eu","authorImage":null,"authorSlug":null,"score":306,"views":null,"sharedCount":null,"likeCount":null,"sharedContent":null,"parent":{"__typename":"HnJson","localize":[{"title":"亚马逊关闭Parler后，法官拒绝恢复Parler。","locale":"zh"},{"title":"亞馬遜關閉Parler後，法官拒絕恢復Parler。","locale":"zh-Hant"}]}},{"__typename":"SocialMediaPost","id":"HnPost-25864078","excerpt":"","slug":"/hn/25864078","title":"DeLorean considering all-electric reboot","date":"January 21, 2021","dateISO":"2021-01-21T23:57:33.109Z","datetime":"2021-01-21 23:57","tags":["story","Hacker News"],"image":null,"imageAlt":null,"provider":"Hacker News","thirdPartyId":"25864078","url":"https://news.ycombinator.com/item?id=25864078","originalUrl":"https://www.newdelorean.com/nhtsa-releases-final-low-volume-manufacturing-rules/","imageRemote":"https://www.newdelorean.com/wp-content/uploads/2016/02/dmc-logo.png","video":null,"channel":null,"channelUrl":null,"author":"evo_9","authorUrl":"https://news.ycombinator.com/user?id=evo_9","authorImage":null,"authorSlug":null,"score":366,"views":null,"sharedCount":null,"likeCount":null,"sharedContent":null,"parent":{"__typename":"HnJson","localize":[{"title":"迪罗瑞安考虑重启全电动车业务","locale":"zh"},{"title":"迪羅瑞安考慮重啓全電動車業務","locale":"zh-Hant"}]}}]}},"pageContext":{"basePath":"/","pageType":"tag","tag":"Hacker News","tagsFilter":{"id":{"glob":"!*Post-1"}},"filter":{"id":{"glob":"!*Post-1"},"tags":{"eq":"Hacker News"}},"limit":25,"skip":1975,"total":3105,"totalPages":125,"currentPage":80,"maxWidth":1024,"maxHeight":512,"locale":"ja","hrefLang":"ja-JA","originalPath":"/tags/hacker-news/page/80","dateFormat":"YYYY-MM-DD"}},"staticQueryHashes":["1239077767","2506312863","2744905544","3025052997","3493603132","3493603132","3513215887","386998304"]}