{"componentChunkName":"component---gatsby-theme-buzzing-src-gatsby-theme-timeline-templates-posts-query-js","path":"/tags/ask-hn/page/2","result":{"data":{"site":{"siteMetadata":{"title":"Reddit 热门","description":"用中文浏览Reddit热门内容","social":[{"name":"Twitter","url":"https://twitter.com/gatsbyjs","external":null,"prefetch":null},{"name":"GitHub","url":"https://github.com/gatsbyjs","external":null,"prefetch":null}],"menuLinks":[],"localize":[{"locale":"en","title":"Buzzing on Reddit","description":"See what's buzzing on Reddit in your native language","social":[{"name":"Reddit","url":"https://www.reddit.com/","external":true,"prefetch":null}],"menuLinks":[{"name":"Weekly Selection","url":"/issues","external":null,"prefetch":null},{"name":"RSS","url":"/rss.xml","external":null,"prefetch":false}]},{"locale":"zh-Hant","title":"Reddit 熱門","description":"用中文瀏覽Reddit熱門內容","social":null,"menuLinks":null}]}},"tagsGroup":{"group":[{"fieldValue":"ASK HN","totalCount":54},{"fieldValue":"Hacker News","totalCount":3107},{"fieldValue":"Poll","totalCount":1},{"fieldValue":"Show HN","totalCount":100},{"fieldValue":"poll","totalCount":1},{"fieldValue":"story","totalCount":3106}]},"allBlogPost":{"nodes":[{"__typename":"SocialMediaPost","id":"HnPost-25989764","excerpt":"","slug":"/hn/25989764","title":"Ask HN: Who is hiring? (February 2021)","date":"February 01, 2021","dateISO":"2021-02-01T19:54:57.725Z","datetime":"2021-02-01 19:54","tags":["story","ASK HN","Hacker News"],"image":null,"imageAlt":null,"provider":"Hacker News","thirdPartyId":"25989764","url":"https://news.ycombinator.com/item?id=25989764","originalUrl":"https://news.ycombinator.com/item?id=25989764","imageRemote":null,"video":null,"channel":"ASK HN","channelUrl":"https://news.ycombinator.com/ask","author":"whoishiring","authorUrl":"https://news.ycombinator.com/user?id=whoishiring","authorImage":null,"authorSlug":null,"score":455,"views":null,"sharedCount":null,"likeCount":null,"sharedContent":null,"parent":{"__typename":"HnJson","localize":[{"title":"问HN：谁在招聘？(2021年2月)","locale":"zh"},{"title":"問HN：誰在招聘？(2021年2月)","locale":"zh-Hant"}]}},{"__typename":"SocialMediaPost","id":"HnPost-25987664","excerpt":"","slug":"/hn/25987664","title":"Ask HN: Recommended books and papers on distributed systems?","date":"February 01, 2021","dateISO":"2021-02-01T16:57:04.625Z","datetime":"2021-02-01 16:57","tags":["story","ASK HN","Hacker News"],"image":null,"imageAlt":null,"provider":"Hacker News","thirdPartyId":"25987664","url":"https://news.ycombinator.com/item?id=25987664","originalUrl":"https://news.ycombinator.com/item?id=25987664","imageRemote":null,"video":null,"channel":"ASK HN","channelUrl":"https://news.ycombinator.com/ask","author":"letientai299","authorUrl":"https://news.ycombinator.com/user?id=letientai299","authorImage":null,"authorSlug":null,"score":293,"views":null,"sharedCount":null,"likeCount":null,"sharedContent":null,"parent":{"__typename":"HnJson","localize":[{"title":"问HN：推荐分布式系统的书籍和论文？","locale":"zh"},{"title":"問HN：推薦分佈式系統的書籍和論文？","locale":"zh-Hant"}]}},{"__typename":"SocialMediaPost","id":"HnPost-25962178","excerpt":"","slug":"/hn/25962178","title":"Ask HN: Remote workers in a non-tech city, what's your experience?","date":"January 30, 2021","dateISO":"2021-01-30T10:52:17.528Z","datetime":"2021-01-30 10:52","tags":["story","ASK HN","Hacker News"],"image":null,"imageAlt":null,"provider":"Hacker News","thirdPartyId":"25962178","url":"https://news.ycombinator.com/item?id=25962178","originalUrl":"https://news.ycombinator.com/item?id=25962178","imageRemote":null,"video":null,"channel":"ASK HN","channelUrl":"https://news.ycombinator.com/ask","author":"holsOndI","authorUrl":"https://news.ycombinator.com/user?id=holsOndI","authorImage":null,"authorSlug":null,"score":222,"views":null,"sharedCount":null,"likeCount":null,"sharedContent":null,"parent":{"__typename":"HnJson","localize":[{"title":"问HN：在非科技城市的远程工作者，你有什么经验？","locale":"zh"},{"title":"問HN：在非科技城市的遠程工作者，你有什麼經驗？","locale":"zh-Hant"}]}},{"__typename":"SocialMediaPost","id":"HnPost-25850739","excerpt":"","slug":"/hn/25850739","title":"Ask HN: Anyone know any funny programming jokes?","date":"January 21, 2021","dateISO":"2021-01-21T14:59:13.675Z","datetime":"2021-01-21 14:59","tags":["story","ASK HN","Hacker News"],"image":null,"imageAlt":null,"provider":"Hacker News","thirdPartyId":"25850739","url":"https://news.ycombinator.com/item?id=25850739","originalUrl":"https://news.ycombinator.com/item?id=25850739","imageRemote":null,"video":null,"channel":"ASK HN","channelUrl":"https://news.ycombinator.com/ask","author":"arthurcolle","authorUrl":"https://news.ycombinator.com/user?id=arthurcolle","authorImage":null,"authorSlug":null,"score":674,"views":null,"sharedCount":null,"likeCount":null,"sharedContent":null,"parent":{"__typename":"HnJson","localize":[{"title":"HN提问：有谁知道什么有趣的编程笑话？","locale":"zh"},{"title":"HN提問：有誰知道什麼有趣的編程笑話？","locale":"zh-Hant"}]}},{"__typename":"SocialMediaPost","id":"HnPost-25833639","excerpt":"","slug":"/hn/25833639","title":"Ask HN: Anyone else burnt out due to extended lockdown and work-from-home?","date":"January 19, 2021","dateISO":"2021-01-19T18:27:05.032Z","datetime":"2021-01-19 18:27","tags":["story","ASK HN","Hacker News"],"image":null,"imageAlt":null,"provider":"Hacker News","thirdPartyId":"25833639","url":"https://news.ycombinator.com/item?id=25833639","originalUrl":"https://news.ycombinator.com/item?id=25833639","imageRemote":null,"video":null,"channel":"ASK HN","channelUrl":"https://news.ycombinator.com/ask","author":"throwwfh","authorUrl":"https://news.ycombinator.com/user?id=throwwfh","authorImage":null,"authorSlug":null,"score":694,"views":null,"sharedCount":null,"likeCount":null,"sharedContent":null,"parent":{"__typename":"HnJson","localize":[{"title":"HN提问：还有人因为长时间的封锁和在家办公而焦头烂额吗？","locale":"zh"},{"title":"HN提問：還有人因爲長時間的封鎖和在家辦公而焦頭爛額嗎？","locale":"zh-Hant"}]}},{"__typename":"SocialMediaPost","id":"HnPost-25812021","excerpt":"","slug":"/hn/25812021","title":"Ask HN: Which are the best Go repositories to read to learn the language?","date":"January 18, 2021","dateISO":"2021-01-18T09:00:58.729Z","datetime":"2021-01-18 09:00","tags":["story","ASK HN","Hacker News"],"image":null,"imageAlt":null,"provider":"Hacker News","thirdPartyId":"25812021","url":"https://news.ycombinator.com/item?id=25812021","originalUrl":"https://news.ycombinator.com/item?id=25812021","imageRemote":null,"video":null,"channel":"ASK HN","channelUrl":"https://news.ycombinator.com/ask","author":"Kreotiko","authorUrl":"https://news.ycombinator.com/user?id=Kreotiko","authorImage":null,"authorSlug":null,"score":197,"views":null,"sharedCount":null,"likeCount":null,"sharedContent":null,"parent":{"__typename":"HnJson","localize":[{"title":"HN提问：学习语言的围棋资源库哪家好读？","locale":"zh"},{"title":"HN提問：學習語言的圍棋資源庫哪家好讀？","locale":"zh-Hant"}]}},{"__typename":"SocialMediaPost","id":"HnPost-25783152","excerpt":"","slug":"/hn/25783152","title":"Ask HN: What are you working on?","date":"January 16, 2021","dateISO":"2021-01-16T11:49:51.818Z","datetime":"2021-01-16 11:49","tags":["story","ASK HN","Hacker News"],"image":null,"imageAlt":null,"provider":"Hacker News","thirdPartyId":"25783152","url":"https://news.ycombinator.com/item?id=25783152","originalUrl":"https://news.ycombinator.com/item?id=25783152","imageRemote":null,"video":null,"channel":"ASK HN","channelUrl":"https://news.ycombinator.com/ask","author":"dvt","authorUrl":"https://news.ycombinator.com/user?id=dvt","authorImage":null,"authorSlug":null,"score":526,"views":null,"sharedCount":null,"likeCount":null,"sharedContent":null,"parent":{"__typename":"HnJson","localize":[{"title":"HN提问：你在研究什么？","locale":"zh"},{"title":"HN提問：你在研究什麼？","locale":"zh-Hant"}]}},{"__typename":"SocialMediaPost","id":"HnPost-25766884","excerpt":"","slug":"/hn/25766884","title":"Ask HN: How to increase SWE salaries in Europe?","date":"January 14, 2021","dateISO":"2021-01-14T07:41:00.674Z","datetime":"2021-01-14 07:41","tags":["story","ASK HN","Hacker News"],"image":null,"imageAlt":null,"provider":"Hacker News","thirdPartyId":"25766884","url":"https://news.ycombinator.com/item?id=25766884","originalUrl":"https://news.ycombinator.com/item?id=25766884","imageRemote":null,"video":null,"channel":"ASK HN","channelUrl":"https://news.ycombinator.com/ask","author":"euengthrowaway","authorUrl":"https://news.ycombinator.com/user?id=euengthrowaway","authorImage":null,"authorSlug":null,"score":383,"views":null,"sharedCount":null,"likeCount":null,"sharedContent":null,"parent":{"__typename":"HnJson","localize":[{"title":"HN提问：如何提高欧洲SWE的工资？","locale":"zh"},{"title":"HN提問：如何提高歐洲SWE的工資？","locale":"zh-Hant"}]}},{"__typename":"SocialMediaPost","id":"HnPost-25764142","excerpt":"","slug":"/hn/25764142","title":"Ask HN: How do we know Signal or Telegram don't store our data on their servers?","date":"January 14, 2021","dateISO":"2021-01-14T01:50:48.476Z","datetime":"2021-01-14 01:50","tags":["story","ASK HN","Hacker News"],"image":null,"imageAlt":null,"provider":"Hacker News","thirdPartyId":"25764142","url":"https://news.ycombinator.com/item?id=25764142","originalUrl":"https://news.ycombinator.com/item?id=25764142","imageRemote":null,"video":null,"channel":"ASK HN","channelUrl":"https://news.ycombinator.com/ask","author":"smoqadam","authorUrl":"https://news.ycombinator.com/user?id=smoqadam","authorImage":null,"authorSlug":null,"score":257,"views":null,"sharedCount":null,"likeCount":null,"sharedContent":null,"parent":{"__typename":"HnJson","localize":[{"title":"HN提问：我们怎么知道Signal或Telegram不在他们的服务器上存储我们的数据？","locale":"zh"},{"title":"HN提問：我們怎麼知道Signal或Telegram不在他們的服務器上存儲我們的數據？","locale":"zh-Hant"}]}},{"__typename":"SocialMediaPost","id":"HnPost-25760750","excerpt":"","slug":"/hn/25760750","title":"Ask HN: Do we need a Google Customers Union? Could it work?","date":"January 13, 2021","dateISO":"2021-01-13T17:21:36.397Z","datetime":"2021-01-13 17:21","tags":["story","ASK HN","Hacker News"],"image":null,"imageAlt":null,"provider":"Hacker News","thirdPartyId":"25760750","url":"https://news.ycombinator.com/item?id=25760750","originalUrl":"https://news.ycombinator.com/item?id=25760750","imageRemote":null,"video":null,"channel":"ASK HN","channelUrl":"https://news.ycombinator.com/ask","author":"CaptainJustin","authorUrl":"https://news.ycombinator.com/user?id=CaptainJustin","authorImage":null,"authorSlug":null,"score":333,"views":null,"sharedCount":null,"likeCount":null,"sharedContent":null,"parent":{"__typename":"HnJson","localize":[{"title":"HN提问：我们需要一个谷歌客户联盟吗？能否行得通？","locale":"zh"},{"title":"HN提問：我們需要一個谷歌客戶聯盟嗎？能否行得通？","locale":"zh-Hant"}]}},{"__typename":"SocialMediaPost","id":"HnPost-25700135","excerpt":"","slug":"/hn/25700135","title":"Ask HN: Show me your half baked project","date":"January 09, 2021","dateISO":"2021-01-09T19:02:26.827Z","datetime":"2021-01-09 19:02","tags":["story","ASK HN","Hacker News"],"image":null,"imageAlt":null,"provider":"Hacker News","thirdPartyId":"25700135","url":"https://news.ycombinator.com/item?id=25700135","originalUrl":"https://news.ycombinator.com/item?id=25700135","imageRemote":null,"video":null,"channel":"ASK HN","channelUrl":"https://news.ycombinator.com/ask","author":"notoriousarun","authorUrl":"https://news.ycombinator.com/user?id=notoriousarun","authorImage":null,"authorSlug":null,"score":416,"views":null,"sharedCount":null,"likeCount":null,"sharedContent":null,"parent":{"__typename":"HnJson","localize":[{"title":"HN提问：给我看看你的半生不熟的项目","locale":"zh"},{"title":"HN提問：給我看看你的半生不熟的項目","locale":"zh-Hant"}]}},{"__typename":"SocialMediaPost","id":"HnPost-25695682","excerpt":"","slug":"/hn/25695682","title":"Ask HN: What are decentralized Twitter alternatives?","date":"January 09, 2021","dateISO":"2021-01-09T17:16:57.747Z","datetime":"2021-01-09 17:16","tags":["story","ASK HN","Hacker News"],"image":null,"imageAlt":null,"provider":"Hacker News","thirdPartyId":"25695682","url":"https://news.ycombinator.com/item?id=25695682","originalUrl":"https://news.ycombinator.com/item?id=25695682","imageRemote":null,"video":null,"channel":"ASK HN","channelUrl":"https://news.ycombinator.com/ask","author":"InInteraction","authorUrl":"https://news.ycombinator.com/user?id=InInteraction","authorImage":null,"authorSlug":null,"score":276,"views":null,"sharedCount":null,"likeCount":null,"sharedContent":null,"parent":{"__typename":"HnJson","localize":[{"title":"HN提问：去中心化的推特有哪些替代方案？","locale":"zh"},{"title":"HN提問：去中心化的推特有哪些替代方案？","locale":"zh-Hant"}]}},{"__typename":"SocialMediaPost","id":"HnPost-25673441","excerpt":"","slug":"/hn/25673441","title":"Ask HN: How would you convince your friends and family to switch from WhatsApp?","date":"January 07, 2021","dateISO":"2021-01-07T21:28:39.285Z","datetime":"2021-01-07 21:28","tags":["story","ASK HN","Hacker News"],"image":null,"imageAlt":null,"provider":"Hacker News","thirdPartyId":"25673441","url":"https://news.ycombinator.com/item?id=25673441","originalUrl":"https://news.ycombinator.com/item?id=25673441","imageRemote":null,"video":null,"channel":"ASK HN","channelUrl":"https://news.ycombinator.com/ask","author":"millibar","authorUrl":"https://news.ycombinator.com/user?id=millibar","authorImage":null,"authorSlug":null,"score":250,"views":null,"sharedCount":null,"likeCount":null,"sharedContent":null,"parent":{"__typename":"HnJson","localize":[{"title":"HN提问：你如何说服你的朋友和家人改用WhatsApp？","locale":"zh"},{"title":"HN提問：你如何說服你的朋友和家人改用WhatsApp？","locale":"zh-Hant"}]}},{"__typename":"SocialMediaPost","id":"HnPost-25643940","excerpt":"","slug":"/hn/25643940","title":"Ask HN: What does mastery look like in software engineering?","date":"January 07, 2021","dateISO":"2021-01-07T09:16:02.161Z","datetime":"2021-01-07 09:16","tags":["story","ASK HN","Hacker News"],"image":null,"imageAlt":null,"provider":"Hacker News","thirdPartyId":"25643940","url":"https://news.ycombinator.com/item?id=25643940","originalUrl":"https://news.ycombinator.com/item?id=25643940","imageRemote":null,"video":null,"channel":"ASK HN","channelUrl":"https://news.ycombinator.com/ask","author":"abdabab","authorUrl":"https://news.ycombinator.com/user?id=abdabab","authorImage":null,"authorSlug":null,"score":353,"views":null,"sharedCount":null,"likeCount":null,"sharedContent":null,"parent":{"__typename":"HnJson","localize":[{"title":"HN提问：精通在软件工程中是什么样子的？","locale":"zh"},{"title":"HN提問：精通在軟件工程中是什麼樣子的？","locale":"zh-Hant"}]}},{"__typename":"SocialMediaPost","id":"HnPost-25650224","excerpt":"","slug":"/hn/25650224","title":"Ask HN: Please share your experience teaching your kids to program","date":"January 06, 2021","dateISO":"2021-01-06T04:30:27.453Z","datetime":"2021-01-06 04:30","tags":["story","ASK HN","Hacker News"],"image":null,"imageAlt":null,"provider":"Hacker News","thirdPartyId":"25650224","url":"https://news.ycombinator.com/item?id=25650224","originalUrl":"https://news.ycombinator.com/item?id=25650224","imageRemote":null,"video":null,"channel":"ASK HN","channelUrl":"https://news.ycombinator.com/ask","author":"lmilcin","authorUrl":"https://news.ycombinator.com/user?id=lmilcin","authorImage":null,"authorSlug":null,"score":290,"views":null,"sharedCount":null,"likeCount":null,"sharedContent":null,"parent":{"__typename":"HnJson","localize":[{"title":"HN提问：请分享您教孩子编程的经验","locale":"zh"},{"title":"HN提問：請分享您教孩子編程的經驗","locale":"zh-Hant"}]}},{"__typename":"SocialMediaPost","id":"HnPost-25644817","excerpt":"","slug":"/hn/25644817","title":"Ask HN: Who's looking for a co-founder?","date":"January 05, 2021","dateISO":"2021-01-05T18:12:16.890Z","datetime":"2021-01-05 18:12","tags":["story","ASK HN","Hacker News"],"image":null,"imageAlt":null,"provider":"Hacker News","thirdPartyId":"25644817","url":"https://news.ycombinator.com/item?id=25644817","originalUrl":"https://news.ycombinator.com/item?id=25644817","imageRemote":null,"video":null,"channel":"ASK HN","channelUrl":"https://news.ycombinator.com/ask","author":"notoriousarun","authorUrl":"https://news.ycombinator.com/user?id=notoriousarun","authorImage":null,"authorSlug":null,"score":222,"views":null,"sharedCount":null,"likeCount":null,"sharedContent":null,"parent":{"__typename":"HnJson","localize":[{"title":"HN提问：谁在寻找联合创始人？","locale":"zh"},{"title":"HN提問：誰在尋找聯合創始人？","locale":"zh-Hant"}]}},{"__typename":"SocialMediaPost","id":"HnPost-25635115","excerpt":"","slug":"/hn/25635115","title":"Ask HN: Is HN slow today?","date":"January 05, 2021","dateISO":"2021-01-05T00:09:37.592Z","datetime":"2021-01-05 00:09","tags":["story","ASK HN","Hacker News"],"image":null,"imageAlt":null,"provider":"Hacker News","thirdPartyId":"25635115","url":"https://news.ycombinator.com/item?id=25635115","originalUrl":"https://news.ycombinator.com/item?id=25635115","imageRemote":null,"video":null,"channel":"ASK HN","channelUrl":"https://news.ycombinator.com/ask","author":"brundolf","authorUrl":"https://news.ycombinator.com/user?id=brundolf","authorImage":null,"authorSlug":null,"score":155,"views":null,"sharedCount":null,"likeCount":null,"sharedContent":null,"parent":{"__typename":"HnJson","localize":[{"title":"HN提问：HN今天慢吗？","locale":"zh"},{"title":"HN提問：HN今天慢嗎？","locale":"zh-Hant"}]}},{"__typename":"SocialMediaPost","id":"HnPost-25632982","excerpt":"","slug":"/hn/25632982","title":"Ask HN: Who is hiring? (January 2021)","date":"January 04, 2021","dateISO":"2021-01-04T20:01:59.447Z","datetime":"2021-01-04 20:01","tags":["story","ASK HN","Hacker News"],"image":null,"imageAlt":null,"provider":"Hacker News","thirdPartyId":"25632982","url":"https://news.ycombinator.com/item?id=25632982","originalUrl":"https://news.ycombinator.com/item?id=25632982","imageRemote":null,"video":null,"channel":"ASK HN","channelUrl":"https://news.ycombinator.com/ask","author":"whoishiring","authorUrl":"https://news.ycombinator.com/user?id=whoishiring","authorImage":null,"authorSlug":null,"score":403,"views":null,"sharedCount":null,"likeCount":null,"sharedContent":null,"parent":{"__typename":"HnJson","localize":[{"title":"HN提问：谁在招聘？(2021年1月)","locale":"zh"},{"title":"HN提問：誰在招聘？(2021年1月)","locale":"zh-Hant"}]}},{"__typename":"SocialMediaPost","id":"HnPost-25614966","excerpt":"","slug":"/hn/25614966","title":"Ask HN: Successful one-person online businesses in 2021?","date":"January 02, 2021","dateISO":"2021-01-02T22:07:14.143Z","datetime":"2021-01-02 22:07","tags":["story","ASK HN","Hacker News"],"image":null,"imageAlt":null,"provider":"Hacker News","thirdPartyId":"25614966","url":"https://news.ycombinator.com/item?id=25614966","originalUrl":"https://news.ycombinator.com/item?id=25614966","imageRemote":null,"video":null,"channel":"ASK HN","channelUrl":"https://news.ycombinator.com/ask","author":"codesternews","authorUrl":"https://news.ycombinator.com/user?id=codesternews","authorImage":null,"authorSlug":null,"score":314,"views":null,"sharedCount":null,"likeCount":null,"sharedContent":null,"parent":{"__typename":"HnJson","localize":[{"title":"HN提问：2021年成功的一人在线业务？","locale":"zh"},{"title":"HN提問：2021年成功的一人在線業務？","locale":"zh-Hant"}]}},{"__typename":"SocialMediaPost","id":"HnPost-25594068","excerpt":"","slug":"/hn/25594068","title":"Ask HN: Predictions for 2021?","date":"January 01, 2021","dateISO":"2021-01-01T11:05:04.377Z","datetime":"2021-01-01 11:05","tags":["story","ASK HN","Hacker News"],"image":null,"imageAlt":null,"provider":"Hacker News","thirdPartyId":"25594068","url":"https://news.ycombinator.com/item?id=25594068","originalUrl":"https://news.ycombinator.com/item?id=25594068","imageRemote":null,"video":null,"channel":"ASK HN","channelUrl":"https://news.ycombinator.com/ask","author":"rvz","authorUrl":"https://news.ycombinator.com/user?id=rvz","authorImage":null,"authorSlug":null,"score":260,"views":null,"sharedCount":null,"likeCount":null,"sharedContent":null,"parent":{"__typename":"HnJson","localize":[{"title":"HN提问：对2021年的预测？","locale":"zh"},{"title":"HN提問：對2021年的預測？","locale":"zh-Hant"}]}},{"__typename":"SocialMediaPost","id":"HnPost-25580637","excerpt":"","slug":"/hn/25580637","title":"Ask HN: What's a side project you built to make money that hasn't?","date":"December 30, 2020","dateISO":"2020-12-30T22:01:41.712Z","datetime":"2020-12-30 22:01","tags":["story","ASK HN","Hacker News"],"image":null,"imageAlt":null,"provider":"Hacker News","thirdPartyId":"25580637","url":"https://news.ycombinator.com/item?id=25580637","originalUrl":"https://news.ycombinator.com/item?id=25580637","imageRemote":null,"video":null,"channel":"ASK HN","channelUrl":"https://news.ycombinator.com/ask","author":"notoriousarun","authorUrl":"https://news.ycombinator.com/user?id=notoriousarun","authorImage":null,"authorSlug":null,"score":418,"views":null,"sharedCount":null,"likeCount":null,"sharedContent":null,"parent":{"__typename":"HnJson","localize":[{"title":"HN提问：你为了赚钱而建造的副业是什么？","locale":"zh"},{"title":"HN提問：你爲了賺錢而建造的副業是什麼？","locale":"zh-Hant"}]}},{"__typename":"SocialMediaPost","id":"HnPost-25559571","excerpt":"","slug":"/hn/25559571","title":"Ask HN: What are you surprised isn’t being worked on more?","date":"December 29, 2020","dateISO":"2020-12-29T02:22:35.531Z","datetime":"2020-12-29 02:22","tags":["story","ASK HN","Hacker News"],"image":null,"imageAlt":null,"provider":"Hacker News","thirdPartyId":"25559571","url":"https://news.ycombinator.com/item?id=25559571","originalUrl":"https://news.ycombinator.com/item?id=25559571","imageRemote":null,"video":null,"channel":"ASK HN","channelUrl":"https://news.ycombinator.com/ask","author":"orbOfOrthanc","authorUrl":"https://news.ycombinator.com/user?id=orbOfOrthanc","authorImage":null,"authorSlug":null,"score":456,"views":null,"sharedCount":null,"likeCount":null,"sharedContent":null,"parent":{"__typename":"HnJson","localize":[{"title":"HN提问：有什么让你惊讶的是没有更多的工作？","locale":"zh"},{"title":"HN提問：有什麼讓你驚訝的是沒有更多的工作？","locale":"zh-Hant"}]}},{"__typename":"SocialMediaPost","id":"HnPost-25553818","excerpt":"","slug":"/hn/25553818","title":"Ask HN: Favorite Podcast Episode of 2020?","date":"December 28, 2020","dateISO":"2020-12-28T06:48:44.381Z","datetime":"2020-12-28 06:48","tags":["story","ASK HN","Hacker News"],"image":null,"imageAlt":null,"provider":"Hacker News","thirdPartyId":"25553818","url":"https://news.ycombinator.com/item?id=25553818","originalUrl":"https://news.ycombinator.com/item?id=25553818","imageRemote":null,"video":null,"channel":"ASK HN","channelUrl":"https://news.ycombinator.com/ask","author":"hawktheslayer","authorUrl":"https://news.ycombinator.com/user?id=hawktheslayer","authorImage":null,"authorSlug":null,"score":256,"views":null,"sharedCount":null,"likeCount":null,"sharedContent":null,"parent":{"__typename":"HnJson","localize":[{"title":"HN提问：2020年最喜欢的播客剧集？","locale":"zh"},{"title":"HN提問：2020年最喜歡的播客劇集？","locale":"zh-Hant"}]}},{"__typename":"SocialMediaPost","id":"HnPost-25540583","excerpt":"","slug":"/hn/25540583","title":"Ask HN: What startup/technology is on your 'to watch' list?","date":"December 26, 2020","dateISO":"2020-12-26T07:00:05.356Z","datetime":"2020-12-26 07:00","tags":["story","ASK HN","Hacker News"],"image":null,"imageAlt":null,"provider":"Hacker News","thirdPartyId":"25540583","url":"https://news.ycombinator.com/item?id=25540583","originalUrl":"https://news.ycombinator.com/item?id=25540583","imageRemote":null,"video":null,"channel":"ASK HN","channelUrl":"https://news.ycombinator.com/ask","author":"snowisgone","authorUrl":"https://news.ycombinator.com/user?id=snowisgone","authorImage":null,"authorSlug":null,"score":324,"views":null,"sharedCount":null,"likeCount":null,"sharedContent":null,"parent":{"__typename":"HnJson","localize":[{"title":"HN提问：你的“值得关注”名单上有哪些创业公司/技术？","locale":"zh"},{"title":"HN提問：你的“值得關注”名單上有哪些創業公司/技術？","locale":"zh-Hant"}]}},{"__typename":"SocialMediaPost","id":"HnPost-25538586","excerpt":"","slug":"/hn/25538586","title":"Ask HN: Why does Pinterest dominate Google search results?","date":"December 25, 2020","dateISO":"2020-12-25T20:47:26.434Z","datetime":"2020-12-25 20:47","tags":["story","ASK HN","Hacker News"],"image":null,"imageAlt":null,"provider":"Hacker News","thirdPartyId":"25538586","url":"https://news.ycombinator.com/item?id=25538586","originalUrl":"https://news.ycombinator.com/item?id=25538586","imageRemote":null,"video":null,"channel":"ASK HN","channelUrl":"https://news.ycombinator.com/ask","author":"Winterflow3r","authorUrl":"https://news.ycombinator.com/user?id=Winterflow3r","authorImage":null,"authorSlug":null,"score":688,"views":null,"sharedCount":null,"likeCount":null,"sharedContent":null,"parent":{"__typename":"HnJson","localize":[{"title":"HN提问：为什么Pinterest在谷歌搜索结果中占据主导地位？","locale":"zh"},{"title":"HN提問：爲什麼Pinterest在谷歌搜索結果中佔據主導地位？","locale":"zh-Hant"}]}}]}},"pageContext":{"basePath":"/","pageType":"tag","tag":"ASK HN","tagsFilter":{"id":{"glob":"!*Post-1"}},"filter":{"id":{"glob":"!*Post-1"},"tags":{"eq":"ASK HN"}},"limit":25,"skip":25,"total":54,"totalPages":3,"currentPage":2,"maxWidth":1024,"maxHeight":512,"locale":"zh","hrefLang":"zh-Hans","originalPath":"/tags/ask-hn/page/2","dateFormat":"YYYY-MM-DD"}},"staticQueryHashes":["1239077767","2506312863","2744905544","3025052997","3493603132","3493603132","3513215887","386998304"]}