{"componentChunkName":"component---gatsby-theme-buzzing-src-gatsby-theme-timeline-templates-posts-query-js","path":"/en/tags/hacker-news/page/58","result":{"data":{"site":{"siteMetadata":{"title":"Reddit 热门","description":"用中文浏览Reddit热门内容","social":[{"name":"Twitter","url":"https://twitter.com/gatsbyjs","external":null,"prefetch":null},{"name":"GitHub","url":"https://github.com/gatsbyjs","external":null,"prefetch":null}],"menuLinks":[],"localize":[{"locale":"en","title":"Buzzing on Reddit","description":"See what's buzzing on Reddit in your native language","social":[{"name":"Reddit","url":"https://www.reddit.com/","external":true,"prefetch":null}],"menuLinks":[{"name":"Weekly Selection","url":"/issues","external":null,"prefetch":null},{"name":"RSS","url":"/rss.xml","external":null,"prefetch":false}]},{"locale":"zh-Hant","title":"Reddit 熱門","description":"用中文瀏覽Reddit熱門內容","social":null,"menuLinks":null}]}},"tagsGroup":{"group":[{"fieldValue":"ASK HN","totalCount":44},{"fieldValue":"Bitcoin","totalCount":4},{"fieldValue":"Hacker News","totalCount":2600},{"fieldValue":"Poll","totalCount":1},{"fieldValue":"SaveAMC","totalCount":1},{"fieldValue":"Show HN","totalCount":89},{"fieldValue":"bitcoin","totalCount":3},{"fieldValue":"investing","totalCount":797},{"fieldValue":"poll","totalCount":1},{"fieldValue":"reddit","totalCount":4938},{"fieldValue":"science","totalCount":1},{"fieldValue":"stocks","totalCount":1592},{"fieldValue":"story","totalCount":2599},{"fieldValue":"tweet","totalCount":814},{"fieldValue":"wallstreetbets","totalCount":2549}]},"allBlogPost":{"nodes":[{"__typename":"SocialMediaPost","id":"HnPost-25874108","excerpt":"","slug":"/hn/25874108","title":"Chipmaking Is Being Redesigned","date":"January 24, 2021","dateISO":"2021-01-24T11:51:29.778Z","datetime":"2021-01-24 11:51","tags":["story","Hacker News"],"image":null,"imageAlt":null,"provider":"Hacker News","thirdPartyId":"25874108","url":"https://news.ycombinator.com/item?id=25874108","originalUrl":"https://www.economist.com/business/2021/01/23/chipmaking-is-being-redesigned-effects-will-be-far-reaching","imageRemote":"https://www.economist.com/img/b/1280/720/90/sites/default/files/images/print-edition/20210123_WBD002_1.jpg","video":null,"channel":null,"channelUrl":null,"author":"klelatti","authorUrl":"https://news.ycombinator.com/user?id=klelatti","authorImage":null,"authorSlug":null,"score":160,"views":null,"sharedCount":null,"likeCount":null,"sharedContent":null,"parent":{"__typename":"HnJson","localize":[{"title":"芯片制造正在重新设计","locale":"zh"},{"title":"芯片製造正在重新設計","locale":"zh-Hant"}]}},{"__typename":"SocialMediaPost","id":"HnPost-25884338","excerpt":"","slug":"/hn/25884338","title":"Emails a browser extension developer gets from scammers","date":"January 24, 2021","dateISO":"2021-01-24T11:51:29.777Z","datetime":"2021-01-24 11:51","tags":["story","Hacker News"],"image":null,"imageAlt":null,"provider":"Hacker News","thirdPartyId":"25884338","url":"https://news.ycombinator.com/item?id=25884338","originalUrl":"https://sponsor.ajay.app/emails/","imageRemote":"https://sponsor.ajay.app/LogoSponsorBlockSimple256px.png","video":null,"channel":null,"channelUrl":null,"author":"ajayyy","authorUrl":"https://news.ycombinator.com/user?id=ajayyy","authorImage":null,"authorSlug":null,"score":161,"views":null,"sharedCount":null,"likeCount":null,"sharedContent":null,"parent":{"__typename":"HnJson","localize":[{"title":"浏览器扩展开发者收到骗子发来的电子邮件","locale":"zh"},{"title":"瀏覽器擴展開發者收到騙子發來的電子郵件","locale":"zh-Hant"}]}},{"__typename":"SocialMediaPost","id":"HnPost-25886500","excerpt":"","slug":"/hn/25886500","title":"Site.js: Small Web construction set","date":"January 24, 2021","dateISO":"2021-01-24T11:51:29.777Z","datetime":"2021-01-24 11:51","tags":["story","Hacker News"],"image":null,"imageAlt":null,"provider":"Hacker News","thirdPartyId":"25886500","url":"https://news.ycombinator.com/item?id=25886500","originalUrl":"https://sitejs.org/","imageRemote":null,"video":null,"channel":null,"channelUrl":null,"author":"thex10","authorUrl":"https://news.ycombinator.com/user?id=thex10","authorImage":null,"authorSlug":null,"score":162,"views":null,"sharedCount":null,"likeCount":null,"sharedContent":null,"parent":{"__typename":"HnJson","localize":[{"title":"Site.js：小型网站建设集","locale":"zh"},{"title":"Site.js：小型網站建設集","locale":"zh-Hant"}]}},{"__typename":"SocialMediaPost","id":"HnPost-25887385","excerpt":"","slug":"/hn/25887385","title":"Forever chemicals are widespread in U.S. drinking water","date":"January 24, 2021","dateISO":"2021-01-24T11:51:29.777Z","datetime":"2021-01-24 11:51","tags":["story","Hacker News"],"image":null,"imageAlt":null,"provider":"Hacker News","thirdPartyId":"25887385","url":"https://news.ycombinator.com/item?id=25887385","originalUrl":"https://www.scientificamerican.com/article/forever-chemicals-are-widespread-in-u-s-drinking-water/","imageRemote":"https://static.scientificamerican.com/sciam/cache/file/4F185D76-EE70-4908-809BB016DB663520.jpg","video":null,"channel":null,"channelUrl":null,"author":"ystad","authorUrl":"https://news.ycombinator.com/user?id=ystad","authorImage":null,"authorSlug":null,"score":164,"views":null,"sharedCount":null,"likeCount":null,"sharedContent":null,"parent":{"__typename":"HnJson","localize":[{"title":"美国饮用水中普遍存在永利国际化学成分","locale":"zh"},{"title":"美國飲用水中普遍存在永利國際化學成分","locale":"zh-Hant"}]}},{"__typename":"SocialMediaPost","id":"HnPost-25887200","excerpt":"","slug":"/hn/25887200","title":"How long does a bottle of wine last after it is opened?","date":"January 24, 2021","dateISO":"2021-01-24T10:00:01.186Z","datetime":"2021-01-24 10:00","tags":["story","Hacker News"],"image":null,"imageAlt":null,"provider":"Hacker News","thirdPartyId":"25887200","url":"https://news.ycombinator.com/item?id=25887200","originalUrl":"https://www.vinography.com/2020/12/how-long-does-a-bottle-of-wine-last-after-it-is-opened","imageRemote":"https://www.vinography.com/wp-content/uploads/2020/12/open_bottle_of_wine-1024x768.jpg","video":null,"channel":null,"channelUrl":null,"author":"devilcius","authorUrl":"https://news.ycombinator.com/user?id=devilcius","authorImage":null,"authorSlug":null,"score":162,"views":null,"sharedCount":null,"likeCount":null,"sharedContent":null,"parent":{"__typename":"HnJson","localize":[{"title":"一瓶酒开封后能用多久？","locale":"zh"},{"title":"一瓶酒開封后能用多久？","locale":"zh-Hant"}]}},{"__typename":"SocialMediaPost","id":"HnPost-25882704","excerpt":"","slug":"/hn/25882704","title":"Why Working from Home Will Stick [pdf]","date":"January 24, 2021","dateISO":"2021-01-24T08:07:54.476Z","datetime":"2021-01-24 08:07","tags":["story","Hacker News"],"image":null,"imageAlt":null,"provider":"Hacker News","thirdPartyId":"25882704","url":"https://news.ycombinator.com/item?id=25882704","originalUrl":"https://nbloom.people.stanford.edu/sites/g/files/sbiybj4746/f/why_wfh_stick1_0.pdf","imageRemote":null,"video":null,"channel":null,"channelUrl":null,"author":"troydavis","authorUrl":"https://news.ycombinator.com/user?id=troydavis","authorImage":null,"authorSlug":null,"score":186,"views":null,"sharedCount":null,"likeCount":null,"sharedContent":null,"parent":{"__typename":"HnJson","localize":[{"title":"为什么在家工作会坚持下去 [pdf]","locale":"zh"},{"title":"爲什麼在家工作會堅持下去 [pdf]","locale":"zh-Hant"}]}},{"__typename":"SocialMediaPost","id":"HnPost-25885244","excerpt":"","slug":"/hn/25885244","title":"Internet disrupted in Russia amid opposition protests","date":"January 24, 2021","dateISO":"2021-01-24T08:07:54.476Z","datetime":"2021-01-24 08:07","tags":["story","Hacker News"],"image":null,"imageAlt":null,"provider":"Hacker News","thirdPartyId":"25885244","url":"https://news.ycombinator.com/item?id=25885244","originalUrl":"https://netblocks.org/reports/internet-disrupted-in-russia-amid-opposition-protests-98aRXQAo","imageRemote":"https://netblocks.org/wp-content/uploads/sites/8/2021/01/netblocks-russia-internet-disruption-2021-01-23.png","video":null,"channel":null,"channelUrl":null,"author":"giuliomagnifico","authorUrl":"https://news.ycombinator.com/user?id=giuliomagnifico","authorImage":null,"authorSlug":null,"score":162,"views":null,"sharedCount":null,"likeCount":null,"sharedContent":null,"parent":{"__typename":"HnJson","localize":[{"title":"俄罗斯互联网因反对派抗议活动而中断","locale":"zh"},{"title":"俄羅斯互聯網因反對派抗議活動而中斷","locale":"zh-Hant"}]}},{"__typename":"SocialMediaPost","id":"HnPost-25882722","excerpt":"","slug":"/hn/25882722","title":"No one knows how much the government can borrow","date":"January 24, 2021","dateISO":"2021-01-24T05:25:47.043Z","datetime":"2021-01-24 05:25","tags":["story","Hacker News"],"image":null,"imageAlt":null,"provider":"Hacker News","thirdPartyId":"25882722","url":"https://news.ycombinator.com/item?id=25882722","originalUrl":"https://noahpinion.substack.com/p/no-one-knows-how-much-the-government","imageRemote":"https://cdn.substack.com/image/fetch/h_600,c_limit,f_auto,q_auto:good,fl_progressive:steep/https%3A%2F%2Fbucketeer-e05bbc84-baa3-437e-9518-adb32be77984.s3.amazonaws.com%2Fpublic%2Fimages%2F231f5127-22dc-4e89-a913-e522ee38ac9f_1024x680.jpeg","video":null,"channel":null,"channelUrl":null,"author":"jger15","authorUrl":"https://news.ycombinator.com/user?id=jger15","authorImage":null,"authorSlug":null,"score":170,"views":null,"sharedCount":null,"likeCount":null,"sharedContent":null,"parent":{"__typename":"HnJson","localize":[{"title":"没有人知道政府能借多少钱","locale":"zh"},{"title":"沒有人知道政府能借多少錢","locale":"zh-Hant"}]}},{"__typename":"SocialMediaPost","id":"HnPost-25885760","excerpt":"","slug":"/hn/25885760","title":"Show HN: Filmulator – a streamlined, open-source raw photo editor","date":"January 24, 2021","dateISO":"2021-01-24T05:25:47.043Z","datetime":"2021-01-24 05:25","tags":["story","Show HN","Hacker News"],"image":null,"imageAlt":null,"provider":"Hacker News","thirdPartyId":"25885760","url":"https://news.ycombinator.com/item?id=25885760","originalUrl":"https://filmulator.org/v0-11-0/","imageRemote":"https://filmulator.org/images/filmulator512icon.png","video":null,"channel":"Show HN","channelUrl":"https://news.ycombinator.com/show","author":"CarVac","authorUrl":"https://news.ycombinator.com/user?id=CarVac","authorImage":null,"authorSlug":null,"score":174,"views":null,"sharedCount":null,"likeCount":null,"sharedContent":null,"parent":{"__typename":"HnJson","localize":[{"title":"显示HN：Filmulator--一个精简的、开源的原始照片编辑器。","locale":"zh"},{"title":"顯示HN：Filmulator--一個精簡的、開源的原始照片編輯器。","locale":"zh-Hant"}]}},{"__typename":"SocialMediaPost","id":"HnPost-25887674","excerpt":"","slug":"/hn/25887674","title":"Whitehouse.gov Chooses WordPress, Again","date":"January 24, 2021","dateISO":"2021-01-24T05:25:47.043Z","datetime":"2021-01-24 05:25","tags":["story","Hacker News"],"image":null,"imageAlt":null,"provider":"Hacker News","thirdPartyId":"25887674","url":"https://news.ycombinator.com/item?id=25887674","originalUrl":"https://pagely.com/blog/whitehouse-gov-chooses-wordpress-again/","imageRemote":"https://pagely.com/wp-content/uploads/2021/01/whitehouse-header.jpg","video":null,"channel":null,"channelUrl":null,"author":"gmays","authorUrl":"https://news.ycombinator.com/user?id=gmays","authorImage":null,"authorSlug":null,"score":181,"views":null,"sharedCount":null,"likeCount":null,"sharedContent":null,"parent":{"__typename":"HnJson","localize":[{"title":"白宫政府再次选择WordPress","locale":"zh"},{"title":"白宮政府再次選擇WordPress","locale":"zh-Hant"}]}},{"__typename":"SocialMediaPost","id":"HnPost-25888249","excerpt":"","slug":"/hn/25888249","title":"Pip has dropped support for Python 2","date":"January 24, 2021","dateISO":"2021-01-24T05:25:47.043Z","datetime":"2021-01-24 05:25","tags":["story","Hacker News"],"image":null,"imageAlt":null,"provider":"Hacker News","thirdPartyId":"25888249","url":"https://news.ycombinator.com/item?id=25888249","originalUrl":"https://pip.pypa.io/en/stable/news/#id1","imageRemote":null,"video":null,"channel":null,"channelUrl":null,"author":"groodt","authorUrl":"https://news.ycombinator.com/user?id=groodt","authorImage":null,"authorSlug":null,"score":232,"views":null,"sharedCount":null,"likeCount":null,"sharedContent":null,"parent":{"__typename":"HnJson","localize":[{"title":"Pip已经放弃了对Python 2的支持","locale":"zh"},{"title":"Pip已經放棄了對Python 2的支持","locale":"zh-Hant"}]}},{"__typename":"SocialMediaPost","id":"HnPost-25887373","excerpt":"","slug":"/hn/25887373","title":"Software engineering topics I changed my mind on","date":"January 24, 2021","dateISO":"2021-01-24T03:46:44.990Z","datetime":"2021-01-24 03:46","tags":["story","Hacker News"],"image":null,"imageAlt":null,"provider":"Hacker News","thirdPartyId":"25887373","url":"https://news.ycombinator.com/item?id=25887373","originalUrl":"https://chriskiehl.com/article/thoughts-after-6-years","imageRemote":"https://s3.amazonaws.com/awsblogstore/articles/162da1cd/5cfd8e9f-image-1440px.jpeg","video":null,"channel":null,"channelUrl":null,"author":"goostavos","authorUrl":"https://news.ycombinator.com/user?id=goostavos","authorImage":null,"authorSlug":null,"score":224,"views":null,"sharedCount":null,"likeCount":null,"sharedContent":null,"parent":{"__typename":"HnJson","localize":[{"title":"我改变主意的软件工程课题","locale":"zh"},{"title":"我改變主意的軟件工程課題","locale":"zh-Hant"}]}},{"__typename":"SocialMediaPost","id":"HnPost-25887635","excerpt":"","slug":"/hn/25887635","title":"Overweight and healthy is a big fat lie, obesity study finds","date":"January 24, 2021","dateISO":"2021-01-24T03:46:44.990Z","datetime":"2021-01-24 03:46","tags":["story","Hacker News"],"image":null,"imageAlt":null,"provider":"Hacker News","thirdPartyId":"25887635","url":"https://news.ycombinator.com/item?id=25887635","originalUrl":"https://www.thetimes.co.uk/article/overweight-and-healthy-is-a-big-fat-lie-obesity-study-finds-pqc3bzjz7","imageRemote":"https://www.thetimes.co.uk/imageserver/image/%2Fmethode%2Ftimes%2Fprod%2Fweb%2Fbin%2F08e13b48-5c26-11eb-86f4-4fa0aa4e7fd3.jpg?crop=5520%2C3105%2C0%2C288&resize=685","video":null,"channel":null,"channelUrl":null,"author":"elorant","authorUrl":"https://news.ycombinator.com/user?id=elorant","authorImage":null,"authorSlug":null,"score":162,"views":null,"sharedCount":null,"likeCount":null,"sharedContent":null,"parent":{"__typename":"HnJson","localize":[{"title":"肥胖症研究发现，超重和健康是一个巨大的谎言。","locale":"zh"},{"title":"肥胖症研究發現，超重和健康是一個巨大的謊言。","locale":"zh-Hant"}]}},{"__typename":"SocialMediaPost","id":"HnPost-25886218","excerpt":"","slug":"/hn/25886218","title":"Google has turned off access to sync features for Chromium","date":"January 24, 2021","dateISO":"2021-01-24T02:29:15.164Z","datetime":"2021-01-24 02:29","tags":["story","Hacker News"],"image":null,"imageAlt":null,"provider":"Hacker News","thirdPartyId":"25886218","url":"https://news.ycombinator.com/item?id=25886218","originalUrl":"https://bodhi.fedoraproject.org/updates/FEDORA-2021-48866282e5","imageRemote":null,"video":null,"channel":null,"channelUrl":null,"author":"stsewd","authorUrl":"https://news.ycombinator.com/user?id=stsewd","authorImage":null,"authorSlug":null,"score":185,"views":null,"sharedCount":null,"likeCount":null,"sharedContent":null,"parent":{"__typename":"HnJson","localize":[{"title":"谷歌已经关闭了对Chromium的同步功能的访问。","locale":"zh"},{"title":"谷歌已經關閉了對Chromium的同步功能的訪問。","locale":"zh-Hant"}]}},{"__typename":"SocialMediaPost","id":"HnPost-25881911","excerpt":"","slug":"/hn/25881911","title":"But how, exactly, do databases use mmap?","date":"January 24, 2021","dateISO":"2021-01-24T00:29:26.476Z","datetime":"2021-01-24 00:29","tags":["story","Hacker News"],"image":null,"imageAlt":null,"provider":"Hacker News","thirdPartyId":"25881911","url":"https://news.ycombinator.com/item?id=25881911","originalUrl":"https://brunocalza.me/but-how-exactly-databases-use-mmap/","imageRemote":"https://brunocalza.me/content/images/size/w100/2021/01/qS9dgayo_400x400.jpg","video":null,"channel":null,"channelUrl":null,"author":"brunoac","authorUrl":"https://news.ycombinator.com/user?id=brunoac","authorImage":null,"authorSlug":null,"score":173,"views":null,"sharedCount":null,"likeCount":null,"sharedContent":null,"parent":{"__typename":"HnJson","localize":[{"title":"但是，数据库到底是如何使用mmap的呢？","locale":"zh"},{"title":"但是，數據庫到底是如何使用mmap的呢？","locale":"zh-Hant"}]}},{"__typename":"SocialMediaPost","id":"HnPost-25883858","excerpt":"","slug":"/hn/25883858","title":"Tell HN: 19yo, bootstrapped SaaS, 250k ARR after 10 months","date":"January 24, 2021","dateISO":"2021-01-24T00:29:26.476Z","datetime":"2021-01-24 00:29","tags":["story","Hacker News"],"image":null,"imageAlt":null,"provider":"Hacker News","thirdPartyId":"25883858","url":"https://news.ycombinator.com/item?id=25883858","originalUrl":"https://news.ycombinator.com/item?id=25883858","imageRemote":null,"video":null,"channel":null,"channelUrl":null,"author":"snerual","authorUrl":"https://news.ycombinator.com/user?id=snerual","authorImage":null,"authorSlug":null,"score":163,"views":null,"sharedCount":null,"likeCount":null,"sharedContent":null,"parent":{"__typename":"HnJson","localize":[{"title":"告诉HN：19岁，创业SaaS，10个月后25万ARR。","locale":"zh"},{"title":"告訴HN：19歲，創業SaaS，10個月後25萬ARR。","locale":"zh-Hant"}]}},{"__typename":"SocialMediaPost","id":"HnPost-25885348","excerpt":"","slug":"/hn/25885348","title":"I bought 200 Raspberry Pi Model B’s and I’m going to fix them","date":"January 23, 2021","dateISO":"2021-01-23T23:00:30.159Z","datetime":"2021-01-23 23:00","tags":["story","Hacker News"],"image":null,"imageAlt":null,"provider":"Hacker News","thirdPartyId":"25885348","url":"https://news.ycombinator.com/item?id=25885348","originalUrl":"https://blog.jmdawson.co.uk/i-bought-200-raspberry-pi-model-bs-and-im-going-to-fix-them-part-1/","imageRemote":"https://i2.wp.com/blog.jmdawson.co.uk/wp-content/uploads/2021/01/img_1426-scaled.jpg?fit=1920%2C2560&ssl=1","video":null,"channel":null,"channelUrl":null,"author":"stedaniels","authorUrl":"https://news.ycombinator.com/user?id=stedaniels","authorImage":null,"authorSlug":null,"score":184,"views":null,"sharedCount":null,"likeCount":null,"sharedContent":null,"parent":{"__typename":"HnJson","localize":[{"title":"我买了200个Raspberry Pi Model B，我要把它们修好。","locale":"zh"},{"title":"我買了200個Raspberry Pi Model B，我要把它們修好。","locale":"zh-Hant"}]}},{"__typename":"SocialMediaPost","id":"HnPost-25882688","excerpt":"","slug":"/hn/25882688","title":"FBI agents track cell phones that pinged near the Capitol","date":"January 23, 2021","dateISO":"2021-01-23T22:12:20.440Z","datetime":"2021-01-23 22:12","tags":["story","Hacker News"],"image":null,"imageAlt":null,"provider":"Hacker News","thirdPartyId":"25882688","url":"https://news.ycombinator.com/item?id=25882688","originalUrl":"https://www.wusa9.com/article/features/producers-picks/fbi-tracks-cell-phones-that-were-near-capitol-insurrection-and-riot/65-ca268165-a5c5-46a4-8b88-943a8517343a","imageRemote":"https://media.wusa9.com/assets/WUSA/images/c567c554-bdaa-4ba5-9cb9-6d84250c4f2d/c567c554-bdaa-4ba5-9cb9-6d84250c4f2d_1140x641.jpg","video":null,"channel":null,"channelUrl":null,"author":"danso","authorUrl":"https://news.ycombinator.com/user?id=danso","authorImage":null,"authorSlug":null,"score":175,"views":null,"sharedCount":null,"likeCount":null,"sharedContent":null,"parent":{"__typename":"HnJson","localize":[{"title":"联邦调查局探员追踪国会大厦附近的手机铃声","locale":"zh"},{"title":"聯邦調查局探員追蹤國會大廈附近的手機鈴聲","locale":"zh-Hant"}]}},{"__typename":"SocialMediaPost","id":"HnPost-25883791","excerpt":"","slug":"/hn/25883791","title":"Replicating GPT-2 at Home","date":"January 23, 2021","dateISO":"2021-01-23T22:12:20.440Z","datetime":"2021-01-23 22:12","tags":["story","Hacker News"],"image":null,"imageAlt":null,"provider":"Hacker News","thirdPartyId":"25883791","url":"https://news.ycombinator.com/item?id=25883791","originalUrl":"https://bkkaggle.github.io/blog/algpt2/2020/07/17/ALGPT2-part-2.html","imageRemote":null,"video":null,"channel":null,"channelUrl":null,"author":"bkkaggle","authorUrl":"https://news.ycombinator.com/user?id=bkkaggle","authorImage":null,"authorSlug":null,"score":166,"views":null,"sharedCount":null,"likeCount":null,"sharedContent":null,"parent":{"__typename":"HnJson","localize":[{"title":"在家里复制GPT-2","locale":"zh"},{"title":"在家裏複製GPT-2","locale":"zh-Hant"}]}},{"__typename":"SocialMediaPost","id":"HnPost-25881704","excerpt":"","slug":"/hn/25881704","title":"Java 1.0 Turns 25","date":"January 23, 2021","dateISO":"2021-01-23T21:03:04.210Z","datetime":"2021-01-23 21:03","tags":["story","Hacker News"],"image":null,"imageAlt":null,"provider":"Hacker News","thirdPartyId":"25881704","url":"https://news.ycombinator.com/item?id=25881704","originalUrl":"https://www.infoq.com/news/2021/01/java-turns-25/","imageRemote":"https://cdn.infoq.com/statics_s1_20210122055304/styles/static/images/logo/logo-big.jpg","video":null,"channel":null,"channelUrl":null,"author":"alblue","authorUrl":"https://news.ycombinator.com/user?id=alblue","authorImage":null,"authorSlug":null,"score":161,"views":null,"sharedCount":null,"likeCount":null,"sharedContent":null,"parent":{"__typename":"HnJson","localize":[{"title":"Java 1.0迎来25岁生日","locale":"zh"},{"title":"Java 1.0迎來25歲生日","locale":"zh-Hant"}]}},{"__typename":"SocialMediaPost","id":"HnPost-25881112","excerpt":"","slug":"/hn/25881112","title":"Facebook Disabled My Account After I Criticized Them","date":"January 23, 2021","dateISO":"2021-01-23T20:17:37.272Z","datetime":"2021-01-23 20:17","tags":["story","Hacker News"],"image":null,"imageAlt":null,"provider":"Hacker News","thirdPartyId":"25881112","url":"https://news.ycombinator.com/item?id=25881112","originalUrl":"https://lincoln.metacannon.net/2021/01/facebook-disabled-my-account-after-i-criticized-them.html","imageRemote":"https://lincoln.metacannon.net/images/posts/censored-by-facebook.jpg","video":null,"channel":null,"channelUrl":null,"author":"thereare5lights","authorUrl":"https://news.ycombinator.com/user?id=thereare5lights","authorImage":null,"authorSlug":null,"score":251,"views":null,"sharedCount":null,"likeCount":null,"sharedContent":null,"parent":{"__typename":"HnJson","localize":[{"title":"在我批评他们之后，Facebook禁用了我的账户。","locale":"zh"},{"title":"在我批評他們之後，Facebook禁用了我的賬戶。","locale":"zh-Hant"}]}},{"__typename":"SocialMediaPost","id":"HnPost-25882021","excerpt":"","slug":"/hn/25882021","title":"Build a Salary with GitHub Sponsors","date":"January 23, 2021","dateISO":"2021-01-23T20:17:37.272Z","datetime":"2021-01-23 20:17","tags":["story","Hacker News"],"image":null,"imageAlt":null,"provider":"Hacker News","thirdPartyId":"25882021","url":"https://news.ycombinator.com/item?id=25882021","originalUrl":"https://onlysponsors.dev/","imageRemote":"https://onlysponsors.dev/images/social.jpg","video":null,"channel":null,"channelUrl":null,"author":"rk06","authorUrl":"https://news.ycombinator.com/user?id=rk06","authorImage":null,"authorSlug":null,"score":165,"views":null,"sharedCount":null,"likeCount":null,"sharedContent":null,"parent":{"__typename":"HnJson","localize":[{"title":"与GitHub赞助商一起创造薪资","locale":"zh"},{"title":"與GitHub贊助商一起創造薪資","locale":"zh-Hant"}]}},{"__typename":"SocialMediaPost","id":"HnPost-25883222","excerpt":"","slug":"/hn/25883222","title":"Twitter Bots Are a Major Source of Climate Disinformation","date":"January 23, 2021","dateISO":"2021-01-23T20:17:37.272Z","datetime":"2021-01-23 20:17","tags":["story","Hacker News"],"image":null,"imageAlt":null,"provider":"Hacker News","thirdPartyId":"25883222","url":"https://news.ycombinator.com/item?id=25883222","originalUrl":"https://www.scientificamerican.com/article/twitter-bots-are-a-major-source-of-climate-disinformation/","imageRemote":"https://static.scientificamerican.com/sciam/cache/file/BB90E3F6-7A3E-480A-B222FB00276F5EBA.jpg","video":null,"channel":null,"channelUrl":null,"author":"alexfromapex","authorUrl":"https://news.ycombinator.com/user?id=alexfromapex","authorImage":null,"authorSlug":null,"score":180,"views":null,"sharedCount":null,"likeCount":null,"sharedContent":null,"parent":{"__typename":"HnJson","localize":[{"title":"推特机器人是气候虚假信息的主要来源。","locale":"zh"},{"title":"推特機器人是氣候虛假信息的主要來源。","locale":"zh-Hant"}]}},{"__typename":"SocialMediaPost","id":"HnPost-25883253","excerpt":"","slug":"/hn/25883253","title":"Firecracker: Start a VM in less than a second","date":"January 23, 2021","dateISO":"2021-01-23T20:17:37.272Z","datetime":"2021-01-23 20:17","tags":["story","Hacker News"],"image":null,"imageAlt":null,"provider":"Hacker News","thirdPartyId":"25883253","url":"https://news.ycombinator.com/item?id=25883253","originalUrl":"https://jvns.ca/blog/2021/01/23/firecracker--start-a-vm-in-less-than-a-second/","imageRemote":"https://jvns.ca/images/read-me.png","video":null,"channel":null,"channelUrl":null,"author":"ArmandGrillet","authorUrl":"https://news.ycombinator.com/user?id=ArmandGrillet","authorImage":null,"authorSlug":null,"score":228,"views":null,"sharedCount":null,"likeCount":null,"sharedContent":null,"parent":{"__typename":"HnJson","localize":[{"title":"Firecracker：在一秒内启动虚拟机","locale":"zh"},{"title":"Firecracker：在一秒內啓動虛擬機","locale":"zh-Hant"}]}},{"__typename":"SocialMediaPost","id":"HnPost-25881800","excerpt":"","slug":"/hn/25881800","title":"Please don't say just hello in chat","date":"January 23, 2021","dateISO":"2021-01-23T17:48:56.764Z","datetime":"2021-01-23 17:48","tags":["story","Hacker News"],"image":null,"imageAlt":null,"provider":"Hacker News","thirdPartyId":"25881800","url":"https://news.ycombinator.com/item?id=25881800","originalUrl":"https://nohello.net/","imageRemote":"https://nohello.net/img/newmeta.png","video":null,"channel":null,"channelUrl":null,"author":"talhof8","authorUrl":"https://news.ycombinator.com/user?id=talhof8","authorImage":null,"authorSlug":null,"score":284,"views":null,"sharedCount":null,"likeCount":null,"sharedContent":null,"parent":{"__typename":"HnJson","localize":[{"title":"聊天时请不要只说你好","locale":"zh"},{"title":"聊天時請不要只說你好","locale":"zh-Hant"}]}}]}},"pageContext":{"basePath":"/","pageType":"tag","tag":"Hacker News","tagsFilter":{"id":{"glob":"!*Post-1"}},"filter":{"id":{"glob":"!*Post-1"},"tags":{"eq":"Hacker News"}},"limit":25,"skip":1425,"total":2600,"totalPages":104,"currentPage":58,"maxWidth":1024,"maxHeight":512,"locale":"en","hrefLang":"en-US","originalPath":"/tags/hacker-news/page/58","dateFormat":"MM/DD/YYYY"}},"staticQueryHashes":["1239077767","2506312863","2744905544","3025052997","3493603132","3493603132","3513215887","386998304"]}