{"componentChunkName":"component---gatsby-theme-buzzing-src-gatsby-theme-timeline-templates-posts-query-js","path":"/en/tags/hacker-news/page/21","result":{"data":{"site":{"siteMetadata":{"title":"Reddit 热门","description":"用中文浏览Reddit热门内容","social":[{"name":"Reddit","url":"https://www.reddit.com/","external":true,"prefetch":null},{"name":"GitHub","url":"https://github.com/gatsbyjs","external":null,"prefetch":null}],"menuLinks":[{"name":"每周精选","url":"/issues","external":null,"prefetch":null},{"name":"RSS","url":"/rss.xml","external":null,"prefetch":false}],"localize":[{"locale":"en","title":"Buzzing on Reddit","description":"See what's buzzing on Reddit in your native language","social":[{"name":"Reddit","url":"https://www.reddit.com/","external":true,"prefetch":null}],"menuLinks":[{"name":"Weekly Selection","url":"/issues","external":null,"prefetch":null},{"name":"RSS","url":"/rss.xml","external":null,"prefetch":false}]},{"locale":"zh-Hant","title":"Reddit 熱門","description":"用中文瀏覽Reddit熱門內容","social":null,"menuLinks":null}]}},"tagsGroup":{"group":[{"fieldValue":"ASK HN","totalCount":18},{"fieldValue":"Bitcoin","totalCount":3},{"fieldValue":"Hacker News","totalCount":797},{"fieldValue":"Poll","totalCount":1},{"fieldValue":"Show HN","totalCount":31},{"fieldValue":"investing","totalCount":166},{"fieldValue":"poll","totalCount":1},{"fieldValue":"reddit","totalCount":591},{"fieldValue":"science","totalCount":1},{"fieldValue":"stocks","totalCount":275},{"fieldValue":"story","totalCount":796},{"fieldValue":"tweet","totalCount":242},{"fieldValue":"wallstreetbets","totalCount":150}]},"allBlogPost":{"nodes":[{"__typename":"SocialMediaPost","id":"HnPost-25513557","excerpt":"","slug":"/hn/25513557","title":"Medo: A modern UHD 4K open source Media editor for Haiku OS in less than 1.44 Mb","date":"December 23, 2020","dateISO":"2020-12-23T11:40:33.986Z","datetime":"2020-12-23 11:40","tags":["story","Hacker News"],"image":null,"imageAlt":null,"provider":"Hacker News","thirdPartyId":"25513557","url":"https://news.ycombinator.com/item?id=25513557","originalUrl":"https://discuss.haiku-os.org/t/announcement-haiku-media-editor-r1-0-0-beta-1/10218","imageRemote":"https://discuss.haiku-os.org/uploads/default/optimized/2X/b/bdf759e46a436794646f591d90c5e80ba2e0a95c_2_1023x725.jpeg","video":null,"channel":null,"channelUrl":null,"author":"smallstepforman","authorUrl":"https://news.ycombinator.com/user?id=smallstepforman","authorImage":null,"authorSlug":null,"score":169,"views":null,"sharedCount":null,"likeCount":null,"sharedContent":null,"parent":{"__typename":"HnJson","localize":[{"title":"MEDO：不到1.44Mb的现代超高清4K开源媒体编辑器","locale":"zh"},{"title":"MEDO：不到1.44Mb的現代超高清4K開源媒體編輯器","locale":"zh-Hant"}]}},{"__typename":"SocialMediaPost","id":"HnPost-25514238","excerpt":"","slug":"/hn/25514238","title":"Git Koans (2013)","date":"December 23, 2020","dateISO":"2020-12-23T11:24:00.595Z","datetime":"2020-12-23 11:24","tags":["story","Hacker News"],"image":null,"imageAlt":null,"provider":"Hacker News","thirdPartyId":"25514238","url":"https://news.ycombinator.com/item?id=25514238","originalUrl":"https://stevelosh.com/blog/2013/04/git-koans/","imageRemote":null,"video":null,"channel":null,"channelUrl":null,"author":"mmettler","authorUrl":"https://news.ycombinator.com/user?id=mmettler","authorImage":null,"authorSlug":null,"score":197,"views":null,"sharedCount":null,"likeCount":null,"sharedContent":null,"parent":{"__typename":"HnJson","localize":[{"title":"Git Koans(2013)","locale":"zh"},{"title":"Git Koans(2013)","locale":"zh-Hant"}]}},{"__typename":"SocialMediaPost","id":"HnPost-25505212","excerpt":"","slug":"/hn/25505212","title":"Hell Yes CSS","date":"December 23, 2020","dateISO":"2020-12-23T09:40:59.343Z","datetime":"2020-12-23 09:40","tags":["story","Hacker News"],"image":null,"imageAlt":null,"provider":"Hacker News","thirdPartyId":"25505212","url":"https://news.ycombinator.com/item?id=25505212","originalUrl":"https://wizardzines.com/zines/css/","imageRemote":"https://wizardzines.com/zines/css/cover_hub5a0e43f71dcd9f727a5916b973bae68_3392973_800x0_resize_box_2.png","video":null,"channel":null,"channelUrl":null,"author":"adrian_mrd","authorUrl":"https://news.ycombinator.com/user?id=adrian_mrd","authorImage":null,"authorSlug":null,"score":214,"views":null,"sharedCount":null,"likeCount":null,"sharedContent":null,"parent":{"__typename":"HnJson","localize":[{"title":"该死的是CSS","locale":"zh"},{"title":"該死的是CSS","locale":"zh-Hant"}]}},{"__typename":"SocialMediaPost","id":"HnPost-25511281","excerpt":"","slug":"/hn/25511281","title":"Interview with an anonymous AWS cybersecurity engineer","date":"December 23, 2020","dateISO":"2020-12-23T09:40:59.343Z","datetime":"2020-12-23 09:40","tags":["story","Hacker News"],"image":null,"imageAlt":null,"provider":"Hacker News","thirdPartyId":"25511281","url":"https://news.ycombinator.com/item?id=25511281","originalUrl":"https://logicmag.io/commons/inside-the-whale-an-interview-with-an-anonymous-amazonian/","imageRemote":"https://images.ctfassets.net/e529ilab8frl/72yhxA6LEceVQKkjzeUp72/b988ff47ba7c13e6582aa472be274eb2/Screen_Shot_2020-12-21_at_9.49.01_PM.png?w=1200&fm=jpg&fl=progressive","video":null,"channel":null,"channelUrl":null,"author":"who-knows","authorUrl":"https://news.ycombinator.com/user?id=who-knows","authorImage":null,"authorSlug":null,"score":120,"views":null,"sharedCount":null,"likeCount":null,"sharedContent":null,"parent":{"__typename":"HnJson","localize":[{"title":"采访一位匿名的AWS网络安全工程师","locale":"zh"},{"title":"採訪一位匿名的AWS網絡安全工程師","locale":"zh-Hant"}]}},{"__typename":"SocialMediaPost","id":"HnPost-25515004","excerpt":"","slug":"/hn/25515004","title":"Maps.me is gone. We must bring it back","date":"December 23, 2020","dateISO":"2020-12-23T09:40:59.342Z","datetime":"2020-12-23 09:40","tags":["story","Hacker News"],"image":null,"imageAlt":null,"provider":"Hacker News","thirdPartyId":"25515004","url":"https://news.ycombinator.com/item?id=25515004","originalUrl":"https://telegra.ph/What-happened-to-the-old-MAPSME-12-20","imageRemote":"https://telegra.ph/file/8ced7a5fd06d8cfb489b1.png","video":null,"channel":null,"channelUrl":null,"author":"monort","authorUrl":"https://news.ycombinator.com/user?id=monort","authorImage":null,"authorSlug":null,"score":545,"views":null,"sharedCount":null,"likeCount":null,"sharedContent":null,"parent":{"__typename":"HnJson","localize":[{"title":"我走了。我们必须把它带回来","locale":"zh"},{"title":"我走了。我們必須把它帶回來","locale":"zh-Hant"}]}},{"__typename":"SocialMediaPost","id":"HnPost-25514930","excerpt":"","slug":"/hn/25514930","title":"Xfce 4.16","date":"December 23, 2020","dateISO":"2020-12-23T09:08:37.014Z","datetime":"2020-12-23 09:08","tags":["story","Hacker News"],"image":null,"imageAlt":null,"provider":"Hacker News","thirdPartyId":"25514930","url":"https://news.ycombinator.com/item?id=25514930","originalUrl":"https://xfce.org/about/news/?post=1608595200","imageRemote":"https://cdn.xfce.org/about/tour/4.16/upstream-icons.png","video":null,"channel":null,"channelUrl":null,"author":"KindOne","authorUrl":"https://news.ycombinator.com/user?id=KindOne","authorImage":null,"authorSlug":null,"score":350,"views":null,"sharedCount":null,"likeCount":null,"sharedContent":null,"parent":{"__typename":"HnJson","localize":[{"title":"XFCE 4.16","locale":"zh"},{"title":"XFCE 4.16","locale":"zh-Hant"}]}},{"__typename":"SocialMediaPost","id":"HnPost-25513845","excerpt":"","slug":"/hn/25513845","title":"The FBI Is Breaking into Encrypted Devices – We’re Suing","date":"December 23, 2020","dateISO":"2020-12-23T07:39:23.474Z","datetime":"2020-12-23 07:39","tags":["story","Hacker News"],"image":null,"imageAlt":null,"provider":"Hacker News","thirdPartyId":"25513845","url":"https://news.ycombinator.com/item?id=25513845","originalUrl":"https://www.aclu.org/news/privacy-technology/the-fbi-is-secretly-breaking-into-encrypted-devices-were-suing","imageRemote":"https://www.aclu.org/news/images/share/default_fb_share.png","video":null,"channel":null,"channelUrl":null,"author":"clutchdude","authorUrl":"https://news.ycombinator.com/user?id=clutchdude","authorImage":null,"authorSlug":null,"score":254,"views":null,"sharedCount":null,"likeCount":null,"sharedContent":null,"parent":{"__typename":"HnJson","localize":[{"title":"联邦调查局正在破解加密设备-我们要起诉","locale":"zh"},{"title":"聯邦調查局正在破解加密設備-我們要起訴","locale":"zh-Hant"}]}},{"__typename":"SocialMediaPost","id":"HnPost-25506316","excerpt":"","slug":"/hn/25506316","title":"More Than 70 West Point Cadets Accused of Cheating in Academic Scandal","date":"December 23, 2020","dateISO":"2020-12-23T07:12:32.401Z","datetime":"2020-12-23 07:12","tags":["story","Hacker News"],"image":null,"imageAlt":null,"provider":"Hacker News","thirdPartyId":"25506316","url":"https://news.ycombinator.com/item?id=25506316","originalUrl":"https://www.npr.org/2020/12/21/949025580/more-than-70-west-point-cadets-accused-of-cheating-in-academic-scandal","imageRemote":"https://media.npr.org/assets/img/2020/12/21/gettyimages-73752462_wide-6af1ef3f2ff7db1b01f33d607cda84d01f7eb336.jpg?s=1400","video":null,"channel":null,"channelUrl":null,"author":"KoftaBob","authorUrl":"https://news.ycombinator.com/user?id=KoftaBob","authorImage":null,"authorSlug":null,"score":196,"views":null,"sharedCount":null,"likeCount":null,"sharedContent":null,"parent":{"__typename":"HnJson","localize":[{"title":"70多名西点军校学员被控在学术丑闻中作弊","locale":"zh"},{"title":"70多名西點軍校學員被控在學術醜聞中作弊","locale":"zh-Hant"}]}},{"__typename":"SocialMediaPost","id":"HnPost-25506964","excerpt":"","slug":"/hn/25506964","title":"Google Play rejected Tor Browser update with security fixes","date":"December 23, 2020","dateISO":"2020-12-23T07:12:32.401Z","datetime":"2020-12-23 07:12","tags":["story","Hacker News"],"image":null,"imageAlt":null,"provider":"Hacker News","thirdPartyId":"25506964","url":"https://news.ycombinator.com/item?id=25506964","originalUrl":"https://blog.torproject.org/new-release-tor-browser-1007","imageRemote":"https://blog.torproject.org/sites/default/files/styles/full_width/public/image/10-0%402x_6.png?itok=pNAcdMHb","video":null,"channel":null,"channelUrl":null,"author":"ikeboy","authorUrl":"https://news.ycombinator.com/user?id=ikeboy","authorImage":null,"authorSlug":null,"score":334,"views":null,"sharedCount":null,"likeCount":null,"sharedContent":null,"parent":{"__typename":"HnJson","localize":[{"title":"Google Play拒绝了带有安全修复的Tor浏览器更新","locale":"zh"},{"title":"Google Play拒絕了帶有安全修復的Tor瀏覽器更新","locale":"zh-Hant"}]}},{"__typename":"SocialMediaPost","id":"HnPost-25507942","excerpt":"","slug":"/hn/25507942","title":"Hotwire: HTML over the Wire","date":"December 23, 2020","dateISO":"2020-12-23T07:12:32.401Z","datetime":"2020-12-23 07:12","tags":["story","Hacker News"],"image":null,"imageAlt":null,"provider":"Hacker News","thirdPartyId":"25507942","url":"https://news.ycombinator.com/item?id=25507942","originalUrl":"https://hotwire.dev/","imageRemote":"https://hotwire.dev/assets/logos/turbo.svg","video":null,"channel":null,"channelUrl":null,"author":"samename","authorUrl":"https://news.ycombinator.com/user?id=samename","authorImage":null,"authorSlug":null,"score":1064,"views":null,"sharedCount":null,"likeCount":null,"sharedContent":null,"parent":{"__typename":"HnJson","localize":[{"title":"Hotwire：网络上的HTML","locale":"zh"},{"title":"Hotwire：網絡上的HTML","locale":"zh-Hant"}]}},{"__typename":"SocialMediaPost","id":"HnPost-25512011","excerpt":"","slug":"/hn/25512011","title":"Facebook reveals 'SuperCell' tower to increase connectivity in rural areas","date":"December 23, 2020","dateISO":"2020-12-23T07:12:32.401Z","datetime":"2020-12-23 07:12","tags":["story","Hacker News"],"image":null,"imageAlt":null,"provider":"Hacker News","thirdPartyId":"25512011","url":"https://news.ycombinator.com/item?id=25512011","originalUrl":"https://engineering.fb.com/2020/12/03/connectivity/supercell-reaching-new-heights-for-wider-connectivity/","imageRemote":"https://engineering.fb.com/wp-content/uploads/2020/11/SuperCell_Hero.jpg","video":null,"channel":null,"channelUrl":null,"author":"mostdefinite1","authorUrl":"https://news.ycombinator.com/user?id=mostdefinite1","authorImage":null,"authorSlug":null,"score":134,"views":null,"sharedCount":null,"likeCount":null,"sharedContent":null,"parent":{"__typename":"HnJson","localize":[{"title":"Facebook揭开“Supercell”塔楼的神秘面纱，以增加农村地区的连通性","locale":"zh"},{"title":"Facebook揭開“Supercell”塔樓的神祕面紗，以增加農村地區的連通性","locale":"zh-Hant"}]}},{"__typename":"SocialMediaPost","id":"HnPost-25514200","excerpt":"","slug":"/hn/25514200","title":"Baremetrics: “you need to make a call to unsubscribe” lol","date":"December 23, 2020","dateISO":"2020-12-23T07:12:32.401Z","datetime":"2020-12-23 07:12","tags":["story","Hacker News"],"image":null,"imageAlt":null,"provider":"Hacker News","thirdPartyId":"25514200","url":"https://news.ycombinator.com/item?id=25514200","originalUrl":"https://twitter.com/cmdkhalilov/status/1341462579680587778","imageRemote":null,"video":null,"channel":null,"channelUrl":null,"author":"joshxyz","authorUrl":"https://news.ycombinator.com/user?id=joshxyz","authorImage":null,"authorSlug":null,"score":410,"views":null,"sharedCount":null,"likeCount":null,"sharedContent":null,"parent":{"__typename":"HnJson","localize":[{"title":"Baremetrics：“您需要拨打电话才能取消订阅”笑","locale":"zh"},{"title":"Baremetrics：“您需要撥打電話才能取消訂閱”笑","locale":"zh-Hant"}]}},{"__typename":"SocialMediaPost","id":"HnPost-25511220","excerpt":"","slug":"/hn/25511220","title":"In 1980s Los Angeles, a bank was robbed every hour (2019)","date":"December 23, 2020","dateISO":"2020-12-23T07:05:18.794Z","datetime":"2020-12-23 07:05","tags":["story","Hacker News"],"image":null,"imageAlt":null,"provider":"Hacker News","thirdPartyId":"25511220","url":"https://news.ycombinator.com/item?id=25511220","originalUrl":"https://crimereads.com/the-rise-and-fall-of-the-bank-robbery-capital-of-the-world/","imageRemote":"https://lithub.com/wp-content/uploads/sites/3/2019/06/los-angeles-slider1.jpg","video":null,"channel":null,"channelUrl":null,"author":"autokill","authorUrl":"https://news.ycombinator.com/user?id=autokill","authorImage":null,"authorSlug":null,"score":256,"views":null,"sharedCount":null,"likeCount":null,"sharedContent":null,"parent":{"__typename":"HnJson","localize":[{"title":"在20世纪80年代的洛杉矶，每小时就有一家银行被抢劫(2019年)","locale":"zh"},{"title":"在20世紀80年代的洛杉磯，每小時就有一家銀行被搶劫(2019年)","locale":"zh-Hant"}]}},{"__typename":"SocialMediaPost","id":"HnPost-25507330","excerpt":"","slug":"/hn/25507330","title":"Dava Newman Named Director of MIT Media Lab","date":"December 23, 2020","dateISO":"2020-12-23T04:45:58.564Z","datetime":"2020-12-23 04:45","tags":["story","Hacker News"],"image":null,"imageAlt":null,"provider":"Hacker News","thirdPartyId":"25507330","url":"https://news.ycombinator.com/item?id=25507330","originalUrl":"https://news.mit.edu/2020/media-lab-director-newman-1222","imageRemote":"https://news.mit.edu/sites/default/files/images/202012/MIT-Dava-Newman-01-PRESS.jpg","video":null,"channel":null,"channelUrl":null,"author":"madars","authorUrl":"https://news.ycombinator.com/user?id=madars","authorImage":null,"authorSlug":null,"score":105,"views":null,"sharedCount":null,"likeCount":null,"sharedContent":null,"parent":{"__typename":"HnJson","localize":[{"title":"达瓦·纽曼被任命为麻省理工学院媒体实验室主任","locale":"zh"},{"title":"達瓦·紐曼被任命爲麻省理工學院媒體實驗室主任","locale":"zh-Hant"}]}},{"__typename":"SocialMediaPost","id":"HnPost-25512273","excerpt":"","slug":"/hn/25512273","title":"The Quantum Ad-List contains domains used by ads, trackers, malware","date":"December 23, 2020","dateISO":"2020-12-23T04:45:58.564Z","datetime":"2020-12-23 04:45","tags":["story","Hacker News"],"image":null,"imageAlt":null,"provider":"Hacker News","thirdPartyId":"25512273","url":"https://news.ycombinator.com/item?id=25512273","originalUrl":"https://gitlab.com/The_Quantum_Alpha/the-quantum-ad-list","imageRemote":"https://assets.gitlab-static.net/uploads/-/system/project/avatar/22443733/AddText_11-14-07.44.30.png","video":null,"channel":null,"channelUrl":null,"author":"URfejk","authorUrl":"https://news.ycombinator.com/user?id=URfejk","authorImage":null,"authorSlug":null,"score":154,"views":null,"sharedCount":null,"likeCount":null,"sharedContent":null,"parent":{"__typename":"HnJson","localize":[{"title":"Quantum广告列表包含广告、跟踪器、恶意软件使用的域名","locale":"zh"},{"title":"Quantum廣告列表包含廣告、跟蹤器、惡意軟件使用的域名","locale":"zh-Hant"}]}},{"__typename":"SocialMediaPost","id":"HnPost-25513713","excerpt":"","slug":"/hn/25513713","title":"Things You're Allowed to Do","date":"December 23, 2020","dateISO":"2020-12-23T04:45:58.564Z","datetime":"2020-12-23 04:45","tags":["story","Hacker News"],"image":null,"imageAlt":null,"provider":"Hacker News","thirdPartyId":"25513713","url":"https://news.ycombinator.com/item?id=25513713","originalUrl":"https://milan.cvitkovic.net/writing/things_youre_allowed_to_do/","imageRemote":null,"video":null,"channel":null,"channelUrl":null,"author":"thesephist","authorUrl":"https://news.ycombinator.com/user?id=thesephist","authorImage":null,"authorSlug":null,"score":534,"views":null,"sharedCount":null,"likeCount":null,"sharedContent":null,"parent":{"__typename":"HnJson","localize":[{"title":"你被允许做的事情","locale":"zh"},{"title":"你被允許做的事情","locale":"zh-Hant"}]}},{"__typename":"SocialMediaPost","id":"HnPost-25503190","excerpt":"","slug":"/hn/25503190","title":"Suspicions grow that nanoparticles in Pfizer vaccine trigger allergic reactions","date":"December 23, 2020","dateISO":"2020-12-23T03:50:19.274Z","datetime":"2020-12-23 03:50","tags":["story","Hacker News"],"image":null,"imageAlt":null,"provider":"Hacker News","thirdPartyId":"25503190","url":"https://news.ycombinator.com/item?id=25503190","originalUrl":"https://www.sciencemag.org/news/2020/12/suspicions-grow-nanoparticles-pfizer-s-covid-19-vaccine-trigger-rare-allergic-reactions","imageRemote":"https://www.sciencemag.org/sites/default/files/styles/article_main_large/public/vaccine_1280p_3.jpg?itok=kXASrlTq","video":null,"channel":null,"channelUrl":null,"author":"longdefeat","authorUrl":"https://news.ycombinator.com/user?id=longdefeat","authorImage":null,"authorSlug":null,"score":104,"views":null,"sharedCount":null,"likeCount":null,"sharedContent":null,"parent":{"__typename":"HnJson","localize":[{"title":"越来越多的人怀疑辉瑞疫苗中的纳米颗粒会引发过敏反应","locale":"zh"},{"title":"越來越多的人懷疑輝瑞疫苗中的納米顆粒會引發過敏反應","locale":"zh-Hant"}]}},{"__typename":"SocialMediaPost","id":"HnPost-25509619","excerpt":"","slug":"/hn/25509619","title":"Mark Rober (former NASA) launches a 30 day Creative Engineering Class","date":"December 22, 2020","dateISO":"2020-12-22T23:32:46.873Z","datetime":"2020-12-22 23:32","tags":["story","Hacker News"],"image":null,"imageAlt":null,"provider":"Hacker News","thirdPartyId":"25509619","url":"https://news.ycombinator.com/item?id=25509619","originalUrl":"https://monthly.com/mark-rober-engineering","imageRemote":"https://d1b2grdnesao2u.cloudfront.net/homepage/OG_Meta.jpg","video":null,"channel":null,"channelUrl":null,"author":"O_H_E","authorUrl":"https://news.ycombinator.com/user?id=O_H_E","authorImage":null,"authorSlug":null,"score":134,"views":null,"sharedCount":null,"likeCount":null,"sharedContent":null,"parent":{"__typename":"HnJson","localize":[{"title":"马克·罗伯(前NASA)开设为期30天的创意工程班","locale":"zh"},{"title":"馬克·羅伯(前NASA)開設爲期30天的創意工程班","locale":"zh-Hant"}]}},{"__typename":"SocialMediaPost","id":"HnPost-25510945","excerpt":"","slug":"/hn/25510945","title":"SEC Charges Ripple with Conducting $1.3B Unregistered Securities Offering","date":"December 22, 2020","dateISO":"2020-12-22T22:37:32.292Z","datetime":"2020-12-22 22:37","tags":["story","Hacker News"],"image":null,"imageAlt":null,"provider":"Hacker News","thirdPartyId":"25510945","url":"https://news.ycombinator.com/item?id=25510945","originalUrl":"https://www.sec.gov/news/press-release/2020-338","imageRemote":"https://www.sec.gov/files/sec-logo.png","video":null,"channel":null,"channelUrl":null,"author":"tempsy","authorUrl":"https://news.ycombinator.com/user?id=tempsy","authorImage":null,"authorSlug":null,"score":356,"views":null,"sharedCount":null,"likeCount":null,"sharedContent":null,"parent":{"__typename":"HnJson","localize":[{"title":"SEC指控Ripple进行13亿美元的未注册证券发行","locale":"zh"},{"title":"SEC指控Ripple進行13億美元的未註冊證券發行","locale":"zh-Hant"}]}},{"__typename":"SocialMediaPost","id":"HnPost-25511073","excerpt":"","slug":"/hn/25511073","title":"V(vlang) 0.2 Is Out","date":"December 22, 2020","dateISO":"2020-12-22T22:37:32.292Z","datetime":"2020-12-22 22:37","tags":["story","Hacker News"],"image":null,"imageAlt":null,"provider":"Hacker News","thirdPartyId":"25511073","url":"https://news.ycombinator.com/item?id=25511073","originalUrl":"https://github.com/vlang/v/discussions/7474","imageRemote":"https://github.com/opengraph.png","video":null,"channel":null,"channelUrl":null,"author":"theBashShell","authorUrl":"https://news.ycombinator.com/user?id=theBashShell","authorImage":null,"authorSlug":null,"score":247,"views":null,"sharedCount":null,"likeCount":null,"sharedContent":null,"parent":{"__typename":"HnJson","localize":[{"title":"V(Vlang)0.2不在","locale":"zh"},{"title":"V(Vlang)0.2不在","locale":"zh-Hant"}]}},{"__typename":"SocialMediaPost","id":"HnPost-25507627","excerpt":"","slug":"/hn/25507627","title":"Claude Shannon Invented the Future","date":"December 22, 2020","dateISO":"2020-12-22T21:48:23.695Z","datetime":"2020-12-22 21:48","tags":["story","Hacker News"],"image":null,"imageAlt":null,"provider":"Hacker News","thirdPartyId":"25507627","url":"https://news.ycombinator.com/item?id=25507627","originalUrl":"https://www.quantamagazine.org/how-claude-shannons-information-theory-invented-the-future-20201222/","imageRemote":"https://d2r55xnwy6nx47.cloudfront.net/uploads/2020/12/Claude-Shannon_1200_social.jpg","video":null,"channel":null,"channelUrl":null,"author":"theafh","authorUrl":"https://news.ycombinator.com/user?id=theafh","authorImage":null,"authorSlug":null,"score":258,"views":null,"sharedCount":null,"likeCount":null,"sharedContent":null,"parent":{"__typename":"HnJson","localize":[{"title":"克劳德·香农创造了未来","locale":"zh"},{"title":"克勞德·香農創造了未來","locale":"zh-Hant"}]}},{"__typename":"SocialMediaPost","id":"HnPost-25510979","excerpt":"","slug":"/hn/25510979","title":"SEC formally sues cryptocurrency company Ripple","date":"December 22, 2020","dateISO":"2020-12-22T21:48:23.695Z","datetime":"2020-12-22 21:48","tags":["story","Hacker News"],"image":null,"imageAlt":null,"provider":"Hacker News","thirdPartyId":"25510979","url":"https://news.ycombinator.com/item?id=25510979","originalUrl":"https://www.axios.com/sec-formally-sues-cryptocurrency-company-ripple-83bfed3a-60dd-45d2-ae67-35431676f957.html","imageRemote":"https://images.axios.com/YIgVIQtJUwMpkaDbpoB40wfbdKo=/0x0:1920x1080/1366x768/2020/12/22/1608670152896.jpg","video":null,"channel":null,"channelUrl":null,"author":"coloneltcb","authorUrl":"https://news.ycombinator.com/user?id=coloneltcb","authorImage":null,"authorSlug":null,"score":239,"views":null,"sharedCount":null,"likeCount":null,"sharedContent":null,"parent":{"__typename":"HnJson","localize":[{"title":"SEC正式起诉加密货币公司Ripple","locale":"zh"},{"title":"SEC正式起訴加密貨幣公司Ripple","locale":"zh-Hant"}]}},{"__typename":"SocialMediaPost","id":"HnPost-25509265","excerpt":"","slug":"/hn/25509265","title":"WiFi 6 gets 1.34 Gbps on the Raspberry Pi CM4","date":"December 22, 2020","dateISO":"2020-12-22T21:27:14.051Z","datetime":"2020-12-22 21:27","tags":["story","Hacker News"],"image":null,"imageAlt":null,"provider":"Hacker News","thirdPartyId":"25509265","url":"https://news.ycombinator.com/item?id=25509265","originalUrl":"https://www.jeffgeerling.com/blog/2020/wifi-6-gets-134-gbps-on-raspberry-pi-cm4","imageRemote":"https://www.jeffgeerling.com/sites/default/files/images/edup-in-raspberry-pi-wifi-6-compute-module-4-pcie-io-board.jpeg","video":null,"channel":null,"channelUrl":null,"author":"geerlingguy","authorUrl":"https://news.ycombinator.com/user?id=geerlingguy","authorImage":null,"authorSlug":null,"score":311,"views":null,"sharedCount":null,"likeCount":null,"sharedContent":null,"parent":{"__typename":"HnJson","localize":[{"title":"WiFi 6在Raspberry Pi CM4上获得1.34 Gbps","locale":"zh"},{"title":"WiFi 6在Raspberry Pi CM4上獲得1.34 Gbps","locale":"zh-Hant"}]}},{"__typename":"SocialMediaPost","id":"HnPost-25510351","excerpt":"","slug":"/hn/25510351","title":"A janitor making $4/hr walked into a Fortune 500 company boardroom","date":"December 22, 2020","dateISO":"2020-12-22T21:27:14.051Z","datetime":"2020-12-22 21:27","tags":["story","Hacker News"],"image":null,"imageAlt":null,"provider":"Hacker News","thirdPartyId":"25510351","url":"https://news.ycombinator.com/item?id=25510351","originalUrl":"https://twitter.com/ankithharathi/status/1341193051184611331","imageRemote":null,"video":null,"channel":null,"channelUrl":null,"author":"80mph","authorUrl":"https://news.ycombinator.com/user?id=80mph","authorImage":null,"authorSlug":null,"score":406,"views":null,"sharedCount":null,"likeCount":null,"sharedContent":null,"parent":{"__typename":"HnJson","localize":[{"title":"一名时薪4美元的看门人走进一家财富500强公司的董事会会议室。","locale":"zh"},{"title":"一名時薪4美元的看門人走進一家財富500強公司的董事會會議室。","locale":"zh-Hant"}]}},{"__typename":"SocialMediaPost","id":"HnPost-25510562","excerpt":"","slug":"/hn/25510562","title":"U.S. approves NYSE listing plan to cut out Wall Street middlemen","date":"December 22, 2020","dateISO":"2020-12-22T21:27:14.051Z","datetime":"2020-12-22 21:27","tags":["story","Hacker News"],"image":null,"imageAlt":null,"provider":"Hacker News","thirdPartyId":"25510562","url":"https://news.ycombinator.com/item?id=25510562","originalUrl":"https://www.reuters.com/article/us-usa-sec-nyse/u-s-approves-nyse-listing-plan-to-cut-out-wall-street-middlemen-idUSKBN28W2D4","imageRemote":"https://static.reuters.com/resources/r/?m=02&d=20201223&t=2&i=1545506016&r=LYNXMPEGBL1EK&w=800","video":null,"channel":null,"channelUrl":null,"author":"pseudolus","authorUrl":"https://news.ycombinator.com/user?id=pseudolus","authorImage":null,"authorSlug":null,"score":521,"views":null,"sharedCount":null,"likeCount":null,"sharedContent":null,"parent":{"__typename":"HnJson","localize":[{"title":"美国批准纽约证交所上市计划以剔除华尔街中间商","locale":"zh"},{"title":"美國批准紐約證交所上市計劃以剔除華爾街中間商","locale":"zh-Hant"}]}}]}},"pageContext":{"basePath":"/","pageType":"tag","tag":"Hacker News","tagsFilter":{"id":{"glob":"!*Post-1"}},"filter":{"id":{"glob":"!*Post-1"},"tags":{"eq":"Hacker News"}},"limit":25,"skip":500,"total":797,"totalPages":32,"currentPage":21,"maxWidth":1024,"maxHeight":512,"locale":"en","hrefLang":"en-US","originalPath":"/tags/hacker-news/page/21","dateFormat":"MM/DD/YYYY"}},"staticQueryHashes":["1239077767","2506312863","2744905544","3493603132","3493603132","386998304","4203388852"]}