{"componentChunkName":"component---gatsby-theme-buzzing-src-gatsby-theme-timeline-templates-posts-query-js","path":"/ja/tags/tech/page/35","result":{"data":{"site":{"siteMetadata":{"title":"Reddit 热门","description":"用中文浏览Reddit热门内容","social":[{"name":"Twitter","url":"https://twitter.com/gatsbyjs","external":null,"prefetch":null},{"name":"GitHub","url":"https://github.com/gatsbyjs","external":null,"prefetch":null}],"menuLinks":[],"localize":[{"locale":"en","title":"Buzzing on Reddit","description":"See what's buzzing on Reddit in your native language","social":{"name":null,"url":null,"external":null,"prefetch":null},"menuLinks":[{"name":"Weekly Selection","url":"/issues","external":null,"prefetch":null},{"name":"RSS","url":"/rss.xml","external":null,"prefetch":false}]},{"locale":"zh-Hant","title":"Reddit 熱門","description":"用中文瀏覽Reddit熱門內容","social":null,"menuLinks":null}]}},"tagsGroup":{"group":[{"fieldValue":"3D Printing","totalCount":4},{"fieldValue":"A/B Testing","totalCount":14},{"fieldValue":"AMCarmy","totalCount":1},{"fieldValue":"APIs","totalCount":96},{"fieldValue":"Action Games","totalCount":2},{"fieldValue":"Ad Blockers","totalCount":4},{"fieldValue":"Adventure Games","totalCount":2},{"fieldValue":"Advertising","totalCount":28},{"fieldValue":"Airbnb","totalCount":2},{"fieldValue":"Alexa Skills","totalCount":2},{"fieldValue":"Amazon","totalCount":8},{"fieldValue":"Analytics","totalCount":115},{"fieldValue":"Android","totalCount":167},{"fieldValue":"Anonymous","totalCount":3},{"fieldValue":"Apple","totalCount":58},{"fieldValue":"Apple TV","totalCount":1},{"fieldValue":"Apple Watch","totalCount":7},{"fieldValue":"Art","totalCount":23},{"fieldValue":"Artificial Intelligence","totalCount":247},{"fieldValue":"Audio and Voice ","totalCount":47},{"fieldValue":"Augmented Reality","totalCount":16},{"fieldValue":"Backpacks","totalCount":1},{"fieldValue":"Batteries","totalCount":1},{"fieldValue":"Beauty","totalCount":2},{"fieldValue":"Biking","totalCount":1},{"fieldValue":"Biohacking","totalCount":6},{"fieldValue":"Bitcoin","totalCount":4},{"fieldValue":"Blockstack","totalCount":2},{"fieldValue":"Board Games","totalCount":6},{"fieldValue":"Books","totalCount":25},{"fieldValue":"Bots","totalCount":29},{"fieldValue":"Branding","totalCount":27},{"fieldValue":"CSM Tools","totalCount":2},{"fieldValue":"Calendar and Scheduling","totalCount":61},{"fieldValue":"Cannabis","totalCount":1},{"fieldValue":"Card Games","totalCount":3},{"fieldValue":"Cars","totalCount":4},{"fieldValue":"Cats","totalCount":1},{"fieldValue":"Charity and Giving","totalCount":3},{"fieldValue":"Chrome Extensions","totalCount":98},{"fieldValue":"Coffee","totalCount":4},{"fieldValue":"Comics and Graphic Novels","totalCount":1},{"fieldValue":"Cooking","totalCount":5},{"fieldValue":"Cooking Books","totalCount":3},{"fieldValue":"Couples","totalCount":2},{"fieldValue":"Crafting games","totalCount":1},{"fieldValue":"Crowdfunding","totalCount":31},{"fieldValue":"Crypto","totalCount":69},{"fieldValue":"Custom iPhone Keyboards","totalCount":1},{"fieldValue":"Customer communication","totalCount":59},{"fieldValue":"DJing","totalCount":1},{"fieldValue":"Dating","totalCount":10},{"fieldValue":"Delivery","totalCount":5},{"fieldValue":"Design Books","totalCount":14},{"fieldValue":"Design Tools","totalCount":417},{"fieldValue":"Developer Tools","totalCount":551},{"fieldValue":"Diversity and Inclusion","totalCount":7},{"fieldValue":"Dogs","totalCount":3},{"fieldValue":"Drinking","totalCount":4},{"fieldValue":"Drones","totalCount":4},{"fieldValue":"Dropbox","totalCount":2},{"fieldValue":"E-Commerce","totalCount":75},{"fieldValue":"Education","totalCount":130},{"fieldValue":"Email","totalCount":50},{"fieldValue":"Email Marketing","totalCount":41},{"fieldValue":"Email Newsletters","totalCount":60},{"fieldValue":"Emoji","totalCount":7},{"fieldValue":"Events","totalCount":22},{"fieldValue":"Facebook","totalCount":9},{"fieldValue":"Facebook Messenger","totalCount":4},{"fieldValue":"Fashion","totalCount":8},{"fieldValue":"FemTech","totalCount":5},{"fieldValue":"Fintech","totalCount":129},{"fieldValue":"Firefox Extensions","totalCount":13},{"fieldValue":"Free Games","totalCount":11},{"fieldValue":"Freelance","totalCount":22},{"fieldValue":"FuckElon","totalCount":1},{"fieldValue":"Funny","totalCount":38},{"fieldValue":"Funny Games","totalCount":4},{"fieldValue":"GIFs","totalCount":4},{"fieldValue":"Games","totalCount":63},{"fieldValue":"GitHub","totalCount":64},{"fieldValue":"Google","totalCount":26},{"fieldValue":"Google Home","totalCount":1},{"fieldValue":"Green Tech","totalCount":15},{"fieldValue":"Growth Hacking","totalCount":73},{"fieldValue":"Growth Hacks ","totalCount":9},{"fieldValue":"Hardware","totalCount":17},{"fieldValue":"Health and Fitness","totalCount":112},{"fieldValue":"Hiring and Recruiting","totalCount":47},{"fieldValue":"Home","totalCount":21},{"fieldValue":"Icons","totalCount":19},{"fieldValue":"Indie Games","totalCount":12},{"fieldValue":"Instagram","totalCount":26},{"fieldValue":"Internet of Things","totalCount":32},{"fieldValue":"Investing","totalCount":50},{"fieldValue":"Kids","totalCount":12},{"fieldValue":"Kindle","totalCount":3},{"fieldValue":"Learn a Language","totalCount":21},{"fieldValue":"Legal","totalCount":12},{"fieldValue":"LinkedIn","totalCount":9},{"fieldValue":"Linux","totalCount":5},{"fieldValue":"Mac","totalCount":89},{"fieldValue":"Mac Menu Bar Apps","totalCount":28},{"fieldValue":"Maker Tools ","totalCount":37},{"fieldValue":"Maps","totalCount":16},{"fieldValue":"Marketing","totalCount":462},{"fieldValue":"Meditation","totalCount":12},{"fieldValue":"Medtech","totalCount":13},{"fieldValue":"Meetings","totalCount":45},{"fieldValue":"Messaging","totalCount":53},{"fieldValue":"Money ","totalCount":33},{"fieldValue":"Movies","totalCount":12},{"fieldValue":"Moving and Storage","totalCount":1},{"fieldValue":"Music","totalCount":46},{"fieldValue":"Netflix","totalCount":5},{"fieldValue":"News","totalCount":40},{"fieldValue":"No-Code","totalCount":81},{"fieldValue":"Nomad Lifestyle","totalCount":27},{"fieldValue":"Note","totalCount":23},{"fieldValue":"On-Demand","totalCount":5},{"fieldValue":"Open Source","totalCount":62},{"fieldValue":"Open World Games","totalCount":1},{"fieldValue":"Outdoors","totalCount":4},{"fieldValue":"PC","totalCount":4},{"fieldValue":"Parenting","totalCount":2},{"fieldValue":"Party","totalCount":5},{"fieldValue":"Payment","totalCount":34},{"fieldValue":"Pets","totalCount":4},{"fieldValue":"Photography","totalCount":38},{"fieldValue":"Photoshop","totalCount":6},{"fieldValue":"Politics","totalCount":7},{"fieldValue":"Privacy","totalCount":46},{"fieldValue":"Product Hunt","totalCount":20},{"fieldValue":"ProductHunt","totalCount":2874},{"fieldValue":"Productivity","totalCount":1105},{"fieldValue":"Prototyping","totalCount":29},{"fieldValue":"Public Relations","totalCount":3},{"fieldValue":"Puzzle Games","totalCount":6},{"fieldValue":"Quantified Self","totalCount":8},{"fieldValue":"Remote Work Tools","totalCount":99},{"fieldValue":"Robots","totalCount":4},{"fieldValue":"SEO Tools","totalCount":32},{"fieldValue":"SaaS","totalCount":277},{"fieldValue":"Safari Extensions","totalCount":4},{"fieldValue":"Sales","totalCount":72},{"fieldValue":"SaveAMC","totalCount":1},{"fieldValue":"Sci-fi Games","totalCount":1},{"fieldValue":"Science Books","totalCount":2},{"fieldValue":"Side Projects","totalCount":50},{"fieldValue":"Sketch","totalCount":8},{"fieldValue":"Slack","totalCount":35},{"fieldValue":"Snapchat","totalCount":1},{"fieldValue":"Soccer","totalCount":1},{"fieldValue":"Social Impact ","totalCount":20},{"fieldValue":"Social Media Tools","totalCount":188},{"fieldValue":"Software Engineering","totalCount":72},{"fieldValue":"SoundCloud","totalCount":2},{"fieldValue":"Space","totalCount":4},{"fieldValue":"Sports","totalCount":8},{"fieldValue":"Sports Games","totalCount":1},{"fieldValue":"Spotify","totalCount":9},{"fieldValue":"Spreadsheets","totalCount":15},{"fieldValue":"Squarespace","totalCount":1},{"fieldValue":"Standing Desks","totalCount":2},{"fieldValue":"Startup Books","totalCount":12},{"fieldValue":"Startup Lessons ","totalCount":24},{"fieldValue":"Strategy games","totalCount":4},{"fieldValue":"Surfing","totalCount":2},{"fieldValue":"TV","totalCount":7},{"fieldValue":"Tabletop Games","totalCount":1},{"fieldValue":"Task Management","totalCount":76},{"fieldValue":"Tech","totalCount":861},{"fieldValue":"Telegram","totalCount":3},{"fieldValue":"Text Editors","totalCount":12},{"fieldValue":"Time Tracking","totalCount":18},{"fieldValue":"Transportation","totalCount":1},{"fieldValue":"Travel","totalCount":41},{"fieldValue":"Twitter","totalCount":32},{"fieldValue":"Typography","totalCount":4},{"fieldValue":"User Experience","totalCount":292},{"fieldValue":"Venture Capital","totalCount":23},{"fieldValue":"Video Streaming","totalCount":62},{"fieldValue":"Virtual Assistants","totalCount":11},{"fieldValue":"Virtual Reality","totalCount":10},{"fieldValue":"Wallpaper","totalCount":2},{"fieldValue":"Wearables","totalCount":9},{"fieldValue":"Weather Apps","totalCount":2},{"fieldValue":"Web App","totalCount":343},{"fieldValue":"Windows","totalCount":18},{"fieldValue":"Wine","totalCount":1},{"fieldValue":"Word Games","totalCount":1},{"fieldValue":"WordPress","totalCount":15},{"fieldValue":"Work In Progress ","totalCount":4},{"fieldValue":"Writing Tools","totalCount":64},{"fieldValue":"YouTube","totalCount":13},{"fieldValue":"Youtube","totalCount":1},{"fieldValue":"bitcoin","totalCount":3},{"fieldValue":"dankmemes","totalCount":1},{"fieldValue":"iMessage Apps","totalCount":2},{"fieldValue":"iPad","totalCount":37},{"fieldValue":"iPhone","totalCount":349},{"fieldValue":"reddit","totalCount":5},{"fieldValue":"science","totalCount":1},{"fieldValue":"tweet","totalCount":1321}]},"allBlogPost":{"nodes":[{"id":"PhPost-d52f8e79-b6b0-5cff-bb92-7b034d9de85e","excerpt":"PrivacyGrader.com provides an online assessment within 24 hours that measures how well a business’s website upholds consumer data protection laws, assesses privacy functionality, and highlights potential gaps and issues with the site.","slug":"/ph/privacygrader","title":"PrivacyGrader - Analyzing a website's privacy & compliance in under 24 hours","date":"December 19, 2020","dateISO":"2020-12-19T05:31:04.335Z","datetime":"2020-12-19 05:31","tags":["Analytics","Privacy","Developer Tools","Tech","ProductHunt"],"image":null,"imageAlt":null,"__typename":"SocialMediaPost","provider":"Product Hunt","thirdPartyId":"d52f8e79-b6b0-5cff-bb92-7b034d9de85e","url":"https://www.producthunt.com/posts/privacygrader?utm_campaign=producthunt-api&utm_medium=api-v2&utm_source=Application%3A+Buzzing+%28ID%3A+41381%29","originalUrl":"https://www.producthunt.com/r/4c8f8d64e6094d?utm_campaign=producthunt-api&utm_medium=api-v2&utm_source=Application%3A+Buzzing+%28ID%3A+41381%29","imageRemote":"https://ph-files.imgix.net/126ebfbd-22b9-4d1c-a176-29127bdeba89.png?auto=format&fit=crop","video":null,"channel":null,"channelUrl":null,"author":"Alexandra Velasquez","authorUrl":"https://www.producthunt.com/@alexandra_velasquez?utm_campaign=producthunt-api&utm_medium=api-v2&utm_source=Application%3A+Buzzing+%28ID%3A+41381%29","authorImage":null,"authorSlug":null,"score":170,"views":null,"sharedCount":null,"likeCount":null,"sharedContent":null,"parent":{"localize":[{"description":"PrivacyGrader.com在24小时内提供在线评估，衡量企业网站维护消费者数据保护法的程度，评估隐私功能，并突出网站的潜在差距和问题。","tagline":"在24小时内分析网站的隐私和合规性","locale":"zh"},{"description":"PrivacyGrader.com在24小時內提供在線評估，衡量企業網站維護消費者數據保護法的程度，評估隱私功能，並突出網站的潛在差距和問題。","tagline":"在24小時內分析網站的隱私和合規性","locale":"zh-Hant"}]}},{"id":"PhPost-78d4106b-3e4d-58cd-8a93-7126e0d8e195","excerpt":"Does a bad backdrop mean your video calls, virtual dates and zoom meetings are letting the team down? Is your virtual backdrop failing to impress? The Work-From-Home Backdrop installs in seconds and instantly transforms your space into a dynamic domain.","slug":"/ph/the-work-from-home-backdrop","title":"The Work From Home Backdrop - Physical backdrop for video calls and Zoom meetings","date":"December 18, 2020","dateISO":"2020-12-18T23:43:23.840Z","datetime":"2020-12-18 23:43","tags":["Productivity","Video Streaming","Meetings","Tech","ProductHunt"],"image":null,"imageAlt":null,"__typename":"SocialMediaPost","provider":"Product Hunt","thirdPartyId":"78d4106b-3e4d-58cd-8a93-7126e0d8e195","url":"https://www.producthunt.com/posts/the-work-from-home-backdrop?utm_campaign=producthunt-api&utm_medium=api-v2&utm_source=Application%3A+Buzzing+%28ID%3A+41381%29","originalUrl":"https://www.producthunt.com/r/75405ec9e0d7b7?utm_campaign=producthunt-api&utm_medium=api-v2&utm_source=Application%3A+Buzzing+%28ID%3A+41381%29","imageRemote":null,"video":{"url":"https://www.youtube.com/watch?v=sGgwZ7rTErk&feature=youtu.be","embed":null,"width":null,"height":null},"channel":null,"channelUrl":null,"author":"Samuel alex","authorUrl":"https://www.producthunt.com/@saalex?utm_campaign=producthunt-api&utm_medium=api-v2&utm_source=Application%3A+Buzzing+%28ID%3A+41381%29","authorImage":null,"authorSlug":null,"score":457,"views":null,"sharedCount":null,"likeCount":null,"sharedContent":null,"parent":{"localize":[{"description":"糟糕的背景是否意味着你的视频通话、虚拟约会和缩放会议让团队失望了？你的虚拟背景没有给人留下深刻印象吗？在家工作背景只需几秒钟即可安装，并立即将您的空间转变为动态域。","tagline":"视频通话和缩放会议的物理背景","locale":"zh"},{"description":"糟糕的背景是否意味着你的視頻通話、虛擬約會和縮放會議讓團隊失望了？你的虛擬背景沒有給人留下深刻印象嗎？在家工作背景只需幾秒鐘即可安裝，並立即將您的空間轉變爲動態域。","tagline":"視頻通話和縮放會議的物理背景","locale":"zh-Hant"}]}},{"id":"PhPost-b5a0fa17-094a-57ef-b2a8-897ed05e67ce","excerpt":"The best way to help save local businesses is getting more people in the door. Delight is the simplest way to tell a friend about a business. - Find your favorite spot, send the link to a friend and we'll donate money to that business when they check it out.","slug":"/ph/delight-2","title":"Delight - Support local businesses by referring friends","date":"December 18, 2020","dateISO":"2020-12-18T18:40:30.458Z","datetime":"2020-12-18 18:40","tags":["Web App","Tech","ProductHunt"],"image":null,"imageAlt":null,"__typename":"SocialMediaPost","provider":"Product Hunt","thirdPartyId":"b5a0fa17-094a-57ef-b2a8-897ed05e67ce","url":"https://www.producthunt.com/posts/delight-2?utm_campaign=producthunt-api&utm_medium=api-v2&utm_source=Application%3A+Buzzing+%28ID%3A+41381%29","originalUrl":"https://www.producthunt.com/r/a763bf290aa670?utm_campaign=producthunt-api&utm_medium=api-v2&utm_source=Application%3A+Buzzing+%28ID%3A+41381%29","imageRemote":"https://ph-files.imgix.net/9b4d8467-fcc4-42da-9fd1-6c3e34de1cc8.png?auto=format&fit=crop","video":null,"channel":null,"channelUrl":null,"author":"Dan Giaime","authorUrl":"https://www.producthunt.com/@dan_giaime?utm_campaign=producthunt-api&utm_medium=api-v2&utm_source=Application%3A+Buzzing+%28ID%3A+41381%29","authorImage":null,"authorSlug":null,"score":246,"views":null,"sharedCount":null,"likeCount":null,"sharedContent":null,"parent":{"localize":[{"description":"帮助拯救当地企业的最好方法是让更多的人进来。高兴是告诉朋友关于生意的最简单的方式。-找到你最喜欢的地方，将链接发送给朋友，当他们查看时，我们将向该企业捐款。","tagline":"通过推荐朋友来支持当地企业","locale":"zh"},{"description":"幫助拯救當地企業的最好方法是讓更多的人進來。高興是告訴朋友關於生意的最簡單的方式。-找到你最喜歡的地方，將鏈接發送給朋友，當他們查看時，我們將向該企業捐款。","tagline":"通過推薦朋友來支持當地企業","locale":"zh-Hant"}]}},{"id":"PhPost-44347abe-20fe-5d65-9717-3907a8f736b3","excerpt":"Join a curated network of rising stars who want to build the next big thing as founders or executives. Accelerate your career with access to ambitious peers, mentorship, events, courses, and much more.","slug":"/ph/propel-4","title":"Propel - The community for builders","date":"December 18, 2020","dateISO":"2020-12-18T18:11:43.656Z","datetime":"2020-12-18 18:11","tags":["Education","Meetings","Tech","ProductHunt"],"image":null,"imageAlt":null,"__typename":"SocialMediaPost","provider":"Product Hunt","thirdPartyId":"44347abe-20fe-5d65-9717-3907a8f736b3","url":"https://www.producthunt.com/posts/propel-4?utm_campaign=producthunt-api&utm_medium=api-v2&utm_source=Application%3A+Buzzing+%28ID%3A+41381%29","originalUrl":"https://www.producthunt.com/r/539c661871ddc6?utm_campaign=producthunt-api&utm_medium=api-v2&utm_source=Application%3A+Buzzing+%28ID%3A+41381%29","imageRemote":"https://ph-files.imgix.net/0348d5f7-190c-4979-868f-84338a75079d.jpeg?auto=format&fit=crop","video":null,"channel":null,"channelUrl":null,"author":"Tom Guthrie","authorUrl":"https://www.producthunt.com/@taguthrie?utm_campaign=producthunt-api&utm_medium=api-v2&utm_source=Application%3A+Buzzing+%28ID%3A+41381%29","authorImage":null,"authorSlug":null,"score":436,"views":null,"sharedCount":null,"likeCount":null,"sharedContent":null,"parent":{"localize":[{"description":"加入一个由后起之秀组成的精心策划的网络，这些新星希望以创始人或高管的身份打造下一件大事。通过接触雄心勃勃的同事、导师、活动、课程等来加速您的职业生涯。","tagline":"建筑商的社区","locale":"zh"},{"description":"加入一個由後起之秀組成的精心策劃的網絡，這些新星希望以創始人或高管的身份打造下一件大事。通過接觸雄心勃勃的同事、導師、活動、課程等來加速您的職業生涯。","tagline":"建築商的社區","locale":"zh-Hant"}]}},{"id":"PhPost-af9f7f77-7788-588d-b603-8c247c3a3f92","excerpt":"A lot happened in 2020. Despite everything, developers coded, learned new stuff, deployed and debugged. Here are a few highlights from a year to remember (or, you know, forget).","slug":"/ph/2020-year-in-review-by-codersrank","title":"2020 Year in Review by CodersRank - How did you code in 2020?","date":"December 18, 2020","dateISO":"2020-12-18T17:21:17.613Z","datetime":"2020-12-18 17:21","tags":["Software Engineering","Developer Tools","Tech","ProductHunt"],"image":null,"imageAlt":null,"__typename":"SocialMediaPost","provider":"Product Hunt","thirdPartyId":"af9f7f77-7788-588d-b603-8c247c3a3f92","url":"https://www.producthunt.com/posts/2020-year-in-review-by-codersrank?utm_campaign=producthunt-api&utm_medium=api-v2&utm_source=Application%3A+Buzzing+%28ID%3A+41381%29","originalUrl":"https://www.producthunt.com/r/5ad1678eacbe36?utm_campaign=producthunt-api&utm_medium=api-v2&utm_source=Application%3A+Buzzing+%28ID%3A+41381%29","imageRemote":null,"video":{"url":"https://youtu.be/nONLvupqsok","embed":null,"width":null,"height":null},"channel":null,"channelUrl":null,"author":"Tibor Szántai","authorUrl":"https://www.producthunt.com/@tibor_szantai1?utm_campaign=producthunt-api&utm_medium=api-v2&utm_source=Application%3A+Buzzing+%28ID%3A+41381%29","authorImage":null,"authorSlug":null,"score":690,"views":null,"sharedCount":null,"likeCount":null,"sharedContent":null,"parent":{"localize":[{"description":"2020年发生了很多事情。尽管如此，开发人员还是编码、学习新知识、部署和调试。以下是一年中值得记住(或者，你知道，忘记)的一些亮点。","tagline":"你在2020年是如何编码的？","locale":"zh"},{"description":"2020年發生了很多事情。儘管如此，開發人員還是編碼、學習新知識、部署和調試。以下是一年中值得記住(或者，你知道，忘記)的一些亮點。","tagline":"你在2020年是如何編碼的？","locale":"zh-Hant"}]}},{"id":"PhPost-96dcc180-d74d-596b-aec6-07e4daf2c032","excerpt":"Ratio is an Android home screen designed to turn mindless distraction into mindful productivity. 3 screens with everything you need on unlock. No more endless switching between apps, use social media less and supercharge your productivity.","slug":"/ph/ratio-4","title":"Ratio 4 - Welcome to your new home screen","date":"December 18, 2020","dateISO":"2020-12-18T15:46:35.639Z","datetime":"2020-12-18 15:46","tags":["Android","Productivity","User Experience","Tech","ProductHunt"],"image":null,"imageAlt":null,"__typename":"SocialMediaPost","provider":"Product Hunt","thirdPartyId":"96dcc180-d74d-596b-aec6-07e4daf2c032","url":"https://www.producthunt.com/posts/ratio-4?utm_campaign=producthunt-api&utm_medium=api-v2&utm_source=Application%3A+Buzzing+%28ID%3A+41381%29","originalUrl":"https://www.producthunt.com/r/a1009505f3ff67?utm_campaign=producthunt-api&utm_medium=api-v2&utm_source=Application%3A+Buzzing+%28ID%3A+41381%29","imageRemote":"https://ph-files.imgix.net/7e1ab611-1504-4432-be5c-4a2a8afbddfc.jpeg?auto=format&fit=crop","video":null,"channel":null,"channelUrl":null,"author":"Ben Jebara","authorUrl":"https://www.producthunt.com/@benjebara?utm_campaign=producthunt-api&utm_medium=api-v2&utm_source=Application%3A+Buzzing+%28ID%3A+41381%29","authorImage":null,"authorSlug":null,"score":1034,"views":null,"sharedCount":null,"likeCount":null,"sharedContent":null,"parent":{"localize":[{"description":"Ratio是一款Android主屏幕，旨在将无意识的分心工作转化为专注的工作效率。3个屏幕，解锁时有您需要的一切。不再在应用程序之间没完没了地切换，减少使用社交媒体，提高您的工作效率。","tagline":"欢迎使用您的新主屏幕","locale":"zh"},{"description":"Ratio是一款Android主屏幕，旨在將無意識的分心工作轉化爲專注的工作效率。3個屏幕，解鎖時有您需要的一切。不再在應用程序之間沒完沒了地切換，減少使用社交媒體，提高您的工作效率。","tagline":"歡迎使用您的新主屏幕","locale":"zh-Hant"}]}},{"id":"PhPost-ec595f2b-c605-5442-9a0a-9b5753dccb38","excerpt":"dLinks lets you build a decentralized profile on Web 3.0 in seconds. Built using Handshake and Sia: Handshake names are decentralized domains that no one can block access to. Skynet offers decentralized backend hosting that cannot be taken down.","slug":"/ph/dlinks","title":"dLinks - An easy to use, no-code site builder for Web 3.0","date":"December 18, 2020","dateISO":"2020-12-18T08:47:54.485Z","datetime":"2020-12-18 08:47","tags":["Productivity","Crypto","Privacy","Tech","No-Code","ProductHunt"],"image":null,"imageAlt":null,"__typename":"SocialMediaPost","provider":"Product Hunt","thirdPartyId":"ec595f2b-c605-5442-9a0a-9b5753dccb38","url":"https://www.producthunt.com/posts/dlinks?utm_campaign=producthunt-api&utm_medium=api-v2&utm_source=Application%3A+Buzzing+%28ID%3A+41381%29","originalUrl":"https://www.producthunt.com/r/ff5ae2b459fc18?utm_campaign=producthunt-api&utm_medium=api-v2&utm_source=Application%3A+Buzzing+%28ID%3A+41381%29","imageRemote":null,"video":{"url":"https://www.youtube.com/watch?v=YV7hyce7wxg&feature=youtu.be","embed":null,"width":null,"height":null},"channel":null,"channelUrl":null,"author":"Neeraj Thakur","authorUrl":"https://www.producthunt.com/@neerajt4?utm_campaign=producthunt-api&utm_medium=api-v2&utm_source=Application%3A+Buzzing+%28ID%3A+41381%29","authorImage":null,"authorSlug":null,"score":473,"views":null,"sharedCount":null,"likeCount":null,"sharedContent":null,"parent":{"localize":[{"description":"dLinks允许您在几秒钟内在Web 3.0上构建分散配置文件。使用握手和SIA：握手名称是分散的域，任何人都不能通过挡路访问。天网提供无法关闭的分散式后端托管。","tagline":"一个易于使用的、无代码的Web3.0站点生成器","locale":"zh"},{"description":"dLinks允許您在幾秒鐘內在Web 3.0上構建分散配置文件。使用握手和SIA：握手名稱是分散的域，任何人都不能通過擋路訪問。天網提供無法關閉的分散式後端託管。","tagline":"一個易於使用的、無代碼的Web3.0站點生成器","locale":"zh-Hant"}]}},{"id":"PhPost-3555eb85-7b7a-57fb-a122-17af37a00f37","excerpt":"Konsey.dev is an application that allows you to manage all your advertising work for different platforms in one place. Currently you can manage your Facebook & Google Ads accounts +TikTok Ads is coming soon!","slug":"/ph/konsey-dev","title":"Konsey.dev - Create & manage all your ads in one place","date":"December 18, 2020","dateISO":"2020-12-18T08:47:54.485Z","datetime":"2020-12-18 08:47","tags":["Design Tools","Marketing","Advertising","Tech","ProductHunt"],"image":null,"imageAlt":null,"__typename":"SocialMediaPost","provider":"Product Hunt","thirdPartyId":"3555eb85-7b7a-57fb-a122-17af37a00f37","url":"https://www.producthunt.com/posts/konsey-dev?utm_campaign=producthunt-api&utm_medium=api-v2&utm_source=Application%3A+Buzzing+%28ID%3A+41381%29","originalUrl":"https://www.producthunt.com/r/b33d84fd6b195e?utm_campaign=producthunt-api&utm_medium=api-v2&utm_source=Application%3A+Buzzing+%28ID%3A+41381%29","imageRemote":null,"video":{"url":"https://www.youtube.com/watch?v=FQxl9UuJOLY","embed":null,"width":null,"height":null},"channel":null,"channelUrl":null,"author":"Akan Acar","authorUrl":"https://www.producthunt.com/@akanacar?utm_campaign=producthunt-api&utm_medium=api-v2&utm_source=Application%3A+Buzzing+%28ID%3A+41381%29","authorImage":null,"authorSlug":null,"score":987,"views":null,"sharedCount":null,"likeCount":null,"sharedContent":null,"parent":{"localize":[{"description":"Konsey.dev是一个应用程序，允许您在一个地方管理不同平台的所有广告工作。目前，您可以管理您的Facebook和谷歌广告帐户+TikTok广告很快就会到来！","tagline":"在一个位置创建和管理您的所有广告","locale":"zh"},{"description":"Konsey.dev是一個應用程序，允許您在一個地方管理不同平臺的所有廣告工作。目前，您可以管理您的Facebook和谷歌廣告帳戶+TikTok廣告很快就會到來！","tagline":"在一個位置創建和管理您的所有廣告","locale":"zh-Hant"}]}},{"id":"PhPost-76c245eb-803a-5549-8d85-c44c973378a4","excerpt":"ProStyles is an AI camera app that edits your photos & videos in the style of pro photographers as you shoot them. The built-in Style Store features AI style models created by some of the best photographers out there.","slug":"/ph/prostyle-camera-by-neuralcam","title":"ProStyle Camera by NeuralCam - AI Cam App - Photos auto-edited in the style of pros","date":"December 18, 2020","dateISO":"2020-12-18T08:47:54.485Z","datetime":"2020-12-18 08:47","tags":["iPhone","Photography","Artificial Intelligence","Tech","ProductHunt"],"image":null,"imageAlt":null,"__typename":"SocialMediaPost","provider":"Product Hunt","thirdPartyId":"76c245eb-803a-5549-8d85-c44c973378a4","url":"https://www.producthunt.com/posts/prostyle-camera-by-neuralcam?utm_campaign=producthunt-api&utm_medium=api-v2&utm_source=Application%3A+Buzzing+%28ID%3A+41381%29","originalUrl":"https://www.producthunt.com/r/94c5e9cf98d225?utm_campaign=producthunt-api&utm_medium=api-v2&utm_source=Application%3A+Buzzing+%28ID%3A+41381%29","imageRemote":"https://ph-files.imgix.net/a3c0cf78-a59c-44c9-93e2-9505eee2b71a.png?auto=format&fit=crop","video":null,"channel":null,"channelUrl":null,"author":"Bram Kanstein (@bramk)","authorUrl":"https://www.producthunt.com/@bramk?utm_campaign=producthunt-api&utm_medium=api-v2&utm_source=Application%3A+Buzzing+%28ID%3A+41381%29","authorImage":null,"authorSlug":null,"score":253,"views":null,"sharedCount":null,"likeCount":null,"sharedContent":null,"parent":{"localize":[{"description":"ProStyles是一款人工智能相机应用程序，在你拍摄照片和视频时，它会以专业摄影师的风格编辑它们。内置风格商店的特色是由一些最好的摄影师创建的人工智能风格模型。","tagline":"AI Cam App-照片以专业风格自动编辑","locale":"zh"},{"description":"ProStyles是一款人工智能相機應用程序，在你拍攝照片和視頻時，它會以專業攝影師的風格編輯它們。內置風格商店的特色是由一些最好的攝影師創建的人工智能風格模型。","tagline":"AI Cam App-照片以專業風格自動編輯","locale":"zh-Hant"}]}},{"id":"PhPost-cf775dc2-428a-588f-86ba-5df53fc2f2cb","excerpt":"QLO is a browser-based interactive 3D tool to generate custom clothing mockups. Our 3D digital avatars can fit into your brand, just upload your design, adjust settings and download your images directly in your Browser.","slug":"/ph/qlo","title":"QLO - Generate custom 3D digital clothing mockups in your browser.","date":"December 18, 2020","dateISO":"2020-12-18T08:47:54.485Z","datetime":"2020-12-18 08:47","tags":["Design Tools","Social Media Tools","Prototyping","Photography","Tech","ProductHunt"],"image":null,"imageAlt":null,"__typename":"SocialMediaPost","provider":"Product Hunt","thirdPartyId":"cf775dc2-428a-588f-86ba-5df53fc2f2cb","url":"https://www.producthunt.com/posts/qlo?utm_campaign=producthunt-api&utm_medium=api-v2&utm_source=Application%3A+Buzzing+%28ID%3A+41381%29","originalUrl":"https://www.producthunt.com/r/2b5cc843312348?utm_campaign=producthunt-api&utm_medium=api-v2&utm_source=Application%3A+Buzzing+%28ID%3A+41381%29","imageRemote":null,"video":{"url":"https://www.youtube.com/watch?v=7sEuGcJ05gc","embed":null,"width":null,"height":null},"channel":null,"channelUrl":null,"author":"Augis Kaleinykas","authorUrl":"https://www.producthunt.com/@augis_kaleinykas?utm_campaign=producthunt-api&utm_medium=api-v2&utm_source=Application%3A+Buzzing+%28ID%3A+41381%29","authorImage":null,"authorSlug":null,"score":342,"views":null,"sharedCount":null,"likeCount":null,"sharedContent":null,"parent":{"localize":[{"description":"QLO是一个基于浏览器的交互式3D工具，可以生成定制的服装模型。我们的3D数字头像适合您的品牌，只需直接在浏览器中上传您的设计、调整设置和下载您的图像即可。","tagline":"在浏览器中生成自定义3D数字服装模型。","locale":"zh"},{"description":"QLO是一個基於瀏覽器的交互式3D工具，可以生成定製的服裝模型。我們的3D數字頭像適合您的品牌，只需直接在瀏覽器中上傳您的設計、調整設置和下載您的圖像即可。","tagline":"在瀏覽器中生成自定義3D數字服裝模型。","locale":"zh-Hant"}]}},{"id":"PhPost-6fb8cbf8-ea14-56e3-af16-430b89bb32ef","excerpt":"A members-only club for COVID conscious trip planning and on demand recommendations, curated by our in-the-know community.","slug":"/ph/the-club-by-allcall","title":"The Club by Allcall - COVID conscious trips & on-demand text recs.","date":"December 18, 2020","dateISO":"2020-12-18T08:47:54.485Z","datetime":"2020-12-18 08:47","tags":["Nomad Lifestyle","Travel","Tech","ProductHunt"],"image":null,"imageAlt":null,"__typename":"SocialMediaPost","provider":"Product Hunt","thirdPartyId":"6fb8cbf8-ea14-56e3-af16-430b89bb32ef","url":"https://www.producthunt.com/posts/the-club-by-allcall?utm_campaign=producthunt-api&utm_medium=api-v2&utm_source=Application%3A+Buzzing+%28ID%3A+41381%29","originalUrl":"https://www.producthunt.com/r/07e32947aad9ba?utm_campaign=producthunt-api&utm_medium=api-v2&utm_source=Application%3A+Buzzing+%28ID%3A+41381%29","imageRemote":"https://ph-files.imgix.net/19dadb8c-0acf-427b-b098-a954fc01aac1.gif?auto=format&fit=crop","video":null,"channel":null,"channelUrl":null,"author":"Chris Messina","authorUrl":"https://www.producthunt.com/@chrismessina?utm_campaign=producthunt-api&utm_medium=api-v2&utm_source=Application%3A+Buzzing+%28ID%3A+41381%29","authorImage":null,"authorSlug":null,"score":956,"views":null,"sharedCount":null,"likeCount":null,"sharedContent":null,"parent":{"localize":[{"description":"COVID有意识的旅行计划和按需推荐的会员俱乐部，由我们的知情社区策划。","tagline":"有CoVID意识的旅行和按需文本记录。","locale":"zh"},{"description":"COVID有意識的旅行計劃和按需推薦的會員俱樂部，由我們的知情社區策劃。","tagline":"有CoVID意識的旅行和按需文本記錄。","locale":"zh-Hant"}]}}]}},"pageContext":{"basePath":"/","pageType":"tag","tag":"Tech","tagsFilter":{"id":{"glob":"!*Post-1"}},"filter":{"id":{"glob":"!*Post-1"},"tags":{"eq":"Tech"}},"limit":25,"skip":850,"total":861,"totalPages":35,"currentPage":35,"maxWidth":1024,"maxHeight":512,"locale":"ja","hrefLang":"ja-JA","originalPath":"/tags/tech/page/35","dateFormat":"YYYY-MM-DD"}},"staticQueryHashes":["1239077767","2506312863","2744905544","3025052997","3280999885","3948070931","68699025"]}