{"componentChunkName":"component---gatsby-theme-buzzing-src-gatsby-theme-timeline-templates-posts-query-js","path":"/ja/tags/ask-hn/","result":{"data":{"site":{"siteMetadata":{"title":"Reddit 热门","description":"用中文浏览Reddit热门内容","social":[{"name":"Twitter","url":"https://twitter.com/gatsbyjs","external":null,"prefetch":null},{"name":"GitHub","url":"https://github.com/gatsbyjs","external":null,"prefetch":null}],"menuLinks":[],"localize":[{"locale":"en","title":"Buzzing on Reddit","description":"See what's buzzing on Reddit in your native language","social":[{"name":"Reddit","url":"https://www.reddit.com/","external":true,"prefetch":null}],"menuLinks":[{"name":"Weekly Selection","url":"/issues","external":null,"prefetch":null},{"name":"RSS","url":"/rss.xml","external":null,"prefetch":false}]},{"locale":"zh-Hant","title":"Reddit 熱門","description":"用中文瀏覽Reddit熱門內容","social":null,"menuLinks":null}]}},"tagsGroup":{"group":[{"fieldValue":"ASK HN","totalCount":54},{"fieldValue":"Hacker News","totalCount":3105},{"fieldValue":"Poll","totalCount":1},{"fieldValue":"Show HN","totalCount":100},{"fieldValue":"poll","totalCount":1},{"fieldValue":"story","totalCount":3104}]},"allBlogPost":{"nodes":[{"__typename":"SocialMediaPost","id":"HnPost-26693959","excerpt":"","slug":"/hn/26693959","title":"Ask HN: What novel tools are you using to write web sites/apps?","date":"April 05, 2021","dateISO":"2021-04-05T10:41:43.389Z","datetime":"2021-04-05 10:41","tags":["story","ASK HN","Hacker News"],"image":null,"imageAlt":null,"provider":"Hacker News","thirdPartyId":"26693959","url":"https://news.ycombinator.com/item?id=26693959","originalUrl":"https://news.ycombinator.com/item?id=26693959","imageRemote":null,"video":null,"channel":"ASK HN","channelUrl":"https://news.ycombinator.com/ask","author":"yawn","authorUrl":"https://news.ycombinator.com/user?id=yawn","authorImage":null,"authorSlug":null,"score":152,"views":null,"sharedCount":null,"likeCount":null,"sharedContent":null,"parent":{"__typename":"HnJson","localize":[{"title":"问HN：你用什么新颖的工具来写网站/应用？","locale":"zh"},{"title":"問HN：你用什麼新穎的工具來寫網站/應用？","locale":"zh-Hant"},{"title":"Ask HN: Webサイトやアプリを書くのにどんな斬新なツールを使っていますか？","locale":"ja-JA"},{"title":"Ask HN: Webサイトやアプリを書くのにどんな斬新なツールを使っていますか？","locale":"ja"}]}},{"__typename":"SocialMediaPost","id":"HnPost-26661279","excerpt":"","slug":"/hn/26661279","title":"Ask HN: Who wants to be hired? (April 2021)","date":"April 02, 2021","dateISO":"2021-04-02T06:18:24.023Z","datetime":"2021-04-02 06:18","tags":["story","ASK HN","Hacker News"],"image":null,"imageAlt":null,"provider":"Hacker News","thirdPartyId":"26661279","url":"https://news.ycombinator.com/item?id=26661279","originalUrl":"https://news.ycombinator.com/item?id=26661279","imageRemote":null,"video":null,"channel":"ASK HN","channelUrl":"https://news.ycombinator.com/ask","author":"whoishiring","authorUrl":"https://news.ycombinator.com/user?id=whoishiring","authorImage":null,"authorSlug":null,"score":141,"views":null,"sharedCount":null,"likeCount":null,"sharedContent":null,"parent":{"__typename":"HnJson","localize":[{"title":"问HN：谁想被录用？(2021年4月)","locale":"zh"},{"title":"問HN：誰想被錄用？(2021年4月)","locale":"zh-Hant"},{"title":"Ask HN: 採用されたい人は？(2021年4月)","locale":"ja-JA"},{"title":"Ask HN: 採用されたい人は？(2021年4月)","locale":"ja"}]}},{"__typename":"SocialMediaPost","id":"HnPost-26644616","excerpt":"","slug":"/hn/26644616","title":"Ask HN: Where do you find potential customers to validate your idea / MVP?","date":"April 01, 2021","dateISO":"2021-04-01T19:34:26.373Z","datetime":"2021-04-01 19:34","tags":["story","ASK HN","Hacker News"],"image":null,"imageAlt":null,"provider":"Hacker News","thirdPartyId":"26644616","url":"https://news.ycombinator.com/item?id=26644616","originalUrl":"https://news.ycombinator.com/item?id=26644616","imageRemote":null,"video":null,"channel":"ASK HN","channelUrl":"https://news.ycombinator.com/ask","author":"showsover","authorUrl":"https://news.ycombinator.com/user?id=showsover","authorImage":null,"authorSlug":null,"score":256,"views":null,"sharedCount":null,"likeCount":null,"sharedContent":null,"parent":{"__typename":"HnJson","localize":[{"title":"问HN：你在哪里找到潜在客户来验证你的想法/MVP？","locale":"zh"},{"title":"問HN：你在哪裏找到潛在客戶來驗證你的想法/MVP？","locale":"zh-Hant"}]}},{"__typename":"SocialMediaPost","id":"HnPost-26661443","excerpt":"","slug":"/hn/26661443","title":"Ask HN: Who is hiring? (April 2021)","date":"April 01, 2021","dateISO":"2021-04-01T18:02:20.415Z","datetime":"2021-04-01 18:02","tags":["story","ASK HN","Hacker News"],"image":null,"imageAlt":null,"provider":"Hacker News","thirdPartyId":"26661443","url":"https://news.ycombinator.com/item?id=26661443","originalUrl":"https://news.ycombinator.com/item?id=26661443","imageRemote":null,"video":null,"channel":"ASK HN","channelUrl":"https://news.ycombinator.com/ask","author":"whoishiring","authorUrl":"https://news.ycombinator.com/user?id=whoishiring","authorImage":null,"authorSlug":null,"score":367,"views":null,"sharedCount":null,"likeCount":null,"sharedContent":null,"parent":{"__typename":"HnJson","localize":[{"title":"问HN：谁在招聘？(2021年4月)","locale":"zh"},{"title":"問HN：誰在招聘？(2021年4月)","locale":"zh-Hant"},{"title":"Ask HN: 誰が採用しているのか？(2021年4月)","locale":"ja-JA"},{"title":"Ask HN: 誰が採用しているのか？(2021年4月)","locale":"ja"}]}},{"__typename":"SocialMediaPost","id":"HnPost-26657803","excerpt":"","slug":"/hn/26657803","title":"Ask HN: Best low-/no-code solution for simple web-based database frontends","date":"April 01, 2021","dateISO":"2021-04-01T17:09:06.559Z","datetime":"2021-04-01 17:09","tags":["story","ASK HN","Hacker News"],"image":null,"imageAlt":null,"provider":"Hacker News","thirdPartyId":"26657803","url":"https://news.ycombinator.com/item?id=26657803","originalUrl":"https://news.ycombinator.com/item?id=26657803","imageRemote":null,"video":null,"channel":"ASK HN","channelUrl":"https://news.ycombinator.com/ask","author":"codechoir","authorUrl":"https://news.ycombinator.com/user?id=codechoir","authorImage":null,"authorSlug":null,"score":175,"views":null,"sharedCount":null,"likeCount":null,"sharedContent":null,"parent":{"__typename":"HnJson","localize":[{"title":"问HN：简单的基于Web的数据库前端的最佳低代码/无代码解决方案。","locale":"zh"},{"title":"問HN：簡單的基於Web的數據庫前端的最佳低代碼/無代碼解決方案。","locale":"zh-Hant"},{"title":"Ask HN: シンプルなWebベースのデータベースフロントエンドのための、低コスト/ノーコードのベストソリューションです。","locale":"ja-JA"},{"title":"Ask HN: シンプルなWebベースのデータベースフロントエンドのための、低コスト/ノーコードのベストソリューションです。","locale":"ja"}]}},{"__typename":"SocialMediaPost","id":"HnPost-26647717","excerpt":"","slug":"/hn/26647717","title":"Ask HN: I've realized I'm a bad software engineer and I'm over 30, what's next?","date":"March 31, 2021","dateISO":"2021-03-31T16:09:20.345Z","datetime":"2021-03-31 16:09","tags":["story","ASK HN","Hacker News"],"image":null,"imageAlt":null,"provider":"Hacker News","thirdPartyId":"26647717","url":"https://news.ycombinator.com/item?id=26647717","originalUrl":"https://news.ycombinator.com/item?id=26647717","imageRemote":null,"video":null,"channel":"ASK HN","channelUrl":"https://news.ycombinator.com/ask","author":"mxmpawn","authorUrl":"https://news.ycombinator.com/user?id=mxmpawn","authorImage":null,"authorSlug":null,"score":296,"views":null,"sharedCount":null,"likeCount":null,"sharedContent":null,"parent":{"__typename":"HnJson","localize":[{"title":"问HN：我已经意识到自己是个糟糕的软件工程师，而且我已经超过30岁了，接下来该怎么办？","locale":"zh"},{"title":"問HN：我已經意識到自己是個糟糕的軟件工程師，而且我已經超過30歲了，接下來該怎麼辦？","locale":"zh-Hant"}]}},{"__typename":"SocialMediaPost","id":"HnPost-26594242","excerpt":"","slug":"/hn/26594242","title":"Ask HN: Cheapest/easiest way to host a static site?","date":"March 26, 2021","dateISO":"2021-03-26T23:48:39.591Z","datetime":"2021-03-26 23:48","tags":["story","ASK HN","Hacker News"],"image":null,"imageAlt":null,"provider":"Hacker News","thirdPartyId":"26594242","url":"https://news.ycombinator.com/item?id=26594242","originalUrl":"https://news.ycombinator.com/item?id=26594242","imageRemote":null,"video":null,"channel":"ASK HN","channelUrl":"https://news.ycombinator.com/ask","author":"offtop5","authorUrl":"https://news.ycombinator.com/user?id=offtop5","authorImage":null,"authorSlug":null,"score":443,"views":null,"sharedCount":null,"likeCount":null,"sharedContent":null,"parent":{"__typename":"HnJson","localize":[{"title":"问HN：最便宜/最简单的静态网站托管方式？","locale":"zh"},{"title":"問HN：最便宜/最簡單的靜態網站託管方式？","locale":"zh-Hant"}]}},{"__typename":"SocialMediaPost","id":"HnPost-26567980","excerpt":"","slug":"/hn/26567980","title":"Ask HN: Digital Nomads: What's Your Setup?","date":"March 24, 2021","dateISO":"2021-03-24T18:58:28.856Z","datetime":"2021-03-24 18:58","tags":["story","ASK HN","Hacker News"],"image":null,"imageAlt":null,"provider":"Hacker News","thirdPartyId":"26567980","url":"https://news.ycombinator.com/item?id=26567980","originalUrl":"https://news.ycombinator.com/item?id=26567980","imageRemote":null,"video":null,"channel":"ASK HN","channelUrl":"https://news.ycombinator.com/ask","author":"jrwoodruff","authorUrl":"https://news.ycombinator.com/user?id=jrwoodruff","authorImage":null,"authorSlug":null,"score":242,"views":null,"sharedCount":null,"likeCount":null,"sharedContent":null,"parent":{"__typename":"HnJson","localize":[{"title":"问HN：数字游牧民族。你的设置是什么？","locale":"zh"},{"title":"問HN：數字遊牧民族。你的設置是什麼？","locale":"zh-Hant"}]}},{"__typename":"SocialMediaPost","id":"HnPost-26528011","excerpt":"","slug":"/hn/26528011","title":"Ask HN: What was the biggest contributor to your happiness in the past year?","date":"March 21, 2021","dateISO":"2021-03-21T13:48:53.054Z","datetime":"2021-03-21 13:48","tags":["story","ASK HN","Hacker News"],"image":null,"imageAlt":null,"provider":"Hacker News","thirdPartyId":"26528011","url":"https://news.ycombinator.com/item?id=26528011","originalUrl":"https://news.ycombinator.com/item?id=26528011","imageRemote":null,"video":null,"channel":"ASK HN","channelUrl":"https://news.ycombinator.com/ask","author":"break_the_bank","authorUrl":"https://news.ycombinator.com/user?id=break_the_bank","authorImage":null,"authorSlug":null,"score":345,"views":null,"sharedCount":null,"likeCount":null,"sharedContent":null,"parent":{"__typename":"HnJson","localize":[{"title":"问HN：在过去的一年里，对你的幸福感贡献最大的是什么？","locale":"zh"},{"title":"問HN：在過去的一年裏，對你的幸福感貢獻最大的是什麼？","locale":"zh-Hant"}]}},{"__typename":"SocialMediaPost","id":"HnPost-26523816","excerpt":"","slug":"/hn/26523816","title":"Ask HN: How to build empathy?","date":"March 21, 2021","dateISO":"2021-03-21T07:24:07.384Z","datetime":"2021-03-21 07:24","tags":["story","ASK HN","Hacker News"],"image":null,"imageAlt":null,"provider":"Hacker News","thirdPartyId":"26523816","url":"https://news.ycombinator.com/item?id=26523816","originalUrl":"https://news.ycombinator.com/item?id=26523816","imageRemote":null,"video":null,"channel":"ASK HN","channelUrl":"https://news.ycombinator.com/ask","author":"break_the_bank","authorUrl":"https://news.ycombinator.com/user?id=break_the_bank","authorImage":null,"authorSlug":null,"score":210,"views":null,"sharedCount":null,"likeCount":null,"sharedContent":null,"parent":{"__typename":"HnJson","localize":[{"title":"问HN：如何建立同理心？","locale":"zh"},{"title":"問HN：如何建立同理心？","locale":"zh-Hant"}]}},{"__typename":"SocialMediaPost","id":"HnPost-26500021","excerpt":"","slug":"/hn/26500021","title":"Ask HN: How do I find energy to work on hobbies after the work day ends?","date":"March 19, 2021","dateISO":"2021-03-19T05:46:49.534Z","datetime":"2021-03-19 05:46","tags":["story","ASK HN","Hacker News"],"image":null,"imageAlt":null,"provider":"Hacker News","thirdPartyId":"26500021","url":"https://news.ycombinator.com/item?id=26500021","originalUrl":"https://news.ycombinator.com/item?id=26500021","imageRemote":null,"video":null,"channel":"ASK HN","channelUrl":"https://news.ycombinator.com/ask","author":"cgb223","authorUrl":"https://news.ycombinator.com/user?id=cgb223","authorImage":null,"authorSlug":null,"score":219,"views":null,"sharedCount":null,"likeCount":null,"sharedContent":null,"parent":{"__typename":"HnJson","localize":[{"title":"问HN：在一天的工作结束后，如何找到精力去研究兴趣爱好？","locale":"zh"},{"title":"問HN：在一天的工作結束後，如何找到精力去研究興趣愛好？","locale":"zh-Hant"}]}},{"__typename":"SocialMediaPost","id":"HnPost-26451540","excerpt":"","slug":"/hn/26451540","title":"Ask HN: Is Minix dead? No commits since 2018","date":"March 14, 2021","dateISO":"2021-03-14T09:21:22.681Z","datetime":"2021-03-14 09:21","tags":["story","ASK HN","Hacker News"],"image":null,"imageAlt":null,"provider":"Hacker News","thirdPartyId":"26451540","url":"https://news.ycombinator.com/item?id=26451540","originalUrl":"https://git.minix3.org/index.cgi?p=minix.git;a=summary","imageRemote":"https://git.minix3.org/static/git-logo.png","video":null,"channel":"ASK HN","channelUrl":"https://news.ycombinator.com/ask","author":"haunter","authorUrl":"https://news.ycombinator.com/user?id=haunter","authorImage":null,"authorSlug":null,"score":219,"views":null,"sharedCount":null,"likeCount":null,"sharedContent":null,"parent":{"__typename":"HnJson","localize":[{"title":"问HN：Minix死了吗？自2018年以来没有提交过","locale":"zh"},{"title":"問HN：Minix死了嗎？自2018年以來沒有提交過","locale":"zh-Hant"}]}},{"__typename":"SocialMediaPost","id":"HnPost-26407560","excerpt":"","slug":"/hn/26407560","title":"Ask HN: Those who quit their jobs to travel the world, how did it go?","date":"March 10, 2021","dateISO":"2021-03-10T11:27:17.376Z","datetime":"2021-03-10 11:27","tags":["story","ASK HN","Hacker News"],"image":null,"imageAlt":null,"provider":"Hacker News","thirdPartyId":"26407560","url":"https://news.ycombinator.com/item?id=26407560","originalUrl":"https://news.ycombinator.com/item?id=26407560","imageRemote":null,"video":null,"channel":"ASK HN","channelUrl":"https://news.ycombinator.com/ask","author":"cercatrova","authorUrl":"https://news.ycombinator.com/user?id=cercatrova","authorImage":null,"authorSlug":null,"score":399,"views":null,"sharedCount":null,"likeCount":null,"sharedContent":null,"parent":{"__typename":"HnJson","localize":[{"title":"问HN：那些辞职去环游世界的人，过得怎么样？","locale":"zh"},{"title":"問HN：那些辭職去環遊世界的人，過得怎麼樣？","locale":"zh-Hant"}]}},{"__typename":"SocialMediaPost","id":"HnPost-26391254","excerpt":"","slug":"/hn/26391254","title":"Ask HN: Do you create music? let's hear it","date":"March 09, 2021","dateISO":"2021-03-09T05:29:39.335Z","datetime":"2021-03-09 05:29","tags":["story","ASK HN","Hacker News"],"image":null,"imageAlt":null,"provider":"Hacker News","thirdPartyId":"26391254","url":"https://news.ycombinator.com/item?id=26391254","originalUrl":"https://news.ycombinator.com/item?id=26391254","imageRemote":null,"video":null,"channel":"ASK HN","channelUrl":"https://news.ycombinator.com/ask","author":"saadalem","authorUrl":"https://news.ycombinator.com/user?id=saadalem","authorImage":null,"authorSlug":null,"score":258,"views":null,"sharedCount":null,"likeCount":null,"sharedContent":null,"parent":{"__typename":"HnJson","localize":[{"title":"问HN：你会创作音乐吗，让我们听听吧","locale":"zh"},{"title":"問HN：你會創作音樂嗎，讓我們聽聽吧","locale":"zh-Hant"}]}},{"__typename":"SocialMediaPost","id":"HnPost-26366538","excerpt":"","slug":"/hn/26366538","title":"Ask HN: What tangible benefits did you get from spending time on HN?","date":"March 06, 2021","dateISO":"2021-03-06T21:28:34.787Z","datetime":"2021-03-06 21:28","tags":["story","ASK HN","Hacker News"],"image":null,"imageAlt":null,"provider":"Hacker News","thirdPartyId":"26366538","url":"https://news.ycombinator.com/item?id=26366538","originalUrl":"https://news.ycombinator.com/item?id=26366538","imageRemote":null,"video":null,"channel":"ASK HN","channelUrl":"https://news.ycombinator.com/ask","author":"ElectricMind","authorUrl":"https://news.ycombinator.com/user?id=ElectricMind","authorImage":null,"authorSlug":null,"score":218,"views":null,"sharedCount":null,"likeCount":null,"sharedContent":null,"parent":{"__typename":"HnJson","localize":[{"title":"问HN：在HN上呆久了，你得到了哪些实实在在的好处？","locale":"zh"},{"title":"問HN：在HN上呆久了，你得到了哪些實實在在的好處？","locale":"zh-Hant"}]}},{"__typename":"SocialMediaPost","id":"HnPost-26367099","excerpt":"","slug":"/hn/26367099","title":"Ask HN: Is abuse from supervisors as common in industry as in academia?","date":"March 06, 2021","dateISO":"2021-03-06T18:49:50.104Z","datetime":"2021-03-06 18:49","tags":["story","ASK HN","Hacker News"],"image":null,"imageAlt":null,"provider":"Hacker News","thirdPartyId":"26367099","url":"https://news.ycombinator.com/item?id=26367099","originalUrl":"https://news.ycombinator.com/item?id=26367099","imageRemote":null,"video":null,"channel":"ASK HN","channelUrl":"https://news.ycombinator.com/ask","author":"phdonewiththis","authorUrl":"https://news.ycombinator.com/user?id=phdonewiththis","authorImage":null,"authorSlug":null,"score":270,"views":null,"sharedCount":null,"likeCount":null,"sharedContent":null,"parent":{"__typename":"HnJson","localize":[{"title":"问HN：主管的虐待行为在工业界和学术界一样普遍吗？","locale":"zh"},{"title":"問HN：主管的虐待行爲在工業界和學術界一樣普遍嗎？","locale":"zh-Hant"}]}},{"__typename":"SocialMediaPost","id":"HnPost-26360349","excerpt":"","slug":"/hn/26360349","title":"Ask HN: How do I learn drawing?","date":"March 06, 2021","dateISO":"2021-03-06T05:49:04.818Z","datetime":"2021-03-06 05:49","tags":["story","ASK HN","Hacker News"],"image":null,"imageAlt":null,"provider":"Hacker News","thirdPartyId":"26360349","url":"https://news.ycombinator.com/item?id=26360349","originalUrl":"https://news.ycombinator.com/item?id=26360349","imageRemote":null,"video":null,"channel":"ASK HN","channelUrl":"https://news.ycombinator.com/ask","author":"f311a","authorUrl":"https://news.ycombinator.com/user?id=f311a","authorImage":null,"authorSlug":null,"score":215,"views":null,"sharedCount":null,"likeCount":null,"sharedContent":null,"parent":{"__typename":"HnJson","localize":[{"title":"问HN：如何学习绘画？","locale":"zh"},{"title":"問HN：如何學習繪畫？","locale":"zh-Hant"}]}},{"__typename":"SocialMediaPost","id":"HnPost-26345235","excerpt":"","slug":"/hn/26345235","title":"Ask HN: Do you think Agile/Scrum is beneficial for software delivery?","date":"March 05, 2021","dateISO":"2021-03-05T03:24:40.372Z","datetime":"2021-03-05 03:24","tags":["story","ASK HN","Hacker News"],"image":null,"imageAlt":null,"provider":"Hacker News","thirdPartyId":"26345235","url":"https://news.ycombinator.com/item?id=26345235","originalUrl":"https://news.ycombinator.com/item?id=26345235","imageRemote":null,"video":null,"channel":"ASK HN","channelUrl":"https://news.ycombinator.com/ask","author":"andyxor","authorUrl":"https://news.ycombinator.com/user?id=andyxor","authorImage":null,"authorSlug":null,"score":446,"views":null,"sharedCount":null,"likeCount":null,"sharedContent":null,"parent":{"__typename":"HnJson","localize":[{"title":"问HN：你认为敏捷/Scrum对软件交付有利吗？","locale":"zh"},{"title":"問HN：你認爲敏捷/Scrum對軟件交付有利嗎？","locale":"zh-Hant"}]}},{"__typename":"SocialMediaPost","id":"HnPost-26304051","excerpt":"","slug":"/hn/26304051","title":"Ask HN: Who is hiring? (March 2021)","date":"March 01, 2021","dateISO":"2021-03-01T18:48:53.960Z","datetime":"2021-03-01 18:48","tags":["story","ASK HN","Hacker News"],"image":null,"imageAlt":null,"provider":"Hacker News","thirdPartyId":"26304051","url":"https://news.ycombinator.com/item?id=26304051","originalUrl":"https://news.ycombinator.com/item?id=26304051","imageRemote":null,"video":null,"channel":"ASK HN","channelUrl":"https://news.ycombinator.com/ask","author":"whoishiring","authorUrl":"https://news.ycombinator.com/user?id=whoishiring","authorImage":null,"authorSlug":null,"score":357,"views":null,"sharedCount":null,"likeCount":null,"sharedContent":null,"parent":{"__typename":"HnJson","localize":[{"title":"问HN：谁在招聘？(2021年3月)","locale":"zh"},{"title":"問HN：誰在招聘？(2021年3月)","locale":"zh-Hant"}]}},{"__typename":"SocialMediaPost","id":"HnPost-26171008","excerpt":"","slug":"/hn/26171008","title":"Ask HN: Advice for finding an entry-level remote job?","date":"February 17, 2021","dateISO":"2021-02-17T23:57:07.860Z","datetime":"2021-02-17 23:57","tags":["story","ASK HN","Hacker News"],"image":null,"imageAlt":null,"provider":"Hacker News","thirdPartyId":"26171008","url":"https://news.ycombinator.com/item?id=26171008","originalUrl":"https://news.ycombinator.com/item?id=26171008","imageRemote":null,"video":null,"channel":"ASK HN","channelUrl":"https://news.ycombinator.com/ask","author":"AskHNremote2021","authorUrl":"https://news.ycombinator.com/user?id=AskHNremote2021","authorImage":null,"authorSlug":null,"score":719,"views":null,"sharedCount":null,"likeCount":null,"sharedContent":null,"parent":{"__typename":"HnJson","localize":[{"title":"问HN：找一份入门级远程工作的建议？","locale":"zh"},{"title":"問HN：找一份入門級遠程工作的建議？","locale":"zh-Hant"}]}},{"__typename":"SocialMediaPost","id":"HnPost-26143407","excerpt":"","slug":"/hn/26143407","title":"Ask HN: Why are e-ink note-taking devices so expensive compared to iPads?","date":"February 15, 2021","dateISO":"2021-02-15T19:52:57.331Z","datetime":"2021-02-15 19:52","tags":["story","ASK HN","Hacker News"],"image":null,"imageAlt":null,"provider":"Hacker News","thirdPartyId":"26143407","url":"https://news.ycombinator.com/item?id=26143407","originalUrl":"https://news.ycombinator.com/item?id=26143407","imageRemote":null,"video":null,"channel":"ASK HN","channelUrl":"https://news.ycombinator.com/ask","author":"behnamoh","authorUrl":"https://news.ycombinator.com/user?id=behnamoh","authorImage":null,"authorSlug":null,"score":330,"views":null,"sharedCount":null,"likeCount":null,"sharedContent":null,"parent":{"__typename":"HnJson","localize":[{"title":"问HN：为什么电子墨水记事本设备比iPad贵？","locale":"zh"},{"title":"問HN：爲什麼電子墨水記事本設備比iPad貴？","locale":"zh-Hant"}]}},{"__typename":"SocialMediaPost","id":"HnPost-26137479","excerpt":"","slug":"/hn/26137479","title":"Ask HN: What are the best websites that the Anglosphere doesn't know about?","date":"February 15, 2021","dateISO":"2021-02-15T03:44:47.026Z","datetime":"2021-02-15 03:44","tags":["story","ASK HN","Hacker News"],"image":null,"imageAlt":null,"provider":"Hacker News","thirdPartyId":"26137479","url":"https://news.ycombinator.com/item?id=26137479","originalUrl":"https://news.ycombinator.com/item?id=26137479","imageRemote":null,"video":null,"channel":"ASK HN","channelUrl":"https://news.ycombinator.com/ask","author":"remolacha","authorUrl":"https://news.ycombinator.com/user?id=remolacha","authorImage":null,"authorSlug":null,"score":537,"views":null,"sharedCount":null,"likeCount":null,"sharedContent":null,"parent":{"__typename":"HnJson","localize":[{"title":"问HN：有哪些好的网站是英伦人不知道的？","locale":"zh"},{"title":"問HN：有哪些好的網站是英倫人不知道的？","locale":"zh-Hant"}]}},{"__typename":"SocialMediaPost","id":"HnPost-26112361","excerpt":"","slug":"/hn/26112361","title":"Ask HN: Why aren't you coding?","date":"February 13, 2021","dateISO":"2021-02-13T09:25:18.664Z","datetime":"2021-02-13 09:25","tags":["story","ASK HN","Hacker News"],"image":null,"imageAlt":null,"provider":"Hacker News","thirdPartyId":"26112361","url":"https://news.ycombinator.com/item?id=26112361","originalUrl":"https://news.ycombinator.com/item?id=26112361","imageRemote":null,"video":null,"channel":"ASK HN","channelUrl":"https://news.ycombinator.com/ask","author":"boffinism","authorUrl":"https://news.ycombinator.com/user?id=boffinism","authorImage":null,"authorSlug":null,"score":217,"views":null,"sharedCount":null,"likeCount":null,"sharedContent":null,"parent":{"__typename":"HnJson","localize":[{"title":"问HN：你为什么不打码？","locale":"zh"},{"title":"問HN：你爲什麼不打碼？","locale":"zh-Hant"}]}},{"__typename":"SocialMediaPost","id":"HnPost-26080163","excerpt":"","slug":"/hn/26080163","title":"Ask HN: Team fun event ideas during WFH?","date":"February 10, 2021","dateISO":"2021-02-10T01:23:15.722Z","datetime":"2021-02-10 01:23","tags":["story","ASK HN","Hacker News"],"image":null,"imageAlt":null,"provider":"Hacker News","thirdPartyId":"26080163","url":"https://news.ycombinator.com/item?id=26080163","originalUrl":"https://news.ycombinator.com/item?id=26080163","imageRemote":null,"video":null,"channel":"ASK HN","channelUrl":"https://news.ycombinator.com/ask","author":"pseudobry","authorUrl":"https://news.ycombinator.com/user?id=pseudobry","authorImage":null,"authorSlug":null,"score":211,"views":null,"sharedCount":null,"likeCount":null,"sharedContent":null,"parent":{"__typename":"HnJson","localize":[{"title":"问HN：WFH期间的团队趣味活动创意？","locale":"zh"},{"title":"問HN：WFH期間的團隊趣味活動創意？","locale":"zh-Hant"}]}},{"__typename":"SocialMediaPost","id":"HnPost-25992782","excerpt":"","slug":"/hn/25992782","title":"Ask HN: What is your “I don't care if this succeeds” project?","date":"February 02, 2021","dateISO":"2021-02-02T13:32:17.549Z","datetime":"2021-02-02 13:32","tags":["story","ASK HN","Hacker News"],"image":null,"imageAlt":null,"provider":"Hacker News","thirdPartyId":"25992782","url":"https://news.ycombinator.com/item?id=25992782","originalUrl":"https://news.ycombinator.com/item?id=25992782","imageRemote":null,"video":null,"channel":"ASK HN","channelUrl":"https://news.ycombinator.com/ask","author":"as89","authorUrl":"https://news.ycombinator.com/user?id=as89","authorImage":null,"authorSlug":null,"score":225,"views":null,"sharedCount":null,"likeCount":null,"sharedContent":null,"parent":{"__typename":"HnJson","localize":[{"title":"问HN：你的 \"我不在乎这件事是否成功 \"的项目是什么？","locale":"zh"},{"title":"問HN：你的 \"我不在乎這件事是否成功 \"的項目是什麼？","locale":"zh-Hant"}]}}]}},"pageContext":{"basePath":"/","pageType":"tag","tag":"ASK HN","tagsFilter":{"id":{"glob":"!*Post-1"}},"filter":{"id":{"glob":"!*Post-1"},"tags":{"eq":"ASK HN"}},"limit":25,"skip":0,"total":54,"totalPages":3,"currentPage":1,"maxWidth":1024,"maxHeight":512,"locale":"ja","hrefLang":"ja-JA","originalPath":"/tags/ask-hn/","dateFormat":"YYYY-MM-DD"}},"staticQueryHashes":["1239077767","2506312863","2744905544","3025052997","3493603132","3493603132","3513215887","386998304"]}