{"componentChunkName":"component---gatsby-theme-buzzing-src-gatsby-theme-timeline-templates-posts-query-js","path":"/tags/story/page/56","result":{"data":{"site":{"siteMetadata":{"title":"Reddit 热门","description":"用中文浏览Reddit热门内容","social":[{"name":"Twitter","url":"https://twitter.com/gatsbyjs","external":null,"prefetch":null},{"name":"GitHub","url":"https://github.com/gatsbyjs","external":null,"prefetch":null}],"menuLinks":[],"localize":[{"locale":"en","title":"Buzzing on Reddit","description":"See what's buzzing on Reddit in your native language","social":[{"name":"Reddit","url":"https://www.reddit.com/","external":true,"prefetch":null}],"menuLinks":[{"name":"Weekly Selection","url":"/issues","external":null,"prefetch":null},{"name":"RSS","url":"/rss.xml","external":null,"prefetch":false}]},{"locale":"zh-Hant","title":"Reddit 熱門","description":"用中文瀏覽Reddit熱門內容","social":null,"menuLinks":null}]}},"tagsGroup":{"group":[{"fieldValue":"ASK HN","totalCount":44},{"fieldValue":"Bitcoin","totalCount":4},{"fieldValue":"Hacker News","totalCount":2600},{"fieldValue":"Poll","totalCount":1},{"fieldValue":"SaveAMC","totalCount":1},{"fieldValue":"Show HN","totalCount":89},{"fieldValue":"bitcoin","totalCount":3},{"fieldValue":"investing","totalCount":797},{"fieldValue":"poll","totalCount":1},{"fieldValue":"reddit","totalCount":4938},{"fieldValue":"science","totalCount":1},{"fieldValue":"stocks","totalCount":1592},{"fieldValue":"story","totalCount":2599},{"fieldValue":"tweet","totalCount":814},{"fieldValue":"wallstreetbets","totalCount":2549}]},"allBlogPost":{"nodes":[{"__typename":"SocialMediaPost","id":"HnPost-25902112","excerpt":"","slug":"/hn/25902112","title":"Food delivery startup Wolt raises $530M","date":"January 25, 2021","dateISO":"2021-01-25T22:10:28.851Z","datetime":"2021-01-25 22:10","tags":["story","Hacker News"],"image":null,"imageAlt":null,"provider":"Hacker News","thirdPartyId":"25902112","url":"https://news.ycombinator.com/item?id=25902112","originalUrl":"https://sifted.eu/articles/wolt-530m-raise/","imageRemote":"https://images.sifted.eu/wp-content/uploads/2021/01/25105154/373470-Wolt_Courier_Bicycle_4-78d6ea-original-1608038090-scaled.jpg?w=2048&h=1167&q=75&fit=crop&auto=compress,format","video":null,"channel":null,"channelUrl":null,"author":"kakoni","authorUrl":"https://news.ycombinator.com/user?id=kakoni","authorImage":null,"authorSlug":null,"score":162,"views":null,"sharedCount":null,"likeCount":null,"sharedContent":null,"parent":{"__typename":"HnJson","localize":[{"title":"食品配送创业公司Wolt融资5.3亿美元","locale":"zh"},{"title":"食品配送創業公司Wolt融資5.3億美元","locale":"zh-Hant"}]}},{"__typename":"SocialMediaPost","id":"HnPost-25906058","excerpt":"","slug":"/hn/25906058","title":"Otokichi","date":"January 25, 2021","dateISO":"2021-01-25T22:10:28.851Z","datetime":"2021-01-25 22:10","tags":["story","Hacker News"],"image":null,"imageAlt":null,"provider":"Hacker News","thirdPartyId":"25906058","url":"https://news.ycombinator.com/item?id=25906058","originalUrl":"https://en.wikipedia.org/wiki/Otokichi","imageRemote":"https://upload.wikimedia.org/wikipedia/commons/7/74/Otokichi.jpg","video":null,"channel":null,"channelUrl":null,"author":"Thevet","authorUrl":"https://news.ycombinator.com/user?id=Thevet","authorImage":null,"authorSlug":null,"score":162,"views":null,"sharedCount":null,"likeCount":null,"sharedContent":null,"parent":{"__typename":"HnJson","localize":[{"title":"Otokichi","locale":"zh"},{"title":"Otokichi","locale":"zh-Hant"}]}},{"__typename":"SocialMediaPost","id":"HnPost-25904188","excerpt":"","slug":"/hn/25904188","title":"A deeper dive into our May 2019 security incident","date":"January 25, 2021","dateISO":"2021-01-25T21:42:47.981Z","datetime":"2021-01-25 21:42","tags":["story","Hacker News"],"image":null,"imageAlt":null,"provider":"Hacker News","thirdPartyId":"25904188","url":"https://news.ycombinator.com/item?id=25904188","originalUrl":"https://stackoverflow.blog/2021/01/25/a-deeper-dive-into-our-may-2019-security-incident/","imageRemote":"https://149351115.v2.pressablecdn.com/wp-content/uploads/2021/01/blog-security-4.png","video":null,"channel":null,"channelUrl":null,"author":"alex-warren","authorUrl":"https://news.ycombinator.com/user?id=alex-warren","authorImage":null,"authorSlug":null,"score":162,"views":null,"sharedCount":null,"likeCount":null,"sharedContent":null,"parent":{"__typename":"HnJson","localize":[{"title":"深入了解我国2019年5月安全事故的情况","locale":"zh"},{"title":"深入瞭解我國2019年5月安全事故的情況","locale":"zh-Hant"}]}},{"__typename":"SocialMediaPost","id":"HnPost-25904658","excerpt":"","slug":"/hn/25904658","title":"Vancouver seaplane company to resume test flights with electric plane","date":"January 25, 2021","dateISO":"2021-01-25T21:42:47.981Z","datetime":"2021-01-25 21:42","tags":["story","Hacker News"],"image":null,"imageAlt":null,"provider":"Hacker News","thirdPartyId":"25904658","url":"https://news.ycombinator.com/item?id=25904658","originalUrl":"https://www.cbc.ca/news/canada/british-columbia/vancouver-electric-seaplane-test-flights-1.5884479","imageRemote":"https://i.cbc.ca/1.5391142.1611357228!/cumulusImage/httpImage/image.jpg_gen/derivatives/16x9_620/harbour-air-electric-plane.jpg","video":null,"channel":null,"channelUrl":null,"author":"seryoiupfurds","authorUrl":"https://news.ycombinator.com/user?id=seryoiupfurds","authorImage":null,"authorSlug":null,"score":164,"views":null,"sharedCount":null,"likeCount":null,"sharedContent":null,"parent":{"__typename":"HnJson","localize":[{"title":"温哥华水上飞机公司恢复电动飞机试飞","locale":"zh"},{"title":"溫哥華水上飛機公司恢復電動飛機試飛","locale":"zh-Hant"}]}},{"__typename":"SocialMediaPost","id":"HnPost-25907356","excerpt":"","slug":"/hn/25907356","title":"Myopia correcting 'smart glasses' from Japan to be sold in Asia","date":"January 25, 2021","dateISO":"2021-01-25T21:42:47.981Z","datetime":"2021-01-25 21:42","tags":["story","Hacker News"],"image":null,"imageAlt":null,"provider":"Hacker News","thirdPartyId":"25907356","url":"https://news.ycombinator.com/item?id=25907356","originalUrl":"https://asia.nikkei.com/Business/Health-Care/Myopia-correcting-smart-glasses-from-Japan-to-be-sold-in-Asia","imageRemote":"https://www.ft.com/__origami/service/image/v2/images/raw/https%3A%2F%2Fs3-ap-northeast-1.amazonaws.com%2Fpsh-ex-ftnikkei-3937bb4%2Fimages%2F2%2F5%2F3%2F7%2F31697352-1-eng-GB%2F4%20%28002%29.jpg?width=1024&height=512&fit=cover&gravity=faces&source=nar-cms","video":null,"channel":null,"channelUrl":null,"author":"isof4ult","authorUrl":"https://news.ycombinator.com/user?id=isof4ult","authorImage":null,"authorSlug":null,"score":190,"views":null,"sharedCount":null,"likeCount":null,"sharedContent":null,"parent":{"__typename":"HnJson","localize":[{"title":"日本近视矫正 \"智能眼镜 \"将在亚洲销售","locale":"zh"},{"title":"日本近視矯正 \"智能眼鏡 \"將在亞洲銷售","locale":"zh-Hant"}]}},{"__typename":"SocialMediaPost","id":"HnPost-25903049","excerpt":"","slug":"/hn/25903049","title":"Google has been testing a replacement for third-party cookies","date":"January 25, 2021","dateISO":"2021-01-25T21:03:48.448Z","datetime":"2021-01-25 21:03","tags":["story","Hacker News"],"image":null,"imageAlt":null,"provider":"Hacker News","thirdPartyId":"25903049","url":"https://news.ycombinator.com/item?id=25903049","originalUrl":"https://www.axios.com/google-privacy-friendly-substitute-cookies-test-05c2c28e-77f1-4921-9a99-1ef0c009b064.html","imageRemote":"https://images.axios.com/WvR62WxVMU1xWKVinURJnqLsiS0=/0x0:1280x720/1366x768/2021/01/25/1611540916033.jpg","video":null,"channel":null,"channelUrl":null,"author":"Geeek","authorUrl":"https://news.ycombinator.com/user?id=Geeek","authorImage":null,"authorSlug":null,"score":175,"views":null,"sharedCount":null,"likeCount":null,"sharedContent":null,"parent":{"__typename":"HnJson","localize":[{"title":"谷歌一直在测试第三方cookies的替代品","locale":"zh"},{"title":"谷歌一直在測試第三方cookies的替代品","locale":"zh-Hant"}]}},{"__typename":"SocialMediaPost","id":"HnPost-25904014","excerpt":"","slug":"/hn/25904014","title":"Moderna vaccine appears to work against variants","date":"January 25, 2021","dateISO":"2021-01-25T21:03:48.448Z","datetime":"2021-01-25 21:03","tags":["story","Hacker News"],"image":null,"imageAlt":null,"provider":"Hacker News","thirdPartyId":"25904014","url":"https://news.ycombinator.com/item?id=25904014","originalUrl":"https://www.bbc.co.uk/news/health-55797312","imageRemote":"https://ichef.bbci.co.uk/news/1024/branded_news/166C8/production/_116084819_smallergettyimages-1204224469-1.jpg","video":null,"channel":null,"channelUrl":null,"author":"pseudolus","authorUrl":"https://news.ycombinator.com/user?id=pseudolus","authorImage":null,"authorSlug":null,"score":184,"views":null,"sharedCount":null,"likeCount":null,"sharedContent":null,"parent":{"__typename":"HnJson","localize":[{"title":"Moderna疫苗似乎对变异体有效","locale":"zh"},{"title":"Moderna疫苗似乎對變異體有效","locale":"zh-Hant"}]}},{"__typename":"SocialMediaPost","id":"HnPost-25904709","excerpt":"","slug":"/hn/25904709","title":"Giant leak exposes data from almost all Brazilians","date":"January 25, 2021","dateISO":"2021-01-25T21:03:48.448Z","datetime":"2021-01-25 21:03","tags":["story","Hacker News"],"image":null,"imageAlt":null,"provider":"Hacker News","thirdPartyId":"25904709","url":"https://news.ycombinator.com/item?id=25904709","originalUrl":"https://www.databreaches.net/giant-leak-exposes-data-from-almost-all-brazilians/","imageRemote":null,"video":null,"channel":null,"channelUrl":null,"author":"JeanMarcS","authorUrl":"https://news.ycombinator.com/user?id=JeanMarcS","authorImage":null,"authorSlug":null,"score":170,"views":null,"sharedCount":null,"likeCount":null,"sharedContent":null,"parent":{"__typename":"HnJson","localize":[{"title":"巨额泄密暴露了几乎所有巴西人的数据。","locale":"zh"},{"title":"鉅額泄密暴露了幾乎所有巴西人的數據。","locale":"zh-Hant"}]}},{"__typename":"SocialMediaPost","id":"HnPost-25904965","excerpt":"","slug":"/hn/25904965","title":"Dominion Voting Systems Sues Rudy Giuliani","date":"January 25, 2021","dateISO":"2021-01-25T21:03:48.448Z","datetime":"2021-01-25 21:03","tags":["story","Hacker News"],"image":null,"imageAlt":null,"provider":"Hacker News","thirdPartyId":"25904965","url":"https://news.ycombinator.com/item?id=25904965","originalUrl":"https://www.cbc.ca/news/world/dominion-voting-giuliani-trump-1.5886273","imageRemote":"https://i.cbc.ca/1.5886284.1611584243!/fileImage/httpImage/image.jpg_gen/derivatives/16x9_620/trump-giuliani.jpg","video":null,"channel":null,"channelUrl":null,"author":"cf100clunk","authorUrl":"https://news.ycombinator.com/user?id=cf100clunk","authorImage":null,"authorSlug":null,"score":161,"views":null,"sharedCount":null,"likeCount":null,"sharedContent":null,"parent":{"__typename":"HnJson","localize":[{"title":"多米尼克投票系统公司起诉鲁迪-朱利安尼。","locale":"zh"},{"title":"多米尼克投票系統公司起訴魯迪-朱利安尼。","locale":"zh-Hant"}]}},{"__typename":"SocialMediaPost","id":"HnPost-25895126","excerpt":"","slug":"/hn/25895126","title":"I wouldn't invest in open-source companies, even though I ran one","date":"January 25, 2021","dateISO":"2021-01-25T19:33:01.219Z","datetime":"2021-01-25 19:33","tags":["story","Hacker News"],"image":null,"imageAlt":null,"provider":"Hacker News","thirdPartyId":"25895126","url":"https://news.ycombinator.com/item?id=25895126","originalUrl":"https://www.linkedin.com/pulse/why-i-wouldnt-invest-open-source-companies-even-though-wolfram-hempel","imageRemote":"https://media-exp1.licdn.com/dms/image/C5612AQGml2--C9hB9w/article-cover_image-shrink_720_1280/0/1609590515701?e=1617235200&v=beta&t=R9t267BzpBX1kf5d-BItdu_WRquCHb4YHEfunMhfJv8","video":null,"channel":null,"channelUrl":null,"author":"wolframhempel","authorUrl":"https://news.ycombinator.com/user?id=wolframhempel","authorImage":null,"authorSlug":null,"score":160,"views":null,"sharedCount":null,"likeCount":null,"sharedContent":null,"parent":{"__typename":"HnJson","localize":[{"title":"我不会投资开源公司，尽管我经营着一家公司","locale":"zh"},{"title":"我不會投資開源公司，儘管我經營着一家公司","locale":"zh-Hant"}]}},{"__typename":"SocialMediaPost","id":"HnPost-25906792","excerpt":"","slug":"/hn/25906792","title":"App suspended from Google Play for listing supported subtitle formats","date":"January 25, 2021","dateISO":"2021-01-25T19:33:01.218Z","datetime":"2021-01-25 19:33","tags":["story","Hacker News"],"image":null,"imageAlt":null,"provider":"Hacker News","thirdPartyId":"25906792","url":"https://news.ycombinator.com/item?id=25906792","originalUrl":"https://github.com/moneytoo/Player/issues/37","imageRemote":"https://repository-images.githubusercontent.com/311451920/4a876400-4dad-11eb-91ac-0169ba996c1e","video":null,"channel":null,"channelUrl":null,"author":"moneytoo","authorUrl":"https://news.ycombinator.com/user?id=moneytoo","authorImage":null,"authorSlug":null,"score":215,"views":null,"sharedCount":null,"likeCount":null,"sharedContent":null,"parent":{"__typename":"HnJson","localize":[{"title":"暂停在Google Play上列出支持的字幕格式的应用程序。","locale":"zh"},{"title":"暫停在Google Play上列出支持的字幕格式的應用程序。","locale":"zh-Hant"}]}},{"__typename":"SocialMediaPost","id":"HnPost-25903113","excerpt":"","slug":"/hn/25903113","title":"Europe’s telcos want ‘open’ 5G networks","date":"January 25, 2021","dateISO":"2021-01-25T18:35:04.391Z","datetime":"2021-01-25 18:35","tags":["story","Hacker News"],"image":null,"imageAlt":null,"provider":"Hacker News","thirdPartyId":"25903113","url":"https://news.ycombinator.com/item?id=25903113","originalUrl":"https://www.politico.eu/article/oran-reflow-huawei-europe-telecoms-5g/","imageRemote":"https://www.politico.eu/wp-content/uploads/2021/01/20/iStock-805119394-1200x628.jpg","video":null,"channel":null,"channelUrl":null,"author":"DyslexicAtheist","authorUrl":"https://news.ycombinator.com/user?id=DyslexicAtheist","authorImage":null,"authorSlug":null,"score":182,"views":null,"sharedCount":null,"likeCount":null,"sharedContent":null,"parent":{"__typename":"HnJson","localize":[{"title":"欧洲电信公司希望 \"开放 \"5G网络","locale":"zh"},{"title":"歐洲電信公司希望 \"開放 \"5G網絡","locale":"zh-Hant"}]}},{"__typename":"SocialMediaPost","id":"HnPost-25903576","excerpt":"","slug":"/hn/25903576","title":"The high price of mistrust","date":"January 25, 2021","dateISO":"2021-01-25T18:35:04.391Z","datetime":"2021-01-25 18:35","tags":["story","Hacker News"],"image":null,"imageAlt":null,"provider":"Hacker News","thirdPartyId":"25903576","url":"https://news.ycombinator.com/item?id=25903576","originalUrl":"https://fs.blog/2021/01/mistrust/","imageRemote":"https://149366099.v2.pressablecdn.com/wp-content/uploads/2021/01/The-High-Price-of-Mistrust.png","video":null,"channel":null,"channelUrl":null,"author":"galfarragem","authorUrl":"https://news.ycombinator.com/user?id=galfarragem","authorImage":null,"authorSlug":null,"score":176,"views":null,"sharedCount":null,"likeCount":null,"sharedContent":null,"parent":{"__typename":"HnJson","localize":[{"title":"不信任的高昂代价","locale":"zh"},{"title":"不信任的高昂代價","locale":"zh-Hant"}]}},{"__typename":"SocialMediaPost","id":"HnPost-25903647","excerpt":"","slug":"/hn/25903647","title":"Firefox Relay","date":"January 25, 2021","dateISO":"2021-01-25T18:35:04.391Z","datetime":"2021-01-25 18:35","tags":["story","Hacker News"],"image":null,"imageAlt":null,"provider":"Hacker News","thirdPartyId":"25903647","url":"https://news.ycombinator.com/item?id=25903647","originalUrl":"https://relay.firefox.com/?ref=link","imageRemote":"https://relay.firefox.com/static/images/mozilla.svg","video":null,"channel":null,"channelUrl":null,"author":"charlieirish","authorUrl":"https://news.ycombinator.com/user?id=charlieirish","authorImage":null,"authorSlug":null,"score":246,"views":null,"sharedCount":null,"likeCount":null,"sharedContent":null,"parent":{"__typename":"HnJson","localize":[{"title":"火狐中继","locale":"zh"},{"title":"火狐中繼","locale":"zh-Hant"}]}},{"__typename":"SocialMediaPost","id":"HnPost-25904235","excerpt":"","slug":"/hn/25904235","title":"Discover the best developer blogs on any tech stack","date":"January 25, 2021","dateISO":"2021-01-25T18:35:04.391Z","datetime":"2021-01-25 18:35","tags":["story","Hacker News"],"image":null,"imageAlt":null,"provider":"Hacker News","thirdPartyId":"25904235","url":"https://news.ycombinator.com/item?id=25904235","originalUrl":"https://bloggingfordevs.com/trends/","imageRemote":"https://bloggingfordevs.com/images/tech-blog-rankings-preview.png","video":null,"channel":null,"channelUrl":null,"author":"mlent","authorUrl":"https://news.ycombinator.com/user?id=mlent","authorImage":null,"authorSlug":null,"score":202,"views":null,"sharedCount":null,"likeCount":null,"sharedContent":null,"parent":{"__typename":"HnJson","localize":[{"title":"发现任何技术栈的最佳开发者博客","locale":"zh"},{"title":"發現任何技術棧的最佳開發者博客","locale":"zh-Hant"}]}},{"__typename":"SocialMediaPost","id":"HnPost-25903259","excerpt":"","slug":"/hn/25903259","title":"Upvote to encourage more people to visit New Links on Hacker News","date":"January 25, 2021","dateISO":"2021-01-25T14:57:49.233Z","datetime":"2021-01-25 14:57","tags":["story","Hacker News"],"image":null,"imageAlt":null,"provider":"Hacker News","thirdPartyId":"25903259","url":"https://news.ycombinator.com/item?id=25903259","originalUrl":"https://news.ycombinator.com/newest","imageRemote":"https://news.ycombinator.com/y18.gif","video":null,"channel":null,"channelUrl":null,"author":"crazypython","authorUrl":"https://news.ycombinator.com/user?id=crazypython","authorImage":null,"authorSlug":null,"score":242,"views":null,"sharedCount":null,"likeCount":null,"sharedContent":null,"parent":{"__typename":"HnJson","localize":[{"title":"上票鼓励更多的人访问Hacker News上的新链接。","locale":"zh"},{"title":"上票鼓勵更多的人訪問Hacker News上的新鏈接。","locale":"zh-Hant"}]}},{"__typename":"SocialMediaPost","id":"HnPost-25891435","excerpt":"","slug":"/hn/25891435","title":"Incomplete List of Mistakes in the Design of CSS","date":"January 25, 2021","dateISO":"2021-01-25T14:12:39.245Z","datetime":"2021-01-25 14:12","tags":["story","Hacker News"],"image":null,"imageAlt":null,"provider":"Hacker News","thirdPartyId":"25891435","url":"https://news.ycombinator.com/item?id=25891435","originalUrl":"https://wiki.csswg.org/ideas/mistakes","imageRemote":"https://wiki.csswg.org/lib/tpl/csswg/images/button-rss.png","video":null,"channel":null,"channelUrl":null,"author":"Tomte","authorUrl":"https://news.ycombinator.com/user?id=Tomte","authorImage":null,"authorSlug":null,"score":176,"views":null,"sharedCount":null,"likeCount":null,"sharedContent":null,"parent":{"__typename":"HnJson","localize":[{"title":"CSS设计中不完全的错误清单","locale":"zh"},{"title":"CSS設計中不完全的錯誤清單","locale":"zh-Hant"}]}},{"__typename":"SocialMediaPost","id":"HnPost-25891461","excerpt":"","slug":"/hn/25891461","title":"ffscreencast – a screencast CLI-tool with video overlay and multimonitor support","date":"January 25, 2021","dateISO":"2021-01-25T14:12:39.245Z","datetime":"2021-01-25 14:12","tags":["story","Hacker News"],"image":null,"imageAlt":null,"provider":"Hacker News","thirdPartyId":"25891461","url":"https://news.ycombinator.com/item?id=25891461","originalUrl":"https://github.com/cytopia/ffscreencast","imageRemote":"https://avatars.githubusercontent.com/u/12533999?s=400&v=4","video":null,"channel":null,"channelUrl":null,"author":"app4soft","authorUrl":"https://news.ycombinator.com/user?id=app4soft","authorImage":null,"authorSlug":null,"score":181,"views":null,"sharedCount":null,"likeCount":null,"sharedContent":null,"parent":{"__typename":"HnJson","localize":[{"title":"ffscreencast - 一个带有视频覆盖和多显示器支持的屏幕广播CLI工具。","locale":"zh"},{"title":"ffscreencast - 一個帶有視頻覆蓋和多顯示器支持的屏幕廣播CLI工具。","locale":"zh-Hant"}]}},{"__typename":"SocialMediaPost","id":"HnPost-25892874","excerpt":"","slug":"/hn/25892874","title":"Czech trainers teach dogs to sniff out Covid: 95-percent success rate","date":"January 25, 2021","dateISO":"2021-01-25T14:12:39.245Z","datetime":"2021-01-25 14:12","tags":["story","Hacker News"],"image":null,"imageAlt":null,"provider":"Hacker News","thirdPartyId":"25892874","url":"https://news.ycombinator.com/item?id=25892874","originalUrl":"https://www.france24.com/en/live-news/20210124-czech-trainers-teach-dogs-to-sniff-out-covid","imageRemote":"https://s.france24.com/media/display/5183aa02-5dfc-11eb-b903-005056bff430/w:1280/p:16x9/0be11f45be5c6393b383cfa86c00d6996919d462.jpg","video":null,"channel":null,"channelUrl":null,"author":"respinal","authorUrl":"https://news.ycombinator.com/user?id=respinal","authorImage":null,"authorSlug":null,"score":161,"views":null,"sharedCount":null,"likeCount":null,"sharedContent":null,"parent":{"__typename":"HnJson","localize":[{"title":"捷克训导员教狗嗅出科维德：成功率95%。","locale":"zh"},{"title":"捷克訓導員教狗嗅出科維德：成功率95%。","locale":"zh-Hant"}]}},{"__typename":"SocialMediaPost","id":"HnPost-25892889","excerpt":"","slug":"/hn/25892889","title":"Show HN: Sokyokuban, a puzzle game in a non-Euclidian world","date":"January 25, 2021","dateISO":"2021-01-25T14:12:39.245Z","datetime":"2021-01-25 14:12","tags":["story","Show HN","Hacker News"],"image":null,"imageAlt":null,"provider":"Hacker News","thirdPartyId":"25892889","url":"https://news.ycombinator.com/item?id=25892889","originalUrl":"https://sokyokuban.com/","imageRemote":"https://sokyokuban.com/sculpture.38fd0393.png","video":null,"channel":"Show HN","channelUrl":"https://news.ycombinator.com/show","author":"jaspervdj","authorUrl":"https://news.ycombinator.com/user?id=jaspervdj","authorImage":null,"authorSlug":null,"score":167,"views":null,"sharedCount":null,"likeCount":null,"sharedContent":null,"parent":{"__typename":"HnJson","localize":[{"title":"展示HN：非欧几里得世界里的解谜游戏Sokyokuban。","locale":"zh"},{"title":"展示HN：非歐幾里得世界裏的解謎遊戲Sokyokuban。","locale":"zh-Hant"}]}},{"__typename":"SocialMediaPost","id":"HnPost-25893626","excerpt":"","slug":"/hn/25893626","title":"Delta Chat – decentralized chat via email","date":"January 25, 2021","dateISO":"2021-01-25T14:12:39.245Z","datetime":"2021-01-25 14:12","tags":["story","Hacker News"],"image":null,"imageAlt":null,"provider":"Hacker News","thirdPartyId":"25893626","url":"https://news.ycombinator.com/item?id=25893626","originalUrl":"https://delta.chat/en/","imageRemote":"https://delta.chat/assets/home/intro1.png","video":null,"channel":null,"channelUrl":null,"author":"buster","authorUrl":"https://news.ycombinator.com/user?id=buster","authorImage":null,"authorSlug":null,"score":202,"views":null,"sharedCount":null,"likeCount":null,"sharedContent":null,"parent":{"__typename":"HnJson","localize":[{"title":"Delta Chat - 通过电子邮件进行分散式聊天","locale":"zh"},{"title":"Delta Chat - 通過電子郵件進行分散式聊天","locale":"zh-Hant"}]}},{"__typename":"SocialMediaPost","id":"HnPost-25893832","excerpt":"","slug":"/hn/25893832","title":"Ghost cities and abandoned areas with a declining population","date":"January 25, 2021","dateISO":"2021-01-25T14:12:39.245Z","datetime":"2021-01-25 14:12","tags":["story","Hacker News"],"image":null,"imageAlt":null,"provider":"Hacker News","thirdPartyId":"25893832","url":"https://news.ycombinator.com/item?id=25893832","originalUrl":"https://www.theguardian.com/world/2021/jan/24/as-birth-rates-fall-animals-prowl-in-our-abandoned-ghost-villages","imageRemote":"https://i.guim.co.uk/img/media/d3d01da9b2530b9ef72486ce852ff10d303d4cd1/0_420_4500_2702/master/4500.jpg?width=1200&height=630&quality=85&auto=format&fit=crop&overlay-align=bottom%2Cleft&overlay-width=100p&overlay-base64=L2ltZy9zdGF0aWMvb3ZlcmxheXMvdG8tZGVmYXVsdC5wbmc&enable=upscale&s=c2810dd5c22cb42dc7928e6b04f053b2","video":null,"channel":null,"channelUrl":null,"author":"haakonhr","authorUrl":"https://news.ycombinator.com/user?id=haakonhr","authorImage":null,"authorSlug":null,"score":172,"views":null,"sharedCount":null,"likeCount":null,"sharedContent":null,"parent":{"__typename":"HnJson","localize":[{"title":"幽灵城市和人口减少的废弃地区。","locale":"zh"},{"title":"幽靈城市和人口減少的廢棄地區。","locale":"zh-Hant"}]}},{"__typename":"SocialMediaPost","id":"HnPost-25894045","excerpt":"","slug":"/hn/25894045","title":"Make Boring Plans","date":"January 25, 2021","dateISO":"2021-01-25T14:12:39.245Z","datetime":"2021-01-25 14:12","tags":["story","Hacker News"],"image":null,"imageAlt":null,"provider":"Hacker News","thirdPartyId":"25894045","url":"https://news.ycombinator.com/item?id=25894045","originalUrl":"https://skamille.medium.com/make-boring-plans-9438ce5cb053","imageRemote":"https://miro.medium.com/proxy/1*3sela1OADrJr7dJk_CXaEQ.png","video":null,"channel":null,"channelUrl":null,"author":"kelseyhightower","authorUrl":"https://news.ycombinator.com/user?id=kelseyhightower","authorImage":null,"authorSlug":null,"score":172,"views":null,"sharedCount":null,"likeCount":null,"sharedContent":null,"parent":{"__typename":"HnJson","localize":[{"title":"制定无聊的计划","locale":"zh"},{"title":"制定無聊的計劃","locale":"zh-Hant"}]}},{"__typename":"SocialMediaPost","id":"HnPost-25894233","excerpt":"","slug":"/hn/25894233","title":"Racket Compiler and Runtime Status","date":"January 25, 2021","dateISO":"2021-01-25T14:12:39.245Z","datetime":"2021-01-25 14:12","tags":["story","Hacker News"],"image":null,"imageAlt":null,"provider":"Hacker News","thirdPartyId":"25894233","url":"https://news.ycombinator.com/item?id=25894233","originalUrl":"https://blog.racket-lang.org/2021/01/racket-status.html","imageRemote":"https://blog.racket-lang.org/img/posts/2021-01-24-racket-status/pict.svg","video":null,"channel":null,"channelUrl":null,"author":"gleb_the_human","authorUrl":"https://news.ycombinator.com/user?id=gleb_the_human","authorImage":null,"authorSlug":null,"score":176,"views":null,"sharedCount":null,"likeCount":null,"sharedContent":null,"parent":{"__typename":"HnJson","localize":[{"title":"Racket编译器和运行时状态","locale":"zh"},{"title":"Racket編譯器和運行時狀態","locale":"zh-Hant"}]}},{"__typename":"SocialMediaPost","id":"HnPost-25901384","excerpt":"","slug":"/hn/25901384","title":"We Crush, Poison, and Destroy Insects at Our Own Peril","date":"January 25, 2021","dateISO":"2021-01-25T14:12:39.245Z","datetime":"2021-01-25 14:12","tags":["story","Hacker News"],"image":null,"imageAlt":null,"provider":"Hacker News","thirdPartyId":"25901384","url":"https://news.ycombinator.com/item?id=25901384","originalUrl":"https://nautil.us/issue/95/escape/we-crush-poison-and-destroy-insects-at-our-own-peril","imageRemote":"http://static.nautil.us/18109_0dacff7f88d2efe2d6190327ca13d283.png","video":null,"channel":null,"channelUrl":null,"author":"CapitalistCartr","authorUrl":"https://news.ycombinator.com/user?id=CapitalistCartr","authorImage":null,"authorSlug":null,"score":166,"views":null,"sharedCount":null,"likeCount":null,"sharedContent":null,"parent":{"__typename":"HnJson","localize":[{"title":"我们在自找麻烦的情况下粉碎、毒害和消灭昆虫。","locale":"zh"},{"title":"我們在自找麻煩的情況下粉碎、毒害和消滅昆蟲。","locale":"zh-Hant"}]}}]}},"pageContext":{"basePath":"/","pageType":"tag","tag":"story","tagsFilter":{"id":{"glob":"!*Post-1"}},"filter":{"id":{"glob":"!*Post-1"},"tags":{"eq":"story"}},"limit":25,"skip":1375,"total":2599,"totalPages":104,"currentPage":56,"maxWidth":1024,"maxHeight":512,"locale":"zh","hrefLang":"zh-Hans","originalPath":"/tags/story/page/56","dateFormat":"YYYY-MM-DD"}},"staticQueryHashes":["1239077767","2506312863","2744905544","3025052997","3493603132","3493603132","3513215887","386998304"]}