{"componentChunkName":"component---gatsby-theme-buzzing-src-gatsby-theme-timeline-templates-posts-query-js","path":"/page/79","result":{"data":{"site":{"siteMetadata":{"title":"Reddit 热门","description":"用中文浏览Reddit热门内容","social":[{"name":"Twitter","url":"https://twitter.com/gatsbyjs","external":null,"prefetch":null},{"name":"GitHub","url":"https://github.com/gatsbyjs","external":null,"prefetch":null}],"menuLinks":[],"localize":[{"locale":"en","title":"Buzzing on Reddit","description":"See what's buzzing on Reddit in your native language","social":[{"name":"Reddit","url":"https://www.reddit.com/","external":true,"prefetch":null}],"menuLinks":[{"name":"Weekly Selection","url":"/issues","external":null,"prefetch":null},{"name":"RSS","url":"/rss.xml","external":null,"prefetch":false}]},{"locale":"zh-Hant","title":"Reddit 熱門","description":"用中文瀏覽Reddit熱門內容","social":null,"menuLinks":null}]}},"tagsGroup":{"group":[{"fieldValue":"ASK HN","totalCount":23},{"fieldValue":"Bitcoin","totalCount":3},{"fieldValue":"Hacker News","totalCount":974},{"fieldValue":"Poll","totalCount":1},{"fieldValue":"Show HN","totalCount":35},{"fieldValue":"investing","totalCount":209},{"fieldValue":"poll","totalCount":1},{"fieldValue":"reddit","totalCount":891},{"fieldValue":"science","totalCount":1},{"fieldValue":"stocks","totalCount":370},{"fieldValue":"story","totalCount":973},{"fieldValue":"tweet","totalCount":285},{"fieldValue":"wallstreetbets","totalCount":312}]},"allBlogPost":{"nodes":[{"__typename":"SocialMediaPost","id":"HnPost-25454860","excerpt":"","slug":"/hn/25454860","title":"A New Satellite Can Peer Inside Buildings, Day or Night","date":"December 17, 2020","dateISO":"2020-12-17T15:27:08.522Z","datetime":"2020-12-17 15:27","tags":["story","Hacker News"],"image":null,"imageAlt":null,"provider":"Hacker News","thirdPartyId":"25454860","url":"https://news.ycombinator.com/item?id=25454860","originalUrl":"https://futurism.com/new-satellite-buildings-day-night","imageRemote":"https://wp-assets.futurism.com/2020/12/new-satellite-buildings-day-night-1-1200x675.jpg","video":null,"channel":null,"channelUrl":null,"author":"sbuttgereit","authorUrl":"https://news.ycombinator.com/user?id=sbuttgereit","authorImage":null,"authorSlug":null,"score":194,"views":null,"sharedCount":null,"likeCount":null,"sharedContent":null,"parent":{"__typename":"HnJson","localize":[{"title":"一颗新的卫星可以白天或黑夜在建筑物内进行对等","locale":"zh"},{"title":"一顆新的衛星可以白天或黑夜在建築物內進行對等","locale":"zh-Hant"}]}},{"__typename":"SocialMediaPost","id":"HnPost-25455624","excerpt":"","slug":"/hn/25455624","title":"SEC Charges Robinhood $65M for Misleading Customers About Revenue Sources","date":"December 17, 2020","dateISO":"2020-12-17T15:27:08.522Z","datetime":"2020-12-17 15:27","tags":["story","Hacker News"],"image":null,"imageAlt":null,"provider":"Hacker News","thirdPartyId":"25455624","url":"https://news.ycombinator.com/item?id=25455624","originalUrl":"https://www.sec.gov/news/press-release/2020-321#:~:text=Press%20Release-,SEC%20Charges%20Robinhood%20Financial%20With%20Misleading%20Customers%20About%20Revenue%20Sources,Satisfy%20Duty%20of%20Best%20Execution&text=The%20order%20finds%20that%20Robinhood,from%20not%20paying%20a%20commission.","imageRemote":"https://www.sec.gov/files/sec-logo.png","video":null,"channel":null,"channelUrl":null,"author":"ericliuche","authorUrl":"https://news.ycombinator.com/user?id=ericliuche","authorImage":null,"authorSlug":null,"score":457,"views":null,"sharedCount":null,"likeCount":null,"sharedContent":null,"parent":{"__typename":"HnJson","localize":[{"title":"SEC指控罗宾汉在收入来源方面误导客户6500万美元","locale":"zh"},{"title":"SEC指控羅賓漢在收入來源方面誤導客戶6500萬美元","locale":"zh-Hant"}]}},{"__typename":"SocialMediaPost","id":"HnPost-25454387","excerpt":"","slug":"/hn/25454387","title":"GWSL: Run graphical Linux apps in WSL","date":"December 17, 2020","dateISO":"2020-12-17T14:42:08.972Z","datetime":"2020-12-17 14:42","tags":["story","Hacker News"],"image":null,"imageAlt":null,"provider":"Hacker News","thirdPartyId":"25454387","url":"https://news.ycombinator.com/item?id=25454387","originalUrl":"https://github.com/Opticos/GWSL-Source","imageRemote":"https://repository-images.githubusercontent.com/288293986/f8089280-0586-11eb-801b-39748141a3f2","video":null,"channel":null,"channelUrl":null,"author":"magnio","authorUrl":"https://news.ycombinator.com/user?id=magnio","authorImage":null,"authorSlug":null,"score":223,"views":null,"sharedCount":null,"likeCount":null,"sharedContent":null,"parent":{"__typename":"HnJson","localize":[{"title":"GWSL：在WSL中运行图形化Linux应用程序","locale":"zh"},{"title":"GWSL：在WSL中運行圖形化Linux應用程序","locale":"zh-Hant"}]}},{"__typename":"SocialMediaPost","id":"HnPost-25454207","excerpt":"","slug":"/hn/25454207","title":"51% of 4M Docker images have critical vulnerabilities","date":"December 17, 2020","dateISO":"2020-12-17T14:13:34.468Z","datetime":"2020-12-17 14:13","tags":["story","Hacker News"],"image":null,"imageAlt":null,"provider":"Hacker News","thirdPartyId":"25454207","url":"https://news.ycombinator.com/item?id=25454207","originalUrl":"https://thechief.io/c/news/51-4-million-docker-images-have-critical-vulnerabilities/","imageRemote":"https://static.thechief.io/prod/images/A_dynamic_sandbox_system_was_used_by_Prevasio_t.original.png","video":null,"channel":null,"channelUrl":null,"author":"AnnieNma","authorUrl":"https://news.ycombinator.com/user?id=AnnieNma","authorImage":null,"authorSlug":null,"score":333,"views":null,"sharedCount":null,"likeCount":null,"sharedContent":null,"parent":{"__typename":"HnJson","localize":[{"title":"400万个Docker映像中有51%存在严重漏洞","locale":"zh"},{"title":"400萬個Docker映像中有51%存在嚴重漏洞","locale":"zh-Hant"}]}},{"__typename":"SocialMediaPost","id":"HnPost-25450782","excerpt":"","slug":"/hn/25450782","title":"A Book about Aircraft Scale Drawings Creating with Inkscape and Gimp","date":"December 17, 2020","dateISO":"2020-12-17T13:56:50.706Z","datetime":"2020-12-17 13:56","tags":["story","Hacker News"],"image":null,"imageAlt":null,"provider":"Hacker News","thirdPartyId":"25450782","url":"https://news.ycombinator.com/item?id=25450782","originalUrl":"https://airplanes3d.wordpress.com/2020/12/08/a-book-about-aircraft-scale-drawings/","imageRemote":"https://airplanes3d.files.wordpress.com/2020/12/0114-01.jpg","video":null,"channel":null,"channelUrl":null,"author":"app4soft","authorUrl":"https://news.ycombinator.com/user?id=app4soft","authorImage":null,"authorSlug":null,"score":126,"views":null,"sharedCount":null,"likeCount":null,"sharedContent":null,"parent":{"__typename":"HnJson","localize":[{"title":"使用Inkscape和Gimp创建飞机比例图的书籍","locale":"zh"},{"title":"使用Inkscape和Gimp創建飛機比例圖的書籍","locale":"zh-Hant"}]}},{"__typename":"SocialMediaPost","id":"RedditPost-keok5w","excerpt":"I own some apple but have been struggling with the 2T$ value. I’ve been watching\nthe old Berkshire Hathaway annual meetings and it’s made me wonder “why does\nWarren continue hold so much Apple even though it’s the highest valued company\nin the world?” I get that it’s a great brand with a wide moat…","slug":"/reddit/r/investing/comments/keok5w/why_does_warren_continue_to_hold_so_much_apple/","title":"Why does Warren continue to hold so much Apple?","date":"December 17, 2020","dateISO":"2020-12-17T12:40:48.000Z","datetime":"2020-12-17 12:40","tags":["investing","reddit"],"image":null,"imageAlt":null,"provider":"Reddit","thirdPartyId":"keok5w","url":"https://www.reddit.com/r/investing/comments/keok5w/why_does_warren_continue_to_hold_so_much_apple/","originalUrl":"https://www.reddit.com/r/investing/comments/keok5w/why_does_warren_continue_to_hold_so_much_apple/","imageRemote":null,"video":null,"channel":"investing","channelUrl":"https://www.reddit.com/r/investing","author":"NoahBrown1999","authorUrl":"https://www.reddit.com/user/NoahBrown1999","authorImage":null,"authorSlug":"NoahBrown1999","score":87,"views":null,"sharedCount":null,"likeCount":null,"sharedContent":null,"parent":{"__typename":"RedditJson","localize":[{"title":"为什么沃伦继续持有这么多苹果？","the_new_excerpt":"我有一些苹果，但一直在为2元新台币的价值而苦苦挣扎。我一直在看\n伯克希尔·哈撒韦的老年会让我不禁纳闷“为什么\n沃伦继续持有如此多的苹果，尽管它是估值最高的公司\n在这个世界上？“我知道这是个很棒的品牌，有宽阔的护城河…","locale":"zh"},{"title":"爲什麼沃倫繼續持有這麼多蘋果？","the_new_excerpt":"我有一些蘋果，但一直在爲2元新臺幣的價值而苦苦掙扎。我一直在看\n伯克希爾·哈撒韋的老年會讓我不禁納悶“爲什麼\n沃倫繼續持有如此多的蘋果，儘管它是估值最高的公司\n在這個世界上？“我知道這是個很棒的品牌，有寬闊的護城河…","locale":"zh-Hant"}]}},{"__typename":"SocialMediaPost","id":"HnPost-25439490","excerpt":"","slug":"/hn/25439490","title":"When will virtual reality take off? The $100 bet","date":"December 17, 2020","dateISO":"2020-12-17T12:17:48.070Z","datetime":"2020-12-17 12:17","tags":["story","Hacker News"],"image":null,"imageAlt":null,"provider":"Hacker News","thirdPartyId":"25439490","url":"https://news.ycombinator.com/item?id=25439490","originalUrl":"https://glinden.blogspot.com/2020/12/when-will-virtual-reality-take-off-100.html","imageRemote":"https://sites.google.com/site/glinden/Home/IMG_6330.JPG","video":null,"channel":null,"channelUrl":null,"author":"nkurz","authorUrl":"https://news.ycombinator.com/user?id=nkurz","authorImage":null,"authorSlug":null,"score":175,"views":null,"sharedCount":null,"likeCount":null,"sharedContent":null,"parent":{"__typename":"HnJson","localize":[{"title":"虚拟现实何时起飞？100美元的赌注","locale":"zh"},{"title":"虛擬現實何時起飛？100美元的賭注","locale":"zh-Hant"}]}},{"__typename":"SocialMediaPost","id":"HnPost-25439834","excerpt":"","slug":"/hn/25439834","title":"Google Analytics Opt Out","date":"December 17, 2020","dateISO":"2020-12-17T12:17:48.070Z","datetime":"2020-12-17 12:17","tags":["story","Hacker News"],"image":null,"imageAlt":null,"provider":"Hacker News","thirdPartyId":"25439834","url":"https://news.ycombinator.com/item?id=25439834","originalUrl":"https://tools.google.com/dlpage/gaoptout","imageRemote":"https://www.google.com/images/branding/googlelogo/2x/googlelogo_color_150x54dp.png","video":null,"channel":null,"channelUrl":null,"author":"sturza","authorUrl":"https://news.ycombinator.com/user?id=sturza","authorImage":null,"authorSlug":null,"score":206,"views":null,"sharedCount":null,"likeCount":null,"sharedContent":null,"parent":{"__typename":"HnJson","localize":[{"title":"谷歌分析选择退出","locale":"zh"},{"title":"谷歌分析選擇退出","locale":"zh-Hant"}]}},{"__typename":"SocialMediaPost","id":"HnPost-25439885","excerpt":"","slug":"/hn/25439885","title":"A tiny island nation just launched major effort to win back control of its ccTLD","date":"December 17, 2020","dateISO":"2020-12-17T12:17:48.070Z","datetime":"2020-12-17 12:17","tags":["story","Hacker News"],"image":null,"imageAlt":null,"provider":"Hacker News","thirdPartyId":"25439885","url":"https://news.ycombinator.com/item?id=25439885","originalUrl":"https://www.businessinsider.com.au/niue-nu-internet-domain-reclaim-2020-12","imageRemote":"https://edge.alluremedia.com.au/uploads/businessinsider/2020/12/GettyImages-585993988.jpg","video":null,"channel":null,"channelUrl":null,"author":"markdown","authorUrl":"https://news.ycombinator.com/user?id=markdown","authorImage":null,"authorSlug":null,"score":141,"views":null,"sharedCount":null,"likeCount":null,"sharedContent":null,"parent":{"__typename":"HnJson","localize":[{"title":"一个小小的岛国刚刚发起了重大努力，以夺回对其cctld的控制权。","locale":"zh"},{"title":"一個小小的島國剛剛發起了重大努力，以奪回對其cctld的控制權。","locale":"zh-Hant"}]}},{"__typename":"SocialMediaPost","id":"HnPost-25440078","excerpt":"","slug":"/hn/25440078","title":"Air-FI: Generating Covert Wi-Fi Signals from Air-Gapped Computers","date":"December 17, 2020","dateISO":"2020-12-17T12:17:48.070Z","datetime":"2020-12-17 12:17","tags":["story","Hacker News"],"image":null,"imageAlt":null,"provider":"Hacker News","thirdPartyId":"25440078","url":"https://news.ycombinator.com/item?id=25440078","originalUrl":"https://arxiv.org/abs/2012.06884","imageRemote":"https://static.arxiv.org/static/browse/0.3.2.6/images/icons/social/bibsonomy.png","video":null,"channel":null,"channelUrl":null,"author":"anigbrowl","authorUrl":"https://news.ycombinator.com/user?id=anigbrowl","authorImage":null,"authorSlug":null,"score":294,"views":null,"sharedCount":null,"likeCount":null,"sharedContent":null,"parent":{"__typename":"HnJson","localize":[{"title":"Air-Fi：从有气隙的计算机生成隐蔽Wi-Fi信号","locale":"zh"},{"title":"Air-Fi：從有氣隙的計算機生成隱蔽Wi-Fi信號","locale":"zh-Hant"}]}},{"__typename":"SocialMediaPost","id":"HnPost-25440322","excerpt":"","slug":"/hn/25440322","title":"Elderly patients 23% more likely to die if surgery is on the surgeon’s birthday","date":"December 17, 2020","dateISO":"2020-12-17T12:17:48.070Z","datetime":"2020-12-17 12:17","tags":["story","Hacker News"],"image":null,"imageAlt":null,"provider":"Hacker News","thirdPartyId":"25440322","url":"https://news.ycombinator.com/item?id=25440322","originalUrl":"https://www.psychnewsdaily.com/elderly-emergency-surgery-patients-23-more-likely-to-die-if-operation-takes-place-on-surgeons-birthday/","imageRemote":"https://www.psychnewsdaily.com/wp-content/uploads/2020/12/emergency-surgery-AND-ER-doctors-birthday.jpg","video":null,"channel":null,"channelUrl":null,"author":"whx23","authorUrl":"https://news.ycombinator.com/user?id=whx23","authorImage":null,"authorSlug":null,"score":371,"views":null,"sharedCount":null,"likeCount":null,"sharedContent":null,"parent":{"__typename":"HnJson","localize":[{"title":"如果手术是在外科医生生日当天进行的，老年患者死亡的可能性要高出23%","locale":"zh"},{"title":"如果手術是在外科醫生生日當天進行的，老年患者死亡的可能性要高出23%","locale":"zh-Hant"}]}},{"__typename":"SocialMediaPost","id":"HnPost-25440540","excerpt":"","slug":"/hn/25440540","title":"I3: Improved Tiling Window Manager","date":"December 17, 2020","dateISO":"2020-12-17T12:17:48.070Z","datetime":"2020-12-17 12:17","tags":["story","Hacker News"],"image":null,"imageAlt":null,"provider":"Hacker News","thirdPartyId":"25440540","url":"https://news.ycombinator.com/item?id=25440540","originalUrl":"https://i3wm.org/","imageRemote":"https://i3wm.org/img/logo.svg","video":null,"channel":null,"channelUrl":null,"author":"Gedxx","authorUrl":"https://news.ycombinator.com/user?id=Gedxx","authorImage":null,"authorSlug":null,"score":468,"views":null,"sharedCount":null,"likeCount":null,"sharedContent":null,"parent":{"__typename":"HnJson","localize":[{"title":"I3：改进的平铺窗口管理器","locale":"zh"},{"title":"I3：改進的平鋪窗口管理器","locale":"zh-Hant"}]}},{"__typename":"SocialMediaPost","id":"HnPost-25440787","excerpt":"","slug":"/hn/25440787","title":"A new release for GNU Octave","date":"December 17, 2020","dateISO":"2020-12-17T12:17:48.070Z","datetime":"2020-12-17 12:17","tags":["story","Hacker News"],"image":null,"imageAlt":null,"provider":"Hacker News","thirdPartyId":"25440787","url":"https://news.ycombinator.com/item?id=25440787","originalUrl":"https://lwn.net/SubscriberLink/840050/47a639d7753cc988/","imageRemote":"https://static.lwn.net/images/logo/barepenguin-70.png","video":null,"channel":null,"channelUrl":null,"author":"Tomte","authorUrl":"https://news.ycombinator.com/user?id=Tomte","authorImage":null,"authorSlug":null,"score":208,"views":null,"sharedCount":null,"likeCount":null,"sharedContent":null,"parent":{"__typename":"HnJson","localize":[{"title":"GNU Octave的新版本","locale":"zh"},{"title":"GNU Octave的新版本","locale":"zh-Hant"}]}},{"__typename":"SocialMediaPost","id":"HnPost-25441046","excerpt":"","slug":"/hn/25441046","title":"RoboScan: Lego+Raspberry Pi-powered analog film roll scanner","date":"December 17, 2020","dateISO":"2020-12-17T12:17:48.070Z","datetime":"2020-12-17 12:17","tags":["story","Hacker News"],"image":null,"imageAlt":null,"provider":"Hacker News","thirdPartyId":"25441046","url":"https://news.ycombinator.com/item?id=25441046","originalUrl":"https://github.com/bezineb5/RoboScan#roboscan","imageRemote":"https://avatars1.githubusercontent.com/u/1782448?s=400&v=4","video":null,"channel":null,"channelUrl":null,"author":"ingve","authorUrl":"https://news.ycombinator.com/user?id=ingve","authorImage":null,"authorSlug":null,"score":115,"views":null,"sharedCount":null,"likeCount":null,"sharedContent":null,"parent":{"__typename":"HnJson","localize":[{"title":"Roboscan：乐高+树莓Pi驱动的模拟胶片卷筒扫描仪","locale":"zh"},{"title":"Roboscan：樂高+樹莓Pi驅動的模擬膠片捲筒掃描儀","locale":"zh-Hant"}]}},{"__typename":"SocialMediaPost","id":"HnPost-25441213","excerpt":"","slug":"/hn/25441213","title":"bspwm: tiling window manager that represents windows as leaves of a binary tree","date":"December 17, 2020","dateISO":"2020-12-17T12:17:48.070Z","datetime":"2020-12-17 12:17","tags":["story","Hacker News"],"image":null,"imageAlt":null,"provider":"Hacker News","thirdPartyId":"25441213","url":"https://news.ycombinator.com/item?id=25441213","originalUrl":"https://github.com/baskerville/bspwm","imageRemote":"https://avatars2.githubusercontent.com/u/159419?s=400&v=4","video":null,"channel":null,"channelUrl":null,"author":"j-james","authorUrl":"https://news.ycombinator.com/user?id=j-james","authorImage":null,"authorSlug":null,"score":121,"views":null,"sharedCount":null,"likeCount":null,"sharedContent":null,"parent":{"__typename":"HnJson","localize":[{"title":"bspwm：平铺窗口管理器，将窗口表示为二叉树的叶子","locale":"zh"},{"title":"bspwm：平鋪窗口管理器，將窗口表示爲二叉樹的葉子","locale":"zh-Hant"}]}},{"__typename":"SocialMediaPost","id":"HnPost-25441592","excerpt":"","slug":"/hn/25441592","title":"Blob Opera","date":"December 17, 2020","dateISO":"2020-12-17T12:17:48.070Z","datetime":"2020-12-17 12:17","tags":["story","Hacker News"],"image":null,"imageAlt":null,"provider":"Hacker News","thirdPartyId":"25441592","url":"https://news.ycombinator.com/item?id=25441592","originalUrl":"https://artsandculture.google.com/experiment/AAHWrq360NcGbw","imageRemote":"https://lh3.googleusercontent.com/p23feUh1kc0fPF1lGWx8KHCjll1Zagy-CGZvGTH0gR8jdz4sCrubieqPiO0jI4oERSE","video":null,"channel":null,"channelUrl":null,"author":"BerislavLopac","authorUrl":"https://news.ycombinator.com/user?id=BerislavLopac","authorImage":null,"authorSlug":null,"score":456,"views":null,"sharedCount":null,"likeCount":null,"sharedContent":null,"parent":{"__typename":"HnJson","localize":[{"title":"斑点歌剧","locale":"zh"},{"title":"斑點歌劇","locale":"zh-Hant"}]}},{"__typename":"SocialMediaPost","id":"HnPost-25441664","excerpt":"","slug":"/hn/25441664","title":"Ask HN: I want to start learning Lisp. Where do I begin?","date":"December 17, 2020","dateISO":"2020-12-17T12:17:48.070Z","datetime":"2020-12-17 12:17","tags":["story","ASK HN","Hacker News"],"image":null,"imageAlt":null,"provider":"Hacker News","thirdPartyId":"25441664","url":"https://news.ycombinator.com/item?id=25441664","originalUrl":"https://news.ycombinator.com/item?id=25441664","imageRemote":null,"video":null,"channel":"ASK HN","channelUrl":"https://news.ycombinator.com/ask","author":"priyanshuraj","authorUrl":"https://news.ycombinator.com/user?id=priyanshuraj","authorImage":null,"authorSlug":null,"score":222,"views":null,"sharedCount":null,"likeCount":null,"sharedContent":null,"parent":{"__typename":"HnJson","localize":[{"title":"问HN：我想开始学习Lisp。我该从哪里开始呢？","locale":"zh"},{"title":"問HN：我想開始學習Lisp。我該從哪裏開始呢？","locale":"zh-Hant"}]}},{"__typename":"SocialMediaPost","id":"HnPost-25441842","excerpt":"","slug":"/hn/25441842","title":"Github: Token authentication requirements for Git operations","date":"December 17, 2020","dateISO":"2020-12-17T12:17:48.070Z","datetime":"2020-12-17 12:17","tags":["story","Hacker News"],"image":null,"imageAlt":null,"provider":"Hacker News","thirdPartyId":"25441842","url":"https://news.ycombinator.com/item?id=25441842","originalUrl":"https://github.blog/2020-12-15-token-authentication-requirements-for-git-operations/","imageRemote":"https://github.blog/wp-content/uploads/2019/09/security-1200-630.png?fit=1200%2C630","video":null,"channel":null,"channelUrl":null,"author":"politelemon","authorUrl":"https://news.ycombinator.com/user?id=politelemon","authorImage":null,"authorSlug":null,"score":112,"views":null,"sharedCount":null,"likeCount":null,"sharedContent":null,"parent":{"__typename":"HnJson","localize":[{"title":"GitHub：Git操作的令牌身份验证要求","locale":"zh"},{"title":"GitHub：Git操作的令牌身份驗證要求","locale":"zh-Hant"}]}},{"__typename":"SocialMediaPost","id":"HnPost-25441986","excerpt":"","slug":"/hn/25441986","title":"Facebook criticizes Apple’s iOS privacy changes with full-page newspaper ads","date":"December 17, 2020","dateISO":"2020-12-17T12:17:48.070Z","datetime":"2020-12-17 12:17","tags":["story","Hacker News"],"image":null,"imageAlt":null,"provider":"Hacker News","thirdPartyId":"25441986","url":"https://news.ycombinator.com/item?id=25441986","originalUrl":"https://www.theverge.com/2020/12/16/22178068/facebook-apple-newspaper-ads-ios-privacy-changes","imageRemote":"https://cdn.vox-cdn.com/thumbor/lfC_82Rz45C9Sp3HhLSuIRZjoPk=/0x142:1980x1179/fit-in/1200x630/cdn.vox-cdn.com/uploads/chorus_asset/file/22174380/facebooknewspaperad.jpg","video":null,"channel":null,"channelUrl":null,"author":"Tomte","authorUrl":"https://news.ycombinator.com/user?id=Tomte","authorImage":null,"authorSlug":null,"score":218,"views":null,"sharedCount":null,"likeCount":null,"sharedContent":null,"parent":{"__typename":"HnJson","localize":[{"title":"Facebook用整版报纸广告批评苹果iOS隐私变化","locale":"zh"},{"title":"Facebook用整版報紙廣告批評蘋果iOS隱私變化","locale":"zh-Hant"}]}},{"__typename":"SocialMediaPost","id":"HnPost-25442072","excerpt":"","slug":"/hn/25442072","title":"Vercel raise $40M Series B","date":"December 17, 2020","dateISO":"2020-12-17T12:17:48.070Z","datetime":"2020-12-17 12:17","tags":["story","Hacker News"],"image":null,"imageAlt":null,"provider":"Hacker News","thirdPartyId":"25442072","url":"https://news.ycombinator.com/item?id=25442072","originalUrl":"https://vercel.com/blog/series-b-40m-to-build-the-next-web","imageRemote":"https://images.ctfassets.net/e5382hct74si/36TYrdd8WXXj8lCjg7dPUL/55eba8cc4ef21ea93e461c92ca275756/twitter-card.png","video":null,"channel":null,"channelUrl":null,"author":"sdan","authorUrl":"https://news.ycombinator.com/user?id=sdan","authorImage":null,"authorSlug":null,"score":350,"views":null,"sharedCount":null,"likeCount":null,"sharedContent":null,"parent":{"__typename":"HnJson","localize":[{"title":"Vercel B系列融资4000万美元","locale":"zh"},{"title":"Vercel B系列融資4000萬美元","locale":"zh-Hant"}]}},{"__typename":"SocialMediaPost","id":"HnPost-25442097","excerpt":"","slug":"/hn/25442097","title":"Experiments on a $50 DIY air purifier that takes 30s to assemble","date":"December 17, 2020","dateISO":"2020-12-17T12:17:48.070Z","datetime":"2020-12-17 12:17","tags":["story","Hacker News"],"image":null,"imageAlt":null,"provider":"Hacker News","thirdPartyId":"25442097","url":"https://news.ycombinator.com/item?id=25442097","originalUrl":"https://dyno-might.github.io/2020/12/15/some-real-data-on-a-DIY-box-fan-air-purifier/","imageRemote":"https://dyno-might.github.io/img/purifier/smoke.jpg","video":null,"channel":null,"channelUrl":null,"author":"dyno-might","authorUrl":"https://news.ycombinator.com/user?id=dyno-might","authorImage":null,"authorSlug":null,"score":292,"views":null,"sharedCount":null,"likeCount":null,"sharedContent":null,"parent":{"__typename":"HnJson","localize":[{"title":"一台50美元的DIY空气净化器的实验，需要30秒才能组装完成","locale":"zh"},{"title":"一臺50美元的DIY空氣淨化器的實驗，需要30秒才能組裝完成","locale":"zh-Hant"}]}},{"__typename":"SocialMediaPost","id":"HnPost-25442451","excerpt":"","slug":"/hn/25442451","title":"Google Finance Finally Updated","date":"December 17, 2020","dateISO":"2020-12-17T12:17:48.070Z","datetime":"2020-12-17 12:17","tags":["story","Hacker News"],"image":null,"imageAlt":null,"provider":"Hacker News","thirdPartyId":"25442451","url":"https://news.ycombinator.com/item?id=25442451","originalUrl":"https://www.google.com/finance/quote/GOOG:NASDAQ","imageRemote":"https://ssl.gstatic.com/finance/ios/3x/home_60dp.png","video":null,"channel":null,"channelUrl":null,"author":"jbverschoor","authorUrl":"https://news.ycombinator.com/user?id=jbverschoor","authorImage":null,"authorSlug":null,"score":224,"views":null,"sharedCount":null,"likeCount":null,"sharedContent":null,"parent":{"__typename":"HnJson","localize":[{"title":"谷歌财经终于更新了","locale":"zh"},{"title":"谷歌財經終於更新了","locale":"zh-Hant"}]}},{"__typename":"SocialMediaPost","id":"HnPost-25442510","excerpt":"","slug":"/hn/25442510","title":"Tig – Text-mode interface for Git","date":"December 17, 2020","dateISO":"2020-12-17T12:17:48.070Z","datetime":"2020-12-17 12:17","tags":["story","Hacker News"],"image":null,"imageAlt":null,"provider":"Hacker News","thirdPartyId":"25442510","url":"https://news.ycombinator.com/item?id=25442510","originalUrl":"https://jonas.github.io/tig/","imageRemote":"https://secure.travis-ci.org/jonas/tig.svg?branch=master","video":null,"channel":null,"channelUrl":null,"author":"lemonspat","authorUrl":"https://news.ycombinator.com/user?id=lemonspat","authorImage":null,"authorSlug":null,"score":301,"views":null,"sharedCount":null,"likeCount":null,"sharedContent":null,"parent":{"__typename":"HnJson","localize":[{"title":"Git的TIG文本模式界面","locale":"zh"},{"title":"Git的TIG文本模式界面","locale":"zh-Hant"}]}},{"__typename":"SocialMediaPost","id":"HnPost-25442734","excerpt":"","slug":"/hn/25442734","title":"SolarWinds leaked FTP credentials through a public GitHub repo since 2018","date":"December 17, 2020","dateISO":"2020-12-17T12:17:48.070Z","datetime":"2020-12-17 12:17","tags":["story","Hacker News"],"image":null,"imageAlt":null,"provider":"Hacker News","thirdPartyId":"25442734","url":"https://news.ycombinator.com/item?id=25442734","originalUrl":"https://www.savebreach.com/solarwinds-exposed-ftp-credentials-back-in-2018-says-security-researcher-vinoth/","imageRemote":"https://savebreach.com/content/images/2020/12/ss_solar.png","video":null,"channel":null,"channelUrl":null,"author":"hackerpain","authorUrl":"https://news.ycombinator.com/user?id=hackerpain","authorImage":null,"authorSlug":null,"score":183,"views":null,"sharedCount":null,"likeCount":null,"sharedContent":null,"parent":{"__typename":"HnJson","localize":[{"title":"自2018年以来，SolarWinds通过公开的GitHub回购泄露了FTP凭据","locale":"zh"},{"title":"自2018年以來，SolarWinds通過公開的GitHub回購泄露了FTP憑據","locale":"zh-Hant"}]}},{"__typename":"SocialMediaPost","id":"HnPost-25443152","excerpt":"","slug":"/hn/25443152","title":"Firefox Was Always Enough","date":"December 17, 2020","dateISO":"2020-12-17T12:17:48.070Z","datetime":"2020-12-17 12:17","tags":["story","Hacker News"],"image":null,"imageAlt":null,"provider":"Hacker News","thirdPartyId":"25443152","url":"https://news.ycombinator.com/item?id=25443152","originalUrl":"https://www.ianbicking.org/blog/2020/11/firefox-was-always-enough.html","imageRemote":null,"video":null,"channel":null,"channelUrl":null,"author":"adambyrtek","authorUrl":"https://news.ycombinator.com/user?id=adambyrtek","authorImage":null,"authorSlug":null,"score":1000,"views":null,"sharedCount":null,"likeCount":null,"sharedContent":null,"parent":{"__typename":"HnJson","localize":[{"title":"火狐总是足够的","locale":"zh"},{"title":"火狐總是足夠的","locale":"zh-Hant"}]}}]}},"pageContext":{"basePath":"/","pageType":"home","tagsFilter":{"id":{"glob":"!*Post-1"}},"filter":{"id":{"glob":"!*Post-1"}},"limit":25,"skip":1950,"totalPages":86,"total":2150,"currentPage":79,"maxWidth":1024,"maxHeight":512,"locale":"zh","hrefLang":"zh-Hans","originalPath":"/page/79","dateFormat":"YYYY-MM-DD"}},"staticQueryHashes":["1239077767","2506312863","2744905544","3025052997","3493603132","3493603132","3513215887","386998304"]}