{"componentChunkName":"component---gatsby-theme-buzzing-src-gatsby-theme-timeline-templates-posts-query-js","path":"/tags/story/page/33","result":{"data":{"site":{"siteMetadata":{"title":"Reddit 热门","description":"用中文浏览Reddit热门内容","social":[{"name":"Twitter","url":"https://twitter.com/gatsbyjs","external":null,"prefetch":null},{"name":"GitHub","url":"https://github.com/gatsbyjs","external":null,"prefetch":null}],"menuLinks":[],"localize":[{"locale":"en","title":"Buzzing on Reddit","description":"See what's buzzing on Reddit in your native language","social":[{"name":"Reddit","url":"https://www.reddit.com/","external":true,"prefetch":null}],"menuLinks":[{"name":"Weekly Selection","url":"/issues","external":null,"prefetch":null},{"name":"RSS","url":"/rss.xml","external":null,"prefetch":false}]},{"locale":"zh-Hant","title":"Reddit 熱門","description":"用中文瀏覽Reddit熱門內容","social":null,"menuLinks":null}]}},"tagsGroup":{"group":[{"fieldValue":"ASK HN","totalCount":22},{"fieldValue":"Bitcoin","totalCount":3},{"fieldValue":"Hacker News","totalCount":920},{"fieldValue":"Poll","totalCount":1},{"fieldValue":"Show HN","totalCount":34},{"fieldValue":"investing","totalCount":197},{"fieldValue":"poll","totalCount":1},{"fieldValue":"reddit","totalCount":777},{"fieldValue":"science","totalCount":1},{"fieldValue":"stocks","totalCount":336},{"fieldValue":"story","totalCount":919},{"fieldValue":"tweet","totalCount":275},{"fieldValue":"wallstreetbets","totalCount":244}]},"allBlogPost":{"nodes":[{"__typename":"SocialMediaPost","id":"HnPost-25466385","excerpt":"","slug":"/hn/25466385","title":"A swarm of drones flying through heavy forest–while staying in formation","date":"December 18, 2020","dateISO":"2020-12-18T23:56:50.860Z","datetime":"2020-12-18 23:56","tags":["story","Hacker News"],"image":null,"imageAlt":null,"provider":"Hacker News","thirdPartyId":"25466385","url":"https://news.ycombinator.com/item?id=25466385","originalUrl":"https://www.sciencemag.org/news/2020/12/watch-swarm-drones-fly-through-heavy-forest-while-staying-formation","imageRemote":"https://www.sciencemag.org/sites/default/files/swarm-thumb.png","video":null,"channel":null,"channelUrl":null,"author":"giuliomagnifico","authorUrl":"https://news.ycombinator.com/user?id=giuliomagnifico","authorImage":null,"authorSlug":null,"score":139,"views":null,"sharedCount":null,"likeCount":null,"sharedContent":null,"parent":{"__typename":"HnJson","localize":[{"title":"一群无人机在茂密的森林中飞行-同时保持队形","locale":"zh"},{"title":"一羣無人機在茂密的森林中飛行-同時保持隊形","locale":"zh-Hant"}]}},{"__typename":"SocialMediaPost","id":"HnPost-25472455","excerpt":"","slug":"/hn/25472455","title":"Post Mortem of Google Outage on 14 December 2020","date":"December 18, 2020","dateISO":"2020-12-18T22:45:20.867Z","datetime":"2020-12-18 22:45","tags":["story","Hacker News"],"image":null,"imageAlt":null,"provider":"Hacker News","thirdPartyId":"25472455","url":"https://news.ycombinator.com/item?id=25472455","originalUrl":"http://status.cloud.google.com/incident/zall/20013#20013004","imageRemote":null,"video":null,"channel":null,"channelUrl":null,"author":"saifulwebid","authorUrl":"https://news.ycombinator.com/user?id=saifulwebid","authorImage":null,"authorSlug":null,"score":729,"views":null,"sharedCount":null,"likeCount":null,"sharedContent":null,"parent":{"__typename":"HnJson","localize":[{"title":"2020年12月14日谷歌停机尸检","locale":"zh"},{"title":"2020年12月14日谷歌停機屍檢","locale":"zh-Hant"}]}},{"__typename":"SocialMediaPost","id":"HnPost-25471404","excerpt":"","slug":"/hn/25471404","title":"Microsoft says it found malicious software in its systems","date":"December 18, 2020","dateISO":"2020-12-18T21:31:57.520Z","datetime":"2020-12-18 21:31","tags":["story","Hacker News"],"image":null,"imageAlt":null,"provider":"Hacker News","thirdPartyId":"25471404","url":"https://news.ycombinator.com/item?id=25471404","originalUrl":"https://www.reuters.com/article/us-usa-cyber-breach-idUSKBN28R2ZJ","imageRemote":"https://static.reuters.com/resources/r/?m=02&d=20201217&t=2&i=1544963772&r=LYNXMPEGBG1XP&w=800","video":null,"channel":null,"channelUrl":null,"author":"alacombe","authorUrl":"https://news.ycombinator.com/user?id=alacombe","authorImage":null,"authorSlug":null,"score":194,"views":null,"sharedCount":null,"likeCount":null,"sharedContent":null,"parent":{"__typename":"HnJson","localize":[{"title":"微软称在其系统中发现恶意软件","locale":"zh"},{"title":"微軟稱在其系統中發現惡意軟件","locale":"zh-Hant"}]}},{"__typename":"SocialMediaPost","id":"HnPost-25469997","excerpt":"","slug":"/hn/25469997","title":"mRNA's next challenge: Will it work as a drug?","date":"December 18, 2020","dateISO":"2020-12-18T21:14:09.386Z","datetime":"2020-12-18 21:14","tags":["story","Hacker News"],"image":null,"imageAlt":null,"provider":"Hacker News","thirdPartyId":"25469997","url":"https://news.ycombinator.com/item?id=25469997","originalUrl":"https://science.sciencemag.org/content/370/6523/1388.full","imageRemote":"https://science.sciencemag.org/content/370/6523/1388/F1.large.jpg","video":null,"channel":null,"channelUrl":null,"author":"mudil","authorUrl":"https://news.ycombinator.com/user?id=mudil","authorImage":null,"authorSlug":null,"score":201,"views":null,"sharedCount":null,"likeCount":null,"sharedContent":null,"parent":{"__typename":"HnJson","localize":[{"title":"mRNA的下一个挑战：它会作为一种药物发挥作用吗？","locale":"zh"},{"title":"mRNA的下一個挑戰：它會作爲一種藥物發揮作用嗎？","locale":"zh-Hant"}]}},{"__typename":"SocialMediaPost","id":"HnPost-25468199","excerpt":"","slug":"/hn/25468199","title":"California nurses union plans holiday strike over PPE","date":"December 18, 2020","dateISO":"2020-12-18T20:40:08.860Z","datetime":"2020-12-18 20:40","tags":["story","Hacker News"],"image":null,"imageAlt":null,"provider":"Hacker News","thirdPartyId":"25468199","url":"https://news.ycombinator.com/item?id=25468199","originalUrl":"https://californiaglobe.com/section-2/california-nurses-union-plans-holiday-strike-over-ppe-shortage/","imageRemote":"https://californiaglobe.com/wp-content/uploads/2019/09/Image-39.jpg","video":null,"channel":null,"channelUrl":null,"author":"nimbius","authorUrl":"https://news.ycombinator.com/user?id=nimbius","authorImage":null,"authorSlug":null,"score":109,"views":null,"sharedCount":null,"likeCount":null,"sharedContent":null,"parent":{"__typename":"HnJson","localize":[{"title":"加州护士工会计划因个人防护用品问题举行假日罢工","locale":"zh"},{"title":"加州護士工會計劃因個人防護用品問題舉行假日罷工","locale":"zh-Hant"}]}},{"__typename":"SocialMediaPost","id":"HnPost-25469535","excerpt":"","slug":"/hn/25469535","title":"Rust 2021 Roadmap","date":"December 18, 2020","dateISO":"2020-12-18T20:25:54.763Z","datetime":"2020-12-18 20:25","tags":["story","Hacker News"],"image":null,"imageAlt":null,"provider":"Hacker News","thirdPartyId":"25469535","url":"https://news.ycombinator.com/item?id=25469535","originalUrl":"https://github.com/rust-lang/rfcs/pull/3037","imageRemote":"https://avatars1.githubusercontent.com/u/5430905?s=400&v=4","video":null,"channel":null,"channelUrl":null,"author":"praveenperera","authorUrl":"https://news.ycombinator.com/user?id=praveenperera","authorImage":null,"authorSlug":null,"score":178,"views":null,"sharedCount":null,"likeCount":null,"sharedContent":null,"parent":{"__typename":"HnJson","localize":[{"title":"Rust 2021路线图","locale":"zh"},{"title":"Rust 2021路線圖","locale":"zh-Hant"}]}},{"__typename":"SocialMediaPost","id":"HnPost-25466561","excerpt":"","slug":"/hn/25466561","title":"When important components become scarce: CPUs, GPUs","date":"December 18, 2020","dateISO":"2020-12-18T19:51:15.167Z","datetime":"2020-12-18 19:51","tags":["story","Hacker News"],"image":null,"imageAlt":null,"provider":"Hacker News","thirdPartyId":"25466561","url":"https://news.ycombinator.com/item?id=25466561","originalUrl":"https://www.igorslab.de/en/if-important-components-will-become-shortage-cpus-gpus-console-chips-and-other-components-as-complex-handle-object/","imageRemote":"https://www.igorslab.de/wp-content/uploads/2020/12/CPU.jpg","video":null,"channel":null,"channelUrl":null,"author":"monkeydust","authorUrl":"https://news.ycombinator.com/user?id=monkeydust","authorImage":null,"authorSlug":null,"score":123,"views":null,"sharedCount":null,"likeCount":null,"sharedContent":null,"parent":{"__typename":"HnJson","localize":[{"title":"当重要组件变得稀缺时：CPU、GPU","locale":"zh"},{"title":"當重要組件變得稀缺時：CPU、GPU","locale":"zh-Hant"}]}},{"__typename":"SocialMediaPost","id":"HnPost-25465010","excerpt":"","slug":"/hn/25465010","title":"Tech giants will block Kazakhstan’s web surveillance efforts again","date":"December 18, 2020","dateISO":"2020-12-18T19:00:20.456Z","datetime":"2020-12-18 19:00","tags":["story","Hacker News"],"image":null,"imageAlt":null,"provider":"Hacker News","thirdPartyId":"25465010","url":"https://news.ycombinator.com/item?id=25465010","originalUrl":"https://www.engadget.com/tech-giants-browsers-block-kazakhstan-web-surveillance-080031499.html","imageRemote":"https://o.aolcdn.com/images/dims?resize=1200%2C630&crop=1200%2C630%2C0%2C0&quality=95&image_uri=https%3A%2F%2Fs.yimg.com%2Fos%2Fcreatr-uploaded-images%2F2020-12%2F1733c1a0-4102-11eb-bbfc-df8a3eea970f&client=amp-blogside-v2&signature=17ea157c12eaf4f41f3895c4842988387e8077ef","video":null,"channel":null,"channelUrl":null,"author":"alexrustic","authorUrl":"https://news.ycombinator.com/user?id=alexrustic","authorImage":null,"authorSlug":null,"score":134,"views":null,"sharedCount":null,"likeCount":null,"sharedContent":null,"parent":{"__typename":"HnJson","localize":[{"title":"科技巨头将再次挡路哈萨克斯坦的网络监控努力","locale":"zh"},{"title":"科技巨頭將再次擋路哈薩克斯坦的網絡監控努力","locale":"zh-Hant"}]}},{"__typename":"SocialMediaPost","id":"HnPost-25467545","excerpt":"","slug":"/hn/25467545","title":"Cerulean: Experimental micro-blogging app for Matrix","date":"December 18, 2020","dateISO":"2020-12-18T19:00:20.456Z","datetime":"2020-12-18 19:00","tags":["story","Hacker News"],"image":null,"imageAlt":null,"provider":"Hacker News","thirdPartyId":"25467545","url":"https://news.ycombinator.com/item?id=25467545","originalUrl":"https://matrix.org/blog/2020/12/18/introducing-cerulean","imageRemote":"https://matrix.org/blog/img/2020-12-18-cerulean.png","video":null,"channel":null,"channelUrl":null,"author":"ignoramous","authorUrl":"https://news.ycombinator.com/user?id=ignoramous","authorImage":null,"authorSlug":null,"score":206,"views":null,"sharedCount":null,"likeCount":null,"sharedContent":null,"parent":{"__typename":"HnJson","localize":[{"title":"Cerulean：Matrix的实验性微博应用","locale":"zh"},{"title":"Cerulean：Matrix的實驗性微博應用","locale":"zh-Hant"}]}},{"__typename":"SocialMediaPost","id":"HnPost-25466836","excerpt":"","slug":"/hn/25466836","title":"Fermilab and partners achieve sustained, high-fidelity quantum teleportation","date":"December 18, 2020","dateISO":"2020-12-18T18:40:29.575Z","datetime":"2020-12-18 18:40","tags":["story","Hacker News"],"image":null,"imageAlt":null,"provider":"Hacker News","thirdPartyId":"25466836","url":"https://news.ycombinator.com/item?id=25466836","originalUrl":"https://news.fnal.gov/2020/12/fermilab-and-partners-achieve-sustained-high-fidelity-quantum-teleportation/","imageRemote":"https://news.fnal.gov/wp-content/uploads/2020/12/inqnet-quantum-teleportation.jpg","video":null,"channel":null,"channelUrl":null,"author":"spurgu","authorUrl":"https://news.ycombinator.com/user?id=spurgu","authorImage":null,"authorSlug":null,"score":198,"views":null,"sharedCount":null,"likeCount":null,"sharedContent":null,"parent":{"__typename":"HnJson","localize":[{"title":"费米实验室及其合作伙伴实现持续、高保真的量子隐形传态","locale":"zh"},{"title":"費米實驗室及其合作伙伴實現持續、高保真的量子隱形傳態","locale":"zh-Hant"}]}},{"__typename":"SocialMediaPost","id":"HnPost-25466764","excerpt":"","slug":"/hn/25466764","title":"How to Find Focus","date":"December 18, 2020","dateISO":"2020-12-18T18:11:42.911Z","datetime":"2020-12-18 18:11","tags":["story","Hacker News"],"image":null,"imageAlt":null,"provider":"Hacker News","thirdPartyId":"25466764","url":"https://news.ycombinator.com/item?id=25466764","originalUrl":"https://thesephist.com/posts/focus/","imageRemote":null,"video":null,"channel":null,"channelUrl":null,"author":"mdeira","authorUrl":"https://news.ycombinator.com/user?id=mdeira","authorImage":null,"authorSlug":null,"score":212,"views":null,"sharedCount":null,"likeCount":null,"sharedContent":null,"parent":{"__typename":"HnJson","localize":[{"title":"如何找到焦点","locale":"zh"},{"title":"如何找到焦點","locale":"zh-Hant"}]}},{"__typename":"SocialMediaPost","id":"HnPost-25467721","excerpt":"","slug":"/hn/25467721","title":"It Took Two Days to Develop Moderna’s Vaccine","date":"December 18, 2020","dateISO":"2020-12-18T17:52:46.723Z","datetime":"2020-12-18 17:52","tags":["story","Hacker News"],"image":null,"imageAlt":null,"provider":"Hacker News","thirdPartyId":"25467721","url":"https://news.ycombinator.com/item?id=25467721","originalUrl":"https://theness.com/neurologicablog/index.php/it-took-two-days-to-develop-modernas-vaccine/","imageRemote":"https://theness.com/neurologicablog/wp-content/uploads/sites/3/2020/12/moderna-vaccine-1024x577.jpg","video":null,"channel":null,"channelUrl":null,"author":"CapitalistCartr","authorUrl":"https://news.ycombinator.com/user?id=CapitalistCartr","authorImage":null,"authorSlug":null,"score":360,"views":null,"sharedCount":null,"likeCount":null,"sharedContent":null,"parent":{"__typename":"HnJson","localize":[{"title":"研制现代纳疫苗花了两天时间","locale":"zh"},{"title":"研製現代納疫苗花了兩天時間","locale":"zh-Hant"}]}},{"__typename":"SocialMediaPost","id":"HnPost-25466535","excerpt":"","slug":"/hn/25466535","title":"Possible Radio Emission from Exoplanet Detected","date":"December 18, 2020","dateISO":"2020-12-18T17:21:16.338Z","datetime":"2020-12-18 17:21","tags":["story","Hacker News"],"image":null,"imageAlt":null,"provider":"Hacker News","thirdPartyId":"25466535","url":"https://news.ycombinator.com/item?id=25466535","originalUrl":"https://news.cornell.edu/stories/2020/12/cornell-postdoc-detects-possible-exoplanet-radio-emission","imageRemote":"https://news.cornell.edu/sites/default/files/styles/story_thumbnail_lg/public/2020-12/1216_exoplanet.jpg?itok=SqSgym1x","video":null,"channel":null,"channelUrl":null,"author":"izhak","authorUrl":"https://news.ycombinator.com/user?id=izhak","authorImage":null,"authorSlug":null,"score":199,"views":null,"sharedCount":null,"likeCount":null,"sharedContent":null,"parent":{"__typename":"HnJson","localize":[{"title":"探测到可能的系外行星射电发射","locale":"zh"},{"title":"探測到可能的系外行星射電發射","locale":"zh-Hant"}]}},{"__typename":"SocialMediaPost","id":"HnPost-25468621","excerpt":"","slug":"/hn/25468621","title":"Justin Amash Introduces Bill to End Civil Asset Forfeiture Nationwide","date":"December 18, 2020","dateISO":"2020-12-18T17:21:16.337Z","datetime":"2020-12-18 17:21","tags":["story","Hacker News"],"image":null,"imageAlt":null,"provider":"Hacker News","thirdPartyId":"25468621","url":"https://news.ycombinator.com/item?id=25468621","originalUrl":"https://reason.com/2020/12/17/justin-amash-introduces-bill-to-end-civil-asset-forfeiture-nationwide/","imageRemote":"https://reason.com/wp-content/uploads/2020/12/rollcallpix129996-1200x630.jpg","video":null,"channel":null,"channelUrl":null,"author":"boogies","authorUrl":"https://news.ycombinator.com/user?id=boogies","authorImage":null,"authorSlug":null,"score":615,"views":null,"sharedCount":null,"likeCount":null,"sharedContent":null,"parent":{"__typename":"HnJson","localize":[{"title":"贾斯汀·阿玛什推出在全国范围内结束民事资产没收的法案","locale":"zh"},{"title":"賈斯汀·阿瑪什推出在全國範圍內結束民事資產沒收的法案","locale":"zh-Hant"}]}},{"__typename":"SocialMediaPost","id":"HnPost-25467900","excerpt":"","slug":"/hn/25467900","title":"I Got a Computer Science Degree in 3 Months for Less Than $5000","date":"December 18, 2020","dateISO":"2020-12-18T16:47:00.636Z","datetime":"2020-12-18 16:47","tags":["story","Hacker News"],"image":null,"imageAlt":null,"provider":"Hacker News","thirdPartyId":"25467900","url":"https://news.ycombinator.com/item?id=25467900","originalUrl":"https://miguelrochefort.com/blog/cs-degree/","imageRemote":"https://miguelrochefort.com/img/bscs_time_annotated.PNG","video":null,"channel":null,"channelUrl":null,"author":"miguelrochefort","authorUrl":"https://news.ycombinator.com/user?id=miguelrochefort","authorImage":null,"authorSlug":null,"score":425,"views":null,"sharedCount":null,"likeCount":null,"sharedContent":null,"parent":{"__typename":"HnJson","localize":[{"title":"我花了不到5000美元就在3个月内拿到了计算机科学学位","locale":"zh"},{"title":"我花了不到5000美元就在3個月內拿到了計算機科學學位","locale":"zh-Hant"}]}},{"__typename":"SocialMediaPost","id":"HnPost-25465579","excerpt":"","slug":"/hn/25465579","title":"John Carmack: Career Advice","date":"December 18, 2020","dateISO":"2020-12-18T15:25:51.582Z","datetime":"2020-12-18 15:25","tags":["story","Hacker News"],"image":null,"imageAlt":null,"provider":"Hacker News","thirdPartyId":"25465579","url":"https://news.ycombinator.com/item?id=25465579","originalUrl":"https://twitter.com/id_aa_carmack/status/1339777933871865857","imageRemote":null,"video":null,"channel":null,"channelUrl":null,"author":"tosh","authorUrl":"https://news.ycombinator.com/user?id=tosh","authorImage":null,"authorSlug":null,"score":274,"views":null,"sharedCount":null,"likeCount":null,"sharedContent":null,"parent":{"__typename":"HnJson","localize":[{"title":"约翰·卡马克：职业建议","locale":"zh"},{"title":"約翰·卡馬克：職業建議","locale":"zh-Hant"}]}},{"__typename":"SocialMediaPost","id":"HnPost-25466854","excerpt":"","slug":"/hn/25466854","title":"I've walked away from software development","date":"December 18, 2020","dateISO":"2020-12-18T15:25:51.582Z","datetime":"2020-12-18 15:25","tags":["story","Hacker News"],"image":null,"imageAlt":null,"provider":"Hacker News","thirdPartyId":"25466854","url":"https://news.ycombinator.com/item?id=25466854","originalUrl":"https://old.reddit.com/r/cscareerquestions/comments/kfcmbj/ive_walked_away_from_software_development/","imageRemote":"https://www.redditstatic.com/new-icon.png","video":null,"channel":null,"channelUrl":null,"author":"mrfusion","authorUrl":"https://news.ycombinator.com/user?id=mrfusion","authorImage":null,"authorSlug":null,"score":182,"views":null,"sharedCount":null,"likeCount":null,"sharedContent":null,"parent":{"__typename":"HnJson","localize":[{"title":"我已经离开了软件开发","locale":"zh"},{"title":"我已經離開了軟件開發","locale":"zh-Hant"}]}},{"__typename":"SocialMediaPost","id":"HnPost-25462717","excerpt":"","slug":"/hn/25462717","title":"Cyberpunk 2077 Refunds","date":"December 18, 2020","dateISO":"2020-12-18T14:48:42.862Z","datetime":"2020-12-18 14:48","tags":["story","Hacker News"],"image":null,"imageAlt":null,"provider":"Hacker News","thirdPartyId":"25462717","url":"https://news.ycombinator.com/item?id=25462717","originalUrl":"https://www.playstation.com/en-us/cyberpunk-2077-refunds/","imageRemote":"https://gmedia.playstation.com/is/image/SIEPDC/cyberpunk-2077-listing-thumb-01-ps4-en-08sep20?$facebook$","video":null,"channel":null,"channelUrl":null,"author":"Kapura","authorUrl":"https://news.ycombinator.com/user?id=Kapura","authorImage":null,"authorSlug":null,"score":379,"views":null,"sharedCount":null,"likeCount":null,"sharedContent":null,"parent":{"__typename":"HnJson","localize":[{"title":"赛博朋克2077退款","locale":"zh"},{"title":"賽博朋克2077退款","locale":"zh-Hant"}]}},{"__typename":"SocialMediaPost","id":"HnPost-25463521","excerpt":"","slug":"/hn/25463521","title":"Big Sur bug prevents upgrades to the next version","date":"December 18, 2020","dateISO":"2020-12-18T14:33:24.942Z","datetime":"2020-12-18 14:33","tags":["story","Hacker News"],"image":null,"imageAlt":null,"provider":"Hacker News","thirdPartyId":"25463521","url":"https://news.ycombinator.com/item?id=25463521","originalUrl":"https://micromdm.io/blog/big-sur-softwareupdate/","imageRemote":"https://micromdm.io/images/logo.svg","video":null,"channel":null,"channelUrl":null,"author":"groobongithub","authorUrl":"https://news.ycombinator.com/user?id=groobongithub","authorImage":null,"authorSlug":null,"score":132,"views":null,"sharedCount":null,"likeCount":null,"sharedContent":null,"parent":{"__typename":"HnJson","localize":[{"title":"大Sur错误阻止升级到下一个版本","locale":"zh"},{"title":"大Sur錯誤阻止升級到下一個版本","locale":"zh-Hant"}]}},{"__typename":"SocialMediaPost","id":"HnPost-25466063","excerpt":"","slug":"/hn/25466063","title":"The Ampere Altra Review: 2x 80 Cores Arm Server Performance Monster","date":"December 18, 2020","dateISO":"2020-12-18T14:33:24.942Z","datetime":"2020-12-18 14:33","tags":["story","Hacker News"],"image":null,"imageAlt":null,"provider":"Hacker News","thirdPartyId":"25466063","url":"https://news.ycombinator.com/item?id=25466063","originalUrl":"https://www.anandtech.com/show/16315/the-ampere-altra-review","imageRemote":"https://images.anandtech.com/doci/16315/X-T30_DSF3751_678x452.jpg","video":null,"channel":null,"channelUrl":null,"author":"sien","authorUrl":"https://news.ycombinator.com/user?id=sien","authorImage":null,"authorSlug":null,"score":274,"views":null,"sharedCount":null,"likeCount":null,"sharedContent":null,"parent":{"__typename":"HnJson","localize":[{"title":"安培Altra评论：2个80核ARM服务器性能怪兽","locale":"zh"},{"title":"安培Altra評論：2個80核ARM服務器性能怪獸","locale":"zh-Hant"}]}},{"__typename":"SocialMediaPost","id":"HnPost-25466416","excerpt":"","slug":"/hn/25466416","title":"I Have Resigned from the Google AMP Advisory Committee","date":"December 18, 2020","dateISO":"2020-12-18T13:54:08.413Z","datetime":"2020-12-18 13:54","tags":["story","Hacker News"],"image":null,"imageAlt":null,"provider":"Hacker News","thirdPartyId":"25466416","url":"https://news.ycombinator.com/item?id=25466416","originalUrl":"https://shkspr.mobi/blog/2020/12/i-have-resigned-from-the-google-amp-advisory-committee/","imageRemote":"https://shkspr.mobi/blog/wp-content/uploads/2018/09/AMP.png","video":null,"channel":null,"channelUrl":null,"author":"edent","authorUrl":"https://news.ycombinator.com/user?id=edent","authorImage":null,"authorSlug":null,"score":744,"views":null,"sharedCount":null,"likeCount":null,"sharedContent":null,"parent":{"__typename":"HnJson","localize":[{"title":"我已经辞去了谷歌AMP咨询委员会的职务","locale":"zh"},{"title":"我已經辭去了谷歌AMP諮詢委員會的職務","locale":"zh-Hant"}]}},{"__typename":"SocialMediaPost","id":"HnPost-25457085","excerpt":"","slug":"/hn/25457085","title":"Launch HN: ShareWith (YC W21) – Easily share internal websites securely","date":"December 18, 2020","dateISO":"2020-12-18T13:46:09.233Z","datetime":"2020-12-18 13:46","tags":["story","Hacker News"],"image":null,"imageAlt":null,"provider":"Hacker News","thirdPartyId":"25457085","url":"https://news.ycombinator.com/item?id=25457085","originalUrl":"https://news.ycombinator.com/item?id=25457085","imageRemote":null,"video":null,"channel":null,"channelUrl":null,"author":"jakemoshenko","authorUrl":"https://news.ycombinator.com/user?id=jakemoshenko","authorImage":null,"authorSlug":null,"score":112,"views":null,"sharedCount":null,"likeCount":null,"sharedContent":null,"parent":{"__typename":"HnJson","localize":[{"title":"发布HN：共享(YC W21)-轻松安全地共享内部网站","locale":"zh"},{"title":"發佈HN：共享(YC W21)-輕鬆安全地共享內部網站","locale":"zh-Hant"}]}},{"__typename":"SocialMediaPost","id":"HnPost-25460439","excerpt":"","slug":"/hn/25460439","title":"The black market in stolen antiquities on Facebook","date":"December 18, 2020","dateISO":"2020-12-18T13:46:09.233Z","datetime":"2020-12-18 13:46","tags":["story","Hacker News"],"image":null,"imageAlt":null,"provider":"Hacker News","thirdPartyId":"25460439","url":"https://news.ycombinator.com/item?id=25460439","originalUrl":"https://slate.com/technology/2020/12/facebook-stolen-antiquities-art-black-market.html","imageRemote":"https://compote.slate.com/images/769c5ace-8849-4d68-b726-ce80e39ed362.jpeg?width=780&height=520&rect=3200x2133&offset=0x0","video":null,"channel":null,"channelUrl":null,"author":"laurex","authorUrl":"https://news.ycombinator.com/user?id=laurex","authorImage":null,"authorSlug":null,"score":104,"views":null,"sharedCount":null,"likeCount":null,"sharedContent":null,"parent":{"__typename":"HnJson","localize":[{"title":"Facebook上的被盗古董黑市","locale":"zh"},{"title":"Facebook上的被盜古董黑市","locale":"zh-Hant"}]}},{"__typename":"SocialMediaPost","id":"HnPost-25454747","excerpt":"","slug":"/hn/25454747","title":"Physicists Create Time-Reversed Waves of Optical Light","date":"December 18, 2020","dateISO":"2020-12-18T13:00:46.453Z","datetime":"2020-12-18 13:00","tags":["story","Hacker News"],"image":null,"imageAlt":null,"provider":"Hacker News","thirdPartyId":"25454747","url":"https://news.ycombinator.com/item?id=25454747","originalUrl":"https://www.sciencealert.com/physicists-have-created-time-reversed-waves-of-light","imageRemote":"https://www.sciencealert.com/images/2020-12/processed/time-beam_1024.jpg","video":null,"channel":null,"channelUrl":null,"author":"bookofjoe","authorUrl":"https://news.ycombinator.com/user?id=bookofjoe","authorImage":null,"authorSlug":null,"score":119,"views":null,"sharedCount":null,"likeCount":null,"sharedContent":null,"parent":{"__typename":"HnJson","localize":[{"title":"物理学家创造了时间反转的光波","locale":"zh"},{"title":"物理學家創造了時間反轉的光波","locale":"zh-Hant"}]}},{"__typename":"SocialMediaPost","id":"HnPost-25459731","excerpt":"","slug":"/hn/25459731","title":"Playing chess is a life lesson in concentration","date":"December 18, 2020","dateISO":"2020-12-18T13:00:46.453Z","datetime":"2020-12-18 13:00","tags":["story","Hacker News"],"image":null,"imageAlt":null,"provider":"Hacker News","thirdPartyId":"25459731","url":"https://news.ycombinator.com/item?id=25459731","originalUrl":"https://aeon.co/essays/playing-chess-is-an-essential-life-lesson-in-concentration","imageRemote":"https://alpha.aeon.co/images/e905da2e-8ab0-489f-aa9a-950ed31c0632/header_essay-panos_00171315.jpg","video":null,"channel":null,"channelUrl":null,"author":"agronaut","authorUrl":"https://news.ycombinator.com/user?id=agronaut","authorImage":null,"authorSlug":null,"score":228,"views":null,"sharedCount":null,"likeCount":null,"sharedContent":null,"parent":{"__typename":"HnJson","localize":[{"title":"下国际象棋是集中注意力的人生课程。","locale":"zh"},{"title":"下國際象棋是集中注意力的人生課程。","locale":"zh-Hant"}]}}]}},"pageContext":{"basePath":"/","pageType":"tag","tag":"story","tagsFilter":{"id":{"glob":"!*Post-1"}},"filter":{"id":{"glob":"!*Post-1"},"tags":{"eq":"story"}},"limit":25,"skip":800,"total":919,"totalPages":37,"currentPage":33,"maxWidth":1024,"maxHeight":512,"locale":"zh","hrefLang":"zh-Hans","originalPath":"/tags/story/page/33","dateFormat":"YYYY-MM-DD"}},"staticQueryHashes":["1239077767","2506312863","2744905544","3025052997","3493603132","3493603132","3513215887","386998304"]}