{"componentChunkName":"component---gatsby-theme-buzzing-src-gatsby-theme-timeline-templates-posts-query-js","path":"/en/tags/story/page/51","result":{"data":{"site":{"siteMetadata":{"title":"Reddit 热门","description":"用中文浏览Reddit热门内容","social":[{"name":"Twitter","url":"https://twitter.com/gatsbyjs","external":null,"prefetch":null},{"name":"GitHub","url":"https://github.com/gatsbyjs","external":null,"prefetch":null}],"menuLinks":[],"localize":[{"locale":"en","title":"Buzzing on Reddit","description":"See what's buzzing on Reddit in your native language","social":[{"name":"Reddit","url":"https://www.reddit.com/","external":true,"prefetch":null}],"menuLinks":[{"name":"Weekly Selection","url":"/issues","external":null,"prefetch":null},{"name":"RSS","url":"/rss.xml","external":null,"prefetch":false}]},{"locale":"zh-Hant","title":"Reddit 熱門","description":"用中文瀏覽Reddit熱門內容","social":null,"menuLinks":null}]}},"tagsGroup":{"group":[{"fieldValue":"ASK HN","totalCount":44},{"fieldValue":"Bitcoin","totalCount":4},{"fieldValue":"Hacker News","totalCount":2600},{"fieldValue":"Poll","totalCount":1},{"fieldValue":"SaveAMC","totalCount":1},{"fieldValue":"Show HN","totalCount":89},{"fieldValue":"bitcoin","totalCount":3},{"fieldValue":"investing","totalCount":797},{"fieldValue":"poll","totalCount":1},{"fieldValue":"reddit","totalCount":4938},{"fieldValue":"science","totalCount":1},{"fieldValue":"stocks","totalCount":1592},{"fieldValue":"story","totalCount":2599},{"fieldValue":"tweet","totalCount":814},{"fieldValue":"wallstreetbets","totalCount":2549}]},"allBlogPost":{"nodes":[{"__typename":"SocialMediaPost","id":"HnPost-25960905","excerpt":"","slug":"/hn/25960905","title":"It’s time for police to stop lying to suspects","date":"January 29, 2021","dateISO":"2021-01-29T21:08:22.192Z","datetime":"2021-01-29 21:08","tags":["story","Hacker News"],"image":null,"imageAlt":null,"provider":"Hacker News","thirdPartyId":"25960905","url":"https://news.ycombinator.com/item?id=25960905","originalUrl":"https://www.nytimes.com/2021/01/29/opinion/false-confessions-police-interrogation.html","imageRemote":"https://static01.nyt.com/images/2021/01/29/opinion/29kassin/29kassin-facebookJumbo.jpg","video":null,"channel":null,"channelUrl":null,"author":"miles","authorUrl":"https://news.ycombinator.com/user?id=miles","authorImage":null,"authorSlug":null,"score":198,"views":null,"sharedCount":null,"likeCount":null,"sharedContent":null,"parent":{"__typename":"HnJson","localize":[{"title":"警察是时候停止对嫌疑人撒谎了","locale":"zh"},{"title":"警察是時候停止對嫌疑人撒謊了","locale":"zh-Hant"}]}},{"__typename":"SocialMediaPost","id":"HnPost-25959646","excerpt":"","slug":"/hn/25959646","title":"Making GitHub’s new homepage fast and performant","date":"January 29, 2021","dateISO":"2021-01-29T19:57:19.532Z","datetime":"2021-01-29 19:57","tags":["story","Hacker News"],"image":null,"imageAlt":null,"provider":"Hacker News","thirdPartyId":"25959646","url":"https://news.ycombinator.com/item?id=25959646","originalUrl":"https://github.blog/2021-01-29-making-githubs-new-homepage-fast-and-performant/","imageRemote":"https://github.blog/wp-content/uploads/2021/01/102393310-07478b80-3f8d-11eb-84eb-392d555ebd29.png?fit=1200%2C630","video":null,"channel":null,"channelUrl":null,"author":"todsacerdoti","authorUrl":"https://news.ycombinator.com/user?id=todsacerdoti","authorImage":null,"authorSlug":null,"score":257,"views":null,"sharedCount":null,"likeCount":null,"sharedContent":null,"parent":{"__typename":"HnJson","localize":[{"title":"让GitHub的新主页变得更快、更有性能","locale":"zh"},{"title":"讓GitHub的新主頁變得更快、更有性能","locale":"zh-Hant"}]}},{"__typename":"SocialMediaPost","id":"HnPost-25958138","excerpt":"","slug":"/hn/25958138","title":"Die Shots of the Raspberry Pi RP2040","date":"January 29, 2021","dateISO":"2021-01-29T19:45:14.559Z","datetime":"2021-01-29 19:45","tags":["story","Hacker News"],"image":null,"imageAlt":null,"provider":"Hacker News","thirdPartyId":"25958138","url":"https://news.ycombinator.com/item?id=25958138","originalUrl":"https://blog.adafruit.com/2021/01/29/die-shots-of-the-raspberry-pi-rp2040-chip-teardown-dieshot-reverseengineering-piday-johndmcmaster-raspberry_pi/","imageRemote":"https://cdn-blog.adafruit.com/uploads/2021/01/Untitled-196.jpg","video":null,"channel":null,"channelUrl":null,"author":"mmastrac","authorUrl":"https://news.ycombinator.com/user?id=mmastrac","authorImage":null,"authorSlug":null,"score":271,"views":null,"sharedCount":null,"likeCount":null,"sharedContent":null,"parent":{"__typename":"HnJson","localize":[{"title":"Raspberry Pi RP2040的模样照。","locale":"zh"},{"title":"Raspberry Pi RP2040的模樣照。","locale":"zh-Hant"}]}},{"__typename":"SocialMediaPost","id":"HnPost-25956670","excerpt":"","slug":"/hn/25956670","title":"Achieving 11M IOPS and 66 GB/S IO on a Single ThreadRipper Workstation","date":"January 29, 2021","dateISO":"2021-01-29T19:24:13.752Z","datetime":"2021-01-29 19:24","tags":["story","Hacker News"],"image":null,"imageAlt":null,"provider":"Hacker News","thirdPartyId":"25956670","url":"https://news.ycombinator.com/item?id=25956670","originalUrl":"https://tanelpoder.com/posts/11m-iops-with-10-ssds-on-amd-threadripper-pro-workstation/","imageRemote":"https://tanelpoder.com/files/images/iops-10ssds.jpg","video":null,"channel":null,"channelUrl":null,"author":"tanelpoder","authorUrl":"https://news.ycombinator.com/user?id=tanelpoder","authorImage":null,"authorSlug":null,"score":494,"views":null,"sharedCount":null,"likeCount":null,"sharedContent":null,"parent":{"__typename":"HnJson","localize":[{"title":"在单个ThreadRipper工作站上实现11M IOPS和66 GB/S IO","locale":"zh"},{"title":"在單個ThreadRipper工作站上實現11M IOPS和66 GB/S IO","locale":"zh-Hant"}]}},{"__typename":"SocialMediaPost","id":"HnPost-25954120","excerpt":"","slug":"/hn/25954120","title":"A small, delayed avalanche may have been responsible for the Dyatlov Incident","date":"January 29, 2021","dateISO":"2021-01-29T18:56:32.937Z","datetime":"2021-01-29 18:56","tags":["story","Hacker News"],"image":null,"imageAlt":null,"provider":"Hacker News","thirdPartyId":"25954120","url":"https://news.ycombinator.com/item?id=25954120","originalUrl":"https://www.nationalgeographic.com/science/2021/01/has-science-solved-history-greatest-adventure-mystery-dyatlov/","imageRemote":"https://www.nationalgeographic.com/content/dam/science/2021/01/28/Dyatlov/dyatlov_pass_incident_02.ngsversion.1611864630004.adapt.1900.1.jpg","video":null,"channel":null,"channelUrl":null,"author":"indigodaddy","authorUrl":"https://news.ycombinator.com/user?id=indigodaddy","authorImage":null,"authorSlug":null,"score":185,"views":null,"sharedCount":null,"likeCount":null,"sharedContent":null,"parent":{"__typename":"HnJson","localize":[{"title":"一场延迟的小型雪崩可能是迪亚特洛夫事件的元凶。","locale":"zh"},{"title":"一場延遲的小型雪崩可能是迪亞特洛夫事件的元兇。","locale":"zh-Hant"}]}},{"__typename":"SocialMediaPost","id":"HnPost-25957307","excerpt":"","slug":"/hn/25957307","title":"Pony – High Performance Safe Actor Programming","date":"January 29, 2021","dateISO":"2021-01-29T18:18:48.847Z","datetime":"2021-01-29 18:18","tags":["story","Hacker News"],"image":null,"imageAlt":null,"provider":"Hacker News","thirdPartyId":"25957307","url":"https://news.ycombinator.com/item?id=25957307","originalUrl":"https://www.ponylang.io/discover/#what-is-pony","imageRemote":"https://www.ponylang.io/images/logo.png","video":null,"channel":null,"channelUrl":null,"author":"ibraheemdev","authorUrl":"https://news.ycombinator.com/user?id=ibraheemdev","authorImage":null,"authorSlug":null,"score":322,"views":null,"sharedCount":null,"likeCount":null,"sharedContent":null,"parent":{"__typename":"HnJson","localize":[{"title":"Pony - 高性能安全演员编程","locale":"zh"},{"title":"Pony - 高性能安全演員編程","locale":"zh-Hant"}]}},{"__typename":"SocialMediaPost","id":"HnPost-25956502","excerpt":"","slug":"/hn/25956502","title":"PyO3: Rust Bindings for the Python Interpreter","date":"January 29, 2021","dateISO":"2021-01-29T17:53:17.868Z","datetime":"2021-01-29 17:53","tags":["story","Hacker News"],"image":null,"imageAlt":null,"provider":"Hacker News","thirdPartyId":"25956502","url":"https://news.ycombinator.com/item?id=25956502","originalUrl":"https://github.com/PyO3/pyo3","imageRemote":"https://avatars.githubusercontent.com/u/28156855?s=400&v=4","video":null,"channel":null,"channelUrl":null,"author":"batterylow","authorUrl":"https://news.ycombinator.com/user?id=batterylow","authorImage":null,"authorSlug":null,"score":304,"views":null,"sharedCount":null,"likeCount":null,"sharedContent":null,"parent":{"__typename":"HnJson","localize":[{"title":"PyO3.Rust Bindings 用于Python解释器的Rust Bindings。","locale":"zh"},{"title":"PyO3.Rust Bindings 用於Python解釋器的Rust Bindings。","locale":"zh-Hant"}]}},{"__typename":"SocialMediaPost","id":"HnPost-25946196","excerpt":"","slug":"/hn/25946196","title":"Citadel allegedly reloaded Shorts on GME before Robinhood put restrictions","date":"January 29, 2021","dateISO":"2021-01-29T16:08:31.341Z","datetime":"2021-01-29 16:08","tags":["story","Hacker News"],"image":null,"imageAlt":null,"provider":"Hacker News","thirdPartyId":"25946196","url":"https://news.ycombinator.com/item?id=25946196","originalUrl":"https://twitter.com/justinkan/status/1354853920762253315","imageRemote":null,"video":null,"channel":null,"channelUrl":null,"author":"vthallam","authorUrl":"https://news.ycombinator.com/user?id=vthallam","authorImage":null,"authorSlug":null,"score":165,"views":null,"sharedCount":null,"likeCount":null,"sharedContent":null,"parent":{"__typename":"HnJson","localize":[{"title":"据称，Citadel在Robinhood施加限制之前，在GME上重装了Shorts。","locale":"zh"},{"title":"據稱，Citadel在Robinhood施加限制之前，在GME上重裝了Shorts。","locale":"zh-Hant"}]}},{"__typename":"SocialMediaPost","id":"HnPost-25957748","excerpt":"","slug":"/hn/25957748","title":"Statement of SEC Regarding Recent Market Volatility","date":"January 29, 2021","dateISO":"2021-01-29T15:53:23.364Z","datetime":"2021-01-29 15:53","tags":["story","Hacker News"],"image":null,"imageAlt":null,"provider":"Hacker News","thirdPartyId":"25957748","url":"https://news.ycombinator.com/item?id=25957748","originalUrl":"https://www.sec.gov/news/public-statement/joint-statement-market-volatility-2021-01-29","imageRemote":"https://www.sec.gov/files/sec-logo.png","video":null,"channel":null,"channelUrl":null,"author":"TeMPOraL","authorUrl":"https://news.ycombinator.com/user?id=TeMPOraL","authorImage":null,"authorSlug":null,"score":571,"views":null,"sharedCount":null,"likeCount":null,"sharedContent":null,"parent":{"__typename":"HnJson","localize":[{"title":"证监会关于近期市场波动的声明","locale":"zh"},{"title":"證監會關於近期市場波動的聲明","locale":"zh-Hant"}]}},{"__typename":"SocialMediaPost","id":"HnPost-25956551","excerpt":"","slug":"/hn/25956551","title":"Factorio 1.1 stable","date":"January 29, 2021","dateISO":"2021-01-29T15:00:10.373Z","datetime":"2021-01-29 15:00","tags":["story","Hacker News"],"image":null,"imageAlt":null,"provider":"Hacker News","thirdPartyId":"25956551","url":"https://news.ycombinator.com/item?id=25956551","originalUrl":"https://factorio.com/blog/post/fff-364","imageRemote":"https://cdn.factorio.com/assets/img/blog/fff-364-1-1-stable-postcard-no-text.png","video":null,"channel":null,"channelUrl":null,"author":"OrderlyTiamat","authorUrl":"https://news.ycombinator.com/user?id=OrderlyTiamat","authorImage":null,"authorSlug":null,"score":468,"views":null,"sharedCount":null,"likeCount":null,"sharedContent":null,"parent":{"__typename":"HnJson","localize":[{"title":"Factorio 1.1稳定","locale":"zh"},{"title":"Factorio 1.1穩定","locale":"zh-Hant"}]}},{"__typename":"SocialMediaPost","id":"HnPost-25953781","excerpt":"","slug":"/hn/25953781","title":"Police Say They Use Facial Recognition Despite Bans","date":"January 29, 2021","dateISO":"2021-01-29T14:52:42.081Z","datetime":"2021-01-29 14:52","tags":["story","Hacker News"],"image":null,"imageAlt":null,"provider":"Hacker News","thirdPartyId":"25953781","url":"https://news.ycombinator.com/item?id=25953781","originalUrl":"https://themarkup.org/news/2021/01/28/police-say-they-can-use-facial-recognition-despite-bans","imageRemote":"https://mrkp-static-production.themarkup.org/uploads/2021/01/face-rec-1200x628.jpg","video":null,"channel":null,"channelUrl":null,"author":"atg_abhishek","authorUrl":"https://news.ycombinator.com/user?id=atg_abhishek","authorImage":null,"authorSlug":null,"score":304,"views":null,"sharedCount":null,"likeCount":null,"sharedContent":null,"parent":{"__typename":"HnJson","localize":[{"title":"警方表示，尽管有禁令，但他们还是使用了面部识别。","locale":"zh"},{"title":"警方表示，儘管有禁令，但他們還是使用了面部識別。","locale":"zh-Hant"}]}},{"__typename":"SocialMediaPost","id":"HnPost-25955853","excerpt":"","slug":"/hn/25955853","title":"Shorting and Indian capital markets","date":"January 29, 2021","dateISO":"2021-01-29T13:15:58.696Z","datetime":"2021-01-29 13:15","tags":["story","Hacker News"],"image":null,"imageAlt":null,"provider":"Hacker News","thirdPartyId":"25955853","url":"https://news.ycombinator.com/item?id=25955853","originalUrl":"https://zerodha.com/z-connect/trending/shorting-and-indian-capital-markets","imageRemote":"https://zerodha.com/z-connect/wp-content/uploads/2021/01/Shorting-Indian-capital-markets-ZConnect.png","video":null,"channel":null,"channelUrl":null,"author":"chedine","authorUrl":"https://news.ycombinator.com/user?id=chedine","authorImage":null,"authorSlug":null,"score":225,"views":null,"sharedCount":null,"likeCount":null,"sharedContent":null,"parent":{"__typename":"HnJson","localize":[{"title":"做空和印度资本市场","locale":"zh"},{"title":"做空和印度資本市場","locale":"zh-Hant"}]}},{"__typename":"SocialMediaPost","id":"HnPost-25955216","excerpt":"","slug":"/hn/25955216","title":"Google Deleted over 100k Negative Robinhood Reviews","date":"January 29, 2021","dateISO":"2021-01-29T10:16:49.114Z","datetime":"2021-01-29 10:16","tags":["story","Hacker News"],"image":null,"imageAlt":null,"provider":"Hacker News","thirdPartyId":"25955216","url":"https://news.ycombinator.com/item?id=25955216","originalUrl":"https://www.reddit.com/r/wallstreetbets/comments/l7bh1m/not_sure_if_anyone_posted_this_here_but_yikes/","imageRemote":"https://preview.redd.it/76bcnhs2k5e61.jpg?auto=webp&s=dfd8b1d7a14ce5525b2fe3121957b73773934ed1","video":null,"channel":null,"channelUrl":null,"author":"JacKTrocinskI","authorUrl":"https://news.ycombinator.com/user?id=JacKTrocinskI","authorImage":null,"authorSlug":null,"score":251,"views":null,"sharedCount":null,"likeCount":null,"sharedContent":null,"parent":{"__typename":"HnJson","localize":[{"title":"谷歌删除了超过10万条罗宾汉的负面评论。","locale":"zh"},{"title":"谷歌刪除了超過10萬條羅賓漢的負面評論。","locale":"zh-Hant"}]}},{"__typename":"SocialMediaPost","id":"HnPost-25952300","excerpt":"","slug":"/hn/25952300","title":"Suck It, Wall Street","date":"January 29, 2021","dateISO":"2021-01-29T08:59:08.357Z","datetime":"2021-01-29 08:59","tags":["story","Hacker News"],"image":null,"imageAlt":null,"provider":"Hacker News","thirdPartyId":"25952300","url":"https://news.ycombinator.com/item?id=25952300","originalUrl":"https://taibbi.substack.com/p/suck-it-wall-street","imageRemote":"https://cdn.substack.com/image/fetch/h_600,c_limit,f_auto,q_auto:good,fl_progressive:steep/https%3A%2F%2Fbucketeer-e05bbc84-baa3-437e-9518-adb32be77984.s3.amazonaws.com%2Fpublic%2Fimages%2F6ed7d5e7-5253-4794-bd7a-c00cf1b87d4e_1894x1250.png","video":null,"channel":null,"channelUrl":null,"author":"undefined1","authorUrl":"https://news.ycombinator.com/user?id=undefined1","authorImage":null,"authorSlug":null,"score":268,"views":null,"sharedCount":null,"likeCount":null,"sharedContent":null,"parent":{"__typename":"HnJson","localize":[{"title":"去死吧，华尔街","locale":"zh"},{"title":"去死吧，華爾街","locale":"zh-Hant"}]}},{"__typename":"SocialMediaPost","id":"HnPost-25954539","excerpt":"","slug":"/hn/25954539","title":"Robinhood, in Need of Cash, Raises $1B from Its Investors","date":"January 29, 2021","dateISO":"2021-01-29T07:58:01.521Z","datetime":"2021-01-29 07:58","tags":["story","Hacker News"],"image":null,"imageAlt":null,"provider":"Hacker News","thirdPartyId":"25954539","url":"https://news.ycombinator.com/item?id=25954539","originalUrl":"https://www.nytimes.com/2021/01/29/technology/robinhood-fundraising.html","imageRemote":"https://static01.nyt.com/images/2021/01/28/multimedia/28-robinhood-funds-2/28-robinhood-funds-2-facebookJumbo.jpg","video":null,"channel":null,"channelUrl":null,"author":"coloneltcb","authorUrl":"https://news.ycombinator.com/user?id=coloneltcb","authorImage":null,"authorSlug":null,"score":640,"views":null,"sharedCount":null,"likeCount":null,"sharedContent":null,"parent":{"__typename":"HnJson","localize":[{"title":"需要现金的Robinhood从投资人那里筹集了10亿美元的资金","locale":"zh"},{"title":"需要現金的Robinhood從投資人那裏籌集了10億美元的資金","locale":"zh-Hant"}]}},{"__typename":"SocialMediaPost","id":"HnPost-25934286","excerpt":"","slug":"/hn/25934286","title":"Opening Up the Samsung Q60 Series Smart TV (2019)","date":"January 29, 2021","dateISO":"2021-01-29T06:59:05.087Z","datetime":"2021-01-29 06:59","tags":["story","Hacker News"],"image":null,"imageAlt":null,"provider":"Hacker News","thirdPartyId":"25934286","url":"https://news.ycombinator.com/item?id=25934286","originalUrl":"https://labs.f-secure.com/blog/samsung-q60r-smart-tv-opening-up-the-samsung-q60-series-smart-tv/","imageRemote":null,"video":null,"channel":null,"channelUrl":null,"author":"wglb","authorUrl":"https://news.ycombinator.com/user?id=wglb","authorImage":null,"authorSlug":null,"score":165,"views":null,"sharedCount":null,"likeCount":null,"sharedContent":null,"parent":{"__typename":"HnJson","localize":[{"title":"打开三星Q60系列智能电视(2019年)","locale":"zh"},{"title":"打開三星Q60系列智能電視(2019年)","locale":"zh-Hant"}]}},{"__typename":"SocialMediaPost","id":"HnPost-25945397","excerpt":"","slug":"/hn/25945397","title":"A recent poll of employees who are working remotely","date":"January 29, 2021","dateISO":"2021-01-29T06:59:05.087Z","datetime":"2021-01-29 06:59","tags":["story","Hacker News"],"image":null,"imageAlt":null,"provider":"Hacker News","thirdPartyId":"25945397","url":"https://news.ycombinator.com/item?id=25945397","originalUrl":"https://today.yougov.com/topics/economy/articles-reports/2021/01/19/remote-employees-work-from-home-poll","imageRemote":"https://d18lkz4dllo6v2.cloudfront.net/cumulus_uploads/entry/33739/work_from_home_2021_poll_survey_data.jpg?pw=1200","video":null,"channel":null,"channelUrl":null,"author":"Simon_M","authorUrl":"https://news.ycombinator.com/user?id=Simon_M","authorImage":null,"authorSlug":null,"score":166,"views":null,"sharedCount":null,"likeCount":null,"sharedContent":null,"parent":{"__typename":"HnJson","localize":[{"title":"最近对远程工作的员工进行了一项调查。","locale":"zh"},{"title":"最近對遠程工作的員工進行了一項調查。","locale":"zh-Hant"}]}},{"__typename":"SocialMediaPost","id":"HnPost-25953668","excerpt":"","slug":"/hn/25953668","title":"A Look at iMessage in iOS 14","date":"January 29, 2021","dateISO":"2021-01-29T06:31:49.932Z","datetime":"2021-01-29 06:31","tags":["story","Hacker News"],"image":null,"imageAlt":null,"provider":"Hacker News","thirdPartyId":"25953668","url":"https://news.ycombinator.com/item?id=25953668","originalUrl":"https://googleprojectzero.blogspot.com/2021/01/a-look-at-imessage-in-ios-14.html","imageRemote":"https://1.bp.blogspot.com/-x-zo-b-w89w/YBCYLpT52pI/AAAAAAAAasA/wy9SBgIYdfImsv3Y6VAO4qmQczmHFEI9gCNcBGAsYHQ/w1200-h630-p-k-no-nu/image1.png","video":null,"channel":null,"channelUrl":null,"author":"kccqzy","authorUrl":"https://news.ycombinator.com/user?id=kccqzy","authorImage":null,"authorSlug":null,"score":528,"views":null,"sharedCount":null,"likeCount":null,"sharedContent":null,"parent":{"__typename":"HnJson","localize":[{"title":"看看iOS 14中的iMessage","locale":"zh"},{"title":"看看iOS 14中的iMessage","locale":"zh-Hant"}]}},{"__typename":"SocialMediaPost","id":"HnPost-25944866","excerpt":"","slug":"/hn/25944866","title":"What am I running inside my bash? (2014)","date":"January 29, 2021","dateISO":"2021-01-29T05:32:46.442Z","datetime":"2021-01-29 05:32","tags":["story","Hacker News"],"image":null,"imageAlt":null,"provider":"Hacker News","thirdPartyId":"25944866","url":"https://news.ycombinator.com/item?id=25944866","originalUrl":"https://www.thanassis.space/bashheimer.html","imageRemote":"https://www.thanassis.space/spreddit7.gif","video":null,"channel":null,"channelUrl":null,"author":"pimterry","authorUrl":"https://news.ycombinator.com/user?id=pimterry","authorImage":null,"authorSlug":null,"score":201,"views":null,"sharedCount":null,"likeCount":null,"sharedContent":null,"parent":{"__typename":"HnJson","localize":[{"title":"我的巴什里面在跑什么？(2014)","locale":"zh"},{"title":"我的巴什裏面在跑什麼？(2014)","locale":"zh-Hant"}]}},{"__typename":"SocialMediaPost","id":"HnPost-25953538","excerpt":"","slug":"/hn/25953538","title":"Google Deletes Nearly 100k Negative Reviews of Robinhood App","date":"January 29, 2021","dateISO":"2021-01-29T05:32:46.442Z","datetime":"2021-01-29 05:32","tags":["story","Hacker News"],"image":null,"imageAlt":null,"provider":"Hacker News","thirdPartyId":"25953538","url":"https://news.ycombinator.com/item?id=25953538","originalUrl":"https://www.theverge.com/2021/1/28/22255245/google-deleting-bad-robinhood-reviews-play-store","imageRemote":"https://cdn.vox-cdn.com/thumbor/7snoOAkQdpWMLTA2kU2m8j2e7K8=/0x251:3500x2083/fit-in/1200x630/cdn.vox-cdn.com/uploads/chorus_asset/file/22266937/1073282662.jpg","video":null,"channel":null,"channelUrl":null,"author":"exabrial","authorUrl":"https://news.ycombinator.com/user?id=exabrial","authorImage":null,"authorSlug":null,"score":244,"views":null,"sharedCount":null,"likeCount":null,"sharedContent":null,"parent":{"__typename":"HnJson","localize":[{"title":"谷歌删除近10万条Robinhood应用的负面评论","locale":"zh"},{"title":"谷歌刪除近10萬條Robinhood應用的負面評論","locale":"zh-Hant"}]}},{"__typename":"SocialMediaPost","id":"HnPost-25944236","excerpt":"","slug":"/hn/25944236","title":"How to Be Clear","date":"January 29, 2021","dateISO":"2021-01-29T05:02:54.725Z","datetime":"2021-01-29 05:02","tags":["story","Hacker News"],"image":null,"imageAlt":null,"provider":"Hacker News","thirdPartyId":"25944236","url":"https://news.ycombinator.com/item?id=25944236","originalUrl":"https://gilest.org/2021/how-to-be-clear/","imageRemote":"https://gilest.org/wp-content/uploads/2021/01/close-the-sharps-bin-1024x707.jpg","video":null,"channel":null,"channelUrl":null,"author":"hypomnemata","authorUrl":"https://news.ycombinator.com/user?id=hypomnemata","authorImage":null,"authorSlug":null,"score":195,"views":null,"sharedCount":null,"likeCount":null,"sharedContent":null,"parent":{"__typename":"HnJson","localize":[{"title":"如何明确","locale":"zh"},{"title":"如何明確","locale":"zh-Hant"}]}},{"__typename":"SocialMediaPost","id":"HnPost-25950487","excerpt":"","slug":"/hn/25950487","title":"Open Source Mission Control Software from NASA","date":"January 29, 2021","dateISO":"2021-01-29T05:02:54.725Z","datetime":"2021-01-29 05:02","tags":["story","Hacker News"],"image":null,"imageAlt":null,"provider":"Hacker News","thirdPartyId":"25950487","url":"https://news.ycombinator.com/item?id=25950487","originalUrl":"https://nasa.github.io/openmct/","imageRemote":"https://nasa.github.io/openmct/static/res/images/logo-NASA-Silicon-Valley.png","video":null,"channel":null,"channelUrl":null,"author":"banastas","authorUrl":"https://news.ycombinator.com/user?id=banastas","authorImage":null,"authorSlug":null,"score":306,"views":null,"sharedCount":null,"likeCount":null,"sharedContent":null,"parent":{"__typename":"HnJson","localize":[{"title":"美国宇航局的开源任务控制软件","locale":"zh"},{"title":"美國宇航局的開源任務控制軟件","locale":"zh-Hant"}]}},{"__typename":"SocialMediaPost","id":"HnPost-25941765","excerpt":"","slug":"/hn/25941765","title":"Neural Geometric Level of Detail: Real-Time Rendering with Implicit 3D Surfaces","date":"January 29, 2021","dateISO":"2021-01-29T04:36:29.059Z","datetime":"2021-01-29 04:36","tags":["story","Hacker News"],"image":null,"imageAlt":null,"provider":"Hacker News","thirdPartyId":"25941765","url":"https://news.ycombinator.com/item?id=25941765","originalUrl":"https://nv-tlabs.github.io/nglod/","imageRemote":"https://nv-tlabs.github.io/nglod/assets/teaser_small.jpg","video":null,"channel":null,"channelUrl":null,"author":"ArtWomb","authorUrl":"https://news.ycombinator.com/user?id=ArtWomb","authorImage":null,"authorSlug":null,"score":171,"views":null,"sharedCount":null,"likeCount":null,"sharedContent":null,"parent":{"__typename":"HnJson","localize":[{"title":"神经几何级的细节。隐式3D曲面的实时渲染技术","locale":"zh"},{"title":"神經幾何級的細節。隱式3D曲面的實時渲染技術","locale":"zh-Hant"}]}},{"__typename":"SocialMediaPost","id":"HnPost-25944922","excerpt":"","slug":"/hn/25944922","title":"Shift to Remote Work Based on 7k HN Who Is Hiring Posts","date":"January 29, 2021","dateISO":"2021-01-29T04:36:29.059Z","datetime":"2021-01-29 04:36","tags":["story","Hacker News"],"image":null,"imageAlt":null,"provider":"Hacker News","thirdPartyId":"25944922","url":"https://news.ycombinator.com/item?id=25944922","originalUrl":"https://www.shinkim.io/posts/shift-to-remote-work-based-on-7-000-hacker-news-job-posts","imageRemote":"https://uploads-ssl.webflow.com/5e12757f0227d019c07ef2b9/6012ea3f8cbef21763452d88_jason-strull-KQ0C6WtEGlo-unsplash.jpg","video":null,"channel":null,"channelUrl":null,"author":"shinkim0914","authorUrl":"https://news.ycombinator.com/user?id=shinkim0914","authorImage":null,"authorSlug":null,"score":190,"views":null,"sharedCount":null,"likeCount":null,"sharedContent":null,"parent":{"__typename":"HnJson","localize":[{"title":"转为远程工作，基于7k HN谁在招聘岗位？","locale":"zh"},{"title":"轉爲遠程工作，基於7k HN誰在招聘崗位？","locale":"zh-Hant"}]}},{"__typename":"SocialMediaPost","id":"HnPost-25949784","excerpt":"","slug":"/hn/25949784","title":"OpenBSD on the Lenovo ThinkPad X1 Nano","date":"January 29, 2021","dateISO":"2021-01-29T04:36:29.059Z","datetime":"2021-01-29 04:36","tags":["story","Hacker News"],"image":null,"imageAlt":null,"provider":"Hacker News","thirdPartyId":"25949784","url":"https://news.ycombinator.com/item?id=25949784","originalUrl":"https://jcs.org/2021/01/27/x1nano","imageRemote":"https://jcs.org/images/2021-01-27-hero-1330x414@2x.jpg","video":null,"channel":null,"channelUrl":null,"author":"harporoeder","authorUrl":"https://news.ycombinator.com/user?id=harporoeder","authorImage":null,"authorSlug":null,"score":248,"views":null,"sharedCount":null,"likeCount":null,"sharedContent":null,"parent":{"__typename":"HnJson","localize":[{"title":"OpenBSD在联想ThinkPad X1 Nano上的应用。","locale":"zh"},{"title":"OpenBSD在聯想ThinkPad X1 Nano上的應用。","locale":"zh-Hant"}]}}]}},"pageContext":{"basePath":"/","pageType":"tag","tag":"story","tagsFilter":{"id":{"glob":"!*Post-1"}},"filter":{"id":{"glob":"!*Post-1"},"tags":{"eq":"story"}},"limit":25,"skip":1250,"total":2599,"totalPages":104,"currentPage":51,"maxWidth":1024,"maxHeight":512,"locale":"en","hrefLang":"en-US","originalPath":"/tags/story/page/51","dateFormat":"MM/DD/YYYY"}},"staticQueryHashes":["1239077767","2506312863","2744905544","3025052997","3493603132","3493603132","3513215887","386998304"]}