{"componentChunkName":"component---gatsby-theme-buzzing-src-gatsby-theme-timeline-templates-posts-query-js","path":"/zh-Hant/tags/show-hn/page/3","result":{"data":{"site":{"siteMetadata":{"title":"Reddit 热门","description":"用中文浏览Reddit热门内容","social":[{"name":"Twitter","url":"https://twitter.com/gatsbyjs","external":null,"prefetch":null},{"name":"GitHub","url":"https://github.com/gatsbyjs","external":null,"prefetch":null}],"menuLinks":[],"localize":[{"locale":"en","title":"Buzzing on Reddit","description":"See what's buzzing on Reddit in your native language","social":[{"name":"Reddit","url":"https://www.reddit.com/","external":true,"prefetch":null}],"menuLinks":[{"name":"Weekly Selection","url":"/issues","external":null,"prefetch":null},{"name":"RSS","url":"/rss.xml","external":null,"prefetch":false}]},{"locale":"zh-Hant","title":"Reddit 熱門","description":"用中文瀏覽Reddit熱門內容","social":null,"menuLinks":null}]}},"tagsGroup":{"group":[{"fieldValue":"ASK HN","totalCount":44},{"fieldValue":"Bitcoin","totalCount":4},{"fieldValue":"Hacker News","totalCount":2600},{"fieldValue":"Poll","totalCount":1},{"fieldValue":"SaveAMC","totalCount":1},{"fieldValue":"Show HN","totalCount":89},{"fieldValue":"bitcoin","totalCount":3},{"fieldValue":"investing","totalCount":797},{"fieldValue":"poll","totalCount":1},{"fieldValue":"reddit","totalCount":4938},{"fieldValue":"science","totalCount":1},{"fieldValue":"stocks","totalCount":1592},{"fieldValue":"story","totalCount":2599},{"fieldValue":"tweet","totalCount":814},{"fieldValue":"wallstreetbets","totalCount":2549}]},"allBlogPost":{"nodes":[{"__typename":"SocialMediaPost","id":"HnPost-25848278","excerpt":"","slug":"/hn/25848278","title":"Show HN: Beeper – All Your Chats in One App","date":"January 20, 2021","dateISO":"2021-01-20T19:49:31.541Z","datetime":"2021-01-20 19:49","tags":["story","Show HN","Hacker News"],"image":null,"imageAlt":null,"provider":"Hacker News","thirdPartyId":"25848278","url":"https://news.ycombinator.com/item?id=25848278","originalUrl":"https://www.beeperhq.com/?hn","imageRemote":"https://uploads-ssl.webflow.com/5ffc199ed786423eb2569667/60085426880a0ada43c6f2b7_opengraph.png","video":null,"channel":"Show HN","channelUrl":"https://news.ycombinator.com/show","author":"erohead","authorUrl":"https://news.ycombinator.com/user?id=erohead","authorImage":null,"authorSlug":null,"score":877,"views":null,"sharedCount":null,"likeCount":null,"sharedContent":null,"parent":{"__typename":"HnJson","localize":[{"title":"","locale":"zh"},{"title":"","locale":"zh-Hant"}]}},{"__typename":"SocialMediaPost","id":"HnPost-25846347","excerpt":"","slug":"/hn/25846347","title":"Show HN: I built an online interactive course that helps you learn vim faster","date":"January 20, 2021","dateISO":"2021-01-20T16:32:56.458Z","datetime":"2021-01-20 16:32","tags":["story","Show HN","Hacker News"],"image":null,"imageAlt":null,"provider":"Hacker News","thirdPartyId":"25846347","url":"https://news.ycombinator.com/item?id=25846347","originalUrl":"https://www.vim.so","imageRemote":"https://www.vim.so/meta_image.png","video":null,"channel":"Show HN","channelUrl":"https://news.ycombinator.com/show","author":"CoffeePython","authorUrl":"https://news.ycombinator.com/user?id=CoffeePython","authorImage":null,"authorSlug":null,"score":641,"views":null,"sharedCount":null,"likeCount":null,"sharedContent":null,"parent":{"__typename":"HnJson","localize":[{"title":"HN新产品：我建立了一个在线互动课程，帮助你更快地学习vim。","locale":"zh"},{"title":"HN新產品：我建立了一個在線互動課程，幫助你更快地學習vim。","locale":"zh-Hant"}]}},{"__typename":"SocialMediaPost","id":"HnPost-25836395","excerpt":"","slug":"/hn/25836395","title":"Show HN: Virtual breadboard in the browser, inspired by Ben Eater's 6502","date":"January 20, 2021","dateISO":"2021-01-20T01:52:29.536Z","datetime":"2021-01-20 01:52","tags":["story","Show HN","Hacker News"],"image":null,"imageAlt":null,"provider":"Hacker News","thirdPartyId":"25836395","url":"https://news.ycombinator.com/item?id=25836395","originalUrl":"https://www.tejotron.com/","imageRemote":null,"video":null,"channel":"Show HN","channelUrl":"https://news.ycombinator.com/show","author":"Tejotron","authorUrl":"https://news.ycombinator.com/user?id=Tejotron","authorImage":null,"authorSlug":null,"score":401,"views":null,"sharedCount":null,"likeCount":null,"sharedContent":null,"parent":{"__typename":"HnJson","localize":[{"title":"HN新产品：浏览器中的虚拟面包板，灵感来自Ben Eater的6502。","locale":"zh"},{"title":"HN新產品：瀏覽器中的虛擬麪包板，靈感來自Ben Eater的6502。","locale":"zh-Hant"}]}},{"__typename":"SocialMediaPost","id":"HnPost-25821873","excerpt":"","slug":"/hn/25821873","title":"Show HN: Compare prices that US hospitals charge patients and insurance co's","date":"January 18, 2021","dateISO":"2021-01-18T17:54:28.793Z","datetime":"2021-01-18 17:54","tags":["story","Show HN","Hacker News"],"image":null,"imageAlt":null,"provider":"Hacker News","thirdPartyId":"25821873","url":"https://news.ycombinator.com/item?id=25821873","originalUrl":"https://turquoise.health/","imageRemote":"https://turquoise.health/static/images/logo.4d5f83c2f008.svg","video":null,"channel":"Show HN","channelUrl":"https://news.ycombinator.com/show","author":"ageitgey","authorUrl":"https://news.ycombinator.com/user?id=ageitgey","authorImage":null,"authorSlug":null,"score":445,"views":null,"sharedCount":null,"likeCount":null,"sharedContent":null,"parent":{"__typename":"HnJson","localize":[{"title":"HN新产品： 比较美国医院对患者和保险公司的收费价格。","locale":"zh"},{"title":"HN新產品： 比較美國醫院對患者和保險公司的收費價格。","locale":"zh-Hant"}]}},{"__typename":"SocialMediaPost","id":"HnPost-25786640","excerpt":"","slug":"/hn/25786640","title":"Show HN: Vmctl/Vmcli – Easily Run Linux VMs on M1 Macs","date":"January 17, 2021","dateISO":"2021-01-17T05:14:39.170Z","datetime":"2021-01-17 05:14","tags":["story","Show HN","Hacker News"],"image":null,"imageAlt":null,"provider":"Hacker News","thirdPartyId":"25786640","url":"https://news.ycombinator.com/item?id=25786640","originalUrl":"https://github.com/gyf304/vmcli","imageRemote":"https://avatars0.githubusercontent.com/u/7296537?s=400&v=4","video":null,"channel":"Show HN","channelUrl":"https://news.ycombinator.com/show","author":"gyf304","authorUrl":"https://news.ycombinator.com/user?id=gyf304","authorImage":null,"authorSlug":null,"score":198,"views":null,"sharedCount":null,"likeCount":null,"sharedContent":null,"parent":{"__typename":"HnJson","localize":[{"title":"HN新产品： Vmctl/Vmcli - 在M1 Mac上轻松运行Linux虚拟机。","locale":"zh"},{"title":"HN新產品： Vmctl/Vmcli - 在M1 Mac上輕鬆運行Linux虛擬機。","locale":"zh-Hant"}]}},{"__typename":"SocialMediaPost","id":"HnPost-25750807","excerpt":"","slug":"/hn/25750807","title":"Show HN: Vantage – An alternative AWS console focused on developer experience","date":"January 13, 2021","dateISO":"2021-01-13T09:58:11.490Z","datetime":"2021-01-13 09:58","tags":["story","Show HN","Hacker News"],"image":null,"imageAlt":null,"provider":"Hacker News","thirdPartyId":"25750807","url":"https://news.ycombinator.com/item?id=25750807","originalUrl":"https://www.vantage.sh/","imageRemote":"https://uploads-ssl.webflow.com/5f9ba05ba40d6414f341df34/5ffce71e4734200665f6f876_Vantage.svg","video":null,"channel":"Show HN","channelUrl":"https://news.ycombinator.com/show","author":"StratusBen","authorUrl":"https://news.ycombinator.com/user?id=StratusBen","authorImage":null,"authorSlug":null,"score":221,"views":null,"sharedCount":null,"likeCount":null,"sharedContent":null,"parent":{"__typename":"HnJson","localize":[{"title":"HN新产品：Vantage - 一个专注于开发者体验的替代性AWS控制台。","locale":"zh"},{"title":"HN新產品：Vantage - 一個專注於開發者體驗的替代性AWS控制檯。","locale":"zh-Hant"}]}},{"__typename":"SocialMediaPost","id":"HnPost-25749492","excerpt":"","slug":"/hn/25749492","title":"Show HN: Amplication – Instantly Generate Node.js Apps with GraphQL and REST API","date":"January 13, 2021","dateISO":"2021-01-13T01:55:07.168Z","datetime":"2021-01-13 01:55","tags":["story","Show HN","Hacker News"],"image":null,"imageAlt":null,"provider":"Hacker News","thirdPartyId":"25749492","url":"https://news.ycombinator.com/item?id=25749492","originalUrl":"https://github.com/amplication/amplication","imageRemote":"https://repository-images.githubusercontent.com/262862475/89475900-2730-11eb-8f1f-bdb1b9648403","video":null,"channel":"Show HN","channelUrl":"https://news.ycombinator.com/show","author":"yuvalhazaz","authorUrl":"https://news.ycombinator.com/user?id=yuvalhazaz","authorImage":null,"authorSlug":null,"score":270,"views":null,"sharedCount":null,"likeCount":null,"sharedContent":null,"parent":{"__typename":"HnJson","localize":[{"title":"HN新产品：Amplication - 使用GraphQL和REST API即时生成Node.js应用。","locale":"zh"},{"title":"HN新產品：Amplication - 使用GraphQL和REST API即時生成Node.js應用。","locale":"zh-Hant"}]}},{"__typename":"SocialMediaPost","id":"HnPost-25713858","excerpt":"","slug":"/hn/25713858","title":"Show HN: Using flamegraphs to read big HN threads","date":"January 11, 2021","dateISO":"2021-01-11T14:46:22.997Z","datetime":"2021-01-11 14:46","tags":["story","Show HN","Hacker News"],"image":null,"imageAlt":null,"provider":"Hacker News","thirdPartyId":"25713858","url":"https://news.ycombinator.com/item?id=25713858","originalUrl":"https://trungdq88.github.io/hn-big-threads/index.html","imageRemote":null,"video":null,"channel":"Show HN","channelUrl":"https://news.ycombinator.com/show","author":"trungdq88","authorUrl":"https://news.ycombinator.com/user?id=trungdq88","authorImage":null,"authorSlug":null,"score":247,"views":null,"sharedCount":null,"likeCount":null,"sharedContent":null,"parent":{"__typename":"HnJson","localize":[{"title":"HN新产品：使用火焰记录仪读取大型HN线程","locale":"zh"},{"title":"HN新產品：使用火焰記錄儀讀取大型HN線程","locale":"zh-Hant"}]}},{"__typename":"SocialMediaPost","id":"HnPost-25677272","excerpt":"","slug":"/hn/25677272","title":"Show HN: I built a 4kb alternative to React, Vue, etc for building web UIs.","date":"January 08, 2021","dateISO":"2021-01-08T07:14:36.254Z","datetime":"2021-01-08 07:14","tags":["story","Show HN","Hacker News"],"image":null,"imageAlt":null,"provider":"Hacker News","thirdPartyId":"25677272","url":"https://news.ycombinator.com/item?id=25677272","originalUrl":"https://synergyjs.org","imageRemote":null,"video":null,"channel":"Show HN","channelUrl":"https://news.ycombinator.com/show","author":"defx","authorUrl":"https://news.ycombinator.com/user?id=defx","authorImage":null,"authorSlug":null,"score":341,"views":null,"sharedCount":null,"likeCount":null,"sharedContent":null,"parent":{"__typename":"HnJson","localize":[{"title":"HN新产品：我构建了一个4KB的替代方案来构建WebUI，用于Reaction、Vue等。","locale":"zh"},{"title":"HN新產品：我構建了一個4KB的替代方案來構建WebUI，用於Reaction、Vue等。","locale":"zh-Hant"}]}},{"__typename":"SocialMediaPost","id":"HnPost-25657198","excerpt":"","slug":"/hn/25657198","title":"Show HN: I built the antithesis of Zoom. Add GIFs, stickers, BGs. Talk like IRL","date":"January 06, 2021","dateISO":"2021-01-06T23:07:35.029Z","datetime":"2021-01-06 23:07","tags":["story","Show HN","Hacker News"],"image":null,"imageAlt":null,"provider":"Hacker News","thirdPartyId":"25657198","url":"https://news.ycombinator.com/item?id=25657198","originalUrl":"https://reslash.co","imageRemote":"https://lh3.googleusercontent.com/PqDSh8jsRBkIXSVia7c2ApjQe8H-NqMZUH_g-GDw-U4phh5Ce3lSOIiVWMZarby8BItOmiqU1sxKAevJtiRX=s0","video":null,"channel":"Show HN","channelUrl":"https://news.ycombinator.com/show","author":"remotelyyours","authorUrl":"https://news.ycombinator.com/user?id=remotelyyours","authorImage":null,"authorSlug":null,"score":262,"views":null,"sharedCount":null,"likeCount":null,"sharedContent":null,"parent":{"__typename":"HnJson","localize":[{"title":"HN新产品：我建立了缩放的对立面。添加GIF、贴纸、BGS。像现实中的我那样说话","locale":"zh"},{"title":"HN新產品：我建立了縮放的對立面。添加GIF、貼紙、BGS。像現實中的我那樣說話","locale":"zh-Hant"}]}},{"__typename":"SocialMediaPost","id":"HnPost-25627673","excerpt":"","slug":"/hn/25627673","title":"Show HN: Lightspeed – subsecond, open source, self hosted stream from OBS","date":"January 06, 2021","dateISO":"2021-01-06T09:56:27.782Z","datetime":"2021-01-06 09:56","tags":["story","Show HN","Hacker News"],"image":null,"imageAlt":null,"provider":"Hacker News","thirdPartyId":"25627673","url":"https://news.ycombinator.com/item?id=25627673","originalUrl":"https://github.com/GRVYDEV/Project-Lightspeed","imageRemote":"https://avatars1.githubusercontent.com/u/35381942?s=400&v=4","video":null,"channel":"Show HN","channelUrl":"https://news.ycombinator.com/show","author":"GRVYDEV","authorUrl":"https://news.ycombinator.com/user?id=GRVYDEV","authorImage":null,"authorSlug":null,"score":449,"views":null,"sharedCount":null,"likeCount":null,"sharedContent":null,"parent":{"__typename":"HnJson","localize":[{"title":"HN新产品：光速-亚秒级、开源、来自OBS的自托管流","locale":"zh"},{"title":"HN新產品：光速-亞秒級、開源、來自OBS的自託管流","locale":"zh-Hant"}]}},{"__typename":"SocialMediaPost","id":"HnPost-25644828","excerpt":"","slug":"/hn/25644828","title":"Show HN: Unclack – a macOS app that auto-mutes your keyboard","date":"January 05, 2021","dateISO":"2021-01-05T18:12:16.890Z","datetime":"2021-01-05 18:12","tags":["story","Show HN","Hacker News"],"image":null,"imageAlt":null,"provider":"Hacker News","thirdPartyId":"25644828","url":"https://news.ycombinator.com/item?id=25644828","originalUrl":"https://unclack.app","imageRemote":"https://unclack.app/images/logo.png","video":null,"channel":"Show HN","channelUrl":"https://news.ycombinator.com/show","author":"robotsquidward","authorUrl":"https://news.ycombinator.com/user?id=robotsquidward","authorImage":null,"authorSlug":null,"score":277,"views":null,"sharedCount":null,"likeCount":null,"sharedContent":null,"parent":{"__typename":"HnJson","localize":[{"title":"HN新产品：Unclack-一款MacOS应用程序，可以自动将键盘静音","locale":"zh"},{"title":"HN新產品：Unclack-一款MacOS應用程序，可以自動將鍵盤靜音","locale":"zh-Hant"}]}},{"__typename":"SocialMediaPost","id":"HnPost-25641420","excerpt":"","slug":"/hn/25641420","title":"Show HN: Handel – A procedural programming language for writing songs in browser","date":"January 05, 2021","dateISO":"2021-01-05T17:09:01.959Z","datetime":"2021-01-05 17:09","tags":["story","Show HN","Hacker News"],"image":null,"imageAlt":null,"provider":"Hacker News","thirdPartyId":"25641420","url":"https://news.ycombinator.com/item?id=25641420","originalUrl":"https://handel-pl.github.io","imageRemote":null,"video":null,"channel":"Show HN","channelUrl":"https://news.ycombinator.com/show","author":"ddj231","authorUrl":"https://news.ycombinator.com/user?id=ddj231","authorImage":null,"authorSlug":null,"score":186,"views":null,"sharedCount":null,"likeCount":null,"sharedContent":null,"parent":{"__typename":"HnJson","localize":[{"title":"HN新产品：HANDELL-一种在浏览器中编写歌曲的过程化编程语言","locale":"zh"},{"title":"HN新產品：HANDELL-一種在瀏覽器中編寫歌曲的過程化編程語言","locale":"zh-Hant"}]}},{"__typename":"SocialMediaPost","id":"HnPost-25634192","excerpt":"","slug":"/hn/25634192","title":"Show HN: I made an alternative platform for professional profiles","date":"January 04, 2021","dateISO":"2021-01-04T21:39:58.090Z","datetime":"2021-01-04 21:39","tags":["story","Show HN","Hacker News"],"image":null,"imageAlt":null,"provider":"Hacker News","thirdPartyId":"25634192","url":"https://news.ycombinator.com/item?id=25634192","originalUrl":"https://read.cv","imageRemote":"https://read.cv/og-image.png","video":null,"channel":"Show HN","channelUrl":"https://news.ycombinator.com/show","author":"_andychung","authorUrl":"https://news.ycombinator.com/user?id=_andychung","authorImage":null,"authorSlug":null,"score":930,"views":null,"sharedCount":null,"likeCount":null,"sharedContent":null,"parent":{"__typename":"HnJson","localize":[{"title":"HN新产品：我做了一个职业简介的替代平台","locale":"zh"},{"title":"HN新產品：我做了一個職業簡介的替代平臺","locale":"zh-Hant"}]}},{"__typename":"SocialMediaPost","id":"HnPost-25624718","excerpt":"","slug":"/hn/25624718","title":"Show HN: Pluto – macOS system monitor app","date":"January 04, 2021","dateISO":"2021-01-04T13:52:43.815Z","datetime":"2021-01-04 13:52","tags":["story","Show HN","Hacker News"],"image":null,"imageAlt":null,"provider":"Hacker News","thirdPartyId":"25624718","url":"https://news.ycombinator.com/item?id=25624718","originalUrl":"https://apps.apple.com/us/app/pluto-hud/id1544577573?mt=12","imageRemote":"https://is3-ssl.mzstatic.com/image/thumb/Purple124/v4/c1/c7/c4/c1c7c47f-07eb-66b3-9765-c508058fe4c4/AppIcon-85-220-4-2x.png/1200x630bb.png","video":null,"channel":"Show HN","channelUrl":"https://news.ycombinator.com/show","author":"lupinglade","authorUrl":"https://news.ycombinator.com/user?id=lupinglade","authorImage":null,"authorSlug":null,"score":158,"views":null,"sharedCount":null,"likeCount":null,"sharedContent":null,"parent":{"__typename":"HnJson","localize":[{"title":"HN新产品：冥王星-MacOS系统监控APP","locale":"zh"},{"title":"HN新產品：冥王星-MacOS系統監控APP","locale":"zh-Hant"}]}},{"__typename":"SocialMediaPost","id":"HnPost-25622095","excerpt":"","slug":"/hn/25622095","title":"Show HN: OpenScan – open-source document scanner app","date":"January 04, 2021","dateISO":"2021-01-04T01:32:35.034Z","datetime":"2021-01-04 01:32","tags":["story","Show HN","Hacker News"],"image":null,"imageAlt":null,"provider":"Hacker News","thirdPartyId":"25622095","url":"https://news.ycombinator.com/item?id=25622095","originalUrl":"https://github.com/Ethereal-Developers-Inc/OpenScan","imageRemote":"https://avatars2.githubusercontent.com/u/68118808?s=400&v=4","video":null,"channel":"Show HN","channelUrl":"https://news.ycombinator.com/show","author":"mighty3xodus","authorUrl":"https://news.ycombinator.com/user?id=mighty3xodus","authorImage":null,"authorSlug":null,"score":200,"views":null,"sharedCount":null,"likeCount":null,"sharedContent":null,"parent":{"__typename":"HnJson","localize":[{"title":"HN新产品：openScan-开源文档扫描仪应用","locale":"zh"},{"title":"HN新產品：openScan-開源文檔掃描儀應用","locale":"zh-Hant"}]}},{"__typename":"SocialMediaPost","id":"HnPost-25614167","excerpt":"","slug":"/hn/25614167","title":"Show HN: I shot high-res stitched panoramas in Iceland using a thermal camera","date":"January 02, 2021","dateISO":"2021-01-02T19:14:54.465Z","datetime":"2021-01-02 19:14","tags":["story","Show HN","Hacker News"],"image":null,"imageAlt":null,"provider":"Hacker News","thirdPartyId":"25614167","url":"https://news.ycombinator.com/item?id=25614167","originalUrl":"https://petapixel.com/2019/07/13/shooting-high-res-thermal-photos-of-iceland-to-show-nature-at-work/?q=5","imageRemote":"https://petapixel.com/assets/uploads/2019/07/icelandthermalfeattt.jpg","video":null,"channel":"Show HN","channelUrl":"https://news.ycombinator.com/show","author":"dheera","authorUrl":"https://news.ycombinator.com/user?id=dheera","authorImage":null,"authorSlug":null,"score":747,"views":null,"sharedCount":null,"likeCount":null,"sharedContent":null,"parent":{"__typename":"HnJson","localize":[{"title":"HN新产品：我在冰岛用热像仪拍摄了高分辨率的缝合全景","locale":"zh"},{"title":"HN新產品：我在冰島用熱像儀拍攝了高分辨率的縫合全景","locale":"zh-Hant"}]}},{"__typename":"SocialMediaPost","id":"HnPost-25573523","excerpt":"","slug":"/hn/25573523","title":"Show HN: The Agora – an experimental social network","date":"December 31, 2020","dateISO":"2020-12-31T11:07:27.942Z","datetime":"2020-12-31 11:07","tags":["story","Show HN","Hacker News"],"image":null,"imageAlt":null,"provider":"Hacker News","thirdPartyId":"25573523","url":"https://news.ycombinator.com/item?id=25573523","originalUrl":"http://anagora.org/node/agora","imageRemote":"https://anagora.org/static/img/agora.png","video":null,"channel":"Show HN","channelUrl":"https://news.ycombinator.com/show","author":"flancian","authorUrl":"https://news.ycombinator.com/user?id=flancian","authorImage":null,"authorSlug":null,"score":157,"views":null,"sharedCount":null,"likeCount":null,"sharedContent":null,"parent":{"__typename":"HnJson","localize":[{"title":"HN新产品：农庄-一个实验性的社交网络","locale":"zh"},{"title":"HN新產品：農莊-一個實驗性的社交網絡","locale":"zh-Hant"}]}},{"__typename":"SocialMediaPost","id":"HnPost-25582187","excerpt":"","slug":"/hn/25582187","title":"Show HN: PSX Party – Online Multiplayer Playstation 1 Emulator Using WebRTC","date":"December 30, 2020","dateISO":"2020-12-30T16:56:26.186Z","datetime":"2020-12-30 16:56","tags":["story","Show HN","Hacker News"],"image":null,"imageAlt":null,"provider":"Hacker News","thirdPartyId":"25582187","url":"https://news.ycombinator.com/item?id=25582187","originalUrl":"https://psxparty.kosmi.io/?ref=hn1","imageRemote":null,"video":null,"channel":"Show HN","channelUrl":"https://news.ycombinator.com/show","author":"hauxir","authorUrl":"https://news.ycombinator.com/user?id=hauxir","authorImage":null,"authorSlug":null,"score":655,"views":null,"sharedCount":null,"likeCount":null,"sharedContent":null,"parent":{"__typename":"HnJson","localize":[{"title":"HN新产品：PSXParty-使用WebRTC的在线多人PlayStation1仿真器","locale":"zh"},{"title":"HN新產品：PSXParty-使用WebRTC的在線多人PlayStation1仿真器","locale":"zh-Hant"}]}},{"__typename":"SocialMediaPost","id":"HnPost-25568668","excerpt":"","slug":"/hn/25568668","title":"Show HN: LinkAce – Your self-hosted, FOSS bookmark archive","date":"December 29, 2020","dateISO":"2020-12-29T20:04:37.555Z","datetime":"2020-12-29 20:04","tags":["story","Show HN","Hacker News"],"image":null,"imageAlt":null,"provider":"Hacker News","thirdPartyId":"25568668","url":"https://news.ycombinator.com/item?id=25568668","originalUrl":"https://www.linkace.org/","imageRemote":"https://www.linkace.org/images/linkace-social.jpg","video":null,"channel":"Show HN","channelUrl":"https://news.ycombinator.com/show","author":"Kovah","authorUrl":"https://news.ycombinator.com/user?id=Kovah","authorImage":null,"authorSlug":null,"score":222,"views":null,"sharedCount":null,"likeCount":null,"sharedContent":null,"parent":{"__typename":"HnJson","localize":[{"title":"HN新产品：LinkAce-您的自托管自由/开源软件书签档案","locale":"zh"},{"title":"HN新產品：LinkAce-您的自託管自由/開源軟件書籤檔案","locale":"zh-Hant"}]}},{"__typename":"SocialMediaPost","id":"HnPost-25568856","excerpt":"","slug":"/hn/25568856","title":"Show HN: Thruhikes – A list of long distance hikes around the world","date":"December 29, 2020","dateISO":"2020-12-29T15:33:30.877Z","datetime":"2020-12-29 15:33","tags":["story","Show HN","Hacker News"],"image":null,"imageAlt":null,"provider":"Hacker News","thirdPartyId":"25568856","url":"https://news.ycombinator.com/item?id=25568856","originalUrl":"https://thruhikes.net/","imageRemote":"https://thruhikes.net/logo.png","video":null,"channel":"Show HN","channelUrl":"https://news.ycombinator.com/show","author":"oguzcanhuner","authorUrl":"https://news.ycombinator.com/user?id=oguzcanhuner","authorImage":null,"authorSlug":null,"score":398,"views":null,"sharedCount":null,"likeCount":null,"sharedContent":null,"parent":{"__typename":"HnJson","localize":[{"title":"HN新产品：Thruhikes-世界长途徒步旅行清单","locale":"zh"},{"title":"HN新產品：Thruhikes-世界長途徒步旅行清單","locale":"zh-Hant"}]}},{"__typename":"SocialMediaPost","id":"HnPost-25566132","excerpt":"","slug":"/hn/25566132","title":"Show HN: Raspberry Pi 400 with a $2 IPS 240x240 micro display","date":"December 29, 2020","dateISO":"2020-12-29T06:32:04.312Z","datetime":"2020-12-29 06:32","tags":["story","Show HN","Hacker News"],"image":null,"imageAlt":null,"provider":"Hacker News","thirdPartyId":"25566132","url":"https://news.ycombinator.com/item?id=25566132","originalUrl":"https://github.com/igbit/micro-displays/blob/main/README.md","imageRemote":"https://avatars3.githubusercontent.com/u/75217607?s=400&v=4","video":null,"channel":"Show HN","channelUrl":"https://news.ycombinator.com/show","author":"sgroppino","authorUrl":"https://news.ycombinator.com/user?id=sgroppino","authorImage":null,"authorSlug":null,"score":355,"views":null,"sharedCount":null,"likeCount":null,"sharedContent":null,"parent":{"__typename":"HnJson","localize":[{"title":"HN新产品：覆盆子PI400，配有2美元的IPS 240x240微型显示屏","locale":"zh"},{"title":"HN新產品：覆盆子PI400，配有2美元的IPS 240x240微型顯示屏","locale":"zh-Hant"}]}},{"__typename":"SocialMediaPost","id":"HnPost-25558891","excerpt":"","slug":"/hn/25558891","title":"Show HN: Recurring reviews to track the whole lifecycle of a product","date":"December 29, 2020","dateISO":"2020-12-29T04:00:45.970Z","datetime":"2020-12-29 04:00","tags":["story","Show HN","Hacker News"],"image":null,"imageAlt":null,"provider":"Hacker News","thirdPartyId":"25558891","url":"https://news.ycombinator.com/item?id=25558891","originalUrl":"https://www.buyforlife.com/blog/4kpaLtbnG6MkseMj44niVV/recurring-reviews-to-track-the-whole-lifecycle-of-a-product","imageRemote":"https://www.buyforlife.com/preview.png","video":null,"channel":"Show HN","channelUrl":"https://news.ycombinator.com/show","author":"hubraumhugo","authorUrl":"https://news.ycombinator.com/user?id=hubraumhugo","authorImage":null,"authorSlug":null,"score":175,"views":null,"sharedCount":null,"likeCount":null,"sharedContent":null,"parent":{"__typename":"HnJson","localize":[{"title":"HN新产品：重复评审以跟踪产品的整个生命周期","locale":"zh"},{"title":"HN新產品：重複評審以跟蹤產品的整個生命週期","locale":"zh-Hant"}]}},{"__typename":"SocialMediaPost","id":"HnPost-25545153","excerpt":"","slug":"/hn/25545153","title":"Show HN: CodeSwing – A CodePen-like interactive playground, built into VS Code","date":"December 27, 2020","dateISO":"2020-12-27T07:36:04.744Z","datetime":"2020-12-27 07:36","tags":["story","Show HN","Hacker News"],"image":null,"imageAlt":null,"provider":"Hacker News","thirdPartyId":"25545153","url":"https://news.ycombinator.com/item?id=25545153","originalUrl":"https://github.com/codespaces-contrib/codeswing","imageRemote":"https://avatars2.githubusercontent.com/u/71164577?s=400&v=4","video":null,"channel":"Show HN","channelUrl":"https://news.ycombinator.com/show","author":"lostintangent","authorUrl":"https://news.ycombinator.com/user?id=lostintangent","authorImage":null,"authorSlug":null,"score":159,"views":null,"sharedCount":null,"likeCount":null,"sharedContent":null,"parent":{"__typename":"HnJson","localize":[{"title":"HN新产品：CodeSwing-一个类似CodePen的交互式游乐场，内置于VS代码中","locale":"zh"},{"title":"HN新產品：CodeSwing-一個類似CodePen的交互式遊樂場，內置於VS代碼中","locale":"zh-Hant"}]}},{"__typename":"SocialMediaPost","id":"HnPost-25542456","excerpt":"","slug":"/hn/25542456","title":"Show HN: System for Private Data Management","date":"December 27, 2020","dateISO":"2020-12-27T01:19:27.658Z","datetime":"2020-12-27 01:19","tags":["story","Show HN","Hacker News"],"image":null,"imageAlt":null,"provider":"Hacker News","thirdPartyId":"25542456","url":"https://news.ycombinator.com/item?id=25542456","originalUrl":"https://github.com/Volmarg/personal-management-system","imageRemote":"https://avatars2.githubusercontent.com/u/37488679?s=400&v=4","video":null,"channel":"Show HN","channelUrl":"https://news.ycombinator.com/show","author":"dariuszW","authorUrl":"https://news.ycombinator.com/user?id=dariuszW","authorImage":null,"authorSlug":null,"score":131,"views":null,"sharedCount":null,"likeCount":null,"sharedContent":null,"parent":{"__typename":"HnJson","localize":[{"title":"HN新产品：私有数据管理系统","locale":"zh"},{"title":"HN新產品：私有數據管理系統","locale":"zh-Hant"}]}}]}},"pageContext":{"basePath":"/","pageType":"tag","tag":"Show HN","tagsFilter":{"id":{"glob":"!*Post-1"}},"filter":{"id":{"glob":"!*Post-1"},"tags":{"eq":"Show HN"}},"limit":25,"skip":50,"total":89,"totalPages":4,"currentPage":3,"maxWidth":1024,"maxHeight":512,"locale":"zh-Hant","hrefLang":"zh-Hant","originalPath":"/tags/show-hn/page/3","dateFormat":"YYYY-MM-DD"}},"staticQueryHashes":["1239077767","2506312863","2744905544","3025052997","3493603132","3493603132","3513215887","386998304"]}