{"componentChunkName":"component---gatsby-theme-buzzing-src-gatsby-theme-timeline-templates-posts-query-js","path":"/zh-Hant/tags/story/page/3","result":{"data":{"site":{"siteMetadata":{"title":"Reddit 热门","description":"用中文浏览Reddit热门内容","social":[{"name":"Twitter","url":"https://twitter.com/gatsbyjs","external":null,"prefetch":null},{"name":"GitHub","url":"https://github.com/gatsbyjs","external":null,"prefetch":null}],"menuLinks":[],"localize":[{"locale":"en","title":"Buzzing on Reddit","description":"See what's buzzing on Reddit in your native language","social":[{"name":"Reddit","url":"https://www.reddit.com/","external":true,"prefetch":null}],"menuLinks":[{"name":"Weekly Selection","url":"/issues","external":null,"prefetch":null},{"name":"RSS","url":"/rss.xml","external":null,"prefetch":false}]},{"locale":"zh-Hant","title":"Reddit 熱門","description":"用中文瀏覽Reddit熱門內容","social":null,"menuLinks":null}]}},"tagsGroup":{"group":[{"fieldValue":"ASK HN","totalCount":54},{"fieldValue":"Hacker News","totalCount":3105},{"fieldValue":"Poll","totalCount":1},{"fieldValue":"Show HN","totalCount":100},{"fieldValue":"poll","totalCount":1},{"fieldValue":"story","totalCount":3104}]},"allBlogPost":{"nodes":[{"__typename":"SocialMediaPost","id":"HnPost-26694974","excerpt":"","slug":"/hn/26694974","title":"LG is getting out of the mobile phone business","date":"April 05, 2021","dateISO":"2021-04-05T06:59:30.751Z","datetime":"2021-04-05 06:59","tags":["story","Hacker News"],"image":null,"imageAlt":null,"provider":"Hacker News","thirdPartyId":"26694974","url":"https://news.ycombinator.com/item?id=26694974","originalUrl":"https://www.axios.com/lg-is-getting-out-of-the-mobile-phone-business-a1398158-51e4-428b-a649-47e080884fee.html","imageRemote":"https://images.axios.com/Q01yNjwBu5xCctub8R6N3pnCD-w=/0x78:1702x1035/1366x768/2021/04/05/1617591073932.png","video":null,"channel":null,"channelUrl":null,"author":"thereare5lights","authorUrl":"https://news.ycombinator.com/user?id=thereare5lights","authorImage":null,"authorSlug":null,"score":158,"views":null,"sharedCount":null,"likeCount":null,"sharedContent":null,"parent":{"__typename":"HnJson","localize":[{"title":"LG要退出手机业务了","locale":"zh"},{"title":"LG要退出手機業務了","locale":"zh-Hant"},{"title":"LGが携帯電話事業から撤退","locale":"ja-JA"},{"title":"LGが携帯電話事業から撤退","locale":"ja"}]}},{"__typename":"SocialMediaPost","id":"HnPost-26690182","excerpt":"","slug":"/hn/26690182","title":"Clothing, How Did They Make It? Part IVa: Dyed in the Wool","date":"April 05, 2021","dateISO":"2021-04-05T01:52:36.425Z","datetime":"2021-04-05 01:52","tags":["story","Hacker News"],"image":null,"imageAlt":null,"provider":"Hacker News","thirdPartyId":"26690182","url":"https://news.ycombinator.com/item?id=26690182","originalUrl":"https://acoup.blog/2021/04/02/collections-clothing-how-did-they-make-it-part-iva-dyed-in-the-wool/","imageRemote":"https://acoupdotblog.files.wordpress.com/2021/04/800px-pompeii_-_fullonica_of_veranius_hypsaeus_2_-_man-1.jpg","video":null,"channel":null,"channelUrl":null,"author":"CapitalistCartr","authorUrl":"https://news.ycombinator.com/user?id=CapitalistCartr","authorImage":null,"authorSlug":null,"score":146,"views":null,"sharedCount":null,"likeCount":null,"sharedContent":null,"parent":{"__typename":"HnJson","localize":[{"title":"服装，他们是怎么做的？第四部分a: 羊毛染成的","locale":"zh"},{"title":"服裝，他們是怎麼做的？第四部分a: 羊毛染成的","locale":"zh-Hant"},{"title":"洋服、どうやって作ったの？Part IVa: 羊毛を染める","locale":"ja-JA"},{"title":"洋服、どうやって作ったの？Part IVa: 羊毛を染める","locale":"ja"}]}},{"__typename":"SocialMediaPost","id":"HnPost-26691868","excerpt":"","slug":"/hn/26691868","title":"HaveIBeenPwned adds yesterday's Facebook breach","date":"April 05, 2021","dateISO":"2021-04-05T00:40:04.327Z","datetime":"2021-04-05 00:40","tags":["story","Hacker News"],"image":null,"imageAlt":null,"provider":"Hacker News","thirdPartyId":"26691868","url":"https://news.ycombinator.com/item?id=26691868","originalUrl":"https://haveibeenpwned.com/PwnedWebsites#Facebook","imageRemote":"https://haveibeenpwned.com/Content/Images/SocialLogo.png","video":null,"channel":null,"channelUrl":null,"author":"gnabgib","authorUrl":"https://news.ycombinator.com/user?id=gnabgib","authorImage":null,"authorSlug":null,"score":140,"views":null,"sharedCount":null,"likeCount":null,"sharedContent":null,"parent":{"__typename":"HnJson","localize":[{"title":"HaveIBeenPwned增加了昨天的Facebook违规事件。","locale":"zh"},{"title":"HaveIBeenPwned增加了昨天的Facebook違規事件。","locale":"zh-Hant"},{"title":"HaveIBeenPwned、昨日のFacebookの情報漏えい事件を追加","locale":"ja-JA"},{"title":"HaveIBeenPwned、昨日のFacebookの情報漏えい事件を追加","locale":"ja"}]}},{"__typename":"SocialMediaPost","id":"HnPost-26682980","excerpt":"","slug":"/hn/26682980","title":"Space Jam's 1996 website has finally been updated","date":"April 04, 2021","dateISO":"2021-04-04T23:34:51.400Z","datetime":"2021-04-04 23:34","tags":["story","Hacker News"],"image":null,"imageAlt":null,"provider":"Hacker News","thirdPartyId":"26682980","url":"https://news.ycombinator.com/item?id=26682980","originalUrl":"https://news.ycombinator.com/item?id=26682980","imageRemote":null,"video":null,"channel":null,"channelUrl":null,"author":"johneth","authorUrl":"https://news.ycombinator.com/user?id=johneth","authorImage":null,"authorSlug":null,"score":141,"views":null,"sharedCount":null,"likeCount":null,"sharedContent":null,"parent":{"__typename":"HnJson","localize":[{"title":"Space Jam的1996年网站终于更新了。","locale":"zh"},{"title":"Space Jam的1996年網站終於更新了。","locale":"zh-Hant"},{"title":"スペースジャム』1996年版のウェブサイトがついに更新された","locale":"ja-JA"},{"title":"スペースジャム』1996年版のウェブサイトがついに更新された","locale":"ja"}]}},{"__typename":"SocialMediaPost","id":"HnPost-26692144","excerpt":"","slug":"/hn/26692144","title":"Ubiquiti All but Confirms Breach Response Iniquity","date":"April 04, 2021","dateISO":"2021-04-04T22:30:55.572Z","datetime":"2021-04-04 22:30","tags":["story","Hacker News"],"image":null,"imageAlt":null,"provider":"Hacker News","thirdPartyId":"26692144","url":"https://news.ycombinator.com/item?id=26692144","originalUrl":"https://krebsonsecurity.com/2021/04/ubiquiti-all-but-confirms-breach-response-iniquity/","imageRemote":"https://krebsonsecurity.com/wp-content/uploads/2021/04/ubistock.png","video":null,"channel":null,"channelUrl":null,"author":"parsecs","authorUrl":"https://news.ycombinator.com/user?id=parsecs","authorImage":null,"authorSlug":null,"score":151,"views":null,"sharedCount":null,"likeCount":null,"sharedContent":null,"parent":{"__typename":"HnJson","localize":[{"title":"Ubiquiti全盘确认违规响应的不平等性","locale":"zh"},{"title":"Ubiquiti全盤確認違規響應的不平等性","locale":"zh-Hant"},{"title":"Ubiquiti、侵害対応を全面的に認める Iniquity","locale":"ja-JA"},{"title":"Ubiquiti、侵害対応を全面的に認める Iniquity","locale":"ja"}]}},{"__typename":"SocialMediaPost","id":"HnPost-26690751","excerpt":"","slug":"/hn/26690751","title":"New HIV vaccine with a 97% antibody response rate in phase I human trials","date":"April 04, 2021","dateISO":"2021-04-04T21:53:25.730Z","datetime":"2021-04-04 21:53","tags":["story","Hacker News"],"image":null,"imageAlt":null,"provider":"Hacker News","thirdPartyId":"26690751","url":"https://news.ycombinator.com/item?id=26690751","originalUrl":"https://www.europeanpharmaceuticalreview.com/news/141892/novel-hiv-vaccine-approach-shows-promise-in-landmark-first-in-human-trial/","imageRemote":"https://www.europeanpharmaceuticalreview.com/wp-content/uploads/HIV-Vaccine-1-scaled-e1612534046138.jpg","video":null,"channel":null,"channelUrl":null,"author":"MKais","authorUrl":"https://news.ycombinator.com/user?id=MKais","authorImage":null,"authorSlug":null,"score":161,"views":null,"sharedCount":null,"likeCount":null,"sharedContent":null,"parent":{"__typename":"HnJson","localize":[{"title":"新型HIV疫苗I期人体试验抗体应答率达97%。","locale":"zh"},{"title":"新型HIV疫苗I期人體試驗抗體應答率達97%。","locale":"zh-Hant"},{"title":"抗体反応率97%の新規HIVワクチンをヒトでの第I相試験に投入","locale":"ja-JA"},{"title":"抗体反応率97%の新規HIVワクチンをヒトでの第I相試験に投入","locale":"ja"}]}},{"__typename":"SocialMediaPost","id":"HnPost-26688455","excerpt":"","slug":"/hn/26688455","title":"AMD's Zen 3 CPUs Are Susceptible to Spectre-Like Vulnerability","date":"April 04, 2021","dateISO":"2021-04-04T18:23:04.844Z","datetime":"2021-04-04 18:23","tags":["story","Hacker News"],"image":null,"imageAlt":null,"provider":"Hacker News","thirdPartyId":"26688455","url":"https://news.ycombinator.com/item?id=26688455","originalUrl":"https://www.tomshardware.com/news/amd-zen-3-cpu-susceptible-spectre-like-vulnerability","imageRemote":"https://cdn.mos.cms.futurecdn.net/xbqi8ZgUB5KsbYt6hTutiH-1200-80.jpg","video":null,"channel":null,"channelUrl":null,"author":"T-A","authorUrl":"https://news.ycombinator.com/user?id=T-A","authorImage":null,"authorSlug":null,"score":145,"views":null,"sharedCount":null,"likeCount":null,"sharedContent":null,"parent":{"__typename":"HnJson","localize":[{"title":"AMD的Zen 3 CPU容易受到类似Spectre的漏洞影响。","locale":"zh"},{"title":"AMD的Zen 3 CPU容易受到類似Spectre的漏洞影響。","locale":"zh-Hant"},{"title":"AMDのZen 3 CPUにSpectreライクな脆弱性が存在する","locale":"ja-JA"},{"title":"AMDのZen 3 CPUにSpectreライクな脆弱性が存在する","locale":"ja"}]}},{"__typename":"SocialMediaPost","id":"HnPost-26690044","excerpt":"","slug":"/hn/26690044","title":"Mark Zuckerberg's phone number appeared among the leaked data of Facebook users","date":"April 04, 2021","dateISO":"2021-04-04T18:23:04.844Z","datetime":"2021-04-04 18:23","tags":["story","Hacker News"],"image":null,"imageAlt":null,"provider":"Hacker News","thirdPartyId":"26690044","url":"https://news.ycombinator.com/item?id=26690044","originalUrl":"https://www.businessinsider.com/mark-zuckerberg-phone-number-facebook-leak-data-reports-2021-4","imageRemote":"https://i.insider.com/602e8cba31eb0600197c3f86?width=1200&format=jpeg","video":null,"channel":null,"channelUrl":null,"author":"seesawtron","authorUrl":"https://news.ycombinator.com/user?id=seesawtron","authorImage":null,"authorSlug":null,"score":156,"views":null,"sharedCount":null,"likeCount":null,"sharedContent":null,"parent":{"__typename":"HnJson","localize":[{"title":"马克-扎克伯格的电话号码出现在泄露的Facebook用户数据中。","locale":"zh"},{"title":"馬克-扎克伯格的電話號碼出現在泄露的Facebook用戶數據中。","locale":"zh-Hant"},{"title":"マーク・ザッカーバーグの電話番号がFacebookユーザーの流出データに登場","locale":"ja-JA"},{"title":"マーク・ザッカーバーグの電話番号がFacebookユーザーの流出データに登場","locale":"ja"}]}},{"__typename":"SocialMediaPost","id":"HnPost-26690126","excerpt":"","slug":"/hn/26690126","title":"Human use of high-bandwidth wireless brain-computer interface","date":"April 04, 2021","dateISO":"2021-04-04T18:23:04.844Z","datetime":"2021-04-04 18:23","tags":["story","Hacker News"],"image":null,"imageAlt":null,"provider":"Hacker News","thirdPartyId":"26690126","url":"https://news.ycombinator.com/item?id=26690126","originalUrl":"https://www.brown.edu/news/2021-03-31/braingate-wireless","imageRemote":"https://www.brown.edu/sites/g/files/dprerj316/files/styles/wide_lrg/public/2021-03/iStock-818785992_high.jpg?h=a67c7ce3&itok=Da7vwDyR","video":null,"channel":null,"channelUrl":null,"author":"bemmu","authorUrl":"https://news.ycombinator.com/user?id=bemmu","authorImage":null,"authorSlug":null,"score":150,"views":null,"sharedCount":null,"likeCount":null,"sharedContent":null,"parent":{"__typename":"HnJson","localize":[{"title":"高带宽无线脑机接口的人性化应用","locale":"zh"},{"title":"高帶寬無線腦機接口的人性化應用","locale":"zh-Hant"},{"title":"高帯域無線ブレインコンピュータインターフェースの人間への利用","locale":"ja-JA"},{"title":"高帯域無線ブレインコンピュータインターフェースの人間への利用","locale":"ja"}]}},{"__typename":"SocialMediaPost","id":"HnPost-26689239","excerpt":"","slug":"/hn/26689239","title":"I can only think that modern front end development has failed","date":"April 04, 2021","dateISO":"2021-04-04T16:08:09.908Z","datetime":"2021-04-04 16:08","tags":["story","Hacker News"],"image":null,"imageAlt":null,"provider":"Hacker News","thirdPartyId":"26689239","url":"https://news.ycombinator.com/item?id=26689239","originalUrl":"https://twitter.com/antirez/status/1378272801522597888","imageRemote":null,"video":null,"channel":null,"channelUrl":null,"author":"gls2ro","authorUrl":"https://news.ycombinator.com/user?id=gls2ro","authorImage":null,"authorSlug":null,"score":140,"views":null,"sharedCount":null,"likeCount":null,"sharedContent":null,"parent":{"__typename":"HnJson","localize":[{"title":"我只能认为现代前端开发已经失败了","locale":"zh"},{"title":"我只能認爲現代前端開發已經失敗了","locale":"zh-Hant"},{"title":"最近のフロントエンド開発は失敗しているとしか思えません","locale":"ja-JA"},{"title":"最近のフロントエンド開発は失敗しているとしか思えません","locale":"ja"}]}},{"__typename":"SocialMediaPost","id":"HnPost-26687605","excerpt":"","slug":"/hn/26687605","title":"Space Jam 2","date":"April 04, 2021","dateISO":"2021-04-04T15:27:45.753Z","datetime":"2021-04-04 15:27","tags":["story","Hacker News"],"image":null,"imageAlt":null,"provider":"Hacker News","thirdPartyId":"26687605","url":"https://news.ycombinator.com/item?id=26687605","originalUrl":"https://www.spacejam2.com/","imageRemote":"http://static1.squarespace.com/static/5e18a9f9bb73a731093cb18e/t/5fe370d59b0d8c605af6971f/1608741081848/SJ2_table_group.jpg?format=1500w","video":null,"channel":null,"channelUrl":null,"author":"javawizard","authorUrl":"https://news.ycombinator.com/user?id=javawizard","authorImage":null,"authorSlug":null,"score":140,"views":null,"sharedCount":null,"likeCount":null,"sharedContent":null,"parent":{"__typename":"HnJson","localize":[{"title":"Space Jam 2","locale":"zh"},{"title":"Space Jam 2","locale":"zh-Hant"},{"title":"スペースジャム2","locale":"ja-JA"},{"title":"スペースジャム2","locale":"ja"}]}},{"__typename":"SocialMediaPost","id":"HnPost-26688640","excerpt":"","slug":"/hn/26688640","title":"Marwa Elselehdar: 'I was blamed for blocking the Suez Canal'","date":"April 04, 2021","dateISO":"2021-04-04T15:27:45.753Z","datetime":"2021-04-04 15:27","tags":["story","Hacker News"],"image":null,"imageAlt":null,"provider":"Hacker News","thirdPartyId":"26688640","url":"https://news.ycombinator.com/item?id=26688640","originalUrl":"https://www.bbc.com/news/world-middle-east-56615521","imageRemote":"https://ichef.bbci.co.uk/news/1024/branded_news/EF45/production/_117835216_158910156_189247849639860_3493835344417379213_n.jpg","video":null,"channel":null,"channelUrl":null,"author":"em-bee","authorUrl":"https://news.ycombinator.com/user?id=em-bee","authorImage":null,"authorSlug":null,"score":140,"views":null,"sharedCount":null,"likeCount":null,"sharedContent":null,"parent":{"__typename":"HnJson","localize":[{"title":"Marwa Elselehdar：\"我因封锁苏伊士运河而受到指责","locale":"zh"},{"title":"Marwa Elselehdar：\"我因封鎖蘇伊士運河而受到指責","locale":"zh-Hant"},{"title":"Marwa Elselehdar：「スエズ運河を塞いだことを非難された","locale":"ja-JA"},{"title":"Marwa Elselehdar：「スエズ運河を塞いだことを非難された","locale":"ja"}]}},{"__typename":"SocialMediaPost","id":"HnPost-26688965","excerpt":"","slug":"/hn/26688965","title":"I thought I was dying: My apartment was built on toxic waste","date":"April 04, 2021","dateISO":"2021-04-04T15:27:45.752Z","datetime":"2021-04-04 15:27","tags":["story","Hacker News"],"image":null,"imageAlt":null,"provider":"Hacker News","thirdPartyId":"26688965","url":"https://news.ycombinator.com/item?id=26688965","originalUrl":"https://sfbayview.com/2021/03/i-thought-i-was-dying-my-apartment-was-built-on-toxic-waste/","imageRemote":"https://sfbayview.com/wp-content/uploads/2021/03/Ashley-Gjovik-with-blood-pressure-monitor-e1616738138498.jpeg","video":null,"channel":null,"channelUrl":null,"author":"czechdeveloper","authorUrl":"https://news.ycombinator.com/user?id=czechdeveloper","authorImage":null,"authorSlug":null,"score":177,"views":null,"sharedCount":null,"likeCount":null,"sharedContent":null,"parent":{"__typename":"HnJson","localize":[{"title":"我以为我快死了 我的公寓是建在有毒废料上的","locale":"zh"},{"title":"我以爲我快死了 我的公寓是建在有毒廢料上的","locale":"zh-Hant"},{"title":"死ぬかと思いました。有害廃棄物の上に建てられた私のアパート","locale":"ja-JA"},{"title":"死ぬかと思いました。有害廃棄物の上に建てられた私のアパート","locale":"ja"}]}},{"__typename":"SocialMediaPost","id":"HnPost-26688390","excerpt":"","slug":"/hn/26688390","title":"How to bypass Cloudflare bot protection","date":"April 04, 2021","dateISO":"2021-04-04T13:53:31.464Z","datetime":"2021-04-04 13:53","tags":["story","Hacker News"],"image":null,"imageAlt":null,"provider":"Hacker News","thirdPartyId":"26688390","url":"https://news.ycombinator.com/item?id=26688390","originalUrl":"https://jychp.medium.com/how-to-bypass-cloudflare-bot-protection-1f2c6c0c36fb","imageRemote":"https://miro.medium.com/max/1024/1*hD8nazwq5c63NIYvyc9STQ.jpeg","video":null,"channel":null,"channelUrl":null,"author":"simonpure","authorUrl":"https://news.ycombinator.com/user?id=simonpure","authorImage":null,"authorSlug":null,"score":140,"views":null,"sharedCount":null,"likeCount":null,"sharedContent":null,"parent":{"__typename":"HnJson","localize":[{"title":"如何绕过Cloudflare僵尸保护？","locale":"zh"},{"title":"如何繞過Cloudflare殭屍保護？","locale":"zh-Hant"},{"title":"Cloudflareのボットプロテクションを回避する方法","locale":"ja-JA"},{"title":"Cloudflareのボットプロテクションを回避する方法","locale":"ja"}]}},{"__typename":"SocialMediaPost","id":"HnPost-26670708","excerpt":"","slug":"/hn/26670708","title":"Get Started with Tmux","date":"April 04, 2021","dateISO":"2021-04-04T12:55:09.669Z","datetime":"2021-04-04 12:55","tags":["story","Hacker News"],"image":null,"imageAlt":null,"provider":"Hacker News","thirdPartyId":"26670708","url":"https://news.ycombinator.com/item?id=26670708","originalUrl":"https://sunainapai.in/blog/get-started-with-tmux/","imageRemote":"https://sunainapai.in/img/technology/get-started-with-tmux/tmux-session.png","video":null,"channel":null,"channelUrl":null,"author":"susam","authorUrl":"https://news.ycombinator.com/user?id=susam","authorImage":null,"authorSlug":null,"score":141,"views":null,"sharedCount":null,"likeCount":null,"sharedContent":null,"parent":{"__typename":"HnJson","localize":[{"title":"开始使用Tmux","locale":"zh"},{"title":"開始使用Tmux","locale":"zh-Hant"},{"title":"Tmuxを始めよう","locale":"ja-JA"},{"title":"Tmuxを始めよう","locale":"ja"}]}},{"__typename":"SocialMediaPost","id":"HnPost-26685906","excerpt":"","slug":"/hn/26685906","title":"Tales from Prediction Markets","date":"April 04, 2021","dateISO":"2021-04-04T10:49:15.510Z","datetime":"2021-04-04 10:49","tags":["story","Hacker News"],"image":null,"imageAlt":null,"provider":"Hacker News","thirdPartyId":"26685906","url":"https://news.ycombinator.com/item?id=26685906","originalUrl":"https://misinfounderload.substack.com/p/tales-from-prediction-markets","imageRemote":"https://cdn.substack.com/image/fetch/w_90,h_90,c_fill,f_auto,q_auto:good,fl_progressive:steep/http%3A%2F%2Fpbs.twimg.com%2Fprofile_images%2F1235324014941347853%2FKqSXVEs3.jpg","video":null,"channel":null,"channelUrl":null,"author":"ikeboy","authorUrl":"https://news.ycombinator.com/user?id=ikeboy","authorImage":null,"authorSlug":null,"score":141,"views":null,"sharedCount":null,"likeCount":null,"sharedContent":null,"parent":{"__typename":"HnJson","localize":[{"title":"预测市场的故事","locale":"zh"},{"title":"預測市場的故事","locale":"zh-Hant"},{"title":"予測市場の物語","locale":"ja-JA"},{"title":"予測市場の物語","locale":"ja"}]}},{"__typename":"SocialMediaPost","id":"HnPost-26686378","excerpt":"","slug":"/hn/26686378","title":"My experience releasing failed SaaS products","date":"April 04, 2021","dateISO":"2021-04-04T10:49:15.510Z","datetime":"2021-04-04 10:49","tags":["story","Hacker News"],"image":null,"imageAlt":null,"provider":"Hacker News","thirdPartyId":"26686378","url":"https://news.ycombinator.com/item?id=26686378","originalUrl":"https://mmartinfahy.medium.com/my-experience-releasing-3-failed-saas-products-44e61cbde424","imageRemote":"https://miro.medium.com/proxy/1*kFrc4tBFM_tCis-2Ic87WA.png","video":null,"channel":null,"channelUrl":null,"author":"defnmacro","authorUrl":"https://news.ycombinator.com/user?id=defnmacro","authorImage":null,"authorSlug":null,"score":142,"views":null,"sharedCount":null,"likeCount":null,"sharedContent":null,"parent":{"__typename":"HnJson","localize":[{"title":"我发布失败的SaaS产品的经历","locale":"zh"},{"title":"我發佈失敗的SaaS產品的經歷","locale":"zh-Hant"},{"title":"失敗したSaaS製品をリリースした私の経験","locale":"ja-JA"},{"title":"失敗したSaaS製品をリリースした私の経験","locale":"ja"}]}},{"__typename":"SocialMediaPost","id":"HnPost-26685694","excerpt":"","slug":"/hn/26685694","title":"Bertrand Russell Is the Pope (2010)","date":"April 04, 2021","dateISO":"2021-04-04T09:51:21.342Z","datetime":"2021-04-04 09:51","tags":["story","Hacker News"],"image":null,"imageAlt":null,"provider":"Hacker News","thirdPartyId":"26685694","url":"https://news.ycombinator.com/item?id=26685694","originalUrl":"http://ceadserv1.nku.edu/longa//classes/mat385_resources/docs/russellpope.html","imageRemote":null,"video":null,"channel":null,"channelUrl":null,"author":"isaac21259","authorUrl":"https://news.ycombinator.com/user?id=isaac21259","authorImage":null,"authorSlug":null,"score":143,"views":null,"sharedCount":null,"likeCount":null,"sharedContent":null,"parent":{"__typename":"HnJson","localize":[{"title":"伯特兰-罗素是教皇（2010年）。","locale":"zh"},{"title":"伯特蘭-羅素是教皇（2010年）。","locale":"zh-Hant"},{"title":"バートランド・ラッセルは教皇である (2010)","locale":"ja-JA"},{"title":"バートランド・ラッセルは教皇である (2010)","locale":"ja"}]}},{"__typename":"SocialMediaPost","id":"HnPost-26684792","excerpt":"","slug":"/hn/26684792","title":"Show HN: Blogosphere – Discover independent technical blogs","date":"April 04, 2021","dateISO":"2021-04-04T08:30:59.162Z","datetime":"2021-04-04 08:30","tags":["story","Show HN","Hacker News"],"image":null,"imageAlt":null,"provider":"Hacker News","thirdPartyId":"26684792","url":"https://news.ycombinator.com/item?id=26684792","originalUrl":"https://bilbof.com/blogosphere","imageRemote":null,"video":null,"channel":"Show HN","channelUrl":"https://news.ycombinator.com/show","author":"BillFranklin","authorUrl":"https://news.ycombinator.com/user?id=BillFranklin","authorImage":null,"authorSlug":null,"score":142,"views":null,"sharedCount":null,"likeCount":null,"sharedContent":null,"parent":{"__typename":"HnJson","localize":[{"title":"显示HN：博客圈 - 发现独立的技术博客。","locale":"zh"},{"title":"顯示HN：博客圈 - 發現獨立的技術博客。","locale":"zh-Hant"},{"title":"Show HN: Blogosphere - 独立した技術系ブログの発見","locale":"ja-JA"},{"title":"Show HN: Blogosphere - 独立した技術系ブログの発見","locale":"ja"}]}},{"__typename":"SocialMediaPost","id":"HnPost-26685975","excerpt":"","slug":"/hn/26685975","title":"Staying awake to treat depression (2018)","date":"April 04, 2021","dateISO":"2021-04-04T08:30:59.162Z","datetime":"2021-04-04 08:30","tags":["story","Hacker News"],"image":null,"imageAlt":null,"provider":"Hacker News","thirdPartyId":"26685975","url":"https://news.ycombinator.com/item?id=26685975","originalUrl":"https://mosaicscience.com/story/staying-awake-surprisingly-effective-way-treat-depression/","imageRemote":"https://mosaicscience.com/sites/default/files/styles/listing_medium/public/207_Sleep-Depression_EvaBee1.jpg?itok=MrnefkD8","video":null,"channel":null,"channelUrl":null,"author":"softwaredoug","authorUrl":"https://news.ycombinator.com/user?id=softwaredoug","authorImage":null,"authorSlug":null,"score":144,"views":null,"sharedCount":null,"likeCount":null,"sharedContent":null,"parent":{"__typename":"HnJson","localize":[{"title":"保持清醒治疗抑郁症(2018)","locale":"zh"},{"title":"保持清醒治療抑鬱症(2018)","locale":"zh-Hant"},{"title":"うつ病治療のための寝不足解消法（2018年","locale":"ja-JA"},{"title":"うつ病治療のための寝不足解消法（2018年","locale":"ja"}]}},{"__typename":"SocialMediaPost","id":"HnPost-26684247","excerpt":"","slug":"/hn/26684247","title":"Revision demoparty banned on Twitch mid-stream","date":"April 04, 2021","dateISO":"2021-04-04T07:52:51.406Z","datetime":"2021-04-04 07:52","tags":["story","Hacker News"],"image":null,"imageAlt":null,"provider":"Hacker News","thirdPartyId":"26684247","url":"https://news.ycombinator.com/item?id=26684247","originalUrl":"https://twitter.com/revision_party/status/1378427185518764034","imageRemote":null,"video":null,"channel":null,"channelUrl":null,"author":"glistenemployed","authorUrl":"https://news.ycombinator.com/user?id=glistenemployed","authorImage":null,"authorSlug":null,"score":140,"views":null,"sharedCount":null,"likeCount":null,"sharedContent":null,"parent":{"__typename":"HnJson","localize":[{"title":"修订版demoparty在Twitch上被禁止中流砥柱","locale":"zh"},{"title":"修訂版demoparty在Twitch上被禁止中流砥柱","locale":"zh-Hant"},{"title":"リビジョンのデモパーティーがTwitchで放送途中に禁止される","locale":"ja-JA"},{"title":"リビジョンのデモパーティーがTwitchで放送途中に禁止される","locale":"ja"}]}},{"__typename":"SocialMediaPost","id":"HnPost-26685156","excerpt":"","slug":"/hn/26685156","title":"SpatiaLite: A Spatial Extension to SQLite","date":"April 04, 2021","dateISO":"2021-04-04T07:52:51.406Z","datetime":"2021-04-04 07:52","tags":["story","Hacker News"],"image":null,"imageAlt":null,"provider":"Hacker News","thirdPartyId":"26685156","url":"https://news.ycombinator.com/item?id=26685156","originalUrl":"https://www.gaia-gis.it/fossil/libspatialite/index","imageRemote":"https://www.gaia-gis.it/fossil/libspatialite/logo","video":null,"channel":null,"channelUrl":null,"author":"chippy","authorUrl":"https://news.ycombinator.com/user?id=chippy","authorImage":null,"authorSlug":null,"score":140,"views":null,"sharedCount":null,"likeCount":null,"sharedContent":null,"parent":{"__typename":"HnJson","localize":[{"title":"SpatiaLite。SQLite的空间扩展","locale":"zh"},{"title":"SpatiaLite。SQLite的空間擴展","locale":"zh-Hant"},{"title":"SpatiaLite: SQLiteの空間拡張","locale":"ja-JA"},{"title":"SpatiaLite: SQLiteの空間拡張","locale":"ja"}]}},{"__typename":"SocialMediaPost","id":"HnPost-26680235","excerpt":"","slug":"/hn/26680235","title":"Loot boxes linked to problem gambling in new research","date":"April 04, 2021","dateISO":"2021-04-04T05:51:50.790Z","datetime":"2021-04-04 05:51","tags":["story","Hacker News"],"image":null,"imageAlt":null,"provider":"Hacker News","thirdPartyId":"26680235","url":"https://news.ycombinator.com/item?id=26680235","originalUrl":"https://www.bbc.co.uk/news/technology-56614281","imageRemote":"https://ichef.bbci.co.uk/news/1024/branded_news/0B60/production/_117821920_gettyimages-1227145901.jpg","video":null,"channel":null,"channelUrl":null,"author":"ComodoHacker","authorUrl":"https://news.ycombinator.com/user?id=ComodoHacker","authorImage":null,"authorSlug":null,"score":140,"views":null,"sharedCount":null,"likeCount":null,"sharedContent":null,"parent":{"__typename":"HnJson","localize":[{"title":"在新的研究中，战利品箱与问题赌博相关联","locale":"zh"},{"title":"在新的研究中，戰利品箱與問題賭博相關聯","locale":"zh-Hant"},{"title":"戦利品ボックスとギャンブル依存症との関連性を示す新たな研究結果が発表される","locale":"ja-JA"},{"title":"戦利品ボックスとギャンブル依存症との関連性を示す新たな研究結果が発表される","locale":"ja"}]}},{"__typename":"SocialMediaPost","id":"HnPost-26681672","excerpt":"","slug":"/hn/26681672","title":"How to do things safely in Bash (2018)","date":"April 04, 2021","dateISO":"2021-04-04T05:32:11.811Z","datetime":"2021-04-04 05:32","tags":["story","Hacker News"],"image":null,"imageAlt":null,"provider":"Hacker News","thirdPartyId":"26681672","url":"https://news.ycombinator.com/item?id=26681672","originalUrl":"https://github.com/anordal/shellharden/blob/master/how_to_do_things_safely_in_bash.md","imageRemote":"https://avatars.githubusercontent.com/u/4992374?s=400&v=4","video":null,"channel":null,"channelUrl":null,"author":"soheilpro","authorUrl":"https://news.ycombinator.com/user?id=soheilpro","authorImage":null,"authorSlug":null,"score":141,"views":null,"sharedCount":null,"likeCount":null,"sharedContent":null,"parent":{"__typename":"HnJson","localize":[{"title":"如何在Bash中安全做事(2018)","locale":"zh"},{"title":"如何在Bash中安全做事(2018)","locale":"zh-Hant"},{"title":"バッシュで安全に行動する方法（2018年版","locale":"ja-JA"},{"title":"バッシュで安全に行動する方法（2018年版","locale":"ja"}]}},{"__typename":"SocialMediaPost","id":"HnPost-26683832","excerpt":"","slug":"/hn/26683832","title":"SQLite Plus: Missing SQLite functions","date":"April 03, 2021","dateISO":"2021-04-03T23:32:14.171Z","datetime":"2021-04-03 23:32","tags":["story","Hacker News"],"image":null,"imageAlt":null,"provider":"Hacker News","thirdPartyId":"26683832","url":"https://news.ycombinator.com/item?id=26683832","originalUrl":"https://github.com/nalgeon/sqlite-plus/","imageRemote":"https://avatars.githubusercontent.com/u/2946182?s=400&v=4","video":null,"channel":null,"channelUrl":null,"author":"tosh","authorUrl":"https://news.ycombinator.com/user?id=tosh","authorImage":null,"authorSlug":null,"score":154,"views":null,"sharedCount":null,"likeCount":null,"sharedContent":null,"parent":{"__typename":"HnJson","localize":[{"title":"SQLite Plus：缺少SQLite函数","locale":"zh"},{"title":"SQLite Plus：缺少SQLite函數","locale":"zh-Hant"},{"title":"SQLite Plus: 欠落しているSQLite関数","locale":"ja-JA"},{"title":"SQLite Plus: 欠落しているSQLite関数","locale":"ja"}]}}]}},"pageContext":{"basePath":"/","pageType":"tag","tag":"story","tagsFilter":{"id":{"glob":"!*Post-1"}},"filter":{"id":{"glob":"!*Post-1"},"tags":{"eq":"story"}},"limit":25,"skip":50,"total":3104,"totalPages":125,"currentPage":3,"maxWidth":1024,"maxHeight":512,"locale":"zh-Hant","hrefLang":"zh-Hant","originalPath":"/tags/story/page/3","dateFormat":"YYYY-MM-DD"}},"staticQueryHashes":["1239077767","2506312863","2744905544","3025052997","3493603132","3493603132","3513215887","386998304"]}