{"componentChunkName":"component---gatsby-theme-buzzing-src-gatsby-theme-timeline-templates-posts-query-js","path":"/tags/story/page/25","result":{"data":{"site":{"siteMetadata":{"title":"Reddit 热门","description":"用中文浏览Reddit热门内容","social":[{"name":"Twitter","url":"https://twitter.com/gatsbyjs","external":null,"prefetch":null},{"name":"GitHub","url":"https://github.com/gatsbyjs","external":null,"prefetch":null}],"menuLinks":[],"localize":[{"locale":"en","title":"Buzzing on Reddit","description":"See what's buzzing on Reddit in your native language","social":[{"name":"Reddit","url":"https://www.reddit.com/","external":true,"prefetch":null}],"menuLinks":[{"name":"Weekly Selection","url":"/issues","external":null,"prefetch":null},{"name":"RSS","url":"/rss.xml","external":null,"prefetch":false}]},{"locale":"zh-Hant","title":"Reddit 熱門","description":"用中文瀏覽Reddit熱門內容","social":null,"menuLinks":null}]}},"tagsGroup":{"group":[{"fieldValue":"ASK HN","totalCount":22},{"fieldValue":"Bitcoin","totalCount":3},{"fieldValue":"Hacker News","totalCount":911},{"fieldValue":"Poll","totalCount":1},{"fieldValue":"Show HN","totalCount":34},{"fieldValue":"investing","totalCount":195},{"fieldValue":"poll","totalCount":1},{"fieldValue":"reddit","totalCount":759},{"fieldValue":"science","totalCount":1},{"fieldValue":"stocks","totalCount":333},{"fieldValue":"story","totalCount":910},{"fieldValue":"tweet","totalCount":274},{"fieldValue":"wallstreetbets","totalCount":231}]},"allBlogPost":{"nodes":[{"__typename":"SocialMediaPost","id":"HnPost-25515761","excerpt":"","slug":"/hn/25515761","title":"Telegram Voice Chats","date":"December 23, 2020","dateISO":"2020-12-23T16:59:51.390Z","datetime":"2020-12-23 16:59","tags":["story","Hacker News"],"image":null,"imageAlt":null,"provider":"Hacker News","thirdPartyId":"25515761","url":"https://news.ycombinator.com/item?id=25515761","originalUrl":"https://telegram.org/blog/voice-chats","imageRemote":"https://telegram.org/file/464001202/4/Mo4VjRb1ndM.81564/729451f158ff1f6267","video":null,"channel":null,"channelUrl":null,"author":"ffpip","authorUrl":"https://news.ycombinator.com/user?id=ffpip","authorImage":null,"authorSlug":null,"score":189,"views":null,"sharedCount":null,"likeCount":null,"sharedContent":null,"parent":{"__typename":"HnJson","localize":[{"title":"电报语音聊天","locale":"zh"},{"title":"電報語音聊天","locale":"zh-Hant"}]}},{"__typename":"SocialMediaPost","id":"HnPost-25516214","excerpt":"","slug":"/hn/25516214","title":"Stan is a state-of-the-art platform for statistical modeling","date":"December 23, 2020","dateISO":"2020-12-23T16:05:11.668Z","datetime":"2020-12-23 16:05","tags":["story","Hacker News"],"image":null,"imageAlt":null,"provider":"Hacker News","thirdPartyId":"25516214","url":"https://news.ycombinator.com/item?id=25516214","originalUrl":"https://mc-stan.org/","imageRemote":"https://mc-stan.org/images/feature/wide_ensemble.png","video":null,"channel":null,"channelUrl":null,"author":"Tomte","authorUrl":"https://news.ycombinator.com/user?id=Tomte","authorImage":null,"authorSlug":null,"score":190,"views":null,"sharedCount":null,"likeCount":null,"sharedContent":null,"parent":{"__typename":"HnJson","localize":[{"title":"STAN是一个最先进的统计建模平台","locale":"zh"},{"title":"STAN是一個最先進的統計建模平臺","locale":"zh-Hant"}]}},{"__typename":"SocialMediaPost","id":"HnPost-25516672","excerpt":"","slug":"/hn/25516672","title":"Open Source Stash – Privacy-focused, powerful, secure open-source alternatives","date":"December 23, 2020","dateISO":"2020-12-23T15:42:50.931Z","datetime":"2020-12-23 15:42","tags":["story","Hacker News"],"image":null,"imageAlt":null,"provider":"Hacker News","thirdPartyId":"25516672","url":"https://news.ycombinator.com/item?id=25516672","originalUrl":"https://opensourcestash.com","imageRemote":null,"video":null,"channel":null,"channelUrl":null,"author":"adithyaba","authorUrl":"https://news.ycombinator.com/user?id=adithyaba","authorImage":null,"authorSlug":null,"score":262,"views":null,"sharedCount":null,"likeCount":null,"sharedContent":null,"parent":{"__typename":"HnJson","localize":[{"title":"Open Source Stash-关注隐私、功能强大、安全的开源替代方案","locale":"zh"},{"title":"Open Source Stash-關注隱私、功能強大、安全的開源替代方案","locale":"zh-Hant"}]}},{"__typename":"SocialMediaPost","id":"HnPost-25516769","excerpt":"","slug":"/hn/25516769","title":"The beautiful Silent ThunderBolt-3 PC","date":"December 23, 2020","dateISO":"2020-12-23T15:42:50.931Z","datetime":"2020-12-23 15:42","tags":["story","Hacker News"],"image":null,"imageAlt":null,"provider":"Hacker News","thirdPartyId":"25516769","url":"https://news.ycombinator.com/item?id=25516769","originalUrl":"https://fabiensanglard.net/tb3/index.html","imageRemote":"https://fabiensanglard.net/tb3/done.jpg","video":null,"channel":null,"channelUrl":null,"author":"0-_-0","authorUrl":"https://news.ycombinator.com/user?id=0-_-0","authorImage":null,"authorSlug":null,"score":285,"views":null,"sharedCount":null,"likeCount":null,"sharedContent":null,"parent":{"__typename":"HnJson","localize":[{"title":"美丽的无声十万伏特-3 PC","locale":"zh"},{"title":"美麗的無聲十萬伏特-3 PC","locale":"zh-Hant"}]}},{"__typename":"SocialMediaPost","id":"HnPost-25517868","excerpt":"","slug":"/hn/25517868","title":"How bad is your Spotify?","date":"December 23, 2020","dateISO":"2020-12-23T15:11:02.601Z","datetime":"2020-12-23 15:11","tags":["story","Hacker News"],"image":null,"imageAlt":null,"provider":"Hacker News","thirdPartyId":"25517868","url":"https://news.ycombinator.com/item?id=25517868","originalUrl":"https://pudding.cool/2020/12/judge-my-spotify","imageRemote":"https://pudding.cool/2020/12/judge-my-spotify/assets/social/social-facebook.jpg","video":null,"channel":null,"channelUrl":null,"author":"feross","authorUrl":"https://news.ycombinator.com/user?id=feross","authorImage":null,"authorSlug":null,"score":971,"views":null,"sharedCount":null,"likeCount":null,"sharedContent":null,"parent":{"__typename":"HnJson","localize":[{"title":"你的Spotify有多糟糕？","locale":"zh"},{"title":"你的Spotify有多糟糕？","locale":"zh-Hant"}]}},{"__typename":"SocialMediaPost","id":"HnPost-25516933","excerpt":"","slug":"/hn/25516933","title":"Robinhood was indeed too good to be true","date":"December 23, 2020","dateISO":"2020-12-23T15:00:41.805Z","datetime":"2020-12-23 15:00","tags":["story","Hacker News"],"image":null,"imageAlt":null,"provider":"Hacker News","thirdPartyId":"25516933","url":"https://news.ycombinator.com/item?id=25516933","originalUrl":"https://www.morningstar.com/articles/1015686/robinhood-was-indeed-too-good-to-be-true","imageRemote":"https://images.contentstack.io/v3/assets/blt4eb669caa7dc65b2/bltbd23a515af198cc5/5e70ea7751d5b963a98427ac/JohnRekenthaler_3x2.jpg","video":null,"channel":null,"channelUrl":null,"author":"RickJWagner","authorUrl":"https://news.ycombinator.com/user?id=RickJWagner","authorImage":null,"authorSlug":null,"score":300,"views":null,"sharedCount":null,"likeCount":null,"sharedContent":null,"parent":{"__typename":"HnJson","localize":[{"title":"罗宾汉的确太好了，简直不像是真的。","locale":"zh"},{"title":"羅賓漢的確太好了，簡直不像是真的。","locale":"zh-Hant"}]}},{"__typename":"SocialMediaPost","id":"HnPost-25513397","excerpt":"","slug":"/hn/25513397","title":"Flix – Next-generation reliable, concise, functional-first programming language","date":"December 23, 2020","dateISO":"2020-12-23T14:40:39.451Z","datetime":"2020-12-23 14:40","tags":["story","Hacker News"],"image":null,"imageAlt":null,"provider":"Hacker News","thirdPartyId":"25513397","url":"https://news.ycombinator.com/item?id=25513397","originalUrl":"https://flix.dev/","imageRemote":"https://s3.amazonaws.com/github/ribbons/forkme_right_green_007200.png","video":null,"channel":null,"channelUrl":null,"author":"dunefox","authorUrl":"https://news.ycombinator.com/user?id=dunefox","authorImage":null,"authorSlug":null,"score":122,"views":null,"sharedCount":null,"likeCount":null,"sharedContent":null,"parent":{"__typename":"HnJson","localize":[{"title":"FLIX--下一代可靠、简洁、函数优先的编程语言","locale":"zh"},{"title":"FLIX--下一代可靠、簡潔、函數優先的編程語言","locale":"zh-Hant"}]}},{"__typename":"SocialMediaPost","id":"HnPost-25516573","excerpt":"","slug":"/hn/25516573","title":"‘YouTube recommendations are toxic,’ says dev who worked on the algorithm (2019)","date":"December 23, 2020","dateISO":"2020-12-23T13:41:49.218Z","datetime":"2020-12-23 13:41","tags":["story","Hacker News"],"image":null,"imageAlt":null,"provider":"Hacker News","thirdPartyId":"25516573","url":"https://news.ycombinator.com/item?id=25516573","originalUrl":"https://thenextweb.com/google/2019/06/14/youtube-recommendations-toxic-algorithm-google-ai/","imageRemote":"https://img-cdn.tnwcdn.com/image/tnw?filter_last=1&fit=1280%2C640&url=https%3A%2F%2Fcdn0.tnwcdn.com%2Fwp-content%2Fblogs.dir%2F1%2Ffiles%2F2019%2F06%2FUntitled-design65.png&signature=4e7b49f32182da669c0226e3fc440c8e","video":null,"channel":null,"channelUrl":null,"author":"3131s","authorUrl":"https://news.ycombinator.com/user?id=3131s","authorImage":null,"authorSlug":null,"score":423,"views":null,"sharedCount":null,"likeCount":null,"sharedContent":null,"parent":{"__typename":"HnJson","localize":[{"title":"参与该算法研究(2019年)的Dev说，YouTube的推荐是有毒的。","locale":"zh"},{"title":"參與該算法研究(2019年)的Dev說，YouTube的推薦是有毒的。","locale":"zh-Hant"}]}},{"__typename":"SocialMediaPost","id":"HnPost-25514770","excerpt":"","slug":"/hn/25514770","title":"Booting an M1 Mac from an external disk","date":"December 23, 2020","dateISO":"2020-12-23T13:10:11.348Z","datetime":"2020-12-23 13:10","tags":["story","Hacker News"],"image":null,"imageAlt":null,"provider":"Hacker News","thirdPartyId":"25514770","url":"https://news.ycombinator.com/item?id=25514770","originalUrl":"https://eclecticlight.co/2020/12/22/booting-an-m1-mac-from-an-external-disk-it-is-possible/","imageRemote":"https://eclecticlightdotcom.files.wordpress.com/2020/12/extdisk01.jpg","video":null,"channel":null,"channelUrl":null,"author":"alwillis","authorUrl":"https://news.ycombinator.com/user?id=alwillis","authorImage":null,"authorSlug":null,"score":118,"views":null,"sharedCount":null,"likeCount":null,"sharedContent":null,"parent":{"__typename":"HnJson","localize":[{"title":"从外部磁盘引导M1 Mac","locale":"zh"},{"title":"從外部磁盤引導M1 Mac","locale":"zh-Hant"}]}},{"__typename":"SocialMediaPost","id":"HnPost-25516712","excerpt":"","slug":"/hn/25516712","title":"Google told its scientists to ‘strike a positive tone’ in AI research","date":"December 23, 2020","dateISO":"2020-12-23T13:10:11.348Z","datetime":"2020-12-23 13:10","tags":["story","Hacker News"],"image":null,"imageAlt":null,"provider":"Hacker News","thirdPartyId":"25516712","url":"https://news.ycombinator.com/item?id=25516712","originalUrl":"https://www.reuters.com/article/us-alphabet-google-research-focus/google-told-its-scientists-to-strike-a-positive-tone-in-ai-research-documents-idUSKBN28X1CB","imageRemote":"https://static.reuters.com/resources/r/?m=02&d=20201223&t=2&i=1545593006&r=LYNXMPEGBM0QT&w=800","video":null,"channel":null,"channelUrl":null,"author":"pseudolus","authorUrl":"https://news.ycombinator.com/user?id=pseudolus","authorImage":null,"authorSlug":null,"score":303,"views":null,"sharedCount":null,"likeCount":null,"sharedContent":null,"parent":{"__typename":"HnJson","localize":[{"title":"谷歌告诉其科学家在人工智能研究中要“采取积极的基调”","locale":"zh"},{"title":"谷歌告訴其科學家在人工智能研究中要“採取積極的基調”","locale":"zh-Hant"}]}},{"__typename":"SocialMediaPost","id":"HnPost-25514419","excerpt":"","slug":"/hn/25514419","title":"TerarkDB, ByteDance's RocksDB replacement","date":"December 23, 2020","dateISO":"2020-12-23T12:41:58.203Z","datetime":"2020-12-23 12:41","tags":["story","Hacker News"],"image":null,"imageAlt":null,"provider":"Hacker News","thirdPartyId":"25514419","url":"https://news.ycombinator.com/item?id=25514419","originalUrl":"https://github.com/bytedance/terarkdb","imageRemote":"https://avatars3.githubusercontent.com/u/4158466?s=400&v=4","video":null,"channel":null,"channelUrl":null,"author":"royguo1988","authorUrl":"https://news.ycombinator.com/user?id=royguo1988","authorImage":null,"authorSlug":null,"score":167,"views":null,"sharedCount":null,"likeCount":null,"sharedContent":null,"parent":{"__typename":"HnJson","localize":[{"title":"TerarkDB，ByteDance的RocksDB替代品","locale":"zh"},{"title":"TerarkDB，ByteDance的RocksDB替代品","locale":"zh-Hant"}]}},{"__typename":"SocialMediaPost","id":"HnPost-25513828","excerpt":"","slug":"/hn/25513828","title":"IPv6 WireGuard Peering","date":"December 23, 2020","dateISO":"2020-12-23T12:02:32.163Z","datetime":"2020-12-23 12:02","tags":["story","Hacker News"],"image":null,"imageAlt":null,"provider":"Hacker News","thirdPartyId":"25513828","url":"https://news.ycombinator.com/item?id=25513828","originalUrl":"https://fly.io/blog/ipv6-wireguard-peering/","imageRemote":"https://fly.io/public/images/flyctl-preview.png","video":null,"channel":null,"channelUrl":null,"author":"wglb","authorUrl":"https://news.ycombinator.com/user?id=wglb","authorImage":null,"authorSlug":null,"score":141,"views":null,"sharedCount":null,"likeCount":null,"sharedContent":null,"parent":{"__typename":"HnJson","localize":[{"title":"IPv6 WireGuard对等","locale":"zh"},{"title":"IPv6 WireGuard對等","locale":"zh-Hant"}]}},{"__typename":"SocialMediaPost","id":"HnPost-25505550","excerpt":"","slug":"/hn/25505550","title":"Deep Graph Library: Easy Deep Learning on Graphs","date":"December 23, 2020","dateISO":"2020-12-23T11:53:22.017Z","datetime":"2020-12-23 11:53","tags":["story","Hacker News"],"image":null,"imageAlt":null,"provider":"Hacker News","thirdPartyId":"25505550","url":"https://news.ycombinator.com/item?id=25505550","originalUrl":"https://www.dgl.ai/","imageRemote":"https://www.dgl.ai/assets/images/logo.png","video":null,"channel":null,"channelUrl":null,"author":"based2","authorUrl":"https://news.ycombinator.com/user?id=based2","authorImage":null,"authorSlug":null,"score":122,"views":null,"sharedCount":null,"likeCount":null,"sharedContent":null,"parent":{"__typename":"HnJson","localize":[{"title":"深度图库：关于图形的简单深度学习","locale":"zh"},{"title":"深度圖庫：關於圖形的簡單深度學習","locale":"zh-Hant"}]}},{"__typename":"SocialMediaPost","id":"HnPost-25513557","excerpt":"","slug":"/hn/25513557","title":"Medo: A modern UHD 4K open source Media editor for Haiku OS in less than 1.44 Mb","date":"December 23, 2020","dateISO":"2020-12-23T11:40:33.986Z","datetime":"2020-12-23 11:40","tags":["story","Hacker News"],"image":null,"imageAlt":null,"provider":"Hacker News","thirdPartyId":"25513557","url":"https://news.ycombinator.com/item?id=25513557","originalUrl":"https://discuss.haiku-os.org/t/announcement-haiku-media-editor-r1-0-0-beta-1/10218","imageRemote":"https://discuss.haiku-os.org/uploads/default/optimized/2X/b/bdf759e46a436794646f591d90c5e80ba2e0a95c_2_1023x725.jpeg","video":null,"channel":null,"channelUrl":null,"author":"smallstepforman","authorUrl":"https://news.ycombinator.com/user?id=smallstepforman","authorImage":null,"authorSlug":null,"score":169,"views":null,"sharedCount":null,"likeCount":null,"sharedContent":null,"parent":{"__typename":"HnJson","localize":[{"title":"MEDO：不到1.44Mb的现代超高清4K开源媒体编辑器","locale":"zh"},{"title":"MEDO：不到1.44Mb的現代超高清4K開源媒體編輯器","locale":"zh-Hant"}]}},{"__typename":"SocialMediaPost","id":"HnPost-25514238","excerpt":"","slug":"/hn/25514238","title":"Git Koans (2013)","date":"December 23, 2020","dateISO":"2020-12-23T11:24:00.595Z","datetime":"2020-12-23 11:24","tags":["story","Hacker News"],"image":null,"imageAlt":null,"provider":"Hacker News","thirdPartyId":"25514238","url":"https://news.ycombinator.com/item?id=25514238","originalUrl":"https://stevelosh.com/blog/2013/04/git-koans/","imageRemote":null,"video":null,"channel":null,"channelUrl":null,"author":"mmettler","authorUrl":"https://news.ycombinator.com/user?id=mmettler","authorImage":null,"authorSlug":null,"score":197,"views":null,"sharedCount":null,"likeCount":null,"sharedContent":null,"parent":{"__typename":"HnJson","localize":[{"title":"Git Koans(2013)","locale":"zh"},{"title":"Git Koans(2013)","locale":"zh-Hant"}]}},{"__typename":"SocialMediaPost","id":"HnPost-25505212","excerpt":"","slug":"/hn/25505212","title":"Hell Yes CSS","date":"December 23, 2020","dateISO":"2020-12-23T09:40:59.343Z","datetime":"2020-12-23 09:40","tags":["story","Hacker News"],"image":null,"imageAlt":null,"provider":"Hacker News","thirdPartyId":"25505212","url":"https://news.ycombinator.com/item?id=25505212","originalUrl":"https://wizardzines.com/zines/css/","imageRemote":"https://wizardzines.com/zines/css/cover_hub5a0e43f71dcd9f727a5916b973bae68_3392973_800x0_resize_box_2.png","video":null,"channel":null,"channelUrl":null,"author":"adrian_mrd","authorUrl":"https://news.ycombinator.com/user?id=adrian_mrd","authorImage":null,"authorSlug":null,"score":214,"views":null,"sharedCount":null,"likeCount":null,"sharedContent":null,"parent":{"__typename":"HnJson","localize":[{"title":"该死的是CSS","locale":"zh"},{"title":"該死的是CSS","locale":"zh-Hant"}]}},{"__typename":"SocialMediaPost","id":"HnPost-25511281","excerpt":"","slug":"/hn/25511281","title":"Interview with an anonymous AWS cybersecurity engineer","date":"December 23, 2020","dateISO":"2020-12-23T09:40:59.343Z","datetime":"2020-12-23 09:40","tags":["story","Hacker News"],"image":null,"imageAlt":null,"provider":"Hacker News","thirdPartyId":"25511281","url":"https://news.ycombinator.com/item?id=25511281","originalUrl":"https://logicmag.io/commons/inside-the-whale-an-interview-with-an-anonymous-amazonian/","imageRemote":"https://images.ctfassets.net/e529ilab8frl/72yhxA6LEceVQKkjzeUp72/b988ff47ba7c13e6582aa472be274eb2/Screen_Shot_2020-12-21_at_9.49.01_PM.png?w=1200&fm=jpg&fl=progressive","video":null,"channel":null,"channelUrl":null,"author":"who-knows","authorUrl":"https://news.ycombinator.com/user?id=who-knows","authorImage":null,"authorSlug":null,"score":120,"views":null,"sharedCount":null,"likeCount":null,"sharedContent":null,"parent":{"__typename":"HnJson","localize":[{"title":"采访一位匿名的AWS网络安全工程师","locale":"zh"},{"title":"採訪一位匿名的AWS網絡安全工程師","locale":"zh-Hant"}]}},{"__typename":"SocialMediaPost","id":"HnPost-25515004","excerpt":"","slug":"/hn/25515004","title":"Maps.me is gone. We must bring it back","date":"December 23, 2020","dateISO":"2020-12-23T09:40:59.342Z","datetime":"2020-12-23 09:40","tags":["story","Hacker News"],"image":null,"imageAlt":null,"provider":"Hacker News","thirdPartyId":"25515004","url":"https://news.ycombinator.com/item?id=25515004","originalUrl":"https://telegra.ph/What-happened-to-the-old-MAPSME-12-20","imageRemote":"https://telegra.ph/file/8ced7a5fd06d8cfb489b1.png","video":null,"channel":null,"channelUrl":null,"author":"monort","authorUrl":"https://news.ycombinator.com/user?id=monort","authorImage":null,"authorSlug":null,"score":545,"views":null,"sharedCount":null,"likeCount":null,"sharedContent":null,"parent":{"__typename":"HnJson","localize":[{"title":"我走了。我们必须把它带回来","locale":"zh"},{"title":"我走了。我們必須把它帶回來","locale":"zh-Hant"}]}},{"__typename":"SocialMediaPost","id":"HnPost-25514930","excerpt":"","slug":"/hn/25514930","title":"Xfce 4.16","date":"December 23, 2020","dateISO":"2020-12-23T09:08:37.014Z","datetime":"2020-12-23 09:08","tags":["story","Hacker News"],"image":null,"imageAlt":null,"provider":"Hacker News","thirdPartyId":"25514930","url":"https://news.ycombinator.com/item?id=25514930","originalUrl":"https://xfce.org/about/news/?post=1608595200","imageRemote":"https://cdn.xfce.org/about/tour/4.16/upstream-icons.png","video":null,"channel":null,"channelUrl":null,"author":"KindOne","authorUrl":"https://news.ycombinator.com/user?id=KindOne","authorImage":null,"authorSlug":null,"score":350,"views":null,"sharedCount":null,"likeCount":null,"sharedContent":null,"parent":{"__typename":"HnJson","localize":[{"title":"XFCE 4.16","locale":"zh"},{"title":"XFCE 4.16","locale":"zh-Hant"}]}},{"__typename":"SocialMediaPost","id":"HnPost-25513845","excerpt":"","slug":"/hn/25513845","title":"The FBI Is Breaking into Encrypted Devices – We’re Suing","date":"December 23, 2020","dateISO":"2020-12-23T07:39:23.474Z","datetime":"2020-12-23 07:39","tags":["story","Hacker News"],"image":null,"imageAlt":null,"provider":"Hacker News","thirdPartyId":"25513845","url":"https://news.ycombinator.com/item?id=25513845","originalUrl":"https://www.aclu.org/news/privacy-technology/the-fbi-is-secretly-breaking-into-encrypted-devices-were-suing","imageRemote":"https://www.aclu.org/news/images/share/default_fb_share.png","video":null,"channel":null,"channelUrl":null,"author":"clutchdude","authorUrl":"https://news.ycombinator.com/user?id=clutchdude","authorImage":null,"authorSlug":null,"score":254,"views":null,"sharedCount":null,"likeCount":null,"sharedContent":null,"parent":{"__typename":"HnJson","localize":[{"title":"联邦调查局正在破解加密设备-我们要起诉","locale":"zh"},{"title":"聯邦調查局正在破解加密設備-我們要起訴","locale":"zh-Hant"}]}},{"__typename":"SocialMediaPost","id":"HnPost-25506316","excerpt":"","slug":"/hn/25506316","title":"More Than 70 West Point Cadets Accused of Cheating in Academic Scandal","date":"December 23, 2020","dateISO":"2020-12-23T07:12:32.401Z","datetime":"2020-12-23 07:12","tags":["story","Hacker News"],"image":null,"imageAlt":null,"provider":"Hacker News","thirdPartyId":"25506316","url":"https://news.ycombinator.com/item?id=25506316","originalUrl":"https://www.npr.org/2020/12/21/949025580/more-than-70-west-point-cadets-accused-of-cheating-in-academic-scandal","imageRemote":"https://media.npr.org/assets/img/2020/12/21/gettyimages-73752462_wide-6af1ef3f2ff7db1b01f33d607cda84d01f7eb336.jpg?s=1400","video":null,"channel":null,"channelUrl":null,"author":"KoftaBob","authorUrl":"https://news.ycombinator.com/user?id=KoftaBob","authorImage":null,"authorSlug":null,"score":196,"views":null,"sharedCount":null,"likeCount":null,"sharedContent":null,"parent":{"__typename":"HnJson","localize":[{"title":"70多名西点军校学员被控在学术丑闻中作弊","locale":"zh"},{"title":"70多名西點軍校學員被控在學術醜聞中作弊","locale":"zh-Hant"}]}},{"__typename":"SocialMediaPost","id":"HnPost-25506964","excerpt":"","slug":"/hn/25506964","title":"Google Play rejected Tor Browser update with security fixes","date":"December 23, 2020","dateISO":"2020-12-23T07:12:32.401Z","datetime":"2020-12-23 07:12","tags":["story","Hacker News"],"image":null,"imageAlt":null,"provider":"Hacker News","thirdPartyId":"25506964","url":"https://news.ycombinator.com/item?id=25506964","originalUrl":"https://blog.torproject.org/new-release-tor-browser-1007","imageRemote":"https://blog.torproject.org/sites/default/files/styles/full_width/public/image/10-0%402x_6.png?itok=pNAcdMHb","video":null,"channel":null,"channelUrl":null,"author":"ikeboy","authorUrl":"https://news.ycombinator.com/user?id=ikeboy","authorImage":null,"authorSlug":null,"score":334,"views":null,"sharedCount":null,"likeCount":null,"sharedContent":null,"parent":{"__typename":"HnJson","localize":[{"title":"Google Play拒绝了带有安全修复的Tor浏览器更新","locale":"zh"},{"title":"Google Play拒絕了帶有安全修復的Tor瀏覽器更新","locale":"zh-Hant"}]}},{"__typename":"SocialMediaPost","id":"HnPost-25507942","excerpt":"","slug":"/hn/25507942","title":"Hotwire: HTML over the Wire","date":"December 23, 2020","dateISO":"2020-12-23T07:12:32.401Z","datetime":"2020-12-23 07:12","tags":["story","Hacker News"],"image":null,"imageAlt":null,"provider":"Hacker News","thirdPartyId":"25507942","url":"https://news.ycombinator.com/item?id=25507942","originalUrl":"https://hotwire.dev/","imageRemote":"https://hotwire.dev/assets/logos/turbo.svg","video":null,"channel":null,"channelUrl":null,"author":"samename","authorUrl":"https://news.ycombinator.com/user?id=samename","authorImage":null,"authorSlug":null,"score":1064,"views":null,"sharedCount":null,"likeCount":null,"sharedContent":null,"parent":{"__typename":"HnJson","localize":[{"title":"Hotwire：网络上的HTML","locale":"zh"},{"title":"Hotwire：網絡上的HTML","locale":"zh-Hant"}]}},{"__typename":"SocialMediaPost","id":"HnPost-25512011","excerpt":"","slug":"/hn/25512011","title":"Facebook reveals 'SuperCell' tower to increase connectivity in rural areas","date":"December 23, 2020","dateISO":"2020-12-23T07:12:32.401Z","datetime":"2020-12-23 07:12","tags":["story","Hacker News"],"image":null,"imageAlt":null,"provider":"Hacker News","thirdPartyId":"25512011","url":"https://news.ycombinator.com/item?id=25512011","originalUrl":"https://engineering.fb.com/2020/12/03/connectivity/supercell-reaching-new-heights-for-wider-connectivity/","imageRemote":"https://engineering.fb.com/wp-content/uploads/2020/11/SuperCell_Hero.jpg","video":null,"channel":null,"channelUrl":null,"author":"mostdefinite1","authorUrl":"https://news.ycombinator.com/user?id=mostdefinite1","authorImage":null,"authorSlug":null,"score":134,"views":null,"sharedCount":null,"likeCount":null,"sharedContent":null,"parent":{"__typename":"HnJson","localize":[{"title":"Facebook揭开“Supercell”塔楼的神秘面纱，以增加农村地区的连通性","locale":"zh"},{"title":"Facebook揭開“Supercell”塔樓的神祕面紗，以增加農村地區的連通性","locale":"zh-Hant"}]}},{"__typename":"SocialMediaPost","id":"HnPost-25514200","excerpt":"","slug":"/hn/25514200","title":"Baremetrics: “you need to make a call to unsubscribe” lol","date":"December 23, 2020","dateISO":"2020-12-23T07:12:32.401Z","datetime":"2020-12-23 07:12","tags":["story","Hacker News"],"image":null,"imageAlt":null,"provider":"Hacker News","thirdPartyId":"25514200","url":"https://news.ycombinator.com/item?id=25514200","originalUrl":"https://twitter.com/cmdkhalilov/status/1341462579680587778","imageRemote":null,"video":null,"channel":null,"channelUrl":null,"author":"joshxyz","authorUrl":"https://news.ycombinator.com/user?id=joshxyz","authorImage":null,"authorSlug":null,"score":410,"views":null,"sharedCount":null,"likeCount":null,"sharedContent":null,"parent":{"__typename":"HnJson","localize":[{"title":"Baremetrics：“您需要拨打电话才能取消订阅”笑","locale":"zh"},{"title":"Baremetrics：“您需要撥打電話才能取消訂閱”笑","locale":"zh-Hant"}]}}]}},"pageContext":{"basePath":"/","pageType":"tag","tag":"story","tagsFilter":{"id":{"glob":"!*Post-1"}},"filter":{"id":{"glob":"!*Post-1"},"tags":{"eq":"story"}},"limit":25,"skip":600,"total":910,"totalPages":37,"currentPage":25,"maxWidth":1024,"maxHeight":512,"locale":"zh","hrefLang":"zh-Hans","originalPath":"/tags/story/page/25","dateFormat":"YYYY-MM-DD"}},"staticQueryHashes":["1239077767","2506312863","2744905544","3025052997","3493603132","3493603132","3513215887","386998304"]}