{"componentChunkName":"component---gatsby-theme-buzzing-src-gatsby-theme-timeline-templates-posts-query-js","path":"/en/tags/hacker-news/page/20","result":{"data":{"site":{"siteMetadata":{"title":"Reddit 热门","description":"用中文浏览Reddit热门内容","social":[{"name":"Twitter","url":"https://twitter.com/gatsbyjs","external":null,"prefetch":null},{"name":"GitHub","url":"https://github.com/gatsbyjs","external":null,"prefetch":null}],"menuLinks":[],"localize":[{"locale":"en","title":"Buzzing on Reddit","description":"See what's buzzing on Reddit in your native language","social":[{"name":"Reddit","url":"https://www.reddit.com/","external":true,"prefetch":null}],"menuLinks":[{"name":"Weekly Selection","url":"/issues","external":null,"prefetch":null},{"name":"RSS","url":"/rss.xml","external":null,"prefetch":false}]},{"locale":"zh-Hant","title":"Reddit 熱門","description":"用中文瀏覽Reddit熱門內容","social":null,"menuLinks":null}]}},"tagsGroup":{"group":[{"fieldValue":"ASK HN","totalCount":22},{"fieldValue":"Bitcoin","totalCount":3},{"fieldValue":"Hacker News","totalCount":911},{"fieldValue":"Poll","totalCount":1},{"fieldValue":"Show HN","totalCount":34},{"fieldValue":"investing","totalCount":195},{"fieldValue":"poll","totalCount":1},{"fieldValue":"reddit","totalCount":759},{"fieldValue":"science","totalCount":1},{"fieldValue":"stocks","totalCount":333},{"fieldValue":"story","totalCount":910},{"fieldValue":"tweet","totalCount":274},{"fieldValue":"wallstreetbets","totalCount":231}]},"allBlogPost":{"nodes":[{"__typename":"SocialMediaPost","id":"HnPost-25547123","excerpt":"","slug":"/hn/25547123","title":"Lost nuclear device atop of Nanda Devi","date":"December 27, 2020","dateISO":"2020-12-27T04:41:43.150Z","datetime":"2020-12-27 04:41","tags":["story","Hacker News"],"image":null,"imageAlt":null,"provider":"Hacker News","thirdPartyId":"25547123","url":"https://news.ycombinator.com/item?id=25547123","originalUrl":"https://www.livehistoryindia.com/cover-story/2020/09/18/nanda-devi-nuclear-device","imageRemote":"https://images.assettype.com/indynetwork/2020-09/de00724b-9ea2-4f38-82dc-ca78b3e6dee0/Image_9.jpg?w=700&ogImage=true&auto=format%2Ccompress","video":null,"channel":null,"channelUrl":null,"author":"hudvin","authorUrl":"https://news.ycombinator.com/user?id=hudvin","authorImage":null,"authorSlug":null,"score":208,"views":null,"sharedCount":null,"likeCount":null,"sharedContent":null,"parent":{"__typename":"HnJson","localize":[{"title":"南大设备顶部丢失的核装置","locale":"zh"},{"title":"南大設備頂部丟失的核裝置","locale":"zh-Hant"}]}},{"__typename":"SocialMediaPost","id":"HnPost-25547438","excerpt":"","slug":"/hn/25547438","title":"Starship / Super Heavy","date":"December 27, 2020","dateISO":"2020-12-27T03:13:26.012Z","datetime":"2020-12-27 03:13","tags":["story","Hacker News"],"image":null,"imageAlt":null,"provider":"Hacker News","thirdPartyId":"25547438","url":"https://news.ycombinator.com/item?id=25547438","originalUrl":"https://www.faa.gov/space/stakeholder_engagement/spacex_starship/starship_super_heavy/","imageRemote":"https://www.faa.gov/templates/4/assets/img/logoDOTRibbon@1x.png","video":null,"channel":null,"channelUrl":null,"author":"zaroth","authorUrl":"https://news.ycombinator.com/user?id=zaroth","authorImage":null,"authorSlug":null,"score":327,"views":null,"sharedCount":null,"likeCount":null,"sharedContent":null,"parent":{"__typename":"HnJson","localize":[{"title":"星际飞船/超重型","locale":"zh"},{"title":"星際飛船/超重型","locale":"zh-Hant"}]}},{"__typename":"SocialMediaPost","id":"HnPost-25547448","excerpt":"","slug":"/hn/25547448","title":"What If You Could Do It All Over?","date":"December 27, 2020","dateISO":"2020-12-27T02:19:19.259Z","datetime":"2020-12-27 02:19","tags":["story","Hacker News"],"image":null,"imageAlt":null,"provider":"Hacker News","thirdPartyId":"25547448","url":"https://news.ycombinator.com/item?id=25547448","originalUrl":"https://www.newyorker.com/magazine/2020/12/21/what-if-you-could-do-it-all-over","imageRemote":"https://media.newyorker.com/photos/5fd296d5f0b3263b5d9c5038/16:9/w_1280,c_limit/201221_r37576.jpg","video":null,"channel":null,"channelUrl":null,"author":"jonas21","authorUrl":"https://news.ycombinator.com/user?id=jonas21","authorImage":null,"authorSlug":null,"score":443,"views":null,"sharedCount":null,"likeCount":null,"sharedContent":null,"parent":{"__typename":"HnJson","localize":[{"title":"如果你能从头再来一遍呢？","locale":"zh"},{"title":"如果你能從頭再來一遍呢？","locale":"zh-Hant"}]}},{"__typename":"SocialMediaPost","id":"HnPost-25542456","excerpt":"","slug":"/hn/25542456","title":"Show HN: System for Private Data Management","date":"December 27, 2020","dateISO":"2020-12-27T01:19:27.658Z","datetime":"2020-12-27 01:19","tags":["story","Show HN","Hacker News"],"image":null,"imageAlt":null,"provider":"Hacker News","thirdPartyId":"25542456","url":"https://news.ycombinator.com/item?id=25542456","originalUrl":"https://github.com/Volmarg/personal-management-system","imageRemote":"https://avatars2.githubusercontent.com/u/37488679?s=400&v=4","video":null,"channel":"Show HN","channelUrl":"https://news.ycombinator.com/show","author":"dariuszW","authorUrl":"https://news.ycombinator.com/user?id=dariuszW","authorImage":null,"authorSlug":null,"score":131,"views":null,"sharedCount":null,"likeCount":null,"sharedContent":null,"parent":{"__typename":"HnJson","localize":[{"title":"HN新产品：私有数据管理系统","locale":"zh"},{"title":"HN新產品：私有數據管理系統","locale":"zh-Hant"}]}},{"__typename":"SocialMediaPost","id":"HnPost-25543898","excerpt":"","slug":"/hn/25543898","title":"Stadia uses a web app to bypass Apple's policy on cloud gaming apps","date":"December 27, 2020","dateISO":"2020-12-27T01:19:27.658Z","datetime":"2020-12-27 01:19","tags":["story","Hacker News"],"image":null,"imageAlt":null,"provider":"Hacker News","thirdPartyId":"25543898","url":"https://news.ycombinator.com/item?id=25543898","originalUrl":"https://www.extremetech.com/mobile/318411-stadia-is-now-playable-on-iphone-thanks-to-googles-new-web-app","imageRemote":"https://www.extremetech.com/wp-content/uploads/2019/11/Stadia-et-33.jpg","video":null,"channel":null,"channelUrl":null,"author":"rewq4321","authorUrl":"https://news.ycombinator.com/user?id=rewq4321","authorImage":null,"authorSlug":null,"score":140,"views":null,"sharedCount":null,"likeCount":null,"sharedContent":null,"parent":{"__typename":"HnJson","localize":[{"title":"Stadia使用网络应用绕过苹果的云游戏应用政策","locale":"zh"},{"title":"Stadia使用網絡應用繞過蘋果的雲遊戲應用政策","locale":"zh-Hant"}]}},{"__typename":"SocialMediaPost","id":"HnPost-25541329","excerpt":"","slug":"/hn/25541329","title":"A family with no fingerprints","date":"December 26, 2020","dateISO":"2020-12-26T23:39:15.611Z","datetime":"2020-12-26 23:39","tags":["story","Hacker News"],"image":null,"imageAlt":null,"provider":"Hacker News","thirdPartyId":"25541329","url":"https://news.ycombinator.com/item?id=25541329","originalUrl":"https://www.bbc.co.uk/news/world-asia-55301200","imageRemote":"https://ichef.bbci.co.uk/news/1024/branded_news/5797/production/_116132422_amal_apu.jpg","video":null,"channel":null,"channelUrl":null,"author":"lnguyen","authorUrl":"https://news.ycombinator.com/user?id=lnguyen","authorImage":null,"authorSlug":null,"score":120,"views":null,"sharedCount":null,"likeCount":null,"sharedContent":null,"parent":{"__typename":"HnJson","localize":[{"title":"一个没有指纹的家庭","locale":"zh"},{"title":"一個沒有指紋的家庭","locale":"zh-Hant"}]}},{"__typename":"SocialMediaPost","id":"HnPost-25543861","excerpt":"","slug":"/hn/25543861","title":"Lawyers automate this, so why don't airlines?","date":"December 26, 2020","dateISO":"2020-12-26T21:56:52.718Z","datetime":"2020-12-26 21:56","tags":["story","Hacker News"],"image":null,"imageAlt":null,"provider":"Hacker News","thirdPartyId":"25543861","url":"https://news.ycombinator.com/item?id=25543861","originalUrl":"https://leejo.github.io/2020/12/26/EZY1952/","imageRemote":"https://leejo.github.io/images/2020/EZY1952/typical_cost.png","video":null,"channel":null,"channelUrl":null,"author":"leejo","authorUrl":"https://news.ycombinator.com/user?id=leejo","authorImage":null,"authorSlug":null,"score":192,"views":null,"sharedCount":null,"likeCount":null,"sharedContent":null,"parent":{"__typename":"HnJson","localize":[{"title":"律师会自动完成这项工作，那么为什么航空公司不能呢？","locale":"zh"},{"title":"律師會自動完成這項工作，那麼爲什麼航空公司不能呢？","locale":"zh-Hant"}]}},{"__typename":"SocialMediaPost","id":"HnPost-25545967","excerpt":"","slug":"/hn/25545967","title":"Cursed IP Address Representations","date":"December 26, 2020","dateISO":"2020-12-26T21:39:42.602Z","datetime":"2020-12-26 21:39","tags":["story","Hacker News"],"image":null,"imageAlt":null,"provider":"Hacker News","thirdPartyId":"25545967","url":"https://news.ycombinator.com/item?id=25545967","originalUrl":"https://blog.dave.tf/post/ip-addr-parsing/","imageRemote":null,"video":null,"channel":null,"channelUrl":null,"author":"mr_tyzic","authorUrl":"https://news.ycombinator.com/user?id=mr_tyzic","authorImage":null,"authorSlug":null,"score":502,"views":null,"sharedCount":null,"likeCount":null,"sharedContent":null,"parent":{"__typename":"HnJson","localize":[{"title":"受诅咒的IP地址表示","locale":"zh"},{"title":"受詛咒的IP地址表示","locale":"zh-Hant"}]}},{"__typename":"SocialMediaPost","id":"HnPost-25544397","excerpt":"","slug":"/hn/25544397","title":"Show HN: Simple-graph – a graph database in SQLite","date":"December 26, 2020","dateISO":"2020-12-26T21:23:34.476Z","datetime":"2020-12-26 21:23","tags":["story","Show HN","Hacker News"],"image":null,"imageAlt":null,"provider":"Hacker News","thirdPartyId":"25544397","url":"https://news.ycombinator.com/item?id=25544397","originalUrl":"https://github.com/dpapathanasiou/simple-graph","imageRemote":"https://avatars2.githubusercontent.com/u/1387395?s=400&v=4","video":null,"channel":"Show HN","channelUrl":"https://news.ycombinator.com/show","author":"dpapathanasiou","authorUrl":"https://news.ycombinator.com/user?id=dpapathanasiou","authorImage":null,"authorSlug":null,"score":235,"views":null,"sharedCount":null,"likeCount":null,"sharedContent":null,"parent":{"__typename":"HnJson","localize":[{"title":"HN新产品：SIMPLE-GRAPH-SQLITE中的图形数据库","locale":"zh"},{"title":"HN新產品：SIMPLE-GRAPH-SQLITE中的圖形數據庫","locale":"zh-Hant"}]}},{"__typename":"SocialMediaPost","id":"HnPost-25534794","excerpt":"","slug":"/hn/25534794","title":"Learning to Play the Chaos Game","date":"December 26, 2020","dateISO":"2020-12-26T20:05:06.332Z","datetime":"2020-12-26 20:05","tags":["story","Hacker News"],"image":null,"imageAlt":null,"provider":"Hacker News","thirdPartyId":"25534794","url":"https://news.ycombinator.com/item?id=25534794","originalUrl":"https://hardmath123.github.io/chaos-game-fractal-foliage.html","imageRemote":"https://hardmath123.github.io/static/chaos-game/tree-building.gif","video":null,"channel":null,"channelUrl":null,"author":"hardmath123","authorUrl":"https://news.ycombinator.com/user?id=hardmath123","authorImage":null,"authorSlug":null,"score":148,"views":null,"sharedCount":null,"likeCount":null,"sharedContent":null,"parent":{"__typename":"HnJson","localize":[{"title":"学会玩混沌游戏","locale":"zh"},{"title":"學會玩混沌遊戲","locale":"zh-Hant"}]}},{"__typename":"SocialMediaPost","id":"HnPost-25543890","excerpt":"","slug":"/hn/25543890","title":"Mass die-off of birds in south-western US 'caused by starvation'","date":"December 26, 2020","dateISO":"2020-12-26T20:05:06.332Z","datetime":"2020-12-26 20:05","tags":["story","Hacker News"],"image":null,"imageAlt":null,"provider":"Hacker News","thirdPartyId":"25543890","url":"https://news.ycombinator.com/item?id=25543890","originalUrl":"https://www.theguardian.com/environment/2020/dec/26/mass-die-off-of-birds-in-south-western-us-caused-by-starvation-aoe","imageRemote":"https://i.guim.co.uk/img/media/2651b5ceec89bc6ad083d0bdfc623b83c400195a/155_0_3242_1945/master/3242.jpg?width=1200&height=630&quality=85&auto=format&fit=crop&overlay-align=bottom%2Cleft&overlay-width=100p&overlay-base64=L2ltZy9zdGF0aWMvb3ZlcmxheXMvdGctZGVmYXVsdC5wbmc&enable=upscale&s=ed41d6d8c291136751734dbf739bfe02","video":null,"channel":null,"channelUrl":null,"author":"wyldfire","authorUrl":"https://news.ycombinator.com/user?id=wyldfire","authorImage":null,"authorSlug":null,"score":184,"views":null,"sharedCount":null,"likeCount":null,"sharedContent":null,"parent":{"__typename":"HnJson","localize":[{"title":"美国西南部鸟类大规模死亡“是由饥饿造成的”","locale":"zh"},{"title":"美國西南部鳥類大規模死亡“是由飢餓造成的”","locale":"zh-Hant"}]}},{"__typename":"SocialMediaPost","id":"HnPost-25543958","excerpt":"","slug":"/hn/25543958","title":"Domino’s Pizza Drove a 90x Increase in Stock Value by Acting Like a Startup","date":"December 26, 2020","dateISO":"2020-12-26T20:05:06.332Z","datetime":"2020-12-26 20:05","tags":["story","Hacker News"],"image":null,"imageAlt":null,"provider":"Hacker News","thirdPartyId":"25543958","url":"https://news.ycombinator.com/item?id=25543958","originalUrl":"https://producthabits.com/dominos-pizza-drove-90x-increase-stock-value-acting-like-tech-startup/","imageRemote":"https://producthabits.com/wp-content/uploads/2019/02/Product-Habits-Share@2x.png","video":null,"channel":null,"channelUrl":null,"author":"swyx","authorUrl":"https://news.ycombinator.com/user?id=swyx","authorImage":null,"authorSlug":null,"score":122,"views":null,"sharedCount":null,"likeCount":null,"sharedContent":null,"parent":{"__typename":"HnJson","localize":[{"title":"Domino‘s Pizza像创业公司一样推动股票价值增加90倍","locale":"zh"},{"title":"Domino‘s Pizza像創業公司一樣推動股票價值增加90倍","locale":"zh-Hant"}]}},{"__typename":"SocialMediaPost","id":"HnPost-25544831","excerpt":"","slug":"/hn/25544831","title":"What’s the Best Non-Smart TV Sold Today?","date":"December 26, 2020","dateISO":"2020-12-26T20:05:06.332Z","datetime":"2020-12-26 20:05","tags":["story","Hacker News"],"image":null,"imageAlt":null,"provider":"Hacker News","thirdPartyId":"25544831","url":"https://news.ycombinator.com/item?id=25544831","originalUrl":"https://helpatmyhome.com/best-non-smart-tv/","imageRemote":"https://helpatmyhome.com/wp-content/uploads/2020/12/tvtvtvtvtvtvtv.jpg","video":null,"channel":null,"channelUrl":null,"author":"thomas","authorUrl":"https://news.ycombinator.com/user?id=thomas","authorImage":null,"authorSlug":null,"score":223,"views":null,"sharedCount":null,"likeCount":null,"sharedContent":null,"parent":{"__typename":"HnJson","localize":[{"title":"今天卖得最好的非智能电视是什么？","locale":"zh"},{"title":"今天賣得最好的非智能電視是什麼？","locale":"zh-Hant"}]}},{"__typename":"SocialMediaPost","id":"HnPost-25545361","excerpt":"","slug":"/hn/25545361","title":"I reverse engineered Google docs (2014)","date":"December 26, 2020","dateISO":"2020-12-26T19:38:14.935Z","datetime":"2020-12-26 19:38","tags":["story","Hacker News"],"image":null,"imageAlt":null,"provider":"Hacker News","thirdPartyId":"25545361","url":"https://news.ycombinator.com/item?id=25545361","originalUrl":"http://features.jsomers.net/how-i-reverse-engineered-google-docs/","imageRemote":"https://cloud.githubusercontent.com/assets/21294/4930884/70fe3062-656c-11e4-9ce6-f83cfa84f095.png","video":null,"channel":null,"channelUrl":null,"author":"flurly","authorUrl":"https://news.ycombinator.com/user?id=flurly","authorImage":null,"authorSlug":null,"score":411,"views":null,"sharedCount":null,"likeCount":null,"sharedContent":null,"parent":{"__typename":"HnJson","localize":[{"title":"我对谷歌文档(Google Docs)进行了反向工程(2014)","locale":"zh"},{"title":"我對谷歌文檔(Google Docs)進行了反向工程(2014)","locale":"zh-Hant"}]}},{"__typename":"SocialMediaPost","id":"HnPost-25541919","excerpt":"","slug":"/hn/25541919","title":"Manga Guide to Lisp","date":"December 26, 2020","dateISO":"2020-12-26T18:50:07.709Z","datetime":"2020-12-26 18:50","tags":["story","Hacker News"],"image":null,"imageAlt":null,"provider":"Hacker News","thirdPartyId":"25541919","url":"https://news.ycombinator.com/item?id=25541919","originalUrl":"http://lambda.bugyo.tk/cdr/mwl/","imageRemote":"http://lambda.bugyo.tk/cdr/mwl/d_lico.png","video":null,"channel":null,"channelUrl":null,"author":"joubert","authorUrl":"https://news.ycombinator.com/user?id=joubert","authorImage":null,"authorSlug":null,"score":137,"views":null,"sharedCount":null,"likeCount":null,"sharedContent":null,"parent":{"__typename":"HnJson","localize":[{"title":"Lisp漫画指南","locale":"zh"},{"title":"Lisp漫畫指南","locale":"zh-Hant"}]}},{"__typename":"SocialMediaPost","id":"HnPost-25535893","excerpt":"","slug":"/hn/25535893","title":"Redox OS 0.6, the micro-kernel based Rust-written operating system","date":"December 26, 2020","dateISO":"2020-12-26T17:42:41.602Z","datetime":"2020-12-26 17:42","tags":["story","Hacker News"],"image":null,"imageAlt":null,"provider":"Hacker News","thirdPartyId":"25535893","url":"https://news.ycombinator.com/item?id=25535893","originalUrl":"https://www.phoronix.com/scan.php?page=news_item&px=Redox-OS-0.6-Released","imageRemote":"https://www.phoronix.com/assets/categories/operatingsystems.jpg","video":null,"channel":null,"channelUrl":null,"author":"cassepipe","authorUrl":"https://news.ycombinator.com/user?id=cassepipe","authorImage":null,"authorSlug":null,"score":104,"views":null,"sharedCount":null,"likeCount":null,"sharedContent":null,"parent":{"__typename":"HnJson","localize":[{"title":"Redox OS 0.6，基于微内核的锈写操作系统","locale":"zh"},{"title":"Redox OS 0.6，基於微內核的鏽寫操作系統","locale":"zh-Hant"}]}},{"__typename":"SocialMediaPost","id":"HnPost-25543086","excerpt":"","slug":"/hn/25543086","title":"Apple iCloud Account and Sign In outage affecting some users for over 24 hours","date":"December 26, 2020","dateISO":"2020-12-26T17:42:41.602Z","datetime":"2020-12-26 17:42","tags":["story","Hacker News"],"image":null,"imageAlt":null,"provider":"Hacker News","thirdPartyId":"25543086","url":"https://news.ycombinator.com/item?id=25543086","originalUrl":"https://www.apple.com/support/systemstatus?down","imageRemote":null,"video":null,"channel":null,"channelUrl":null,"author":"reimertz","authorUrl":"https://news.ycombinator.com/user?id=reimertz","authorImage":null,"authorSlug":null,"score":161,"views":null,"sharedCount":null,"likeCount":null,"sharedContent":null,"parent":{"__typename":"HnJson","localize":[{"title":"影响某些用户的Apple iCloud帐户和登录中断超过24小时","locale":"zh"},{"title":"影響某些用戶的Apple iCloud帳戶和登錄中斷超過24小時","locale":"zh-Hant"}]}},{"__typename":"SocialMediaPost","id":"HnPost-25543191","excerpt":"","slug":"/hn/25543191","title":"Executable PNGs","date":"December 26, 2020","dateISO":"2020-12-26T17:42:41.602Z","datetime":"2020-12-26 17:42","tags":["story","Hacker News"],"image":null,"imageAlt":null,"provider":"Hacker News","thirdPartyId":"25543191","url":"https://news.ycombinator.com/item?id=25543191","originalUrl":"https://djharper.dev/post/2020/12/26/executable-pngs/","imageRemote":"https://djharper.dev/img/byte-replace1.png","video":null,"channel":null,"channelUrl":null,"author":"todsacerdoti","authorUrl":"https://news.ycombinator.com/user?id=todsacerdoti","authorImage":null,"authorSlug":null,"score":234,"views":null,"sharedCount":null,"likeCount":null,"sharedContent":null,"parent":{"__typename":"HnJson","localize":[{"title":"可执行的PNG","locale":"zh"},{"title":"可執行的PNG","locale":"zh-Hant"}]}},{"__typename":"SocialMediaPost","id":"HnPost-25543386","excerpt":"","slug":"/hn/25543386","title":"Print this file, your printer will jam (2008)","date":"December 26, 2020","dateISO":"2020-12-26T16:56:13.446Z","datetime":"2020-12-26 16:56","tags":["story","Hacker News"],"image":null,"imageAlt":null,"provider":"Hacker News","thirdPartyId":"25543386","url":"https://news.ycombinator.com/item?id=25543386","originalUrl":"https://nedbatchelder.com/blog/200811/print_this_file_your_printer_will_jam.html","imageRemote":"https://www.gravatar.com/avatar/c508768a33e3bee9999ec30421df030c.jpg?default=https%3A%2F%2Fnedbatchelder.com%2Fpix%2Favatar%2Fa20.jpg&size=80","video":null,"channel":null,"channelUrl":null,"author":"segfaultbuserr","authorUrl":"https://news.ycombinator.com/user?id=segfaultbuserr","authorImage":null,"authorSlug":null,"score":491,"views":null,"sharedCount":null,"likeCount":null,"sharedContent":null,"parent":{"__typename":"HnJson","localize":[{"title":"打印此文件，您的打印机将卡纸(2008)","locale":"zh"},{"title":"打印此文件，您的打印機將卡紙(2008)","locale":"zh-Hant"}]}},{"__typename":"SocialMediaPost","id":"HnPost-25543818","excerpt":"","slug":"/hn/25543818","title":"They want us to be compliant, not secure","date":"December 26, 2020","dateISO":"2020-12-26T16:56:13.446Z","datetime":"2020-12-26 16:56","tags":["story","Hacker News"],"image":null,"imageAlt":null,"provider":"Hacker News","thirdPartyId":"25543818","url":"https://news.ycombinator.com/item?id=25543818","originalUrl":"https://www.go350.com/posts/they-want-us-to-be-compliant-not-secure/","imageRemote":null,"video":null,"channel":null,"channelUrl":null,"author":"_wldu","authorUrl":"https://news.ycombinator.com/user?id=_wldu","authorImage":null,"authorSlug":null,"score":198,"views":null,"sharedCount":null,"likeCount":null,"sharedContent":null,"parent":{"__typename":"HnJson","localize":[{"title":"他们想让我们顺从，而不是安全","locale":"zh"},{"title":"他們想讓我們順從，而不是安全","locale":"zh-Hant"}]}},{"__typename":"SocialMediaPost","id":"HnPost-25542487","excerpt":"","slug":"/hn/25542487","title":"How much math you need for programming? (2014)","date":"December 26, 2020","dateISO":"2020-12-26T16:04:17.771Z","datetime":"2020-12-26 16:04","tags":["story","Hacker News"],"image":null,"imageAlt":null,"provider":"Hacker News","thirdPartyId":"25542487","url":"https://news.ycombinator.com/item?id=25542487","originalUrl":"https://lispmachine.wordpress.com/2014/12/05/how-much-math-you-need-for-programming/","imageRemote":"https://lispmachine.files.wordpress.com/2014/12/math-4.jpg","video":null,"channel":null,"channelUrl":null,"author":"kathe","authorUrl":"https://news.ycombinator.com/user?id=kathe","authorImage":null,"authorSlug":null,"score":210,"views":null,"sharedCount":null,"likeCount":null,"sharedContent":null,"parent":{"__typename":"HnJson","localize":[{"title":"编程需要多少数学？(2014)","locale":"zh"},{"title":"編程需要多少數學？(2014)","locale":"zh-Hant"}]}},{"__typename":"SocialMediaPost","id":"HnPost-25530312","excerpt":"","slug":"/hn/25530312","title":"Someone is stealing unpublished book manuscripts in a phishing scam","date":"December 26, 2020","dateISO":"2020-12-26T15:48:41.969Z","datetime":"2020-12-26 15:48","tags":["story","Hacker News"],"image":null,"imageAlt":null,"provider":"Hacker News","thirdPartyId":"25530312","url":"https://news.ycombinator.com/item?id=25530312","originalUrl":"https://www.nytimes.com/2020/12/21/books/publishing-manuscripts-phishing-scam.html","imageRemote":"https://static01.nyt.com/images/2020/12/14/books/00book_phishing1/00book_phishing1-facebookJumbo.jpg","video":null,"channel":null,"channelUrl":null,"author":"ruddct","authorUrl":"https://news.ycombinator.com/user?id=ruddct","authorImage":null,"authorSlug":null,"score":147,"views":null,"sharedCount":null,"likeCount":null,"sharedContent":null,"parent":{"__typename":"HnJson","localize":[{"title":"有人在网络钓鱼诈骗中窃取未出版的书稿","locale":"zh"},{"title":"有人在網絡釣魚詐騙中竊取未出版的書稿","locale":"zh-Hant"}]}},{"__typename":"SocialMediaPost","id":"HnPost-25542624","excerpt":"","slug":"/hn/25542624","title":"1937 Film Perfectly Explains How a Car Differential Works","date":"December 26, 2020","dateISO":"2020-12-26T15:48:41.968Z","datetime":"2020-12-26 15:48","tags":["story","Hacker News"],"image":null,"imageAlt":null,"provider":"Hacker News","thirdPartyId":"25542624","url":"https://news.ycombinator.com/item?id=25542624","originalUrl":"https://www.roadandtrack.com/car-culture/classic-cars/a25833/1937-film-perfectly-explains-how-a-car-differential-works/","imageRemote":"https://hips.hearstapps.com/roa.h-cdn.co/assets/15/23/1600x800/landscape-1433190845-spokes.jpg?resize=1200:*","video":null,"channel":null,"channelUrl":null,"author":"oedmarap","authorUrl":"https://news.ycombinator.com/user?id=oedmarap","authorImage":null,"authorSlug":null,"score":498,"views":null,"sharedCount":null,"likeCount":null,"sharedContent":null,"parent":{"__typename":"HnJson","localize":[{"title":"1937年的电影完美地解释了汽车差速器是如何工作的","locale":"zh"},{"title":"1937年的電影完美地解釋了汽車差速器是如何工作的","locale":"zh-Hant"}]}},{"__typename":"SocialMediaPost","id":"HnPost-25533563","excerpt":"","slug":"/hn/25533563","title":"Redox OS 0.6.0","date":"December 26, 2020","dateISO":"2020-12-26T12:47:21.498Z","datetime":"2020-12-26 12:47","tags":["story","Hacker News"],"image":null,"imageAlt":null,"provider":"Hacker News","thirdPartyId":"25533563","url":"https://news.ycombinator.com/item?id=25533563","originalUrl":"https://www.redox-os.org/news/release-0.6.0/","imageRemote":"https://www.redox-os.org/img/icon.png","video":null,"channel":null,"channelUrl":null,"author":"jackpot51","authorUrl":"https://news.ycombinator.com/user?id=jackpot51","authorImage":null,"authorSlug":null,"score":109,"views":null,"sharedCount":null,"likeCount":null,"sharedContent":null,"parent":{"__typename":"HnJson","localize":[{"title":"氧化还原OS 0.6.0","locale":"zh"},{"title":"氧化還原OS 0.6.0","locale":"zh-Hant"}]}},{"__typename":"SocialMediaPost","id":"HnPost-25542505","excerpt":"","slug":"/hn/25542505","title":"Photocatalyst splits water into H and O2 at quantum efficiency near 100%","date":"December 26, 2020","dateISO":"2020-12-26T12:47:21.498Z","datetime":"2020-12-26 12:47","tags":["story","Hacker News"],"image":null,"imageAlt":null,"provider":"Hacker News","thirdPartyId":"25542505","url":"https://news.ycombinator.com/item?id=25542505","originalUrl":"https://fuelcellsworks.com/news/photocatalyst-that-can-split-water-into-hydrogen-and-oxygen-at-a-quantum-efficiency-close-to-100/","imageRemote":"https://img.fuelcellsworks.com/wp-content/uploads/2020/12/H2-FCW.jpg","video":null,"channel":null,"channelUrl":null,"author":"bookofjoe","authorUrl":"https://news.ycombinator.com/user?id=bookofjoe","authorImage":null,"authorSlug":null,"score":566,"views":null,"sharedCount":null,"likeCount":null,"sharedContent":null,"parent":{"__typename":"HnJson","localize":[{"title":"光催化剂以接近100%的量子效率将水分裂为H和O2","locale":"zh"},{"title":"光催化劑以接近100%的量子效率將水分裂爲H和O2","locale":"zh-Hant"}]}}]}},"pageContext":{"basePath":"/","pageType":"tag","tag":"Hacker News","tagsFilter":{"id":{"glob":"!*Post-1"}},"filter":{"id":{"glob":"!*Post-1"},"tags":{"eq":"Hacker News"}},"limit":25,"skip":475,"total":911,"totalPages":37,"currentPage":20,"maxWidth":1024,"maxHeight":512,"locale":"en","hrefLang":"en-US","originalPath":"/tags/hacker-news/page/20","dateFormat":"MM/DD/YYYY"}},"staticQueryHashes":["1239077767","2506312863","2744905544","3025052997","3493603132","3493603132","3513215887","386998304"]}