{"componentChunkName":"component---gatsby-theme-buzzing-src-gatsby-theme-timeline-templates-posts-query-js","path":"/tags/story/page/17","result":{"data":{"site":{"siteMetadata":{"title":"Reddit 热门","description":"用中文浏览Reddit热门内容","social":[{"name":"Twitter","url":"https://twitter.com/gatsbyjs","external":null,"prefetch":null},{"name":"GitHub","url":"https://github.com/gatsbyjs","external":null,"prefetch":null}],"menuLinks":[],"localize":[{"locale":"en","title":"Buzzing on Reddit","description":"See what's buzzing on Reddit in your native language","social":[{"name":"Reddit","url":"https://www.reddit.com/","external":true,"prefetch":null}],"menuLinks":[{"name":"Weekly Selection","url":"/issues","external":null,"prefetch":null},{"name":"RSS","url":"/rss.xml","external":null,"prefetch":false}]},{"locale":"zh-Hant","title":"Reddit 熱門","description":"用中文瀏覽Reddit熱門內容","social":null,"menuLinks":null}]}},"tagsGroup":{"group":[{"fieldValue":"ASK HN","totalCount":23},{"fieldValue":"Bitcoin","totalCount":3},{"fieldValue":"Hacker News","totalCount":974},{"fieldValue":"Poll","totalCount":1},{"fieldValue":"Show HN","totalCount":35},{"fieldValue":"investing","totalCount":209},{"fieldValue":"poll","totalCount":1},{"fieldValue":"reddit","totalCount":891},{"fieldValue":"science","totalCount":1},{"fieldValue":"stocks","totalCount":370},{"fieldValue":"story","totalCount":973},{"fieldValue":"tweet","totalCount":285},{"fieldValue":"wallstreetbets","totalCount":312}]},"allBlogPost":{"nodes":[{"__typename":"SocialMediaPost","id":"HnPost-25598029","excerpt":"","slug":"/hn/25598029","title":"MF DOOM Has Died","date":"January 01, 2021","dateISO":"2021-01-01T01:34:15.400Z","datetime":"2021-01-01 01:34","tags":["story","Hacker News"],"image":null,"imageAlt":null,"provider":"Hacker News","thirdPartyId":"25598029","url":"https://news.ycombinator.com/item?id=25598029","originalUrl":"https://consequenceofsound.net/2020/12/mf-doom-dead-obituary/","imageRemote":"https://consequenceofsound.net/wp-content/uploads/2020/12/MF-DOOM.jpg?quality=80","video":null,"channel":null,"channelUrl":null,"author":"laurex","authorUrl":"https://news.ycombinator.com/user?id=laurex","authorImage":null,"authorSlug":null,"score":466,"views":null,"sharedCount":null,"likeCount":null,"sharedContent":null,"parent":{"__typename":"HnJson","localize":[{"title":"MF Deom已经死了","locale":"zh"},{"title":"MF Deom已經死了","locale":"zh-Hant"}]}},{"__typename":"SocialMediaPost","id":"HnPost-25593960","excerpt":"","slug":"/hn/25593960","title":"FCC orders phone companies to help trace illegal robocallers","date":"December 31, 2020","dateISO":"2020-12-31T23:09:39.942Z","datetime":"2020-12-31 23:09","tags":["story","Hacker News"],"image":null,"imageAlt":null,"provider":"Hacker News","thirdPartyId":"25593960","url":"https://news.ycombinator.com/item?id=25593960","originalUrl":"https://www.engadget.com/fcc-illegal-robocalls-tracing-new-rules-122542768.html","imageRemote":"https://o.aolcdn.com/images/dims?resize=1200%2C630&crop=1200%2C630%2C0%2C0&quality=95&image_uri=https%3A%2F%2Fs.yimg.com%2Fos%2Fcreatr-images%2F2020-06%2F1027c6d0-a4f0-11ea-a3e3-b844b86df74f&client=amp-blogside-v2&signature=2adb75f3b93d0c4a214d13688f0a370a931dde23","video":null,"channel":null,"channelUrl":null,"author":"FlyMoreRockets","authorUrl":"https://news.ycombinator.com/user?id=FlyMoreRockets","authorImage":null,"authorSlug":null,"score":181,"views":null,"sharedCount":null,"likeCount":null,"sharedContent":null,"parent":{"__typename":"HnJson","localize":[{"title":"FCC命令电话公司帮助追踪非法机器人呼叫者","locale":"zh"},{"title":"FCC命令電話公司幫助追蹤非法機器人呼叫者","locale":"zh-Hant"}]}},{"__typename":"SocialMediaPost","id":"HnPost-25597891","excerpt":"","slug":"/hn/25597891","title":"Bitcoin is a disaster","date":"December 31, 2020","dateISO":"2020-12-31T23:09:39.942Z","datetime":"2020-12-31 23:09","tags":["story","Hacker News"],"image":null,"imageAlt":null,"provider":"Hacker News","thirdPartyId":"25597891","url":"https://news.ycombinator.com/item?id=25597891","originalUrl":"https://www.metzdowd.com/pipermail/cryptography/2020-December/036510.html","imageRemote":null,"video":null,"channel":null,"channelUrl":null,"author":"wyldfire","authorUrl":"https://news.ycombinator.com/user?id=wyldfire","authorImage":null,"authorSlug":null,"score":877,"views":null,"sharedCount":null,"likeCount":null,"sharedContent":null,"parent":{"__typename":"HnJson","localize":[{"title":"比特币是一场灾难","locale":"zh"},{"title":"比特幣是一場災難","locale":"zh-Hant"}]}},{"__typename":"SocialMediaPost","id":"HnPost-25593262","excerpt":"","slug":"/hn/25593262","title":"Probabilistic Machine Learning: An Introduction","date":"December 31, 2020","dateISO":"2020-12-31T22:07:48.596Z","datetime":"2020-12-31 22:07","tags":["story","Hacker News"],"image":null,"imageAlt":null,"provider":"Hacker News","thirdPartyId":"25593262","url":"https://news.ycombinator.com/item?id=25593262","originalUrl":"https://probml.github.io/pml-book/book1.html","imageRemote":"https://probml.github.io/pml-book/pml1/pml1-toc-short-2col-2020-12-27.png","video":null,"channel":null,"channelUrl":null,"author":"joaorico","authorUrl":"https://news.ycombinator.com/user?id=joaorico","authorImage":null,"authorSlug":null,"score":309,"views":null,"sharedCount":null,"likeCount":null,"sharedContent":null,"parent":{"__typename":"HnJson","localize":[{"title":"概率机器学习：概论","locale":"zh"},{"title":"概率機器學習：概論","locale":"zh-Hant"}]}},{"__typename":"SocialMediaPost","id":"HnPost-25595865","excerpt":"","slug":"/hn/25595865","title":"Happy New Year HN","date":"December 31, 2020","dateISO":"2020-12-31T21:54:17.452Z","datetime":"2020-12-31 21:54","tags":["story","Hacker News"],"image":null,"imageAlt":null,"provider":"Hacker News","thirdPartyId":"25595865","url":"https://news.ycombinator.com/item?id=25595865","originalUrl":"https://news.ycombinator.com/item?id=25595865","imageRemote":null,"video":null,"channel":null,"channelUrl":null,"author":"thunderbong","authorUrl":"https://news.ycombinator.com/user?id=thunderbong","authorImage":null,"authorSlug":null,"score":984,"views":null,"sharedCount":null,"likeCount":null,"sharedContent":null,"parent":{"__typename":"HnJson","localize":[{"title":"HN新年快乐","locale":"zh"},{"title":"HN新年快樂","locale":"zh-Hant"}]}},{"__typename":"SocialMediaPost","id":"HnPost-25591066","excerpt":"","slug":"/hn/25591066","title":"Shamelessness as a Strategy (2019)","date":"December 31, 2020","dateISO":"2020-12-31T20:54:02.183Z","datetime":"2020-12-31 20:54","tags":["story","Hacker News"],"image":null,"imageAlt":null,"provider":"Hacker News","thirdPartyId":"25591066","url":"https://news.ycombinator.com/item?id=25591066","originalUrl":"https://nadiaeghbal.com/shameless","imageRemote":null,"video":null,"channel":null,"channelUrl":null,"author":"etherio","authorUrl":"https://news.ycombinator.com/user?id=etherio","authorImage":null,"authorSlug":null,"score":188,"views":null,"sharedCount":null,"likeCount":null,"sharedContent":null,"parent":{"__typename":"HnJson","localize":[{"title":"将无耻作为一种战略(2019年)","locale":"zh"},{"title":"將無恥作爲一種戰略(2019年)","locale":"zh-Hant"}]}},{"__typename":"SocialMediaPost","id":"HnPost-25595416","excerpt":"","slug":"/hn/25595416","title":"SolarWinds hackers were able to access Microsoft source code","date":"December 31, 2020","dateISO":"2020-12-31T20:01:53.311Z","datetime":"2020-12-31 20:01","tags":["story","Hacker News"],"image":null,"imageAlt":null,"provider":"Hacker News","thirdPartyId":"25595416","url":"https://news.ycombinator.com/item?id=25595416","originalUrl":"https://msrc-blog.microsoft.com/2020/12/31/microsoft-internal-solorigate-investigation-update/","imageRemote":null,"video":null,"channel":null,"channelUrl":null,"author":"accountinhn","authorUrl":"https://news.ycombinator.com/user?id=accountinhn","authorImage":null,"authorSlug":null,"score":675,"views":null,"sharedCount":null,"likeCount":null,"sharedContent":null,"parent":{"__typename":"HnJson","localize":[{"title":"SolarWinds黑客能够访问Microsoft源代码","locale":"zh"},{"title":"SolarWinds黑客能夠訪問Microsoft源代碼","locale":"zh-Hant"}]}},{"__typename":"SocialMediaPost","id":"HnPost-25591723","excerpt":"","slug":"/hn/25591723","title":"Mitsubishi Heavy to build biggest zero-carbon steel plant","date":"December 31, 2020","dateISO":"2020-12-31T19:01:06.851Z","datetime":"2020-12-31 19:01","tags":["story","Hacker News"],"image":null,"imageAlt":null,"provider":"Hacker News","thirdPartyId":"25591723","url":"https://news.ycombinator.com/item?id=25591723","originalUrl":"https://asia.nikkei.com/Spotlight/Environment/Climate-Change/Mitsubishi-Heavy-to-build-biggest-zero-carbon-steel-plant","imageRemote":"https://www.ft.com/__origami/service/image/v2/images/raw/https%3A%2F%2Fs3-ap-northeast-1.amazonaws.com%2Fpsh-ex-ftnikkei-3937bb4%2Fimages%2F9%2F6%2F6%2F0%2F31470669-3-eng-GB%2FCropped-1609100872RTX72UDL.JPG?width=1024&height=512&fit=cover&gravity=faces&source=nar-cms","video":null,"channel":null,"channelUrl":null,"author":"doener","authorUrl":"https://news.ycombinator.com/user?id=doener","authorImage":null,"authorSlug":null,"score":209,"views":null,"sharedCount":null,"likeCount":null,"sharedContent":null,"parent":{"__typename":"HnJson","localize":[{"title":"三菱重工将建设最大的零碳钢厂","locale":"zh"},{"title":"三菱重工將建設最大的零碳鋼廠","locale":"zh-Hant"}]}},{"__typename":"SocialMediaPost","id":"HnPost-25594517","excerpt":"","slug":"/hn/25594517","title":"Erdoğan’s censorship now targeting media outlets in Europe","date":"December 31, 2020","dateISO":"2020-12-31T19:01:06.851Z","datetime":"2020-12-31 19:01","tags":["story","Hacker News"],"image":null,"imageAlt":null,"provider":"Hacker News","thirdPartyId":"25594517","url":"https://news.ycombinator.com/item?id=25594517","originalUrl":"https://www.turkishminute.com/2020/12/31/erdogans-censorship-now-targeting-media-outlets-in-europe/","imageRemote":"https://www.turkishminute.com/wp-content/uploads/2020/12/000_Par7835872-1.jpg","video":null,"channel":null,"channelUrl":null,"author":"doener","authorUrl":"https://news.ycombinator.com/user?id=doener","authorImage":null,"authorSlug":null,"score":227,"views":null,"sharedCount":null,"likeCount":null,"sharedContent":null,"parent":{"__typename":"HnJson","localize":[{"title":"ErdoğAn的审查制度现在针对的是欧洲的媒体机构","locale":"zh"},{"title":"ErdoğAn的審查制度現在針對的是歐洲的媒體機構","locale":"zh-Hant"}]}},{"__typename":"SocialMediaPost","id":"HnPost-25590846","excerpt":"","slug":"/hn/25590846","title":"Why Jira Sucks","date":"December 31, 2020","dateISO":"2020-12-31T18:16:53.776Z","datetime":"2020-12-31 18:16","tags":["story","Hacker News"],"image":null,"imageAlt":null,"provider":"Hacker News","thirdPartyId":"25590846","url":"https://news.ycombinator.com/item?id=25590846","originalUrl":"https://whyjirasucks.com/","imageRemote":"https://whyjirasucks.com/img/covers/home.png","video":null,"channel":null,"channelUrl":null,"author":"svikashk","authorUrl":"https://news.ycombinator.com/user?id=svikashk","authorImage":null,"authorSlug":null,"score":407,"views":null,"sharedCount":null,"likeCount":null,"sharedContent":null,"parent":{"__typename":"HnJson","localize":[{"title":"为什么吉拉很差劲？","locale":"zh"},{"title":"爲什麼吉拉很差勁？","locale":"zh-Hant"}]}},{"__typename":"SocialMediaPost","id":"HnPost-25591492","excerpt":"","slug":"/hn/25591492","title":"The Big Little Guide to Message Queues","date":"December 31, 2020","dateISO":"2020-12-31T18:16:53.776Z","datetime":"2020-12-31 18:16","tags":["story","Hacker News"],"image":null,"imageAlt":null,"provider":"Hacker News","thirdPartyId":"25591492","url":"https://news.ycombinator.com/item?id=25591492","originalUrl":"https://sudhir.io/the-big-little-guide-to-message-queues/","imageRemote":"https://images.unsplash.com/photo-1549416096-1030b127970e?crop=entropy&cs=tinysrgb&fit=max&fm=jpg&ixid=MXwxMTc3M3wwfDF8c2VhcmNofDI2fHxxdWV1ZXN8ZW58MHx8fA&ixlib=rb-1.2.1&q=80&w=2000","video":null,"channel":null,"channelUrl":null,"author":"sudhirj","authorUrl":"https://news.ycombinator.com/user?id=sudhirj","authorImage":null,"authorSlug":null,"score":294,"views":null,"sharedCount":null,"likeCount":null,"sharedContent":null,"parent":{"__typename":"HnJson","localize":[{"title":"消息队列大小指南","locale":"zh"},{"title":"消息隊列大小指南","locale":"zh-Hant"}]}},{"__typename":"SocialMediaPost","id":"HnPost-25591695","excerpt":"","slug":"/hn/25591695","title":"PyPy Project looking for sponsorship to add support for Apple Silicon","date":"December 31, 2020","dateISO":"2020-12-31T18:16:53.776Z","datetime":"2020-12-31 18:16","tags":["story","Hacker News"],"image":null,"imageAlt":null,"provider":"Hacker News","thirdPartyId":"25591695","url":"https://news.ycombinator.com/item?id=25591695","originalUrl":"https://morepypy.blogspot.com/2020/12/mac-meets-arm64.html","imageRemote":"https://2.bp.blogspot.com/-iO_dZU_FAR0/Tbre-StkIhI/AAAAAAAAAM4/m3P9wi1e-ng/s150/pypy_small128.png","video":null,"channel":null,"channelUrl":null,"author":"fniephaus","authorUrl":"https://news.ycombinator.com/user?id=fniephaus","authorImage":null,"authorSlug":null,"score":262,"views":null,"sharedCount":null,"likeCount":null,"sharedContent":null,"parent":{"__typename":"HnJson","localize":[{"title":"PyPy项目寻求赞助以增加对Apple Silicon的支持","locale":"zh"},{"title":"PyPy項目尋求贊助以增加對Apple Silicon的支持","locale":"zh-Hant"}]}},{"__typename":"SocialMediaPost","id":"HnPost-25592481","excerpt":"","slug":"/hn/25592481","title":"WebAssembly Studio","date":"December 31, 2020","dateISO":"2020-12-31T18:16:53.776Z","datetime":"2020-12-31 18:16","tags":["story","Hacker News"],"image":null,"imageAlt":null,"provider":"Hacker News","thirdPartyId":"25592481","url":"https://news.ycombinator.com/item?id=25592481","originalUrl":"https://webassembly.studio","imageRemote":null,"video":null,"channel":null,"channelUrl":null,"author":"joubert","authorUrl":"https://news.ycombinator.com/user?id=joubert","authorImage":null,"authorSlug":null,"score":394,"views":null,"sharedCount":null,"likeCount":null,"sharedContent":null,"parent":{"__typename":"HnJson","localize":[{"title":"WebAssembly Studio","locale":"zh"},{"title":"WebAssembly Studio","locale":"zh-Hant"}]}},{"__typename":"SocialMediaPost","id":"HnPost-25590962","excerpt":"","slug":"/hn/25590962","title":"Nim in 2020: A Short Recap","date":"December 31, 2020","dateISO":"2020-12-31T17:17:12.465Z","datetime":"2020-12-31 17:17","tags":["story","Hacker News"],"image":null,"imageAlt":null,"provider":"Hacker News","thirdPartyId":"25590962","url":"https://news.ycombinator.com/item?id=25590962","originalUrl":"https://nim-lang.org/blog/2020/12/28/nim-in-2020-a-short-recap.html","imageRemote":"https://nim-lang.org/assets/img/twitter_banner.png","video":null,"channel":null,"channelUrl":null,"author":"leandot","authorUrl":"https://news.ycombinator.com/user?id=leandot","authorImage":null,"authorSlug":null,"score":188,"views":null,"sharedCount":null,"likeCount":null,"sharedContent":null,"parent":{"__typename":"HnJson","localize":[{"title":"2020年的尼姆：小结","locale":"zh"},{"title":"2020年的尼姆：小結","locale":"zh-Hant"}]}},{"__typename":"SocialMediaPost","id":"HnPost-25592152","excerpt":"","slug":"/hn/25592152","title":"The Elements of Statistical Learning [pdf]","date":"December 31, 2020","dateISO":"2020-12-31T17:17:12.465Z","datetime":"2020-12-31 17:17","tags":["story","Hacker News"],"image":null,"imageAlt":null,"provider":"Hacker News","thirdPartyId":"25592152","url":"https://news.ycombinator.com/item?id=25592152","originalUrl":"https://web.stanford.edu/~hastie/Papers/ESLII.pdf","imageRemote":null,"video":null,"channel":null,"channelUrl":null,"author":"happy-go-lucky","authorUrl":"https://news.ycombinator.com/user?id=happy-go-lucky","authorImage":null,"authorSlug":null,"score":281,"views":null,"sharedCount":null,"likeCount":null,"sharedContent":null,"parent":{"__typename":"HnJson","localize":[{"title":"统计学习要素[pdf]","locale":"zh"},{"title":"統計學習要素[pdf]","locale":"zh-Hant"}]}},{"__typename":"SocialMediaPost","id":"HnPost-25593031","excerpt":"","slug":"/hn/25593031","title":"Rust 1.49.0","date":"December 31, 2020","dateISO":"2020-12-31T17:17:12.465Z","datetime":"2020-12-31 17:17","tags":["story","Hacker News"],"image":null,"imageAlt":null,"provider":"Hacker News","thirdPartyId":"25593031","url":"https://news.ycombinator.com/item?id=25593031","originalUrl":"https://blog.rust-lang.org/2020/12/31/Rust-1.49.0.html","imageRemote":"https://www.rust-lang.org/static/images/rust-social-wide.jpg","video":null,"channel":null,"channelUrl":null,"author":"pietroalbini","authorUrl":"https://news.ycombinator.com/user?id=pietroalbini","authorImage":null,"authorSlug":null,"score":241,"views":null,"sharedCount":null,"likeCount":null,"sharedContent":null,"parent":{"__typename":"HnJson","localize":[{"title":"Rust 1.49.0","locale":"zh"},{"title":"Rust 1.49.0","locale":"zh-Hant"}]}},{"__typename":"SocialMediaPost","id":"HnPost-25589619","excerpt":"","slug":"/hn/25589619","title":"Interview Transcript – Donald Knuth [pdf]","date":"December 31, 2020","dateISO":"2020-12-31T16:11:53.929Z","datetime":"2020-12-31 16:11","tags":["story","Hacker News"],"image":null,"imageAlt":null,"provider":"Hacker News","thirdPartyId":"25589619","url":"https://news.ycombinator.com/item?id=25589619","originalUrl":"https://philipkiely.com/assets/files/WfSD_Bonus_Interview_-_Donald_Knuth.pdf","imageRemote":null,"video":null,"channel":null,"channelUrl":null,"author":"asicsp","authorUrl":"https://news.ycombinator.com/user?id=asicsp","authorImage":null,"authorSlug":null,"score":170,"views":null,"sharedCount":null,"likeCount":null,"sharedContent":null,"parent":{"__typename":"HnJson","localize":[{"title":"采访记录-Donald Knuth[pdf]","locale":"zh"},{"title":"採訪記錄-Donald Knuth[pdf]","locale":"zh-Hant"}]}},{"__typename":"SocialMediaPost","id":"HnPost-25589177","excerpt":"","slug":"/hn/25589177","title":"Firefox not planning on supporting PWA","date":"December 31, 2020","dateISO":"2020-12-31T15:47:56.711Z","datetime":"2020-12-31 15:47","tags":["story","Hacker News"],"image":null,"imageAlt":null,"provider":"Hacker News","thirdPartyId":"25589177","url":"https://news.ycombinator.com/item?id=25589177","originalUrl":"https://bugzilla.mozilla.org/show_bug.cgi?id=1682593","imageRemote":"https://bugzilla.mozilla.org/static/v20201215.1/extensions/BMO/web/images/moz-fav-one-color-white-rgb.svg","video":null,"channel":null,"channelUrl":null,"author":"thayne","authorUrl":"https://news.ycombinator.com/user?id=thayne","authorImage":null,"authorSlug":null,"score":226,"views":null,"sharedCount":null,"likeCount":null,"sharedContent":null,"parent":{"__typename":"HnJson","localize":[{"title":"Firefox不打算支持PWA","locale":"zh"},{"title":"Firefox不打算支持PWA","locale":"zh-Hant"}]}},{"__typename":"SocialMediaPost","id":"HnPost-25591060","excerpt":"","slug":"/hn/25591060","title":"Ticketmaster will pay $10M for hacking rival ticket seller","date":"December 31, 2020","dateISO":"2020-12-31T15:47:56.711Z","datetime":"2020-12-31 15:47","tags":["story","Hacker News"],"image":null,"imageAlt":null,"provider":"Hacker News","thirdPartyId":"25591060","url":"https://news.ycombinator.com/item?id=25591060","originalUrl":"https://www.theverge.com/2020/12/30/22206955/ticketmaster-songkick-crowdsurge-hacking-deferred-prosecution-fine","imageRemote":"https://cdn.vox-cdn.com/thumbor/y1rmGyLLC6NbpEcY6ywQaKUwDvg=/0x398:5325x3186/fit-in/1200x630/cdn.vox-cdn.com/uploads/chorus_asset/file/22205512/1290806319.jpg","video":null,"channel":null,"channelUrl":null,"author":"Gaishan","authorUrl":"https://news.ycombinator.com/user?id=Gaishan","authorImage":null,"authorSlug":null,"score":225,"views":null,"sharedCount":null,"likeCount":null,"sharedContent":null,"parent":{"__typename":"HnJson","localize":[{"title":"Ticketmaster将支付1000万美元黑客攻击竞争对手售票者","locale":"zh"},{"title":"Ticketmaster將支付1000萬美元黑客攻擊競爭對手售票者","locale":"zh-Hant"}]}},{"__typename":"SocialMediaPost","id":"HnPost-25580152","excerpt":"","slug":"/hn/25580152","title":"Thank HN: All of you, this place, gives me hope","date":"December 31, 2020","dateISO":"2020-12-31T13:45:58.683Z","datetime":"2020-12-31 13:45","tags":["story","Hacker News"],"image":null,"imageAlt":null,"provider":"Hacker News","thirdPartyId":"25580152","url":"https://news.ycombinator.com/item?id=25580152","originalUrl":"https://news.ycombinator.com/item?id=25580152","imageRemote":null,"video":null,"channel":null,"channelUrl":null,"author":"pugio","authorUrl":"https://news.ycombinator.com/user?id=pugio","authorImage":null,"authorSlug":null,"score":168,"views":null,"sharedCount":null,"likeCount":null,"sharedContent":null,"parent":{"__typename":"HnJson","localize":[{"title":"感谢HN：你们所有人，这个地方，给了我希望","locale":"zh"},{"title":"感謝HN：你們所有人，這個地方，給了我希望","locale":"zh-Hant"}]}},{"__typename":"SocialMediaPost","id":"HnPost-25573523","excerpt":"","slug":"/hn/25573523","title":"Show HN: The Agora – an experimental social network","date":"December 31, 2020","dateISO":"2020-12-31T11:07:27.942Z","datetime":"2020-12-31 11:07","tags":["story","Show HN","Hacker News"],"image":null,"imageAlt":null,"provider":"Hacker News","thirdPartyId":"25573523","url":"https://news.ycombinator.com/item?id=25573523","originalUrl":"http://anagora.org/node/agora","imageRemote":"https://anagora.org/static/img/agora.png","video":null,"channel":"Show HN","channelUrl":"https://news.ycombinator.com/show","author":"flancian","authorUrl":"https://news.ycombinator.com/user?id=flancian","authorImage":null,"authorSlug":null,"score":157,"views":null,"sharedCount":null,"likeCount":null,"sharedContent":null,"parent":{"__typename":"HnJson","localize":[{"title":"HN新产品：农庄-一个实验性的社交网络","locale":"zh"},{"title":"HN新產品：農莊-一個實驗性的社交網絡","locale":"zh-Hant"}]}},{"__typename":"SocialMediaPost","id":"HnPost-25588712","excerpt":"","slug":"/hn/25588712","title":"LibrePhotos: A Self-Hosted Google Photos Alternative","date":"December 31, 2020","dateISO":"2020-12-31T11:07:27.941Z","datetime":"2020-12-31 11:07","tags":["story","Hacker News"],"image":null,"imageAlt":null,"provider":"Hacker News","thirdPartyId":"25588712","url":"https://news.ycombinator.com/item?id=25588712","originalUrl":"https://github.com/LibrePhotos/librephotos","imageRemote":"https://avatars1.githubusercontent.com/u/75512318?s=400&v=4","video":null,"channel":null,"channelUrl":null,"author":"hanklazard","authorUrl":"https://news.ycombinator.com/user?id=hanklazard","authorImage":null,"authorSlug":null,"score":386,"views":null,"sharedCount":null,"likeCount":null,"sharedContent":null,"parent":{"__typename":"HnJson","localize":[{"title":"LibrePhotos：一个自我托管的Google Photos替代品","locale":"zh"},{"title":"LibrePhotos：一個自我託管的Google Photos替代品","locale":"zh-Hant"}]}},{"__typename":"SocialMediaPost","id":"HnPost-25586565","excerpt":"","slug":"/hn/25586565","title":"Learn Quantum Computation","date":"December 31, 2020","dateISO":"2020-12-31T10:45:45.987Z","datetime":"2020-12-31 10:45","tags":["story","Hacker News"],"image":null,"imageAlt":null,"provider":"Hacker News","thirdPartyId":"25586565","url":"https://news.ycombinator.com/item?id=25586565","originalUrl":"https://qiskit.org/textbook/preface.html","imageRemote":"https://community.qiskit.org/textbook/images/preface_illustration.svg","video":null,"channel":null,"channelUrl":null,"author":"headalgorithm","authorUrl":"https://news.ycombinator.com/user?id=headalgorithm","authorImage":null,"authorSlug":null,"score":177,"views":null,"sharedCount":null,"likeCount":null,"sharedContent":null,"parent":{"__typename":"HnJson","localize":[{"title":"学习量子计算","locale":"zh"},{"title":"學習量子計算","locale":"zh-Hant"}]}},{"__typename":"SocialMediaPost","id":"HnPost-25590079","excerpt":"","slug":"/hn/25590079","title":"Linux Hardening Guide","date":"December 31, 2020","dateISO":"2020-12-31T09:46:21.527Z","datetime":"2020-12-31 09:46","tags":["story","Hacker News"],"image":null,"imageAlt":null,"provider":"Hacker News","thirdPartyId":"25590079","url":"https://news.ycombinator.com/item?id=25590079","originalUrl":"https://madaidans-insecurities.github.io/guides/linux-hardening.html","imageRemote":null,"video":null,"channel":null,"channelUrl":null,"author":"FlyMoreRockets","authorUrl":"https://news.ycombinator.com/user?id=FlyMoreRockets","authorImage":null,"authorSlug":null,"score":440,"views":null,"sharedCount":null,"likeCount":null,"sharedContent":null,"parent":{"__typename":"HnJson","localize":[{"title":"Linux强化指南","locale":"zh"},{"title":"Linux強化指南","locale":"zh-Hant"}]}},{"__typename":"SocialMediaPost","id":"HnPost-25579236","excerpt":"","slug":"/hn/25579236","title":"SBCL: New in Version 2.1.0","date":"December 31, 2020","dateISO":"2020-12-31T09:08:55.902Z","datetime":"2020-12-31 09:08","tags":["story","Hacker News"],"image":null,"imageAlt":null,"provider":"Hacker News","thirdPartyId":"25579236","url":"https://news.ycombinator.com/item?id=25579236","originalUrl":"http://www.sbcl.org/all-news.html#2.1.0","imageRemote":"http://sourceforge.net/sflogo.php?group_id=1373","video":null,"channel":null,"channelUrl":null,"author":"susam","authorUrl":"https://news.ycombinator.com/user?id=susam","authorImage":null,"authorSlug":null,"score":169,"views":null,"sharedCount":null,"likeCount":null,"sharedContent":null,"parent":{"__typename":"HnJson","localize":[{"title":"SBCL：2.1.0版中的新功能","locale":"zh"},{"title":"SBCL：2.1.0版中的新功能","locale":"zh-Hant"}]}}]}},"pageContext":{"basePath":"/","pageType":"tag","tag":"story","tagsFilter":{"id":{"glob":"!*Post-1"}},"filter":{"id":{"glob":"!*Post-1"},"tags":{"eq":"story"}},"limit":25,"skip":400,"total":973,"totalPages":39,"currentPage":17,"maxWidth":1024,"maxHeight":512,"locale":"zh","hrefLang":"zh-Hans","originalPath":"/tags/story/page/17","dateFormat":"YYYY-MM-DD"}},"staticQueryHashes":["1239077767","2506312863","2744905544","3025052997","3493603132","3493603132","3513215887","386998304"]}