{"componentChunkName":"component---gatsby-theme-buzzing-src-gatsby-theme-timeline-templates-posts-query-js","path":"/tags/hacker-news/page/23","result":{"data":{"site":{"siteMetadata":{"title":"Reddit 热门","description":"用中文浏览Reddit热门内容","social":[{"name":"Twitter","url":"https://twitter.com/gatsbyjs","external":null,"prefetch":null},{"name":"GitHub","url":"https://github.com/gatsbyjs","external":null,"prefetch":null}],"menuLinks":[],"localize":[{"locale":"en","title":"Buzzing on Reddit","description":"See what's buzzing on Reddit in your native language","social":[{"name":"Reddit","url":"https://www.reddit.com/","external":true,"prefetch":null}],"menuLinks":[{"name":"Weekly Selection","url":"/issues","external":null,"prefetch":null},{"name":"RSS","url":"/rss.xml","external":null,"prefetch":false}]},{"locale":"zh-Hant","title":"Reddit 熱門","description":"用中文瀏覽Reddit熱門內容","social":null,"menuLinks":null}]}},"tagsGroup":{"group":[{"fieldValue":"ASK HN","totalCount":44},{"fieldValue":"Bitcoin","totalCount":4},{"fieldValue":"Hacker News","totalCount":2600},{"fieldValue":"Poll","totalCount":1},{"fieldValue":"SaveAMC","totalCount":1},{"fieldValue":"Show HN","totalCount":89},{"fieldValue":"bitcoin","totalCount":3},{"fieldValue":"investing","totalCount":797},{"fieldValue":"poll","totalCount":1},{"fieldValue":"reddit","totalCount":4938},{"fieldValue":"science","totalCount":1},{"fieldValue":"stocks","totalCount":1592},{"fieldValue":"story","totalCount":2599},{"fieldValue":"tweet","totalCount":814},{"fieldValue":"wallstreetbets","totalCount":2549}]},"allBlogPost":{"nodes":[{"__typename":"SocialMediaPost","id":"HnPost-26272062","excerpt":"","slug":"/hn/26272062","title":"Protest note about user privacy changes by Reddit","date":"February 26, 2021","dateISO":"2021-02-26T14:53:12.517Z","datetime":"2021-02-26 14:53","tags":["story","Hacker News"],"image":null,"imageAlt":null,"provider":"Hacker News","thirdPartyId":"26272062","url":"https://news.ycombinator.com/item?id=26272062","originalUrl":"https://www.reddit.com/r/europe/comments/ls7ft8/protest_note_about_user_privacy_changes_by_reddit/","imageRemote":"https://www.redditstatic.com/desktop2x/img/renderTimingPixel.png","video":null,"channel":null,"channelUrl":null,"author":"docdeek","authorUrl":"https://news.ycombinator.com/user?id=docdeek","authorImage":null,"authorSlug":null,"score":195,"views":null,"sharedCount":null,"likeCount":null,"sharedContent":null,"parent":{"__typename":"HnJson","localize":[{"title":"关于Reddit修改用户隐私的抗议说明","locale":"zh"},{"title":"關於Reddit修改用戶隱私的抗議說明","locale":"zh-Hant"}]}},{"__typename":"SocialMediaPost","id":"HnPost-26273960","excerpt":"","slug":"/hn/26273960","title":"Actually Portable Executable","date":"February 26, 2021","dateISO":"2021-02-26T14:24:38.969Z","datetime":"2021-02-26 14:24","tags":["story","Hacker News"],"image":null,"imageAlt":null,"provider":"Hacker News","thirdPartyId":"26273960","url":"https://news.ycombinator.com/item?id=26273960","originalUrl":"https://justine.lol/ape.html","imageRemote":"https://storage.googleapis.com/justine/linux2.png","video":null,"channel":null,"channelUrl":null,"author":"NilsIRL","authorUrl":"https://news.ycombinator.com/user?id=NilsIRL","authorImage":null,"authorSlug":null,"score":643,"views":null,"sharedCount":null,"likeCount":null,"sharedContent":null,"parent":{"__typename":"HnJson","localize":[{"title":"实际上是便携式可执行文件","locale":"zh"},{"title":"實際上是便攜式可執行文件","locale":"zh-Hant"}]}},{"__typename":"SocialMediaPost","id":"HnPost-26272084","excerpt":"","slug":"/hn/26272084","title":"ISO 8601: the better date format","date":"February 26, 2021","dateISO":"2021-02-26T12:25:21.655Z","datetime":"2021-02-26 12:25","tags":["story","Hacker News"],"image":null,"imageAlt":null,"provider":"Hacker News","thirdPartyId":"26272084","url":"https://news.ycombinator.com/item?id=26272084","originalUrl":"https://kirby.kevinson.org/blog/iso-8601-the-better-date-format/","imageRemote":null,"video":null,"channel":null,"channelUrl":null,"author":"kirbykevinson","authorUrl":"https://news.ycombinator.com/user?id=kirbykevinson","authorImage":null,"authorSlug":null,"score":366,"views":null,"sharedCount":null,"likeCount":null,"sharedContent":null,"parent":{"__typename":"HnJson","localize":[{"title":"ISO 8601：更好的日期格式","locale":"zh"},{"title":"ISO 8601：更好的日期格式","locale":"zh-Hant"}]}},{"__typename":"SocialMediaPost","id":"HnPost-26249380","excerpt":"","slug":"/hn/26249380","title":"How often should I rotate my SSH keys?","date":"February 26, 2021","dateISO":"2021-02-26T11:26:12.830Z","datetime":"2021-02-26 11:26","tags":["story","Hacker News"],"image":null,"imageAlt":null,"provider":"Hacker News","thirdPartyId":"26249380","url":"https://news.ycombinator.com/item?id=26249380","originalUrl":"https://tailscale.com/blog/rotate-ssh-keys/","imageRemote":"https://tailscale.com/files/images/og-image.png","video":null,"channel":null,"channelUrl":null,"author":"todsacerdoti","authorUrl":"https://news.ycombinator.com/user?id=todsacerdoti","authorImage":null,"authorSlug":null,"score":292,"views":null,"sharedCount":null,"likeCount":null,"sharedContent":null,"parent":{"__typename":"HnJson","localize":[{"title":"我应该多久轮换一次SSH密钥？","locale":"zh"},{"title":"我應該多久輪換一次SSH密鑰？","locale":"zh-Hant"}]}},{"__typename":"SocialMediaPost","id":"HnPost-26268460","excerpt":"","slug":"/hn/26268460","title":"IoTaWatt Open Source WiFi Electric Power Monitor","date":"February 26, 2021","dateISO":"2021-02-26T11:26:12.830Z","datetime":"2021-02-26 11:26","tags":["story","Hacker News"],"image":null,"imageAlt":null,"provider":"Hacker News","thirdPartyId":"26268460","url":"https://news.ycombinator.com/item?id=26268460","originalUrl":"https://www.iotawatt.com/","imageRemote":"https://www.iotawatt.com/assets/img/IoTaWatt_NA_400x400.jpg","video":null,"channel":null,"channelUrl":null,"author":"mrep","authorUrl":"https://news.ycombinator.com/user?id=mrep","authorImage":null,"authorSlug":null,"score":172,"views":null,"sharedCount":null,"likeCount":null,"sharedContent":null,"parent":{"__typename":"HnJson","localize":[{"title":"IoTaWatt开源WiFi电量监控器","locale":"zh"},{"title":"IoTaWatt開源WiFi電量監控器","locale":"zh-Hant"}]}},{"__typename":"SocialMediaPost","id":"HnPost-26270251","excerpt":"","slug":"/hn/26270251","title":"Zine machine: a compact 3D-printed block printing press","date":"February 26, 2021","dateISO":"2021-02-26T08:56:21.735Z","datetime":"2021-02-26 08:56","tags":["story","Hacker News"],"image":null,"imageAlt":null,"provider":"Hacker News","thirdPartyId":"26270251","url":"https://news.ycombinator.com/item?id=26270251","originalUrl":"https://hibred.pmvabf.org/zine-machine","imageRemote":"https://freight.cargo.site/w/1200/i/951ab871ddfc83515e6c8fbe01047a5a14dd9ccbe8eb052adc4d06f09c517bd2/as_hero_as_it_gets.jpg","video":null,"channel":null,"channelUrl":null,"author":"hownottowrite","authorUrl":"https://news.ycombinator.com/user?id=hownottowrite","authorImage":null,"authorSlug":null,"score":247,"views":null,"sharedCount":null,"likeCount":null,"sharedContent":null,"parent":{"__typename":"HnJson","localize":[{"title":"Zine机：小型3D打印积木印刷机。","locale":"zh"},{"title":"Zine機：小型3D打印積木印刷機。","locale":"zh-Hant"}]}},{"__typename":"SocialMediaPost","id":"HnPost-26267216","excerpt":"","slug":"/hn/26267216","title":"Semiconductors Demand 30% Above Supply, 20% Year-on-Year Growth","date":"February 26, 2021","dateISO":"2021-02-26T08:28:25.661Z","datetime":"2021-02-26 08:28","tags":["story","Hacker News"],"image":null,"imageAlt":null,"provider":"Hacker News","thirdPartyId":"26267216","url":"https://news.ycombinator.com/item?id=26267216","originalUrl":"https://www.anandtech.com/show/16511/leading-foundries-enjoy-massive-revenue-growth-as-capacities-get-fully-loaded","imageRemote":"https://images.anandtech.com/doci/16511/tsmc_wafer_semiconductor_chip_300mm_fab_678x452.jpg","video":null,"channel":null,"channelUrl":null,"author":"ksec","authorUrl":"https://news.ycombinator.com/user?id=ksec","authorImage":null,"authorSlug":null,"score":197,"views":null,"sharedCount":null,"likeCount":null,"sharedContent":null,"parent":{"__typename":"HnJson","localize":[{"title":"半导体需求高于供应30%，同比增长20%。","locale":"zh"},{"title":"半導體需求高於供應30%，同比增長20%。","locale":"zh-Hant"}]}},{"__typename":"SocialMediaPost","id":"HnPost-26271117","excerpt":"","slug":"/hn/26271117","title":"Show HN: Redbean – Single-file distributable web server","date":"February 26, 2021","dateISO":"2021-02-26T08:28:25.661Z","datetime":"2021-02-26 08:28","tags":["story","Show HN","Hacker News"],"image":null,"imageAlt":null,"provider":"Hacker News","thirdPartyId":"26271117","url":"https://news.ycombinator.com/item?id=26271117","originalUrl":"https://justine.lol/redbean/index.html","imageRemote":"https://storage.googleapis.com/justine/redbean/redbean.png","video":null,"channel":"Show HN","channelUrl":"https://news.ycombinator.com/show","author":"jart","authorUrl":"https://news.ycombinator.com/user?id=jart","authorImage":null,"authorSlug":null,"score":1994,"views":null,"sharedCount":null,"likeCount":null,"sharedContent":null,"parent":{"__typename":"HnJson","localize":[{"title":"显示HN：红豆 - 单文件可分发的Web服务器","locale":"zh"},{"title":"顯示HN：紅豆 - 單文件可分發的Web服務器","locale":"zh-Hant"}]}},{"__typename":"SocialMediaPost","id":"HnPost-26271470","excerpt":"","slug":"/hn/26271470","title":"Google admits Kubernetes container tech is too complex","date":"February 26, 2021","dateISO":"2021-02-26T08:28:25.661Z","datetime":"2021-02-26 08:28","tags":["story","Hacker News"],"image":null,"imageAlt":null,"provider":"Hacker News","thirdPartyId":"26271470","url":"https://news.ycombinator.com/item?id=26271470","originalUrl":"https://www.theregister.com/2021/02/25/google_kubernetes_autopilot/","imageRemote":"https://regmedia.co.uk/2016/03/30/pilot_image_via_shutterstock.jpg","video":null,"channel":null,"channelUrl":null,"author":"pjmlp","authorUrl":"https://news.ycombinator.com/user?id=pjmlp","authorImage":null,"authorSlug":null,"score":572,"views":null,"sharedCount":null,"likeCount":null,"sharedContent":null,"parent":{"__typename":"HnJson","localize":[{"title":"谷歌承认Kubernetes容器技术过于复杂","locale":"zh"},{"title":"谷歌承認Kubernetes容器技術過於複雜","locale":"zh-Hant"}]}},{"__typename":"SocialMediaPost","id":"HnPost-26269832","excerpt":"","slug":"/hn/26269832","title":"Map of my personal data infrastructure","date":"February 26, 2021","dateISO":"2021-02-26T06:30:14.375Z","datetime":"2021-02-26 06:30","tags":["story","Hacker News"],"image":null,"imageAlt":null,"provider":"Hacker News","thirdPartyId":"26269832","url":"https://news.ycombinator.com/item?id=26269832","originalUrl":"https://beepb00p.xyz/myinfra.html","imageRemote":"https://beepb00p.xyz/assets/favicon.png","video":null,"channel":null,"channelUrl":null,"author":"nreece","authorUrl":"https://news.ycombinator.com/user?id=nreece","authorImage":null,"authorSlug":null,"score":298,"views":null,"sharedCount":null,"likeCount":null,"sharedContent":null,"parent":{"__typename":"HnJson","localize":[{"title":"我的个人数据基础设施图","locale":"zh"},{"title":"我的個人數據基礎設施圖","locale":"zh-Hant"}]}},{"__typename":"SocialMediaPost","id":"HnPost-26266881","excerpt":"","slug":"/hn/26266881","title":"Local-First Software:You Own Your Data, in Spite of the Cloud (2019) [pdf]","date":"February 26, 2021","dateISO":"2021-02-26T04:35:39.367Z","datetime":"2021-02-26 04:35","tags":["story","Hacker News"],"image":null,"imageAlt":null,"provider":"Hacker News","thirdPartyId":"26266881","url":"https://news.ycombinator.com/item?id=26266881","originalUrl":"https://martin.kleppmann.com/papers/local-first.pdf","imageRemote":null,"video":null,"channel":null,"channelUrl":null,"author":"JeanMarcS","authorUrl":"https://news.ycombinator.com/user?id=JeanMarcS","authorImage":null,"authorSlug":null,"score":216,"views":null,"sharedCount":null,"likeCount":null,"sharedContent":null,"parent":{"__typename":"HnJson","localize":[{"title":"Local-First Software:You Own Your Data, in Spite of Cloud (2019) [pdf] 。","locale":"zh"},{"title":"Local-First Software:You Own Your Data, in Spite of Cloud (2019) [pdf] 。","locale":"zh-Hant"}]}},{"__typename":"SocialMediaPost","id":"HnPost-26250809","excerpt":"","slug":"/hn/26250809","title":"Show HN: CalcuLaTeX, a pretty-printing calculator language","date":"February 26, 2021","dateISO":"2021-02-26T03:55:07.745Z","datetime":"2021-02-26 03:55","tags":["story","Show HN","Hacker News"],"image":null,"imageAlt":null,"provider":"Hacker News","thirdPartyId":"26250809","url":"https://news.ycombinator.com/item?id=26250809","originalUrl":"https://mkhan45.github.io/CalcuLaTeX-Web/","imageRemote":null,"video":null,"channel":"Show HN","channelUrl":"https://news.ycombinator.com/show","author":"fish45","authorUrl":"https://news.ycombinator.com/user?id=fish45","authorImage":null,"authorSlug":null,"score":230,"views":null,"sharedCount":null,"likeCount":null,"sharedContent":null,"parent":{"__typename":"HnJson","localize":[{"title":"展示HN：CalcuLaTeX，一种漂亮的打印计算器语言。","locale":"zh"},{"title":"展示HN：CalcuLaTeX，一種漂亮的打印計算器語言。","locale":"zh-Hant"}]}},{"__typename":"SocialMediaPost","id":"HnPost-26265872","excerpt":"","slug":"/hn/26265872","title":"Launch HN: Enombic (YC S20) – Create your own stock indexes","date":"February 26, 2021","dateISO":"2021-02-26T03:29:47.206Z","datetime":"2021-02-26 03:29","tags":["story","Hacker News"],"image":null,"imageAlt":null,"provider":"Hacker News","thirdPartyId":"26265872","url":"https://news.ycombinator.com/item?id=26265872","originalUrl":"https://news.ycombinator.com/item?id=26265872","imageRemote":null,"video":null,"channel":null,"channelUrl":null,"author":"kmckiern","authorUrl":"https://news.ycombinator.com/user?id=kmckiern","authorImage":null,"authorSlug":null,"score":305,"views":null,"sharedCount":null,"likeCount":null,"sharedContent":null,"parent":{"__typename":"HnJson","localize":[{"title":"推出HN：Enombic（YC S20） - 创建自己的股票指数。","locale":"zh"},{"title":"推出HN：Enombic（YC S20） - 創建自己的股票指數。","locale":"zh-Hant"}]}},{"__typename":"SocialMediaPost","id":"HnPost-26263085","excerpt":"","slug":"/hn/26263085","title":"Plain Text Protocols","date":"February 26, 2021","dateISO":"2021-02-26T01:57:42.869Z","datetime":"2021-02-26 01:57","tags":["story","Hacker News"],"image":null,"imageAlt":null,"provider":"Hacker News","thirdPartyId":"26263085","url":"https://news.ycombinator.com/item?id=26263085","originalUrl":"https://blainsmith.com/articles/plain-text-protocols/","imageRemote":"https://blainsmith.goatcounter.com/count?p=%2farticles%2fplain-text-protocols%2f","video":null,"channel":null,"channelUrl":null,"author":"tate","authorUrl":"https://news.ycombinator.com/user?id=tate","authorImage":null,"authorSlug":null,"score":194,"views":null,"sharedCount":null,"likeCount":null,"sharedContent":null,"parent":{"__typename":"HnJson","localize":[{"title":"纯文本协议","locale":"zh"},{"title":"純文本協議","locale":"zh-Hant"}]}},{"__typename":"SocialMediaPost","id":"HnPost-26264378","excerpt":"","slug":"/hn/26264378","title":"An Interview with Sci-Hub’s Alexandra Elbakyan on the Delhi HC Case","date":"February 26, 2021","dateISO":"2021-02-26T01:10:30.773Z","datetime":"2021-02-26 01:10","tags":["story","Hacker News"],"image":null,"imageAlt":null,"provider":"Hacker News","thirdPartyId":"26264378","url":"https://news.ycombinator.com/item?id=26264378","originalUrl":"https://science.thewire.in/the-sciences/interview-alexandra-elbakyan-sci-hub-elsevier-academic-publishing-open-access/","imageRemote":"https://cdn.thewire.in/wp-content/uploads/2021/02/22135717/elbakyan.jpg","video":null,"channel":null,"channelUrl":null,"author":"amrrs","authorUrl":"https://news.ycombinator.com/user?id=amrrs","authorImage":null,"authorSlug":null,"score":217,"views":null,"sharedCount":null,"likeCount":null,"sharedContent":null,"parent":{"__typename":"HnJson","localize":[{"title":"就德里高等法院案件采访Sci-Hub的Alexandra Elbakyan。","locale":"zh"},{"title":"就德里高等法院案件採訪Sci-Hub的Alexandra Elbakyan。","locale":"zh-Hant"}]}},{"__typename":"SocialMediaPost","id":"HnPost-26267529","excerpt":"","slug":"/hn/26267529","title":"Quitting Twitter","date":"February 25, 2021","dateISO":"2021-02-25T23:45:58.481Z","datetime":"2021-02-25 23:45","tags":["story","Hacker News"],"image":null,"imageAlt":null,"provider":"Hacker News","thirdPartyId":"26267529","url":"https://news.ycombinator.com/item?id=26267529","originalUrl":"https://blog.nindalf.com/posts/quitting-twitter/","imageRemote":null,"video":null,"channel":null,"channelUrl":null,"author":"thewarrior","authorUrl":"https://news.ycombinator.com/user?id=thewarrior","authorImage":null,"authorSlug":null,"score":279,"views":null,"sharedCount":null,"likeCount":null,"sharedContent":null,"parent":{"__typename":"HnJson","localize":[{"title":"戒除Twitter","locale":"zh"},{"title":"戒除Twitter","locale":"zh-Hant"}]}},{"__typename":"SocialMediaPost","id":"HnPost-26265999","excerpt":"","slug":"/hn/26265999","title":"The future of web software is HTML over WebSockets","date":"February 25, 2021","dateISO":"2021-02-25T21:34:31.683Z","datetime":"2021-02-25 21:34","tags":["story","Hacker News"],"image":null,"imageAlt":null,"provider":"Hacker News","thirdPartyId":"26265999","url":"https://news.ycombinator.com/item?id=26265999","originalUrl":"https://alistapart.com/article/the-future-of-web-software-is-html-over-websockets/","imageRemote":"https://alistapart.com/wp-content/uploads/2019/03/cropped-icon_navigation-laurel-512.jpg?fit=512%2C512","video":null,"channel":null,"channelUrl":null,"author":"jack_riminton","authorUrl":"https://news.ycombinator.com/user?id=jack_riminton","authorImage":null,"authorSlug":null,"score":514,"views":null,"sharedCount":null,"likeCount":null,"sharedContent":null,"parent":{"__typename":"HnJson","localize":[{"title":"网络软件的未来是通过WebSockets实现的HTML。","locale":"zh"},{"title":"網絡軟件的未來是通過WebSockets實現的HTML。","locale":"zh-Hant"}]}},{"__typename":"SocialMediaPost","id":"HnPost-26263149","excerpt":"","slug":"/hn/26263149","title":"Google Analytics: Stop feeding the beast","date":"February 25, 2021","dateISO":"2021-02-25T17:48:37.052Z","datetime":"2021-02-25 17:48","tags":["story","Hacker News"],"image":null,"imageAlt":null,"provider":"Hacker News","thirdPartyId":"26263149","url":"https://news.ycombinator.com/item?id=26263149","originalUrl":"https://casparwre.de/blog/stop-using-google-analytics/","imageRemote":"https://casparwre.de/images/google-godzilla.jpg","video":null,"channel":null,"channelUrl":null,"author":"caspii","authorUrl":"https://news.ycombinator.com/user?id=caspii","authorImage":null,"authorSlug":null,"score":771,"views":null,"sharedCount":null,"likeCount":null,"sharedContent":null,"parent":{"__typename":"HnJson","localize":[{"title":"谷歌分析。停止喂养野兽","locale":"zh"},{"title":"谷歌分析。停止餵養野獸","locale":"zh-Hant"}]}},{"__typename":"SocialMediaPost","id":"HnPost-26262989","excerpt":"","slug":"/hn/26262989","title":"A solo journey to $100k","date":"February 25, 2021","dateISO":"2021-02-25T17:20:28.049Z","datetime":"2021-02-25 17:20","tags":["story","Hacker News"],"image":null,"imageAlt":null,"provider":"Hacker News","thirdPartyId":"26262989","url":"https://news.ycombinator.com/item?id=26262989","originalUrl":"https://draculatheme.com/pro/journey","imageRemote":"https://draculatheme.com/static/img/pro/journey/0.png","video":null,"channel":null,"channelUrl":null,"author":"zenorocha","authorUrl":"https://news.ycombinator.com/user?id=zenorocha","authorImage":null,"authorSlug":null,"score":472,"views":null,"sharedCount":null,"likeCount":null,"sharedContent":null,"parent":{"__typename":"HnJson","localize":[{"title":"一个人的10万之旅","locale":"zh"},{"title":"一個人的10萬之旅","locale":"zh-Hant"}]}},{"__typename":"SocialMediaPost","id":"HnPost-26261314","excerpt":"","slug":"/hn/26261314","title":"GNU Taler – Payment system for privacy-friendly, fast, easy online transactions","date":"February 25, 2021","dateISO":"2021-02-25T16:46:19.029Z","datetime":"2021-02-25 16:46","tags":["story","Hacker News"],"image":null,"imageAlt":null,"provider":"Hacker News","thirdPartyId":"26261314","url":"https://news.ycombinator.com/item?id=26261314","originalUrl":"https://taler.net/en/","imageRemote":"https://taler.net/static/images/logo-2020.jpg","video":null,"channel":null,"channelUrl":null,"author":"2pEXgD0fZ5cF","authorUrl":"https://news.ycombinator.com/user?id=2pEXgD0fZ5cF","authorImage":null,"authorSlug":null,"score":345,"views":null,"sharedCount":null,"likeCount":null,"sharedContent":null,"parent":{"__typename":"HnJson","localize":[{"title":"GNU Taler - 用于隐私友好、快速、便捷的在线交易的支付系统。","locale":"zh"},{"title":"GNU Taler - 用於隱私友好、快速、便捷的在線交易的支付系統。","locale":"zh-Hant"}]}},{"__typename":"SocialMediaPost","id":"HnPost-26263264","excerpt":"","slug":"/hn/26263264","title":"Amazon Sends ‘Vote No’ Instructions to Unionizing Employees","date":"February 25, 2021","dateISO":"2021-02-25T16:46:19.029Z","datetime":"2021-02-25 16:46","tags":["story","Hacker News"],"image":null,"imageAlt":null,"provider":"Hacker News","thirdPartyId":"26263264","url":"https://news.ycombinator.com/item?id=26263264","originalUrl":"https://www.vice.com/en/article/3anw9k/amazon-sends-vote-no-instructions-to-unionizing-employees-tells-them-to-use-new-mailbox","imageRemote":"https://video-images.vice.com/articles/60366e0a3cb6c9009c16fd44/lede/1614180603280-image6483441-7.jpeg?image-resize-opts=Y3JvcD0xeHc6MC44NDE2NjY2NjY2NjY2NjY3eGg7Y2VudGVyLGNlbnRlciZyZXNpemU9MTIwMDoqJnJlc2l6ZT0xMjAwOio","video":null,"channel":null,"channelUrl":null,"author":"fireball_blaze","authorUrl":"https://news.ycombinator.com/user?id=fireball_blaze","authorImage":null,"authorSlug":null,"score":640,"views":null,"sharedCount":null,"likeCount":null,"sharedContent":null,"parent":{"__typename":"HnJson","localize":[{"title":"亚马逊向加入工会的员工发出 \"投反对票 \"指令","locale":"zh"},{"title":"亞馬遜向加入工會的員工發出 \"投反對票 \"指令","locale":"zh-Hant"}]}},{"__typename":"SocialMediaPost","id":"HnPost-26263508","excerpt":"","slug":"/hn/26263508","title":"The Framework Laptop","date":"February 25, 2021","dateISO":"2021-02-25T16:46:19.029Z","datetime":"2021-02-25 16:46","tags":["story","Hacker News"],"image":null,"imageAlt":null,"provider":"Hacker News","thirdPartyId":"26263508","url":"https://news.ycombinator.com/item?id=26263508","originalUrl":"https://frame.work/blog/introducing-the-framework-laptop","imageRemote":"https://images.prismic.io/frameworkmarketplace/0a03ea46-08ee-4155-a5aa-11d7c053698b_hero-clp-1200x630.jpg?auto=compress,format","video":null,"channel":null,"channelUrl":null,"author":"bitigchi","authorUrl":"https://news.ycombinator.com/user?id=bitigchi","authorImage":null,"authorSlug":null,"score":2562,"views":null,"sharedCount":null,"likeCount":null,"sharedContent":null,"parent":{"__typename":"HnJson","localize":[{"title":"笔记本电脑框架","locale":"zh"},{"title":"筆記本電腦框架","locale":"zh-Hant"}]}},{"__typename":"SocialMediaPost","id":"HnPost-26262465","excerpt":"","slug":"/hn/26262465","title":"DigitalOcean S-1","date":"February 25, 2021","dateISO":"2021-02-25T14:59:49.204Z","datetime":"2021-02-25 14:59","tags":["story","Hacker News"],"image":null,"imageAlt":null,"provider":"Hacker News","thirdPartyId":"26262465","url":"https://news.ycombinator.com/item?id=26262465","originalUrl":"https://www.sec.gov/Archives/edgar/data/1582961/000119312521055798/d898181ds1.htm","imageRemote":"https://www.sec.gov/Archives/edgar/data/1582961/000119312521055798/g898181g05f68.jpg","video":null,"channel":null,"channelUrl":null,"author":"marc__1","authorUrl":"https://news.ycombinator.com/user?id=marc__1","authorImage":null,"authorSlug":null,"score":923,"views":null,"sharedCount":null,"likeCount":null,"sharedContent":null,"parent":{"__typename":"HnJson","localize":[{"title":"数字海洋S-1","locale":"zh"},{"title":"數字海洋S-1","locale":"zh-Hant"}]}},{"__typename":"SocialMediaPost","id":"HnPost-26262170","excerpt":"","slug":"/hn/26262170","title":"Coinbase S-1","date":"February 25, 2021","dateISO":"2021-02-25T14:28:52.314Z","datetime":"2021-02-25 14:28","tags":["story","Hacker News"],"image":null,"imageAlt":null,"provider":"Hacker News","thirdPartyId":"26262170","url":"https://news.ycombinator.com/item?id=26262170","originalUrl":"https://www.sec.gov/Archives/edgar/data/1679788/000162828021003168/coinbaseglobalincs-1.htm","imageRemote":"https://www.sec.gov/Archives/edgar/data/1679788/000162828021003168/coinbase_logox2.jpg","video":null,"channel":null,"channelUrl":null,"author":"kacy","authorUrl":"https://news.ycombinator.com/user?id=kacy","authorImage":null,"authorSlug":null,"score":659,"views":null,"sharedCount":null,"likeCount":null,"sharedContent":null,"parent":{"__typename":"HnJson","localize":[{"title":"Coinbase S-1","locale":"zh"},{"title":"Coinbase S-1","locale":"zh-Hant"}]}},{"__typename":"SocialMediaPost","id":"HnPost-26250800","excerpt":"","slug":"/hn/26250800","title":"Student Surveillance Vendor Proctorio Files Slapp Lawsuit to Silence a Critic","date":"February 25, 2021","dateISO":"2021-02-25T13:59:37.043Z","datetime":"2021-02-25 13:59","tags":["story","Hacker News"],"image":null,"imageAlt":null,"provider":"Hacker News","thirdPartyId":"26250800","url":"https://news.ycombinator.com/item?id=26250800","originalUrl":"https://www.eff.org/deeplinks/2021/02/student-surveillance-vendor-proctorio-files-slapp-lawsuit-silence-critic","imageRemote":"https://www.eff.org/files/banner_library/anti-slapp-banner-2.jpg","video":null,"channel":null,"channelUrl":null,"author":"glitcher","authorUrl":"https://news.ycombinator.com/user?id=glitcher","authorImage":null,"authorSlug":null,"score":163,"views":null,"sharedCount":null,"likeCount":null,"sharedContent":null,"parent":{"__typename":"HnJson","localize":[{"title":"学生监控供应商Proctorio提起Slapp诉讼，以压制批评者。","locale":"zh"},{"title":"學生監控供應商Proctorio提起Slapp訴訟，以壓制批評者。","locale":"zh-Hant"}]}}]}},"pageContext":{"basePath":"/","pageType":"tag","tag":"Hacker News","tagsFilter":{"id":{"glob":"!*Post-1"}},"filter":{"id":{"glob":"!*Post-1"},"tags":{"eq":"Hacker News"}},"limit":25,"skip":550,"total":2600,"totalPages":104,"currentPage":23,"maxWidth":1024,"maxHeight":512,"locale":"zh","hrefLang":"zh-Hans","originalPath":"/tags/hacker-news/page/23","dateFormat":"YYYY-MM-DD"}},"staticQueryHashes":["1239077767","2506312863","2744905544","3025052997","3493603132","3493603132","3513215887","386998304"]}