{"componentChunkName":"component---gatsby-theme-buzzing-src-gatsby-theme-timeline-templates-posts-query-js","path":"/en/tags/story/page/65","result":{"data":{"site":{"siteMetadata":{"title":"Reddit 热门","description":"用中文浏览Reddit热门内容","social":[{"name":"Twitter","url":"https://twitter.com/gatsbyjs","external":null,"prefetch":null},{"name":"GitHub","url":"https://github.com/gatsbyjs","external":null,"prefetch":null}],"menuLinks":[],"localize":[{"locale":"en","title":"Buzzing on Reddit","description":"See what's buzzing on Reddit in your native language","social":[{"name":"Reddit","url":"https://www.reddit.com/","external":true,"prefetch":null}],"menuLinks":[{"name":"Weekly Selection","url":"/issues","external":null,"prefetch":null},{"name":"RSS","url":"/rss.xml","external":null,"prefetch":false}]},{"locale":"zh-Hant","title":"Reddit 熱門","description":"用中文瀏覽Reddit熱門內容","social":null,"menuLinks":null}]}},"tagsGroup":{"group":[{"fieldValue":"ASK HN","totalCount":36},{"fieldValue":"Bitcoin","totalCount":4},{"fieldValue":"Hacker News","totalCount":2185},{"fieldValue":"Poll","totalCount":1},{"fieldValue":"SaveAMC","totalCount":1},{"fieldValue":"Show HN","totalCount":76},{"fieldValue":"bitcoin","totalCount":3},{"fieldValue":"investing","totalCount":686},{"fieldValue":"poll","totalCount":1},{"fieldValue":"reddit","totalCount":4012},{"fieldValue":"science","totalCount":1},{"fieldValue":"stocks","totalCount":1322},{"fieldValue":"story","totalCount":2184},{"fieldValue":"tweet","totalCount":697},{"fieldValue":"wallstreetbets","totalCount":2004}]},"allBlogPost":{"nodes":[{"__typename":"SocialMediaPost","id":"HnPost-25601814","excerpt":"","slug":"/hn/25601814","title":"2021: CA law restricts delivery apps from listing restaurants without permission","date":"January 01, 2021","dateISO":"2021-01-01T12:14:04.261Z","datetime":"2021-01-01 12:14","tags":["story","Hacker News"],"image":null,"imageAlt":null,"provider":"Hacker News","thirdPartyId":"25601814","url":"https://news.ycombinator.com/item?id=25601814","originalUrl":"https://leginfo.legislature.ca.gov/faces/billTextClient.xhtml?bill_id=201920200AB2149","imageRemote":"https://leginfo.legislature.ca.gov/resources/images/header_img.png","video":null,"channel":null,"channelUrl":null,"author":"supernova87a","authorUrl":"https://news.ycombinator.com/user?id=supernova87a","authorImage":null,"authorSlug":null,"score":1317,"views":null,"sharedCount":null,"likeCount":null,"sharedContent":null,"parent":{"__typename":"HnJson","localize":[{"title":"2021年：CA法律限制送货应用程序未经许可列出餐厅","locale":"zh"},{"title":"2021年：CA法律限制送貨應用程序未經許可列出餐廳","locale":"zh-Hant"}]}},{"__typename":"SocialMediaPost","id":"HnPost-25598270","excerpt":"","slug":"/hn/25598270","title":"Reverse Engineering Source Code of the Biontech Pfizer Vaccine: Part 2","date":"January 01, 2021","dateISO":"2021-01-01T11:55:02.946Z","datetime":"2021-01-01 11:55","tags":["story","Hacker News"],"image":null,"imageAlt":null,"provider":"Hacker News","thirdPartyId":"25598270","url":"https://news.ycombinator.com/item?id=25598270","originalUrl":"https://berthub.eu/articles/posts/part-2-reverse-engineering-source-code-of-the-biontech-pfizer-vaccine/","imageRemote":"https://berthub.eu/articles/dna-codon-table.png","video":null,"channel":null,"channelUrl":null,"author":"soheilpro","authorUrl":"https://news.ycombinator.com/user?id=soheilpro","authorImage":null,"authorSlug":null,"score":212,"views":null,"sharedCount":null,"likeCount":null,"sharedContent":null,"parent":{"__typename":"HnJson","localize":[{"title":"生物技术辉瑞疫苗的反向工程源代码：第二部分","locale":"zh"},{"title":"生物技術輝瑞疫苗的反向工程源代碼：第二部分","locale":"zh-Hant"}]}},{"__typename":"SocialMediaPost","id":"HnPost-25590022","excerpt":"","slug":"/hn/25590022","title":"Why do we dream? A new theory on how it protects our brains","date":"January 01, 2021","dateISO":"2021-01-01T11:05:04.377Z","datetime":"2021-01-01 11:05","tags":["story","Hacker News"],"image":null,"imageAlt":null,"provider":"Hacker News","thirdPartyId":"25590022","url":"https://news.ycombinator.com/item?id=25590022","originalUrl":"https://time.com/5925206/why-do-we-dream/","imageRemote":"https://api.time.com/wp-content/uploads/2020/12/why-we-dream-kanghee-kim.jpg?quality=85&crop=0px%2C738px%2C1602px%2C838px&resize=1200%2C628&strip","video":null,"channel":null,"channelUrl":null,"author":"jdnier","authorUrl":"https://news.ycombinator.com/user?id=jdnier","authorImage":null,"authorSlug":null,"score":251,"views":null,"sharedCount":null,"likeCount":null,"sharedContent":null,"parent":{"__typename":"HnJson","localize":[{"title":"我们为什么要做梦？关于它如何保护我们大脑的新理论","locale":"zh"},{"title":"我們爲什麼要做夢？關於它如何保護我們大腦的新理論","locale":"zh-Hant"}]}},{"__typename":"SocialMediaPost","id":"HnPost-25594068","excerpt":"","slug":"/hn/25594068","title":"Ask HN: Predictions for 2021?","date":"January 01, 2021","dateISO":"2021-01-01T11:05:04.377Z","datetime":"2021-01-01 11:05","tags":["story","ASK HN","Hacker News"],"image":null,"imageAlt":null,"provider":"Hacker News","thirdPartyId":"25594068","url":"https://news.ycombinator.com/item?id=25594068","originalUrl":"https://news.ycombinator.com/item?id=25594068","imageRemote":null,"video":null,"channel":"ASK HN","channelUrl":"https://news.ycombinator.com/ask","author":"rvz","authorUrl":"https://news.ycombinator.com/user?id=rvz","authorImage":null,"authorSlug":null,"score":260,"views":null,"sharedCount":null,"likeCount":null,"sharedContent":null,"parent":{"__typename":"HnJson","localize":[{"title":"HN提问：对2021年的预测？","locale":"zh"},{"title":"HN提問：對2021年的預測？","locale":"zh-Hant"}]}},{"__typename":"SocialMediaPost","id":"HnPost-25598656","excerpt":"","slug":"/hn/25598656","title":"The Design of the Roland Juno Syntheziser's Oscillators","date":"January 01, 2021","dateISO":"2021-01-01T10:06:36.497Z","datetime":"2021-01-01 10:06","tags":["story","Hacker News"],"image":null,"imageAlt":null,"provider":"Hacker News","thirdPartyId":"25598656","url":"https://news.ycombinator.com/item?id=25598656","originalUrl":"https://blog.thea.codes/the-design-of-the-juno-dco/","imageRemote":"https://blog.thea.codes/static/juno/juno-logo.png","video":null,"channel":null,"channelUrl":null,"author":"cushychicken","authorUrl":"https://news.ycombinator.com/user?id=cushychicken","authorImage":null,"authorSlug":null,"score":237,"views":null,"sharedCount":null,"likeCount":null,"sharedContent":null,"parent":{"__typename":"HnJson","localize":[{"title":"罗兰·朱诺合成器振荡器的设计","locale":"zh"},{"title":"羅蘭·朱諾合成器振盪器的設計","locale":"zh-Hant"}]}},{"__typename":"SocialMediaPost","id":"HnPost-25591202","excerpt":"","slug":"/hn/25591202","title":"Shigeru Miyamoto wants to create a kinder world","date":"January 01, 2021","dateISO":"2021-01-01T08:40:26.123Z","datetime":"2021-01-01 08:40","tags":["story","Hacker News"],"image":null,"imageAlt":null,"provider":"Hacker News","thirdPartyId":"25591202","url":"https://news.ycombinator.com/item?id=25591202","originalUrl":"https://www.newyorker.com/culture/the-new-yorker-interview/shigeru-miyamoto-wants-to-create-a-kinder-world","imageRemote":"https://media.newyorker.com/photos/5fc512a4fb872ceec231feaf/16:9/w_1280,c_limit/TNYI-ShigeruMiyamoto.jpg","video":null,"channel":null,"channelUrl":null,"author":"polm23","authorUrl":"https://news.ycombinator.com/user?id=polm23","authorImage":null,"authorSlug":null,"score":220,"views":null,"sharedCount":null,"likeCount":null,"sharedContent":null,"parent":{"__typename":"HnJson","localize":[{"title":"宫本茂(Shigeru Miyamoto)想要创造一个更友善的世界","locale":"zh"},{"title":"宮本茂(Shigeru Miyamoto)想要創造一個更友善的世界","locale":"zh-Hant"}]}},{"__typename":"SocialMediaPost","id":"HnPost-25597430","excerpt":"","slug":"/hn/25597430","title":"“Odd Radio Circles” have astronomers excited","date":"January 01, 2021","dateISO":"2021-01-01T07:08:12.392Z","datetime":"2021-01-01 07:08","tags":["story","Hacker News"],"image":null,"imageAlt":null,"provider":"Hacker News","thirdPartyId":"25597430","url":"https://news.ycombinator.com/item?id=25597430","originalUrl":"https://singularityhub.com/2020/12/30/wtf-newly-discovered-ghostly-circles-in-the-sky-cant-be-explained-by-current-theories-and-astronomers-are-excited/","imageRemote":"https://singularityhub.com/wp-content/uploads/2020/12/mysterious-ghostly-circles-radio-waves-askap.jpg","video":null,"channel":null,"channelUrl":null,"author":"huntermeyer","authorUrl":"https://news.ycombinator.com/user?id=huntermeyer","authorImage":null,"authorSlug":null,"score":188,"views":null,"sharedCount":null,"likeCount":null,"sharedContent":null,"parent":{"__typename":"HnJson","localize":[{"title":"“奇数电波圈”让天文学家们兴奋不已","locale":"zh"},{"title":"“奇數電波圈”讓天文學家們興奮不已","locale":"zh-Hant"}]}},{"__typename":"SocialMediaPost","id":"HnPost-25600274","excerpt":"","slug":"/hn/25600274","title":"Most of what you read on the internet is written by insane people (2018)","date":"January 01, 2021","dateISO":"2021-01-01T07:08:12.392Z","datetime":"2021-01-01 07:08","tags":["story","Hacker News"],"image":null,"imageAlt":null,"provider":"Hacker News","thirdPartyId":"25600274","url":"https://news.ycombinator.com/item?id=25600274","originalUrl":"https://www.reddit.com/r/slatestarcodex/comments/9rvroo/most_of_what_you_read_on_the_internet_is_written/","imageRemote":"https://external-preview.redd.it/LaTGZ5w10DtENzLNNl4D_zSdAPFXhWVHz3H48Q93N5Q.jpg?auto=webp&s=c57ece1f23b1dc8adf0d8297b15965f5ceae77c0","video":null,"channel":null,"channelUrl":null,"author":"zuhayeer","authorUrl":"https://news.ycombinator.com/user?id=zuhayeer","authorImage":null,"authorSlug":null,"score":538,"views":null,"sharedCount":null,"likeCount":null,"sharedContent":null,"parent":{"__typename":"HnJson","localize":[{"title":"你在网上读到的大部分内容都是由精神错乱的人写的(2018年)","locale":"zh"},{"title":"你在網上讀到的大部分內容都是由精神錯亂的人寫的(2018年)","locale":"zh-Hant"}]}},{"__typename":"SocialMediaPost","id":"HnPost-25600338","excerpt":"","slug":"/hn/25600338","title":"TabFS: Mount your Browser Tabs as a Filesystem","date":"January 01, 2021","dateISO":"2021-01-01T06:37:51.401Z","datetime":"2021-01-01 06:37","tags":["story","Hacker News"],"image":null,"imageAlt":null,"provider":"Hacker News","thirdPartyId":"25600338","url":"https://news.ycombinator.com/item?id=25600338","originalUrl":"https://omar.website/tabfs/","imageRemote":"https://omar.website/projects/tabfs.png","video":null,"channel":null,"channelUrl":null,"author":"thesephist","authorUrl":"https://news.ycombinator.com/user?id=thesephist","authorImage":null,"authorSlug":null,"score":1400,"views":null,"sharedCount":null,"likeCount":null,"sharedContent":null,"parent":{"__typename":"HnJson","localize":[{"title":"TabFS：将浏览器选项卡装载为文件系统","locale":"zh"},{"title":"TabFS：將瀏覽器選項卡裝載爲文件系統","locale":"zh-Hant"}]}},{"__typename":"SocialMediaPost","id":"HnPost-25595830","excerpt":"","slug":"/hn/25595830","title":"USDS Digital Services Playbook","date":"January 01, 2021","dateISO":"2021-01-01T05:46:48.715Z","datetime":"2021-01-01 05:46","tags":["story","Hacker News"],"image":null,"imageAlt":null,"provider":"Hacker News","thirdPartyId":"25595830","url":"https://news.ycombinator.com/item?id=25595830","originalUrl":"https://playbook.cio.gov/","imageRemote":"https://playbook.cio.gov/assets/images/usds-logo-seal.png","video":null,"channel":null,"channelUrl":null,"author":"tomrod","authorUrl":"https://news.ycombinator.com/user?id=tomrod","authorImage":null,"authorSlug":null,"score":202,"views":null,"sharedCount":null,"likeCount":null,"sharedContent":null,"parent":{"__typename":"HnJson","localize":[{"title":"USDS数字服务行动手册","locale":"zh"},{"title":"USDS數字服務行動手冊","locale":"zh-Hant"}]}},{"__typename":"SocialMediaPost","id":"HnPost-25595897","excerpt":"","slug":"/hn/25595897","title":"Ex‐FBI operative says he worked to disrupt political activities up to '74 (1975)","date":"January 01, 2021","dateISO":"2021-01-01T01:34:15.401Z","datetime":"2021-01-01 01:34","tags":["story","Hacker News"],"image":null,"imageAlt":null,"provider":"Hacker News","thirdPartyId":"25595897","url":"https://news.ycombinator.com/item?id=25595897","originalUrl":"https://www.nytimes.com/1975/02/24/archives/exoperative-says-he-worked-for-fbi-to-disrupt-political-activities.html","imageRemote":"https://static01.nyt.com/newsgraphics/images/icons/defaultPromoCrop.png?year=1975","video":null,"channel":null,"channelUrl":null,"author":"AndrewBissell","authorUrl":"https://news.ycombinator.com/user?id=AndrewBissell","authorImage":null,"authorSlug":null,"score":232,"views":null,"sharedCount":null,"likeCount":null,"sharedContent":null,"parent":{"__typename":"HnJson","localize":[{"title":"前联邦调查局特工说，他在74年(1975)之前一直致力于扰乱政治活动","locale":"zh"},{"title":"前聯邦調查局特工說，他在74年(1975)之前一直致力於擾亂政治活動","locale":"zh-Hant"}]}},{"__typename":"SocialMediaPost","id":"HnPost-25598029","excerpt":"","slug":"/hn/25598029","title":"MF DOOM Has Died","date":"January 01, 2021","dateISO":"2021-01-01T01:34:15.400Z","datetime":"2021-01-01 01:34","tags":["story","Hacker News"],"image":null,"imageAlt":null,"provider":"Hacker News","thirdPartyId":"25598029","url":"https://news.ycombinator.com/item?id=25598029","originalUrl":"https://consequenceofsound.net/2020/12/mf-doom-dead-obituary/","imageRemote":"https://consequenceofsound.net/wp-content/uploads/2020/12/MF-DOOM.jpg?quality=80","video":null,"channel":null,"channelUrl":null,"author":"laurex","authorUrl":"https://news.ycombinator.com/user?id=laurex","authorImage":null,"authorSlug":null,"score":466,"views":null,"sharedCount":null,"likeCount":null,"sharedContent":null,"parent":{"__typename":"HnJson","localize":[{"title":"MF Deom已经死了","locale":"zh"},{"title":"MF Deom已經死了","locale":"zh-Hant"}]}},{"__typename":"SocialMediaPost","id":"HnPost-25593960","excerpt":"","slug":"/hn/25593960","title":"FCC orders phone companies to help trace illegal robocallers","date":"December 31, 2020","dateISO":"2020-12-31T23:09:39.942Z","datetime":"2020-12-31 23:09","tags":["story","Hacker News"],"image":null,"imageAlt":null,"provider":"Hacker News","thirdPartyId":"25593960","url":"https://news.ycombinator.com/item?id=25593960","originalUrl":"https://www.engadget.com/fcc-illegal-robocalls-tracing-new-rules-122542768.html","imageRemote":"https://o.aolcdn.com/images/dims?resize=1200%2C630&crop=1200%2C630%2C0%2C0&quality=95&image_uri=https%3A%2F%2Fs.yimg.com%2Fos%2Fcreatr-images%2F2020-06%2F1027c6d0-a4f0-11ea-a3e3-b844b86df74f&client=amp-blogside-v2&signature=2adb75f3b93d0c4a214d13688f0a370a931dde23","video":null,"channel":null,"channelUrl":null,"author":"FlyMoreRockets","authorUrl":"https://news.ycombinator.com/user?id=FlyMoreRockets","authorImage":null,"authorSlug":null,"score":181,"views":null,"sharedCount":null,"likeCount":null,"sharedContent":null,"parent":{"__typename":"HnJson","localize":[{"title":"FCC命令电话公司帮助追踪非法机器人呼叫者","locale":"zh"},{"title":"FCC命令電話公司幫助追蹤非法機器人呼叫者","locale":"zh-Hant"}]}},{"__typename":"SocialMediaPost","id":"HnPost-25597891","excerpt":"","slug":"/hn/25597891","title":"Bitcoin is a disaster","date":"December 31, 2020","dateISO":"2020-12-31T23:09:39.942Z","datetime":"2020-12-31 23:09","tags":["story","Hacker News"],"image":null,"imageAlt":null,"provider":"Hacker News","thirdPartyId":"25597891","url":"https://news.ycombinator.com/item?id=25597891","originalUrl":"https://www.metzdowd.com/pipermail/cryptography/2020-December/036510.html","imageRemote":null,"video":null,"channel":null,"channelUrl":null,"author":"wyldfire","authorUrl":"https://news.ycombinator.com/user?id=wyldfire","authorImage":null,"authorSlug":null,"score":877,"views":null,"sharedCount":null,"likeCount":null,"sharedContent":null,"parent":{"__typename":"HnJson","localize":[{"title":"比特币是一场灾难","locale":"zh"},{"title":"比特幣是一場災難","locale":"zh-Hant"}]}},{"__typename":"SocialMediaPost","id":"HnPost-25593262","excerpt":"","slug":"/hn/25593262","title":"Probabilistic Machine Learning: An Introduction","date":"December 31, 2020","dateISO":"2020-12-31T22:07:48.596Z","datetime":"2020-12-31 22:07","tags":["story","Hacker News"],"image":null,"imageAlt":null,"provider":"Hacker News","thirdPartyId":"25593262","url":"https://news.ycombinator.com/item?id=25593262","originalUrl":"https://probml.github.io/pml-book/book1.html","imageRemote":"https://probml.github.io/pml-book/pml1/pml1-toc-short-2col-2020-12-27.png","video":null,"channel":null,"channelUrl":null,"author":"joaorico","authorUrl":"https://news.ycombinator.com/user?id=joaorico","authorImage":null,"authorSlug":null,"score":309,"views":null,"sharedCount":null,"likeCount":null,"sharedContent":null,"parent":{"__typename":"HnJson","localize":[{"title":"概率机器学习：概论","locale":"zh"},{"title":"概率機器學習：概論","locale":"zh-Hant"}]}},{"__typename":"SocialMediaPost","id":"HnPost-25595865","excerpt":"","slug":"/hn/25595865","title":"Happy New Year HN","date":"December 31, 2020","dateISO":"2020-12-31T21:54:17.452Z","datetime":"2020-12-31 21:54","tags":["story","Hacker News"],"image":null,"imageAlt":null,"provider":"Hacker News","thirdPartyId":"25595865","url":"https://news.ycombinator.com/item?id=25595865","originalUrl":"https://news.ycombinator.com/item?id=25595865","imageRemote":null,"video":null,"channel":null,"channelUrl":null,"author":"thunderbong","authorUrl":"https://news.ycombinator.com/user?id=thunderbong","authorImage":null,"authorSlug":null,"score":984,"views":null,"sharedCount":null,"likeCount":null,"sharedContent":null,"parent":{"__typename":"HnJson","localize":[{"title":"HN新年快乐","locale":"zh"},{"title":"HN新年快樂","locale":"zh-Hant"}]}},{"__typename":"SocialMediaPost","id":"HnPost-25591066","excerpt":"","slug":"/hn/25591066","title":"Shamelessness as a Strategy (2019)","date":"December 31, 2020","dateISO":"2020-12-31T20:54:02.183Z","datetime":"2020-12-31 20:54","tags":["story","Hacker News"],"image":null,"imageAlt":null,"provider":"Hacker News","thirdPartyId":"25591066","url":"https://news.ycombinator.com/item?id=25591066","originalUrl":"https://nadiaeghbal.com/shameless","imageRemote":null,"video":null,"channel":null,"channelUrl":null,"author":"etherio","authorUrl":"https://news.ycombinator.com/user?id=etherio","authorImage":null,"authorSlug":null,"score":188,"views":null,"sharedCount":null,"likeCount":null,"sharedContent":null,"parent":{"__typename":"HnJson","localize":[{"title":"将无耻作为一种战略(2019年)","locale":"zh"},{"title":"將無恥作爲一種戰略(2019年)","locale":"zh-Hant"}]}},{"__typename":"SocialMediaPost","id":"HnPost-25595416","excerpt":"","slug":"/hn/25595416","title":"SolarWinds hackers were able to access Microsoft source code","date":"December 31, 2020","dateISO":"2020-12-31T20:01:53.311Z","datetime":"2020-12-31 20:01","tags":["story","Hacker News"],"image":null,"imageAlt":null,"provider":"Hacker News","thirdPartyId":"25595416","url":"https://news.ycombinator.com/item?id=25595416","originalUrl":"https://msrc-blog.microsoft.com/2020/12/31/microsoft-internal-solorigate-investigation-update/","imageRemote":null,"video":null,"channel":null,"channelUrl":null,"author":"accountinhn","authorUrl":"https://news.ycombinator.com/user?id=accountinhn","authorImage":null,"authorSlug":null,"score":675,"views":null,"sharedCount":null,"likeCount":null,"sharedContent":null,"parent":{"__typename":"HnJson","localize":[{"title":"SolarWinds黑客能够访问Microsoft源代码","locale":"zh"},{"title":"SolarWinds黑客能夠訪問Microsoft源代碼","locale":"zh-Hant"}]}},{"__typename":"SocialMediaPost","id":"HnPost-25591723","excerpt":"","slug":"/hn/25591723","title":"Mitsubishi Heavy to build biggest zero-carbon steel plant","date":"December 31, 2020","dateISO":"2020-12-31T19:01:06.851Z","datetime":"2020-12-31 19:01","tags":["story","Hacker News"],"image":null,"imageAlt":null,"provider":"Hacker News","thirdPartyId":"25591723","url":"https://news.ycombinator.com/item?id=25591723","originalUrl":"https://asia.nikkei.com/Spotlight/Environment/Climate-Change/Mitsubishi-Heavy-to-build-biggest-zero-carbon-steel-plant","imageRemote":"https://www.ft.com/__origami/service/image/v2/images/raw/https%3A%2F%2Fs3-ap-northeast-1.amazonaws.com%2Fpsh-ex-ftnikkei-3937bb4%2Fimages%2F9%2F6%2F6%2F0%2F31470669-3-eng-GB%2FCropped-1609100872RTX72UDL.JPG?width=1024&height=512&fit=cover&gravity=faces&source=nar-cms","video":null,"channel":null,"channelUrl":null,"author":"doener","authorUrl":"https://news.ycombinator.com/user?id=doener","authorImage":null,"authorSlug":null,"score":209,"views":null,"sharedCount":null,"likeCount":null,"sharedContent":null,"parent":{"__typename":"HnJson","localize":[{"title":"三菱重工将建设最大的零碳钢厂","locale":"zh"},{"title":"三菱重工將建設最大的零碳鋼廠","locale":"zh-Hant"}]}},{"__typename":"SocialMediaPost","id":"HnPost-25594517","excerpt":"","slug":"/hn/25594517","title":"Erdoğan’s censorship now targeting media outlets in Europe","date":"December 31, 2020","dateISO":"2020-12-31T19:01:06.851Z","datetime":"2020-12-31 19:01","tags":["story","Hacker News"],"image":null,"imageAlt":null,"provider":"Hacker News","thirdPartyId":"25594517","url":"https://news.ycombinator.com/item?id=25594517","originalUrl":"https://www.turkishminute.com/2020/12/31/erdogans-censorship-now-targeting-media-outlets-in-europe/","imageRemote":"https://www.turkishminute.com/wp-content/uploads/2020/12/000_Par7835872-1.jpg","video":null,"channel":null,"channelUrl":null,"author":"doener","authorUrl":"https://news.ycombinator.com/user?id=doener","authorImage":null,"authorSlug":null,"score":227,"views":null,"sharedCount":null,"likeCount":null,"sharedContent":null,"parent":{"__typename":"HnJson","localize":[{"title":"ErdoğAn的审查制度现在针对的是欧洲的媒体机构","locale":"zh"},{"title":"ErdoğAn的審查制度現在針對的是歐洲的媒體機構","locale":"zh-Hant"}]}},{"__typename":"SocialMediaPost","id":"HnPost-25590846","excerpt":"","slug":"/hn/25590846","title":"Why Jira Sucks","date":"December 31, 2020","dateISO":"2020-12-31T18:16:53.776Z","datetime":"2020-12-31 18:16","tags":["story","Hacker News"],"image":null,"imageAlt":null,"provider":"Hacker News","thirdPartyId":"25590846","url":"https://news.ycombinator.com/item?id=25590846","originalUrl":"https://whyjirasucks.com/","imageRemote":"https://whyjirasucks.com/img/covers/home.png","video":null,"channel":null,"channelUrl":null,"author":"svikashk","authorUrl":"https://news.ycombinator.com/user?id=svikashk","authorImage":null,"authorSlug":null,"score":407,"views":null,"sharedCount":null,"likeCount":null,"sharedContent":null,"parent":{"__typename":"HnJson","localize":[{"title":"为什么吉拉很差劲？","locale":"zh"},{"title":"爲什麼吉拉很差勁？","locale":"zh-Hant"}]}},{"__typename":"SocialMediaPost","id":"HnPost-25591492","excerpt":"","slug":"/hn/25591492","title":"The Big Little Guide to Message Queues","date":"December 31, 2020","dateISO":"2020-12-31T18:16:53.776Z","datetime":"2020-12-31 18:16","tags":["story","Hacker News"],"image":null,"imageAlt":null,"provider":"Hacker News","thirdPartyId":"25591492","url":"https://news.ycombinator.com/item?id=25591492","originalUrl":"https://sudhir.io/the-big-little-guide-to-message-queues/","imageRemote":"https://images.unsplash.com/photo-1549416096-1030b127970e?crop=entropy&cs=tinysrgb&fit=max&fm=jpg&ixid=MXwxMTc3M3wwfDF8c2VhcmNofDI2fHxxdWV1ZXN8ZW58MHx8fA&ixlib=rb-1.2.1&q=80&w=2000","video":null,"channel":null,"channelUrl":null,"author":"sudhirj","authorUrl":"https://news.ycombinator.com/user?id=sudhirj","authorImage":null,"authorSlug":null,"score":294,"views":null,"sharedCount":null,"likeCount":null,"sharedContent":null,"parent":{"__typename":"HnJson","localize":[{"title":"消息队列大小指南","locale":"zh"},{"title":"消息隊列大小指南","locale":"zh-Hant"}]}},{"__typename":"SocialMediaPost","id":"HnPost-25591695","excerpt":"","slug":"/hn/25591695","title":"PyPy Project looking for sponsorship to add support for Apple Silicon","date":"December 31, 2020","dateISO":"2020-12-31T18:16:53.776Z","datetime":"2020-12-31 18:16","tags":["story","Hacker News"],"image":null,"imageAlt":null,"provider":"Hacker News","thirdPartyId":"25591695","url":"https://news.ycombinator.com/item?id=25591695","originalUrl":"https://morepypy.blogspot.com/2020/12/mac-meets-arm64.html","imageRemote":"https://2.bp.blogspot.com/-iO_dZU_FAR0/Tbre-StkIhI/AAAAAAAAAM4/m3P9wi1e-ng/s150/pypy_small128.png","video":null,"channel":null,"channelUrl":null,"author":"fniephaus","authorUrl":"https://news.ycombinator.com/user?id=fniephaus","authorImage":null,"authorSlug":null,"score":262,"views":null,"sharedCount":null,"likeCount":null,"sharedContent":null,"parent":{"__typename":"HnJson","localize":[{"title":"PyPy项目寻求赞助以增加对Apple Silicon的支持","locale":"zh"},{"title":"PyPy項目尋求贊助以增加對Apple Silicon的支持","locale":"zh-Hant"}]}},{"__typename":"SocialMediaPost","id":"HnPost-25592481","excerpt":"","slug":"/hn/25592481","title":"WebAssembly Studio","date":"December 31, 2020","dateISO":"2020-12-31T18:16:53.776Z","datetime":"2020-12-31 18:16","tags":["story","Hacker News"],"image":null,"imageAlt":null,"provider":"Hacker News","thirdPartyId":"25592481","url":"https://news.ycombinator.com/item?id=25592481","originalUrl":"https://webassembly.studio","imageRemote":null,"video":null,"channel":null,"channelUrl":null,"author":"joubert","authorUrl":"https://news.ycombinator.com/user?id=joubert","authorImage":null,"authorSlug":null,"score":394,"views":null,"sharedCount":null,"likeCount":null,"sharedContent":null,"parent":{"__typename":"HnJson","localize":[{"title":"WebAssembly Studio","locale":"zh"},{"title":"WebAssembly Studio","locale":"zh-Hant"}]}},{"__typename":"SocialMediaPost","id":"HnPost-25590962","excerpt":"","slug":"/hn/25590962","title":"Nim in 2020: A Short Recap","date":"December 31, 2020","dateISO":"2020-12-31T17:17:12.465Z","datetime":"2020-12-31 17:17","tags":["story","Hacker News"],"image":null,"imageAlt":null,"provider":"Hacker News","thirdPartyId":"25590962","url":"https://news.ycombinator.com/item?id=25590962","originalUrl":"https://nim-lang.org/blog/2020/12/28/nim-in-2020-a-short-recap.html","imageRemote":"https://nim-lang.org/assets/img/twitter_banner.png","video":null,"channel":null,"channelUrl":null,"author":"leandot","authorUrl":"https://news.ycombinator.com/user?id=leandot","authorImage":null,"authorSlug":null,"score":188,"views":null,"sharedCount":null,"likeCount":null,"sharedContent":null,"parent":{"__typename":"HnJson","localize":[{"title":"2020年的尼姆：小结","locale":"zh"},{"title":"2020年的尼姆：小結","locale":"zh-Hant"}]}}]}},"pageContext":{"basePath":"/","pageType":"tag","tag":"story","tagsFilter":{"id":{"glob":"!*Post-1"}},"filter":{"id":{"glob":"!*Post-1"},"tags":{"eq":"story"}},"limit":25,"skip":1600,"total":2184,"totalPages":88,"currentPage":65,"maxWidth":1024,"maxHeight":512,"locale":"en","hrefLang":"en-US","originalPath":"/tags/story/page/65","dateFormat":"MM/DD/YYYY"}},"staticQueryHashes":["1239077767","2506312863","2744905544","3025052997","3493603132","3493603132","3513215887","386998304"]}