{"componentChunkName":"component---gatsby-theme-buzzing-src-gatsby-theme-timeline-templates-posts-query-js","path":"/zh-Hant/tags/story/page/26","result":{"data":{"site":{"siteMetadata":{"title":"Reddit 热门","description":"用中文浏览Reddit热门内容","social":[{"name":"Reddit","url":"https://www.reddit.com/","external":true,"prefetch":null},{"name":"GitHub","url":"https://github.com/gatsbyjs","external":null,"prefetch":null}],"menuLinks":[{"name":"每周精选","url":"/issues","external":null,"prefetch":null},{"name":"RSS","url":"/rss.xml","external":null,"prefetch":false}],"localize":[{"locale":"en","title":"Buzzing on Reddit","description":"See what's buzzing on Reddit in your native language","social":[{"name":"Reddit","url":"https://www.reddit.com/","external":true,"prefetch":null}],"menuLinks":[{"name":"Weekly Selection","url":"/issues","external":null,"prefetch":null},{"name":"RSS","url":"/rss.xml","external":null,"prefetch":false}]},{"locale":"zh-Hant","title":"Reddit 熱門","description":"用中文瀏覽Reddit熱門內容","social":null,"menuLinks":null}]}},"tagsGroup":{"group":[{"fieldValue":"ASK HN","totalCount":18},{"fieldValue":"Bitcoin","totalCount":3},{"fieldValue":"Hacker News","totalCount":797},{"fieldValue":"Poll","totalCount":1},{"fieldValue":"Show HN","totalCount":31},{"fieldValue":"investing","totalCount":166},{"fieldValue":"poll","totalCount":1},{"fieldValue":"reddit","totalCount":591},{"fieldValue":"science","totalCount":1},{"fieldValue":"stocks","totalCount":275},{"fieldValue":"story","totalCount":796},{"fieldValue":"tweet","totalCount":242},{"fieldValue":"wallstreetbets","totalCount":150}]},"allBlogPost":{"nodes":[{"__typename":"SocialMediaPost","id":"HnPost-25481278","excerpt":"","slug":"/hn/25481278","title":"The original \"Spacewar!\" running on a virtual DEC PDP-1","date":"December 20, 2020","dateISO":"2020-12-20T14:34:06.027Z","datetime":"2020-12-20 14:34","tags":["story","Hacker News"],"image":null,"imageAlt":null,"provider":"Hacker News","thirdPartyId":"25481278","url":"https://news.ycombinator.com/item?id=25481278","originalUrl":"https://www.masswerk.at/spacewar/","imageRemote":"https://www.masswerk.at/spacewar/images/pagepreview.jpg","video":null,"channel":null,"channelUrl":null,"author":"CharlesW","authorUrl":"https://news.ycombinator.com/user?id=CharlesW","authorImage":null,"authorSlug":null,"score":110,"views":null,"sharedCount":null,"likeCount":null,"sharedContent":null,"parent":{"__typename":"HnJson","localize":[{"title":"原版“太空武士！”在虚拟DEC PDP-1上运行","locale":"zh"},{"title":"原版“太空武士！”在虛擬DEC PDP-1上運行","locale":"zh-Hant"}]}},{"__typename":"SocialMediaPost","id":"HnPost-25481772","excerpt":"","slug":"/hn/25481772","title":"Show HN: Create a QR code with text in the code pattern","date":"December 20, 2020","dateISO":"2020-12-20T14:34:06.027Z","datetime":"2020-12-20 14:34","tags":["story","Show HN","Hacker News"],"image":null,"imageAlt":null,"provider":"Hacker News","thirdPartyId":"25481772","url":"https://news.ycombinator.com/item?id=25481772","originalUrl":"http://qr.new","imageRemote":null,"video":null,"channel":"Show HN","channelUrl":"https://news.ycombinator.com/show","author":"koch","authorUrl":"https://news.ycombinator.com/user?id=koch","authorImage":null,"authorSlug":null,"score":126,"views":null,"sharedCount":null,"likeCount":null,"sharedContent":null,"parent":{"__typename":"HnJson","localize":[{"title":"HN新产品：使用代码模式中的文本创建二维码","locale":"zh"},{"title":"show HN：使用代碼模式中的文本創建二維碼","locale":"zh-Hant"}]}},{"__typename":"SocialMediaPost","id":"HnPost-25481837","excerpt":"","slug":"/hn/25481837","title":"Show HN: I wrote a book on implementing DDD, CQRS and Event Sourcing","date":"December 20, 2020","dateISO":"2020-12-20T14:34:06.027Z","datetime":"2020-12-20 14:34","tags":["story","Show HN","Hacker News"],"image":null,"imageAlt":null,"provider":"Hacker News","thirdPartyId":"25481837","url":"https://news.ycombinator.com/item?id=25481837","originalUrl":"https://leanpub.com/implementing-ddd-cqrs-and-event-sourcing","imageRemote":"https://d2sofvawe08yqg.cloudfront.net/implementing-ddd-cqrs-and-event-sourcing/medium?1607341766","video":null,"channel":"Show HN","channelUrl":"https://news.ycombinator.com/show","author":"alex-lawrence","authorUrl":"https://news.ycombinator.com/user?id=alex-lawrence","authorImage":null,"authorSlug":null,"score":168,"views":null,"sharedCount":null,"likeCount":null,"sharedContent":null,"parent":{"__typename":"HnJson","localize":[{"title":"HN新产品：我写了一本关于实现DDD、CQRS和事件源的书","locale":"zh"},{"title":"show HN：我寫了一本關於實現DDD、CQRS和事件源的書","locale":"zh-Hant"}]}},{"__typename":"SocialMediaPost","id":"HnPost-25482075","excerpt":"","slug":"/hn/25482075","title":"The Abolition of Work (2002)","date":"December 20, 2020","dateISO":"2020-12-20T14:34:06.027Z","datetime":"2020-12-20 14:34","tags":["story","Hacker News"],"image":null,"imageAlt":null,"provider":"Hacker News","thirdPartyId":"25482075","url":"https://news.ycombinator.com/item?id=25482075","originalUrl":"https://theanarchistlibrary.org/library/bob-black-the-abolition-of-work","imageRemote":"https://theanarchistlibrary.org/sitefiles/en/opengraph.png","video":null,"channel":null,"channelUrl":null,"author":"lordwarnut","authorUrl":"https://news.ycombinator.com/user?id=lordwarnut","authorImage":null,"authorSlug":null,"score":157,"views":null,"sharedCount":null,"likeCount":null,"sharedContent":null,"parent":{"__typename":"HnJson","localize":[{"title":"“废止工作”(2002)","locale":"zh"},{"title":"“廢止工作”(2002)","locale":"zh-Hant"}]}},{"__typename":"SocialMediaPost","id":"HnPost-25482219","excerpt":"","slug":"/hn/25482219","title":"IceWM 2.0 – Ice Window Manager","date":"December 20, 2020","dateISO":"2020-12-20T14:34:06.027Z","datetime":"2020-12-20 14:34","tags":["story","Hacker News"],"image":null,"imageAlt":null,"provider":"Hacker News","thirdPartyId":"25482219","url":"https://news.ycombinator.com/item?id=25482219","originalUrl":"https://ice-wm.org/","imageRemote":"https://ice-wm.org/images/logom.jpg","video":null,"channel":null,"channelUrl":null,"author":"conductor","authorUrl":"https://news.ycombinator.com/user?id=conductor","authorImage":null,"authorSlug":null,"score":123,"views":null,"sharedCount":null,"likeCount":null,"sharedContent":null,"parent":{"__typename":"HnJson","localize":[{"title":"IceWM 2.0-冰窗管理器","locale":"zh"},{"title":"IceWM 2.0-冰窗管理器","locale":"zh-Hant"}]}},{"__typename":"SocialMediaPost","id":"HnPost-25483010","excerpt":"","slug":"/hn/25483010","title":"Apple M1 foreshadows Rise of RISC-V","date":"December 20, 2020","dateISO":"2020-12-20T14:34:06.027Z","datetime":"2020-12-20 14:34","tags":["story","Hacker News"],"image":null,"imageAlt":null,"provider":"Hacker News","thirdPartyId":"25483010","url":"https://news.ycombinator.com/item?id=25483010","originalUrl":"https://erik-engheim.medium.com/apple-m1-foreshadows-risc-v-dd63a62b2562","imageRemote":"https://miro.medium.com/max/678/1*DcbqCwxXvWGHcXgw4_r2JQ.jpeg","video":null,"channel":null,"channelUrl":null,"author":"socialdemocrat","authorUrl":"https://news.ycombinator.com/user?id=socialdemocrat","authorImage":null,"authorSlug":null,"score":401,"views":null,"sharedCount":null,"likeCount":null,"sharedContent":null,"parent":{"__typename":"HnJson","localize":[{"title":"苹果M1预示着RISC-V的崛起","locale":"zh"},{"title":"蘋果M1預示着RISC-V的崛起","locale":"zh-Hant"}]}},{"__typename":"SocialMediaPost","id":"HnPost-25485428","excerpt":"","slug":"/hn/25485428","title":"Raspberry Pi Server Mark III","date":"December 20, 2020","dateISO":"2020-12-20T14:34:06.027Z","datetime":"2020-12-20 14:34","tags":["story","Hacker News"],"image":null,"imageAlt":null,"provider":"Hacker News","thirdPartyId":"25485428","url":"https://news.ycombinator.com/item?id=25485428","originalUrl":"https://uplab.pro/2020/12/raspberry-pi-server-mark-iii/","imageRemote":"https://uplab.pro/wp-content/uploads/2020/12/UPTIME-Raspberry-Pi-Platform-pi18nossd-v1.0-1024x681.jpg","video":null,"channel":null,"channelUrl":null,"author":"homarp","authorUrl":"https://news.ycombinator.com/user?id=homarp","authorImage":null,"authorSlug":null,"score":322,"views":null,"sharedCount":null,"likeCount":null,"sharedContent":null,"parent":{"__typename":"HnJson","localize":[{"title":"覆盆子PI服务器马克III","locale":"zh"},{"title":"覆盆子PI服務器馬克III","locale":"zh-Hant"}]}},{"__typename":"SocialMediaPost","id":"HnPost-25481143","excerpt":"","slug":"/hn/25481143","title":"Ryzen 5800X vs. M1: Programming benchmarks","date":"December 20, 2020","dateISO":"2020-12-20T04:13:29.259Z","datetime":"2020-12-20 04:13","tags":["story","Hacker News"],"image":null,"imageAlt":null,"provider":"Hacker News","thirdPartyId":"25481143","url":"https://news.ycombinator.com/item?id=25481143","originalUrl":"https://github.com/tuhdo/tuhdo.github.io/blob/master/emacs-tutor/zen3_vs_m1.org","imageRemote":"https://avatars1.githubusercontent.com/u/4818719?s=400&v=4","video":null,"channel":null,"channelUrl":null,"author":"tuhdo","authorUrl":"https://news.ycombinator.com/user?id=tuhdo","authorImage":null,"authorSlug":null,"score":338,"views":null,"sharedCount":null,"likeCount":null,"sharedContent":null,"parent":{"__typename":"HnJson","localize":[{"title":"Ryzen 5800X与M1：编程基准","locale":"zh"},{"title":"Ryzen 5800X與M1：編程基準","locale":"zh-Hant"}]}},{"__typename":"SocialMediaPost","id":"HnPost-25482883","excerpt":"","slug":"/hn/25482883","title":"Windows 10 20H2: ChkDsk damages filesystem on SSDs with KB4592438 installed","date":"December 20, 2020","dateISO":"2020-12-20T04:13:29.259Z","datetime":"2020-12-20 04:13","tags":["story","Hacker News"],"image":null,"imageAlt":null,"provider":"Hacker News","thirdPartyId":"25482883","url":"https://news.ycombinator.com/item?id=25482883","originalUrl":"https://borncity.com/win/2020/12/18/windows-10-20h2-chkdsk-damages-file-system-on-ssds-with-update-kb4592438-installed/","imageRemote":"https://www.borncity.com/blog/wp-content/uploads/2015/01/win102.jpg","video":null,"channel":null,"channelUrl":null,"author":"xeeeeeeeeeeenu","authorUrl":"https://news.ycombinator.com/user?id=xeeeeeeeeeeenu","authorImage":null,"authorSlug":null,"score":426,"views":null,"sharedCount":null,"likeCount":null,"sharedContent":null,"parent":{"__typename":"HnJson","localize":[{"title":"Windows 10 20H2：ChkDsk损坏安装了KB4592438的SSD上的文件系统","locale":"zh"},{"title":"Windows 10 20H2：ChkDsk損壞安裝了KB4592438的SSD上的文件系統","locale":"zh-Hant"}]}},{"__typename":"SocialMediaPost","id":"HnPost-25482410","excerpt":"","slug":"/hn/25482410","title":"Back to the '70s with Serverless","date":"December 20, 2020","dateISO":"2020-12-20T02:58:19.461Z","datetime":"2020-12-20 02:58","tags":["story","Hacker News"],"image":null,"imageAlt":null,"provider":"Hacker News","thirdPartyId":"25482410","url":"https://news.ycombinator.com/item?id=25482410","originalUrl":"http://evrl.com/devops/cloud/2020/12/18/serverless.html","imageRemote":"http://evrl.com/img/rss.png","video":null,"channel":null,"channelUrl":null,"author":"pjmlp","authorUrl":"https://news.ycombinator.com/user?id=pjmlp","authorImage":null,"authorSlug":null,"score":518,"views":null,"sharedCount":null,"likeCount":null,"sharedContent":null,"parent":{"__typename":"HnJson","localize":[{"title":"带着无服务器回到70年代","locale":"zh"},{"title":"帶着無服務器回到70年代","locale":"zh-Hant"}]}},{"__typename":"SocialMediaPost","id":"HnPost-25482927","excerpt":"","slug":"/hn/25482927","title":"All problems stem from man's inability to sit quietly in a room alone (2014)","date":"December 20, 2020","dateISO":"2020-12-20T02:39:37.073Z","datetime":"2020-12-20 02:39","tags":["story","Hacker News"],"image":null,"imageAlt":null,"provider":"Hacker News","thirdPartyId":"25482927","url":"https://news.ycombinator.com/item?id=25482927","originalUrl":"https://www.theguardian.com/lifeandstyle/2014/jul/19/change-your-life-sit-down-and-think","imageRemote":"https://i.guim.co.uk/img/static/sys-images/Guardian/Pix/pictures/2014/7/11/1405093400255/This-column-change-your-l-010.jpg?width=1200&height=630&quality=85&auto=format&fit=crop&overlay-align=bottom%2Cleft&overlay-width=100p&overlay-base64=L2ltZy9zdGF0aWMvb3ZlcmxheXMvdGctZGVmYXVsdC5wbmc&enable=upscale&s=d7ed9bf29fa49f230efeb671b6868ef4","video":null,"channel":null,"channelUrl":null,"author":"chesterfield","authorUrl":"https://news.ycombinator.com/user?id=chesterfield","authorImage":null,"authorSlug":null,"score":825,"views":null,"sharedCount":null,"likeCount":null,"sharedContent":null,"parent":{"__typename":"HnJson","localize":[{"title":"所有问题都源于男人无法独自安静地坐在房间里(2014)","locale":"zh"},{"title":"所有問題都源於男人無法獨自安靜地坐在房間裏(2014)","locale":"zh-Hant"}]}},{"__typename":"SocialMediaPost","id":"HnPost-25480829","excerpt":"","slug":"/hn/25480829","title":"No, SAR Can't See Through Buildings","date":"December 20, 2020","dateISO":"2020-12-20T01:07:45.235Z","datetime":"2020-12-20 01:07","tags":["story","Hacker News"],"image":null,"imageAlt":null,"provider":"Hacker News","thirdPartyId":"25480829","url":"https://news.ycombinator.com/item?id=25480829","originalUrl":"https://www.capellaspace.com/no-sar-cant-see-through-buildings/","imageRemote":"https://www.capellaspace.com/wp-content/uploads/2020/12/Capella-Space-Spot-Image-Tokyo-Japan-1.jpg","video":null,"channel":null,"channelUrl":null,"author":"Shelnutt2","authorUrl":"https://news.ycombinator.com/user?id=Shelnutt2","authorImage":null,"authorSlug":null,"score":192,"views":null,"sharedCount":null,"likeCount":null,"sharedContent":null,"parent":{"__typename":"HnJson","localize":[{"title":"不，SAR看不见建筑物","locale":"zh"},{"title":"不，SAR看不見建築物","locale":"zh-Hant"}]}},{"__typename":"SocialMediaPost","id":"HnPost-25481465","excerpt":"","slug":"/hn/25481465","title":"Setting up your own Nextcloud instance to get off of Google","date":"December 20, 2020","dateISO":"2020-12-20T01:07:45.235Z","datetime":"2020-12-20 01:07","tags":["story","Hacker News"],"image":null,"imageAlt":null,"provider":"Hacker News","thirdPartyId":"25481465","url":"https://news.ycombinator.com/item?id=25481465","originalUrl":"https://kiramclean.com/blog/how-to-set-up-your-own-nextcloud-server/","imageRemote":null,"video":null,"channel":null,"channelUrl":null,"author":"kmclean","authorUrl":"https://news.ycombinator.com/user?id=kmclean","authorImage":null,"authorSlug":null,"score":283,"views":null,"sharedCount":null,"likeCount":null,"sharedContent":null,"parent":{"__typename":"HnJson","localize":[{"title":"设置您自己的Nextcloud实例以脱离Google","locale":"zh"},{"title":"設置您自己的Nextcloud實例以脫離Google","locale":"zh-Hant"}]}},{"__typename":"SocialMediaPost","id":"HnPost-25480321","excerpt":"","slug":"/hn/25480321","title":"Bevy 0.4: data oriented game engine built in Rust","date":"December 19, 2020","dateISO":"2020-12-19T23:40:08.042Z","datetime":"2020-12-19 23:40","tags":["story","Hacker News"],"image":null,"imageAlt":null,"provider":"Hacker News","thirdPartyId":"25480321","url":"https://news.ycombinator.com/item?id=25480321","originalUrl":"https://bevyengine.org/news/bevy-0-4/","imageRemote":"https://bevyengine.org/assets/bevy_logo_fill.png","video":null,"channel":null,"channelUrl":null,"author":"_cart","authorUrl":"https://news.ycombinator.com/user?id=_cart","authorImage":null,"authorSlug":null,"score":113,"views":null,"sharedCount":null,"likeCount":null,"sharedContent":null,"parent":{"__typename":"HnJson","localize":[{"title":"Bevy 0.4：Rust内置的面向数据的游戏引擎","locale":"zh"},{"title":"Bevy 0.4：Rust內置的面向數據的遊戲引擎","locale":"zh-Hant"}]}},{"__typename":"SocialMediaPost","id":"HnPost-25472211","excerpt":"","slug":"/hn/25472211","title":"'I am mine': Alzheimer's at 41 (2018)","date":"December 19, 2020","dateISO":"2020-12-19T22:42:25.065Z","datetime":"2020-12-19 22:42","tags":["story","Hacker News"],"image":null,"imageAlt":null,"provider":"Hacker News","thirdPartyId":"25472211","url":"https://news.ycombinator.com/item?id=25472211","originalUrl":"https://www.macleans.ca/news/canada/i-am-mine-this-is-what-alzheimers-is-like-at-41/","imageRemote":"https://www.macleans.ca/wp-content/uploads/2018/09/MAC09_JO_HAS_ALZHEIMERS01-810x445.jpg?97605","video":null,"channel":null,"channelUrl":null,"author":"well_i_never","authorUrl":"https://news.ycombinator.com/user?id=well_i_never","authorImage":null,"authorSlug":null,"score":154,"views":null,"sharedCount":null,"likeCount":null,"sharedContent":null,"parent":{"__typename":"HnJson","localize":[{"title":"《我是我的》：41岁的阿尔茨海默氏症(2018年)","locale":"zh"},{"title":"《我是我的》：41歲的阿爾茨海默氏症(2018年)","locale":"zh-Hant"}]}},{"__typename":"SocialMediaPost","id":"HnPost-25478146","excerpt":"","slug":"/hn/25478146","title":"The CIA’s Afghan Death Squads","date":"December 19, 2020","dateISO":"2020-12-19T21:49:26.214Z","datetime":"2020-12-19 21:49","tags":["story","Hacker News"],"image":null,"imageAlt":null,"provider":"Hacker News","thirdPartyId":"25478146","url":"https://news.ycombinator.com/item?id=25478146","originalUrl":"https://theintercept.com/2020/12/18/afghanistan-cia-militia-01-strike-force/","imageRemote":"https://theintercept.com/wp-uploads/sites/1/2020/12/Afghanistan-The-Intercept-social.jpg","video":null,"channel":null,"channelUrl":null,"author":"sudoaza","authorUrl":"https://news.ycombinator.com/user?id=sudoaza","authorImage":null,"authorSlug":null,"score":115,"views":null,"sharedCount":null,"likeCount":null,"sharedContent":null,"parent":{"__typename":"HnJson","localize":[{"title":"中央情报局的阿富汗敢死队","locale":"zh"},{"title":"中央情報局的阿富汗敢死隊","locale":"zh-Hant"}]}},{"__typename":"SocialMediaPost","id":"HnPost-25479694","excerpt":"","slug":"/hn/25479694","title":"Inciteful: Using Citations to Explore Academic Literature","date":"December 19, 2020","dateISO":"2020-12-19T21:34:46.771Z","datetime":"2020-12-19 21:34","tags":["story","Hacker News"],"image":null,"imageAlt":null,"provider":"Hacker News","thirdPartyId":"25479694","url":"https://news.ycombinator.com/item?id=25479694","originalUrl":"https://inciteful.xyz/","imageRemote":"https://inciteful.xyz/dist/img/logo-300.png","video":null,"channel":null,"channelUrl":null,"author":"adamnemecek","authorUrl":"https://news.ycombinator.com/user?id=adamnemecek","authorImage":null,"authorSlug":null,"score":143,"views":null,"sharedCount":null,"likeCount":null,"sharedContent":null,"parent":{"__typename":"HnJson","localize":[{"title":"煽动性：利用引文探索学术文献","locale":"zh"},{"title":"煽動性：利用引文探索學術文獻","locale":"zh-Hant"}]}},{"__typename":"SocialMediaPost","id":"HnPost-25472821","excerpt":"","slug":"/hn/25472821","title":"Solorigate, the compromised DLL file that started a sophisticated cyberattack","date":"December 19, 2020","dateISO":"2020-12-19T20:57:56.072Z","datetime":"2020-12-19 20:57","tags":["story","Hacker News"],"image":null,"imageAlt":null,"provider":"Hacker News","thirdPartyId":"25472821","url":"https://news.ycombinator.com/item?id=25472821","originalUrl":"https://www.microsoft.com/security/blog/2020/12/18/analyzing-solorigate-the-compromised-dll-file-that-started-a-sophisticated-cyberattack-and-how-microsoft-defender-helps-protect/","imageRemote":"https://www.microsoft.com/security/blog/wp-content/uploads/2020/12/Solorigate-social-5.png","video":null,"channel":null,"channelUrl":null,"author":"thejj100100","authorUrl":"https://news.ycombinator.com/user?id=thejj100100","authorImage":null,"authorSlug":null,"score":253,"views":null,"sharedCount":null,"likeCount":null,"sharedContent":null,"parent":{"__typename":"HnJson","localize":[{"title":"SolOrigate，这个被攻破的DLL文件引发了复杂的网络攻击","locale":"zh"},{"title":"SolOrigate，這個被攻破的DLL文件引發了複雜的網絡攻擊","locale":"zh-Hant"}]}},{"__typename":"SocialMediaPost","id":"HnPost-25471274","excerpt":"","slug":"/hn/25471274","title":"U.S. charges China-based Zoom employee for disrupting Tiananmen commemoration","date":"December 19, 2020","dateISO":"2020-12-19T20:27:26.053Z","datetime":"2020-12-19 20:27","tags":["story","Hacker News"],"image":null,"imageAlt":null,"provider":"Hacker News","thirdPartyId":"25471274","url":"https://news.ycombinator.com/item?id=25471274","originalUrl":"https://www.axios.com/zoom-tiananmen-square-china-charges-5ba2e20b-0a75-492e-8ed9-2fcc25243fdd.html","imageRemote":"https://images.axios.com/wZ2-Ui70AyhHcYI69KpiJe8B2mE=/0x0:1920x1080/1366x768/2020/12/18/1608314364790.jpg","video":null,"channel":null,"channelUrl":null,"author":"99_00","authorUrl":"https://news.ycombinator.com/user?id=99_00","authorImage":null,"authorSlug":null,"score":106,"views":null,"sharedCount":null,"likeCount":null,"sharedContent":null,"parent":{"__typename":"HnJson","localize":[{"title":"美国指控中国Zoom员工扰乱天安门纪念活动","locale":"zh"},{"title":"美國指控中國Zoom員工擾亂天安門紀念活動","locale":"zh-Hant"}]}},{"__typename":"SocialMediaPost","id":"HnPost-25478783","excerpt":"","slug":"/hn/25478783","title":"London put in emergency lockdown as U.K. fights new strain","date":"December 19, 2020","dateISO":"2020-12-19T20:27:26.053Z","datetime":"2020-12-19 20:27","tags":["story","Hacker News"],"image":null,"imageAlt":null,"provider":"Hacker News","thirdPartyId":"25478783","url":"https://news.ycombinator.com/item?id=25478783","originalUrl":"https://www.bloomberg.com/news/articles/2020-12-19/london-put-in-emergency-lockdown-as-u-k-fights-new-virus-strain","imageRemote":null,"video":null,"channel":null,"channelUrl":null,"author":"remote_phone","authorUrl":"https://news.ycombinator.com/user?id=remote_phone","authorImage":null,"authorSlug":null,"score":213,"views":null,"sharedCount":null,"likeCount":null,"sharedContent":null,"parent":{"__typename":"HnJson","localize":[{"title":"伦敦紧急封锁，英国与新的压力作斗争","locale":"zh"},{"title":"倫敦緊急封鎖，英國與新的壓力作鬥爭","locale":"zh-Hant"}]}},{"__typename":"SocialMediaPost","id":"HnPost-25476266","excerpt":"","slug":"/hn/25476266","title":"Commoditize your complement (2019)","date":"December 19, 2020","dateISO":"2020-12-19T19:36:55.977Z","datetime":"2020-12-19 19:36","tags":["story","Hacker News"],"image":null,"imageAlt":null,"provider":"Hacker News","thirdPartyId":"25476266","url":"https://news.ycombinator.com/item?id=25476266","originalUrl":"https://www.gwern.net/Complement","imageRemote":"https://www.gwern.net/static/img/logo/logo-whitebg-large-border.png","video":null,"channel":null,"channelUrl":null,"author":"harperlee","authorUrl":"https://news.ycombinator.com/user?id=harperlee","authorImage":null,"authorSlug":null,"score":128,"views":null,"sharedCount":null,"likeCount":null,"sharedContent":null,"parent":{"__typename":"HnJson","localize":[{"title":"将补充物商品化(2019年)","locale":"zh"},{"title":"將補充物商品化(2019年)","locale":"zh-Hant"}]}},{"__typename":"SocialMediaPost","id":"HnPost-25478693","excerpt":"","slug":"/hn/25478693","title":"9k-Year-Old Stonehenge-Like Structure Found Under Lake Michigan","date":"December 19, 2020","dateISO":"2020-12-19T19:25:11.802Z","datetime":"2020-12-19 19:25","tags":["story","Hacker News"],"image":null,"imageAlt":null,"provider":"Hacker News","thirdPartyId":"25478693","url":"https://news.ycombinator.com/item?id=25478693","originalUrl":"https://archaeology-world.com/9000-year-old-stonehenge-like-structure-found-under-lake-michigan/","imageRemote":"https://secureservercdn.net/160.153.137.40/fbx.00e.myftpupload.com/wp-content/uploads/2020/11/michigan-stonehenge-4-1-672x372.jpg","video":null,"channel":null,"channelUrl":null,"author":"djsumdog","authorUrl":"https://news.ycombinator.com/user?id=djsumdog","authorImage":null,"authorSlug":null,"score":252,"views":null,"sharedCount":null,"likeCount":null,"sharedContent":null,"parent":{"__typename":"HnJson","localize":[{"title":"密歇根湖下发现9K年前类似巨石阵的结构","locale":"zh"},{"title":"密歇根湖下發現9K年前類似巨石陣的結構","locale":"zh-Hant"}]}},{"__typename":"SocialMediaPost","id":"HnPost-25478869","excerpt":"","slug":"/hn/25478869","title":"Being kind to others is good for your health","date":"December 19, 2020","dateISO":"2020-12-19T19:25:11.802Z","datetime":"2020-12-19 19:25","tags":["story","Hacker News"],"image":null,"imageAlt":null,"provider":"Hacker News","thirdPartyId":"25478869","url":"https://news.ycombinator.com/item?id=25478869","originalUrl":"https://www.bbc.com/future/article/20201215-why-being-kind-to-others-is-good-for-your-health","imageRemote":"https://ychef.files.bbci.co.uk/live/624x351/p091jsp9.jpg","video":null,"channel":null,"channelUrl":null,"author":"diminish","authorUrl":"https://news.ycombinator.com/user?id=diminish","authorImage":null,"authorSlug":null,"score":690,"views":null,"sharedCount":null,"likeCount":null,"sharedContent":null,"parent":{"__typename":"HnJson","localize":[{"title":"善待他人对你的健康有好处","locale":"zh"},{"title":"善待他人對你的健康有好處","locale":"zh-Hant"}]}},{"__typename":"SocialMediaPost","id":"HnPost-25475037","excerpt":"","slug":"/hn/25475037","title":"Cyberpunk 2077: How 2020’s biggest video game launch turned into a shambles","date":"December 19, 2020","dateISO":"2020-12-19T18:30:28.952Z","datetime":"2020-12-19 18:30","tags":["story","Hacker News"],"image":null,"imageAlt":null,"provider":"Hacker News","thirdPartyId":"25475037","url":"https://news.ycombinator.com/item?id=25475037","originalUrl":"https://www.theguardian.com/games/2020/dec/18/cyberpunk-2077-how-2020s-biggest-video-game-launch-turned-into-a-shambles","imageRemote":"https://i.guim.co.uk/img/media/dc54c4cf6080fd3eaa4a066d95f9f246a4b525c3/254_0_1606_964/master/1606.jpg?width=1200&height=630&quality=85&auto=format&fit=crop&overlay-align=bottom%2Cleft&overlay-width=100p&overlay-base64=L2ltZy9zdGF0aWMvb3ZlcmxheXMvdGctb3BpbmlvbnMucG5n&enable=upscale&s=3c36f539562b42f4c09e03c8ea1fdd2c","video":null,"channel":null,"channelUrl":null,"author":"helsinkiandrew","authorUrl":"https://news.ycombinator.com/user?id=helsinkiandrew","authorImage":null,"authorSlug":null,"score":320,"views":null,"sharedCount":null,"likeCount":null,"sharedContent":null,"parent":{"__typename":"HnJson","localize":[{"title":"赛博朋克2077：2020年最大的视频游戏发布如何变得一团糟","locale":"zh"},{"title":"賽博朋克2077：2020年最大的視頻遊戲發佈如何變得一團糟","locale":"zh-Hant"}]}},{"__typename":"SocialMediaPost","id":"HnPost-25478166","excerpt":"","slug":"/hn/25478166","title":"Stanford’s vaccine allocation leaves out nearly all medical residents","date":"December 19, 2020","dateISO":"2020-12-19T18:30:28.952Z","datetime":"2020-12-19 18:30","tags":["story","Hacker News"],"image":null,"imageAlt":null,"provider":"Hacker News","thirdPartyId":"25478166","url":"https://news.ycombinator.com/item?id=25478166","originalUrl":"https://www.npr.org/sections/coronavirus-live-updates/2020/12/18/948176807/stanford-apologizes-after-vaccine-allocation-leaves-out-nearly-all-medical-resid","imageRemote":"https://media.npr.org/assets/img/2020/12/18/20201218_vaccinedemo___dsc4817_wide-bc0b0a109fb39ac626e667bd7bc9073e8f4f3f8a.jpg?s=1400","video":null,"channel":null,"channelUrl":null,"author":"potench","authorUrl":"https://news.ycombinator.com/user?id=potench","authorImage":null,"authorSlug":null,"score":270,"views":null,"sharedCount":null,"likeCount":null,"sharedContent":null,"parent":{"__typename":"HnJson","localize":[{"title":"斯坦福大学的疫苗分配几乎排除了所有住院医生","locale":"zh"},{"title":"斯坦福大學的疫苗分配幾乎排除了所有住院醫生","locale":"zh-Hant"}]}}]}},"pageContext":{"basePath":"/","pageType":"tag","tag":"story","tagsFilter":{"id":{"glob":"!*Post-1"}},"filter":{"id":{"glob":"!*Post-1"},"tags":{"eq":"story"}},"limit":25,"skip":625,"total":796,"totalPages":32,"currentPage":26,"maxWidth":1024,"maxHeight":512,"locale":"zh-Hant","hrefLang":"zh-Hant","originalPath":"/tags/story/page/26","dateFormat":"YYYY-MM-DD"}},"staticQueryHashes":["1239077767","2506312863","2744905544","3493603132","3493603132","386998304","4203388852"]}