{"componentChunkName":"component---gatsby-theme-buzzing-src-gatsby-theme-timeline-templates-posts-query-js","path":"/zh-Hant/page/49","result":{"data":{"site":{"siteMetadata":{"title":"Reddit 热门","description":"用中文浏览Reddit热门内容","social":[{"name":"Twitter","url":"https://twitter.com/gatsbyjs","external":null,"prefetch":null},{"name":"GitHub","url":"https://github.com/gatsbyjs","external":null,"prefetch":null}],"menuLinks":[],"localize":[{"locale":"en","title":"Buzzing on Reddit","description":"See what's buzzing on Reddit in your native language","social":[{"name":"Reddit","url":"https://www.reddit.com/","external":true,"prefetch":null}],"menuLinks":[{"name":"Weekly Selection","url":"/issues","external":null,"prefetch":null},{"name":"RSS","url":"/rss.xml","external":null,"prefetch":false}]},{"locale":"zh-Hant","title":"Reddit 熱門","description":"用中文瀏覽Reddit熱門內容","social":null,"menuLinks":null}]}},"tagsGroup":{"group":[{"fieldValue":"ASK HN","totalCount":54},{"fieldValue":"Hacker News","totalCount":3105},{"fieldValue":"Poll","totalCount":1},{"fieldValue":"Show HN","totalCount":100},{"fieldValue":"poll","totalCount":1},{"fieldValue":"story","totalCount":3104}]},"allBlogPost":{"nodes":[{"__typename":"SocialMediaPost","id":"HnPost-26204756","excerpt":"","slug":"/hn/26204756","title":"New malware found on 30k Macs has security pros stumped","date":"February 20, 2021","dateISO":"2021-02-20T17:52:49.445Z","datetime":"2021-02-20 17:52","tags":["story","Hacker News"],"image":null,"imageAlt":null,"provider":"Hacker News","thirdPartyId":"26204756","url":"https://news.ycombinator.com/item?id=26204756","originalUrl":"https://arstechnica.com/information-technology/2021/02/new-malware-found-on-30000-macs-has-security-pros-stumped/","imageRemote":"https://cdn.arstechnica.net/wp-content/uploads/2021/02/mac-760x380.jpg","video":null,"channel":null,"channelUrl":null,"author":"furcyd","authorUrl":"https://news.ycombinator.com/user?id=furcyd","authorImage":null,"authorSlug":null,"score":368,"views":null,"sharedCount":null,"likeCount":null,"sharedContent":null,"parent":{"__typename":"HnJson","localize":[{"title":"在3万台Mac上发现的新恶意软件让安全专家们大跌眼镜。","locale":"zh"},{"title":"在3萬臺Mac上發現的新惡意軟件讓安全專家們大跌眼鏡。","locale":"zh-Hant"}]}},{"__typename":"SocialMediaPost","id":"HnPost-26199483","excerpt":"","slug":"/hn/26199483","title":"Diablo II: Resurrected","date":"February 20, 2021","dateISO":"2021-02-20T15:54:25.833Z","datetime":"2021-02-20 15:54","tags":["story","Hacker News"],"image":null,"imageAlt":null,"provider":"Hacker News","thirdPartyId":"26199483","url":"https://news.ycombinator.com/item?id=26199483","originalUrl":"https://diablo2.blizzard.com/","imageRemote":"https://images.blz-contentstack.com/v3/assets/blt45749e0fed8aa592/bltc1241911176b28b2/5fb534449fbb9857903d9800/logo.c6670c99.png","video":null,"channel":null,"channelUrl":null,"author":"eswat","authorUrl":"https://news.ycombinator.com/user?id=eswat","authorImage":null,"authorSlug":null,"score":185,"views":null,"sharedCount":null,"likeCount":null,"sharedContent":null,"parent":{"__typename":"HnJson","localize":[{"title":"暗黑破坏神II：复活","locale":"zh"},{"title":"暗黑破壞神II：復活","locale":"zh-Hant"}]}},{"__typename":"SocialMediaPost","id":"HnPost-26202517","excerpt":"","slug":"/hn/26202517","title":"In the 90s part of Germany's air traffic control software ran on Emacs","date":"February 20, 2021","dateISO":"2021-02-20T15:27:09.079Z","datetime":"2021-02-20 15:27","tags":["story","Hacker News"],"image":null,"imageAlt":null,"provider":"Hacker News","thirdPartyId":"26202517","url":"https://news.ycombinator.com/item?id=26202517","originalUrl":"https://www.reddit.com/r/emacs/comments/lly7po/do_you_use_emacs_lisp_as_a_general_purpose/gnvzisy","imageRemote":"https://www.redditstatic.com/desktop2x/img/renderTimingPixel.png","video":null,"channel":null,"channelUrl":null,"author":"omaranto","authorUrl":"https://news.ycombinator.com/user?id=omaranto","authorImage":null,"authorSlug":null,"score":240,"views":null,"sharedCount":null,"likeCount":null,"sharedContent":null,"parent":{"__typename":"HnJson","localize":[{"title":"在90年代，德国的部分空中交通管制软件在Emacs上运行。","locale":"zh"},{"title":"在90年代，德國的部分空中交通管制軟件在Emacs上運行。","locale":"zh-Hant"}]}},{"__typename":"SocialMediaPost","id":"HnPost-26195057","excerpt":"","slug":"/hn/26195057","title":"Launch HN: MindsDB (YC W20) – Machine Learning Inside Your Database","date":"February 20, 2021","dateISO":"2021-02-20T14:41:19.138Z","datetime":"2021-02-20 14:41","tags":["story","Hacker News"],"image":null,"imageAlt":null,"provider":"Hacker News","thirdPartyId":"26195057","url":"https://news.ycombinator.com/item?id=26195057","originalUrl":"https://news.ycombinator.com/item?id=26195057","imageRemote":null,"video":null,"channel":null,"channelUrl":null,"author":"adam_carrigan","authorUrl":"https://news.ycombinator.com/user?id=adam_carrigan","authorImage":null,"authorSlug":null,"score":176,"views":null,"sharedCount":null,"likeCount":null,"sharedContent":null,"parent":{"__typename":"HnJson","localize":[{"title":"发布HN：MindsDB (YC W20)--在您的数据库中进行机器学习。","locale":"zh"},{"title":"發佈HN：MindsDB (YC W20)--在您的數據庫中進行機器學習。","locale":"zh-Hant"}]}},{"__typename":"SocialMediaPost","id":"HnPost-26203178","excerpt":"","slug":"/hn/26203178","title":"M1 Macs have another hidden boot mode","date":"February 20, 2021","dateISO":"2021-02-20T14:41:19.138Z","datetime":"2021-02-20 14:41","tags":["story","Hacker News"],"image":null,"imageAlt":null,"provider":"Hacker News","thirdPartyId":"26203178","url":"https://news.ycombinator.com/item?id=26203178","originalUrl":"https://eclecticlight.co/2021/02/20/m1-macs-have-another-hidden-boot-mode/","imageRemote":"https://s0.wp.com/i/blank.jpg","video":null,"channel":null,"channelUrl":null,"author":"giuliomagnifico","authorUrl":"https://news.ycombinator.com/user?id=giuliomagnifico","authorImage":null,"authorSlug":null,"score":348,"views":null,"sharedCount":null,"likeCount":null,"sharedContent":null,"parent":{"__typename":"HnJson","localize":[{"title":"M1 Mac有另一种隐藏的启动模式","locale":"zh"},{"title":"M1 Mac有另一種隱藏的啓動模式","locale":"zh-Hant"}]}},{"__typename":"SocialMediaPost","id":"HnPost-26195293","excerpt":"","slug":"/hn/26195293","title":"Why Birds Don’t Get Cold Feet","date":"February 20, 2021","dateISO":"2021-02-20T13:00:36.608Z","datetime":"2021-02-20 13:00","tags":["story","Hacker News"],"image":null,"imageAlt":null,"provider":"Hacker News","thirdPartyId":"26195293","url":"https://news.ycombinator.com/item?id=26195293","originalUrl":"https://medium.com/i-wanna-know/why-birds-dont-get-cold-feet-515487d50ed5","imageRemote":"https://miro.medium.com/max/1200/1*C4PcuoYTOoYdlFtuXUta-g.png","video":null,"channel":null,"channelUrl":null,"author":"pmontra","authorUrl":"https://news.ycombinator.com/user?id=pmontra","authorImage":null,"authorSlug":null,"score":207,"views":null,"sharedCount":null,"likeCount":null,"sharedContent":null,"parent":{"__typename":"HnJson","localize":[{"title":"鸟类为什么不会脚冷","locale":"zh"},{"title":"鳥類爲什麼不會腳冷","locale":"zh-Hant"}]}},{"__typename":"SocialMediaPost","id":"HnPost-26202063","excerpt":"","slug":"/hn/26202063","title":"I don't know, Timmy, being God is a big responsibility (2007)","date":"February 20, 2021","dateISO":"2021-02-20T11:32:42.574Z","datetime":"2021-02-20 11:32","tags":["story","Hacker News"],"image":null,"imageAlt":null,"provider":"Hacker News","thirdPartyId":"26202063","url":"https://news.ycombinator.com/item?id=26202063","originalUrl":"https://qntm.org/responsibility","imageRemote":null,"video":null,"channel":null,"channelUrl":null,"author":"pdkl95","authorUrl":"https://news.ycombinator.com/user?id=pdkl95","authorImage":null,"authorSlug":null,"score":401,"views":null,"sharedCount":null,"likeCount":null,"sharedContent":null,"parent":{"__typename":"HnJson","localize":[{"title":"我不知道，Timmy，做上帝是一个很大的责任（2007）。","locale":"zh"},{"title":"我不知道，Timmy，做上帝是一個很大的責任（2007）。","locale":"zh-Hant"}]}},{"__typename":"SocialMediaPost","id":"HnPost-26200630","excerpt":"","slug":"/hn/26200630","title":"My Life in E-Ink","date":"February 20, 2021","dateISO":"2021-02-20T10:52:29.459Z","datetime":"2021-02-20 10:52","tags":["story","Hacker News"],"image":null,"imageAlt":null,"provider":"Hacker News","thirdPartyId":"26200630","url":"https://news.ycombinator.com/item?id=26200630","originalUrl":"https://rgoswami.me/posts/my-life-in-eink/","imageRemote":"https://rgoswami.me/images/home.png","video":null,"channel":null,"channelUrl":null,"author":"HaoZeke","authorUrl":"https://news.ycombinator.com/user?id=HaoZeke","authorImage":null,"authorSlug":null,"score":282,"views":null,"sharedCount":null,"likeCount":null,"sharedContent":null,"parent":{"__typename":"HnJson","localize":[{"title":"我的电子墨水生活","locale":"zh"},{"title":"我的電子墨水生活","locale":"zh-Hant"}]}},{"__typename":"SocialMediaPost","id":"HnPost-26179311","excerpt":"","slug":"/hn/26179311","title":"Show HN: Split Keyboards Gallery","date":"February 20, 2021","dateISO":"2021-02-20T07:44:31.129Z","datetime":"2021-02-20 07:44","tags":["story","Show HN","Hacker News"],"image":null,"imageAlt":null,"provider":"Hacker News","thirdPartyId":"26179311","url":"https://news.ycombinator.com/item?id=26179311","originalUrl":"https://aposymbiont.github.io/split-keyboards/","imageRemote":"https://aposymbiont.github.io/split-keyboards/img/wheatfield_s75.jpg","video":null,"channel":"Show HN","channelUrl":"https://news.ycombinator.com/show","author":"Symbiote","authorUrl":"https://news.ycombinator.com/user?id=Symbiote","authorImage":null,"authorSlug":null,"score":248,"views":null,"sharedCount":null,"likeCount":null,"sharedContent":null,"parent":{"__typename":"HnJson","localize":[{"title":"显示HN：分体式键盘画廊","locale":"zh"},{"title":"顯示HN：分體式鍵盤畫廊","locale":"zh-Hant"}]}},{"__typename":"SocialMediaPost","id":"HnPost-26197140","excerpt":"","slug":"/hn/26197140","title":"How Antidepressants Work, at Last?","date":"February 20, 2021","dateISO":"2021-02-20T05:57:26.940Z","datetime":"2021-02-20 05:57","tags":["story","Hacker News"],"image":null,"imageAlt":null,"provider":"Hacker News","thirdPartyId":"26197140","url":"https://news.ycombinator.com/item?id=26197140","originalUrl":"https://blogs.sciencemag.org/pipeline/archives/2021/02/19/how-antidepressants-work-at-last","imageRemote":"https://blogs.sciencemag.org/pipeline/wp-content/uploads/sites/2/2015/06/logo-in-the-pipeline.svg","video":null,"channel":null,"channelUrl":null,"author":"eightysixfour","authorUrl":"https://news.ycombinator.com/user?id=eightysixfour","authorImage":null,"authorSlug":null,"score":252,"views":null,"sharedCount":null,"likeCount":null,"sharedContent":null,"parent":{"__typename":"HnJson","localize":[{"title":"抗抑郁药最后是如何发挥作用的？","locale":"zh"},{"title":"抗抑鬱藥最後是如何發揮作用的？","locale":"zh-Hant"}]}},{"__typename":"SocialMediaPost","id":"HnPost-26196372","excerpt":"","slug":"/hn/26196372","title":"Researchers looking for mRNA were ridiculed by colleagues","date":"February 20, 2021","dateISO":"2021-02-20T04:48:49.074Z","datetime":"2021-02-20 04:48","tags":["story","Hacker News"],"image":null,"imageAlt":null,"provider":"Hacker News","thirdPartyId":"26196372","url":"https://news.ycombinator.com/item?id=26196372","originalUrl":"https://www.macleans.ca/society/science/scientists-mrna-covid-vaccines/","imageRemote":"https://www.macleans.ca/wp-content/uploads/2021/02/MATTHEW-MESELSON-DNA-FRANGOU-FEB02-750x422.jpg","video":null,"channel":null,"channelUrl":null,"author":"fortran77","authorUrl":"https://news.ycombinator.com/user?id=fortran77","authorImage":null,"authorSlug":null,"score":438,"views":null,"sharedCount":null,"likeCount":null,"sharedContent":null,"parent":{"__typename":"HnJson","localize":[{"title":"研究人员寻找mRNA遭同事嘲笑","locale":"zh"},{"title":"研究人員尋找mRNA遭同事嘲笑","locale":"zh-Hant"}]}},{"__typename":"SocialMediaPost","id":"HnPost-26199676","excerpt":"","slug":"/hn/26199676","title":"A request for Pinboard old-timers","date":"February 20, 2021","dateISO":"2021-02-20T04:48:49.074Z","datetime":"2021-02-20 04:48","tags":["story","Hacker News"],"image":null,"imageAlt":null,"provider":"Hacker News","thirdPartyId":"26199676","url":"https://news.ycombinator.com/item?id=26199676","originalUrl":"https://www.prettyfwd.com/t/XiK8ArVIT6uVItPGeH3lzA/","imageRemote":null,"video":null,"channel":null,"channelUrl":null,"author":"Alex3917","authorUrl":"https://news.ycombinator.com/user?id=Alex3917","authorImage":null,"authorSlug":null,"score":267,"views":null,"sharedCount":null,"likeCount":null,"sharedContent":null,"parent":{"__typename":"HnJson","localize":[{"title":"对Pinboard老前辈的要求","locale":"zh"},{"title":"對Pinboard老前輩的要求","locale":"zh-Hant"}]}},{"__typename":"SocialMediaPost","id":"HnPost-26201160","excerpt":"","slug":"/hn/26201160","title":"Draw an iceberg and see how it would float in water","date":"February 20, 2021","dateISO":"2021-02-20T04:48:49.074Z","datetime":"2021-02-20 04:48","tags":["story","Hacker News"],"image":null,"imageAlt":null,"provider":"Hacker News","thirdPartyId":"26201160","url":"https://news.ycombinator.com/item?id=26201160","originalUrl":"https://joshdata.me/iceberger.html","imageRemote":null,"video":null,"channel":null,"channelUrl":null,"author":"raldi","authorUrl":"https://news.ycombinator.com/user?id=raldi","authorImage":null,"authorSlug":null,"score":1663,"views":null,"sharedCount":null,"likeCount":null,"sharedContent":null,"parent":{"__typename":"HnJson","localize":[{"title":"画一座冰山，看看它在水中如何漂浮。","locale":"zh"},{"title":"畫一座冰山，看看它在水中如何漂浮。","locale":"zh-Hant"}]}},{"__typename":"SocialMediaPost","id":"HnPost-26196301","excerpt":"","slug":"/hn/26196301","title":"Mars landing: Photo shows Perseverance rover during landing","date":"February 20, 2021","dateISO":"2021-02-20T02:31:12.409Z","datetime":"2021-02-20 02:31","tags":["story","Hacker News"],"image":null,"imageAlt":null,"provider":"Hacker News","thirdPartyId":"26196301","url":"https://news.ycombinator.com/item?id=26196301","originalUrl":"https://www.bbc.co.uk/news/science-environment-56133281","imageRemote":"https://ichef.bbci.co.uk/news/1024/branded_news/F5DB/production/_117093926_rover_drop.jpg","video":null,"channel":null,"channelUrl":null,"author":"jfk13","authorUrl":"https://news.ycombinator.com/user?id=jfk13","authorImage":null,"authorSlug":null,"score":259,"views":null,"sharedCount":null,"likeCount":null,"sharedContent":null,"parent":{"__typename":"HnJson","localize":[{"title":"火星登陆。照片显示 \"锲而不舍 \"号火星车在着陆时的情况。","locale":"zh"},{"title":"火星登陸。照片顯示 \"鍥而不捨 \"號火星車在着陸時的情況。","locale":"zh-Hant"}]}},{"__typename":"SocialMediaPost","id":"HnPost-26194285","excerpt":"","slug":"/hn/26194285","title":"OpenStreetMap charts a controversial new direction","date":"February 20, 2021","dateISO":"2021-02-20T02:04:51.992Z","datetime":"2021-02-20 02:04","tags":["story","Hacker News"],"image":null,"imageAlt":null,"provider":"Hacker News","thirdPartyId":"26194285","url":"https://news.ycombinator.com/item?id=26194285","originalUrl":"https://www.bloomberg.com/news/articles/2021-02-19/openstreetmap-charts-a-controversial-new-direction","imageRemote":null,"video":null,"channel":null,"channelUrl":null,"author":"maxerickson","authorUrl":"https://news.ycombinator.com/user?id=maxerickson","authorImage":null,"authorSlug":null,"score":206,"views":null,"sharedCount":null,"likeCount":null,"sharedContent":null,"parent":{"__typename":"HnJson","localize":[{"title":"OpenStreetMap描绘了一个有争议的新方向。","locale":"zh"},{"title":"OpenStreetMap描繪了一個有爭議的新方向。","locale":"zh-Hant"}]}},{"__typename":"SocialMediaPost","id":"HnPost-26197510","excerpt":"","slug":"/hn/26197510","title":"Cockpit – Integrated, glanceable, web-based interface for servers","date":"February 20, 2021","dateISO":"2021-02-20T02:04:51.992Z","datetime":"2021-02-20 02:04","tags":["story","Hacker News"],"image":null,"imageAlt":null,"provider":"Hacker News","thirdPartyId":"26197510","url":"https://news.ycombinator.com/item?id=26197510","originalUrl":"https://cockpit-project.org/","imageRemote":null,"video":null,"channel":null,"channelUrl":null,"author":"gilad","authorUrl":"https://news.ycombinator.com/user?id=gilad","authorImage":null,"authorSlug":null,"score":347,"views":null,"sharedCount":null,"likeCount":null,"sharedContent":null,"parent":{"__typename":"HnJson","localize":[{"title":"Cockpit - 基于网络的服务器综合界面，一目了然。","locale":"zh"},{"title":"Cockpit - 基於網絡的服務器綜合界面，一目瞭然。","locale":"zh-Hant"}]}},{"__typename":"SocialMediaPost","id":"HnPost-26198210","excerpt":"","slug":"/hn/26198210","title":"BTC Endgame","date":"February 20, 2021","dateISO":"2021-02-20T00:56:01.629Z","datetime":"2021-02-20 00:56","tags":["story","Hacker News"],"image":null,"imageAlt":null,"provider":"Hacker News","thirdPartyId":"26198210","url":"https://news.ycombinator.com/item?id=26198210","originalUrl":"https://github.com/mikekelly/btc-endgame","imageRemote":"https://avatars.githubusercontent.com/u/55782?s=400&v=4","video":null,"channel":null,"channelUrl":null,"author":"jbegley","authorUrl":"https://news.ycombinator.com/user?id=jbegley","authorImage":null,"authorSlug":null,"score":288,"views":null,"sharedCount":null,"likeCount":null,"sharedContent":null,"parent":{"__typename":"HnJson","localize":[{"title":"BTC终局","locale":"zh"},{"title":"BTC終局","locale":"zh-Hant"}]}},{"__typename":"SocialMediaPost","id":"HnPost-26194534","excerpt":"","slug":"/hn/26194534","title":"The DreamBank, a collection of over 20k dream reports","date":"February 19, 2021","dateISO":"2021-02-19T23:25:18.766Z","datetime":"2021-02-19 23:25","tags":["story","Hacker News"],"image":null,"imageAlt":null,"provider":"Hacker News","thirdPartyId":"26194534","url":"https://news.ycombinator.com/item?id=26194534","originalUrl":"http://www.dreambank.net/","imageRemote":"http://www.dreambank.net/images/dreambank.gif","video":null,"channel":null,"channelUrl":null,"author":"herbertl","authorUrl":"https://news.ycombinator.com/user?id=herbertl","authorImage":null,"authorSlug":null,"score":258,"views":null,"sharedCount":null,"likeCount":null,"sharedContent":null,"parent":{"__typename":"HnJson","localize":[{"title":"梦库，收集了2万多份梦境报告。","locale":"zh"},{"title":"夢庫，收集了2萬多份夢境報告。","locale":"zh-Hant"}]}},{"__typename":"SocialMediaPost","id":"HnPost-26190403","excerpt":"","slug":"/hn/26190403","title":"Checked C","date":"February 19, 2021","dateISO":"2021-02-19T22:24:57.935Z","datetime":"2021-02-19 22:24","tags":["story","Hacker News"],"image":null,"imageAlt":null,"provider":"Hacker News","thirdPartyId":"26190403","url":"https://news.ycombinator.com/item?id=26190403","originalUrl":"https://github.com/microsoft/checkedc","imageRemote":"https://avatars.githubusercontent.com/u/6154722?s=400&v=4","video":null,"channel":null,"channelUrl":null,"author":"tosh","authorUrl":"https://news.ycombinator.com/user?id=tosh","authorImage":null,"authorSlug":null,"score":175,"views":null,"sharedCount":null,"likeCount":null,"sharedContent":null,"parent":{"__typename":"HnJson","localize":[{"title":"已检查C","locale":"zh"},{"title":"已檢查C","locale":"zh-Hant"}]}},{"__typename":"SocialMediaPost","id":"HnPost-26197280","excerpt":"","slug":"/hn/26197280","title":"Mars becomes the 2nd planet that has more computers running Linux than Windows","date":"February 19, 2021","dateISO":"2021-02-19T20:47:49.848Z","datetime":"2021-02-19 20:47","tags":["story","Hacker News"],"image":null,"imageAlt":null,"provider":"Hacker News","thirdPartyId":"26197280","url":"https://news.ycombinator.com/item?id=26197280","originalUrl":"https://twitter.com/mikko/status/1362763793042972673","imageRemote":null,"video":null,"channel":null,"channelUrl":null,"author":"fireball_blaze","authorUrl":"https://news.ycombinator.com/user?id=fireball_blaze","authorImage":null,"authorSlug":null,"score":1183,"views":null,"sharedCount":null,"likeCount":null,"sharedContent":null,"parent":{"__typename":"HnJson","localize":[{"title":"火星成为第2个运行Linux的计算机数量超过Windows的星球。","locale":"zh"},{"title":"火星成爲第2個運行Linux的計算機數量超過Windows的星球。","locale":"zh-Hant"}]}},{"__typename":"SocialMediaPost","id":"HnPost-26194848","excerpt":"","slug":"/hn/26194848","title":"Prediction Markets: Tales from the Election","date":"February 19, 2021","dateISO":"2021-02-19T20:38:20.737Z","datetime":"2021-02-19 20:38","tags":["story","Hacker News"],"image":null,"imageAlt":null,"provider":"Hacker News","thirdPartyId":"26194848","url":"https://news.ycombinator.com/item?id=26194848","originalUrl":"https://vitalik.ca/general/2021/02/18/election.html","imageRemote":"http://vitalik.ca/images/icon.png","video":null,"channel":null,"channelUrl":null,"author":"0-_-0","authorUrl":"https://news.ycombinator.com/user?id=0-_-0","authorImage":null,"authorSlug":null,"score":208,"views":null,"sharedCount":null,"likeCount":null,"sharedContent":null,"parent":{"__typename":"HnJson","localize":[{"title":"预测市场。选举中的故事","locale":"zh"},{"title":"預測市場。選舉中的故事","locale":"zh-Hant"}]}},{"__typename":"SocialMediaPost","id":"HnPost-26195083","excerpt":"","slug":"/hn/26195083","title":"Ultima VIII – How to destroy a gaming franchise in one easy step","date":"February 19, 2021","dateISO":"2021-02-19T20:38:20.737Z","datetime":"2021-02-19 20:38","tags":["story","Hacker News"],"image":null,"imageAlt":null,"provider":"Hacker News","thirdPartyId":"26195083","url":"https://news.ycombinator.com/item?id=26195083","originalUrl":"https://www.filfre.net/2021/02/ultima-viii-or-how-to-destroy-a-gaming-franchise-in-one-easy-step/","imageRemote":"https://www.filfre.net/wp-content/uploads/2021/02/2748-pagan-ultima-viii-dos-front-cover-217x300.jpg","video":null,"channel":null,"channelUrl":null,"author":"doppp","authorUrl":"https://news.ycombinator.com/user?id=doppp","authorImage":null,"authorSlug":null,"score":324,"views":null,"sharedCount":null,"likeCount":null,"sharedContent":null,"parent":{"__typename":"HnJson","localize":[{"title":"Ultima VIII--如何在一个简单的步骤中摧毁一个游戏专营店","locale":"zh"},{"title":"Ultima VIII--如何在一個簡單的步驟中摧毀一個遊戲專營店","locale":"zh-Hant"}]}},{"__typename":"SocialMediaPost","id":"HnPost-26194764","excerpt":"","slug":"/hn/26194764","title":"Brave Browser leaks your Tor / Onion service requests through DNS","date":"February 19, 2021","dateISO":"2021-02-19T20:25:37.099Z","datetime":"2021-02-19 20:25","tags":["story","Hacker News"],"image":null,"imageAlt":null,"provider":"Hacker News","thirdPartyId":"26194764","url":"https://news.ycombinator.com/item?id=26194764","originalUrl":"https://ramble.pw/f/privacy/2387/brave-browser-leaks-your-tor-onion-service-requests-through","imageRemote":"https://ramble.pw/apple-touch-icon-precomposed.png","video":null,"channel":null,"channelUrl":null,"author":"todsacerdoti","authorUrl":"https://news.ycombinator.com/user?id=todsacerdoti","authorImage":null,"authorSlug":null,"score":362,"views":null,"sharedCount":null,"likeCount":null,"sharedContent":null,"parent":{"__typename":"HnJson","localize":[{"title":"勇敢的浏览器通过DNS泄露你的Tor/洋葱服务请求。","locale":"zh"},{"title":"勇敢的瀏覽器通過DNS泄露你的Tor/洋蔥服務請求。","locale":"zh-Hant"}]}},{"__typename":"SocialMediaPost","id":"HnPost-26194990","excerpt":"","slug":"/hn/26194990","title":"Tauri: An Electron alternative written in Rust","date":"February 19, 2021","dateISO":"2021-02-19T18:24:29.008Z","datetime":"2021-02-19 18:24","tags":["story","Hacker News"],"image":null,"imageAlt":null,"provider":"Hacker News","thirdPartyId":"26194990","url":"https://news.ycombinator.com/item?id=26194990","originalUrl":"https://tauri.studio/","imageRemote":"https://tauri.studio/en/img/tauri.png","video":null,"channel":null,"channelUrl":null,"author":"metalwhale","authorUrl":"https://news.ycombinator.com/user?id=metalwhale","authorImage":null,"authorSlug":null,"score":1106,"views":null,"sharedCount":null,"likeCount":null,"sharedContent":null,"parent":{"__typename":"HnJson","localize":[{"title":"Tauri: 一个用Rust编写的电子替代方案。","locale":"zh"},{"title":"Tauri: 一個用Rust編寫的電子替代方案。","locale":"zh-Hant"}]}},{"__typename":"SocialMediaPost","id":"HnPost-26189995","excerpt":"","slug":"/hn/26189995","title":"Things You Should Do Now","date":"February 19, 2021","dateISO":"2021-02-19T17:54:04.381Z","datetime":"2021-02-19 17:54","tags":["story","Hacker News"],"image":null,"imageAlt":null,"provider":"Hacker News","thirdPartyId":"26189995","url":"https://news.ycombinator.com/item?id=26189995","originalUrl":"https://secure.phabricator.com/book/phabflavor/article/things_you_should_do_now/","imageRemote":null,"video":null,"channel":null,"channelUrl":null,"author":"bshanks","authorUrl":"https://news.ycombinator.com/user?id=bshanks","authorImage":null,"authorSlug":null,"score":198,"views":null,"sharedCount":null,"likeCount":null,"sharedContent":null,"parent":{"__typename":"HnJson","localize":[{"title":"您现在应该做的事情","locale":"zh"},{"title":"您現在應該做的事情","locale":"zh-Hant"}]}}]}},"pageContext":{"basePath":"/","pageType":"home","tagsFilter":{"id":{"glob":"!*Post-1"}},"filter":{"id":{"glob":"!*Post-1"}},"limit":25,"skip":1200,"totalPages":125,"total":3105,"currentPage":49,"maxWidth":1024,"maxHeight":512,"locale":"zh-Hant","hrefLang":"zh-Hant","originalPath":"/page/49","dateFormat":"YYYY-MM-DD"}},"staticQueryHashes":["1239077767","2506312863","2744905544","3025052997","3493603132","3493603132","3513215887","386998304"]}