{"componentChunkName":"component---gatsby-theme-buzzing-src-gatsby-theme-timeline-templates-posts-query-js","path":"/ja/tags/hacker-news/page/125","result":{"data":{"site":{"siteMetadata":{"title":"Reddit 热门","description":"用中文浏览Reddit热门内容","social":[{"name":"Twitter","url":"https://twitter.com/gatsbyjs","external":null,"prefetch":null},{"name":"GitHub","url":"https://github.com/gatsbyjs","external":null,"prefetch":null}],"menuLinks":[],"localize":[{"locale":"en","title":"Buzzing on Reddit","description":"See what's buzzing on Reddit in your native language","social":[{"name":"Reddit","url":"https://www.reddit.com/","external":true,"prefetch":null}],"menuLinks":[{"name":"Weekly Selection","url":"/issues","external":null,"prefetch":null},{"name":"RSS","url":"/rss.xml","external":null,"prefetch":false}]},{"locale":"zh-Hant","title":"Reddit 熱門","description":"用中文瀏覽Reddit熱門內容","social":null,"menuLinks":null}]}},"tagsGroup":{"group":[{"fieldValue":"ASK HN","totalCount":54},{"fieldValue":"Hacker News","totalCount":3105},{"fieldValue":"Poll","totalCount":1},{"fieldValue":"Show HN","totalCount":100},{"fieldValue":"poll","totalCount":1},{"fieldValue":"story","totalCount":3104}]},"allBlogPost":{"nodes":[{"__typename":"SocialMediaPost","id":"HnPost-25450878","excerpt":"","slug":"/hn/25450878","title":"Flanderization","date":"December 17, 2020","dateISO":"2020-12-17T12:17:14.385Z","datetime":"2020-12-17 12:17","tags":["story","Hacker News"],"image":null,"imageAlt":null,"provider":"Hacker News","thirdPartyId":"25450878","url":"https://news.ycombinator.com/item?id=25450878","originalUrl":"https://tvtropes.org/pmwiki/pmwiki.php/Main/Flanderization","imageRemote":"https://static.tvtropes.org/pmwiki/pub/images/flanderization_transparent.png","video":null,"channel":null,"channelUrl":null,"author":"doener","authorUrl":"https://news.ycombinator.com/user?id=doener","authorImage":null,"authorSlug":null,"score":159,"views":null,"sharedCount":null,"likeCount":null,"sharedContent":null,"parent":{"__typename":"HnJson","localize":[{"title":"花样化","locale":"zh"},{"title":"花樣化","locale":"zh-Hant"}]}},{"__typename":"SocialMediaPost","id":"HnPost-25451531","excerpt":"","slug":"/hn/25451531","title":"Trump Is Considering Clemency for Silk Road Founder","date":"December 17, 2020","dateISO":"2020-12-17T12:17:14.385Z","datetime":"2020-12-17 12:17","tags":["story","Hacker News"],"image":null,"imageAlt":null,"provider":"Hacker News","thirdPartyId":"25451531","url":"https://news.ycombinator.com/item?id=25451531","originalUrl":"https://www.thedailybeast.com/trump-considers-clemency-for-ross-ulbricht-silk-road-kingpin-convicted-of-drug-and-money-laundering-charges","imageRemote":"https://img.thedailybeast.com/image/upload/c_crop,d_placeholder_euli9k,h_675,w_1200,x_0,y_0/dpr_2.0/c_limit,w_740/fl_lossy,q_auto/v1608078987/201215-ross-ulbricht-tease_iivamm","video":null,"channel":null,"channelUrl":null,"author":"danso","authorUrl":"https://news.ycombinator.com/user?id=danso","authorImage":null,"authorSlug":null,"score":200,"views":null,"sharedCount":null,"likeCount":null,"sharedContent":null,"parent":{"__typename":"HnJson","localize":[{"title":"特朗普正在考虑宽大处理丝绸之路创始人","locale":"zh"},{"title":"特朗普正在考慮寬大處理絲綢之路創始人","locale":"zh-Hant"}]}},{"__typename":"SocialMediaPost","id":"HnPost-25452405","excerpt":"","slug":"/hn/25452405","title":"SolarWinds’ shares drop 22 per cent. But what’s this? $286M in stock sales","date":"December 17, 2020","dateISO":"2020-12-17T12:17:14.385Z","datetime":"2020-12-17 12:17","tags":["story","Hacker News"],"image":null,"imageAlt":null,"provider":"Hacker News","thirdPartyId":"25452405","url":"https://news.ycombinator.com/item?id=25452405","originalUrl":"https://www.theregister.com/2020/12/16/solarwinds_stock_sale/","imageRemote":"https://regmedia.co.uk/2020/12/16/shuttestock_solarwinds.jpg","video":null,"channel":null,"channelUrl":null,"author":"wglb","authorUrl":"https://news.ycombinator.com/user?id=wglb","authorImage":null,"authorSlug":null,"score":192,"views":null,"sharedCount":null,"likeCount":null,"sharedContent":null,"parent":{"__typename":"HnJson","localize":[{"title":"SolarWinds股价下跌22%。但这是什么？2.86亿美元的股票销售","locale":"zh"},{"title":"SolarWinds股價下跌22%。但這是什麼？2.86億美元的股票銷售","locale":"zh-Hant"}]}},{"__typename":"SocialMediaPost","id":"HnPost-25452435","excerpt":"","slug":"/hn/25452435","title":"Transmits AM radio on computers without radio transmitting hardware","date":"December 17, 2020","dateISO":"2020-12-17T12:17:14.385Z","datetime":"2020-12-17 12:17","tags":["story","Hacker News"],"image":null,"imageAlt":null,"provider":"Hacker News","thirdPartyId":"25452435","url":"https://news.ycombinator.com/item?id=25452435","originalUrl":"https://github.com/fulldecent/system-bus-radio","imageRemote":"https://avatars2.githubusercontent.com/u/382183?s=400&v=4","video":null,"channel":null,"channelUrl":null,"author":"known","authorUrl":"https://news.ycombinator.com/user?id=known","authorImage":null,"authorSlug":null,"score":476,"views":null,"sharedCount":null,"likeCount":null,"sharedContent":null,"parent":{"__typename":"HnJson","localize":[{"title":"在没有无线电发射硬件的计算机上发射AM无线电","locale":"zh"},{"title":"在沒有無線電發射硬件的計算機上發射AM無線電","locale":"zh-Hant"}]}},{"__typename":"SocialMediaPost","id":"HnPost-25453540","excerpt":"","slug":"/hn/25453540","title":"Facebook Takes Out Newspaper Ads to Attack Apple's Strengthening iOS Privacy","date":"December 17, 2020","dateISO":"2020-12-17T12:17:14.385Z","datetime":"2020-12-17 12:17","tags":["story","Hacker News"],"image":null,"imageAlt":null,"provider":"Hacker News","thirdPartyId":"25453540","url":"https://news.ycombinator.com/item?id=25453540","originalUrl":"https://daringfireball.net/linked/2020/12/16/facebook-full-page-ad","imageRemote":"https://daringfireball.net/graphics/df-square-1024.png","video":null,"channel":null,"channelUrl":null,"author":"laktak","authorUrl":"https://news.ycombinator.com/user?id=laktak","authorImage":null,"authorSlug":null,"score":325,"views":null,"sharedCount":null,"likeCount":null,"sharedContent":null,"parent":{"__typename":"HnJson","localize":[{"title":"Facebook拿出报纸广告攻击苹果强化iOS隐私","locale":"zh"},{"title":"Facebook拿出報紙廣告攻擊蘋果強化iOS隱私","locale":"zh-Hant"}]}}]}},"pageContext":{"basePath":"/","pageType":"tag","tag":"Hacker News","tagsFilter":{"id":{"glob":"!*Post-1"}},"filter":{"id":{"glob":"!*Post-1"},"tags":{"eq":"Hacker News"}},"limit":25,"skip":3100,"total":3105,"totalPages":125,"currentPage":125,"maxWidth":1024,"maxHeight":512,"locale":"ja","hrefLang":"ja-JA","originalPath":"/tags/hacker-news/page/125","dateFormat":"YYYY-MM-DD"}},"staticQueryHashes":["1239077767","2506312863","2744905544","3025052997","3493603132","3493603132","3513215887","386998304"]}