{"componentChunkName":"component---gatsby-theme-buzzing-src-gatsby-theme-timeline-templates-posts-query-js","path":"/page/70","result":{"data":{"site":{"siteMetadata":{"title":"Reddit 热门","description":"用中文浏览Reddit热门内容","social":[{"name":"Twitter","url":"https://twitter.com/gatsbyjs","external":null,"prefetch":null},{"name":"GitHub","url":"https://github.com/gatsbyjs","external":null,"prefetch":null}],"menuLinks":[],"localize":[{"locale":"en","title":"Buzzing on Reddit","description":"See what's buzzing on Reddit in your native language","social":[{"name":"Reddit","url":"https://www.reddit.com/","external":true,"prefetch":null}],"menuLinks":[{"name":"Weekly Selection","url":"/issues","external":null,"prefetch":null},{"name":"RSS","url":"/rss.xml","external":null,"prefetch":false}]},{"locale":"zh-Hant","title":"Reddit 熱門","description":"用中文瀏覽Reddit熱門內容","social":null,"menuLinks":null}]}},"tagsGroup":{"group":[{"fieldValue":"ASK HN","totalCount":54},{"fieldValue":"Hacker News","totalCount":3107},{"fieldValue":"Poll","totalCount":1},{"fieldValue":"Show HN","totalCount":100},{"fieldValue":"poll","totalCount":1},{"fieldValue":"story","totalCount":3106}]},"allBlogPost":{"nodes":[{"__typename":"SocialMediaPost","id":"HnPost-25972121","excerpt":"","slug":"/hn/25972121","title":"A vast web of vengeance","date":"January 31, 2021","dateISO":"2021-01-31T07:36:53.896Z","datetime":"2021-01-31 07:36","tags":["story","Hacker News"],"image":null,"imageAlt":null,"provider":"Hacker News","thirdPartyId":"25972121","url":"https://news.ycombinator.com/item?id=25972121","originalUrl":"https://www.nytimes.com/2021/01/30/technology/change-my-google-results.html","imageRemote":"https://static01.nyt.com/images/2021/01/31/business/31Grudge-p1/31Grudge-p1-facebookJumbo-v2.jpg","video":null,"channel":null,"channelUrl":null,"author":"tysone","authorUrl":"https://news.ycombinator.com/user?id=tysone","authorImage":null,"authorSlug":null,"score":228,"views":null,"sharedCount":null,"likeCount":null,"sharedContent":null,"parent":{"__typename":"HnJson","localize":[{"title":"一个庞大的复仇之网","locale":"zh"},{"title":"一個龐大的復仇之網","locale":"zh-Hant"}]}},{"__typename":"SocialMediaPost","id":"HnPost-25972620","excerpt":"","slug":"/hn/25972620","title":"India protests: Internet cut to hunger-striking farmers in Delhi","date":"January 31, 2021","dateISO":"2021-01-31T06:27:47.809Z","datetime":"2021-01-31 06:27","tags":["story","Hacker News"],"image":null,"imageAlt":null,"provider":"Hacker News","thirdPartyId":"25972620","url":"https://news.ycombinator.com/item?id=25972620","originalUrl":"https://www.bbc.co.uk/news/world-asia-india-55872480","imageRemote":"https://ichef.bbci.co.uk/news/1024/branded_news/1E67/production/_116738770_gettyimages-1230866035.jpg","video":null,"channel":null,"channelUrl":null,"author":"jfk13","authorUrl":"https://news.ycombinator.com/user?id=jfk13","authorImage":null,"authorSlug":null,"score":217,"views":null,"sharedCount":null,"likeCount":null,"sharedContent":null,"parent":{"__typename":"HnJson","localize":[{"title":"印度的抗议活动。新德里的绝食农民被切断互联网","locale":"zh"},{"title":"印度的抗議活動。新德里的絕食農民被切斷互聯網","locale":"zh-Hant"}]}},{"__typename":"SocialMediaPost","id":"HnPost-25969823","excerpt":"","slug":"/hn/25969823","title":"What Did We Lose When We Lost the Stars?","date":"January 31, 2021","dateISO":"2021-01-31T04:00:31.407Z","datetime":"2021-01-31 04:00","tags":["story","Hacker News"],"image":null,"imageAlt":null,"provider":"Hacker News","thirdPartyId":"25969823","url":"https://news.ycombinator.com/item?id=25969823","originalUrl":"https://theconvivialsociety.substack.com/p/what-did-we-lose-when-we-lost-the","imageRemote":"https://cdn.substack.com/image/fetch/h_600,c_limit,f_auto,q_auto:good,fl_progressive:steep/https%3A%2F%2Fbucketeer-e05bbc84-baa3-437e-9518-adb32be77984.s3.amazonaws.com%2Fpublic%2Fimages%2F9fb9f593-f890-4c46-b989-866331db14ac_1920x582.jpeg","video":null,"channel":null,"channelUrl":null,"author":"cetera","authorUrl":"https://news.ycombinator.com/user?id=cetera","authorImage":null,"authorSlug":null,"score":197,"views":null,"sharedCount":null,"likeCount":null,"sharedContent":null,"parent":{"__typename":"HnJson","localize":[{"title":"当我们失去了星星，我们失去了什么？","locale":"zh"},{"title":"當我們失去了星星，我們失去了什麼？","locale":"zh-Hant"}]}},{"__typename":"SocialMediaPost","id":"HnPost-25973955","excerpt":"","slug":"/hn/25973955","title":"My 90s TV: Browse 90s Television","date":"January 31, 2021","dateISO":"2021-01-31T04:00:31.407Z","datetime":"2021-01-31 04:00","tags":["story","Hacker News"],"image":null,"imageAlt":null,"provider":"Hacker News","thirdPartyId":"25973955","url":"https://news.ycombinator.com/item?id=25973955","originalUrl":"https://my90stv.com","imageRemote":"http://www.my90stv.com/share.jpg?v=5","video":null,"channel":null,"channelUrl":null,"author":"optimalsolver","authorUrl":"https://news.ycombinator.com/user?id=optimalsolver","authorImage":null,"authorSlug":null,"score":526,"views":null,"sharedCount":null,"likeCount":null,"sharedContent":null,"parent":{"__typename":"HnJson","localize":[{"title":"我的90年代电视：浏览90年代电视","locale":"zh"},{"title":"我的90年代電視：瀏覽90年代電視","locale":"zh-Hant"}]}},{"__typename":"SocialMediaPost","id":"HnPost-25969694","excerpt":"","slug":"/hn/25969694","title":"Electric cars are coming fast – is the nation’s grid up to it?","date":"January 31, 2021","dateISO":"2021-01-31T03:38:08.220Z","datetime":"2021-01-31 03:38","tags":["story","Hacker News"],"image":null,"imageAlt":null,"provider":"Hacker News","thirdPartyId":"25969694","url":"https://news.ycombinator.com/item?id=25969694","originalUrl":"https://www.nytimes.com/2021/01/29/climate/gm-electric-cars-power-grid.html","imageRemote":"https://static01.nyt.com/images/2021/01/30/climate/29CLI-ELECTRICCARS-print/29CLI-ELECTRICCARS1-facebookJumbo.jpg","video":null,"channel":null,"channelUrl":null,"author":"CapitalistCartr","authorUrl":"https://news.ycombinator.com/user?id=CapitalistCartr","authorImage":null,"authorSlug":null,"score":216,"views":null,"sharedCount":null,"likeCount":null,"sharedContent":null,"parent":{"__typename":"HnJson","localize":[{"title":"电动汽车来势迅猛--国家的电网能满足它吗？","locale":"zh"},{"title":"電動汽車來勢迅猛--國家的電網能滿足它嗎？","locale":"zh-Hant"}]}},{"__typename":"SocialMediaPost","id":"HnPost-25975110","excerpt":"","slug":"/hn/25975110","title":"CDC website built by Deloitte at a cost of $44M is abandoned due to bugs","date":"January 31, 2021","dateISO":"2021-01-31T03:38:08.220Z","datetime":"2021-01-31 03:38","tags":["story","Hacker News"],"image":null,"imageAlt":null,"provider":"Hacker News","thirdPartyId":"25975110","url":"https://news.ycombinator.com/item?id=25975110","originalUrl":"https://www.technologyreview.com/2021/01/30/1017086/cdc-44-million-vaccine-data-vams-problems/","imageRemote":"https://wp.technologyreview.com/wp-content/uploads/2021/01/Sad-covid-computer.jpeg?resize=1200,600","video":null,"channel":null,"channelUrl":null,"author":"donsupreme","authorUrl":"https://news.ycombinator.com/user?id=donsupreme","authorImage":null,"authorSlug":null,"score":1166,"views":null,"sharedCount":null,"likeCount":null,"sharedContent":null,"parent":{"__typename":"HnJson","localize":[{"title":"德勤耗资4400万美元打造的CDC网站因BUG被弃用。","locale":"zh"},{"title":"德勤耗資4400萬美元打造的CDC網站因BUG被棄用。","locale":"zh-Hant"}]}},{"__typename":"SocialMediaPost","id":"HnPost-25973844","excerpt":"","slug":"/hn/25973844","title":"Ecstasy and psilocybin are shaking up psychiatry","date":"January 31, 2021","dateISO":"2021-01-31T03:07:13.218Z","datetime":"2021-01-31 03:07","tags":["story","Hacker News"],"image":null,"imageAlt":null,"provider":"Hacker News","thirdPartyId":"25973844","url":"https://news.ycombinator.com/item?id=25973844","originalUrl":"https://www.nature.com/articles/d41586-021-00187-9","imageRemote":"https://media.nature.com/lw1024/magazine-assets/d41586-021-00187-9/d41586-021-00187-9_18797316.jpg","video":null,"channel":null,"channelUrl":null,"author":"nabla9","authorUrl":"https://news.ycombinator.com/user?id=nabla9","authorImage":null,"authorSlug":null,"score":233,"views":null,"sharedCount":null,"likeCount":null,"sharedContent":null,"parent":{"__typename":"HnJson","localize":[{"title":"摇头丸和迷幻药正在颠覆精神病学。","locale":"zh"},{"title":"搖頭丸和迷幻藥正在顛覆精神病學。","locale":"zh-Hant"}]}},{"__typename":"SocialMediaPost","id":"HnPost-25970658","excerpt":"","slug":"/hn/25970658","title":"The Great Unbundling","date":"January 31, 2021","dateISO":"2021-01-31T02:19:19.796Z","datetime":"2021-01-31 02:19","tags":["story","Hacker News"],"image":null,"imageAlt":null,"provider":"Hacker News","thirdPartyId":"25970658","url":"https://news.ycombinator.com/item?id=25970658","originalUrl":"https://www.ben-evans.com/presentations","imageRemote":"http://static1.squarespace.com/static/50363cf324ac8e905e7df861/t/6011a13c71ee374f4753e570/1611768128318/2021+Great+Unbundling.001.png?format=1500w","video":null,"channel":null,"channelUrl":null,"author":"notoriousarun","authorUrl":"https://news.ycombinator.com/user?id=notoriousarun","authorImage":null,"authorSlug":null,"score":245,"views":null,"sharedCount":null,"likeCount":null,"sharedContent":null,"parent":{"__typename":"HnJson","localize":[{"title":"大解体","locale":"zh"},{"title":"大解體","locale":"zh-Hant"}]}},{"__typename":"SocialMediaPost","id":"HnPost-25971037","excerpt":"","slug":"/hn/25971037","title":"Cory Doctorow: IP (2020)","date":"January 31, 2021","dateISO":"2021-01-31T02:19:19.796Z","datetime":"2021-01-31 02:19","tags":["story","Hacker News"],"image":null,"imageAlt":null,"provider":"Hacker News","thirdPartyId":"25971037","url":"https://news.ycombinator.com/item?id=25971037","originalUrl":"https://locusmag.com/2020/09/cory-doctorow-ip","imageRemote":"https://locusmag.com/wp-content/uploads/2017/05/Cory2017_800x400.jpg","video":null,"channel":null,"channelUrl":null,"author":"akkartik","authorUrl":"https://news.ycombinator.com/user?id=akkartik","authorImage":null,"authorSlug":null,"score":227,"views":null,"sharedCount":null,"likeCount":null,"sharedContent":null,"parent":{"__typename":"HnJson","localize":[{"title":"Cory Doctorow。IP(2020)","locale":"zh"},{"title":"Cory Doctorow。IP(2020)","locale":"zh-Hant"}]}},{"__typename":"SocialMediaPost","id":"HnPost-25972342","excerpt":"","slug":"/hn/25972342","title":"Regular afternoon naps linked to improved cognitive function","date":"January 30, 2021","dateISO":"2021-01-30T23:32:49.659Z","datetime":"2021-01-30 23:32","tags":["story","Hacker News"],"image":null,"imageAlt":null,"provider":"Hacker News","thirdPartyId":"25972342","url":"https://news.ycombinator.com/item?id=25972342","originalUrl":"https://www.sciencefocus.com/the-human-body/afternoon-naps-linked-to-improved-cognitive-function/","imageRemote":"https://images.immediate.co.uk/production/volatile/sites/4/2021/01/Afternoon-nap-b3dfc7f-e1611678959811.jpg?quality=90&resize=940,627","video":null,"channel":null,"channelUrl":null,"author":"prostoalex","authorUrl":"https://news.ycombinator.com/user?id=prostoalex","authorImage":null,"authorSlug":null,"score":434,"views":null,"sharedCount":null,"likeCount":null,"sharedContent":null,"parent":{"__typename":"HnJson","localize":[{"title":"午后定期小睡与认知功能改善有关","locale":"zh"},{"title":"午後定期小睡與認知功能改善有關","locale":"zh-Hant"}]}},{"__typename":"SocialMediaPost","id":"HnPost-25963589","excerpt":"","slug":"/hn/25963589","title":"Personal experiences bridge moral and political divides better than facts","date":"January 30, 2021","dateISO":"2021-01-30T22:28:28.357Z","datetime":"2021-01-30 22:28","tags":["story","Hacker News"],"image":null,"imageAlt":null,"provider":"Hacker News","thirdPartyId":"25963589","url":"https://news.ycombinator.com/item?id=25963589","originalUrl":"https://www.pnas.org/content/118/6/e2008389118","imageRemote":"https://www.pnas.org/content/118/6/e2008389118/F1.large.jpg","video":null,"channel":null,"channelUrl":null,"author":"lobbly","authorUrl":"https://news.ycombinator.com/user?id=lobbly","authorImage":null,"authorSlug":null,"score":387,"views":null,"sharedCount":null,"likeCount":null,"sharedContent":null,"parent":{"__typename":"HnJson","localize":[{"title":"个人经历比事实更能弥合道德和政治分歧。","locale":"zh"},{"title":"個人經歷比事實更能彌合道德和政治分歧。","locale":"zh-Hant"}]}},{"__typename":"SocialMediaPost","id":"HnPost-25971125","excerpt":"","slug":"/hn/25971125","title":"Analysis: Robinhood protected from lawsuits by user agreement, Congress","date":"January 30, 2021","dateISO":"2021-01-30T22:28:28.357Z","datetime":"2021-01-30 22:28","tags":["story","Hacker News"],"image":null,"imageAlt":null,"provider":"Hacker News","thirdPartyId":"25971125","url":"https://news.ycombinator.com/item?id=25971125","originalUrl":"https://www.reuters.com/article/us-retail-trading-robinhood-liability-an-idUSKBN29Z0HI","imageRemote":"https://static.reuters.com/resources/r/?m=02&d=20210130&t=2&i=1549659745&r=LYNXMPEH0T0AC&w=800","video":null,"channel":null,"channelUrl":null,"author":"1cvmask","authorUrl":"https://news.ycombinator.com/user?id=1cvmask","authorImage":null,"authorSlug":null,"score":186,"views":null,"sharedCount":null,"likeCount":null,"sharedContent":null,"parent":{"__typename":"HnJson","localize":[{"title":"分析。Robinhood受用户协议、国会保护，免于诉讼","locale":"zh"},{"title":"分析。Robinhood受用戶協議、國會保護，免於訴訟","locale":"zh-Hant"}]}},{"__typename":"SocialMediaPost","id":"HnPost-25969442","excerpt":"","slug":"/hn/25969442","title":"Are the Persian Gulf city-states slave societies?","date":"January 30, 2021","dateISO":"2021-01-30T20:24:01.289Z","datetime":"2021-01-30 20:24","tags":["story","Hacker News"],"image":null,"imageAlt":null,"provider":"Hacker News","thirdPartyId":"25969442","url":"https://news.ycombinator.com/item?id=25969442","originalUrl":"https://aeon.co/essays/are-the-persian-gulf-city-states-slave-societies","imageRemote":"https://alpha.aeon.co/images/19ed3697-a1ff-4735-8621-10826461ed3c/header_essay-final-nyc149085.jpg","video":null,"channel":null,"channelUrl":null,"author":"cmrdporcupine","authorUrl":"https://news.ycombinator.com/user?id=cmrdporcupine","authorImage":null,"authorSlug":null,"score":233,"views":null,"sharedCount":null,"likeCount":null,"sharedContent":null,"parent":{"__typename":"HnJson","localize":[{"title":"波斯湾城邦是奴隶社会吗？","locale":"zh"},{"title":"波斯灣城邦是奴隸社會嗎？","locale":"zh-Hant"}]}},{"__typename":"SocialMediaPost","id":"HnPost-25956652","excerpt":"","slug":"/hn/25956652","title":"Uniwidth Typefaces for Interface Design","date":"January 30, 2021","dateISO":"2021-01-30T18:44:18.456Z","datetime":"2021-01-30 18:44","tags":["story","Hacker News"],"image":null,"imageAlt":null,"provider":"Hacker News","thirdPartyId":"25956652","url":"https://news.ycombinator.com/item?id=25956652","originalUrl":"https://uxdesign.cc/uniwidth-typefaces-for-interface-design-b6e8078dc0f7","imageRemote":"https://miro.medium.com/max/1200/1*SEXMZ-JHRt2jzOoZfpM3SA.jpeg","video":null,"channel":null,"channelUrl":null,"author":"fanf2","authorUrl":"https://news.ycombinator.com/user?id=fanf2","authorImage":null,"authorSlug":null,"score":370,"views":null,"sharedCount":null,"likeCount":null,"sharedContent":null,"parent":{"__typename":"HnJson","localize":[{"title":"界面设计中的统一宽度字体","locale":"zh"},{"title":"界面設計中的統一寬度字體","locale":"zh-Hant"}]}},{"__typename":"SocialMediaPost","id":"HnPost-25967442","excerpt":"","slug":"/hn/25967442","title":"New Xquartz release with native Apple Silicon support","date":"January 30, 2021","dateISO":"2021-01-30T18:07:54.074Z","datetime":"2021-01-30 18:07","tags":["story","Hacker News"],"image":null,"imageAlt":null,"provider":"Hacker News","thirdPartyId":"25967442","url":"https://news.ycombinator.com/item?id=25967442","originalUrl":"https://www.mail-archive.com/xquartz-dev@lists.macosforge.org/msg01027.html","imageRemote":"https://www.mail-archive.com/logo.png","video":null,"channel":null,"channelUrl":null,"author":"ismiseted","authorUrl":"https://news.ycombinator.com/user?id=ismiseted","authorImage":null,"authorSlug":null,"score":229,"views":null,"sharedCount":null,"likeCount":null,"sharedContent":null,"parent":{"__typename":"HnJson","localize":[{"title":"新的Xquartz版本支持原生的Apple Silicon。","locale":"zh"},{"title":"新的Xquartz版本支持原生的Apple Silicon。","locale":"zh-Hant"}]}},{"__typename":"SocialMediaPost","id":"HnPost-25967641","excerpt":"","slug":"/hn/25967641","title":"Show HN: Collection of deep learning implementations with side-by-side notes","date":"January 30, 2021","dateISO":"2021-01-30T18:07:54.074Z","datetime":"2021-01-30 18:07","tags":["story","Show HN","Hacker News"],"image":null,"imageAlt":null,"provider":"Hacker News","thirdPartyId":"25967641","url":"https://news.ycombinator.com/item?id=25967641","originalUrl":"https://nn.labml.ai","imageRemote":"https://avatars1.githubusercontent.com/u/64068543?s=400&v=4","video":null,"channel":"Show HN","channelUrl":"https://news.ycombinator.com/show","author":"vpj","authorUrl":"https://news.ycombinator.com/user?id=vpj","authorImage":null,"authorSlug":null,"score":251,"views":null,"sharedCount":null,"likeCount":null,"sharedContent":null,"parent":{"__typename":"HnJson","localize":[{"title":"显示HN：深度学习实现的集合与侧记","locale":"zh"},{"title":"顯示HN：深度學習實現的集合與側記","locale":"zh-Hant"}]}},{"__typename":"SocialMediaPost","id":"HnPost-25969886","excerpt":"","slug":"/hn/25969886","title":"QUIC much easier to fingerprint than HTTPS","date":"January 30, 2021","dateISO":"2021-01-30T18:07:54.074Z","datetime":"2021-01-30 18:07","tags":["story","Hacker News"],"image":null,"imageAlt":null,"provider":"Hacker News","thirdPartyId":"25969886","url":"https://news.ycombinator.com/item?id=25969886","originalUrl":"https://arxiv.org/abs/2101.11871","imageRemote":"https://static.arxiv.org/static/browse/0.3.2.6/images/icons/social/bibsonomy.png","video":null,"channel":null,"channelUrl":null,"author":"pueblito","authorUrl":"https://news.ycombinator.com/user?id=pueblito","authorImage":null,"authorSlug":null,"score":338,"views":null,"sharedCount":null,"likeCount":null,"sharedContent":null,"parent":{"__typename":"HnJson","localize":[{"title":"QUIC比HTTPS更容易打指纹","locale":"zh"},{"title":"QUIC比HTTPS更容易打指紋","locale":"zh-Hant"}]}},{"__typename":"SocialMediaPost","id":"HnPost-25967382","excerpt":"","slug":"/hn/25967382","title":"University of Leicester firing all pure math faculty","date":"January 30, 2021","dateISO":"2021-01-30T17:29:40.001Z","datetime":"2021-01-30 17:29","tags":["story","Hacker News"],"image":null,"imageAlt":null,"provider":"Hacker News","thirdPartyId":"25967382","url":"https://news.ycombinator.com/item?id=25967382","originalUrl":"https://twitter.com/wtgowers/status/1355184163020804099","imageRemote":null,"video":null,"channel":null,"channelUrl":null,"author":"rfurmani","authorUrl":"https://news.ycombinator.com/user?id=rfurmani","authorImage":null,"authorSlug":null,"score":244,"views":null,"sharedCount":null,"likeCount":null,"sharedContent":null,"parent":{"__typename":"HnJson","localize":[{"title":"莱斯特大学解雇所有纯数学教师","locale":"zh"},{"title":"萊斯特大學解僱所有純數學教師","locale":"zh-Hant"}]}},{"__typename":"SocialMediaPost","id":"HnPost-25968348","excerpt":"","slug":"/hn/25968348","title":"Offline Algorithms in Low-Frequency Trading","date":"January 30, 2021","dateISO":"2021-01-30T17:29:40.001Z","datetime":"2021-01-30 17:29","tags":["story","Hacker News"],"image":null,"imageAlt":null,"provider":"Hacker News","thirdPartyId":"25968348","url":"https://news.ycombinator.com/item?id=25968348","originalUrl":"https://queue.acm.org/detail.cfm?id=3448307","imageRemote":"https://queue.acm.org/img/acmqueue_logo.gif","video":null,"channel":null,"channelUrl":null,"author":"hypomnemata","authorUrl":"https://news.ycombinator.com/user?id=hypomnemata","authorImage":null,"authorSlug":null,"score":347,"views":null,"sharedCount":null,"likeCount":null,"sharedContent":null,"parent":{"__typename":"HnJson","localize":[{"title":"低频交易的离线算法","locale":"zh"},{"title":"低頻交易的離線算法","locale":"zh-Hant"}]}},{"__typename":"SocialMediaPost","id":"HnPost-25968531","excerpt":"","slug":"/hn/25968531","title":"Dark Patterns at Scale: Findings from a Crawl of 11K Shopping Websites (2019)","date":"January 30, 2021","dateISO":"2021-01-30T17:29:40.001Z","datetime":"2021-01-30 17:29","tags":["story","Hacker News"],"image":null,"imageAlt":null,"provider":"Hacker News","thirdPartyId":"25968531","url":"https://news.ycombinator.com/item?id=25968531","originalUrl":"https://webtransparency.cs.princeton.edu/dark-patterns/","imageRemote":"https://webtransparency.cs.princeton.edu/dark-patterns/assets/images/sneaking.png","video":null,"channel":null,"channelUrl":null,"author":"pseudolus","authorUrl":"https://news.ycombinator.com/user?id=pseudolus","authorImage":null,"authorSlug":null,"score":389,"views":null,"sharedCount":null,"likeCount":null,"sharedContent":null,"parent":{"__typename":"HnJson","localize":[{"title":"暗格局规模。从11K购物网站抓取的发现(2019)","locale":"zh"},{"title":"暗格局規模。從11K購物網站抓取的發現(2019)","locale":"zh-Hant"}]}},{"__typename":"SocialMediaPost","id":"HnPost-25963556","excerpt":"","slug":"/hn/25963556","title":"Baking with machine learning (2020)","date":"January 30, 2021","dateISO":"2021-01-30T12:46:40.088Z","datetime":"2021-01-30 12:46","tags":["story","Hacker News"],"image":null,"imageAlt":null,"provider":"Hacker News","thirdPartyId":"25963556","url":"https://news.ycombinator.com/item?id=25963556","originalUrl":"https://sararobinson.dev/2020/04/30/baking-machine-learning.html","imageRemote":"https://storage.googleapis.com/sararobinson622.appspot.com/cakie.jpg","video":null,"channel":null,"channelUrl":null,"author":"pizza","authorUrl":"https://news.ycombinator.com/user?id=pizza","authorImage":null,"authorSlug":null,"score":173,"views":null,"sharedCount":null,"likeCount":null,"sharedContent":null,"parent":{"__typename":"HnJson","localize":[{"title":"用机器学习烘焙(2020年)","locale":"zh"},{"title":"用機器學習烘焙(2020年)","locale":"zh-Hant"}]}},{"__typename":"SocialMediaPost","id":"HnPost-25962178","excerpt":"","slug":"/hn/25962178","title":"Ask HN: Remote workers in a non-tech city, what's your experience?","date":"January 30, 2021","dateISO":"2021-01-30T10:52:17.528Z","datetime":"2021-01-30 10:52","tags":["story","ASK HN","Hacker News"],"image":null,"imageAlt":null,"provider":"Hacker News","thirdPartyId":"25962178","url":"https://news.ycombinator.com/item?id=25962178","originalUrl":"https://news.ycombinator.com/item?id=25962178","imageRemote":null,"video":null,"channel":"ASK HN","channelUrl":"https://news.ycombinator.com/ask","author":"holsOndI","authorUrl":"https://news.ycombinator.com/user?id=holsOndI","authorImage":null,"authorSlug":null,"score":222,"views":null,"sharedCount":null,"likeCount":null,"sharedContent":null,"parent":{"__typename":"HnJson","localize":[{"title":"问HN：在非科技城市的远程工作者，你有什么经验？","locale":"zh"},{"title":"問HN：在非科技城市的遠程工作者，你有什麼經驗？","locale":"zh-Hant"}]}},{"__typename":"SocialMediaPost","id":"HnPost-25964197","excerpt":"","slug":"/hn/25964197","title":"Europe's Vaccine Disaster","date":"January 30, 2021","dateISO":"2021-01-30T10:31:50.922Z","datetime":"2021-01-30 10:31","tags":["story","Hacker News"],"image":null,"imageAlt":null,"provider":"Hacker News","thirdPartyId":"25964197","url":"https://news.ycombinator.com/item?id=25964197","originalUrl":"https://www.spiegel.de/international/europe/europe-s-vaccine-disaster-commission-president-ursula-von-der-leyen-seeking-to-duck-responsibility-a-1197547d-6219-4438-9d69-b76e64701802","imageRemote":"https://cdn.prod.www.spiegel.de/images/3333010f-2131-4ac3-b46d-d98a46fcee1a_w1280_r1.77_fpx55_fpy37.jpg","video":null,"channel":null,"channelUrl":null,"author":"danielfoster","authorUrl":"https://news.ycombinator.com/user?id=danielfoster","authorImage":null,"authorSlug":null,"score":208,"views":null,"sharedCount":null,"likeCount":null,"sharedContent":null,"parent":{"__typename":"HnJson","localize":[{"title":"欧洲的疫苗灾难","locale":"zh"},{"title":"歐洲的疫苗災難","locale":"zh-Hant"}]}},{"__typename":"SocialMediaPost","id":"HnPost-25961420","excerpt":"","slug":"/hn/25961420","title":"Can you make a basic web app without Googling? I can’t","date":"January 30, 2021","dateISO":"2021-01-30T08:32:04.299Z","datetime":"2021-01-30 08:32","tags":["story","Hacker News"],"image":null,"imageAlt":null,"provider":"Hacker News","thirdPartyId":"25961420","url":"https://news.ycombinator.com/item?id=25961420","originalUrl":"https://web.eecs.utk.edu/~azh/blog/webappwithoutgoogling.html","imageRemote":"https://web.eecs.utk.edu/~azh/blog/images/appwithgoogling.png","video":null,"channel":null,"channelUrl":null,"author":"azhenley","authorUrl":"https://news.ycombinator.com/user?id=azhenley","authorImage":null,"authorSlug":null,"score":339,"views":null,"sharedCount":null,"likeCount":null,"sharedContent":null,"parent":{"__typename":"HnJson","localize":[{"title":"你能不用Googling做一个基本的网络应用吗？我做不到","locale":"zh"},{"title":"你能不用Googling做一個基本的網絡應用嗎？我做不到","locale":"zh-Hant"}]}},{"__typename":"SocialMediaPost","id":"HnPost-25964501","excerpt":"","slug":"/hn/25964501","title":"Apple Silicon M1 supports “billion of colors” a.k.a. HDR 10-bit output","date":"January 30, 2021","dateISO":"2021-01-30T07:51:16.279Z","datetime":"2021-01-30 07:51","tags":["story","Hacker News"],"image":null,"imageAlt":null,"provider":"Hacker News","thirdPartyId":"25964501","url":"https://news.ycombinator.com/item?id=25964501","originalUrl":"https://singhkays.com/blog/apple-silicon-m1-hdr-10bit-billion-colors/","imageRemote":"https://singhkays.com/blog/apple-silicon-m1-hdr-10bit-billion-colors/media/apple-m1-silicon-billions-of-colors.jpg","video":null,"channel":null,"channelUrl":null,"author":"singhkays","authorUrl":"https://news.ycombinator.com/user?id=singhkays","authorImage":null,"authorSlug":null,"score":241,"views":null,"sharedCount":null,"likeCount":null,"sharedContent":null,"parent":{"__typename":"HnJson","localize":[{"title":"苹果Silicon M1支持 \"亿色 \"也就是HDR 10-bit输出。","locale":"zh"},{"title":"蘋果Silicon M1支持 \"億色 \"也就是HDR 10-bit輸出。","locale":"zh-Hant"}]}}]}},"pageContext":{"basePath":"/","pageType":"home","tagsFilter":{"id":{"glob":"!*Post-1"}},"filter":{"id":{"glob":"!*Post-1"}},"limit":25,"skip":1725,"totalPages":125,"total":3107,"currentPage":70,"maxWidth":1024,"maxHeight":512,"locale":"zh","hrefLang":"zh-Hans","originalPath":"/page/70","dateFormat":"YYYY-MM-DD"}},"staticQueryHashes":["1239077767","2506312863","2744905544","3025052997","3493603132","3493603132","3513215887","386998304"]}