{"componentChunkName":"component---gatsby-theme-buzzing-src-gatsby-theme-timeline-templates-posts-query-js","path":"/ja/tags/hacker-news/page/40","result":{"data":{"site":{"siteMetadata":{"title":"Reddit 热门","description":"用中文浏览Reddit热门内容","social":[{"name":"Twitter","url":"https://twitter.com/gatsbyjs","external":null,"prefetch":null},{"name":"GitHub","url":"https://github.com/gatsbyjs","external":null,"prefetch":null}],"menuLinks":[],"localize":[{"locale":"en","title":"Buzzing on Reddit","description":"See what's buzzing on Reddit in your native language","social":[{"name":"Reddit","url":"https://www.reddit.com/","external":true,"prefetch":null}],"menuLinks":[{"name":"Weekly Selection","url":"/issues","external":null,"prefetch":null},{"name":"RSS","url":"/rss.xml","external":null,"prefetch":false}]},{"locale":"zh-Hant","title":"Reddit 熱門","description":"用中文瀏覽Reddit熱門內容","social":null,"menuLinks":null}]}},"tagsGroup":{"group":[{"fieldValue":"ASK HN","totalCount":54},{"fieldValue":"Hacker News","totalCount":3107},{"fieldValue":"Poll","totalCount":1},{"fieldValue":"Show HN","totalCount":100},{"fieldValue":"poll","totalCount":1},{"fieldValue":"story","totalCount":3106}]},"allBlogPost":{"nodes":[{"__typename":"SocialMediaPost","id":"HnPost-26306661","excerpt":"","slug":"/hn/26306661","title":"Are Xiaomi browsers spyware? Yes, they are (2020)","date":"March 01, 2021","dateISO":"2021-03-01T20:31:38.882Z","datetime":"2021-03-01 20:31","tags":["story","Hacker News"],"image":null,"imageAlt":null,"provider":"Hacker News","thirdPartyId":"26306661","url":"https://news.ycombinator.com/item?id=26306661","originalUrl":"https://palant.info/2020/05/04/are-xiaomi-browsers-spyware-yes-they-are.../","imageRemote":"https://palant.info/icons/apple-touch-icon.png","video":null,"channel":null,"channelUrl":null,"author":"autoditype","authorUrl":"https://news.ycombinator.com/user?id=autoditype","authorImage":null,"authorSlug":null,"score":1210,"views":null,"sharedCount":null,"likeCount":null,"sharedContent":null,"parent":{"__typename":"HnJson","localize":[{"title":"小米浏览器是间谍软件吗？是的，它们是（2020","locale":"zh"},{"title":"小米瀏覽器是間諜軟件嗎？是的，它們是（2020","locale":"zh-Hant"}]}},{"__typename":"SocialMediaPost","id":"HnPost-26303784","excerpt":"","slug":"/hn/26303784","title":"Generate Flowcharts from Text","date":"March 01, 2021","dateISO":"2021-03-01T19:03:39.205Z","datetime":"2021-03-01 19:03","tags":["story","Hacker News"],"image":null,"imageAlt":null,"provider":"Hacker News","thirdPartyId":"26303784","url":"https://news.ycombinator.com/item?id=26303784","originalUrl":"https://flowchart.fun/","imageRemote":"https://flowchart.fun/smiley.png","video":null,"channel":null,"channelUrl":null,"author":"tonerow","authorUrl":"https://news.ycombinator.com/user?id=tonerow","authorImage":null,"authorSlug":null,"score":478,"views":null,"sharedCount":null,"likeCount":null,"sharedContent":null,"parent":{"__typename":"HnJson","localize":[{"title":"从文本中生成流程图","locale":"zh"},{"title":"從文本中生成流程圖","locale":"zh-Hant"}]}},{"__typename":"SocialMediaPost","id":"HnPost-26305624","excerpt":"","slug":"/hn/26305624","title":"Sir Kazuo Ishiguro warns of young authors self-censoring out of 'fear'","date":"March 01, 2021","dateISO":"2021-03-01T19:03:39.205Z","datetime":"2021-03-01 19:03","tags":["story","Hacker News"],"image":null,"imageAlt":null,"provider":"Hacker News","thirdPartyId":"26305624","url":"https://news.ycombinator.com/item?id=26305624","originalUrl":"https://www.bbc.com/news/entertainment-arts-56208347","imageRemote":"https://ichef.bbci.co.uk/news/1024/branded_news/733D/production/_117310592_gettyimages-886888508.jpg","video":null,"channel":null,"channelUrl":null,"author":"undefined1","authorUrl":"https://news.ycombinator.com/user?id=undefined1","authorImage":null,"authorSlug":null,"score":395,"views":null,"sharedCount":null,"likeCount":null,"sharedContent":null,"parent":{"__typename":"HnJson","localize":[{"title":"石黑一雄爵士警告年轻作者因 \"恐惧 \"而自我审查。","locale":"zh"},{"title":"石黑一雄爵士警告年輕作者因 \"恐懼 \"而自我審查。","locale":"zh-Hant"}]}},{"__typename":"SocialMediaPost","id":"HnPost-26304051","excerpt":"","slug":"/hn/26304051","title":"Ask HN: Who is hiring? (March 2021)","date":"March 01, 2021","dateISO":"2021-03-01T18:48:53.960Z","datetime":"2021-03-01 18:48","tags":["story","ASK HN","Hacker News"],"image":null,"imageAlt":null,"provider":"Hacker News","thirdPartyId":"26304051","url":"https://news.ycombinator.com/item?id=26304051","originalUrl":"https://news.ycombinator.com/item?id=26304051","imageRemote":null,"video":null,"channel":"ASK HN","channelUrl":"https://news.ycombinator.com/ask","author":"whoishiring","authorUrl":"https://news.ycombinator.com/user?id=whoishiring","authorImage":null,"authorSlug":null,"score":357,"views":null,"sharedCount":null,"likeCount":null,"sharedContent":null,"parent":{"__typename":"HnJson","localize":[{"title":"问HN：谁在招聘？(2021年3月)","locale":"zh"},{"title":"問HN：誰在招聘？(2021年3月)","locale":"zh-Hant"}]}},{"__typename":"SocialMediaPost","id":"HnPost-26300741","excerpt":"","slug":"/hn/26300741","title":"Why Learn Haskell?","date":"March 01, 2021","dateISO":"2021-03-01T18:03:10.345Z","datetime":"2021-03-01 18:03","tags":["story","Hacker News"],"image":null,"imageAlt":null,"provider":"Hacker News","thirdPartyId":"26300741","url":"https://news.ycombinator.com/item?id=26300741","originalUrl":"https://crypto.stanford.edu/~blynn/haskell/why.html","imageRemote":null,"video":null,"channel":null,"channelUrl":null,"author":"allenleein","authorUrl":"https://news.ycombinator.com/user?id=allenleein","authorImage":null,"authorSlug":null,"score":205,"views":null,"sharedCount":null,"likeCount":null,"sharedContent":null,"parent":{"__typename":"HnJson","localize":[{"title":"为什么要学习Haskell？","locale":"zh"},{"title":"爲什麼要學習Haskell？","locale":"zh-Hant"}]}},{"__typename":"SocialMediaPost","id":"HnPost-26296315","excerpt":"","slug":"/hn/26296315","title":"Create animated GIF and WebP from videos using FFmpeg","date":"March 01, 2021","dateISO":"2021-03-01T17:51:40.307Z","datetime":"2021-03-01 17:51","tags":["story","Hacker News"],"image":null,"imageAlt":null,"provider":"Hacker News","thirdPartyId":"26296315","url":"https://news.ycombinator.com/item?id=26296315","originalUrl":"https://mattj.io/posts/2021-02-27-create-animated-gif-and-webp-from-videos-using-ffmpeg/","imageRemote":null,"video":null,"channel":null,"channelUrl":null,"author":"Audiolite","authorUrl":"https://news.ycombinator.com/user?id=Audiolite","authorImage":null,"authorSlug":null,"score":172,"views":null,"sharedCount":null,"likeCount":null,"sharedContent":null,"parent":{"__typename":"HnJson","localize":[{"title":"使用FFmpeg从视频中创建动画GIF和WebP。","locale":"zh"},{"title":"使用FFmpeg從視頻中創建動畫GIF和WebP。","locale":"zh-Hant"}]}},{"__typename":"SocialMediaPost","id":"HnPost-26302678","excerpt":"","slug":"/hn/26302678","title":"Fish Shell 3.2","date":"March 01, 2021","dateISO":"2021-03-01T17:51:40.307Z","datetime":"2021-03-01 17:51","tags":["story","Hacker News"],"image":null,"imageAlt":null,"provider":"Hacker News","thirdPartyId":"26302678","url":"https://news.ycombinator.com/item?id=26302678","originalUrl":"https://github.com/fish-shell/fish-shell/releases/tag/3.2.0","imageRemote":"https://avatars.githubusercontent.com/u/1828073?s=400&v=4","video":null,"channel":null,"channelUrl":null,"author":"zanchey","authorUrl":"https://news.ycombinator.com/user?id=zanchey","authorImage":null,"authorSlug":null,"score":279,"views":null,"sharedCount":null,"likeCount":null,"sharedContent":null,"parent":{"__typename":"HnJson","localize":[{"title":"鱼壳3.2","locale":"zh"},{"title":"魚殼3.2","locale":"zh-Hant"}]}},{"__typename":"SocialMediaPost","id":"HnPost-26299778","excerpt":"","slug":"/hn/26299778","title":"Wikinews mourns loss of volunteer John Shutt","date":"March 01, 2021","dateISO":"2021-03-01T16:46:39.902Z","datetime":"2021-03-01 16:46","tags":["story","Hacker News"],"image":null,"imageAlt":null,"provider":"Hacker News","thirdPartyId":"26299778","url":"https://news.ycombinator.com/item?id=26299778","originalUrl":"https://en.wikinews.org/wiki/Wikinews_mourns_loss_of_volunteer_John_Shutt","imageRemote":"https://upload.wikimedia.org/wikipedia/commons/d/d6/Wikinews-logo-obituaries.png","video":null,"channel":null,"channelUrl":null,"author":"slondr","authorUrl":"https://news.ycombinator.com/user?id=slondr","authorImage":null,"authorSlug":null,"score":193,"views":null,"sharedCount":null,"likeCount":null,"sharedContent":null,"parent":{"__typename":"HnJson","localize":[{"title":"维基新闻哀悼志愿者约翰-舒特的去世","locale":"zh"},{"title":"維基新聞哀悼志願者約翰-舒特的去世","locale":"zh-Hant"}]}},{"__typename":"SocialMediaPost","id":"HnPost-26301030","excerpt":"","slug":"/hn/26301030","title":"Build a Business, Not an Audience","date":"March 01, 2021","dateISO":"2021-03-01T16:46:39.902Z","datetime":"2021-03-01 16:46","tags":["story","Hacker News"],"image":null,"imageAlt":null,"provider":"Hacker News","thirdPartyId":"26301030","url":"https://news.ycombinator.com/item?id=26301030","originalUrl":"https://jakobgreenfeld.com/build_an_audience","imageRemote":"http://jakobgreenfeld.com/images/build_an_audience.png","video":null,"channel":null,"channelUrl":null,"author":"jakobgreenfeld","authorUrl":"https://news.ycombinator.com/user?id=jakobgreenfeld","authorImage":null,"authorSlug":null,"score":208,"views":null,"sharedCount":null,"likeCount":null,"sharedContent":null,"parent":{"__typename":"HnJson","localize":[{"title":"建立一个业务，而不是一个观众","locale":"zh"},{"title":"建立一個業務，而不是一個觀衆","locale":"zh-Hant"}]}},{"__typename":"SocialMediaPost","id":"HnPost-26302744","excerpt":"","slug":"/hn/26302744","title":"Parsing can become accidentally quadratic because of sscanf","date":"March 01, 2021","dateISO":"2021-03-01T16:46:39.902Z","datetime":"2021-03-01 16:46","tags":["story","Hacker News"],"image":null,"imageAlt":null,"provider":"Hacker News","thirdPartyId":"26302744","url":"https://news.ycombinator.com/item?id=26302744","originalUrl":"https://github.com/biojppm/rapidyaml/issues/40","imageRemote":"https://avatars.githubusercontent.com/u/325344?s=400&v=4","video":null,"channel":null,"channelUrl":null,"author":"JdeBP","authorUrl":"https://news.ycombinator.com/user?id=JdeBP","authorImage":null,"authorSlug":null,"score":505,"views":null,"sharedCount":null,"likeCount":null,"sharedContent":null,"parent":{"__typename":"HnJson","localize":[{"title":"解析可能会因为sskanf的原因而意外地变成二次元。","locale":"zh"},{"title":"解析可能會因爲sskanf的原因而意外地變成二次元。","locale":"zh-Hant"}]}},{"__typename":"SocialMediaPost","id":"HnPost-26302139","excerpt":"","slug":"/hn/26302139","title":"Use Touch ID for Sudo on Mac","date":"March 01, 2021","dateISO":"2021-03-01T15:39:23.770Z","datetime":"2021-03-01 15:39","tags":["story","Hacker News"],"image":null,"imageAlt":null,"provider":"Hacker News","thirdPartyId":"26302139","url":"https://news.ycombinator.com/item?id=26302139","originalUrl":"https://davidwalsh.name/touch-sudo","imageRemote":"https://davidwalsh.name/wp-content/themes/punky/images/logo.png","video":null,"channel":null,"channelUrl":null,"author":"syck","authorUrl":"https://news.ycombinator.com/user?id=syck","authorImage":null,"authorSlug":null,"score":507,"views":null,"sharedCount":null,"likeCount":null,"sharedContent":null,"parent":{"__typename":"HnJson","localize":[{"title":"在 Mac 上使用 Touch ID 进行 Sudo","locale":"zh"},{"title":"在 Mac 上使用 Touch ID 進行 Sudo","locale":"zh-Hant"}]}},{"__typename":"SocialMediaPost","id":"HnPost-26301395","excerpt":"","slug":"/hn/26301395","title":"The Hijacking of Perl.com","date":"March 01, 2021","dateISO":"2021-03-01T14:35:50.150Z","datetime":"2021-03-01 14:35","tags":["story","Hacker News"],"image":null,"imageAlt":null,"provider":"Hacker News","thirdPartyId":"26301395","url":"https://news.ycombinator.com/item?id=26301395","originalUrl":"https://www.perl.com/article/the-hijacking-of-perl-com/","imageRemote":"https://perl.com/images/the_hijack_of_perldotcom/crime.jpg","video":null,"channel":null,"channelUrl":null,"author":"leejo","authorUrl":"https://news.ycombinator.com/user?id=leejo","authorImage":null,"authorSlug":null,"score":296,"views":null,"sharedCount":null,"likeCount":null,"sharedContent":null,"parent":{"__typename":"HnJson","localize":[{"title":"Perl.com的劫持","locale":"zh"},{"title":"Perl.com的劫持","locale":"zh-Hant"}]}},{"__typename":"SocialMediaPost","id":"HnPost-26300139","excerpt":"","slug":"/hn/26300139","title":"On the Experience of Being Poor-Ish, for People Who Aren't","date":"March 01, 2021","dateISO":"2021-03-01T13:44:55.015Z","datetime":"2021-03-01 13:44","tags":["story","Hacker News"],"image":null,"imageAlt":null,"provider":"Hacker News","thirdPartyId":"26300139","url":"https://news.ycombinator.com/item?id=26300139","originalUrl":"https://residentcontrarian.substack.com/p/on-the-experience-of-being-poor-ish","imageRemote":"https://cdn.substack.com/image/fetch/w_1200,c_limit,f_jpg,q_auto:good,fl_progressive:steep/https%3A%2F%2Fbucketeer-e05bbc84-baa3-437e-9518-adb32be77984.s3.amazonaws.com%2Fpublic%2Fimages%2F33df3846-bcbc-437b-b469-61cf37d20a24_893x544.png","video":null,"channel":null,"channelUrl":null,"author":"maxwelljoslyn","authorUrl":"https://news.ycombinator.com/user?id=maxwelljoslyn","authorImage":null,"authorSlug":null,"score":774,"views":null,"sharedCount":null,"likeCount":null,"sharedContent":null,"parent":{"__typename":"HnJson","localize":[{"title":"论 \"穷一什 \"的体验，给不穷的人看","locale":"zh"},{"title":"論 \"窮一什 \"的體驗，給不窮的人看","locale":"zh-Hant"}]}},{"__typename":"SocialMediaPost","id":"HnPost-26299212","excerpt":"","slug":"/hn/26299212","title":"152kb WebAssembly interpreter that runs on six OSs with Cosmopolitan","date":"March 01, 2021","dateISO":"2021-03-01T12:59:23.415Z","datetime":"2021-03-01 12:59","tags":["story","Hacker News"],"image":null,"imageAlt":null,"provider":"Hacker News","thirdPartyId":"26299212","url":"https://news.ycombinator.com/item?id=26299212","originalUrl":"https://github.com/wasm3/wasm3/releases/tag/v0.4.8","imageRemote":"https://avatars.githubusercontent.com/u/58013131?s=400&v=4","video":null,"channel":null,"channelUrl":null,"author":"tambourine_man","authorUrl":"https://news.ycombinator.com/user?id=tambourine_man","authorImage":null,"authorSlug":null,"score":252,"views":null,"sharedCount":null,"likeCount":null,"sharedContent":null,"parent":{"__typename":"HnJson","localize":[{"title":"152kb的WebAssembly解释器，可在6个操作系统上运行，具有Cosmopolitan功能。","locale":"zh"},{"title":"152kb的WebAssembly解釋器，可在6個操作系統上運行，具有Cosmopolitan功能。","locale":"zh-Hant"}]}},{"__typename":"SocialMediaPost","id":"HnPost-26299741","excerpt":"","slug":"/hn/26299741","title":"I built a 5K iMac Display on my own","date":"March 01, 2021","dateISO":"2021-03-01T12:32:45.801Z","datetime":"2021-03-01 12:32","tags":["story","Hacker News"],"image":null,"imageAlt":null,"provider":"Hacker News","thirdPartyId":"26299741","url":"https://news.ycombinator.com/item?id=26299741","originalUrl":"https://twitter.com/phillipcaudell/status/1352692104707919872","imageRemote":null,"video":null,"channel":null,"channelUrl":null,"author":"dsr12","authorUrl":"https://news.ycombinator.com/user?id=dsr12","authorImage":null,"authorSlug":null,"score":258,"views":null,"sharedCount":null,"likeCount":null,"sharedContent":null,"parent":{"__typename":"HnJson","localize":[{"title":"我自己做了一个5K iMac显示器。","locale":"zh"},{"title":"我自己做了一個5K iMac顯示器。","locale":"zh-Hant"}]}},{"__typename":"SocialMediaPost","id":"HnPost-26300266","excerpt":"","slug":"/hn/26300266","title":"The Last Message Sent on Aim","date":"March 01, 2021","dateISO":"2021-03-01T12:32:45.801Z","datetime":"2021-03-01 12:32","tags":["story","Hacker News"],"image":null,"imageAlt":null,"provider":"Hacker News","thirdPartyId":"26300266","url":"https://news.ycombinator.com/item?id=26300266","originalUrl":"https://justanman.org/posts/the-last-message-sent-on-aim/","imageRemote":"https://justanman.org/images/aol-instant-messenger-shuts-down.png","video":null,"channel":null,"channelUrl":null,"author":"luu","authorUrl":"https://news.ycombinator.com/user?id=luu","authorImage":null,"authorSlug":null,"score":407,"views":null,"sharedCount":null,"likeCount":null,"sharedContent":null,"parent":{"__typename":"HnJson","localize":[{"title":"瞄準的最後一則訊息","locale":"zh"},{"title":"瞄準的最後一則訊息","locale":"zh-Hant"}]}},{"__typename":"SocialMediaPost","id":"HnPost-26298462","excerpt":"","slug":"/hn/26298462","title":"JSON parser written in 6502 assembly language","date":"March 01, 2021","dateISO":"2021-03-01T11:45:21.101Z","datetime":"2021-03-01 11:45","tags":["story","Hacker News"],"image":null,"imageAlt":null,"provider":"Hacker News","thirdPartyId":"26298462","url":"https://news.ycombinator.com/item?id=26298462","originalUrl":"https://github.com/ppelleti/json65","imageRemote":"https://avatars.githubusercontent.com/u/1080008?s=400&v=4","video":null,"channel":null,"channelUrl":null,"author":"lifthrasiir","authorUrl":"https://news.ycombinator.com/user?id=lifthrasiir","authorImage":null,"authorSlug":null,"score":187,"views":null,"sharedCount":null,"likeCount":null,"sharedContent":null,"parent":{"__typename":"HnJson","localize":[{"title":"用6502汇编语言编写的JSON解析器。","locale":"zh"},{"title":"用6502彙編語言編寫的JSON解析器。","locale":"zh-Hant"}]}},{"__typename":"SocialMediaPost","id":"HnPost-26291975","excerpt":"","slug":"/hn/26291975","title":"Take a look at Nomad before jumping on Kubernetes","date":"March 01, 2021","dateISO":"2021-03-01T10:54:19.357Z","datetime":"2021-03-01 10:54","tags":["story","Hacker News"],"image":null,"imageAlt":null,"provider":"Hacker News","thirdPartyId":"26291975","url":"https://news.ycombinator.com/item?id=26291975","originalUrl":"https://atodorov.me/2021/02/27/why-you-should-take-a-look-at-nomad-before-jumping-on-kubernetes/","imageRemote":"https://atodorov.me/img/nomad/kubernetes.jpg#center","video":null,"channel":null,"channelUrl":null,"author":"sofixa","authorUrl":"https://news.ycombinator.com/user?id=sofixa","authorImage":null,"authorSlug":null,"score":180,"views":null,"sharedCount":null,"likeCount":null,"sharedContent":null,"parent":{"__typename":"HnJson","localize":[{"title":"在跳上Kubernetes之前，先看看Nomad。","locale":"zh"},{"title":"在跳上Kubernetes之前，先看看Nomad。","locale":"zh-Hant"}]}},{"__typename":"SocialMediaPost","id":"HnPost-26294259","excerpt":"","slug":"/hn/26294259","title":"Boston public schools suspend advanced learning classes","date":"March 01, 2021","dateISO":"2021-03-01T10:33:28.721Z","datetime":"2021-03-01 10:33","tags":["story","Hacker News"],"image":null,"imageAlt":null,"provider":"Hacker News","thirdPartyId":"26294259","url":"https://news.ycombinator.com/item?id=26294259","originalUrl":"https://www.wgbh.org/news/education/2021/02/26/citing-racial-inequities-boston-public-schools-suspend-advanced-learning-classes","imageRemote":"https://wgbh.brightspotcdn.com/dims4/default/0a27a4d/2147483647/strip/true/crop/2800x2889+0+0/resize/2800x2889!/quality/70/?url=https%3A%2F%2Fwgbh.brightspotcdn.com%2F0f%2F6d%2F0d131a1d4ffbbf79f2dac21a53ce%2Fcassellius-gettyimages-1140214513.jpg","video":null,"channel":null,"channelUrl":null,"author":"undefined1","authorUrl":"https://news.ycombinator.com/user?id=undefined1","authorImage":null,"authorSlug":null,"score":172,"views":null,"sharedCount":null,"likeCount":null,"sharedContent":null,"parent":{"__typename":"HnJson","localize":[{"title":"波士顿公立学校暂停高级学习班","locale":"zh"},{"title":"波士頓公立學校暫停高級學習班","locale":"zh-Hant"}]}},{"__typename":"SocialMediaPost","id":"HnPost-26295792","excerpt":"","slug":"/hn/26295792","title":"Get a Life","date":"March 01, 2021","dateISO":"2021-03-01T10:33:28.721Z","datetime":"2021-03-01 10:33","tags":["story","Hacker News"],"image":null,"imageAlt":null,"provider":"Hacker News","thirdPartyId":"26295792","url":"https://news.ycombinator.com/item?id=26295792","originalUrl":"http://crypto.stanford.edu/~blynn/haskell/life.html","imageRemote":null,"video":null,"channel":null,"channelUrl":null,"author":"akkartik","authorUrl":"https://news.ycombinator.com/user?id=akkartik","authorImage":null,"authorSlug":null,"score":174,"views":null,"sharedCount":null,"likeCount":null,"sharedContent":null,"parent":{"__typename":"HnJson","localize":[{"title":"获取生活","locale":"zh"},{"title":"獲取生活","locale":"zh-Hant"}]}},{"__typename":"SocialMediaPost","id":"HnPost-26291145","excerpt":"","slug":"/hn/26291145","title":"Multi-User Dungeons (MUDs): What Are They? and How to Play","date":"March 01, 2021","dateISO":"2021-03-01T05:25:29.789Z","datetime":"2021-03-01 05:25","tags":["story","Hacker News"],"image":null,"imageAlt":null,"provider":"Hacker News","thirdPartyId":"26291145","url":"https://news.ycombinator.com/item?id=26291145","originalUrl":"https://medium.com/@williamson.f93/multi-user-dungeons-muds-what-are-they-and-how-to-play-af3ec0f29f4a","imageRemote":"https://miro.medium.com/max/593/1*-IUAnq582FEUBxR_SmwlZg.png","video":null,"channel":null,"channelUrl":null,"author":"niDistinct","authorUrl":"https://news.ycombinator.com/user?id=niDistinct","authorImage":null,"authorSlug":null,"score":209,"views":null,"sharedCount":null,"likeCount":null,"sharedContent":null,"parent":{"__typename":"HnJson","localize":[{"title":"多用户地下城（MUDs）。多用户地下城：它们是什么？","locale":"zh"},{"title":"多用戶地下城（MUDs）。多用戶地下城：它們是什麼？","locale":"zh-Hant"}]}},{"__typename":"SocialMediaPost","id":"HnPost-26297040","excerpt":"","slug":"/hn/26297040","title":"Not Lisp again (2009)","date":"March 01, 2021","dateISO":"2021-03-01T05:25:29.789Z","datetime":"2021-03-01 05:25","tags":["story","Hacker News"],"image":null,"imageAlt":null,"provider":"Hacker News","thirdPartyId":"26297040","url":"https://news.ycombinator.com/item?id=26297040","originalUrl":"https://funcall.blogspot.com/2009/03/not-lisp-again.html","imageRemote":"https://resources.blogblog.com/img/icon18_email.gif","video":null,"channel":null,"channelUrl":null,"author":"caslon","authorUrl":"https://news.ycombinator.com/user?id=caslon","authorImage":null,"authorSlug":null,"score":245,"views":null,"sharedCount":null,"likeCount":null,"sharedContent":null,"parent":{"__typename":"HnJson","localize":[{"title":"不再是Lisp (2009)","locale":"zh"},{"title":"不再是Lisp (2009)","locale":"zh-Hant"}]}},{"__typename":"SocialMediaPost","id":"HnPost-26296845","excerpt":"","slug":"/hn/26296845","title":"Little League wants all your information","date":"March 01, 2021","dateISO":"2021-03-01T02:01:20.900Z","datetime":"2021-03-01 02:01","tags":["story","Hacker News"],"image":null,"imageAlt":null,"provider":"Hacker News","thirdPartyId":"26296845","url":"https://news.ycombinator.com/item?id=26296845","originalUrl":"https://honeypot.net/post/little-league-wants-all-your-information/","imageRemote":"https://honeypot.net/images/blueglasses.jpg","video":null,"channel":null,"channelUrl":null,"author":"ColinWright","authorUrl":"https://news.ycombinator.com/user?id=ColinWright","authorImage":null,"authorSlug":null,"score":395,"views":null,"sharedCount":null,"likeCount":null,"sharedContent":null,"parent":{"__typename":"HnJson","localize":[{"title":"小联盟想要你所有的信息","locale":"zh"},{"title":"小聯盟想要你所有的信息","locale":"zh-Hant"}]}},{"__typename":"SocialMediaPost","id":"HnPost-26295065","excerpt":"","slug":"/hn/26295065","title":"RIP Flynn.io","date":"February 28, 2021","dateISO":"2021-02-28T23:44:23.434Z","datetime":"2021-02-28 23:44","tags":["story","Hacker News"],"image":null,"imageAlt":null,"provider":"Hacker News","thirdPartyId":"26295065","url":"https://news.ycombinator.com/item?id=26295065","originalUrl":"https://github.com/flynn/flynn","imageRemote":"https://avatars.githubusercontent.com/u/4973613?s=400&v=4","video":null,"channel":null,"channelUrl":null,"author":"corobo","authorUrl":"https://news.ycombinator.com/user?id=corobo","authorImage":null,"authorSlug":null,"score":284,"views":null,"sharedCount":null,"likeCount":null,"sharedContent":null,"parent":{"__typename":"HnJson","localize":[{"title":"RIP Flynn.io","locale":"zh"},{"title":"RIP Flynn.io","locale":"zh-Hant"}]}},{"__typename":"SocialMediaPost","id":"HnPost-26295100","excerpt":"","slug":"/hn/26295100","title":"A Native Tiling Window Manager for Windows 10, Inspired by I3wm","date":"February 28, 2021","dateISO":"2021-02-28T22:00:02.553Z","datetime":"2021-02-28 22:00","tags":["story","Hacker News"],"image":null,"imageAlt":null,"provider":"Hacker News","thirdPartyId":"26295100","url":"https://news.ycombinator.com/item?id=26295100","originalUrl":"https://github.com/McYoloSwagHam/win3wm","imageRemote":"https://avatars.githubusercontent.com/u/37028601?s=400&v=4","video":null,"channel":null,"channelUrl":null,"author":"mcyoloswagham","authorUrl":"https://news.ycombinator.com/user?id=mcyoloswagham","authorImage":null,"authorSlug":null,"score":327,"views":null,"sharedCount":null,"likeCount":null,"sharedContent":null,"parent":{"__typename":"HnJson","localize":[{"title":"一个原生的Windows 10平铺窗口管理器，灵感来自于I3wm。","locale":"zh"},{"title":"一個原生的Windows 10平鋪窗口管理器，靈感來自於I3wm。","locale":"zh-Hant"}]}}]}},"pageContext":{"basePath":"/","pageType":"tag","tag":"Hacker News","tagsFilter":{"id":{"glob":"!*Post-1"}},"filter":{"id":{"glob":"!*Post-1"},"tags":{"eq":"Hacker News"}},"limit":25,"skip":975,"total":3107,"totalPages":125,"currentPage":40,"maxWidth":1024,"maxHeight":512,"locale":"ja","hrefLang":"ja-JA","originalPath":"/tags/hacker-news/page/40","dateFormat":"YYYY-MM-DD"}},"staticQueryHashes":["1239077767","2506312863","2744905544","3025052997","3493603132","3493603132","3513215887","386998304"]}