{"componentChunkName":"component---gatsby-theme-buzzing-src-gatsby-theme-timeline-templates-posts-query-js","path":"/en/page/28","result":{"data":{"site":{"siteMetadata":{"title":"Reddit 热门","description":"用中文浏览Reddit热门内容","social":[{"name":"Twitter","url":"https://twitter.com/gatsbyjs","external":null,"prefetch":null},{"name":"GitHub","url":"https://github.com/gatsbyjs","external":null,"prefetch":null}],"menuLinks":[],"localize":[{"locale":"en","title":"Buzzing on Reddit","description":"See what's buzzing on Reddit in your native language","social":[{"name":"Reddit","url":"https://www.reddit.com/","external":true,"prefetch":null}],"menuLinks":[{"name":"Weekly Selection","url":"/issues","external":null,"prefetch":null},{"name":"RSS","url":"/rss.xml","external":null,"prefetch":false}]},{"locale":"zh-Hant","title":"Reddit 熱門","description":"用中文瀏覽Reddit熱門內容","social":null,"menuLinks":null}]}},"tagsGroup":{"group":[{"fieldValue":"ASK HN","totalCount":54},{"fieldValue":"Hacker News","totalCount":3107},{"fieldValue":"Poll","totalCount":1},{"fieldValue":"Show HN","totalCount":100},{"fieldValue":"poll","totalCount":1},{"fieldValue":"story","totalCount":3106}]},"allBlogPost":{"nodes":[{"__typename":"SocialMediaPost","id":"HnPost-26437152","excerpt":"","slug":"/hn/26437152","title":"M.2 on a Raspberry Pi – The Tofu CM4 Carrier Board","date":"March 12, 2021","dateISO":"2021-03-12T20:00:25.020Z","datetime":"2021-03-12 20:00","tags":["story","Hacker News"],"image":null,"imageAlt":null,"provider":"Hacker News","thirdPartyId":"26437152","url":"https://news.ycombinator.com/item?id=26437152","originalUrl":"https://www.jeffgeerling.com/blog/2021/m2-on-raspberry-pi-tofu-compute-module-4-carrier-board","imageRemote":"https://www.jeffgeerling.com/sites/default/files/images/tofu-by-oratek-hero.jpeg","video":null,"channel":null,"channelUrl":null,"author":"geerlingguy","authorUrl":"https://news.ycombinator.com/user?id=geerlingguy","authorImage":null,"authorSlug":null,"score":294,"views":null,"sharedCount":null,"likeCount":null,"sharedContent":null,"parent":{"__typename":"HnJson","localize":[{"title":"树莓派上的M.2 - 豆腐CM4载板","locale":"zh"},{"title":"樹莓派上的M.2 - 豆腐CM4載板","locale":"zh-Hant"}]}},{"__typename":"SocialMediaPost","id":"HnPost-26429057","excerpt":"","slug":"/hn/26429057","title":"Uber and Lyft to swap data on banned drivers","date":"March 12, 2021","dateISO":"2021-03-12T19:53:23.838Z","datetime":"2021-03-12 19:53","tags":["story","Hacker News"],"image":null,"imageAlt":null,"provider":"Hacker News","thirdPartyId":"26429057","url":"https://news.ycombinator.com/item?id=26429057","originalUrl":"https://www.bbc.co.uk/news/business-56368058","imageRemote":"https://ichef.bbci.co.uk/news/1024/branded_news/9032/production/_117541963_hi033138812.jpg","video":null,"channel":null,"channelUrl":null,"author":"recursion","authorUrl":"https://news.ycombinator.com/user?id=recursion","authorImage":null,"authorSlug":null,"score":162,"views":null,"sharedCount":null,"likeCount":null,"sharedContent":null,"parent":{"__typename":"HnJson","localize":[{"title":"Uber和Lyft将交换被禁司机的数据。","locale":"zh"},{"title":"Uber和Lyft將交換被禁司機的數據。","locale":"zh-Hant"}]}},{"__typename":"SocialMediaPost","id":"HnPost-26434032","excerpt":"","slug":"/hn/26434032","title":"On the death of my family's dairy farm (2019)","date":"March 12, 2021","dateISO":"2021-03-12T19:53:23.838Z","datetime":"2021-03-12 19:53","tags":["story","Hacker News"],"image":null,"imageAlt":null,"provider":"Hacker News","thirdPartyId":"26434032","url":"https://news.ycombinator.com/item?id=26434032","originalUrl":"https://blog.abevoelker.com/2019-03-06/on-the-death-of-my-familys-dairy-farm/","imageRemote":"https://abevoelker.com/assets/on-the-death-of-my-familys-dairy-farm/cover-image-0ef354203b999a24bee88049cbca5feacaa42e23733b5cddf773802e2de49268.jpg","video":null,"channel":null,"channelUrl":null,"author":"ddtaylor","authorUrl":"https://news.ycombinator.com/user?id=ddtaylor","authorImage":null,"authorSlug":null,"score":234,"views":null,"sharedCount":null,"likeCount":null,"sharedContent":null,"parent":{"__typename":"HnJson","localize":[{"title":"关于我家奶牛场的死亡（2019年）。","locale":"zh"},{"title":"關於我家奶牛場的死亡（2019年）。","locale":"zh-Hant"}]}},{"__typename":"SocialMediaPost","id":"HnPost-26433654","excerpt":"","slug":"/hn/26433654","title":"Drop millions of allocations by using a linked list (2015)","date":"March 12, 2021","dateISO":"2021-03-12T18:59:28.372Z","datetime":"2021-03-12 18:59","tags":["story","Hacker News"],"image":null,"imageAlt":null,"provider":"Hacker News","thirdPartyId":"26433654","url":"https://news.ycombinator.com/item?id=26433654","originalUrl":"https://github.com/rubygems/rubygems/pull/1188","imageRemote":"https://avatars.githubusercontent.com/u/208761?s=400&v=4","video":null,"channel":null,"channelUrl":null,"author":"ddtaylor","authorUrl":"https://news.ycombinator.com/user?id=ddtaylor","authorImage":null,"authorSlug":null,"score":178,"views":null,"sharedCount":null,"likeCount":null,"sharedContent":null,"parent":{"__typename":"HnJson","localize":[{"title":"通过使用联动清单，落下百万拨款（2015年）。","locale":"zh"},{"title":"通過使用聯動清單，落下百萬撥款（2015年）。","locale":"zh-Hant"}]}},{"__typename":"SocialMediaPost","id":"HnPost-26435416","excerpt":"","slug":"/hn/26435416","title":"A Model of the Cosmos in the Ancient Greek Antikythera Mechanism","date":"March 12, 2021","dateISO":"2021-03-12T17:49:27.798Z","datetime":"2021-03-12 17:49","tags":["story","Hacker News"],"image":null,"imageAlt":null,"provider":"Hacker News","thirdPartyId":"26435416","url":"https://news.ycombinator.com/item?id=26435416","originalUrl":"https://www.nature.com/articles/s41598-021-84310-w","imageRemote":"https://media.springernature.com/m685/springer-static/image/art%3A10.1038%2Fs41598-021-84310-w/MediaObjects/41598_2021_84310_Fig1_HTML.png","video":null,"channel":null,"channelUrl":null,"author":"sohkamyung","authorUrl":"https://news.ycombinator.com/user?id=sohkamyung","authorImage":null,"authorSlug":null,"score":259,"views":null,"sharedCount":null,"likeCount":null,"sharedContent":null,"parent":{"__typename":"HnJson","localize":[{"title":"古希腊Antikythera机制中的宇宙模型","locale":"zh"},{"title":"古希臘Antikythera機制中的宇宙模型","locale":"zh-Hant"}]}},{"__typename":"SocialMediaPost","id":"HnPost-26431507","excerpt":"","slug":"/hn/26431507","title":"Self-supervised learning: The dark matter of intelligence","date":"March 12, 2021","dateISO":"2021-03-12T17:18:02.497Z","datetime":"2021-03-12 17:18","tags":["story","Hacker News"],"image":null,"imageAlt":null,"provider":"Hacker News","thirdPartyId":"26431507","url":"https://news.ycombinator.com/item?id=26431507","originalUrl":"https://ai.facebook.com/blog/self-supervised-learning-the-dark-matter-of-intelligence/","imageRemote":"https://scontent-iad3-1.xx.fbcdn.net/v/t39.2365-6/105597558_3135808863106723_8338468658194053157_n.svg?_nc_cat=108&ccb=1-3&_nc_sid=ad8a9d&_nc_ohc=cKfyAuKdVrsAX_foxH4&_nc_ht=scontent-iad3-1.xx&oh=0c01ff4e553b4106931c3f0829f1f99d&oe=60710617","video":null,"channel":null,"channelUrl":null,"author":"Anon84","authorUrl":"https://news.ycombinator.com/user?id=Anon84","authorImage":null,"authorSlug":null,"score":178,"views":null,"sharedCount":null,"likeCount":null,"sharedContent":null,"parent":{"__typename":"HnJson","localize":[{"title":"自我监督学习。智能的暗物质","locale":"zh"},{"title":"自我監督學習。智能的暗物質","locale":"zh-Hant"}]}},{"__typename":"SocialMediaPost","id":"HnPost-26433862","excerpt":"","slug":"/hn/26433862","title":"Bitcoin miners in Abkhazia are causing blackouts in remote villages [video]","date":"March 12, 2021","dateISO":"2021-03-12T16:39:01.192Z","datetime":"2021-03-12 16:39","tags":["story","Hacker News"],"image":null,"imageAlt":null,"provider":"Hacker News","thirdPartyId":"26433862","url":"https://news.ycombinator.com/item?id=26433862","originalUrl":"https://www.youtube.com/watch?v=Rrgo-64ndnY","imageRemote":"https://i.ytimg.com/vi/Rrgo-64ndnY/hqdefault.jpg","video":null,"channel":null,"channelUrl":null,"author":"f311a","authorUrl":"https://news.ycombinator.com/user?id=f311a","authorImage":null,"authorSlug":null,"score":228,"views":null,"sharedCount":null,"likeCount":null,"sharedContent":null,"parent":{"__typename":"HnJson","localize":[{"title":"阿布哈兹的比特币矿工正在导致偏远村庄停电[视频]。","locale":"zh"},{"title":"阿布哈茲的比特幣礦工正在導致偏遠村莊停電[視頻]。","locale":"zh-Hant"}]}},{"__typename":"SocialMediaPost","id":"HnPost-26435094","excerpt":"","slug":"/hn/26435094","title":"Has Y Combinator lost its way when the latest company is a Mac only widget?","date":"March 12, 2021","dateISO":"2021-03-12T15:49:18.941Z","datetime":"2021-03-12 15:49","tags":["story","Hacker News"],"image":null,"imageAlt":null,"provider":"Hacker News","thirdPartyId":"26435094","url":"https://news.ycombinator.com/item?id=26435094","originalUrl":"https://www.reddit.com/r/Entrepreneur/comments/m2ypbx/has_y_combinator_lost_its_way_as_a_leading/","imageRemote":null,"video":null,"channel":null,"channelUrl":null,"author":"impostervt","authorUrl":"https://news.ycombinator.com/user?id=impostervt","authorImage":null,"authorSlug":null,"score":367,"views":null,"sharedCount":null,"likeCount":null,"sharedContent":null,"parent":{"__typename":"HnJson","localize":[{"title":"最新的公司是一个只有Mac的小部件，Y Combinator是否已经迷失了方向？","locale":"zh"},{"title":"最新的公司是一個只有Mac的小部件，Y Combinator是否已經迷失了方向？","locale":"zh-Hant"}]}},{"__typename":"SocialMediaPost","id":"HnPost-26435117","excerpt":"","slug":"/hn/26435117","title":"How Big Tech Is Importing India’s Caste Legacy to Silicon Valley","date":"March 12, 2021","dateISO":"2021-03-12T15:49:18.941Z","datetime":"2021-03-12 15:49","tags":["story","Hacker News"],"image":null,"imageAlt":null,"provider":"Hacker News","thirdPartyId":"26435117","url":"https://news.ycombinator.com/item?id=26435117","originalUrl":"https://www.bloomberg.com/news/features/2021-03-11/how-big-tech-is-importing-india-s-caste-legacy-to-silicon-valley","imageRemote":null,"video":null,"channel":null,"channelUrl":null,"author":"known","authorUrl":"https://news.ycombinator.com/user?id=known","authorImage":null,"authorSlug":null,"score":200,"views":null,"sharedCount":null,"likeCount":null,"sharedContent":null,"parent":{"__typename":"HnJson","localize":[{"title":"大科技公司如何将印度的种姓遗产导入硅谷？","locale":"zh"},{"title":"大科技公司如何將印度的種姓遺產導入硅谷？","locale":"zh-Hant"}]}},{"__typename":"SocialMediaPost","id":"HnPost-26432379","excerpt":"","slug":"/hn/26432379","title":"You Can't Censor Away Extremism (Or Any Other Problem)","date":"March 12, 2021","dateISO":"2021-03-12T15:29:20.986Z","datetime":"2021-03-12 15:29","tags":["story","Hacker News"],"image":null,"imageAlt":null,"provider":"Hacker News","thirdPartyId":"26432379","url":"https://news.ycombinator.com/item?id=26432379","originalUrl":"https://freddiedeboer.substack.com/p/you-cant-censor-away-extremism-or","imageRemote":"https://cdn.substack.com/image/fetch/w_1200,c_limit,f_jpg,q_auto:good,fl_progressive:steep/https%3A%2F%2Fbucketeer-e05bbc84-baa3-437e-9518-adb32be77984.s3.amazonaws.com%2Fpublic%2Fimages%2Fe3f581cd-e8d0-4c5b-83fd-04a1bd9c6128_594x390.jpeg","video":null,"channel":null,"channelUrl":null,"author":"barry-cotter","authorUrl":"https://news.ycombinator.com/user?id=barry-cotter","authorImage":null,"authorSlug":null,"score":427,"views":null,"sharedCount":null,"likeCount":null,"sharedContent":null,"parent":{"__typename":"HnJson","localize":[{"title":"你不可能审查掉极端主义（或任何其他问题）。","locale":"zh"},{"title":"你不可能審查掉極端主義（或任何其他問題）。","locale":"zh-Hant"}]}},{"__typename":"SocialMediaPost","id":"HnPost-26433872","excerpt":"","slug":"/hn/26433872","title":"Adobe Photoshop ships on Macs with Apple Silicon","date":"March 12, 2021","dateISO":"2021-03-12T14:52:46.496Z","datetime":"2021-03-12 14:52","tags":["story","Hacker News"],"image":null,"imageAlt":null,"provider":"Hacker News","thirdPartyId":"26433872","url":"https://news.ycombinator.com/item?id=26433872","originalUrl":"https://blog.adobe.com/en/publish/2021/03/10/adobe-photoshop-ships-on-macs-with-apple-silicon-gains-speedier-selections-filters-and-performance-boosts.html#gs.vxmvhg","imageRemote":"https://blog.adobe.com/hlx_9b65c0de680d6528ef9006022a6e60895b1316a9.jpeg?auto=webp&format=pjpg&optimize=medium&width=1200","video":null,"channel":null,"channelUrl":null,"author":"jbverschoor","authorUrl":"https://news.ycombinator.com/user?id=jbverschoor","authorImage":null,"authorSlug":null,"score":282,"views":null,"sharedCount":null,"likeCount":null,"sharedContent":null,"parent":{"__typename":"HnJson","localize":[{"title":"Adobe Photoshop在Mac上的发货与苹果硅","locale":"zh"},{"title":"Adobe Photoshop在Mac上的發貨與蘋果硅","locale":"zh-Hant"}]}},{"__typename":"SocialMediaPost","id":"HnPost-26433865","excerpt":"","slug":"/hn/26433865","title":"UK to depart from GDPR","date":"March 12, 2021","dateISO":"2021-03-12T13:27:16.365Z","datetime":"2021-03-12 13:27","tags":["story","Hacker News"],"image":null,"imageAlt":null,"provider":"Hacker News","thirdPartyId":"26433865","url":"https://news.ycombinator.com/item?id=26433865","originalUrl":"https://www.lawgazette.co.uk/news/uk-to-depart-from-gdpr/5107685.article","imageRemote":"https://d1d8vslyhr7rdg.cloudfront.net/Pictures/1024x536/0/4/9/96049_data-screem-390x234_crop.png","video":null,"channel":null,"channelUrl":null,"author":"bencollier49","authorUrl":"https://news.ycombinator.com/user?id=bencollier49","authorImage":null,"authorSlug":null,"score":447,"views":null,"sharedCount":null,"likeCount":null,"sharedContent":null,"parent":{"__typename":"HnJson","localize":[{"title":"英国将背离GDPR","locale":"zh"},{"title":"英國將背離GDPR","locale":"zh-Hant"}]}},{"__typename":"SocialMediaPost","id":"HnPost-26430466","excerpt":"","slug":"/hn/26430466","title":"Vim Clutch – A hardware pedal for improved text editing (2012)","date":"March 12, 2021","dateISO":"2021-03-12T13:00:48.092Z","datetime":"2021-03-12 13:00","tags":["story","Hacker News"],"image":null,"imageAlt":null,"provider":"Hacker News","thirdPartyId":"26430466","url":"https://news.ycombinator.com/item?id=26430466","originalUrl":"https://github.com/alevchuk/vim-clutch","imageRemote":"https://avatars.githubusercontent.com/u/64738?s=400&v=4","video":null,"channel":null,"channelUrl":null,"author":"ddtaylor","authorUrl":"https://news.ycombinator.com/user?id=ddtaylor","authorImage":null,"authorSlug":null,"score":193,"views":null,"sharedCount":null,"likeCount":null,"sharedContent":null,"parent":{"__typename":"HnJson","localize":[{"title":"Vim Clutch - 一个用于改进文本编辑的硬件踏板 (2012)","locale":"zh"},{"title":"Vim Clutch - 一個用於改進文本編輯的硬件踏板 (2012)","locale":"zh-Hant"}]}},{"__typename":"SocialMediaPost","id":"HnPost-26433782","excerpt":"","slug":"/hn/26433782","title":"Bitwarden Send - A trusted way to securely share information with anyone","date":"March 12, 2021","dateISO":"2021-03-12T13:00:48.091Z","datetime":"2021-03-12 13:00","tags":["story","Hacker News"],"image":null,"imageAlt":null,"provider":"Hacker News","thirdPartyId":"26433782","url":"https://news.ycombinator.com/item?id=26433782","originalUrl":"https://bitwarden.com/products/send/","imageRemote":"https://bitwarden.com/images/social-banner.png","video":null,"channel":null,"channelUrl":null,"author":"0x54MUR41","authorUrl":"https://news.ycombinator.com/user?id=0x54MUR41","authorImage":null,"authorSlug":null,"score":606,"views":null,"sharedCount":null,"likeCount":null,"sharedContent":null,"parent":{"__typename":"HnJson","localize":[{"title":"Bitwarden Send - 一种值得信赖的方式来安全地与任何人分享信息。","locale":"zh"},{"title":"Bitwarden Send - 一種值得信賴的方式來安全地與任何人分享信息。","locale":"zh-Hant"}]}},{"__typename":"SocialMediaPost","id":"HnPost-26432072","excerpt":"","slug":"/hn/26432072","title":"I Shipped, Therefore I Am","date":"March 12, 2021","dateISO":"2021-03-12T11:23:10.619Z","datetime":"2021-03-12 11:23","tags":["story","Hacker News"],"image":null,"imageAlt":null,"provider":"Hacker News","thirdPartyId":"26432072","url":"https://news.ycombinator.com/item?id=26432072","originalUrl":"https://hardcoresoftware.learningbyshipping.com/p/012-i-shipped-therefore-i-am","imageRemote":"https://cdn.substack.com/image/fetch/w_1200,c_limit,f_jpg,q_auto:good,fl_progressive:steep/https%3A%2F%2Fbucketeer-e05bbc84-baa3-437e-9518-adb32be77984.s3.amazonaws.com%2Fpublic%2Fimages%2Fb862981a-91be-43dd-9ab2-b192b659c7e9_2227x1571.png","video":null,"channel":null,"channelUrl":null,"author":"jashkenas","authorUrl":"https://news.ycombinator.com/user?id=jashkenas","authorImage":null,"authorSlug":null,"score":301,"views":null,"sharedCount":null,"likeCount":null,"sharedContent":null,"parent":{"__typename":"HnJson","localize":[{"title":"我发货了，所以我是","locale":"zh"},{"title":"我發貨了，所以我是","locale":"zh-Hant"}]}},{"__typename":"SocialMediaPost","id":"HnPost-26415744","excerpt":"","slug":"/hn/26415744","title":"Hockey goalies are too big now","date":"March 12, 2021","dateISO":"2021-03-12T10:51:40.368Z","datetime":"2021-03-12 10:51","tags":["story","Hacker News"],"image":null,"imageAlt":null,"provider":"Hacker News","thirdPartyId":"26415744","url":"https://news.ycombinator.com/item?id=26415744","originalUrl":"https://www.theatlantic.com/culture/archive/2021/02/hockey-goalies-are-too-big-now/618021/","imageRemote":"https://cdn.theatlantic.com/thumbor/2psNekvxfcqUx1jyo29fkgXbtz0=/0x76:3550x1925/960x500/https://cdn.theatlantic.com/media/img/mt/2021/02/2hockeyUntitled_1/original.jpg","video":null,"channel":null,"channelUrl":null,"author":"emptybits","authorUrl":"https://news.ycombinator.com/user?id=emptybits","authorImage":null,"authorSlug":null,"score":318,"views":null,"sharedCount":null,"likeCount":null,"sharedContent":null,"parent":{"__typename":"HnJson","localize":[{"title":"冰球守门员现在太大","locale":"zh"},{"title":"冰球守門員現在太大","locale":"zh-Hant"}]}},{"__typename":"SocialMediaPost","id":"HnPost-26430240","excerpt":"","slug":"/hn/26430240","title":"Kinto: Mac-style shortcut keys for Linux and Windows","date":"March 12, 2021","dateISO":"2021-03-12T08:32:56.256Z","datetime":"2021-03-12 08:32","tags":["story","Hacker News"],"image":null,"imageAlt":null,"provider":"Hacker News","thirdPartyId":"26430240","url":"https://news.ycombinator.com/item?id=26430240","originalUrl":"https://github.com/rbreaves/kinto/","imageRemote":"https://avatars.githubusercontent.com/u/10969616?s=400&v=4","video":null,"channel":null,"channelUrl":null,"author":"yankcrime","authorUrl":"https://news.ycombinator.com/user?id=yankcrime","authorImage":null,"authorSlug":null,"score":237,"views":null,"sharedCount":null,"likeCount":null,"sharedContent":null,"parent":{"__typename":"HnJson","localize":[{"title":"Kinto。Linux和Windows的Mac风格快捷键","locale":"zh"},{"title":"Kinto。Linux和Windows的Mac風格快捷鍵","locale":"zh-Hant"}]}},{"__typename":"SocialMediaPost","id":"HnPost-26427300","excerpt":"","slug":"/hn/26427300","title":"Raylib, a simple and easy-to-use library to enjoy videogame programming","date":"March 12, 2021","dateISO":"2021-03-12T07:24:28.953Z","datetime":"2021-03-12 07:24","tags":["story","Hacker News"],"image":null,"imageAlt":null,"provider":"Hacker News","thirdPartyId":"26427300","url":"https://news.ycombinator.com/item?id=26427300","originalUrl":"https://www.raylib.com/index.html","imageRemote":"https://www.raylib.com/common/img/raylib_logo_card.png","video":null,"channel":null,"channelUrl":null,"author":"dgellow","authorUrl":"https://news.ycombinator.com/user?id=dgellow","authorImage":null,"authorSlug":null,"score":218,"views":null,"sharedCount":null,"likeCount":null,"sharedContent":null,"parent":{"__typename":"HnJson","localize":[{"title":"Raylib，一个简单易用的电子游戏编程欣赏库。","locale":"zh"},{"title":"Raylib，一個簡單易用的電子遊戲編程欣賞庫。","locale":"zh-Hant"}]}},{"__typename":"SocialMediaPost","id":"HnPost-26416266","excerpt":"","slug":"/hn/26416266","title":"Emirates’ Tim Clark says Boeing ‘not getting it’ on 737 Max, 787","date":"March 12, 2021","dateISO":"2021-03-12T05:45:04.327Z","datetime":"2021-03-12 05:45","tags":["story","Hacker News"],"image":null,"imageAlt":null,"provider":"Hacker News","thirdPartyId":"26416266","url":"https://news.ycombinator.com/item?id=26416266","originalUrl":"https://theaircurrent.com/industry-strategy/emirates-tim-clark-says-boeing-not-getting-it-on-737-max-787/","imageRemote":"https://theaircurrent.com/wp-content/uploads/2021/03/tim-clark-1000th-777-presser-2012-jdl-1024x675.jpg","video":null,"channel":null,"channelUrl":null,"author":"firebaze","authorUrl":"https://news.ycombinator.com/user?id=firebaze","authorImage":null,"authorSlug":null,"score":160,"views":null,"sharedCount":null,"likeCount":null,"sharedContent":null,"parent":{"__typename":"HnJson","localize":[{"title":"阿联酋航空的蒂姆-克拉克说，波音公司在737 Max、787上 \"不懂\"。","locale":"zh"},{"title":"阿聯酋航空的蒂姆-克拉克說，波音公司在737 Max、787上 \"不懂\"。","locale":"zh-Hant"}]}},{"__typename":"SocialMediaPost","id":"HnPost-26424855","excerpt":"","slug":"/hn/26424855","title":"Why I Didn't Open-Source My Second SaaS","date":"March 12, 2021","dateISO":"2021-03-12T04:45:35.287Z","datetime":"2021-03-12 04:45","tags":["story","Hacker News"],"image":null,"imageAlt":null,"provider":"Hacker News","thirdPartyId":"26424855","url":"https://news.ycombinator.com/item?id=26424855","originalUrl":"https://panelbear.com/blog/why-not-open-source/","imageRemote":"https://panelbear.com/static/img/social-preview.png?v=2","video":null,"channel":null,"channelUrl":null,"author":"amzans","authorUrl":"https://news.ycombinator.com/user?id=amzans","authorImage":null,"authorSlug":null,"score":192,"views":null,"sharedCount":null,"likeCount":null,"sharedContent":null,"parent":{"__typename":"HnJson","localize":[{"title":"为什么我没有开源我的第二个SaaS？","locale":"zh"},{"title":"爲什麼我沒有開源我的第二個SaaS？","locale":"zh-Hant"}]}},{"__typename":"SocialMediaPost","id":"HnPost-26430266","excerpt":"","slug":"/hn/26430266","title":"Two UK Broadband ISPs Trial New Internet Snooping System","date":"March 12, 2021","dateISO":"2021-03-12T04:23:23.707Z","datetime":"2021-03-12 04:23","tags":["story","Hacker News"],"image":null,"imageAlt":null,"provider":"Hacker News","thirdPartyId":"26430266","url":"https://news.ycombinator.com/item?id=26430266","originalUrl":"https://www.ispreview.co.uk/index.php/2021/03/two-uk-broadband-isps-trial-new-internet-snooping-system.html","imageRemote":"https://www.ispreview.co.uk/wp-content/uploads/2021/03/nggallery_import/internet_spying_eye.jpg","video":null,"channel":null,"channelUrl":null,"author":"offby37years","authorUrl":"https://news.ycombinator.com/user?id=offby37years","authorImage":null,"authorSlug":null,"score":455,"views":null,"sharedCount":null,"likeCount":null,"sharedContent":null,"parent":{"__typename":"HnJson","localize":[{"title":"英国两家宽带ISP试用新互联网窥探系统","locale":"zh"},{"title":"英國兩家寬帶ISP試用新互聯網窺探系統","locale":"zh-Hant"}]}},{"__typename":"SocialMediaPost","id":"HnPost-26425233","excerpt":"","slug":"/hn/26425233","title":"Clone Wars: Open-source clones of popular sites","date":"March 12, 2021","dateISO":"2021-03-12T02:49:17.773Z","datetime":"2021-03-12 02:49","tags":["story","Hacker News"],"image":null,"imageAlt":null,"provider":"Hacker News","thirdPartyId":"26425233","url":"https://news.ycombinator.com/item?id=26425233","originalUrl":"https://gourav.io/clone-wars","imageRemote":"https://gourav.io/_next/static/media/pages/clone-wars/img/og.png","video":null,"channel":null,"channelUrl":null,"author":"feross","authorUrl":"https://news.ycombinator.com/user?id=feross","authorImage":null,"authorSlug":null,"score":184,"views":null,"sharedCount":null,"likeCount":null,"sharedContent":null,"parent":{"__typename":"HnJson","localize":[{"title":"克隆战争：流行网站的开源克隆。","locale":"zh"},{"title":"克隆戰爭：流行網站的開源克隆。","locale":"zh-Hant"}]}},{"__typename":"SocialMediaPost","id":"HnPost-26427543","excerpt":"","slug":"/hn/26427543","title":"A lost tourist who thought Maine was San Francisco","date":"March 12, 2021","dateISO":"2021-03-12T02:49:17.773Z","datetime":"2021-03-12 02:49","tags":["story","Hacker News"],"image":null,"imageAlt":null,"provider":"Hacker News","thirdPartyId":"26427543","url":"https://news.ycombinator.com/item?id=26427543","originalUrl":"https://www.sfgate.com/local/editorspicks/article/lost-tourist-who-thought-Bangor-was-San-Francisco-15940512.php","imageRemote":"https://s.hdnux.com/photos/01/16/44/05/20595045/3/rawImage.jpg","video":null,"channel":null,"channelUrl":null,"author":"etxm","authorUrl":"https://news.ycombinator.com/user?id=etxm","authorImage":null,"authorSlug":null,"score":395,"views":null,"sharedCount":null,"likeCount":null,"sharedContent":null,"parent":{"__typename":"HnJson","localize":[{"title":"一个迷路的游客，以为缅因州就是旧金山。","locale":"zh"},{"title":"一個迷路的遊客，以爲緬因州就是舊金山。","locale":"zh-Hant"}]}},{"__typename":"SocialMediaPost","id":"HnPost-26422109","excerpt":"","slug":"/hn/26422109","title":"Fraidycat: Follow from afar","date":"March 12, 2021","dateISO":"2021-03-12T01:31:34.605Z","datetime":"2021-03-12 01:31","tags":["story","Hacker News"],"image":null,"imageAlt":null,"provider":"Hacker News","thirdPartyId":"26422109","url":"https://news.ycombinator.com/item?id=26422109","originalUrl":"https://fraidyc.at/index.html","imageRemote":"https://fraidyc.at/images/fraidycat-button.png","video":null,"channel":null,"channelUrl":null,"author":"ddtaylor","authorUrl":"https://news.ycombinator.com/user?id=ddtaylor","authorImage":null,"authorSlug":null,"score":190,"views":null,"sharedCount":null,"likeCount":null,"sharedContent":null,"parent":{"__typename":"HnJson","localize":[{"title":"害怕的猫。从远处追来","locale":"zh"},{"title":"害怕的貓。從遠處追來","locale":"zh-Hant"}]}},{"__typename":"SocialMediaPost","id":"HnPost-26427405","excerpt":"","slug":"/hn/26427405","title":"Duolingo's language notes all on one page","date":"March 12, 2021","dateISO":"2021-03-12T01:31:34.605Z","datetime":"2021-03-12 01:31","tags":["story","Hacker News"],"image":null,"imageAlt":null,"provider":"Hacker News","thirdPartyId":"26427405","url":"https://news.ycombinator.com/item?id=26427405","originalUrl":"https://duome.eu/tips/en","imageRemote":null,"video":null,"channel":null,"channelUrl":null,"author":"rococode","authorUrl":"https://news.ycombinator.com/user?id=rococode","authorImage":null,"authorSlug":null,"score":265,"views":null,"sharedCount":null,"likeCount":null,"sharedContent":null,"parent":{"__typename":"HnJson","localize":[{"title":"Duolingo的语言笔记都在一个页面上","locale":"zh"},{"title":"Duolingo的語言筆記都在一個頁面上","locale":"zh-Hant"}]}}]}},"pageContext":{"basePath":"/","pageType":"home","tagsFilter":{"id":{"glob":"!*Post-1"}},"filter":{"id":{"glob":"!*Post-1"}},"limit":25,"skip":675,"totalPages":125,"total":3107,"currentPage":28,"maxWidth":1024,"maxHeight":512,"locale":"en","hrefLang":"en-US","originalPath":"/page/28","dateFormat":"MM/DD/YYYY"}},"staticQueryHashes":["1239077767","2506312863","2744905544","3025052997","3493603132","3493603132","3513215887","386998304"]}