{"componentChunkName":"component---gatsby-theme-buzzing-src-gatsby-theme-timeline-templates-posts-query-js","path":"/tags/story/page/31","result":{"data":{"site":{"siteMetadata":{"title":"Reddit 热门","description":"用中文浏览Reddit热门内容","social":[{"name":"Reddit","url":"https://www.reddit.com/","external":true,"prefetch":null},{"name":"GitHub","url":"https://github.com/gatsbyjs","external":null,"prefetch":null}],"menuLinks":[{"name":"每周精选","url":"/issues","external":null,"prefetch":null},{"name":"RSS","url":"/rss.xml","external":null,"prefetch":false}],"localize":[{"locale":"en","title":"Buzzing on Reddit","description":"See what's buzzing on Reddit in your native language","social":[{"name":"Reddit","url":"https://www.reddit.com/","external":true,"prefetch":null}],"menuLinks":[{"name":"Weekly Selection","url":"/issues","external":null,"prefetch":null},{"name":"RSS","url":"/rss.xml","external":null,"prefetch":false}]},{"locale":"zh-Hant","title":"Reddit 熱門","description":"用中文瀏覽Reddit熱門內容","social":null,"menuLinks":null}]}},"tagsGroup":{"group":[{"fieldValue":"ASK HN","totalCount":19},{"fieldValue":"Bitcoin","totalCount":3},{"fieldValue":"Hacker News","totalCount":799},{"fieldValue":"Poll","totalCount":1},{"fieldValue":"Show HN","totalCount":31},{"fieldValue":"investing","totalCount":166},{"fieldValue":"poll","totalCount":1},{"fieldValue":"reddit","totalCount":592},{"fieldValue":"science","totalCount":1},{"fieldValue":"stocks","totalCount":276},{"fieldValue":"story","totalCount":798},{"fieldValue":"tweet","totalCount":242},{"fieldValue":"wallstreetbets","totalCount":150}]},"allBlogPost":{"nodes":[{"__typename":"SocialMediaPost","id":"HnPost-25439885","excerpt":"","slug":"/hn/25439885","title":"A tiny island nation just launched major effort to win back control of its ccTLD","date":"December 17, 2020","dateISO":"2020-12-17T12:17:48.070Z","datetime":"2020-12-17 12:17","tags":["story","Hacker News"],"image":null,"imageAlt":null,"provider":"Hacker News","thirdPartyId":"25439885","url":"https://news.ycombinator.com/item?id=25439885","originalUrl":"https://www.businessinsider.com.au/niue-nu-internet-domain-reclaim-2020-12","imageRemote":"https://edge.alluremedia.com.au/uploads/businessinsider/2020/12/GettyImages-585993988.jpg","video":null,"channel":null,"channelUrl":null,"author":"markdown","authorUrl":"https://news.ycombinator.com/user?id=markdown","authorImage":null,"authorSlug":null,"score":141,"views":null,"sharedCount":null,"likeCount":null,"sharedContent":null,"parent":{"__typename":"HnJson","localize":[{"title":"一个小小的岛国刚刚发起了重大努力，以夺回对其cctld的控制权。","locale":"zh"},{"title":"一個小小的島國剛剛發起了重大努力，以奪回對其cctld的控制權。","locale":"zh-Hant"}]}},{"__typename":"SocialMediaPost","id":"HnPost-25440078","excerpt":"","slug":"/hn/25440078","title":"Air-FI: Generating Covert Wi-Fi Signals from Air-Gapped Computers","date":"December 17, 2020","dateISO":"2020-12-17T12:17:48.070Z","datetime":"2020-12-17 12:17","tags":["story","Hacker News"],"image":null,"imageAlt":null,"provider":"Hacker News","thirdPartyId":"25440078","url":"https://news.ycombinator.com/item?id=25440078","originalUrl":"https://arxiv.org/abs/2012.06884","imageRemote":"https://static.arxiv.org/static/browse/0.3.2.6/images/icons/social/bibsonomy.png","video":null,"channel":null,"channelUrl":null,"author":"anigbrowl","authorUrl":"https://news.ycombinator.com/user?id=anigbrowl","authorImage":null,"authorSlug":null,"score":294,"views":null,"sharedCount":null,"likeCount":null,"sharedContent":null,"parent":{"__typename":"HnJson","localize":[{"title":"Air-Fi：从有气隙的计算机生成隐蔽Wi-Fi信号","locale":"zh"},{"title":"Air-Fi：從有氣隙的計算機生成隱蔽Wi-Fi信號","locale":"zh-Hant"}]}},{"__typename":"SocialMediaPost","id":"HnPost-25440322","excerpt":"","slug":"/hn/25440322","title":"Elderly patients 23% more likely to die if surgery is on the surgeon’s birthday","date":"December 17, 2020","dateISO":"2020-12-17T12:17:48.070Z","datetime":"2020-12-17 12:17","tags":["story","Hacker News"],"image":null,"imageAlt":null,"provider":"Hacker News","thirdPartyId":"25440322","url":"https://news.ycombinator.com/item?id=25440322","originalUrl":"https://www.psychnewsdaily.com/elderly-emergency-surgery-patients-23-more-likely-to-die-if-operation-takes-place-on-surgeons-birthday/","imageRemote":"https://www.psychnewsdaily.com/wp-content/uploads/2020/12/emergency-surgery-AND-ER-doctors-birthday.jpg","video":null,"channel":null,"channelUrl":null,"author":"whx23","authorUrl":"https://news.ycombinator.com/user?id=whx23","authorImage":null,"authorSlug":null,"score":371,"views":null,"sharedCount":null,"likeCount":null,"sharedContent":null,"parent":{"__typename":"HnJson","localize":[{"title":"如果手术是在外科医生生日当天进行的，老年患者死亡的可能性要高出23%","locale":"zh"},{"title":"如果手術是在外科醫生生日當天進行的，老年患者死亡的可能性要高出23%","locale":"zh-Hant"}]}},{"__typename":"SocialMediaPost","id":"HnPost-25440540","excerpt":"","slug":"/hn/25440540","title":"I3: Improved Tiling Window Manager","date":"December 17, 2020","dateISO":"2020-12-17T12:17:48.070Z","datetime":"2020-12-17 12:17","tags":["story","Hacker News"],"image":null,"imageAlt":null,"provider":"Hacker News","thirdPartyId":"25440540","url":"https://news.ycombinator.com/item?id=25440540","originalUrl":"https://i3wm.org/","imageRemote":"https://i3wm.org/img/logo.svg","video":null,"channel":null,"channelUrl":null,"author":"Gedxx","authorUrl":"https://news.ycombinator.com/user?id=Gedxx","authorImage":null,"authorSlug":null,"score":468,"views":null,"sharedCount":null,"likeCount":null,"sharedContent":null,"parent":{"__typename":"HnJson","localize":[{"title":"I3：改进的平铺窗口管理器","locale":"zh"},{"title":"I3：改進的平鋪窗口管理器","locale":"zh-Hant"}]}},{"__typename":"SocialMediaPost","id":"HnPost-25440787","excerpt":"","slug":"/hn/25440787","title":"A new release for GNU Octave","date":"December 17, 2020","dateISO":"2020-12-17T12:17:48.070Z","datetime":"2020-12-17 12:17","tags":["story","Hacker News"],"image":null,"imageAlt":null,"provider":"Hacker News","thirdPartyId":"25440787","url":"https://news.ycombinator.com/item?id=25440787","originalUrl":"https://lwn.net/SubscriberLink/840050/47a639d7753cc988/","imageRemote":"https://static.lwn.net/images/logo/barepenguin-70.png","video":null,"channel":null,"channelUrl":null,"author":"Tomte","authorUrl":"https://news.ycombinator.com/user?id=Tomte","authorImage":null,"authorSlug":null,"score":208,"views":null,"sharedCount":null,"likeCount":null,"sharedContent":null,"parent":{"__typename":"HnJson","localize":[{"title":"GNU Octave的新版本","locale":"zh"},{"title":"GNU Octave的新版本","locale":"zh-Hant"}]}},{"__typename":"SocialMediaPost","id":"HnPost-25441046","excerpt":"","slug":"/hn/25441046","title":"RoboScan: Lego+Raspberry Pi-powered analog film roll scanner","date":"December 17, 2020","dateISO":"2020-12-17T12:17:48.070Z","datetime":"2020-12-17 12:17","tags":["story","Hacker News"],"image":null,"imageAlt":null,"provider":"Hacker News","thirdPartyId":"25441046","url":"https://news.ycombinator.com/item?id=25441046","originalUrl":"https://github.com/bezineb5/RoboScan#roboscan","imageRemote":"https://avatars1.githubusercontent.com/u/1782448?s=400&v=4","video":null,"channel":null,"channelUrl":null,"author":"ingve","authorUrl":"https://news.ycombinator.com/user?id=ingve","authorImage":null,"authorSlug":null,"score":115,"views":null,"sharedCount":null,"likeCount":null,"sharedContent":null,"parent":{"__typename":"HnJson","localize":[{"title":"Roboscan：乐高+树莓Pi驱动的模拟胶片卷筒扫描仪","locale":"zh"},{"title":"Roboscan：樂高+樹莓Pi驅動的模擬膠片捲筒掃描儀","locale":"zh-Hant"}]}},{"__typename":"SocialMediaPost","id":"HnPost-25441213","excerpt":"","slug":"/hn/25441213","title":"bspwm: tiling window manager that represents windows as leaves of a binary tree","date":"December 17, 2020","dateISO":"2020-12-17T12:17:48.070Z","datetime":"2020-12-17 12:17","tags":["story","Hacker News"],"image":null,"imageAlt":null,"provider":"Hacker News","thirdPartyId":"25441213","url":"https://news.ycombinator.com/item?id=25441213","originalUrl":"https://github.com/baskerville/bspwm","imageRemote":"https://avatars2.githubusercontent.com/u/159419?s=400&v=4","video":null,"channel":null,"channelUrl":null,"author":"j-james","authorUrl":"https://news.ycombinator.com/user?id=j-james","authorImage":null,"authorSlug":null,"score":121,"views":null,"sharedCount":null,"likeCount":null,"sharedContent":null,"parent":{"__typename":"HnJson","localize":[{"title":"bspwm：平铺窗口管理器，将窗口表示为二叉树的叶子","locale":"zh"},{"title":"bspwm：平鋪窗口管理器，將窗口表示爲二叉樹的葉子","locale":"zh-Hant"}]}},{"__typename":"SocialMediaPost","id":"HnPost-25441592","excerpt":"","slug":"/hn/25441592","title":"Blob Opera","date":"December 17, 2020","dateISO":"2020-12-17T12:17:48.070Z","datetime":"2020-12-17 12:17","tags":["story","Hacker News"],"image":null,"imageAlt":null,"provider":"Hacker News","thirdPartyId":"25441592","url":"https://news.ycombinator.com/item?id=25441592","originalUrl":"https://artsandculture.google.com/experiment/AAHWrq360NcGbw","imageRemote":"https://lh3.googleusercontent.com/p23feUh1kc0fPF1lGWx8KHCjll1Zagy-CGZvGTH0gR8jdz4sCrubieqPiO0jI4oERSE","video":null,"channel":null,"channelUrl":null,"author":"BerislavLopac","authorUrl":"https://news.ycombinator.com/user?id=BerislavLopac","authorImage":null,"authorSlug":null,"score":456,"views":null,"sharedCount":null,"likeCount":null,"sharedContent":null,"parent":{"__typename":"HnJson","localize":[{"title":"斑点歌剧","locale":"zh"},{"title":"斑點歌劇","locale":"zh-Hant"}]}},{"__typename":"SocialMediaPost","id":"HnPost-25441664","excerpt":"","slug":"/hn/25441664","title":"Ask HN: I want to start learning Lisp. Where do I begin?","date":"December 17, 2020","dateISO":"2020-12-17T12:17:48.070Z","datetime":"2020-12-17 12:17","tags":["story","ASK HN","Hacker News"],"image":null,"imageAlt":null,"provider":"Hacker News","thirdPartyId":"25441664","url":"https://news.ycombinator.com/item?id=25441664","originalUrl":"https://news.ycombinator.com/item?id=25441664","imageRemote":null,"video":null,"channel":"ASK HN","channelUrl":"https://news.ycombinator.com/ask","author":"priyanshuraj","authorUrl":"https://news.ycombinator.com/user?id=priyanshuraj","authorImage":null,"authorSlug":null,"score":222,"views":null,"sharedCount":null,"likeCount":null,"sharedContent":null,"parent":{"__typename":"HnJson","localize":[{"title":"问HN：我想开始学习Lisp。我该从哪里开始呢？","locale":"zh"},{"title":"問HN：我想開始學習Lisp。我該從哪裏開始呢？","locale":"zh-Hant"}]}},{"__typename":"SocialMediaPost","id":"HnPost-25441842","excerpt":"","slug":"/hn/25441842","title":"Github: Token authentication requirements for Git operations","date":"December 17, 2020","dateISO":"2020-12-17T12:17:48.070Z","datetime":"2020-12-17 12:17","tags":["story","Hacker News"],"image":null,"imageAlt":null,"provider":"Hacker News","thirdPartyId":"25441842","url":"https://news.ycombinator.com/item?id=25441842","originalUrl":"https://github.blog/2020-12-15-token-authentication-requirements-for-git-operations/","imageRemote":"https://github.blog/wp-content/uploads/2019/09/security-1200-630.png?fit=1200%2C630","video":null,"channel":null,"channelUrl":null,"author":"politelemon","authorUrl":"https://news.ycombinator.com/user?id=politelemon","authorImage":null,"authorSlug":null,"score":112,"views":null,"sharedCount":null,"likeCount":null,"sharedContent":null,"parent":{"__typename":"HnJson","localize":[{"title":"GitHub：Git操作的令牌身份验证要求","locale":"zh"},{"title":"GitHub：Git操作的令牌身份驗證要求","locale":"zh-Hant"}]}},{"__typename":"SocialMediaPost","id":"HnPost-25441986","excerpt":"","slug":"/hn/25441986","title":"Facebook criticizes Apple’s iOS privacy changes with full-page newspaper ads","date":"December 17, 2020","dateISO":"2020-12-17T12:17:48.070Z","datetime":"2020-12-17 12:17","tags":["story","Hacker News"],"image":null,"imageAlt":null,"provider":"Hacker News","thirdPartyId":"25441986","url":"https://news.ycombinator.com/item?id=25441986","originalUrl":"https://www.theverge.com/2020/12/16/22178068/facebook-apple-newspaper-ads-ios-privacy-changes","imageRemote":"https://cdn.vox-cdn.com/thumbor/lfC_82Rz45C9Sp3HhLSuIRZjoPk=/0x142:1980x1179/fit-in/1200x630/cdn.vox-cdn.com/uploads/chorus_asset/file/22174380/facebooknewspaperad.jpg","video":null,"channel":null,"channelUrl":null,"author":"Tomte","authorUrl":"https://news.ycombinator.com/user?id=Tomte","authorImage":null,"authorSlug":null,"score":218,"views":null,"sharedCount":null,"likeCount":null,"sharedContent":null,"parent":{"__typename":"HnJson","localize":[{"title":"Facebook用整版报纸广告批评苹果iOS隐私变化","locale":"zh"},{"title":"Facebook用整版報紙廣告批評蘋果iOS隱私變化","locale":"zh-Hant"}]}},{"__typename":"SocialMediaPost","id":"HnPost-25442072","excerpt":"","slug":"/hn/25442072","title":"Vercel raise $40M Series B","date":"December 17, 2020","dateISO":"2020-12-17T12:17:48.070Z","datetime":"2020-12-17 12:17","tags":["story","Hacker News"],"image":null,"imageAlt":null,"provider":"Hacker News","thirdPartyId":"25442072","url":"https://news.ycombinator.com/item?id=25442072","originalUrl":"https://vercel.com/blog/series-b-40m-to-build-the-next-web","imageRemote":"https://images.ctfassets.net/e5382hct74si/36TYrdd8WXXj8lCjg7dPUL/55eba8cc4ef21ea93e461c92ca275756/twitter-card.png","video":null,"channel":null,"channelUrl":null,"author":"sdan","authorUrl":"https://news.ycombinator.com/user?id=sdan","authorImage":null,"authorSlug":null,"score":350,"views":null,"sharedCount":null,"likeCount":null,"sharedContent":null,"parent":{"__typename":"HnJson","localize":[{"title":"Vercel B系列融资4000万美元","locale":"zh"},{"title":"Vercel B系列融資4000萬美元","locale":"zh-Hant"}]}},{"__typename":"SocialMediaPost","id":"HnPost-25442097","excerpt":"","slug":"/hn/25442097","title":"Experiments on a $50 DIY air purifier that takes 30s to assemble","date":"December 17, 2020","dateISO":"2020-12-17T12:17:48.070Z","datetime":"2020-12-17 12:17","tags":["story","Hacker News"],"image":null,"imageAlt":null,"provider":"Hacker News","thirdPartyId":"25442097","url":"https://news.ycombinator.com/item?id=25442097","originalUrl":"https://dyno-might.github.io/2020/12/15/some-real-data-on-a-DIY-box-fan-air-purifier/","imageRemote":"https://dyno-might.github.io/img/purifier/smoke.jpg","video":null,"channel":null,"channelUrl":null,"author":"dyno-might","authorUrl":"https://news.ycombinator.com/user?id=dyno-might","authorImage":null,"authorSlug":null,"score":292,"views":null,"sharedCount":null,"likeCount":null,"sharedContent":null,"parent":{"__typename":"HnJson","localize":[{"title":"一台50美元的DIY空气净化器的实验，需要30秒才能组装完成","locale":"zh"},{"title":"一臺50美元的DIY空氣淨化器的實驗，需要30秒才能組裝完成","locale":"zh-Hant"}]}},{"__typename":"SocialMediaPost","id":"HnPost-25442451","excerpt":"","slug":"/hn/25442451","title":"Google Finance Finally Updated","date":"December 17, 2020","dateISO":"2020-12-17T12:17:48.070Z","datetime":"2020-12-17 12:17","tags":["story","Hacker News"],"image":null,"imageAlt":null,"provider":"Hacker News","thirdPartyId":"25442451","url":"https://news.ycombinator.com/item?id=25442451","originalUrl":"https://www.google.com/finance/quote/GOOG:NASDAQ","imageRemote":"https://ssl.gstatic.com/finance/ios/3x/home_60dp.png","video":null,"channel":null,"channelUrl":null,"author":"jbverschoor","authorUrl":"https://news.ycombinator.com/user?id=jbverschoor","authorImage":null,"authorSlug":null,"score":224,"views":null,"sharedCount":null,"likeCount":null,"sharedContent":null,"parent":{"__typename":"HnJson","localize":[{"title":"谷歌财经终于更新了","locale":"zh"},{"title":"谷歌財經終於更新了","locale":"zh-Hant"}]}},{"__typename":"SocialMediaPost","id":"HnPost-25442510","excerpt":"","slug":"/hn/25442510","title":"Tig – Text-mode interface for Git","date":"December 17, 2020","dateISO":"2020-12-17T12:17:48.070Z","datetime":"2020-12-17 12:17","tags":["story","Hacker News"],"image":null,"imageAlt":null,"provider":"Hacker News","thirdPartyId":"25442510","url":"https://news.ycombinator.com/item?id=25442510","originalUrl":"https://jonas.github.io/tig/","imageRemote":"https://secure.travis-ci.org/jonas/tig.svg?branch=master","video":null,"channel":null,"channelUrl":null,"author":"lemonspat","authorUrl":"https://news.ycombinator.com/user?id=lemonspat","authorImage":null,"authorSlug":null,"score":301,"views":null,"sharedCount":null,"likeCount":null,"sharedContent":null,"parent":{"__typename":"HnJson","localize":[{"title":"Git的TIG文本模式界面","locale":"zh"},{"title":"Git的TIG文本模式界面","locale":"zh-Hant"}]}},{"__typename":"SocialMediaPost","id":"HnPost-25442734","excerpt":"","slug":"/hn/25442734","title":"SolarWinds leaked FTP credentials through a public GitHub repo since 2018","date":"December 17, 2020","dateISO":"2020-12-17T12:17:48.070Z","datetime":"2020-12-17 12:17","tags":["story","Hacker News"],"image":null,"imageAlt":null,"provider":"Hacker News","thirdPartyId":"25442734","url":"https://news.ycombinator.com/item?id=25442734","originalUrl":"https://www.savebreach.com/solarwinds-exposed-ftp-credentials-back-in-2018-says-security-researcher-vinoth/","imageRemote":"https://savebreach.com/content/images/2020/12/ss_solar.png","video":null,"channel":null,"channelUrl":null,"author":"hackerpain","authorUrl":"https://news.ycombinator.com/user?id=hackerpain","authorImage":null,"authorSlug":null,"score":183,"views":null,"sharedCount":null,"likeCount":null,"sharedContent":null,"parent":{"__typename":"HnJson","localize":[{"title":"自2018年以来，SolarWinds通过公开的GitHub回购泄露了FTP凭据","locale":"zh"},{"title":"自2018年以來，SolarWinds通過公開的GitHub回購泄露了FTP憑據","locale":"zh-Hant"}]}},{"__typename":"SocialMediaPost","id":"HnPost-25443152","excerpt":"","slug":"/hn/25443152","title":"Firefox Was Always Enough","date":"December 17, 2020","dateISO":"2020-12-17T12:17:48.070Z","datetime":"2020-12-17 12:17","tags":["story","Hacker News"],"image":null,"imageAlt":null,"provider":"Hacker News","thirdPartyId":"25443152","url":"https://news.ycombinator.com/item?id=25443152","originalUrl":"https://www.ianbicking.org/blog/2020/11/firefox-was-always-enough.html","imageRemote":null,"video":null,"channel":null,"channelUrl":null,"author":"adambyrtek","authorUrl":"https://news.ycombinator.com/user?id=adambyrtek","authorImage":null,"authorSlug":null,"score":1000,"views":null,"sharedCount":null,"likeCount":null,"sharedContent":null,"parent":{"__typename":"HnJson","localize":[{"title":"火狐总是足够的","locale":"zh"},{"title":"火狐總是足夠的","locale":"zh-Hant"}]}},{"__typename":"SocialMediaPost","id":"HnPost-25443489","excerpt":"","slug":"/hn/25443489","title":"Bitcoin breaks above $20k","date":"December 17, 2020","dateISO":"2020-12-17T12:17:48.070Z","datetime":"2020-12-17 12:17","tags":["story","Hacker News"],"image":null,"imageAlt":null,"provider":"Hacker News","thirdPartyId":"25443489","url":"https://news.ycombinator.com/item?id=25443489","originalUrl":"https://www.nasdaq.com/articles/bitcoin-hits-record-above-%2420k-as-analysts-remain-confident-of-future-2020-12-16","imageRemote":null,"video":null,"channel":null,"channelUrl":null,"author":"wsieroci","authorUrl":"https://news.ycombinator.com/user?id=wsieroci","authorImage":null,"authorSlug":null,"score":272,"views":null,"sharedCount":null,"likeCount":null,"sharedContent":null,"parent":{"__typename":"HnJson","localize":[{"title":"比特币突破20000美元大关","locale":"zh"},{"title":"比特幣突破20000美元大關","locale":"zh-Hant"}]}},{"__typename":"SocialMediaPost","id":"HnPost-25444069","excerpt":"","slug":"/hn/25444069","title":"I Regret Quitting Astrophysics","date":"December 17, 2020","dateISO":"2020-12-17T12:17:48.070Z","datetime":"2020-12-17 12:17","tags":["story","Hacker News"],"image":null,"imageAlt":null,"provider":"Hacker News","thirdPartyId":"25444069","url":"https://news.ycombinator.com/item?id=25444069","originalUrl":"http://www.marcelhaas.com/index.php/2020/12/16/i-regret-quitting-astrophysics/","imageRemote":"http://www.marcelhaas.com/wp-content/uploads/2020/12/academic_hat.png","video":null,"channel":null,"channelUrl":null,"author":"petschge","authorUrl":"https://news.ycombinator.com/user?id=petschge","authorImage":null,"authorSlug":null,"score":196,"views":null,"sharedCount":null,"likeCount":null,"sharedContent":null,"parent":{"__typename":"HnJson","localize":[{"title":"我后悔离开了天体物理学","locale":"zh"},{"title":"我後悔離開了天體物理學","locale":"zh-Hant"}]}},{"__typename":"SocialMediaPost","id":"HnPost-25444277","excerpt":"","slug":"/hn/25444277","title":"SaaSy Math: A Resource of SaaS Metrics for Your Startup","date":"December 17, 2020","dateISO":"2020-12-17T12:17:48.070Z","datetime":"2020-12-17 12:17","tags":["story","Hacker News"],"image":null,"imageAlt":null,"provider":"Hacker News","thirdPartyId":"25444277","url":"https://news.ycombinator.com/item?id=25444277","originalUrl":"https://www.talkinsaasy.com/saasy-math","imageRemote":"https://images.unsplash.com/photo-1453733190371-0a9bedd82893?ixid=MXwxMjA3fDB8MHxwaG90by1wYWdlfHx8fGVufDB8fHw%3D&ixlib=rb-1.2.1&auto=format&fit=crop&w=1567&q=80","video":null,"channel":null,"channelUrl":null,"author":"randrews543","authorUrl":"https://news.ycombinator.com/user?id=randrews543","authorImage":null,"authorSlug":null,"score":139,"views":null,"sharedCount":null,"likeCount":null,"sharedContent":null,"parent":{"__typename":"HnJson","localize":[{"title":"SaaSy Math：适用于您的启动的SaaS指标资源","locale":"zh"},{"title":"SaaSy Math：適用於您的啓動的SaaS指標資源","locale":"zh-Hant"}]}},{"__typename":"SocialMediaPost","id":"HnPost-25444294","excerpt":"","slug":"/hn/25444294","title":"Zero to Emacs and Org-roam: a step-by-step guide on Windows 10","date":"December 17, 2020","dateISO":"2020-12-17T12:17:48.070Z","datetime":"2020-12-17 12:17","tags":["story","Hacker News"],"image":null,"imageAlt":null,"provider":"Hacker News","thirdPartyId":"25444294","url":"https://news.ycombinator.com/item?id=25444294","originalUrl":"https://github.com/nobiot/Zero-to-Emacs-and-Org-roam","imageRemote":"https://avatars1.githubusercontent.com/u/12507865?s=400&v=4","video":null,"channel":null,"channelUrl":null,"author":"nanna","authorUrl":"https://news.ycombinator.com/user?id=nanna","authorImage":null,"authorSlug":null,"score":186,"views":null,"sharedCount":null,"likeCount":null,"sharedContent":null,"parent":{"__typename":"HnJson","localize":[{"title":"从零到Emacs和组织漫游：Windows 10上的分步指南","locale":"zh"},{"title":"從零到Emacs和組織漫遊：Windows 10上的分步指南","locale":"zh-Hant"}]}},{"__typename":"SocialMediaPost","id":"HnPost-25444303","excerpt":"","slug":"/hn/25444303","title":"FDA authorizes rapid, at-home coronavirus test","date":"December 17, 2020","dateISO":"2020-12-17T12:17:48.070Z","datetime":"2020-12-17 12:17","tags":["story","Hacker News"],"image":null,"imageAlt":null,"provider":"Hacker News","thirdPartyId":"25444303","url":"https://news.ycombinator.com/item?id=25444303","originalUrl":"https://www.axios.com/fda-authorizes-rapid-at-home-coronavirus-test-85012e02-6c4f-4d98-be7d-8334d85a6c4c.html","imageRemote":"https://images.axios.com/MJSu6QSEuNgzNNqMfNLzwKMFBGU=/0x0:1920x1080/1366x768/2020/12/15/1608071820981.jpg","video":null,"channel":null,"channelUrl":null,"author":"KoftaBob","authorUrl":"https://news.ycombinator.com/user?id=KoftaBob","authorImage":null,"authorSlug":null,"score":347,"views":null,"sharedCount":null,"likeCount":null,"sharedContent":null,"parent":{"__typename":"HnJson","localize":[{"title":"FDA授权在家进行快速冠状病毒检测","locale":"zh"},{"title":"FDA授權在家進行快速冠狀病毒檢測","locale":"zh-Hant"}]}},{"__typename":"SocialMediaPost","id":"HnPost-25444358","excerpt":"","slug":"/hn/25444358","title":"The first person in the UK to have air pollution listed as a cause of death","date":"December 17, 2020","dateISO":"2020-12-17T12:17:48.070Z","datetime":"2020-12-17 12:17","tags":["story","Hacker News"],"image":null,"imageAlt":null,"provider":"Hacker News","thirdPartyId":"25444358","url":"https://news.ycombinator.com/item?id=25444358","originalUrl":"https://www.bbc.com/news/uk-england-london-55330945","imageRemote":"https://ichef.bbci.co.uk/news/1024/branded_news/8C35/production/_102239853_ella.jpg","video":null,"channel":null,"channelUrl":null,"author":"umaar","authorUrl":"https://news.ycombinator.com/user?id=umaar","authorImage":null,"authorSlug":null,"score":276,"views":null,"sharedCount":null,"likeCount":null,"sharedContent":null,"parent":{"__typename":"HnJson","localize":[{"title":"英国第一个将空气污染列为死因的人","locale":"zh"},{"title":"英國第一個將空氣污染列爲死因的人","locale":"zh-Hant"}]}},{"__typename":"SocialMediaPost","id":"HnPost-25444615","excerpt":"","slug":"/hn/25444615","title":"Amazon Location Service","date":"December 17, 2020","dateISO":"2020-12-17T12:17:48.070Z","datetime":"2020-12-17 12:17","tags":["story","Hacker News"],"image":null,"imageAlt":null,"provider":"Hacker News","thirdPartyId":"25444615","url":"https://news.ycombinator.com/item?id=25444615","originalUrl":"https://aws.amazon.com/blogs/aws/amazon-location-add-maps-and-location-awareness-to-your-applications/","imageRemote":"https://d2908q01vomqb2.cloudfront.net/da4b9237bacccdf19c0760cab7aec4a8359010b0/2020/12/16/Amazon-Location-Services-1.jpg","video":null,"channel":null,"channelUrl":null,"author":"jeffbarr","authorUrl":"https://news.ycombinator.com/user?id=jeffbarr","authorImage":null,"authorSlug":null,"score":279,"views":null,"sharedCount":null,"likeCount":null,"sharedContent":null,"parent":{"__typename":"HnJson","localize":[{"title":"亚马逊位置服务","locale":"zh"},{"title":"亞馬遜位置服務","locale":"zh-Hant"}]}},{"__typename":"SocialMediaPost","id":"HnPost-25444959","excerpt":"","slug":"/hn/25444959","title":"Nearly 8M Americans have fallen into poverty since summer","date":"December 17, 2020","dateISO":"2020-12-17T12:17:48.070Z","datetime":"2020-12-17 12:17","tags":["story","Hacker News"],"image":null,"imageAlt":null,"provider":"Hacker News","thirdPartyId":"25444959","url":"https://news.ycombinator.com/item?id=25444959","originalUrl":"https://www.washingtonpost.com/business/2020/12/16/poverty-rising/","imageRemote":"https://www.washingtonpost.com/wp-apps/imrs.php?src=https://arc-anglerfish-washpost-prod-washpost.s3.amazonaws.com/public/P7EZ4PBMKQI6XHBBHTCQDUEYD4.jpg&w=1440","video":null,"channel":null,"channelUrl":null,"author":"tempsy","authorUrl":"https://news.ycombinator.com/user?id=tempsy","authorImage":null,"authorSlug":null,"score":125,"views":null,"sharedCount":null,"likeCount":null,"sharedContent":null,"parent":{"__typename":"HnJson","localize":[{"title":"自夏季以来，已有近800万美国人陷入贫困。","locale":"zh"},{"title":"自夏季以來，已有近800萬美國人陷入貧困。","locale":"zh-Hant"}]}}]}},"pageContext":{"basePath":"/","pageType":"tag","tag":"story","tagsFilter":{"id":{"glob":"!*Post-1"}},"filter":{"id":{"glob":"!*Post-1"},"tags":{"eq":"story"}},"limit":25,"skip":750,"total":798,"totalPages":32,"currentPage":31,"maxWidth":1024,"maxHeight":512,"locale":"zh","hrefLang":"zh-Hans","originalPath":"/tags/story/page/31","dateFormat":"YYYY-MM-DD"}},"staticQueryHashes":["1239077767","1684688348","2506312863","2744905544","3493603132","3493603132","386998304"]}