{"componentChunkName":"component---gatsby-theme-buzzing-src-gatsby-theme-timeline-templates-posts-query-js","path":"/en/tags/show-hn/page/2","result":{"data":{"site":{"siteMetadata":{"title":"Reddit 热门","description":"用中文浏览Reddit热门内容","social":[{"name":"Twitter","url":"https://twitter.com/gatsbyjs","external":null,"prefetch":null},{"name":"GitHub","url":"https://github.com/gatsbyjs","external":null,"prefetch":null}],"menuLinks":[],"localize":[{"locale":"en","title":"Buzzing on Reddit","description":"See what's buzzing on Reddit in your native language","social":[{"name":"Reddit","url":"https://www.reddit.com/","external":true,"prefetch":null}],"menuLinks":[{"name":"Weekly Selection","url":"/issues","external":null,"prefetch":null},{"name":"RSS","url":"/rss.xml","external":null,"prefetch":false}]},{"locale":"zh-Hant","title":"Reddit 熱門","description":"用中文瀏覽Reddit熱門內容","social":null,"menuLinks":null}]}},"tagsGroup":{"group":[{"fieldValue":"ASK HN","totalCount":44},{"fieldValue":"Bitcoin","totalCount":4},{"fieldValue":"Hacker News","totalCount":2600},{"fieldValue":"Poll","totalCount":1},{"fieldValue":"SaveAMC","totalCount":1},{"fieldValue":"Show HN","totalCount":89},{"fieldValue":"bitcoin","totalCount":3},{"fieldValue":"investing","totalCount":797},{"fieldValue":"poll","totalCount":1},{"fieldValue":"reddit","totalCount":4938},{"fieldValue":"science","totalCount":1},{"fieldValue":"stocks","totalCount":1592},{"fieldValue":"story","totalCount":2599},{"fieldValue":"tweet","totalCount":814},{"fieldValue":"wallstreetbets","totalCount":2549}]},"allBlogPost":{"nodes":[{"__typename":"SocialMediaPost","id":"HnPost-26134915","excerpt":"","slug":"/hn/26134915","title":"Show HN: Khan-dl – Khan Academy Course Downloader","date":"February 14, 2021","dateISO":"2021-02-14T22:42:58.040Z","datetime":"2021-02-14 22:42","tags":["story","Show HN","Hacker News"],"image":null,"imageAlt":null,"provider":"Hacker News","thirdPartyId":"26134915","url":"https://news.ycombinator.com/item?id=26134915","originalUrl":"https://github.com/rand-net/khan-dl","imageRemote":"https://avatars.githubusercontent.com/u/34341872?s=400&v=4","video":null,"channel":"Show HN","channelUrl":"https://news.ycombinator.com/show","author":"rand_net","authorUrl":"https://news.ycombinator.com/user?id=rand_net","authorImage":null,"authorSlug":null,"score":472,"views":null,"sharedCount":null,"likeCount":null,"sharedContent":null,"parent":{"__typename":"HnJson","localize":[{"title":"显示HN：Khan-dl - 可汗学院课程下载器。","locale":"zh"},{"title":"顯示HN：Khan-dl - 可汗學院課程下載器。","locale":"zh-Hant"}]}},{"__typename":"SocialMediaPost","id":"HnPost-26128388","excerpt":"","slug":"/hn/26128388","title":"Show HN: M1 Chart – The stock market adjusted for the US-dollar money supply","date":"February 14, 2021","dateISO":"2021-02-14T05:29:43.719Z","datetime":"2021-02-14 05:29","tags":["story","Show HN","Hacker News"],"image":null,"imageAlt":null,"provider":"Hacker News","thirdPartyId":"26128388","url":"https://news.ycombinator.com/item?id=26128388","originalUrl":"https://m1chart.com/?ref=hn","imageRemote":"https://m1chart.com/assets/social.png?1613258495","video":null,"channel":"Show HN","channelUrl":"https://news.ycombinator.com/show","author":"pieterhg","authorUrl":"https://news.ycombinator.com/user?id=pieterhg","authorImage":null,"authorSlug":null,"score":205,"views":null,"sharedCount":null,"likeCount":null,"sharedContent":null,"parent":{"__typename":"HnJson","localize":[{"title":"显示HN：M1图--股市调整后的美圆货币供应量","locale":"zh"},{"title":"顯示HN：M1圖--股市調整後的美圓貨幣供應量","locale":"zh-Hant"}]}},{"__typename":"SocialMediaPost","id":"HnPost-26118756","excerpt":"","slug":"/hn/26118756","title":"Show HN: Search inside YouTube videos using natural language queries","date":"February 13, 2021","dateISO":"2021-02-13T08:52:50.969Z","datetime":"2021-02-13 08:52","tags":["story","Show HN","Hacker News"],"image":null,"imageAlt":null,"provider":"Hacker News","thirdPartyId":"26118756","url":"https://news.ycombinator.com/item?id=26118756","originalUrl":"https://github.com/haltakov/natural-language-youtube-search","imageRemote":"https://repository-images.githubusercontent.com/335095422/b964b080-6cbb-11eb-812b-cadbab4bae19","video":null,"channel":"Show HN","channelUrl":"https://news.ycombinator.com/show","author":"vladoh","authorUrl":"https://news.ycombinator.com/user?id=vladoh","authorImage":null,"authorSlug":null,"score":261,"views":null,"sharedCount":null,"likeCount":null,"sharedContent":null,"parent":{"__typename":"HnJson","localize":[{"title":"显示HN：使用自然语言查询在YouTube视频内搜索。","locale":"zh"},{"title":"顯示HN：使用自然語言查詢在YouTube視頻內搜索。","locale":"zh-Hant"}]}},{"__typename":"SocialMediaPost","id":"HnPost-26087892","excerpt":"","slug":"/hn/26087892","title":"Show HN: I wrote an entire book to build a mouseless dev environment","date":"February 11, 2021","dateISO":"2021-02-11T05:49:22.846Z","datetime":"2021-02-11 05:49","tags":["story","Show HN","Hacker News"],"image":null,"imageAlt":null,"provider":"Hacker News","thirdPartyId":"26087892","url":"https://news.ycombinator.com/item?id=26087892","originalUrl":"https://themouseless.dev/","imageRemote":"https://themouseless.dev/images/book_cover_mouseless_2_300.jpg","video":null,"channel":"Show HN","channelUrl":"https://news.ycombinator.com/show","author":"thanato0s","authorUrl":"https://news.ycombinator.com/user?id=thanato0s","authorImage":null,"authorSlug":null,"score":337,"views":null,"sharedCount":null,"likeCount":null,"sharedContent":null,"parent":{"__typename":"HnJson","localize":[{"title":"显示HN：我写了整整一本书来构建一个无鼠标的开发环境。","locale":"zh"},{"title":"顯示HN：我寫了整整一本書來構建一個無鼠標的開發環境。","locale":"zh-Hant"}]}},{"__typename":"SocialMediaPost","id":"HnPost-26066340","excerpt":"","slug":"/hn/26066340","title":"Show HN: \"Programming Algorithms in Lisp” Book","date":"February 08, 2021","dateISO":"2021-02-08T23:32:12.847Z","datetime":"2021-02-08 23:32","tags":["story","Show HN","Hacker News"],"image":null,"imageAlt":null,"provider":"Hacker News","thirdPartyId":"26066340","url":"https://news.ycombinator.com/item?id=26066340","originalUrl":"https://www.apress.com/gp/book/9781484264270","imageRemote":"https://images.springer.com/sgw/books/medium/9781484264270.jpg","video":null,"channel":"Show HN","channelUrl":"https://news.ycombinator.com/show","author":"vseloved","authorUrl":"https://news.ycombinator.com/user?id=vseloved","authorImage":null,"authorSlug":null,"score":232,"views":null,"sharedCount":null,"likeCount":null,"sharedContent":null,"parent":{"__typename":"HnJson","localize":[{"title":"出示HN：《Lisp编程算法》一书","locale":"zh"},{"title":"出示HN：《Lisp編程算法》一書","locale":"zh-Hant"}]}},{"__typename":"SocialMediaPost","id":"HnPost-26069621","excerpt":"","slug":"/hn/26069621","title":"Show HN: Clerk – all of user management as-a-service, not just authentication","date":"February 08, 2021","dateISO":"2021-02-08T21:58:04.534Z","datetime":"2021-02-08 21:58","tags":["story","Show HN","Hacker News"],"image":null,"imageAlt":null,"provider":"Hacker News","thirdPartyId":"26069621","url":"https://news.ycombinator.com/item?id=26069621","originalUrl":"https://clerk.dev/blog/all-of-user-management-not-just-authentication","imageRemote":"https://uploads-ssl.webflow.com/5fd7bfc6e6f1ce2fd6ab58c5/6019dff6fd671523538092e1_blog-clerk.png","video":null,"channel":"Show HN","channelUrl":"https://news.ycombinator.com/show","author":"colinclerk","authorUrl":"https://news.ycombinator.com/user?id=colinclerk","authorImage":null,"authorSlug":null,"score":579,"views":null,"sharedCount":null,"likeCount":null,"sharedContent":null,"parent":{"__typename":"HnJson","localize":[{"title":"显示HN：办事器--所有的用户管理即服务，而不仅仅是身份验证","locale":"zh"},{"title":"顯示HN：辦事器--所有的用戶管理即服務，而不僅僅是身份驗證","locale":"zh-Hant"}]}},{"__typename":"SocialMediaPost","id":"HnPost-26056052","excerpt":"","slug":"/hn/26056052","title":"Show HN: Stamp turns a folder into a plain text file and a file into a folder","date":"February 08, 2021","dateISO":"2021-02-08T03:23:01.741Z","datetime":"2021-02-08 03:23","tags":["story","Show HN","Hacker News"],"image":null,"imageAlt":null,"provider":"Hacker News","thirdPartyId":"26056052","url":"https://news.ycombinator.com/item?id=26056052","originalUrl":"https://github.com/treenotation/jtree/tree/master/langs/stamp","imageRemote":"https://avatars.githubusercontent.com/u/51207659?s=400&v=4","video":null,"channel":"Show HN","channelUrl":"https://news.ycombinator.com/show","author":"breck","authorUrl":"https://news.ycombinator.com/user?id=breck","authorImage":null,"authorSlug":null,"score":195,"views":null,"sharedCount":null,"likeCount":null,"sharedContent":null,"parent":{"__typename":"HnJson","localize":[{"title":"出示HN：印章把文件夹变成纯文本文件，把文件变成文件夹。","locale":"zh"},{"title":"出示HN：印章把文件夾變成純文本文件，把文件變成文件夾。","locale":"zh-Hant"}]}},{"__typename":"SocialMediaPost","id":"HnPost-26048946","excerpt":"","slug":"/hn/26048946","title":"Show HN: You-tldr – easy-to-read transcripts of Youtube videos","date":"February 07, 2021","dateISO":"2021-02-07T12:36:45.454Z","datetime":"2021-02-07 12:36","tags":["story","Show HN","Hacker News"],"image":null,"imageAlt":null,"provider":"Hacker News","thirdPartyId":"26048946","url":"https://news.ycombinator.com/item?id=26048946","originalUrl":"https://you-tldr.com/","imageRemote":null,"video":null,"channel":"Show HN","channelUrl":"https://news.ycombinator.com/show","author":"bilater","authorUrl":"https://news.ycombinator.com/user?id=bilater","authorImage":null,"authorSlug":null,"score":187,"views":null,"sharedCount":null,"likeCount":null,"sharedContent":null,"parent":{"__typename":"HnJson","localize":[{"title":"显示HN：You-tldr - 易于阅读的Youtube视频转录。","locale":"zh"},{"title":"顯示HN：You-tldr - 易於閱讀的Youtube視頻轉錄。","locale":"zh-Hant"}]}},{"__typename":"SocialMediaPost","id":"HnPost-26048800","excerpt":"","slug":"/hn/26048800","title":"Show HN: LibreTranslate – Open-source neural machine translation API","date":"February 07, 2021","dateISO":"2021-02-07T05:30:01.067Z","datetime":"2021-02-07 05:30","tags":["story","Show HN","Hacker News"],"image":null,"imageAlt":null,"provider":"Hacker News","thirdPartyId":"26048800","url":"https://news.ycombinator.com/item?id=26048800","originalUrl":"https://libretranslate.com/","imageRemote":"https://user-images.githubusercontent.com/1951843/102724116-32a6df00-42db-11eb-8cc0-129ab39cdfb5.png","video":null,"channel":"Show HN","channelUrl":"https://news.ycombinator.com/show","author":"pjfin123","authorUrl":"https://news.ycombinator.com/user?id=pjfin123","authorImage":null,"authorSlug":null,"score":215,"views":null,"sharedCount":null,"likeCount":null,"sharedContent":null,"parent":{"__typename":"HnJson","localize":[{"title":"显示 HN: LibreTranslate - 开源神经机器翻译 API","locale":"zh"},{"title":"顯示 HN: LibreTranslate - 開源神經機器翻譯 API","locale":"zh-Hant"}]}},{"__typename":"SocialMediaPost","id":"HnPost-26048993","excerpt":"","slug":"/hn/26048993","title":"Show HN: Epub.to – ePub to pdf, mobi, Kindle, and an API","date":"February 07, 2021","dateISO":"2021-02-07T04:58:37.198Z","datetime":"2021-02-07 04:58","tags":["story","Show HN","Hacker News"],"image":null,"imageAlt":null,"provider":"Hacker News","thirdPartyId":"26048993","url":"https://news.ycombinator.com/item?id=26048993","originalUrl":"https://epub.to","imageRemote":"https://epub.to/static/epub.png","video":null,"channel":"Show HN","channelUrl":"https://news.ycombinator.com/show","author":"nadermx","authorUrl":"https://news.ycombinator.com/user?id=nadermx","authorImage":null,"authorSlug":null,"score":245,"views":null,"sharedCount":null,"likeCount":null,"sharedContent":null,"parent":{"__typename":"HnJson","localize":[{"title":"显示HN：Epub.to - 电子书到pdf，mobi，Kindle，和一个API。","locale":"zh"},{"title":"顯示HN：Epub.to - 電子書到pdf，mobi，Kindle，和一個API。","locale":"zh-Hant"}]}},{"__typename":"SocialMediaPost","id":"HnPost-26042463","excerpt":"","slug":"/hn/26042463","title":"Show HN: Ht – HTTPie Clone in Rust","date":"February 06, 2021","dateISO":"2021-02-06T10:44:45.483Z","datetime":"2021-02-06 10:44","tags":["story","Show HN","Hacker News"],"image":null,"imageAlt":null,"provider":"Hacker News","thirdPartyId":"26042463","url":"https://news.ycombinator.com/item?id=26042463","originalUrl":"https://github.com/ducaale/ht","imageRemote":"https://avatars.githubusercontent.com/u/16341131?s=400&v=4","video":null,"channel":"Show HN","channelUrl":"https://news.ycombinator.com/show","author":"ducaale","authorUrl":"https://news.ycombinator.com/user?id=ducaale","authorImage":null,"authorSlug":null,"score":250,"views":null,"sharedCount":null,"likeCount":null,"sharedContent":null,"parent":{"__typename":"HnJson","localize":[{"title":"显示HN：Ht - Rust中的HTTPie克隆。","locale":"zh"},{"title":"顯示HN：Ht - Rust中的HTTPie克隆。","locale":"zh-Hant"}]}},{"__typename":"SocialMediaPost","id":"HnPost-26038501","excerpt":"","slug":"/hn/26038501","title":"Show HN: Remarkbox – Hosted comments without ads or tracking","date":"February 06, 2021","dateISO":"2021-02-06T01:19:23.354Z","datetime":"2021-02-06 01:19","tags":["story","Show HN","Hacker News"],"image":null,"imageAlt":null,"provider":"Hacker News","thirdPartyId":"26038501","url":"https://news.ycombinator.com/item?id=26038501","originalUrl":"https://www.remarkbox.com/remarkbox-is-now-pay-what-you-can.html","imageRemote":"https://www.remarkbox.com/remarkbox-minified.png","video":null,"channel":"Show HN","channelUrl":"https://news.ycombinator.com/show","author":"foxhop","authorUrl":"https://news.ycombinator.com/user?id=foxhop","authorImage":null,"authorSlug":null,"score":232,"views":null,"sharedCount":null,"likeCount":null,"sharedContent":null,"parent":{"__typename":"HnJson","localize":[{"title":"显示 HN: Remarkbox - 无广告或跟踪的托管评论。","locale":"zh"},{"title":"顯示 HN: Remarkbox - 無廣告或跟蹤的託管評論。","locale":"zh-Hant"}]}},{"__typename":"SocialMediaPost","id":"HnPost-26018098","excerpt":"","slug":"/hn/26018098","title":"Show HN: YTT Tech – My curated database of instructional YouTube Videos","date":"February 04, 2021","dateISO":"2021-02-04T11:00:44.770Z","datetime":"2021-02-04 11:00","tags":["story","Show HN","Hacker News"],"image":null,"imageAlt":null,"provider":"Hacker News","thirdPartyId":"26018098","url":"https://news.ycombinator.com/item?id=26018098","originalUrl":"https://ytt-tech.com","imageRemote":null,"video":null,"channel":"Show HN","channelUrl":"https://news.ycombinator.com/show","author":"jrowen","authorUrl":"https://news.ycombinator.com/user?id=jrowen","authorImage":null,"authorSlug":null,"score":205,"views":null,"sharedCount":null,"likeCount":null,"sharedContent":null,"parent":{"__typename":"HnJson","localize":[{"title":"显示 HN：YTT Tech - 我策划的YouTube教学视频数据库。","locale":"zh"},{"title":"顯示 HN：YTT Tech - 我策劃的YouTube教學視頻數據庫。","locale":"zh-Hant"}]}},{"__typename":"SocialMediaPost","id":"HnPost-26006731","excerpt":"","slug":"/hn/26006731","title":"Show HN: Archivy – Extensible Self Hosted Knowledge Base – v1 Release","date":"February 03, 2021","dateISO":"2021-02-03T16:47:25.900Z","datetime":"2021-02-03 16:47","tags":["story","Show HN","Hacker News"],"image":null,"imageAlt":null,"provider":"Hacker News","thirdPartyId":"26006731","url":"https://news.ycombinator.com/item?id=26006731","originalUrl":"https://archivy.github.io","imageRemote":"https://archivy.github.io/img/logo.png","video":null,"channel":"Show HN","channelUrl":"https://news.ycombinator.com/show","author":"etherio","authorUrl":"https://news.ycombinator.com/user?id=etherio","authorImage":null,"authorSlug":null,"score":173,"views":null,"sharedCount":null,"likeCount":null,"sharedContent":null,"parent":{"__typename":"HnJson","localize":[{"title":"显示 HN: Archivy - 可扩展的自助式知识库 - v1 版本","locale":"zh"},{"title":"顯示 HN: Archivy - 可擴展的自助式知識庫 - v1 版本","locale":"zh-Hant"}]}},{"__typename":"SocialMediaPost","id":"HnPost-26013715","excerpt":"","slug":"/hn/26013715","title":"Show HN: Haven – Run a private website to share with only the people you choose","date":"February 03, 2021","dateISO":"2021-02-03T16:47:25.900Z","datetime":"2021-02-03 16:47","tags":["story","Show HN","Hacker News"],"image":null,"imageAlt":null,"provider":"Hacker News","thirdPartyId":"26013715","url":"https://news.ycombinator.com/item?id=26013715","originalUrl":"https://havenweb.org/","imageRemote":"https://havenweb.org/undraw_content_creator_xeju.svg","video":null,"channel":"Show HN","channelUrl":"https://news.ycombinator.com/show","author":"mawise","authorUrl":"https://news.ycombinator.com/user?id=mawise","authorImage":null,"authorSlug":null,"score":534,"views":null,"sharedCount":null,"likeCount":null,"sharedContent":null,"parent":{"__typename":"HnJson","localize":[{"title":"显示HN：Haven - 运行一个私人网站，只与您选择的人分享。","locale":"zh"},{"title":"顯示HN：Haven - 運行一個私人網站，只與您選擇的人分享。","locale":"zh-Hant"}]}},{"__typename":"SocialMediaPost","id":"HnPost-25967641","excerpt":"","slug":"/hn/25967641","title":"Show HN: Collection of deep learning implementations with side-by-side notes","date":"January 30, 2021","dateISO":"2021-01-30T18:07:54.074Z","datetime":"2021-01-30 18:07","tags":["story","Show HN","Hacker News"],"image":null,"imageAlt":null,"provider":"Hacker News","thirdPartyId":"25967641","url":"https://news.ycombinator.com/item?id=25967641","originalUrl":"https://nn.labml.ai","imageRemote":"https://avatars1.githubusercontent.com/u/64068543?s=400&v=4","video":null,"channel":"Show HN","channelUrl":"https://news.ycombinator.com/show","author":"vpj","authorUrl":"https://news.ycombinator.com/user?id=vpj","authorImage":null,"authorSlug":null,"score":251,"views":null,"sharedCount":null,"likeCount":null,"sharedContent":null,"parent":{"__typename":"HnJson","localize":[{"title":"显示HN：深度学习实现的集合与侧记","locale":"zh"},{"title":"顯示HN：深度學習實現的集合與側記","locale":"zh-Hant"}]}},{"__typename":"SocialMediaPost","id":"HnPost-25948797","excerpt":"","slug":"/hn/25948797","title":"Show HN: A usable eBook reader inside a browser (azw3, mobi, ePub, pdf)","date":"January 29, 2021","dateISO":"2021-01-29T02:44:11.478Z","datetime":"2021-01-29 02:44","tags":["story","Show HN","Hacker News"],"image":null,"imageAlt":null,"provider":"Hacker News","thirdPartyId":"25948797","url":"https://news.ycombinator.com/item?id=25948797","originalUrl":"https://www.loudreader.com","imageRemote":null,"video":null,"channel":"Show HN","channelUrl":"https://news.ycombinator.com/show","author":"javapnews","authorUrl":"https://news.ycombinator.com/user?id=javapnews","authorImage":null,"authorSlug":null,"score":294,"views":null,"sharedCount":null,"likeCount":null,"sharedContent":null,"parent":{"__typename":"HnJson","localize":[{"title":"显示 HN：浏览器内的可用电子书阅读器 (azw3, mobi, ePub, pdf)","locale":"zh"},{"title":"顯示 HN：瀏覽器內的可用電子書閱讀器 (azw3, mobi, ePub, pdf)","locale":"zh-Hant"}]}},{"__typename":"SocialMediaPost","id":"HnPost-25936042","excerpt":"","slug":"/hn/25936042","title":"Show HN: Reddit Wallstreetbets Top Leaderboard","date":"January 28, 2021","dateISO":"2021-01-28T21:57:18.629Z","datetime":"2021-01-28 21:57","tags":["story","Show HN","Hacker News"],"image":null,"imageAlt":null,"provider":"Hacker News","thirdPartyId":"25936042","url":"https://news.ycombinator.com/item?id=25936042","originalUrl":"https://stonks.news/wsb/summary/","imageRemote":null,"video":null,"channel":"Show HN","channelUrl":"https://news.ycombinator.com/show","author":"vthallam","authorUrl":"https://news.ycombinator.com/user?id=vthallam","authorImage":null,"authorSlug":null,"score":234,"views":null,"sharedCount":null,"likeCount":null,"sharedContent":null,"parent":{"__typename":"HnJson","localize":[{"title":"显示HN：Reddit Wallstreetbets顶级排行榜。","locale":"zh"},{"title":"顯示HN：Reddit Wallstreetbets頂級排行榜。","locale":"zh-Hant"}]}},{"__typename":"SocialMediaPost","id":"HnPost-25892889","excerpt":"","slug":"/hn/25892889","title":"Show HN: Sokyokuban, a puzzle game in a non-Euclidian world","date":"January 25, 2021","dateISO":"2021-01-25T14:12:39.245Z","datetime":"2021-01-25 14:12","tags":["story","Show HN","Hacker News"],"image":null,"imageAlt":null,"provider":"Hacker News","thirdPartyId":"25892889","url":"https://news.ycombinator.com/item?id=25892889","originalUrl":"https://sokyokuban.com/","imageRemote":"https://sokyokuban.com/sculpture.38fd0393.png","video":null,"channel":"Show HN","channelUrl":"https://news.ycombinator.com/show","author":"jaspervdj","authorUrl":"https://news.ycombinator.com/user?id=jaspervdj","authorImage":null,"authorSlug":null,"score":167,"views":null,"sharedCount":null,"likeCount":null,"sharedContent":null,"parent":{"__typename":"HnJson","localize":[{"title":"展示HN：非欧几里得世界里的解谜游戏Sokyokuban。","locale":"zh"},{"title":"展示HN：非歐幾里得世界裏的解謎遊戲Sokyokuban。","locale":"zh-Hant"}]}},{"__typename":"SocialMediaPost","id":"HnPost-25889420","excerpt":"","slug":"/hn/25889420","title":"Show HN: Full text search Project Gutenberg (60m paragraphs)","date":"January 24, 2021","dateISO":"2021-01-24T19:30:30.343Z","datetime":"2021-01-24 19:30","tags":["story","Show HN","Hacker News"],"image":null,"imageAlt":null,"provider":"Hacker News","thirdPartyId":"25889420","url":"https://news.ycombinator.com/item?id=25889420","originalUrl":"https://gutensearch.com/","imageRemote":null,"video":null,"channel":"Show HN","channelUrl":"https://news.ycombinator.com/show","author":"gutensearch","authorUrl":"https://news.ycombinator.com/user?id=gutensearch","authorImage":null,"authorSlug":null,"score":173,"views":null,"sharedCount":null,"likeCount":null,"sharedContent":null,"parent":{"__typename":"HnJson","localize":[{"title":"显示HN：全文检索Project Gutenberg(60m段)","locale":"zh"},{"title":"顯示HN：全文檢索Project Gutenberg(60m段)","locale":"zh-Hant"}]}},{"__typename":"SocialMediaPost","id":"HnPost-25885760","excerpt":"","slug":"/hn/25885760","title":"Show HN: Filmulator – a streamlined, open-source raw photo editor","date":"January 24, 2021","dateISO":"2021-01-24T05:25:47.043Z","datetime":"2021-01-24 05:25","tags":["story","Show HN","Hacker News"],"image":null,"imageAlt":null,"provider":"Hacker News","thirdPartyId":"25885760","url":"https://news.ycombinator.com/item?id=25885760","originalUrl":"https://filmulator.org/v0-11-0/","imageRemote":"https://filmulator.org/images/filmulator512icon.png","video":null,"channel":"Show HN","channelUrl":"https://news.ycombinator.com/show","author":"CarVac","authorUrl":"https://news.ycombinator.com/user?id=CarVac","authorImage":null,"authorSlug":null,"score":174,"views":null,"sharedCount":null,"likeCount":null,"sharedContent":null,"parent":{"__typename":"HnJson","localize":[{"title":"显示HN：Filmulator--一个精简的、开源的原始照片编辑器。","locale":"zh"},{"title":"顯示HN：Filmulator--一個精簡的、開源的原始照片編輯器。","locale":"zh-Hant"}]}},{"__typename":"SocialMediaPost","id":"HnPost-25879238","excerpt":"","slug":"/hn/25879238","title":"Show HN: Rysolv – Fix open source issues, get paid","date":"January 23, 2021","dateISO":"2021-01-23T16:18:39.349Z","datetime":"2021-01-23 16:18","tags":["story","Show HN","Hacker News"],"image":null,"imageAlt":null,"provider":"Hacker News","thirdPartyId":"25879238","url":"https://news.ycombinator.com/item?id=25879238","originalUrl":"https://rysolv.com/issues","imageRemote":null,"video":null,"channel":"Show HN","channelUrl":"https://news.ycombinator.com/show","author":"themanmaran","authorUrl":"https://news.ycombinator.com/user?id=themanmaran","authorImage":null,"authorSlug":null,"score":203,"views":null,"sharedCount":null,"likeCount":null,"sharedContent":null,"parent":{"__typename":"HnJson","localize":[{"title":"显示HN：Rysolv - 修复开源问题，获得报酬。","locale":"zh"},{"title":"顯示HN：Rysolv - 修復開源問題，獲得報酬。","locale":"zh-Hant"}]}},{"__typename":"SocialMediaPost","id":"HnPost-25870482","excerpt":"","slug":"/hn/25870482","title":"Show HN: 128-bit, roughly-ordered, URL-safe UUIDs","date":"January 23, 2021","dateISO":"2021-01-23T04:04:32.275Z","datetime":"2021-01-23 04:04","tags":["story","Show HN","Hacker News"],"image":null,"imageAlt":null,"provider":"Hacker News","thirdPartyId":"25870482","url":"https://news.ycombinator.com/item?id=25870482","originalUrl":"https://github.com/anthonynsimon/timeflake","imageRemote":"https://avatars.githubusercontent.com/u/13251079?s=400&v=4","video":null,"channel":"Show HN","channelUrl":"https://news.ycombinator.com/show","author":"amzans","authorUrl":"https://news.ycombinator.com/user?id=amzans","authorImage":null,"authorSlug":null,"score":181,"views":null,"sharedCount":null,"likeCount":null,"sharedContent":null,"parent":{"__typename":"HnJson","localize":[{"title":"HN新产品：128位，粗略排序，URL安全的UUID。","locale":"zh"},{"title":"HN新產品：128位，粗略排序，URL安全的UUID。","locale":"zh-Hant"}]}},{"__typename":"SocialMediaPost","id":"HnPost-25872922","excerpt":"","slug":"/hn/25872922","title":"Show HN: Iconduck – 100k open source icons, downloadable and searchable","date":"January 22, 2021","dateISO":"2021-01-22T19:33:47.939Z","datetime":"2021-01-22 19:33","tags":["story","Show HN","Hacker News"],"image":null,"imageAlt":null,"provider":"Hacker News","thirdPartyId":"25872922","url":"https://news.ycombinator.com/item?id=25872922","originalUrl":"https://iconduck.com/","imageRemote":"https://iconduck.com/external/icons/static/images/og/fallback.png","video":null,"channel":"Show HN","channelUrl":"https://news.ycombinator.com/show","author":"onassar","authorUrl":"https://news.ycombinator.com/user?id=onassar","authorImage":null,"authorSlug":null,"score":233,"views":null,"sharedCount":null,"likeCount":null,"sharedContent":null,"parent":{"__typename":"HnJson","localize":[{"title":"HN新产品： Iconduck - 100k开源图标，可下载和搜索。","locale":"zh"},{"title":"HN新產品： Iconduck - 100k開源圖標，可下載和搜索。","locale":"zh-Hant"}]}},{"__typename":"SocialMediaPost","id":"HnPost-25848793","excerpt":"","slug":"/hn/25848793","title":"Show HN: A mindfulness based social network designed to be checked once a week","date":"January 21, 2021","dateISO":"2021-01-21T06:02:50.981Z","datetime":"2021-01-21 06:02","tags":["story","Show HN","Hacker News"],"image":null,"imageAlt":null,"provider":"Hacker News","thirdPartyId":"25848793","url":"https://news.ycombinator.com/item?id=25848793","originalUrl":"https://www.sundayy.app/","imageRemote":"https://www.sundayy.app/assets/meta_image-6ebe63a352870bc14e4f621164fa882fdf67e3787e56c9cdf5d6ca56f2d41faa.png","video":null,"channel":"Show HN","channelUrl":"https://news.ycombinator.com/show","author":"jillianschuller","authorUrl":"https://news.ycombinator.com/user?id=jillianschuller","authorImage":null,"authorSlug":null,"score":205,"views":null,"sharedCount":null,"likeCount":null,"sharedContent":null,"parent":{"__typename":"HnJson","localize":[{"title":"HN新产品：一个基于心态的社交网络，旨在每周检查一次。","locale":"zh"},{"title":"HN新產品：一個基於心態的社交網絡，旨在每週檢查一次。","locale":"zh-Hant"}]}}]}},"pageContext":{"basePath":"/","pageType":"tag","tag":"Show HN","tagsFilter":{"id":{"glob":"!*Post-1"}},"filter":{"id":{"glob":"!*Post-1"},"tags":{"eq":"Show HN"}},"limit":25,"skip":25,"total":89,"totalPages":4,"currentPage":2,"maxWidth":1024,"maxHeight":512,"locale":"en","hrefLang":"en-US","originalPath":"/tags/show-hn/page/2","dateFormat":"MM/DD/YYYY"}},"staticQueryHashes":["1239077767","2506312863","2744905544","3025052997","3493603132","3493603132","3513215887","386998304"]}