{"componentChunkName":"component---gatsby-theme-buzzing-src-gatsby-theme-timeline-templates-posts-query-js","path":"/en/tags/investing/page/31","result":{"data":{"site":{"siteMetadata":{"title":"Reddit 热门","description":"用中文浏览Reddit热门内容","social":[{"name":"Twitter","url":"https://twitter.com/gatsbyjs","external":null,"prefetch":null},{"name":"GitHub","url":"https://github.com/gatsbyjs","external":null,"prefetch":null}],"menuLinks":[],"localize":[{"locale":"en","title":"Buzzing on Reddit","description":"See what's buzzing on Reddit in your native language","social":[{"name":"Reddit","url":"https://www.reddit.com/","external":true,"prefetch":null}],"menuLinks":[{"name":"Weekly Selection","url":"/issues","external":null,"prefetch":null},{"name":"RSS","url":"/rss.xml","external":null,"prefetch":false}]},{"locale":"zh-Hant","title":"Reddit 熱門","description":"用中文瀏覽Reddit熱門內容","social":null,"menuLinks":null}]}},"tagsGroup":{"group":[{"fieldValue":"ASK HN","totalCount":42},{"fieldValue":"Bitcoin","totalCount":4},{"fieldValue":"Hacker News","totalCount":2407},{"fieldValue":"Poll","totalCount":1},{"fieldValue":"SaveAMC","totalCount":1},{"fieldValue":"Show HN","totalCount":81},{"fieldValue":"bitcoin","totalCount":3},{"fieldValue":"investing","totalCount":753},{"fieldValue":"poll","totalCount":1},{"fieldValue":"reddit","totalCount":4523},{"fieldValue":"science","totalCount":1},{"fieldValue":"stocks","totalCount":1482},{"fieldValue":"story","totalCount":2406},{"fieldValue":"tweet","totalCount":767},{"fieldValue":"wallstreetbets","totalCount":2288}]},"allBlogPost":{"nodes":[{"__typename":"SocialMediaPost","id":"RedditPost-kdelzs","excerpt":"https://www.cnbc.com/amp/2020/12/14/virgin-galactic-spce-stock-drops-after-aborted-spaceflight-test.html#click=https://t.co/SNDIXibinR\n\n“The successful triggering of the fail safe scenario should ease investors\nconcerns over the risk of a catastrophic event as SPCE enters commercial\nservice”. -…","slug":"/reddit/r/investing/comments/kdelzs/virgin_galactic_had_to_abort_their_recent_test/","title":"Virgin Galactic had to abort their recent test flight. On the positive side their fail safe systems worked flawlessly.","date":"December 15, 2020","dateISO":"2020-12-15T09:43:24.000Z","datetime":"2020-12-15 09:43","tags":["investing","reddit"],"image":null,"imageAlt":null,"provider":"Reddit","thirdPartyId":"kdelzs","url":"https://www.reddit.com/r/investing/comments/kdelzs/virgin_galactic_had_to_abort_their_recent_test/","originalUrl":"https://www.reddit.com/r/investing/comments/kdelzs/virgin_galactic_had_to_abort_their_recent_test/","imageRemote":null,"video":null,"channel":"investing","channelUrl":"https://www.reddit.com/r/investing","author":"BeBetterthen","authorUrl":"https://www.reddit.com/user/BeBetterthen","authorImage":null,"authorSlug":"BeBetterthen","score":886,"views":null,"sharedCount":null,"likeCount":null,"sharedContent":null,"parent":{"__typename":"RedditJson","localize":[{"title":"维珍银河不得不取消最近的试飞。积极的一面是，他们的故障保险系统工作得无懈可击。","the_new_excerpt":"https://www.cnbc.com/amp/2020/12/14/virgin-galactic-spce-stock-drops-after-aborted-spaceflight-test.html#click=https://t.co/SNDIXibinR\n\n“成功触发故障保险情景应该会让投资者松一口气。\n随着SPCE进入商用，对灾难性事件风险的担忧\n服务“。--…","locale":"zh"},{"title":"維珍銀河不得不取消最近的試飛。積極的一面是，他們的故障保險系統工作得無懈可擊。","the_new_excerpt":"https://www.cnbc.com/amp/2020/12/14/virgin-galactic-spce-stock-drops-after-aborted-spaceflight-test.html#click=https://t.co/SNDIXibinR\n\n“成功觸發故障保險情景應該會讓投資者鬆一口氣。\n隨着SPCE進入商用，對災難性事件風險的擔憂\n服務“。--…","locale":"zh-Hant"}]}},{"__typename":"SocialMediaPost","id":"RedditPost-kcyb2f","excerpt":"Industry Overview\n\nDomino’s competes in the quick-service restaurant (QSR) pizza industry with\nvarious competitors. The U.S. market is estimated to be ~$37.8bn and steadily\ngrowing. This is the second-largest category in the broader $279bn QSR market.\nThe QSR pizza industry is primarily comprised of…","slug":"/reddit/r/investing/comments/kcyb2f/dominos_pizza_analysis_nyse_dpz/","title":"Domino's Pizza Analysis (NYSE: DPZ)","date":"December 15, 2020","dateISO":"2020-12-15T07:08:29.000Z","datetime":"2020-12-15 07:08","tags":["investing","reddit"],"image":null,"imageAlt":null,"provider":"Reddit","thirdPartyId":"kcyb2f","url":"https://www.reddit.com/r/investing/comments/kcyb2f/dominos_pizza_analysis_nyse_dpz/","originalUrl":"https://www.reddit.com/r/investing/comments/kcyb2f/dominos_pizza_analysis_nyse_dpz/","imageRemote":null,"video":null,"channel":"investing","channelUrl":"https://www.reddit.com/r/investing","author":"Career_Regular","authorUrl":"https://www.reddit.com/user/Career_Regular","authorImage":null,"authorSlug":"Career_Regular","score":159,"views":null,"sharedCount":null,"likeCount":null,"sharedContent":null,"parent":{"__typename":"RedditJson","localize":[{"title":"Domino‘s Pizza Analysis(纽约证券交易所代码：DPZ)","the_new_excerpt":"行业概述\n\nDomino‘s在快餐店(QSR)披萨行业与\n各种各样的竞争者。据估计，美国市场规模约为378亿美元，而且稳定\n在成长。在规模更大的2790亿美元QSR市场中，这是第二大类别。\nqsr披萨行业主要由…组成。","locale":"zh"},{"title":"Domino‘s Pizza Analysis(紐約證券交易所代碼：DPZ)","the_new_excerpt":"行業概述\n\nDomino‘s在快餐店(QSR)披薩行業與\n各種各樣的競爭者。據估計，美國市場規模約爲378億美元，而且穩定\n在成長。在規模更大的2790億美元QSR市場中，這是第二大類別。\nqsr披薩行業主要由…組成。","locale":"zh-Hant"}]}},{"__typename":"SocialMediaPost","id":"RedditPost-kd1m9c","excerpt":"I'm pretty new to investing, but I would have thought that Moderna and Pfizer\nstocks would get a big boost having just gotten approval to distribute massive\nquantities of arguably the most important vaccine in living memory. And yet, the\nstocks seem to be declining in value. What would explain this?","slug":"/reddit/r/investing/comments/kd1m9c/with_moderna_and_pfizer_vaccines_being/","title":"With Moderna and Pfizer vaccines being distributed and countries competing over supplies, why do their stocks seem to be not doing much?","date":"December 15, 2020","dateISO":"2020-12-15T07:08:29.000Z","datetime":"2020-12-15 07:08","tags":["investing","reddit"],"image":null,"imageAlt":null,"provider":"Reddit","thirdPartyId":"kd1m9c","url":"https://www.reddit.com/r/investing/comments/kd1m9c/with_moderna_and_pfizer_vaccines_being/","originalUrl":"https://www.reddit.com/r/investing/comments/kd1m9c/with_moderna_and_pfizer_vaccines_being/","imageRemote":null,"video":null,"channel":"investing","channelUrl":"https://www.reddit.com/r/investing","author":"DontHateDefenestrate","authorUrl":"https://www.reddit.com/user/DontHateDefenestrate","authorImage":null,"authorSlug":"DontHateDefenestrate","score":1181,"views":null,"sharedCount":null,"likeCount":null,"sharedContent":null,"parent":{"__typename":"RedditJson","localize":[{"title":"随着现代和辉瑞疫苗的分发，以及各国对供应的竞争，为什么他们的股票似乎没有太大作用？","the_new_excerpt":"我对投资还是个新手，但我本以为摩迪纳和辉瑞\n在刚刚获准大量分销后，股票将得到极大的提振\n可以说是人们记忆中最重要的疫苗的数量。然而，\n股票似乎在贬值。怎么解释这件事呢？","locale":"zh"},{"title":"隨着現代和輝瑞疫苗的分發，以及各國對供應的競爭，爲什麼他們的庫存似乎沒有太大作用？","the_new_excerpt":"我對投資還是個新手，但我本以爲摩迪納和輝瑞\n在剛剛獲准大量分銷後，股票將得到極大的提振\n可以說是人們記憶中最重要的疫苗的數量。然而，\n股票似乎在貶值。怎麼解釋這件事呢？","locale":"zh-Hant"}]}}]}},"pageContext":{"basePath":"/","pageType":"tag","tag":"investing","tagsFilter":{"id":{"glob":"!*Post-1"}},"filter":{"id":{"glob":"!*Post-1"},"tags":{"eq":"investing"}},"limit":25,"skip":750,"total":753,"totalPages":31,"currentPage":31,"maxWidth":1024,"maxHeight":512,"locale":"en","hrefLang":"en-US","originalPath":"/tags/investing/page/31","dateFormat":"MM/DD/YYYY"}},"staticQueryHashes":["1239077767","2506312863","2744905544","3025052997","3493603132","3493603132","3513215887","386998304"]}