{"componentChunkName":"component---gatsby-theme-buzzing-src-gatsby-theme-timeline-templates-posts-query-js","path":"/zh-Hant/tags/ask-hn/page/2","result":{"data":{"site":{"siteMetadata":{"title":"Reddit 热门","description":"用中文浏览Reddit热门内容","social":[{"name":"Twitter","url":"https://twitter.com/gatsbyjs","external":null,"prefetch":null},{"name":"GitHub","url":"https://github.com/gatsbyjs","external":null,"prefetch":null}],"menuLinks":[],"localize":[{"locale":"en","title":"Buzzing on Reddit","description":"See what's buzzing on Reddit in your native language","social":[{"name":"Reddit","url":"https://www.reddit.com/","external":true,"prefetch":null}],"menuLinks":[{"name":"Weekly Selection","url":"/issues","external":null,"prefetch":null},{"name":"RSS","url":"/rss.xml","external":null,"prefetch":false}]},{"locale":"zh-Hant","title":"Reddit 熱門","description":"用中文瀏覽Reddit熱門內容","social":null,"menuLinks":null}]}},"tagsGroup":{"group":[{"fieldValue":"ASK HN","totalCount":36},{"fieldValue":"Bitcoin","totalCount":4},{"fieldValue":"Hacker News","totalCount":2185},{"fieldValue":"Poll","totalCount":1},{"fieldValue":"SaveAMC","totalCount":1},{"fieldValue":"Show HN","totalCount":76},{"fieldValue":"bitcoin","totalCount":3},{"fieldValue":"investing","totalCount":686},{"fieldValue":"poll","totalCount":1},{"fieldValue":"reddit","totalCount":4012},{"fieldValue":"science","totalCount":1},{"fieldValue":"stocks","totalCount":1322},{"fieldValue":"story","totalCount":2184},{"fieldValue":"tweet","totalCount":697},{"fieldValue":"wallstreetbets","totalCount":2004}]},"allBlogPost":{"nodes":[{"__typename":"SocialMediaPost","id":"HnPost-25614966","excerpt":"","slug":"/hn/25614966","title":"Ask HN: Successful one-person online businesses in 2021?","date":"January 02, 2021","dateISO":"2021-01-02T22:07:14.143Z","datetime":"2021-01-02 22:07","tags":["story","ASK HN","Hacker News"],"image":null,"imageAlt":null,"provider":"Hacker News","thirdPartyId":"25614966","url":"https://news.ycombinator.com/item?id=25614966","originalUrl":"https://news.ycombinator.com/item?id=25614966","imageRemote":null,"video":null,"channel":"ASK HN","channelUrl":"https://news.ycombinator.com/ask","author":"codesternews","authorUrl":"https://news.ycombinator.com/user?id=codesternews","authorImage":null,"authorSlug":null,"score":314,"views":null,"sharedCount":null,"likeCount":null,"sharedContent":null,"parent":{"__typename":"HnJson","localize":[{"title":"HN提问：2021年成功的一人在线业务？","locale":"zh"},{"title":"HN提問：2021年成功的一人在線業務？","locale":"zh-Hant"}]}},{"__typename":"SocialMediaPost","id":"HnPost-25594068","excerpt":"","slug":"/hn/25594068","title":"Ask HN: Predictions for 2021?","date":"January 01, 2021","dateISO":"2021-01-01T11:05:04.377Z","datetime":"2021-01-01 11:05","tags":["story","ASK HN","Hacker News"],"image":null,"imageAlt":null,"provider":"Hacker News","thirdPartyId":"25594068","url":"https://news.ycombinator.com/item?id=25594068","originalUrl":"https://news.ycombinator.com/item?id=25594068","imageRemote":null,"video":null,"channel":"ASK HN","channelUrl":"https://news.ycombinator.com/ask","author":"rvz","authorUrl":"https://news.ycombinator.com/user?id=rvz","authorImage":null,"authorSlug":null,"score":260,"views":null,"sharedCount":null,"likeCount":null,"sharedContent":null,"parent":{"__typename":"HnJson","localize":[{"title":"HN提问：对2021年的预测？","locale":"zh"},{"title":"HN提問：對2021年的預測？","locale":"zh-Hant"}]}},{"__typename":"SocialMediaPost","id":"HnPost-25580637","excerpt":"","slug":"/hn/25580637","title":"Ask HN: What's a side project you built to make money that hasn't?","date":"December 30, 2020","dateISO":"2020-12-30T22:01:41.712Z","datetime":"2020-12-30 22:01","tags":["story","ASK HN","Hacker News"],"image":null,"imageAlt":null,"provider":"Hacker News","thirdPartyId":"25580637","url":"https://news.ycombinator.com/item?id=25580637","originalUrl":"https://news.ycombinator.com/item?id=25580637","imageRemote":null,"video":null,"channel":"ASK HN","channelUrl":"https://news.ycombinator.com/ask","author":"notoriousarun","authorUrl":"https://news.ycombinator.com/user?id=notoriousarun","authorImage":null,"authorSlug":null,"score":418,"views":null,"sharedCount":null,"likeCount":null,"sharedContent":null,"parent":{"__typename":"HnJson","localize":[{"title":"HN提问：你为了赚钱而建造的副业是什么？","locale":"zh"},{"title":"HN提問：你爲了賺錢而建造的副業是什麼？","locale":"zh-Hant"}]}},{"__typename":"SocialMediaPost","id":"HnPost-25559571","excerpt":"","slug":"/hn/25559571","title":"Ask HN: What are you surprised isn’t being worked on more?","date":"December 29, 2020","dateISO":"2020-12-29T02:22:35.531Z","datetime":"2020-12-29 02:22","tags":["story","ASK HN","Hacker News"],"image":null,"imageAlt":null,"provider":"Hacker News","thirdPartyId":"25559571","url":"https://news.ycombinator.com/item?id=25559571","originalUrl":"https://news.ycombinator.com/item?id=25559571","imageRemote":null,"video":null,"channel":"ASK HN","channelUrl":"https://news.ycombinator.com/ask","author":"orbOfOrthanc","authorUrl":"https://news.ycombinator.com/user?id=orbOfOrthanc","authorImage":null,"authorSlug":null,"score":456,"views":null,"sharedCount":null,"likeCount":null,"sharedContent":null,"parent":{"__typename":"HnJson","localize":[{"title":"HN提问：有什么让你惊讶的是没有更多的工作？","locale":"zh"},{"title":"HN提問：有什麼讓你驚訝的是沒有更多的工作？","locale":"zh-Hant"}]}},{"__typename":"SocialMediaPost","id":"HnPost-25553818","excerpt":"","slug":"/hn/25553818","title":"Ask HN: Favorite Podcast Episode of 2020?","date":"December 28, 2020","dateISO":"2020-12-28T06:48:44.381Z","datetime":"2020-12-28 06:48","tags":["story","ASK HN","Hacker News"],"image":null,"imageAlt":null,"provider":"Hacker News","thirdPartyId":"25553818","url":"https://news.ycombinator.com/item?id=25553818","originalUrl":"https://news.ycombinator.com/item?id=25553818","imageRemote":null,"video":null,"channel":"ASK HN","channelUrl":"https://news.ycombinator.com/ask","author":"hawktheslayer","authorUrl":"https://news.ycombinator.com/user?id=hawktheslayer","authorImage":null,"authorSlug":null,"score":256,"views":null,"sharedCount":null,"likeCount":null,"sharedContent":null,"parent":{"__typename":"HnJson","localize":[{"title":"HN提问：2020年最喜欢的播客剧集？","locale":"zh"},{"title":"HN提問：2020年最喜歡的播客劇集？","locale":"zh-Hant"}]}},{"__typename":"SocialMediaPost","id":"HnPost-25540583","excerpt":"","slug":"/hn/25540583","title":"Ask HN: What startup/technology is on your 'to watch' list?","date":"December 26, 2020","dateISO":"2020-12-26T07:00:05.356Z","datetime":"2020-12-26 07:00","tags":["story","ASK HN","Hacker News"],"image":null,"imageAlt":null,"provider":"Hacker News","thirdPartyId":"25540583","url":"https://news.ycombinator.com/item?id=25540583","originalUrl":"https://news.ycombinator.com/item?id=25540583","imageRemote":null,"video":null,"channel":"ASK HN","channelUrl":"https://news.ycombinator.com/ask","author":"snowisgone","authorUrl":"https://news.ycombinator.com/user?id=snowisgone","authorImage":null,"authorSlug":null,"score":324,"views":null,"sharedCount":null,"likeCount":null,"sharedContent":null,"parent":{"__typename":"HnJson","localize":[{"title":"HN提问：你的“值得关注”名单上有哪些创业公司/技术？","locale":"zh"},{"title":"HN提問：你的“值得關注”名單上有哪些創業公司/技術？","locale":"zh-Hant"}]}},{"__typename":"SocialMediaPost","id":"HnPost-25538586","excerpt":"","slug":"/hn/25538586","title":"Ask HN: Why does Pinterest dominate Google search results?","date":"December 25, 2020","dateISO":"2020-12-25T20:47:26.434Z","datetime":"2020-12-25 20:47","tags":["story","ASK HN","Hacker News"],"image":null,"imageAlt":null,"provider":"Hacker News","thirdPartyId":"25538586","url":"https://news.ycombinator.com/item?id=25538586","originalUrl":"https://news.ycombinator.com/item?id=25538586","imageRemote":null,"video":null,"channel":"ASK HN","channelUrl":"https://news.ycombinator.com/ask","author":"Winterflow3r","authorUrl":"https://news.ycombinator.com/user?id=Winterflow3r","authorImage":null,"authorSlug":null,"score":688,"views":null,"sharedCount":null,"likeCount":null,"sharedContent":null,"parent":{"__typename":"HnJson","localize":[{"title":"HN提问：为什么Pinterest在谷歌搜索结果中占据主导地位？","locale":"zh"},{"title":"HN提問：爲什麼Pinterest在谷歌搜索結果中佔據主導地位？","locale":"zh-Hant"}]}},{"__typename":"SocialMediaPost","id":"HnPost-25537230","excerpt":"","slug":"/hn/25537230","title":"Ask HN: Best Talks of 2020?","date":"December 25, 2020","dateISO":"2020-12-25T17:16:20.999Z","datetime":"2020-12-25 17:16","tags":["story","ASK HN","Hacker News"],"image":null,"imageAlt":null,"provider":"Hacker News","thirdPartyId":"25537230","url":"https://news.ycombinator.com/item?id=25537230","originalUrl":"https://news.ycombinator.com/item?id=25537230","imageRemote":null,"video":null,"channel":"ASK HN","channelUrl":"https://news.ycombinator.com/ask","author":"sid6376","authorUrl":"https://news.ycombinator.com/user?id=sid6376","authorImage":null,"authorSlug":null,"score":726,"views":null,"sharedCount":null,"likeCount":null,"sharedContent":null,"parent":{"__typename":"HnJson","localize":[{"title":"HN提问：2020年最佳演讲？","locale":"zh"},{"title":"HN提問：2020年最佳演講？","locale":"zh-Hant"}]}},{"__typename":"SocialMediaPost","id":"HnPost-25525457","excerpt":"","slug":"/hn/25525457","title":"Ask HN: What Lived Up to the Hype?","date":"December 24, 2020","dateISO":"2020-12-24T16:04:47.202Z","datetime":"2020-12-24 16:04","tags":["story","ASK HN","Hacker News"],"image":null,"imageAlt":null,"provider":"Hacker News","thirdPartyId":"25525457","url":"https://news.ycombinator.com/item?id=25525457","originalUrl":"https://news.ycombinator.com/item?id=25525457","imageRemote":null,"video":null,"channel":"ASK HN","channelUrl":"https://news.ycombinator.com/ask","author":"karamazov","authorUrl":"https://news.ycombinator.com/user?id=karamazov","authorImage":null,"authorSlug":null,"score":423,"views":null,"sharedCount":null,"likeCount":null,"sharedContent":null,"parent":{"__typename":"HnJson","localize":[{"title":"HN提问：是什么没有辜负炒作？","locale":"zh"},{"title":"HN提問：是什麼沒有辜負炒作？","locale":"zh-Hant"}]}},{"__typename":"SocialMediaPost","id":"HnPost-25506593","excerpt":"","slug":"/hn/25506593","title":"Ask HN: Co-founder wants me to leave but won't entertain a buy out offer","date":"December 22, 2020","dateISO":"2020-12-22T19:06:11.852Z","datetime":"2020-12-22 19:06","tags":["story","ASK HN","Hacker News"],"image":null,"imageAlt":null,"provider":"Hacker News","thirdPartyId":"25506593","url":"https://news.ycombinator.com/item?id=25506593","originalUrl":"https://news.ycombinator.com/item?id=25506593","imageRemote":null,"video":null,"channel":"ASK HN","channelUrl":"https://news.ycombinator.com/ask","author":"fortydegrees","authorUrl":"https://news.ycombinator.com/user?id=fortydegrees","authorImage":null,"authorSlug":null,"score":399,"views":null,"sharedCount":null,"likeCount":null,"sharedContent":null,"parent":{"__typename":"HnJson","localize":[{"title":"HN提问：联合创始人希望我离开，但不会考虑收购要约","locale":"zh"},{"title":"HN提問：聯合創始人希望我離開，但不會考慮收購要約","locale":"zh-Hant"}]}},{"__typename":"SocialMediaPost","id":"HnPost-25441664","excerpt":"","slug":"/hn/25441664","title":"Ask HN: I want to start learning Lisp. Where do I begin?","date":"December 17, 2020","dateISO":"2020-12-17T12:17:48.070Z","datetime":"2020-12-17 12:17","tags":["story","ASK HN","Hacker News"],"image":null,"imageAlt":null,"provider":"Hacker News","thirdPartyId":"25441664","url":"https://news.ycombinator.com/item?id=25441664","originalUrl":"https://news.ycombinator.com/item?id=25441664","imageRemote":null,"video":null,"channel":"ASK HN","channelUrl":"https://news.ycombinator.com/ask","author":"priyanshuraj","authorUrl":"https://news.ycombinator.com/user?id=priyanshuraj","authorImage":null,"authorSlug":null,"score":222,"views":null,"sharedCount":null,"likeCount":null,"sharedContent":null,"parent":{"__typename":"HnJson","localize":[{"title":"问HN：我想开始学习Lisp。我该从哪里开始呢？","locale":"zh"},{"title":"問HN：我想開始學習Lisp。我該從哪裏開始呢？","locale":"zh-Hant"}]}}]}},"pageContext":{"basePath":"/","pageType":"tag","tag":"ASK HN","tagsFilter":{"id":{"glob":"!*Post-1"}},"filter":{"id":{"glob":"!*Post-1"},"tags":{"eq":"ASK HN"}},"limit":25,"skip":25,"total":36,"totalPages":2,"currentPage":2,"maxWidth":1024,"maxHeight":512,"locale":"zh-Hant","hrefLang":"zh-Hant","originalPath":"/tags/ask-hn/page/2","dateFormat":"YYYY-MM-DD"}},"staticQueryHashes":["1239077767","2506312863","2744905544","3025052997","3493603132","3493603132","3513215887","386998304"]}