{"componentChunkName":"component---gatsby-theme-buzzing-src-gatsby-theme-timeline-templates-posts-query-js","path":"/zh-Hant/tags/story/page/34","result":{"data":{"site":{"siteMetadata":{"title":"Reddit 热门","description":"用中文浏览Reddit热门内容","social":[{"name":"Twitter","url":"https://twitter.com/gatsbyjs","external":null,"prefetch":null},{"name":"GitHub","url":"https://github.com/gatsbyjs","external":null,"prefetch":null}],"menuLinks":[],"localize":[{"locale":"en","title":"Buzzing on Reddit","description":"See what's buzzing on Reddit in your native language","social":[{"name":"Reddit","url":"https://www.reddit.com/","external":true,"prefetch":null}],"menuLinks":[{"name":"Weekly Selection","url":"/issues","external":null,"prefetch":null},{"name":"RSS","url":"/rss.xml","external":null,"prefetch":false}]},{"locale":"zh-Hant","title":"Reddit 熱門","description":"用中文瀏覽Reddit熱門內容","social":null,"menuLinks":null}]}},"tagsGroup":{"group":[{"fieldValue":"ASK HN","totalCount":22},{"fieldValue":"Bitcoin","totalCount":3},{"fieldValue":"Hacker News","totalCount":906},{"fieldValue":"Poll","totalCount":1},{"fieldValue":"Show HN","totalCount":34},{"fieldValue":"investing","totalCount":194},{"fieldValue":"poll","totalCount":1},{"fieldValue":"reddit","totalCount":752},{"fieldValue":"science","totalCount":1},{"fieldValue":"stocks","totalCount":330},{"fieldValue":"story","totalCount":905},{"fieldValue":"tweet","totalCount":272},{"fieldValue":"wallstreetbets","totalCount":228}]},"allBlogPost":{"nodes":[{"__typename":"SocialMediaPost","id":"HnPost-25460544","excerpt":"","slug":"/hn/25460544","title":"FreeBSD src repository is transitioning from Subversion to Git this weekend","date":"December 18, 2020","dateISO":"2020-12-18T02:00:40.826Z","datetime":"2020-12-18 02:00","tags":["story","Hacker News"],"image":null,"imageAlt":null,"provider":"Hacker News","thirdPartyId":"25460544","url":"https://news.ycombinator.com/item?id=25460544","originalUrl":"https://lists.freebsd.org/pipermail/freebsd-current/2020-December/077858.html","imageRemote":null,"video":null,"channel":null,"channelUrl":null,"author":"cnst","authorUrl":"https://news.ycombinator.com/user?id=cnst","authorImage":null,"authorSlug":null,"score":212,"views":null,"sharedCount":null,"likeCount":null,"sharedContent":null,"parent":{"__typename":"HnJson","localize":[{"title":"FreeBSD src存储库本周末将从Subversion过渡到Git","locale":"zh"},{"title":"FreeBSD src存儲庫本週末將從Subversion過渡到Git","locale":"zh-Hant"}]}},{"__typename":"SocialMediaPost","id":"HnPost-25458770","excerpt":"","slug":"/hn/25458770","title":"Apple has stopped providing standalone installers for macOS updates","date":"December 18, 2020","dateISO":"2020-12-18T01:05:14.509Z","datetime":"2020-12-18 01:05","tags":["story","Hacker News"],"image":null,"imageAlt":null,"provider":"Hacker News","thirdPartyId":"25458770","url":"https://news.ycombinator.com/item?id=25458770","originalUrl":"https://eclecticlight.co/2020/12/17/apple-has-stopped-providing-standalone-installers-for-macos-updates/","imageRemote":"https://s0.wp.com/i/blank.jpg","video":null,"channel":null,"channelUrl":null,"author":"mrzool","authorUrl":"https://news.ycombinator.com/user?id=mrzool","authorImage":null,"authorSlug":null,"score":289,"views":null,"sharedCount":null,"likeCount":null,"sharedContent":null,"parent":{"__typename":"HnJson","localize":[{"title":"苹果已停止为MacOS更新提供独立安装程序","locale":"zh"},{"title":"蘋果已停止爲MacOS更新提供獨立安裝程序","locale":"zh-Hant"}]}},{"__typename":"SocialMediaPost","id":"HnPost-25459873","excerpt":"","slug":"/hn/25459873","title":"How I Met My Wife (1994)","date":"December 18, 2020","dateISO":"2020-12-18T01:05:14.509Z","datetime":"2020-12-18 01:05","tags":["story","Hacker News"],"image":null,"imageAlt":null,"provider":"Hacker News","thirdPartyId":"25459873","url":"https://news.ycombinator.com/item?id=25459873","originalUrl":"https://www.newyorker.com/magazine/1994/07/25/how-i-met-my-wife","imageRemote":"https://static.cdn.realviewdigital.com/global/content/GetImage.aspx?pguid=FC9071DC-DD99-441F-A727-1B74670350BC&i=1994-07-25&folio=082","video":null,"channel":null,"channelUrl":null,"author":"Lammy","authorUrl":"https://news.ycombinator.com/user?id=Lammy","authorImage":null,"authorSlug":null,"score":217,"views":null,"sharedCount":null,"likeCount":null,"sharedContent":null,"parent":{"__typename":"HnJson","localize":[{"title":"“我是如何认识我的妻子”(1994)","locale":"zh"},{"title":"“我是如何認識我的妻子”(1994)","locale":"zh-Hant"}]}},{"__typename":"SocialMediaPost","id":"HnPost-25460241","excerpt":"","slug":"/hn/25460241","title":"Advanced Persistent Threat Compromise of Government Agencies","date":"December 18, 2020","dateISO":"2020-12-18T01:05:14.509Z","datetime":"2020-12-18 01:05","tags":["story","Hacker News"],"image":null,"imageAlt":null,"provider":"Hacker News","thirdPartyId":"25460241","url":"https://news.ycombinator.com/item?id=25460241","originalUrl":"https://us-cert.cisa.gov/ncas/alerts/aa20-352a","imageRemote":"https://us-cert.cisa.gov/sites/default/files/cert/flag.png","video":null,"channel":null,"channelUrl":null,"author":"GrumpyNl","authorUrl":"https://news.ycombinator.com/user?id=GrumpyNl","authorImage":null,"authorSlug":null,"score":132,"views":null,"sharedCount":null,"likeCount":null,"sharedContent":null,"parent":{"__typename":"HnJson","localize":[{"title":"政府机构的高级持续威胁妥协","locale":"zh"},{"title":"政府機構的高級持續威脅妥協","locale":"zh-Hant"}]}},{"__typename":"SocialMediaPost","id":"HnPost-25458777","excerpt":"","slug":"/hn/25458777","title":"A case study on strict null checks","date":"December 17, 2020","dateISO":"2020-12-17T23:28:44.071Z","datetime":"2020-12-17 23:28","tags":["story","Hacker News"],"image":null,"imageAlt":null,"provider":"Hacker News","thirdPartyId":"25458777","url":"https://news.ycombinator.com/item?id=25458777","originalUrl":"https://www.figma.com/blog/inside-figma-a-case-study-on-strict-null-checks/","imageRemote":"https://images.ctfassets.net/1khq4uysbvty/7IldSHJSuvFmdVql93FA3I/42953d8ace45048ac4e5b9db3cde1796/Tech_Deep_Dive__Strict_Null_Check_Header.png?w=1200&q=80","video":null,"channel":null,"channelUrl":null,"author":"rudi-c","authorUrl":"https://news.ycombinator.com/user?id=rudi-c","authorImage":null,"authorSlug":null,"score":166,"views":null,"sharedCount":null,"likeCount":null,"sharedContent":null,"parent":{"__typename":"HnJson","localize":[{"title":"关于严格空检查的案例研究","locale":"zh"},{"title":"關於嚴格空檢查的案例研究","locale":"zh-Hant"}]}},{"__typename":"SocialMediaPost","id":"HnPost-25456284","excerpt":"","slug":"/hn/25456284","title":"Ultra-processed foods and the corporate capture of nutrition","date":"December 17, 2020","dateISO":"2020-12-17T22:29:02.007Z","datetime":"2020-12-17 22:29","tags":["story","Hacker News"],"image":null,"imageAlt":null,"provider":"Hacker News","thirdPartyId":"25456284","url":"https://news.ycombinator.com/item?id=25456284","originalUrl":"https://www.bmj.com/content/371/bmj.m4601","imageRemote":"https://www.bmj.com/sites/default/files/sites/defautl/files/attachments/bmj-article/2020/12/fast_food_restaurant_chain_istock-1192094665.jpg","video":null,"channel":null,"channelUrl":null,"author":"CapitalistCartr","authorUrl":"https://news.ycombinator.com/user?id=CapitalistCartr","authorImage":null,"authorSlug":null,"score":193,"views":null,"sharedCount":null,"likeCount":null,"sharedContent":null,"parent":{"__typename":"HnJson","localize":[{"title":"超加工食品与企业获取营养","locale":"zh"},{"title":"超加工食品與企業獲取營養","locale":"zh-Hant"}]}},{"__typename":"SocialMediaPost","id":"HnPost-25460220","excerpt":"","slug":"/hn/25460220","title":"Hallucinations re: the rendering of Cyberpunk 2077","date":"December 17, 2020","dateISO":"2020-12-17T22:29:02.007Z","datetime":"2020-12-17 22:29","tags":["story","Hacker News"],"image":null,"imageAlt":null,"provider":"Hacker News","thirdPartyId":"25460220","url":"https://news.ycombinator.com/item?id=25460220","originalUrl":"http://c0de517e.blogspot.com/2020/12/hallucinations-re-rendering-of.html","imageRemote":"https://1.bp.blogspot.com/-Accm4KmCjcQ/X90IqbPkniI/AAAAAAAACO4/Y30F2-QUQuEN3oa44WvOhq4zrALKMpAHwCLcBGAsYHQ/w1200-h630-p-k-no-nu/Capture.PNG","video":null,"channel":null,"channelUrl":null,"author":"brundolf","authorUrl":"https://news.ycombinator.com/user?id=brundolf","authorImage":null,"authorSlug":null,"score":333,"views":null,"sharedCount":null,"likeCount":null,"sharedContent":null,"parent":{"__typename":"HnJson","localize":[{"title":"幻觉Re：赛博朋克2077的渲染","locale":"zh"},{"title":"幻覺Re：賽博朋克2077的渲染","locale":"zh-Hant"}]}},{"__typename":"SocialMediaPost","id":"HnPost-25457217","excerpt":"","slug":"/hn/25457217","title":"MindGeek: The secretive owner of Pornhub and RedTube","date":"December 17, 2020","dateISO":"2020-12-17T21:42:05.521Z","datetime":"2020-12-17 21:42","tags":["story","Hacker News"],"image":null,"imageAlt":null,"provider":"Hacker News","thirdPartyId":"25457217","url":"https://news.ycombinator.com/item?id=25457217","originalUrl":"https://arstechnica.com/?p=1730358","imageRemote":"https://cdn.arstechnica.net/wp-content/uploads/2020/12/bba9ccb3-0e1a-4858-8e00-a6cb81cd5e40-760x380.jpg","video":null,"channel":null,"channelUrl":null,"author":"feross","authorUrl":"https://news.ycombinator.com/user?id=feross","authorImage":null,"authorSlug":null,"score":191,"views":null,"sharedCount":null,"likeCount":null,"sharedContent":null,"parent":{"__typename":"HnJson","localize":[{"title":"Mindgeek：PornHub和RedTube的神秘所有者","locale":"zh"},{"title":"Mindgeek：PornHub和RedTube的神祕所有者","locale":"zh-Hant"}]}},{"__typename":"SocialMediaPost","id":"HnPost-25459119","excerpt":"","slug":"/hn/25459119","title":"50 years of tax cuts for the rich failed to trickle down, economics study says","date":"December 17, 2020","dateISO":"2020-12-17T21:20:18.479Z","datetime":"2020-12-17 21:20","tags":["story","Hacker News"],"image":null,"imageAlt":null,"provider":"Hacker News","thirdPartyId":"25459119","url":"https://news.ycombinator.com/item?id=25459119","originalUrl":"https://www.cbsnews.com/news/tax-cuts-rich-50-years-no-trickle-down/","imageRemote":"https://cbsnews3.cbsistatic.com/hub/i/r/2020/03/11/39975f4c-760a-4f18-a895-37e3196339e7/thumbnail/1200x630/d59d9f4aa1643fe4b2a5f2627fc4bfb1/9-polarizing-reagan.jpg","video":null,"channel":null,"channelUrl":null,"author":"NiceWayToDoIT","authorUrl":"https://news.ycombinator.com/user?id=NiceWayToDoIT","authorImage":null,"authorSlug":null,"score":134,"views":null,"sharedCount":null,"likeCount":null,"sharedContent":null,"parent":{"__typename":"HnJson","localize":[{"title":"经济学研究称，50年来为富人减税未能惠及民众","locale":"zh"},{"title":"經濟學研究稱，50年來爲富人減稅未能惠及民衆","locale":"zh-Hant"}]}},{"__typename":"SocialMediaPost","id":"HnPost-25458873","excerpt":"","slug":"/hn/25458873","title":"Coinbase announces confidential submission of draft registration statement","date":"December 17, 2020","dateISO":"2020-12-17T20:57:24.768Z","datetime":"2020-12-17 20:57","tags":["story","Hacker News"],"image":null,"imageAlt":null,"provider":"Hacker News","thirdPartyId":"25458873","url":"https://news.ycombinator.com/item?id=25458873","originalUrl":"https://blog.coinbase.com/coinbase-announces-confidential-submission-of-draft-registration-statement-b140a9dfc9f5","imageRemote":null,"video":null,"channel":null,"channelUrl":null,"author":"sinak","authorUrl":"https://news.ycombinator.com/user?id=sinak","authorImage":null,"authorSlug":null,"score":182,"views":null,"sharedCount":null,"likeCount":null,"sharedContent":null,"parent":{"__typename":"HnJson","localize":[{"title":"Coinbase宣布保密的深渊翻滚注册声明草案","locale":"zh"},{"title":"Coinbase宣佈保密的深淵翻滾註冊聲明草案","locale":"zh-Hant"}]}},{"__typename":"SocialMediaPost","id":"HnPost-25459434","excerpt":"","slug":"/hn/25459434","title":"Amazon disallows pointing out paid reviews","date":"December 17, 2020","dateISO":"2020-12-17T20:57:24.768Z","datetime":"2020-12-17 20:57","tags":["story","Hacker News"],"image":null,"imageAlt":null,"provider":"Hacker News","thirdPartyId":"25459434","url":"https://news.ycombinator.com/item?id=25459434","originalUrl":"http://blog.kevmod.com/2020/12/amazon-disallows-pointing-out-paid-reviews/","imageRemote":"http://blog.kevmod.com/wp-content/uploads/2020/12/IMG_16902.jpg","video":null,"channel":null,"channelUrl":null,"author":"kmod","authorUrl":"https://news.ycombinator.com/user?id=kmod","authorImage":null,"authorSlug":null,"score":1085,"views":null,"sharedCount":null,"likeCount":null,"sharedContent":null,"parent":{"__typename":"HnJson","localize":[{"title":"亚马逊不允许指出付费评论","locale":"zh"},{"title":"亞馬遜不允許指出付費評論","locale":"zh-Hant"}]}},{"__typename":"SocialMediaPost","id":"HnPost-25455068","excerpt":"","slug":"/hn/25455068","title":"Emails show Navy's 'UFO' patents went through significant internal review","date":"December 17, 2020","dateISO":"2020-12-17T20:34:34.723Z","datetime":"2020-12-17 20:34","tags":["story","Hacker News"],"image":null,"imageAlt":null,"provider":"Hacker News","thirdPartyId":"25455068","url":"https://news.ycombinator.com/item?id=25455068","originalUrl":"https://www.thedrive.com/the-war-zone/37134/emails-show-navys-ufo-patents-went-through-significant-internal-review-resulted-in-a-demo","imageRemote":"https://api.thedrive.com/wp-content/uploads/2020/12/Pais-top-shot.jpg?quality=85","video":null,"channel":null,"channelUrl":null,"author":"weare138","authorUrl":"https://news.ycombinator.com/user?id=weare138","authorImage":null,"authorSlug":null,"score":155,"views":null,"sharedCount":null,"likeCount":null,"sharedContent":null,"parent":{"__typename":"HnJson","localize":[{"title":"电子邮件显示海军的“UFO”专利经过了重要的内部审查","locale":"zh"},{"title":"電子郵件顯示海軍的“UFO”專利經過了重要的內部審查","locale":"zh-Hant"}]}},{"__typename":"SocialMediaPost","id":"HnPost-25456002","excerpt":"","slug":"/hn/25456002","title":"Philosophy of the GNU Project (2018)","date":"December 17, 2020","dateISO":"2020-12-17T19:23:09.030Z","datetime":"2020-12-17 19:23","tags":["story","Hacker News"],"image":null,"imageAlt":null,"provider":"Hacker News","thirdPartyId":"25456002","url":"https://news.ycombinator.com/item?id=25456002","originalUrl":"https://www.gnu.org/philosophy/philosophy.html","imageRemote":"https://www.gnu.org/server/banners/fence.png","video":null,"channel":null,"channelUrl":null,"author":"crazypython","authorUrl":"https://news.ycombinator.com/user?id=crazypython","authorImage":null,"authorSlug":null,"score":138,"views":null,"sharedCount":null,"likeCount":null,"sharedContent":null,"parent":{"__typename":"HnJson","localize":[{"title":"GNU项目理念(2018)","locale":"zh"},{"title":"GNU項目理念(2018)","locale":"zh-Hant"}]}},{"__typename":"SocialMediaPost","id":"HnPost-25456778","excerpt":"","slug":"/hn/25456778","title":"Biomarker of Alzheimer's found to be regulated by sleep cycles","date":"December 17, 2020","dateISO":"2020-12-17T19:23:09.030Z","datetime":"2020-12-17 19:23","tags":["story","Hacker News"],"image":null,"imageAlt":null,"provider":"Hacker News","thirdPartyId":"25456778","url":"https://news.ycombinator.com/item?id=25456778","originalUrl":"https://newatlas.com/medical/biomarker-alzheimers-protein-sleep-cycles-rhythm/","imageRemote":"https://assets.newatlas.com/dims4/default/28623f4/2147483647/strip/true/crop/700x368+0+50/resize/1200x630!/quality/90/?url=http%3A%2F%2Fnewatlas-brightspot.s3.amazonaws.com%2F41%2F42%2F20f8ded24888ba0fa89e7212d85b%2Flananna-et-al-fig-5a-forweb-700x467.jpg","video":null,"channel":null,"channelUrl":null,"author":"CapitalistCartr","authorUrl":"https://news.ycombinator.com/user?id=CapitalistCartr","authorImage":null,"authorSlug":null,"score":270,"views":null,"sharedCount":null,"likeCount":null,"sharedContent":null,"parent":{"__typename":"HnJson","localize":[{"title":"阿尔茨海默氏症的生物标记物被发现受睡眠周期调节","locale":"zh"},{"title":"阿爾茨海默氏症的生物標記物被發現受睡眠週期調節","locale":"zh-Hant"}]}},{"__typename":"SocialMediaPost","id":"HnPost-25458033","excerpt":"","slug":"/hn/25458033","title":"Sick of spending time on Auth, we built an open source 'Stripe for Auth'","date":"December 17, 2020","dateISO":"2020-12-17T19:23:09.030Z","datetime":"2020-12-17 19:23","tags":["story","Hacker News"],"image":null,"imageAlt":null,"provider":"Hacker News","thirdPartyId":"25458033","url":"https://news.ycombinator.com/item?id=25458033","originalUrl":"https://news.ycombinator.com/item?id=25458033","imageRemote":null,"video":null,"channel":null,"channelUrl":null,"author":"advaitruia","authorUrl":"https://news.ycombinator.com/user?id=advaitruia","authorImage":null,"authorSlug":null,"score":545,"views":null,"sharedCount":null,"likeCount":null,"sharedContent":null,"parent":{"__typename":"HnJson","localize":[{"title":"厌倦了在Auth上花费时间，我们构建了一个开放源码的‘Strike for Auth’","locale":"zh"},{"title":"厭倦了在Auth上花費時間，我們構建了一個開放源碼的‘Strike for Auth’","locale":"zh-Hant"}]}},{"__typename":"SocialMediaPost","id":"HnPost-25455659","excerpt":"","slug":"/hn/25455659","title":"Show HN: Make comic book layouts in the browser","date":"December 17, 2020","dateISO":"2020-12-17T19:00:03.709Z","datetime":"2020-12-17 19:00","tags":["story","Show HN","Hacker News"],"image":null,"imageAlt":null,"provider":"Hacker News","thirdPartyId":"25455659","url":"https://news.ycombinator.com/item?id=25455659","originalUrl":"https://andrewfulrich.gitlab.io/panelle/","imageRemote":"https://andrewfulrich.gitlab.io/panelle/images/pointerIcon.svg","video":null,"channel":"Show HN","channelUrl":"https://news.ycombinator.com/show","author":"TiredGuy","authorUrl":"https://news.ycombinator.com/user?id=TiredGuy","authorImage":null,"authorSlug":null,"score":192,"views":null,"sharedCount":null,"likeCount":null,"sharedContent":null,"parent":{"__typename":"HnJson","localize":[{"title":"HN新产品：在浏览器中进行漫画书布局","locale":"zh"},{"title":"HN新产品：在瀏覽器中進行漫畫書佈局","locale":"zh-Hant"}]}},{"__typename":"SocialMediaPost","id":"HnPost-25457411","excerpt":"","slug":"/hn/25457411","title":"Global chip shortage threatens production of laptops, smartphones and more","date":"December 17, 2020","dateISO":"2020-12-17T19:00:03.709Z","datetime":"2020-12-17 19:00","tags":["story","Hacker News"],"image":null,"imageAlt":null,"provider":"Hacker News","thirdPartyId":"25457411","url":"https://news.ycombinator.com/item?id=25457411","originalUrl":"https://www.reuters.com/article/idUSKBN28R0ZL","imageRemote":"https://static.reuters.com/resources/r/?m=02&d=20201217&t=2&i=1544896623&r=LYNXMPEGBG0LH&w=800","video":null,"channel":null,"channelUrl":null,"author":"neogodless","authorUrl":"https://news.ycombinator.com/user?id=neogodless","authorImage":null,"authorSlug":null,"score":184,"views":null,"sharedCount":null,"likeCount":null,"sharedContent":null,"parent":{"__typename":"HnJson","localize":[{"title":"全球芯片短缺威胁到笔记本电脑、智能手机等的生产","locale":"zh"},{"title":"全球芯片短缺威脅到筆記本電腦、智能手機等的生產","locale":"zh-Hant"}]}},{"__typename":"SocialMediaPost","id":"HnPost-25454837","excerpt":"","slug":"/hn/25454837","title":"Lessons from building and growing an open source SaaS","date":"December 17, 2020","dateISO":"2020-12-17T17:46:09.555Z","datetime":"2020-12-17 17:46","tags":["story","Hacker News"],"image":null,"imageAlt":null,"provider":"Hacker News","thirdPartyId":"25454837","url":"https://news.ycombinator.com/item?id=25454837","originalUrl":"https://plausible.io/blog/building-open-source","imageRemote":"https://plausible.io/uploads/growing-open-source.png","video":null,"channel":null,"channelUrl":null,"author":"markosaric","authorUrl":"https://news.ycombinator.com/user?id=markosaric","authorImage":null,"authorSlug":null,"score":173,"views":null,"sharedCount":null,"likeCount":null,"sharedContent":null,"parent":{"__typename":"HnJson","localize":[{"title":"构建和发展开源SaaS的经验教训","locale":"zh"},{"title":"構建和發展開源SaaS的經驗教訓","locale":"zh-Hant"}]}},{"__typename":"SocialMediaPost","id":"HnPost-25457440","excerpt":"","slug":"/hn/25457440","title":"No Cookie for You","date":"December 17, 2020","dateISO":"2020-12-17T17:46:09.555Z","datetime":"2020-12-17 17:46","tags":["story","Hacker News"],"image":null,"imageAlt":null,"provider":"Hacker News","thirdPartyId":"25457440","url":"https://news.ycombinator.com/item?id=25457440","originalUrl":"https://github.blog/2020-12-17-no-cookie-for-you/","imageRemote":"https://github.blog/wp-content/uploads/2020/12/github-no-cookie.png?fit=2400%2C1260","video":null,"channel":null,"channelUrl":null,"author":"todsacerdoti","authorUrl":"https://news.ycombinator.com/user?id=todsacerdoti","authorImage":null,"authorSlug":null,"score":2940,"views":null,"sharedCount":null,"likeCount":null,"sharedContent":null,"parent":{"__typename":"HnJson","localize":[{"title":"没有曲奇给你","locale":"zh"},{"title":"沒有曲奇給你","locale":"zh-Hant"}]}},{"__typename":"SocialMediaPost","id":"HnPost-25453252","excerpt":"","slug":"/hn/25453252","title":"Creative Code-Generated Art","date":"December 17, 2020","dateISO":"2020-12-17T16:43:32.061Z","datetime":"2020-12-17 16:43","tags":["story","Hacker News"],"image":null,"imageAlt":null,"provider":"Hacker News","thirdPartyId":"25453252","url":"https://news.ycombinator.com/item?id=25453252","originalUrl":"https://www.editorx.com/shaping-design/article/creative-coding","imageRemote":"https://static.wixstatic.com/media/5e5a34_1448194c080d46cbaa05760797f920c3~mv2.png/v1/fit/w_768%2Ch_926%2Cal_c%2Cq_80/file.png","video":null,"channel":null,"channelUrl":null,"author":"dzink","authorUrl":"https://news.ycombinator.com/user?id=dzink","authorImage":null,"authorSlug":null,"score":134,"views":null,"sharedCount":null,"likeCount":null,"sharedContent":null,"parent":{"__typename":"HnJson","localize":[{"title":"创造性的代码生成艺术","locale":"zh"},{"title":"創造性的代碼生成藝術","locale":"zh-Hant"}]}},{"__typename":"SocialMediaPost","id":"HnPost-25455603","excerpt":"","slug":"/hn/25455603","title":"Cloudflare Pages: the best way to build JAMstack websites","date":"December 17, 2020","dateISO":"2020-12-17T16:43:32.061Z","datetime":"2020-12-17 16:43","tags":["story","Hacker News"],"image":null,"imageAlt":null,"provider":"Hacker News","thirdPartyId":"25455603","url":"https://news.ycombinator.com/item?id=25455603","originalUrl":"https://blog.cloudflare.com/cloudflare-pages/","imageRemote":"https://blog.cloudflare.com/content/images/2020/12/facebook-link-image-18.png","video":null,"channel":null,"channelUrl":null,"author":"adspedia","authorUrl":"https://news.ycombinator.com/user?id=adspedia","authorImage":null,"authorSlug":null,"score":265,"views":null,"sharedCount":null,"likeCount":null,"sharedContent":null,"parent":{"__typename":"HnJson","localize":[{"title":"CloudFlare Pages：构建JAMstack网站的最佳方式","locale":"zh"},{"title":"CloudFlare Pages：構建JAMstack網站的最佳方式","locale":"zh-Hant"}]}},{"__typename":"SocialMediaPost","id":"HnPost-25455638","excerpt":"","slug":"/hn/25455638","title":"Stripe’s payments APIs: the first ten years","date":"December 17, 2020","dateISO":"2020-12-17T16:43:32.061Z","datetime":"2020-12-17 16:43","tags":["story","Hacker News"],"image":null,"imageAlt":null,"provider":"Hacker News","thirdPartyId":"25455638","url":"https://news.ycombinator.com/item?id=25455638","originalUrl":"https://stripe.com/blog/payment-api-design","imageRemote":"https://images.ctfassets.net/fzn2n1nzq965/5h8QNXWBWr8KWrTp4bf5n8/750e16b114121455f473fb6b6c79c7ca/blog-payment-api-social-card.png?q=80","video":null,"channel":null,"channelUrl":null,"author":"dguo","authorUrl":"https://news.ycombinator.com/user?id=dguo","authorImage":null,"authorSlug":null,"score":309,"views":null,"sharedCount":null,"likeCount":null,"sharedContent":null,"parent":{"__typename":"HnJson","localize":[{"title":"Stripe的支付API：头十年","locale":"zh"},{"title":"Stripe的支付API：頭十年","locale":"zh-Hant"}]}},{"__typename":"SocialMediaPost","id":"HnPost-25452567","excerpt":"","slug":"/hn/25452567","title":"Tensions in Google's ethical AI group increase as it sends demands to CEO","date":"December 17, 2020","dateISO":"2020-12-17T15:59:54.031Z","datetime":"2020-12-17 15:59","tags":["story","Hacker News"],"image":null,"imageAlt":null,"provider":"Hacker News","thirdPartyId":"25452567","url":"https://news.ycombinator.com/item?id=25452567","originalUrl":"https://www.cnn.com/2020/12/16/tech/google-timnit-gebru-ethical-ai-letter/index.html","imageRemote":"https://cdn.cnn.com/cnnnext/dam/assets/201209162431-01-timnit-gebru-file-super-tease.jpg","video":null,"channel":null,"channelUrl":null,"author":"throwawaysea","authorUrl":"https://news.ycombinator.com/user?id=throwawaysea","authorImage":null,"authorSlug":null,"score":169,"views":null,"sharedCount":null,"likeCount":null,"sharedContent":null,"parent":{"__typename":"HnJson","localize":[{"title":"谷歌道德人工智能集团向首席执行官提出要求，紧张局势加剧","locale":"zh"},{"title":"谷歌道德人工智能集團向首席執行官提出要求，緊張局勢加劇","locale":"zh-Hant"}]}},{"__typename":"SocialMediaPost","id":"HnPost-25442165","excerpt":"","slug":"/hn/25442165","title":"Getting started with C programming a lightning-fast start for absolute beginners","date":"December 17, 2020","dateISO":"2020-12-17T15:49:13.584Z","datetime":"2020-12-17 15:49","tags":["story","Hacker News"],"image":null,"imageAlt":null,"provider":"Hacker News","thirdPartyId":"25442165","url":"https://news.ycombinator.com/item?id=25442165","originalUrl":"https://not.cafe/2020/10/12/getting-started-with-c-programming.html","imageRemote":"https://upload.wikimedia.org/wikipedia/commons/thumb/8/8f/Ken_Thompson_(sitting)_and_Dennis_Ritchie_at_PDP-11_(2876612463).jpg/599px-Ken_Thompson_(sitting)_and_Dennis_Ritchie_at_PDP-11_(2876612463).jpg","video":null,"channel":null,"channelUrl":null,"author":"hdante","authorUrl":"https://news.ycombinator.com/user?id=hdante","authorImage":null,"authorSlug":null,"score":175,"views":null,"sharedCount":null,"likeCount":null,"sharedContent":null,"parent":{"__typename":"HnJson","localize":[{"title":"C编程入门绝对是初学者的闪电入门","locale":"zh"},{"title":"C編程入門絕對是初學者的閃電入門","locale":"zh-Hant"}]}},{"__typename":"SocialMediaPost","id":"HnPost-25455314","excerpt":"","slug":"/hn/25455314","title":"Zstandard v1.4.7","date":"December 17, 2020","dateISO":"2020-12-17T15:49:13.584Z","datetime":"2020-12-17 15:49","tags":["story","Hacker News"],"image":null,"imageAlt":null,"provider":"Hacker News","thirdPartyId":"25455314","url":"https://news.ycombinator.com/item?id=25455314","originalUrl":"https://github.com/facebook/zstd/releases/tag/v1.4.7","imageRemote":"https://avatars0.githubusercontent.com/u/69631?s=400&v=4","video":null,"channel":null,"channelUrl":null,"author":"varbhat","authorUrl":"https://news.ycombinator.com/user?id=varbhat","authorImage":null,"authorSlug":null,"score":211,"views":null,"sharedCount":null,"likeCount":null,"sharedContent":null,"parent":{"__typename":"HnJson","localize":[{"title":"ZStandard v1.4.7","locale":"zh"},{"title":"ZStandard v1.4.7","locale":"zh-Hant"}]}}]}},"pageContext":{"basePath":"/","pageType":"tag","tag":"story","tagsFilter":{"id":{"glob":"!*Post-1"}},"filter":{"id":{"glob":"!*Post-1"},"tags":{"eq":"story"}},"limit":25,"skip":825,"total":905,"totalPages":37,"currentPage":34,"maxWidth":1024,"maxHeight":512,"locale":"zh-Hant","hrefLang":"zh-Hant","originalPath":"/tags/story/page/34","dateFormat":"YYYY-MM-DD"}},"staticQueryHashes":["1239077767","2506312863","2744905544","3025052997","3493603132","3493603132","3513215887","386998304"]}