{"componentChunkName":"component---gatsby-theme-buzzing-src-gatsby-theme-timeline-templates-posts-query-js","path":"/zh-Hant/tags/hacker-news/page/20","result":{"data":{"site":{"siteMetadata":{"title":"Reddit 热门","description":"用中文浏览Reddit热门内容","social":[{"name":"Reddit","url":"https://www.reddit.com/","external":true,"prefetch":null},{"name":"GitHub","url":"https://github.com/gatsbyjs","external":null,"prefetch":null}],"menuLinks":[{"name":"每周精选","url":"/issues","external":null,"prefetch":null},{"name":"RSS","url":"/rss.xml","external":null,"prefetch":false}],"localize":[{"locale":"en","title":"Buzzing on Reddit","description":"See what's buzzing on Reddit in your native language","social":[{"name":"Reddit","url":"https://www.reddit.com/","external":true,"prefetch":null}],"menuLinks":[{"name":"Weekly Selection","url":"/issues","external":null,"prefetch":null},{"name":"RSS","url":"/rss.xml","external":null,"prefetch":false}]},{"locale":"zh-Hant","title":"Reddit 熱門","description":"用中文瀏覽Reddit熱門內容","social":null,"menuLinks":null}]}},"tagsGroup":{"group":[{"fieldValue":"ASK HN","totalCount":19},{"fieldValue":"Bitcoin","totalCount":3},{"fieldValue":"Hacker News","totalCount":799},{"fieldValue":"Poll","totalCount":1},{"fieldValue":"Show HN","totalCount":31},{"fieldValue":"investing","totalCount":166},{"fieldValue":"poll","totalCount":1},{"fieldValue":"reddit","totalCount":592},{"fieldValue":"science","totalCount":1},{"fieldValue":"stocks","totalCount":276},{"fieldValue":"story","totalCount":798},{"fieldValue":"tweet","totalCount":242},{"fieldValue":"wallstreetbets","totalCount":150}]},"allBlogPost":{"nodes":[{"__typename":"SocialMediaPost","id":"HnPost-25518730","excerpt":"","slug":"/hn/25518730","title":"Tips for a Better Life","date":"December 23, 2020","dateISO":"2020-12-23T22:05:16.017Z","datetime":"2020-12-23 22:05","tags":["story","Hacker News"],"image":null,"imageAlt":null,"provider":"Hacker News","thirdPartyId":"25518730","url":"https://news.ycombinator.com/item?id=25518730","originalUrl":"https://www.lesswrong.com/posts/7hFeMWC6Y5eaSixbD/100-tips-for-a-better-life","imageRemote":"https://res.cloudinary.com/lesswrong-2-0/image/upload/v1503704344/sequencesgrid/h6vrwdypijqgsop7xwa0.jpg","video":null,"channel":null,"channelUrl":null,"author":"CapitalistCartr","authorUrl":"https://news.ycombinator.com/user?id=CapitalistCartr","authorImage":null,"authorSlug":null,"score":1257,"views":null,"sharedCount":null,"likeCount":null,"sharedContent":null,"parent":{"__typename":"HnJson","localize":[{"title":"让生活更美好的小贴士","locale":"zh"},{"title":"讓生活更美好的小貼士","locale":"zh-Hant"}]}},{"__typename":"SocialMediaPost","id":"HnPost-25521487","excerpt":"","slug":"/hn/25521487","title":"UX Issues with Notion","date":"December 23, 2020","dateISO":"2020-12-23T22:05:16.017Z","datetime":"2020-12-23 22:05","tags":["story","Hacker News"],"image":null,"imageAlt":null,"provider":"Hacker News","thirdPartyId":"25521487","url":"https://news.ycombinator.com/item?id=25521487","originalUrl":"https://telegra.ph/Notion-is-a-UX-Disaster-12-23","imageRemote":null,"video":null,"channel":null,"channelUrl":null,"author":"g7r","authorUrl":"https://news.ycombinator.com/user?id=g7r","authorImage":null,"authorSlug":null,"score":209,"views":null,"sharedCount":null,"likeCount":null,"sharedContent":null,"parent":{"__typename":"HnJson","localize":[{"title":"UX与概念相关的问题","locale":"zh"},{"title":"UX與概念相關的問題","locale":"zh-Hant"}]}},{"__typename":"SocialMediaPost","id":"HnPost-25520510","excerpt":"","slug":"/hn/25520510","title":"Comic Mono","date":"December 23, 2020","dateISO":"2020-12-23T20:32:18.387Z","datetime":"2020-12-23 20:32","tags":["story","Hacker News"],"image":null,"imageAlt":null,"provider":"Hacker News","thirdPartyId":"25520510","url":"https://news.ycombinator.com/item?id=25520510","originalUrl":"https://dtinth.github.io/comic-mono-font/","imageRemote":"https://repository-images.githubusercontent.com/164606802/cd83d680-894c-11e9-83f7-c353c70df1cb","video":null,"channel":null,"channelUrl":null,"author":"thesephist","authorUrl":"https://news.ycombinator.com/user?id=thesephist","authorImage":null,"authorSlug":null,"score":639,"views":null,"sharedCount":null,"likeCount":null,"sharedContent":null,"parent":{"__typename":"HnJson","localize":[{"title":"漫画单声道","locale":"zh"},{"title":"漫畫單聲道","locale":"zh-Hant"}]}},{"__typename":"SocialMediaPost","id":"HnPost-25520729","excerpt":"","slug":"/hn/25520729","title":"Google/Fitbit will monetise health data and harm consumers [pdf]","date":"December 23, 2020","dateISO":"2020-12-23T20:32:18.387Z","datetime":"2020-12-23 20:32","tags":["story","Hacker News"],"image":null,"imageAlt":null,"provider":"Hacker News","thirdPartyId":"25520729","url":"https://news.ycombinator.com/item?id=25520729","originalUrl":"https://cepr.org/sites/default/files/policy_insights/PolicyInsight107.pdf","imageRemote":null,"video":null,"channel":null,"channelUrl":null,"author":"partingshots","authorUrl":"https://news.ycombinator.com/user?id=partingshots","authorImage":null,"authorSlug":null,"score":302,"views":null,"sharedCount":null,"likeCount":null,"sharedContent":null,"parent":{"__typename":"HnJson","localize":[{"title":"谷歌/Fitbit将把健康数据货币化并伤害消费者[pdf]","locale":"zh"},{"title":"谷歌/Fitbit將把健康數據貨幣化並傷害消費者[pdf]","locale":"zh-Hant"}]}},{"__typename":"SocialMediaPost","id":"HnPost-25520353","excerpt":"","slug":"/hn/25520353","title":"Tokio, the async runtime for Rust, hits 1.0","date":"December 23, 2020","dateISO":"2020-12-23T19:33:50.552Z","datetime":"2020-12-23 19:33","tags":["story","Hacker News"],"image":null,"imageAlt":null,"provider":"Hacker News","thirdPartyId":"25520353","url":"https://news.ycombinator.com/item?id=25520353","originalUrl":"https://tokio.rs/blog/2020-12-tokio-1-0","imageRemote":"https://tokio.rs/img/tokio-horizontal.svg","video":null,"channel":null,"channelUrl":null,"author":"carllerche","authorUrl":"https://news.ycombinator.com/user?id=carllerche","authorImage":null,"authorSlug":null,"score":768,"views":null,"sharedCount":null,"likeCount":null,"sharedContent":null,"parent":{"__typename":"HnJson","localize":[{"title":"Rust的异步运行时Tokio达到了1.0","locale":"zh"},{"title":"Rust的異步運行時Tokio達到了1.0","locale":"zh-Hant"}]}},{"__typename":"SocialMediaPost","id":"HnPost-25520481","excerpt":"","slug":"/hn/25520481","title":"No, Cellebrite Cannot “Break Signal Encryption”","date":"December 23, 2020","dateISO":"2020-12-23T19:33:50.552Z","datetime":"2020-12-23 19:33","tags":["story","Hacker News"],"image":null,"imageAlt":null,"provider":"Hacker News","thirdPartyId":"25520481","url":"https://news.ycombinator.com/item?id=25520481","originalUrl":"https://signal.org/blog/cellebrite-and-clickbait/","imageRemote":"https://signal.org/assets/og/og-image-ff2096df535eee499356de64b19fa8cebb9681ab1e78cca7330e7f8b8d5ec6d5.png","video":null,"channel":null,"channelUrl":null,"author":"hprotagonist","authorUrl":"https://news.ycombinator.com/user?id=hprotagonist","authorImage":null,"authorSlug":null,"score":643,"views":null,"sharedCount":null,"likeCount":null,"sharedContent":null,"parent":{"__typename":"HnJson","localize":[{"title":"不，Cellebrite不能“破解信号加密”","locale":"zh"},{"title":"不，Cellebrite不能“破解信號加密”","locale":"zh-Hant"}]}},{"__typename":"SocialMediaPost","id":"HnPost-25517226","excerpt":"","slug":"/hn/25517226","title":"Show HN: Django and React SaaS boilerplate tutorial","date":"December 23, 2020","dateISO":"2020-12-23T18:58:13.068Z","datetime":"2020-12-23 18:58","tags":["story","Show HN","Hacker News"],"image":null,"imageAlt":null,"provider":"Hacker News","thirdPartyId":"25517226","url":"https://news.ycombinator.com/item?id=25517226","originalUrl":"https://github.com/saasitive/django-react-boilerplate","imageRemote":"https://avatars1.githubusercontent.com/u/71877212?s=400&v=4","video":null,"channel":"Show HN","channelUrl":"https://news.ycombinator.com/show","author":"pplonski86","authorUrl":"https://news.ycombinator.com/user?id=pplonski86","authorImage":null,"authorSlug":null,"score":135,"views":null,"sharedCount":null,"likeCount":null,"sharedContent":null,"parent":{"__typename":"HnJson","localize":[{"title":"HN新产品：Django和Reaction SaaS样板教程","locale":"zh"},{"title":"HN新產品：Django和Reaction SaaS樣板教程","locale":"zh-Hant"}]}},{"__typename":"SocialMediaPost","id":"HnPost-25519678","excerpt":"","slug":"/hn/25519678","title":"Windows 0day privilege escalation still not fixed","date":"December 23, 2020","dateISO":"2020-12-23T18:58:13.068Z","datetime":"2020-12-23 18:58","tags":["story","Hacker News"],"image":null,"imageAlt":null,"provider":"Hacker News","thirdPartyId":"25519678","url":"https://news.ycombinator.com/item?id=25519678","originalUrl":"https://bugs.chromium.org/p/project-zero/issues/detail?id=2096","imageRemote":null,"video":null,"channel":null,"channelUrl":null,"author":"zaltekk","authorUrl":"https://news.ycombinator.com/user?id=zaltekk","authorImage":null,"authorSlug":null,"score":408,"views":null,"sharedCount":null,"likeCount":null,"sharedContent":null,"parent":{"__typename":"HnJson","localize":[{"title":"Windows 0day权限提升仍未修复","locale":"zh"},{"title":"Windows 0day權限提升仍未修復","locale":"zh-Hant"}]}},{"__typename":"SocialMediaPost","id":"HnPost-25519718","excerpt":"","slug":"/hn/25519718","title":"Interview advice that got me offers from Google, Microsoft, and Stripe","date":"December 23, 2020","dateISO":"2020-12-23T18:58:13.068Z","datetime":"2020-12-23 18:58","tags":["story","Hacker News"],"image":null,"imageAlt":null,"provider":"Hacker News","thirdPartyId":"25519718","url":"https://news.ycombinator.com/item?id=25519718","originalUrl":"https://www.zainrizvi.io/blog/the-interviewing-advice-no-one-shares/","imageRemote":"https://images.unsplash.com/photo-1573497491208-6b1acb260507?ixlib=rb-1.2.1&q=80&fm=jpg&crop=entropy&cs=tinysrgb&w=2000&fit=max&ixid=eyJhcHBfaWQiOjExNzczfQ","video":null,"channel":null,"channelUrl":null,"author":"ZainRiz","authorUrl":"https://news.ycombinator.com/user?id=ZainRiz","authorImage":null,"authorSlug":null,"score":638,"views":null,"sharedCount":null,"likeCount":null,"sharedContent":null,"parent":{"__typename":"HnJson","localize":[{"title":"面试建议让我得到了谷歌、微软和斯利普的录用","locale":"zh"},{"title":"面試建議讓我得到了谷歌、微軟和斯利普的錄用","locale":"zh-Hant"}]}},{"__typename":"SocialMediaPost","id":"HnPost-25505701","excerpt":"","slug":"/hn/25505701","title":"Don’t Think, Just Defunctionalize","date":"December 23, 2020","dateISO":"2020-12-23T18:22:08.243Z","datetime":"2020-12-23 18:22","tags":["story","Hacker News"],"image":null,"imageAlt":null,"provider":"Hacker News","thirdPartyId":"25505701","url":"https://news.ycombinator.com/item?id=25505701","originalUrl":"https://www.joachim-breitner.de/blog/778-Don%E2%80%99t_think%2C_just_defunctionalize","imageRemote":null,"video":null,"channel":null,"channelUrl":null,"author":"gbrown_","authorUrl":"https://news.ycombinator.com/user?id=gbrown_","authorImage":null,"authorSlug":null,"score":118,"views":null,"sharedCount":null,"likeCount":null,"sharedContent":null,"parent":{"__typename":"HnJson","localize":[{"title":"别想了，去功能化就行了","locale":"zh"},{"title":"別想了，去功能化就行了","locale":"zh-Hant"}]}},{"__typename":"SocialMediaPost","id":"HnPost-25516498","excerpt":"","slug":"/hn/25516498","title":"Military scrambling to understand aviation crash risk from new 5G sale","date":"December 23, 2020","dateISO":"2020-12-23T17:58:06.363Z","datetime":"2020-12-23 17:58","tags":["story","Hacker News"],"image":null,"imageAlt":null,"provider":"Hacker News","thirdPartyId":"25516498","url":"https://news.ycombinator.com/item?id=25516498","originalUrl":"https://www.defensenews.com/2020/12/21/the-military-is-scrambling-to-understand-the-aviation-crash-risk-from-a-new-5g-sale/","imageRemote":"https://www.armytimes.com/resizer/zq5a0r6Kmr7eYqZWbCt3EgX82yc=/1200x630/filters:quality(100)/cloudfront-us-east-1.images.arcpublishing.com/mco/6VT3YQ7IANE5NB5JBB74UBIVGU.jpg","video":null,"channel":null,"channelUrl":null,"author":"bookofjoe","authorUrl":"https://news.ycombinator.com/user?id=bookofjoe","authorImage":null,"authorSlug":null,"score":120,"views":null,"sharedCount":null,"likeCount":null,"sharedContent":null,"parent":{"__typename":"HnJson","localize":[{"title":"军方争先恐后地了解新的5G销售带来的空难风险","locale":"zh"},{"title":"軍方爭先恐後地瞭解新的5G銷售帶來的空難風險","locale":"zh-Hant"}]}},{"__typename":"SocialMediaPost","id":"HnPost-25517628","excerpt":"","slug":"/hn/25517628","title":"We rendered a million web pages to find out what makes the web slow","date":"December 23, 2020","dateISO":"2020-12-23T17:58:06.363Z","datetime":"2020-12-23 17:58","tags":["story","Hacker News"],"image":null,"imageAlt":null,"provider":"Hacker News","thirdPartyId":"25517628","url":"https://news.ycombinator.com/item?id=25517628","originalUrl":"https://itnext.io/we-rendered-a-million-web-pages-to-find-out-what-makes-the-web-slow-72bbba9ade96","imageRemote":"https://miro.medium.com/max/482/1*A9rIo0Q9X23sEztb0ZLDpA.png","video":null,"channel":null,"channelUrl":null,"author":"KukiAirani","authorUrl":"https://news.ycombinator.com/user?id=KukiAirani","authorImage":null,"authorSlug":null,"score":186,"views":null,"sharedCount":null,"likeCount":null,"sharedContent":null,"parent":{"__typename":"HnJson","localize":[{"title":"我们绘制了一百万个网页，以找出是什么原因导致网络速度变慢。","locale":"zh"},{"title":"我們繪製了一百萬個網頁，以找出是什麼原因導致網絡速度變慢。","locale":"zh-Hant"}]}},{"__typename":"SocialMediaPost","id":"HnPost-25518831","excerpt":"","slug":"/hn/25518831","title":"Anti-diarrhoea drug drives cancer cells to cell death","date":"December 23, 2020","dateISO":"2020-12-23T17:58:06.363Z","datetime":"2020-12-23 17:58","tags":["story","Hacker News"],"image":null,"imageAlt":null,"provider":"Hacker News","thirdPartyId":"25518831","url":"https://news.ycombinator.com/item?id=25518831","originalUrl":"https://aktuelles.uni-frankfurt.de/englisch/anti-diarrhoea-drug-drives-cancer-cells-to-cell-death/","imageRemote":"https://aktuelles.uni-frankfurt.de/wp-content/uploads/2020/12/beitragsbild_durchfallmittel-krebszellen.jpg","video":null,"channel":null,"channelUrl":null,"author":"gmays","authorUrl":"https://news.ycombinator.com/user?id=gmays","authorImage":null,"authorSlug":null,"score":354,"views":null,"sharedCount":null,"likeCount":null,"sharedContent":null,"parent":{"__typename":"HnJson","localize":[{"title":"止泻药导致癌细胞死亡","locale":"zh"},{"title":"止瀉藥導致癌細胞死亡","locale":"zh-Hant"}]}},{"__typename":"SocialMediaPost","id":"HnPost-25515566","excerpt":"","slug":"/hn/25515566","title":"Linux 5.10 BTRFS performance regression","date":"December 23, 2020","dateISO":"2020-12-23T16:59:51.390Z","datetime":"2020-12-23 16:59","tags":["story","Hacker News"],"image":null,"imageAlt":null,"provider":"Hacker News","thirdPartyId":"25515566","url":"https://news.ycombinator.com/item?id=25515566","originalUrl":"https://www.reddit.com/r/linux/comments/kieqyu/warning_linux_510_has_a_500_to_2000_btrfs/","imageRemote":"https://external-preview.redd.it/IklchxiV3iUXpn90YKUrR9WvJvdymj6-RVf8E2EwCEo.jpg?auto=webp&s=88b40f5c8697d4444ba4329eeb0812c619fb40d8","video":null,"channel":null,"channelUrl":null,"author":"shrikant","authorUrl":"https://news.ycombinator.com/user?id=shrikant","authorImage":null,"authorSlug":null,"score":141,"views":null,"sharedCount":null,"likeCount":null,"sharedContent":null,"parent":{"__typename":"HnJson","localize":[{"title":"Linux 5.10 BTRFS性能回归","locale":"zh"},{"title":"Linux 5.10 BTRFS性能迴歸","locale":"zh-Hant"}]}},{"__typename":"SocialMediaPost","id":"HnPost-25515761","excerpt":"","slug":"/hn/25515761","title":"Telegram Voice Chats","date":"December 23, 2020","dateISO":"2020-12-23T16:59:51.390Z","datetime":"2020-12-23 16:59","tags":["story","Hacker News"],"image":null,"imageAlt":null,"provider":"Hacker News","thirdPartyId":"25515761","url":"https://news.ycombinator.com/item?id=25515761","originalUrl":"https://telegram.org/blog/voice-chats","imageRemote":"https://telegram.org/file/464001202/4/Mo4VjRb1ndM.81564/729451f158ff1f6267","video":null,"channel":null,"channelUrl":null,"author":"ffpip","authorUrl":"https://news.ycombinator.com/user?id=ffpip","authorImage":null,"authorSlug":null,"score":189,"views":null,"sharedCount":null,"likeCount":null,"sharedContent":null,"parent":{"__typename":"HnJson","localize":[{"title":"电报语音聊天","locale":"zh"},{"title":"電報語音聊天","locale":"zh-Hant"}]}},{"__typename":"SocialMediaPost","id":"HnPost-25516214","excerpt":"","slug":"/hn/25516214","title":"Stan is a state-of-the-art platform for statistical modeling","date":"December 23, 2020","dateISO":"2020-12-23T16:05:11.668Z","datetime":"2020-12-23 16:05","tags":["story","Hacker News"],"image":null,"imageAlt":null,"provider":"Hacker News","thirdPartyId":"25516214","url":"https://news.ycombinator.com/item?id=25516214","originalUrl":"https://mc-stan.org/","imageRemote":"https://mc-stan.org/images/feature/wide_ensemble.png","video":null,"channel":null,"channelUrl":null,"author":"Tomte","authorUrl":"https://news.ycombinator.com/user?id=Tomte","authorImage":null,"authorSlug":null,"score":190,"views":null,"sharedCount":null,"likeCount":null,"sharedContent":null,"parent":{"__typename":"HnJson","localize":[{"title":"STAN是一个最先进的统计建模平台","locale":"zh"},{"title":"STAN是一個最先進的統計建模平臺","locale":"zh-Hant"}]}},{"__typename":"SocialMediaPost","id":"HnPost-25516672","excerpt":"","slug":"/hn/25516672","title":"Open Source Stash – Privacy-focused, powerful, secure open-source alternatives","date":"December 23, 2020","dateISO":"2020-12-23T15:42:50.931Z","datetime":"2020-12-23 15:42","tags":["story","Hacker News"],"image":null,"imageAlt":null,"provider":"Hacker News","thirdPartyId":"25516672","url":"https://news.ycombinator.com/item?id=25516672","originalUrl":"https://opensourcestash.com","imageRemote":null,"video":null,"channel":null,"channelUrl":null,"author":"adithyaba","authorUrl":"https://news.ycombinator.com/user?id=adithyaba","authorImage":null,"authorSlug":null,"score":262,"views":null,"sharedCount":null,"likeCount":null,"sharedContent":null,"parent":{"__typename":"HnJson","localize":[{"title":"Open Source Stash-关注隐私、功能强大、安全的开源替代方案","locale":"zh"},{"title":"Open Source Stash-關注隱私、功能強大、安全的開源替代方案","locale":"zh-Hant"}]}},{"__typename":"SocialMediaPost","id":"HnPost-25516769","excerpt":"","slug":"/hn/25516769","title":"The beautiful Silent ThunderBolt-3 PC","date":"December 23, 2020","dateISO":"2020-12-23T15:42:50.931Z","datetime":"2020-12-23 15:42","tags":["story","Hacker News"],"image":null,"imageAlt":null,"provider":"Hacker News","thirdPartyId":"25516769","url":"https://news.ycombinator.com/item?id=25516769","originalUrl":"https://fabiensanglard.net/tb3/index.html","imageRemote":"https://fabiensanglard.net/tb3/done.jpg","video":null,"channel":null,"channelUrl":null,"author":"0-_-0","authorUrl":"https://news.ycombinator.com/user?id=0-_-0","authorImage":null,"authorSlug":null,"score":285,"views":null,"sharedCount":null,"likeCount":null,"sharedContent":null,"parent":{"__typename":"HnJson","localize":[{"title":"美丽的无声十万伏特-3 PC","locale":"zh"},{"title":"美麗的無聲十萬伏特-3 PC","locale":"zh-Hant"}]}},{"__typename":"SocialMediaPost","id":"HnPost-25517868","excerpt":"","slug":"/hn/25517868","title":"How bad is your Spotify?","date":"December 23, 2020","dateISO":"2020-12-23T15:11:02.601Z","datetime":"2020-12-23 15:11","tags":["story","Hacker News"],"image":null,"imageAlt":null,"provider":"Hacker News","thirdPartyId":"25517868","url":"https://news.ycombinator.com/item?id=25517868","originalUrl":"https://pudding.cool/2020/12/judge-my-spotify","imageRemote":"https://pudding.cool/2020/12/judge-my-spotify/assets/social/social-facebook.jpg","video":null,"channel":null,"channelUrl":null,"author":"feross","authorUrl":"https://news.ycombinator.com/user?id=feross","authorImage":null,"authorSlug":null,"score":971,"views":null,"sharedCount":null,"likeCount":null,"sharedContent":null,"parent":{"__typename":"HnJson","localize":[{"title":"你的Spotify有多糟糕？","locale":"zh"},{"title":"你的Spotify有多糟糕？","locale":"zh-Hant"}]}},{"__typename":"SocialMediaPost","id":"HnPost-25516933","excerpt":"","slug":"/hn/25516933","title":"Robinhood was indeed too good to be true","date":"December 23, 2020","dateISO":"2020-12-23T15:00:41.805Z","datetime":"2020-12-23 15:00","tags":["story","Hacker News"],"image":null,"imageAlt":null,"provider":"Hacker News","thirdPartyId":"25516933","url":"https://news.ycombinator.com/item?id=25516933","originalUrl":"https://www.morningstar.com/articles/1015686/robinhood-was-indeed-too-good-to-be-true","imageRemote":"https://images.contentstack.io/v3/assets/blt4eb669caa7dc65b2/bltbd23a515af198cc5/5e70ea7751d5b963a98427ac/JohnRekenthaler_3x2.jpg","video":null,"channel":null,"channelUrl":null,"author":"RickJWagner","authorUrl":"https://news.ycombinator.com/user?id=RickJWagner","authorImage":null,"authorSlug":null,"score":300,"views":null,"sharedCount":null,"likeCount":null,"sharedContent":null,"parent":{"__typename":"HnJson","localize":[{"title":"罗宾汉的确太好了，简直不像是真的。","locale":"zh"},{"title":"羅賓漢的確太好了，簡直不像是真的。","locale":"zh-Hant"}]}},{"__typename":"SocialMediaPost","id":"HnPost-25513397","excerpt":"","slug":"/hn/25513397","title":"Flix – Next-generation reliable, concise, functional-first programming language","date":"December 23, 2020","dateISO":"2020-12-23T14:40:39.451Z","datetime":"2020-12-23 14:40","tags":["story","Hacker News"],"image":null,"imageAlt":null,"provider":"Hacker News","thirdPartyId":"25513397","url":"https://news.ycombinator.com/item?id=25513397","originalUrl":"https://flix.dev/","imageRemote":"https://s3.amazonaws.com/github/ribbons/forkme_right_green_007200.png","video":null,"channel":null,"channelUrl":null,"author":"dunefox","authorUrl":"https://news.ycombinator.com/user?id=dunefox","authorImage":null,"authorSlug":null,"score":122,"views":null,"sharedCount":null,"likeCount":null,"sharedContent":null,"parent":{"__typename":"HnJson","localize":[{"title":"FLIX--下一代可靠、简洁、函数优先的编程语言","locale":"zh"},{"title":"FLIX--下一代可靠、簡潔、函數優先的編程語言","locale":"zh-Hant"}]}},{"__typename":"SocialMediaPost","id":"HnPost-25516573","excerpt":"","slug":"/hn/25516573","title":"‘YouTube recommendations are toxic,’ says dev who worked on the algorithm (2019)","date":"December 23, 2020","dateISO":"2020-12-23T13:41:49.218Z","datetime":"2020-12-23 13:41","tags":["story","Hacker News"],"image":null,"imageAlt":null,"provider":"Hacker News","thirdPartyId":"25516573","url":"https://news.ycombinator.com/item?id=25516573","originalUrl":"https://thenextweb.com/google/2019/06/14/youtube-recommendations-toxic-algorithm-google-ai/","imageRemote":"https://img-cdn.tnwcdn.com/image/tnw?filter_last=1&fit=1280%2C640&url=https%3A%2F%2Fcdn0.tnwcdn.com%2Fwp-content%2Fblogs.dir%2F1%2Ffiles%2F2019%2F06%2FUntitled-design65.png&signature=4e7b49f32182da669c0226e3fc440c8e","video":null,"channel":null,"channelUrl":null,"author":"3131s","authorUrl":"https://news.ycombinator.com/user?id=3131s","authorImage":null,"authorSlug":null,"score":423,"views":null,"sharedCount":null,"likeCount":null,"sharedContent":null,"parent":{"__typename":"HnJson","localize":[{"title":"参与该算法研究(2019年)的Dev说，YouTube的推荐是有毒的。","locale":"zh"},{"title":"參與該算法研究(2019年)的Dev說，YouTube的推薦是有毒的。","locale":"zh-Hant"}]}},{"__typename":"SocialMediaPost","id":"HnPost-25514770","excerpt":"","slug":"/hn/25514770","title":"Booting an M1 Mac from an external disk","date":"December 23, 2020","dateISO":"2020-12-23T13:10:11.348Z","datetime":"2020-12-23 13:10","tags":["story","Hacker News"],"image":null,"imageAlt":null,"provider":"Hacker News","thirdPartyId":"25514770","url":"https://news.ycombinator.com/item?id=25514770","originalUrl":"https://eclecticlight.co/2020/12/22/booting-an-m1-mac-from-an-external-disk-it-is-possible/","imageRemote":"https://eclecticlightdotcom.files.wordpress.com/2020/12/extdisk01.jpg","video":null,"channel":null,"channelUrl":null,"author":"alwillis","authorUrl":"https://news.ycombinator.com/user?id=alwillis","authorImage":null,"authorSlug":null,"score":118,"views":null,"sharedCount":null,"likeCount":null,"sharedContent":null,"parent":{"__typename":"HnJson","localize":[{"title":"从外部磁盘引导M1 Mac","locale":"zh"},{"title":"從外部磁盤引導M1 Mac","locale":"zh-Hant"}]}},{"__typename":"SocialMediaPost","id":"HnPost-25516712","excerpt":"","slug":"/hn/25516712","title":"Google told its scientists to ‘strike a positive tone’ in AI research","date":"December 23, 2020","dateISO":"2020-12-23T13:10:11.348Z","datetime":"2020-12-23 13:10","tags":["story","Hacker News"],"image":null,"imageAlt":null,"provider":"Hacker News","thirdPartyId":"25516712","url":"https://news.ycombinator.com/item?id=25516712","originalUrl":"https://www.reuters.com/article/us-alphabet-google-research-focus/google-told-its-scientists-to-strike-a-positive-tone-in-ai-research-documents-idUSKBN28X1CB","imageRemote":"https://static.reuters.com/resources/r/?m=02&d=20201223&t=2&i=1545593006&r=LYNXMPEGBM0QT&w=800","video":null,"channel":null,"channelUrl":null,"author":"pseudolus","authorUrl":"https://news.ycombinator.com/user?id=pseudolus","authorImage":null,"authorSlug":null,"score":303,"views":null,"sharedCount":null,"likeCount":null,"sharedContent":null,"parent":{"__typename":"HnJson","localize":[{"title":"谷歌告诉其科学家在人工智能研究中要“采取积极的基调”","locale":"zh"},{"title":"谷歌告訴其科學家在人工智能研究中要“採取積極的基調”","locale":"zh-Hant"}]}},{"__typename":"SocialMediaPost","id":"HnPost-25514419","excerpt":"","slug":"/hn/25514419","title":"TerarkDB, ByteDance's RocksDB replacement","date":"December 23, 2020","dateISO":"2020-12-23T12:41:58.203Z","datetime":"2020-12-23 12:41","tags":["story","Hacker News"],"image":null,"imageAlt":null,"provider":"Hacker News","thirdPartyId":"25514419","url":"https://news.ycombinator.com/item?id=25514419","originalUrl":"https://github.com/bytedance/terarkdb","imageRemote":"https://avatars3.githubusercontent.com/u/4158466?s=400&v=4","video":null,"channel":null,"channelUrl":null,"author":"royguo1988","authorUrl":"https://news.ycombinator.com/user?id=royguo1988","authorImage":null,"authorSlug":null,"score":167,"views":null,"sharedCount":null,"likeCount":null,"sharedContent":null,"parent":{"__typename":"HnJson","localize":[{"title":"TerarkDB，ByteDance的RocksDB替代品","locale":"zh"},{"title":"TerarkDB，ByteDance的RocksDB替代品","locale":"zh-Hant"}]}}]}},"pageContext":{"basePath":"/","pageType":"tag","tag":"Hacker News","tagsFilter":{"id":{"glob":"!*Post-1"}},"filter":{"id":{"glob":"!*Post-1"},"tags":{"eq":"Hacker News"}},"limit":25,"skip":475,"total":799,"totalPages":32,"currentPage":20,"maxWidth":1024,"maxHeight":512,"locale":"zh-Hant","hrefLang":"zh-Hant","originalPath":"/tags/hacker-news/page/20","dateFormat":"YYYY-MM-DD"}},"staticQueryHashes":["1239077767","1684688348","2506312863","2744905544","3493603132","3493603132","386998304"]}