{"componentChunkName":"component---gatsby-theme-buzzing-src-gatsby-theme-timeline-templates-posts-query-js","path":"/en/tags/saa-s/page/12","result":{"data":{"site":{"siteMetadata":{"title":"Reddit 热门","description":"用中文浏览Reddit热门内容","social":[{"name":"Twitter","url":"https://twitter.com/gatsbyjs","external":null,"prefetch":null},{"name":"GitHub","url":"https://github.com/gatsbyjs","external":null,"prefetch":null}],"menuLinks":[],"localize":[{"locale":"en","title":"Buzzing on Reddit","description":"See what's buzzing on Reddit in your native language","social":{"name":null,"url":null,"external":null,"prefetch":null},"menuLinks":[{"name":"Weekly Selection","url":"/issues","external":null,"prefetch":null},{"name":"RSS","url":"/rss.xml","external":null,"prefetch":false}]},{"locale":"zh-Hant","title":"Reddit 熱門","description":"用中文瀏覽Reddit熱門內容","social":null,"menuLinks":null}]}},"tagsGroup":{"group":[{"fieldValue":"3D Printing","totalCount":4},{"fieldValue":"A/B Testing","totalCount":14},{"fieldValue":"AMCarmy","totalCount":1},{"fieldValue":"APIs","totalCount":96},{"fieldValue":"Action Games","totalCount":2},{"fieldValue":"Ad Blockers","totalCount":4},{"fieldValue":"Adventure Games","totalCount":2},{"fieldValue":"Advertising","totalCount":28},{"fieldValue":"Airbnb","totalCount":2},{"fieldValue":"Alexa Skills","totalCount":2},{"fieldValue":"Amazon","totalCount":8},{"fieldValue":"Analytics","totalCount":115},{"fieldValue":"Android","totalCount":168},{"fieldValue":"Anonymous","totalCount":3},{"fieldValue":"Apple","totalCount":58},{"fieldValue":"Apple TV","totalCount":1},{"fieldValue":"Apple Watch","totalCount":7},{"fieldValue":"Art","totalCount":23},{"fieldValue":"Artificial Intelligence","totalCount":247},{"fieldValue":"Audio and Voice ","totalCount":47},{"fieldValue":"Augmented Reality","totalCount":16},{"fieldValue":"Backpacks","totalCount":1},{"fieldValue":"Batteries","totalCount":1},{"fieldValue":"Beauty","totalCount":2},{"fieldValue":"Biking","totalCount":1},{"fieldValue":"Biohacking","totalCount":6},{"fieldValue":"Bitcoin","totalCount":4},{"fieldValue":"Blockstack","totalCount":2},{"fieldValue":"Board Games","totalCount":6},{"fieldValue":"Books","totalCount":26},{"fieldValue":"Bots","totalCount":29},{"fieldValue":"Branding","totalCount":27},{"fieldValue":"CSM Tools","totalCount":2},{"fieldValue":"Calendar and Scheduling","totalCount":61},{"fieldValue":"Cannabis","totalCount":1},{"fieldValue":"Card Games","totalCount":3},{"fieldValue":"Cars","totalCount":4},{"fieldValue":"Cats","totalCount":1},{"fieldValue":"Charity and Giving","totalCount":3},{"fieldValue":"Chrome Extensions","totalCount":100},{"fieldValue":"Coffee","totalCount":4},{"fieldValue":"Comics and Graphic Novels","totalCount":1},{"fieldValue":"Cooking","totalCount":5},{"fieldValue":"Cooking Books","totalCount":3},{"fieldValue":"Couples","totalCount":2},{"fieldValue":"Crafting games","totalCount":1},{"fieldValue":"Crowdfunding","totalCount":31},{"fieldValue":"Crypto","totalCount":69},{"fieldValue":"Custom iPhone Keyboards","totalCount":1},{"fieldValue":"Customer communication","totalCount":59},{"fieldValue":"DJing","totalCount":1},{"fieldValue":"Dating","totalCount":10},{"fieldValue":"Delivery","totalCount":5},{"fieldValue":"Design Books","totalCount":14},{"fieldValue":"Design Tools","totalCount":418},{"fieldValue":"Developer Tools","totalCount":554},{"fieldValue":"Diversity and Inclusion","totalCount":7},{"fieldValue":"Dogs","totalCount":3},{"fieldValue":"Drinking","totalCount":4},{"fieldValue":"Drones","totalCount":4},{"fieldValue":"Dropbox","totalCount":2},{"fieldValue":"E-Commerce","totalCount":76},{"fieldValue":"Education","totalCount":131},{"fieldValue":"Email","totalCount":50},{"fieldValue":"Email Marketing","totalCount":41},{"fieldValue":"Email Newsletters","totalCount":60},{"fieldValue":"Emoji","totalCount":7},{"fieldValue":"Events","totalCount":22},{"fieldValue":"Facebook","totalCount":9},{"fieldValue":"Facebook Messenger","totalCount":4},{"fieldValue":"Fashion","totalCount":8},{"fieldValue":"FemTech","totalCount":5},{"fieldValue":"Fintech","totalCount":130},{"fieldValue":"Firefox Extensions","totalCount":13},{"fieldValue":"Free Games","totalCount":11},{"fieldValue":"Freelance","totalCount":22},{"fieldValue":"FuckElon","totalCount":1},{"fieldValue":"Funny","totalCount":39},{"fieldValue":"Funny Games","totalCount":4},{"fieldValue":"GIFs","totalCount":4},{"fieldValue":"Games","totalCount":63},{"fieldValue":"GitHub","totalCount":66},{"fieldValue":"Google","totalCount":26},{"fieldValue":"Google Home","totalCount":1},{"fieldValue":"Green Tech","totalCount":15},{"fieldValue":"Growth Hacking","totalCount":73},{"fieldValue":"Growth Hacks ","totalCount":9},{"fieldValue":"Hardware","totalCount":17},{"fieldValue":"Health and Fitness","totalCount":112},{"fieldValue":"Hiring and Recruiting","totalCount":47},{"fieldValue":"Home","totalCount":21},{"fieldValue":"Icons","totalCount":19},{"fieldValue":"Indie Games","totalCount":12},{"fieldValue":"Instagram","totalCount":26},{"fieldValue":"Internet of Things","totalCount":32},{"fieldValue":"Investing","totalCount":50},{"fieldValue":"Kids","totalCount":12},{"fieldValue":"Kindle","totalCount":3},{"fieldValue":"Learn a Language","totalCount":21},{"fieldValue":"Legal","totalCount":12},{"fieldValue":"LinkedIn","totalCount":10},{"fieldValue":"Linux","totalCount":5},{"fieldValue":"Mac","totalCount":89},{"fieldValue":"Mac Menu Bar Apps","totalCount":28},{"fieldValue":"Maker Tools ","totalCount":37},{"fieldValue":"Maps","totalCount":16},{"fieldValue":"Marketing","totalCount":463},{"fieldValue":"Meditation","totalCount":12},{"fieldValue":"Medtech","totalCount":13},{"fieldValue":"Meetings","totalCount":45},{"fieldValue":"Messaging","totalCount":53},{"fieldValue":"Money ","totalCount":34},{"fieldValue":"Movies","totalCount":12},{"fieldValue":"Moving and Storage","totalCount":1},{"fieldValue":"Music","totalCount":46},{"fieldValue":"Netflix","totalCount":5},{"fieldValue":"News","totalCount":41},{"fieldValue":"No-Code","totalCount":81},{"fieldValue":"Nomad Lifestyle","totalCount":27},{"fieldValue":"Note","totalCount":23},{"fieldValue":"On-Demand","totalCount":5},{"fieldValue":"Open Source","totalCount":63},{"fieldValue":"Open World Games","totalCount":1},{"fieldValue":"Outdoors","totalCount":4},{"fieldValue":"PC","totalCount":4},{"fieldValue":"Parenting","totalCount":2},{"fieldValue":"Party","totalCount":5},{"fieldValue":"Payment","totalCount":34},{"fieldValue":"Pets","totalCount":4},{"fieldValue":"Photography","totalCount":38},{"fieldValue":"Photoshop","totalCount":6},{"fieldValue":"Politics","totalCount":7},{"fieldValue":"Privacy","totalCount":46},{"fieldValue":"Product Hunt","totalCount":20},{"fieldValue":"ProductHunt","totalCount":2888},{"fieldValue":"Productivity","totalCount":1111},{"fieldValue":"Prototyping","totalCount":29},{"fieldValue":"Public Relations","totalCount":3},{"fieldValue":"Puzzle Games","totalCount":6},{"fieldValue":"Quantified Self","totalCount":8},{"fieldValue":"Remote Work Tools","totalCount":99},{"fieldValue":"Robots","totalCount":4},{"fieldValue":"SEO Tools","totalCount":33},{"fieldValue":"SaaS","totalCount":280},{"fieldValue":"Safari Extensions","totalCount":4},{"fieldValue":"Sales","totalCount":72},{"fieldValue":"SaveAMC","totalCount":1},{"fieldValue":"Sci-fi Games","totalCount":1},{"fieldValue":"Science Books","totalCount":2},{"fieldValue":"Side Projects","totalCount":51},{"fieldValue":"Sketch","totalCount":8},{"fieldValue":"Slack","totalCount":35},{"fieldValue":"Snapchat","totalCount":1},{"fieldValue":"Soccer","totalCount":1},{"fieldValue":"Social Impact ","totalCount":20},{"fieldValue":"Social Media Tools","totalCount":189},{"fieldValue":"Software Engineering","totalCount":73},{"fieldValue":"SoundCloud","totalCount":2},{"fieldValue":"Space","totalCount":4},{"fieldValue":"Sports","totalCount":8},{"fieldValue":"Sports Games","totalCount":1},{"fieldValue":"Spotify","totalCount":9},{"fieldValue":"Spreadsheets","totalCount":15},{"fieldValue":"Squarespace","totalCount":1},{"fieldValue":"Standing Desks","totalCount":2},{"fieldValue":"Startup Books","totalCount":12},{"fieldValue":"Startup Lessons ","totalCount":24},{"fieldValue":"Strategy games","totalCount":4},{"fieldValue":"Surfing","totalCount":2},{"fieldValue":"TV","totalCount":7},{"fieldValue":"Tabletop Games","totalCount":1},{"fieldValue":"Task Management","totalCount":76},{"fieldValue":"Tech","totalCount":865},{"fieldValue":"Telegram","totalCount":3},{"fieldValue":"Text Editors","totalCount":13},{"fieldValue":"Time Tracking","totalCount":18},{"fieldValue":"Transportation","totalCount":1},{"fieldValue":"Travel","totalCount":41},{"fieldValue":"Twitter","totalCount":32},{"fieldValue":"Typography","totalCount":4},{"fieldValue":"User Experience","totalCount":293},{"fieldValue":"Venture Capital","totalCount":23},{"fieldValue":"Video Streaming","totalCount":62},{"fieldValue":"Virtual Assistants","totalCount":11},{"fieldValue":"Virtual Reality","totalCount":10},{"fieldValue":"Wallpaper","totalCount":2},{"fieldValue":"Wearables","totalCount":9},{"fieldValue":"Weather Apps","totalCount":2},{"fieldValue":"Web App","totalCount":344},{"fieldValue":"Windows","totalCount":18},{"fieldValue":"Wine","totalCount":1},{"fieldValue":"Word Games","totalCount":1},{"fieldValue":"WordPress","totalCount":15},{"fieldValue":"Work In Progress ","totalCount":4},{"fieldValue":"Writing Tools","totalCount":65},{"fieldValue":"YouTube","totalCount":13},{"fieldValue":"bitcoin","totalCount":3},{"fieldValue":"iMessage Apps","totalCount":2},{"fieldValue":"iPad","totalCount":37},{"fieldValue":"iPhone","totalCount":350},{"fieldValue":"reddit","totalCount":4},{"fieldValue":"science","totalCount":1},{"fieldValue":"tweet","totalCount":1324}]},"allBlogPost":{"nodes":[{"id":"PhPost-a84866d5-3066-5306-befe-46b643acb7d4","excerpt":"- Team & Tasks&nbsp; - Notes & docs&nbsp; - Discussions&nbsp; - Feedback & Roadmap&nbsp; - Knowledge base","slug":"/ph/due-work-2-0","title":"Due.work 2.0 - Team collaboration, feedback & knowledge base","date":"December 22, 2020","dateISO":"2020-12-22T10:51:50.744Z","datetime":"2020-12-22 10:51","tags":["Web App","Productivity","Task Management","Note","Marketing","Growth Hacking","SaaS","Tech","ProductHunt"],"image":null,"imageAlt":null,"__typename":"SocialMediaPost","provider":"Product Hunt","thirdPartyId":"a84866d5-3066-5306-befe-46b643acb7d4","url":"https://www.producthunt.com/posts/due-work-2-0?utm_campaign=producthunt-api&utm_medium=api-v2&utm_source=Application%3A+Buzzing+%28ID%3A+41381%29","originalUrl":"https://www.producthunt.com/r/561e35f53f9e7f?utm_campaign=producthunt-api&utm_medium=api-v2&utm_source=Application%3A+Buzzing+%28ID%3A+41381%29","imageRemote":"https://ph-files.imgix.net/bca43f41-2103-496c-9da7-4c5341b542e4.gif?auto=format&fit=crop","video":null,"channel":null,"channelUrl":null,"author":"Kevin William David","authorUrl":"https://www.producthunt.com/@kevin?utm_campaign=producthunt-api&utm_medium=api-v2&utm_source=Application%3A+Buzzing+%28ID%3A+41381%29","authorImage":null,"authorSlug":null,"score":1110,"views":null,"sharedCount":null,"likeCount":null,"sharedContent":null,"parent":{"localize":[{"description":"-团队和任务&nbsp；-笔记和文档&nbsp；-讨论&nbsp；-反馈和路线图&nbsp；-知识库","tagline":"团队协作、反馈和知识库","locale":"zh"},{"description":"-團隊和任務&nbsp；-筆記和文檔&nbsp；-討論&nbsp；-反饋和路線圖&nbsp；-知識庫","tagline":"團隊協作、反饋和知識庫","locale":"zh-Hant"}]}},{"id":"PhPost-3047264a-75f7-5ba9-aa37-a147e3437e1a","excerpt":"RetentionX translates your data into clear actions. Take the best business decisions based on AI-driven data analysis and replace the power of an entire data science team with just one, easy-to-use tool.","slug":"/ph/retentionx","title":"RetentionX - AI for Shopify","date":"December 22, 2020","dateISO":"2020-12-22T09:34:19.099Z","datetime":"2020-12-22 09:34","tags":["Analytics","SaaS","Artificial Intelligence","E-Commerce","ProductHunt"],"image":null,"imageAlt":null,"__typename":"SocialMediaPost","provider":"Product Hunt","thirdPartyId":"3047264a-75f7-5ba9-aa37-a147e3437e1a","url":"https://www.producthunt.com/posts/retentionx?utm_campaign=producthunt-api&utm_medium=api-v2&utm_source=Application%3A+Buzzing+%28ID%3A+41381%29","originalUrl":"https://www.producthunt.com/r/012140f0c013b8?utm_campaign=producthunt-api&utm_medium=api-v2&utm_source=Application%3A+Buzzing+%28ID%3A+41381%29","imageRemote":null,"video":{"url":"https://www.youtube.com/watch?v=eEwWxG4x58o","embed":null,"width":null,"height":null},"channel":null,"channelUrl":null,"author":"Chris Messina","authorUrl":"https://www.producthunt.com/@chrismessina?utm_campaign=producthunt-api&utm_medium=api-v2&utm_source=Application%3A+Buzzing+%28ID%3A+41381%29","authorImage":null,"authorSlug":null,"score":2228,"views":null,"sharedCount":null,"likeCount":null,"sharedContent":null,"parent":{"localize":[{"description":"RetentionX将您的数据转换为清晰的操作。基于人工智能驱动的数据分析做出最佳业务决策，并用一个简单易用的工具取代整个数据科学团队的力量。","tagline":"AI代表Shopify","locale":"zh"},{"description":"RetentionX將您的數據轉換爲清晰的操作。基於人工智能驅動的數據分析做出最佳業務決策，並用一個簡單易用的工具取代整個數據科學團隊的力量。","tagline":"AI代表Shopify","locale":"zh-Hant"}]}},{"id":"PhPost-95d7e932-4537-5206-8318-baa27321d5f7","excerpt":"Fuel fund showcases selected startups to 1000s of handpicked investors in the US. Think of it as a fund's demo day but asynchronous and massively scalable. When a startup lists on wantfuel.com, we forward their details to almost 5000+ investors on our rolodex.","slug":"/ph/fuel-fund","title":"Fuel Fund - List your startup and get discovered by 1000s of investors","date":"December 20, 2020","dateISO":"2020-12-20T14:34:07.553Z","datetime":"2020-12-20 14:34","tags":["Web App","Investing","Crowdfunding","SaaS","ProductHunt"],"image":null,"imageAlt":null,"__typename":"SocialMediaPost","provider":"Product Hunt","thirdPartyId":"95d7e932-4537-5206-8318-baa27321d5f7","url":"https://www.producthunt.com/posts/fuel-fund?utm_campaign=producthunt-api&utm_medium=api-v2&utm_source=Application%3A+Buzzing+%28ID%3A+41381%29","originalUrl":"https://www.producthunt.com/r/d7f94a571199aa?utm_campaign=producthunt-api&utm_medium=api-v2&utm_source=Application%3A+Buzzing+%28ID%3A+41381%29","imageRemote":"https://ph-files.imgix.net/be444bf0-ea67-4f69-a19a-e69b1cde7320.png?auto=format&fit=crop","video":null,"channel":null,"channelUrl":null,"author":"Sid","authorUrl":"https://www.producthunt.com/@fullofsid?utm_campaign=producthunt-api&utm_medium=api-v2&utm_source=Application%3A+Buzzing+%28ID%3A+41381%29","authorImage":null,"authorSlug":null,"score":313,"views":null,"sharedCount":null,"likeCount":null,"sharedContent":null,"parent":{"localize":[{"description":"燃料基金向美国数以千计精挑细选的投资者展示精选的初创企业。可以将其视为基金的演示日，但不同步且可大规模扩展。当一家初创公司在wantfuel.com上上市时，我们会将他们的详细信息转发给我们的rolodex上的近5000多名投资者。","tagline":"列出你的创业公司，被成千上万的投资者发现","locale":"zh"},{"description":"燃料基金向美國數以千計精挑細選的投資者展示精選的初創企業。可以將其視爲基金的演示日，但不同步且可大規模擴展。當一家初創公司在wantfuel.com上上市時，我們會將他們的詳細信息轉發給我們的rolodex上的近5000多名投資者。","tagline":"列出你的創業公司，被成千上萬的投資者發現","locale":"zh-Hant"}]}},{"id":"PhPost-06271de7-6109-533c-a21e-52dd63854917","excerpt":"Introducing Accountable 2.0 - the all new way to become HIPAA compliant. Designed to simplify the entire process of achieving and managing HIPAA compliance, from HIPAA training to policy management. And did we mention $100k HIPAA breach guarantee?","slug":"/ph/accountable-2-0","title":"Accountable 2.0 - HIPAA compliance management platform and $100k guarantee","date":"December 19, 2020","dateISO":"2020-12-19T07:34:06.622Z","datetime":"2020-12-19 07:34","tags":["Web App","Health and Fitness","SaaS","Tech","Medtech","ProductHunt"],"image":null,"imageAlt":null,"__typename":"SocialMediaPost","provider":"Product Hunt","thirdPartyId":"06271de7-6109-533c-a21e-52dd63854917","url":"https://www.producthunt.com/posts/accountable-2-0?utm_campaign=producthunt-api&utm_medium=api-v2&utm_source=Application%3A+Buzzing+%28ID%3A+41381%29","originalUrl":"https://www.producthunt.com/r/7fc7278f9fcb4c?utm_campaign=producthunt-api&utm_medium=api-v2&utm_source=Application%3A+Buzzing+%28ID%3A+41381%29","imageRemote":"https://ph-files.imgix.net/2539716c-d359-4861-affe-3594c496a0ae.jpeg?auto=format&fit=crop","video":null,"channel":null,"channelUrl":null,"author":"Kevin Henry","authorUrl":"https://www.producthunt.com/@kevinleehenry?utm_campaign=producthunt-api&utm_medium=api-v2&utm_source=Application%3A+Buzzing+%28ID%3A+41381%29","authorImage":null,"authorSlug":null,"score":187,"views":null,"sharedCount":null,"likeCount":null,"sharedContent":null,"parent":{"localize":[{"description":"引入负责任的2.0-成为HIPAA兼容的全新方式。旨在简化实现和管理HIPAA合规性的整个流程，从HIPAA培训到策略管理。我们有没有提到10万美元的HIPAA违约担保？","tagline":"HIPAA合规管理平台和10万美元担保","locale":"zh"},{"description":"引入負責任的2.0-成爲HIPAA兼容的全新方式。旨在簡化實現和管理HIPAA合規性的整個流程，從HIPAA培訓到策略管理。我們有沒有提到10萬美元的HIPAA違約擔保？","tagline":"HIPAA合規管理平臺和10萬美元擔保","locale":"zh-Hant"}]}},{"id":"PhPost-5306ae3d-a296-56b8-ae6a-c95846d8813d","excerpt":"Chocolate is sweet but SaaS surprises are sweeter - and we have two a day! At the stroke of midnight SaaS Advent Calendar unlocks an exclusive deal from well-established SaaS companies as well as a free SaaS in beta that needs valuable feedback.","slug":"/ph/saas-advent-calendar-2020","title":"SaaS Advent Calendar 2020 - SaaSanta is coming to town and he's not bringing coal","date":"December 18, 2020","dateISO":"2020-12-18T08:47:54.485Z","datetime":"2020-12-18 08:47","tags":["Web App","SaaS","ProductHunt"],"image":null,"imageAlt":null,"__typename":"SocialMediaPost","provider":"Product Hunt","thirdPartyId":"5306ae3d-a296-56b8-ae6a-c95846d8813d","url":"https://www.producthunt.com/posts/saas-advent-calendar-2020?utm_campaign=producthunt-api&utm_medium=api-v2&utm_source=Application%3A+Buzzing+%28ID%3A+41381%29","originalUrl":"https://www.producthunt.com/r/582f4384a8a2de?utm_campaign=producthunt-api&utm_medium=api-v2&utm_source=Application%3A+Buzzing+%28ID%3A+41381%29","imageRemote":"https://ph-files.imgix.net/1880c5ee-45d8-45fe-8921-260d1c96ea68.png?auto=format&fit=crop","video":null,"channel":null,"channelUrl":null,"author":"Alex. Delivet","authorUrl":"https://www.producthunt.com/@alexd?utm_campaign=producthunt-api&utm_medium=api-v2&utm_source=Application%3A+Buzzing+%28ID%3A+41381%29","authorImage":null,"authorSlug":null,"score":442,"views":null,"sharedCount":null,"likeCount":null,"sharedContent":null,"parent":{"localize":[{"description":"巧克力是甜的，但SaaS惊喜更甜-我们每天吃两个！午夜钟声敲响之际，SaaS Advent Calendar解锁了来自知名SaaS公司的独家交易，以及需要宝贵反馈的免费测试版SaaS。","tagline":"萨亚圣诞老人要来镇上，他不会带煤来","locale":"zh"},{"description":"巧克力是甜的，但SaaS驚喜更甜-我們每天喫兩個！午夜鐘聲敲響之際，SaaS Advent Calendar解鎖了來自知名SaaS公司的獨家交易，以及需要寶貴反饋的免費測試版SaaS。","tagline":"薩亞聖誕老人要來鎮上，他不會帶煤來","locale":"zh-Hant"}]}}]}},"pageContext":{"basePath":"/","pageType":"tag","tag":"SaaS","tagsFilter":{"date":{"gt":"2000-12-25T10:54:58.000Z"}},"filter":{"date":{"gt":"2000-12-25T10:54:58.000Z"},"tags":{"eq":"SaaS"}},"limit":25,"skip":275,"total":280,"totalPages":12,"currentPage":12,"maxWidth":1024,"maxHeight":512,"locale":"en","hrefLang":"en-US","originalPath":"/tags/saa-s/page/12","dateFormat":"MM/DD/YYYY"}},"staticQueryHashes":["1239077767","2506312863","2744905544","3025052997","3280999885","3948070931","68699025"]}