{"componentChunkName":"component---gatsby-theme-buzzing-src-gatsby-theme-timeline-templates-posts-query-js","path":"/en/tags/story/page/60","result":{"data":{"site":{"siteMetadata":{"title":"Reddit 热门","description":"用中文浏览Reddit热门内容","social":[{"name":"Twitter","url":"https://twitter.com/gatsbyjs","external":null,"prefetch":null},{"name":"GitHub","url":"https://github.com/gatsbyjs","external":null,"prefetch":null}],"menuLinks":[],"localize":[{"locale":"en","title":"Buzzing on Reddit","description":"See what's buzzing on Reddit in your native language","social":[{"name":"Reddit","url":"https://www.reddit.com/","external":true,"prefetch":null}],"menuLinks":[{"name":"Weekly Selection","url":"/issues","external":null,"prefetch":null},{"name":"RSS","url":"/rss.xml","external":null,"prefetch":false}]},{"locale":"zh-Hant","title":"Reddit 熱門","description":"用中文瀏覽Reddit熱門內容","social":null,"menuLinks":null}]}},"tagsGroup":{"group":[{"fieldValue":"ASK HN","totalCount":42},{"fieldValue":"Bitcoin","totalCount":4},{"fieldValue":"Hacker News","totalCount":2407},{"fieldValue":"Poll","totalCount":1},{"fieldValue":"SaveAMC","totalCount":1},{"fieldValue":"Show HN","totalCount":81},{"fieldValue":"bitcoin","totalCount":3},{"fieldValue":"investing","totalCount":753},{"fieldValue":"poll","totalCount":1},{"fieldValue":"reddit","totalCount":4523},{"fieldValue":"science","totalCount":1},{"fieldValue":"stocks","totalCount":1482},{"fieldValue":"story","totalCount":2406},{"fieldValue":"tweet","totalCount":767},{"fieldValue":"wallstreetbets","totalCount":2288}]},"allBlogPost":{"nodes":[{"__typename":"SocialMediaPost","id":"HnPost-25772365","excerpt":"","slug":"/hn/25772365","title":"If you want peace, study war","date":"January 15, 2021","dateISO":"2021-01-15T17:02:43.535Z","datetime":"2021-01-15 17:02","tags":["story","Hacker News"],"image":null,"imageAlt":null,"provider":"Hacker News","thirdPartyId":"25772365","url":"https://news.ycombinator.com/item?id=25772365","originalUrl":"https://www.persuasion.community/p/if-you-want-peace-study-war-533","imageRemote":"https://cdn.substack.com/image/fetch/h_600,c_limit,f_auto,q_auto:good,fl_progressive:steep/https%3A%2F%2Fbucketeer-e05bbc84-baa3-437e-9518-adb32be77984.s3.amazonaws.com%2Fpublic%2Fimages%2Fee9f8cb1-eee9-4e69-bce8-d7b52537900a_3896x2568.jpeg","video":null,"channel":null,"channelUrl":null,"author":"ascertain","authorUrl":"https://news.ycombinator.com/user?id=ascertain","authorImage":null,"authorSlug":null,"score":208,"views":null,"sharedCount":null,"likeCount":null,"sharedContent":null,"parent":{"__typename":"HnJson","localize":[{"title":"要想和平，先研究战争","locale":"zh"},{"title":"要想和平，先研究戰爭","locale":"zh-Hant"}]}},{"__typename":"SocialMediaPost","id":"HnPost-25788129","excerpt":"","slug":"/hn/25788129","title":"New MacBook Pro models to feature magsafe, no touch bar and more ports","date":"January 15, 2021","dateISO":"2021-01-15T17:02:43.535Z","datetime":"2021-01-15 17:02","tags":["story","Hacker News"],"image":null,"imageAlt":null,"provider":"Hacker News","thirdPartyId":"25788129","url":"https://news.ycombinator.com/item?id=25788129","originalUrl":"https://www.macrumors.com/2021/01/15/new-macbook-pro-models-magsafe-ports/","imageRemote":"https://images.macrumors.com/t/LJXzJkkcCAIu9DTBViePFJXge10=/2344x/https://images.macrumors.com/article-new/2021/01/Flat-2021-MacBook-Pro-Mockup-Feature.jpg","video":null,"channel":null,"channelUrl":null,"author":"Heliosmaster","authorUrl":"https://news.ycombinator.com/user?id=Heliosmaster","authorImage":null,"authorSlug":null,"score":497,"views":null,"sharedCount":null,"likeCount":null,"sharedContent":null,"parent":{"__typename":"HnJson","localize":[{"title":"新款MacBook Pro将配备magsafe、无触控条和更多端口。","locale":"zh"},{"title":"新款MacBook Pro將配備magsafe、無觸控條和更多端口。","locale":"zh-Hant"}]}},{"__typename":"SocialMediaPost","id":"HnPost-25783303","excerpt":"","slug":"/hn/25783303","title":"Native Americans say U.S. does not own land it is about to give to Rio Tinto","date":"January 15, 2021","dateISO":"2021-01-15T15:58:51.703Z","datetime":"2021-01-15 15:58","tags":["story","Hacker News"],"image":null,"imageAlt":null,"provider":"Hacker News","thirdPartyId":"25783303","url":"https://news.ycombinator.com/item?id=25783303","originalUrl":"https://www.reuters.com/article/us-usa-mining-resolution/native-americans-say-u-s-does-not-own-land-it-is-about-to-give-to-rio-tinto-idUSKBN29J2R9","imageRemote":"https://static.reuters.com/resources/r/?m=02&d=20210115&t=2&i=1547858626&r=LYNXMPEH0D1JT&w=800","video":null,"channel":null,"channelUrl":null,"author":"pseudolus","authorUrl":"https://news.ycombinator.com/user?id=pseudolus","authorImage":null,"authorSlug":null,"score":204,"views":null,"sharedCount":null,"likeCount":null,"sharedContent":null,"parent":{"__typename":"HnJson","localize":[{"title":"美国原住民称美国并不拥有其即将给力拓的土地。","locale":"zh"},{"title":"美國原住民稱美國並不擁有其即將給力拓的土地。","locale":"zh-Hant"}]}},{"__typename":"SocialMediaPost","id":"HnPost-25789603","excerpt":"","slug":"/hn/25789603","title":"Tell HN: Dropbox now requires access to contacts for Google login","date":"January 15, 2021","dateISO":"2021-01-15T14:06:47.812Z","datetime":"2021-01-15 14:06","tags":["story","Hacker News"],"image":null,"imageAlt":null,"provider":"Hacker News","thirdPartyId":"25789603","url":"https://news.ycombinator.com/item?id=25789603","originalUrl":"https://news.ycombinator.com/item?id=25789603","imageRemote":null,"video":null,"channel":null,"channelUrl":null,"author":"poxobloc","authorUrl":"https://news.ycombinator.com/user?id=poxobloc","authorImage":null,"authorSlug":null,"score":618,"views":null,"sharedCount":null,"likeCount":null,"sharedContent":null,"parent":{"__typename":"HnJson","localize":[{"title":"告诉HN：Dropbox现在需要访问联系人才能登录谷歌。","locale":"zh"},{"title":"告訴HN：Dropbox現在需要訪問聯繫人才能登錄谷歌。","locale":"zh-Hant"}]}},{"__typename":"SocialMediaPost","id":"HnPost-25781645","excerpt":"","slug":"/hn/25781645","title":"Smart contracts on Bitcoin","date":"January 15, 2021","dateISO":"2021-01-15T10:31:43.652Z","datetime":"2021-01-15 10:31","tags":["story","Hacker News"],"image":null,"imageAlt":null,"provider":"Hacker News","thirdPartyId":"25781645","url":"https://news.ycombinator.com/item?id=25781645","originalUrl":"https://avc.com/2021/01/smart-contracts-on-bitcoin/","imageRemote":"https://avc.com/content/themes/storyware/assets/svg/logo.svg","video":null,"channel":null,"channelUrl":null,"author":"rmason","authorUrl":"https://news.ycombinator.com/user?id=rmason","authorImage":null,"authorSlug":null,"score":214,"views":null,"sharedCount":null,"likeCount":null,"sharedContent":null,"parent":{"__typename":"HnJson","localize":[{"title":"比特币的智能合约","locale":"zh"},{"title":"比特幣的智能合約","locale":"zh-Hant"}]}},{"__typename":"SocialMediaPost","id":"HnPost-25783508","excerpt":"","slug":"/hn/25783508","title":"Zoom improvements requested by music schools","date":"January 15, 2021","dateISO":"2021-01-15T08:56:41.313Z","datetime":"2021-01-15 08:56","tags":["story","Hacker News"],"image":null,"imageAlt":null,"provider":"Hacker News","thirdPartyId":"25783508","url":"https://news.ycombinator.com/item?id=25783508","originalUrl":"https://music.yale.edu/news/yale-led-effort-yields-zoom-upgrades","imageRemote":"https://music.yale.edu/sites/default/files/styles/card_image/public/2020-09/Llewellyn%20Sanchez-Werner%20%2720AD.png?itok=3By9-1G7","video":null,"channel":null,"channelUrl":null,"author":"chat","authorUrl":"https://news.ycombinator.com/user?id=chat","authorImage":null,"authorSlug":null,"score":270,"views":null,"sharedCount":null,"likeCount":null,"sharedContent":null,"parent":{"__typename":"HnJson","localize":[{"title":"音乐学校要求的变焦改进","locale":"zh"},{"title":"音樂學校要求的變焦改進","locale":"zh-Hant"}]}},{"__typename":"SocialMediaPost","id":"HnPost-25786236","excerpt":"","slug":"/hn/25786236","title":"Apple M1 Assembly Language Hello World","date":"January 15, 2021","dateISO":"2021-01-15T08:56:41.313Z","datetime":"2021-01-15 08:56","tags":["story","Hacker News"],"image":null,"imageAlt":null,"provider":"Hacker News","thirdPartyId":"25786236","url":"https://news.ycombinator.com/item?id=25786236","originalUrl":"https://smist08.wordpress.com/2021/01/08/apple-m1-assembly-language-hello-world/","imageRemote":"https://smist08.files.wordpress.com/2020/05/arm64cover.png","video":null,"channel":null,"channelUrl":null,"author":"joubert","authorUrl":"https://news.ycombinator.com/user?id=joubert","authorImage":null,"authorSlug":null,"score":372,"views":null,"sharedCount":null,"likeCount":null,"sharedContent":null,"parent":{"__typename":"HnJson","localize":[{"title":"苹果 M1 汇编语言 Hello World","locale":"zh"},{"title":"蘋果 M1 彙編語言 Hello World","locale":"zh-Hant"}]}},{"__typename":"SocialMediaPost","id":"HnPost-25770996","excerpt":"","slug":"/hn/25770996","title":"Intel is dying and we can’t save it","date":"January 15, 2021","dateISO":"2021-01-15T08:02:41.622Z","datetime":"2021-01-15 08:02","tags":["story","Hacker News"],"image":null,"imageAlt":null,"provider":"Hacker News","thirdPartyId":"25770996","url":"https://news.ycombinator.com/item?id=25770996","originalUrl":"https://sithsiri.medium.com/intel-is-dying-and-we-cant-save-it-a8685189d79a","imageRemote":"https://miro.medium.com/max/1200/1*Et_NYF0KusJ6MQdTK7RtDQ.png","video":null,"channel":null,"channelUrl":null,"author":"mardiyah","authorUrl":"https://news.ycombinator.com/user?id=mardiyah","authorImage":null,"authorSlug":null,"score":203,"views":null,"sharedCount":null,"likeCount":null,"sharedContent":null,"parent":{"__typename":"HnJson","localize":[{"title":"英特尔快不行了，我们也救不了它了","locale":"zh"},{"title":"英特爾快不行了，我們也救不了它了","locale":"zh-Hant"}]}},{"__typename":"SocialMediaPost","id":"HnPost-25785191","excerpt":"","slug":"/hn/25785191","title":"Political Detox Week – No politics on HN for one week (2016)","date":"January 15, 2021","dateISO":"2021-01-15T08:02:41.622Z","datetime":"2021-01-15 08:02","tags":["story","Hacker News"],"image":null,"imageAlt":null,"provider":"Hacker News","thirdPartyId":"25785191","url":"https://news.ycombinator.com/item?id=25785191","originalUrl":"https://news.ycombinator.com/item?id=13108404","imageRemote":"https://news.ycombinator.com/y18.gif","video":null,"channel":null,"channelUrl":null,"author":"notional","authorUrl":"https://news.ycombinator.com/user?id=notional","authorImage":null,"authorSlug":null,"score":318,"views":null,"sharedCount":null,"likeCount":null,"sharedContent":null,"parent":{"__typename":"HnJson","localize":[{"title":"政治排毒周--HN一周不讲政治（2016年","locale":"zh"},{"title":"政治排毒周--HN一週不講政治（2016年","locale":"zh-Hant"}]}},{"__typename":"SocialMediaPost","id":"HnPost-25777580","excerpt":"","slug":"/hn/25777580","title":"A Week with Plan 9","date":"January 15, 2021","dateISO":"2021-01-15T03:31:07.189Z","datetime":"2021-01-15 03:31","tags":["story","Hacker News"],"image":null,"imageAlt":null,"provider":"Hacker News","thirdPartyId":"25777580","url":"https://news.ycombinator.com/item?id=25777580","originalUrl":"https://thedorkweb.substack.com/p/a-week-with-plan-9","imageRemote":"https://cdn.substack.com/image/fetch/h_600,c_limit,f_auto,q_auto:good,fl_progressive:steep/https%3A%2F%2Fbucketeer-e05bbc84-baa3-437e-9518-adb32be77984.s3.amazonaws.com%2Fpublic%2Fimages%2F0c171bf8-c87f-4442-a890-647ce49c3576_1424x720.png","video":null,"channel":null,"channelUrl":null,"author":"simonpure","authorUrl":"https://news.ycombinator.com/user?id=simonpure","authorImage":null,"authorSlug":null,"score":225,"views":null,"sharedCount":null,"likeCount":null,"sharedContent":null,"parent":{"__typename":"HnJson","localize":[{"title":"计划9的一周","locale":"zh"},{"title":"計劃9的一週","locale":"zh-Hant"}]}},{"__typename":"SocialMediaPost","id":"HnPost-25783017","excerpt":"","slug":"/hn/25783017","title":"Open Letter from Laura Poitras","date":"January 15, 2021","dateISO":"2021-01-15T03:31:07.189Z","datetime":"2021-01-15 03:31","tags":["story","Hacker News"],"image":null,"imageAlt":null,"provider":"Hacker News","thirdPartyId":"25783017","url":"https://news.ycombinator.com/item?id=25783017","originalUrl":"https://www.praxisfilms.org/open-letter-from-laura-poitras/","imageRemote":null,"video":null,"channel":null,"channelUrl":null,"author":"jashkenas","authorUrl":"https://news.ycombinator.com/user?id=jashkenas","authorImage":null,"authorSlug":null,"score":276,"views":null,"sharedCount":null,"likeCount":null,"sharedContent":null,"parent":{"__typename":"HnJson","localize":[{"title":"Laura Poitras的公开信","locale":"zh"},{"title":"Laura Poitras的公開信","locale":"zh-Hant"}]}},{"__typename":"SocialMediaPost","id":"HnPost-25782861","excerpt":"","slug":"/hn/25782861","title":"Aquafaba","date":"January 14, 2021","dateISO":"2021-01-14T23:53:00.129Z","datetime":"2021-01-14 23:53","tags":["story","Hacker News"],"image":null,"imageAlt":null,"provider":"Hacker News","thirdPartyId":"25782861","url":"https://news.ycombinator.com/item?id=25782861","originalUrl":"http://aquafaba.com/index.html","imageRemote":"http://aquafaba.com/aquafaba.jpg","video":null,"channel":null,"channelUrl":null,"author":"david-given","authorUrl":"https://news.ycombinator.com/user?id=david-given","authorImage":null,"authorSlug":null,"score":586,"views":null,"sharedCount":null,"likeCount":null,"sharedContent":null,"parent":{"__typename":"HnJson","localize":[{"title":"Aquafaba","locale":"zh"},{"title":"Aquafaba","locale":"zh-Hant"}]}},{"__typename":"SocialMediaPost","id":"HnPost-25780013","excerpt":"","slug":"/hn/25780013","title":"Testosterone levels show steady decrease among young US men","date":"January 14, 2021","dateISO":"2021-01-14T22:10:04.322Z","datetime":"2021-01-14 22:10","tags":["story","Hacker News"],"image":null,"imageAlt":null,"provider":"Hacker News","thirdPartyId":"25780013","url":"https://news.ycombinator.com/item?id=25780013","originalUrl":"https://www.urologytimes.com/view/testosterone-levels-show-steady-decrease-among-young-us-men","imageRemote":"https://cdn.sanity.io/images/0vv8moc6/urologytimes/dab769cef030100153165fd49ba29743ed8a1d3b-1000x667.jpg?auto=format","video":null,"channel":null,"channelUrl":null,"author":"rasengan","authorUrl":"https://news.ycombinator.com/user?id=rasengan","authorImage":null,"authorSlug":null,"score":513,"views":null,"sharedCount":null,"likeCount":null,"sharedContent":null,"parent":{"__typename":"HnJson","localize":[{"title":"美国年轻男性睾丸激素水平呈现稳步下降趋势","locale":"zh"},{"title":"美國年輕男性睾丸激素水平呈現穩步下降趨勢","locale":"zh-Hant"}]}},{"__typename":"SocialMediaPost","id":"HnPost-25775786","excerpt":"","slug":"/hn/25775786","title":"Dungeon Magazine","date":"January 14, 2021","dateISO":"2021-01-14T20:17:40.056Z","datetime":"2021-01-14 20:17","tags":["story","Hacker News"],"image":null,"imageAlt":null,"provider":"Hacker News","thirdPartyId":"25775786","url":"https://news.ycombinator.com/item?id=25775786","originalUrl":"https://archive.org/details/dungeonmagazine?sort=titleSorter","imageRemote":"https://ia800206.us.archive.org/2/items/dungeonmagazine/dungeonmagazine_itemimage.jpg","video":null,"channel":null,"channelUrl":null,"author":"kleiba","authorUrl":"https://news.ycombinator.com/user?id=kleiba","authorImage":null,"authorSlug":null,"score":315,"views":null,"sharedCount":null,"likeCount":null,"sharedContent":null,"parent":{"__typename":"HnJson","localize":[{"title":"地下城杂志","locale":"zh"},{"title":"地下城雜誌","locale":"zh-Hant"}]}},{"__typename":"SocialMediaPost","id":"HnPost-25779367","excerpt":"","slug":"/hn/25779367","title":"Twitter shuts down account of Sci-Hub","date":"January 14, 2021","dateISO":"2021-01-14T20:17:40.056Z","datetime":"2021-01-14 20:17","tags":["story","Hacker News"],"image":null,"imageAlt":null,"provider":"Hacker News","thirdPartyId":"25779367","url":"https://news.ycombinator.com/item?id=25779367","originalUrl":"https://www.sciencemag.org/news/2021/01/twitter-shuts-down-account-sci-hub-pirated-papers-website","imageRemote":"https://www.sciencemag.org/sites/default/files/styles/article_main_large/public/twitter_1280p.jpg?itok=L2fnZPhJ","video":null,"channel":null,"channelUrl":null,"author":"amrrs","authorUrl":"https://news.ycombinator.com/user?id=amrrs","authorImage":null,"authorSlug":null,"score":551,"views":null,"sharedCount":null,"likeCount":null,"sharedContent":null,"parent":{"__typename":"HnJson","localize":[{"title":"Twitter关闭了Sci-Hub的账户","locale":"zh"},{"title":"Twitter關閉了Sci-Hub的賬戶","locale":"zh-Hant"}]}},{"__typename":"SocialMediaPost","id":"HnPost-25780334","excerpt":"","slug":"/hn/25780334","title":"U.S. insurrectionists received $500k in bitcoins from French donor","date":"January 14, 2021","dateISO":"2021-01-14T20:17:40.056Z","datetime":"2021-01-14 20:17","tags":["story","Hacker News"],"image":null,"imageAlt":null,"provider":"Hacker News","thirdPartyId":"25780334","url":"https://news.ycombinator.com/item?id=25780334","originalUrl":"https://blog.chainalysis.com/reports/capitol-riot-bitcoin-donation-alt-right-domestic-extremism","imageRemote":"https://assets.website-files.com/5a95e929b010650001bae4c6/60006d956c193058eee27988_capitol%20riot%202-min.jpg","video":null,"channel":null,"channelUrl":null,"author":"jeffbee","authorUrl":"https://news.ycombinator.com/user?id=jeffbee","authorImage":null,"authorSlug":null,"score":256,"views":null,"sharedCount":null,"likeCount":null,"sharedContent":null,"parent":{"__typename":"HnJson","localize":[{"title":"美国叛乱分子从法国捐助者那里获得50万美元的比特币。","locale":"zh"},{"title":"美國叛亂分子從法國捐助者那裏獲得50萬美元的比特幣。","locale":"zh-Hant"}]}},{"__typename":"SocialMediaPost","id":"HnPost-25773109","excerpt":"","slug":"/hn/25773109","title":"Can Apple's M1 help you train models faster and cheaper than Nvidia's V100?","date":"January 14, 2021","dateISO":"2021-01-14T19:36:03.482Z","datetime":"2021-01-14 19:36","tags":["story","Hacker News"],"image":null,"imageAlt":null,"provider":"Hacker News","thirdPartyId":"25773109","url":"https://news.ycombinator.com/item?id=25773109","originalUrl":"https://wandb.ai/vanpelt/m1-benchmark/reports/Can-Apple-s-M1-help-you-train-models-faster-cheaper-than-NVIDIA-s-V100---VmlldzozNTkyMzg","imageRemote":"https://wandb.ai/logo.png","video":null,"channel":null,"channelUrl":null,"author":"briggers","authorUrl":"https://news.ycombinator.com/user?id=briggers","authorImage":null,"authorSlug":null,"score":225,"views":null,"sharedCount":null,"likeCount":null,"sharedContent":null,"parent":{"__typename":"HnJson","localize":[{"title":"苹果的M1能帮你比Nvidia的V100更快更便宜地训练模型吗？","locale":"zh"},{"title":"蘋果的M1能幫你比Nvidia的V100更快更便宜地訓練模型嗎？","locale":"zh-Hant"}]}},{"__typename":"SocialMediaPost","id":"HnPost-25778088","excerpt":"","slug":"/hn/25778088","title":"Wine 6.0","date":"January 14, 2021","dateISO":"2021-01-14T19:36:03.482Z","datetime":"2021-01-14 19:36","tags":["story","Hacker News"],"image":null,"imageAlt":null,"provider":"Hacker News","thirdPartyId":"25778088","url":"https://news.ycombinator.com/item?id=25778088","originalUrl":"https://source.winehq.org/git/wine.git/blob/wine-6.0:/ANNOUNCE","imageRemote":"https://source.winehq.org/git/git-logo.png","video":null,"channel":null,"channelUrl":null,"author":"coldpie","authorUrl":"https://news.ycombinator.com/user?id=coldpie","authorImage":null,"authorSlug":null,"score":437,"views":null,"sharedCount":null,"likeCount":null,"sharedContent":null,"parent":{"__typename":"HnJson","localize":[{"title":"葡萄酒6.0","locale":"zh"},{"title":"葡萄酒6.0","locale":"zh-Hant"}]}},{"__typename":"SocialMediaPost","id":"HnPost-25779681","excerpt":"","slug":"/hn/25779681","title":"Bill and Melinda Gates revealed as largest private farmland owners in US","date":"January 14, 2021","dateISO":"2021-01-14T19:36:03.482Z","datetime":"2021-01-14 19:36","tags":["story","Hacker News"],"image":null,"imageAlt":null,"provider":"Hacker News","thirdPartyId":"25779681","url":"https://news.ycombinator.com/item?id=25779681","originalUrl":"https://landreport.com/2021/01/bill-gates-americas-top-farmland-owner/","imageRemote":"https://landreport.com/wp-content/uploads/2021/01/Gates_lg.jpg","video":null,"channel":null,"channelUrl":null,"author":"jelliclesfarm","authorUrl":"https://news.ycombinator.com/user?id=jelliclesfarm","authorImage":null,"authorSlug":null,"score":561,"views":null,"sharedCount":null,"likeCount":null,"sharedContent":null,"parent":{"__typename":"HnJson","localize":[{"title":"比尔和梅琳达-盖茨被曝为美国最大私人农田所有者","locale":"zh"},{"title":"比爾和梅琳達-蓋茨被曝爲美國最大私人農田所有者","locale":"zh-Hant"}]}},{"__typename":"SocialMediaPost","id":"HnPost-25778135","excerpt":"","slug":"/hn/25778135","title":"'Rent-a-person who does nothing' in Tokyo receives endless requests, gratitude","date":"January 14, 2021","dateISO":"2021-01-14T18:36:30.013Z","datetime":"2021-01-14 18:36","tags":["story","Hacker News"],"image":null,"imageAlt":null,"provider":"Hacker News","thirdPartyId":"25778135","url":"https://news.ycombinator.com/item?id=25778135","originalUrl":"https://mainichi.jp/english/articles/20210111/p2a/00m/0dm/016000c","imageRemote":"https://cdn.mainichi.jp/vol1/2021/01/11/20210111p2a00m0dm015000p/0c10.jpg?2","video":null,"channel":null,"channelUrl":null,"author":"gmays","authorUrl":"https://news.ycombinator.com/user?id=gmays","authorImage":null,"authorSlug":null,"score":504,"views":null,"sharedCount":null,"likeCount":null,"sharedContent":null,"parent":{"__typename":"HnJson","localize":[{"title":"东京的 \"无所事事的出租人 \"收到了无尽的请求和感谢。","locale":"zh"},{"title":"東京的 \"無所事事的出租人 \"收到了無盡的請求和感謝。","locale":"zh-Hant"}]}},{"__typename":"SocialMediaPost","id":"HnPost-25779323","excerpt":"","slug":"/hn/25779323","title":"DuckDuckGo Reaches 100M Daily Search Queries","date":"January 14, 2021","dateISO":"2021-01-14T18:36:30.013Z","datetime":"2021-01-14 18:36","tags":["story","Hacker News"],"image":null,"imageAlt":null,"provider":"Hacker News","thirdPartyId":"25779323","url":"https://news.ycombinator.com/item?id=25779323","originalUrl":"https://duckduckgo.com/traffic?lang=en","imageRemote":"https://duckduckgo.com/assets/logo_social-media.png","video":null,"channel":null,"channelUrl":null,"author":"Aaronmacaron","authorUrl":"https://news.ycombinator.com/user?id=Aaronmacaron","authorImage":null,"authorSlug":null,"score":442,"views":null,"sharedCount":null,"likeCount":null,"sharedContent":null,"parent":{"__typename":"HnJson","localize":[{"title":"鸭子围棋日搜索量达到1亿次。","locale":"zh"},{"title":"鴨子圍棋日搜索量達到1億次。","locale":"zh-Hant"}]}},{"__typename":"SocialMediaPost","id":"HnPost-25776525","excerpt":"","slug":"/hn/25776525","title":"10 years-ish of Elixir","date":"January 14, 2021","dateISO":"2021-01-14T17:19:51.946Z","datetime":"2021-01-14 17:19","tags":["story","Hacker News"],"image":null,"imageAlt":null,"provider":"Hacker News","thirdPartyId":"25776525","url":"https://news.ycombinator.com/item?id=25776525","originalUrl":"https://dashbit.co/blog/ten-years-ish-of-elixir","imageRemote":"https://dashbit.co/images/logo-166c057038a97186c76e9f48807c096e.png?vsn=d","video":null,"channel":null,"channelUrl":null,"author":"1_player","authorUrl":"https://news.ycombinator.com/user?id=1_player","authorImage":null,"authorSlug":null,"score":422,"views":null,"sharedCount":null,"likeCount":null,"sharedContent":null,"parent":{"__typename":"HnJson","localize":[{"title":"Etwa 10 Jahre Elixier","locale":"zh"},{"title":"Etwa 10 Jahre Elixier","locale":"zh-Hant"}]}},{"__typename":"SocialMediaPost","id":"HnPost-25776590","excerpt":"","slug":"/hn/25776590","title":"Facebook Has Been Showing Military Gear Ads Next to “Insurrection” Posts","date":"January 14, 2021","dateISO":"2021-01-14T17:19:51.946Z","datetime":"2021-01-14 17:19","tags":["story","Hacker News"],"image":null,"imageAlt":null,"provider":"Hacker News","thirdPartyId":"25776590","url":"https://news.ycombinator.com/item?id=25776590","originalUrl":"https://www.buzzfeednews.com/article/ryanmac/facebook-profits-military-gear-ads-capitol-riot","imageRemote":"https://img.buzzfeed.com/buzzfeed-static/static/2021-01/14/16/campaign_images/0308066dc00f/facebook-has-been-showing-military-gear-ads-next--2-9863-1610640219-8_dblbig.jpg?resize=1200:*","video":null,"channel":null,"channelUrl":null,"author":"nojito","authorUrl":"https://news.ycombinator.com/user?id=nojito","authorImage":null,"authorSlug":null,"score":328,"views":null,"sharedCount":null,"likeCount":null,"sharedContent":null,"parent":{"__typename":"HnJson","localize":[{"title":"Facebook hat gezeigt, militärische Ausrüstung Anzeigen neben \"Aufruhr\" Beiträge","locale":"zh"},{"title":"Facebook hat gezeigt, militärische Ausrüstung Anzeigen neben \"Aufruhr\" Beiträge","locale":"zh-Hant"}]}},{"__typename":"SocialMediaPost","id":"HnPost-25777207","excerpt":"","slug":"/hn/25777207","title":"Apple reportedly dropped plan for encrypting backups after FBI complained (2020)","date":"January 14, 2021","dateISO":"2021-01-14T17:19:51.946Z","datetime":"2021-01-14 17:19","tags":["story","Hacker News"],"image":null,"imageAlt":null,"provider":"Hacker News","thirdPartyId":"25777207","url":"https://news.ycombinator.com/item?id=25777207","originalUrl":"https://www.theverge.com/2020/1/21/21075033/apple-icloud-end-to-end-encryption-scrapped-fbi-reuters-report","imageRemote":"https://cdn.vox-cdn.com/thumbor/IaZPWxbQ8dpYBCC_soci1LjCIEY=/0x146:2040x1214/fit-in/1200x630/cdn.vox-cdn.com/uploads/chorus_asset/file/8964117/acastro_170731_1777_0005_v2.jpg","video":null,"channel":null,"channelUrl":null,"author":"samename","authorUrl":"https://news.ycombinator.com/user?id=samename","authorImage":null,"authorSlug":null,"score":425,"views":null,"sharedCount":null,"likeCount":null,"sharedContent":null,"parent":{"__typename":"HnJson","localize":[{"title":"Apple lässt angeblich Plan zur Verschlüsselung von Backups nach FBI-Beschwerde fallen (2020)","locale":"zh"},{"title":"Apple lässt angeblich Plan zur Verschlüsselung von Backups nach FBI-Beschwerde fallen (2020)","locale":"zh-Hant"}]}},{"__typename":"SocialMediaPost","id":"HnPost-25775091","excerpt":"","slug":"/hn/25775091","title":"Parisian Accent in 1912","date":"January 14, 2021","dateISO":"2021-01-14T16:07:36.024Z","datetime":"2021-01-14 16:07","tags":["story","Hacker News"],"image":null,"imageAlt":null,"provider":"Hacker News","thirdPartyId":"25775091","url":"https://news.ycombinator.com/item?id=25775091","originalUrl":"https://www.franceculture.fr/sciences-du-langage/archive-exceptionnelle-ecoutez-laccent-parisien-en-1912","imageRemote":"https://cdn.radiofrance.fr/s3/cruiser-production/2021/01/cf1afa27-9792-4138-b34f-104d10688696/838_brunot_son.jpg","video":null,"channel":null,"channelUrl":null,"author":"paganel","authorUrl":"https://news.ycombinator.com/user?id=paganel","authorImage":null,"authorSlug":null,"score":302,"views":null,"sharedCount":null,"likeCount":null,"sharedContent":null,"parent":{"__typename":"HnJson","localize":[{"title":"1912年的巴黎风情","locale":"zh"},{"title":"1912年的巴黎風情","locale":"zh-Hant"}]}}]}},"pageContext":{"basePath":"/","pageType":"tag","tag":"story","tagsFilter":{"id":{"glob":"!*Post-1"}},"filter":{"id":{"glob":"!*Post-1"},"tags":{"eq":"story"}},"limit":25,"skip":1475,"total":2406,"totalPages":97,"currentPage":60,"maxWidth":1024,"maxHeight":512,"locale":"en","hrefLang":"en-US","originalPath":"/tags/story/page/60","dateFormat":"MM/DD/YYYY"}},"staticQueryHashes":["1239077767","2506312863","2744905544","3025052997","3493603132","3493603132","3513215887","386998304"]}