{"componentChunkName":"component---gatsby-theme-buzzing-src-gatsby-theme-timeline-templates-posts-query-js","path":"/en/tags/bitcoin/page/11","result":{"data":{"site":{"siteMetadata":{"title":"Reddit 热门","description":"用中文浏览Reddit热门内容","social":[{"name":"Reddit","url":"https://www.reddit.com/","external":true,"prefetch":null},{"name":"GitHub","url":"https://github.com/gatsbyjs","external":null,"prefetch":null}],"menuLinks":[{"name":"每周精选","url":"/issues","external":null,"prefetch":null},{"name":"RSS","url":"/rss.xml","external":null,"prefetch":false}],"localize":[{"locale":"en","title":"Buzzing on Reddit","description":"See what's buzzing on Reddit in your native language","social":[{"name":"Reddit","url":"https://www.reddit.com/","external":true,"prefetch":null}],"menuLinks":[{"name":"Weekly Selection","url":"/issues","external":null,"prefetch":null},{"name":"RSS","url":"/rss.xml","external":null,"prefetch":false}]},{"locale":"zh-Hant","title":"Reddit 熱門","description":"用中文瀏覽Reddit熱門內容","social":null,"menuLinks":null}]}},"tagsGroup":{"group":[{"fieldValue":"BTC","totalCount":1},{"fieldValue":"Bitcoin","totalCount":261},{"fieldValue":"CryptoCurrency","totalCount":207},{"fieldValue":"bitcoin","totalCount":40},{"fieldValue":"btc","totalCount":1},{"fieldValue":"phase5","totalCount":7},{"fieldValue":"reddit","totalCount":455},{"fieldValue":"tweet","totalCount":97}]},"allBlogPost":{"nodes":[{"__typename":"SocialMediaPost","id":"RedditPost-kitbu3","excerpt":"","slug":"/reddit/r/Bitcoin/comments/kitbu3/stack_more_sats_and_your_future_will_thank_you/","title":"Stack more sats and your future will thank you.","date":"December 24, 2020","dateISO":"2020-12-24T07:34:34.000Z","datetime":"2020-12-24 07:34","tags":["Bitcoin","reddit"],"image":null,"imageAlt":null,"provider":"Reddit","thirdPartyId":"kitbu3","url":"https://www.reddit.com/r/Bitcoin/comments/kitbu3/stack_more_sats_and_your_future_will_thank_you/","originalUrl":"https://www.reddit.com/r/Bitcoin/comments/kitbu3/stack_more_sats_and_your_future_will_thank_you/","imageRemote":null,"video":{"url":"https://www.reddit.com/mediaembed/kitbu3","embed":true,"width":636,"height":360},"channel":"Bitcoin","channelUrl":"https://www.reddit.com/r/Bitcoin","author":"Cryptodino007","authorUrl":"https://www.reddit.com/user/Cryptodino007","authorImage":null,"authorSlug":"Cryptodino007","score":105,"views":null,"sharedCount":null,"likeCount":null,"sharedContent":null,"parent":{"__typename":"RedditJson","localize":[{"title":"积累更多的SAT，你的未来将会感谢你。","the_new_excerpt":null,"locale":"zh"},{"title":"積累更多的SAT，你的未來將會感謝你。","the_new_excerpt":null,"locale":"zh-Hant"}]}},{"__typename":"SocialMediaPost","id":"RedditPost-kitcv7","excerpt":"","slug":"/reddit/r/Bitcoin/comments/kitcv7/bitcoin_active_addresses_doubled_in_2020/","title":"Bitcoin Active Addresses Doubled in 2020","date":"December 24, 2020","dateISO":"2020-12-24T07:34:34.000Z","datetime":"2020-12-24 07:34","tags":["Bitcoin","reddit"],"image":null,"imageAlt":"Reddit Image","provider":"Reddit","thirdPartyId":"kitcv7","url":"https://www.reddit.com/r/Bitcoin/comments/kitcv7/bitcoin_active_addresses_doubled_in_2020/","originalUrl":"https://www.reddit.com/r/Bitcoin/comments/kitcv7/bitcoin_active_addresses_doubled_in_2020/","imageRemote":"https://external-preview.redd.it/BP-bJl4m1z4Uakdl0fDMK0G8EB45f0ygOMKOBcSjsw4.jpg?width=960&crop=smart&auto=webp&s=46a50eb50371819d108859a3302b6a17c1b6ff78","video":null,"channel":"Bitcoin","channelUrl":"https://www.reddit.com/r/Bitcoin","author":"SaneFive","authorUrl":"https://www.reddit.com/user/SaneFive","authorImage":null,"authorSlug":"SaneFive","score":139,"views":null,"sharedCount":null,"likeCount":null,"sharedContent":null,"parent":{"__typename":"RedditJson","localize":[{"title":"比特币活跃地址在2020年翻了一番","the_new_excerpt":null,"locale":"zh"},{"title":"比特幣活躍地址在2020年翻了一番","the_new_excerpt":null,"locale":"zh-Hant"}]}},{"__typename":"SocialMediaPost","id":"RedditPost-kivrkw","excerpt":"","slug":"/reddit/r/Bitcoin/comments/kivrkw/pimcos_anthony_creszeni_on_bloomberg_bitcoin_is/","title":"Pimco's Anthony Creszeni on Bloomberg \"Bitcoin is the Winner in this Game of Electronic Money\" After saying \"Bitcoin isn't Money\" - Dec 23 2020","date":"December 24, 2020","dateISO":"2020-12-24T07:34:34.000Z","datetime":"2020-12-24 07:34","tags":["Bitcoin","reddit"],"image":null,"imageAlt":"Reddit Image","provider":"Reddit","thirdPartyId":"kivrkw","url":"https://www.reddit.com/r/Bitcoin/comments/kivrkw/pimcos_anthony_creszeni_on_bloomberg_bitcoin_is/","originalUrl":"https://www.reddit.com/r/Bitcoin/comments/kivrkw/pimcos_anthony_creszeni_on_bloomberg_bitcoin_is/","imageRemote":"https://external-preview.redd.it/fsK--K_qs-iLyeSYM7B30gbb538wcdrj_WbSjcIPsow.jpg?width=320&crop=smart&auto=webp&s=e66321874f10b2bbe052d429ee831577ff2aa951","video":null,"channel":"Bitcoin","channelUrl":"https://www.reddit.com/r/Bitcoin","author":"Fiach_Dubh","authorUrl":"https://www.reddit.com/user/Fiach_Dubh","authorImage":null,"authorSlug":"Fiach_Dubh","score":57,"views":null,"sharedCount":null,"likeCount":null,"sharedContent":null,"parent":{"__typename":"RedditJson","localize":[{"title":"太平洋投资管理公司(PIMCO)的安东尼·克雷泽尼(Anthony Creszeni)在彭博社(Bloomberg)上表示，比特币不是货币，之后他表示，比特币是这场电子货币游戏的赢家。-2020年12月23日","the_new_excerpt":null,"locale":"zh"},{"title":"太平洋投資管理公司(PIMCO)的安東尼·克雷澤尼(Anthony Creszeni)在彭博社(Bloomberg)上表示，比特幣不是貨幣，之後他表示，比特幣是這場電子貨幣遊戲的贏家。-2020年12月23日","the_new_excerpt":null,"locale":"zh-Hant"}]}},{"__typename":"SocialMediaPost","id":"RedditPost-kiw59u","excerpt":"","slug":"/reddit/r/Bitcoin/comments/kiw59u/11_days_to_submit_comments_on_the_fincen_rules/","title":"11 days to submit comments on the FinCen rules for private wallets! Push back against corrupt banking kleptocrats like Mnuchin!","date":"December 24, 2020","dateISO":"2020-12-24T07:34:34.000Z","datetime":"2020-12-24 07:34","tags":["Bitcoin","reddit"],"image":null,"imageAlt":"Reddit Image","provider":"Reddit","thirdPartyId":"kiw59u","url":"https://www.reddit.com/r/Bitcoin/comments/kiw59u/11_days_to_submit_comments_on_the_fincen_rules/","originalUrl":"https://www.reddit.com/r/Bitcoin/comments/kiw59u/11_days_to_submit_comments_on_the_fincen_rules/","imageRemote":"https://external-preview.redd.it/m0RWII8IThujUucwbPQl4t8vuvO8tA4s2uPdSneudsw.jpg?width=1080&crop=smart&auto=webp&s=428a94b1f1fb0e8326d0618e09ced94d68221bc0","video":null,"channel":"Bitcoin","channelUrl":"https://www.reddit.com/r/Bitcoin","author":"safehodl","authorUrl":"https://www.reddit.com/user/safehodl","authorImage":null,"authorSlug":"safehodl","score":345,"views":null,"sharedCount":null,"likeCount":null,"sharedContent":null,"parent":{"__typename":"RedditJson","localize":[{"title":"11天内提交对私人钱包的FinCEN规则的评论！回击像姆努钦这样腐败的银行盗贼！","the_new_excerpt":null,"locale":"zh"},{"title":"11天內提交對私人錢包的FinCEN規則的評論！回擊像姆努欽這樣腐敗的銀行盜賊！","the_new_excerpt":null,"locale":"zh-Hant"}]}},{"__typename":"SocialMediaPost","id":"RedditPost-kiwnpn","excerpt":"Anonymous account for obvious reasons but I wanted to share my story.\n\nEdit: I was making 18k per year while working construction in 2012 because I had\ntrouble finding work in my field of study. I worked hard, made a career change,\nand my first \"real\" salary was 52k per year.\n\nI started buying…","slug":"/reddit/r/Bitcoin/comments/kiwnpn/i_previously_went_allin_on_btc_heres_my_story/","title":"I previously went all-in on BTC. Here's my story.","date":"December 24, 2020","dateISO":"2020-12-24T07:34:34.000Z","datetime":"2020-12-24 07:34","tags":["Bitcoin","reddit"],"image":null,"imageAlt":null,"provider":"Reddit","thirdPartyId":"kiwnpn","url":"https://www.reddit.com/r/Bitcoin/comments/kiwnpn/i_previously_went_allin_on_btc_heres_my_story/","originalUrl":"https://www.reddit.com/r/Bitcoin/comments/kiwnpn/i_previously_went_allin_on_btc_heres_my_story/","imageRemote":null,"video":null,"channel":"Bitcoin","channelUrl":"https://www.reddit.com/r/Bitcoin","author":"Anon-Dude-Bitcoin","authorUrl":"https://www.reddit.com/user/Anon-Dude-Bitcoin","authorImage":null,"authorSlug":"Anon-Dude-Bitcoin","score":1192,"views":null,"sharedCount":null,"likeCount":null,"sharedContent":null,"parent":{"__typename":"RedditJson","localize":[{"title":"我之前在BTC上下了很大的赌注。这是我的故事。","the_new_excerpt":"匿名账号的原因很明显，但我想分享我的故事。\n\n编辑：我在2012年做建筑工作时每年赚18K，因为我有\n在我的专业领域找工作很困难。我努力工作，转行，\n我的第一份“真正”薪水是每年52000英镑。\n\n我开始买…","locale":"zh"},{"title":"我之前在BTC上下了很大的賭注。這是我的故事。","the_new_excerpt":"匿名賬號的原因很明顯，但我想分享我的故事。\n\n編輯：我在2012年做建築工作時每年賺18K，因爲我有\n在我的專業領域找工作很困難。我努力工作，轉行，\n我的第一份“真正”薪水是每年52000英鎊。\n\n我開始買…","locale":"zh-Hant"}]}},{"__typename":"SocialMediaPost","id":"RedditPost-kixjcq","excerpt":"","slug":"/reddit/r/Bitcoin/comments/kixjcq/bitfinex_is_the_only_exchange_in_this_list_that/","title":"Bitfinex is the only exchange in this list that uses segwit, supports LN and Liquid","date":"December 24, 2020","dateISO":"2020-12-24T07:34:34.000Z","datetime":"2020-12-24 07:34","tags":["Bitcoin","reddit"],"image":null,"imageAlt":"Reddit Image","provider":"Reddit","thirdPartyId":"kixjcq","url":"https://www.reddit.com/r/Bitcoin/comments/kixjcq/bitfinex_is_the_only_exchange_in_this_list_that/","originalUrl":"https://www.reddit.com/r/Bitcoin/comments/kixjcq/bitfinex_is_the_only_exchange_in_this_list_that/","imageRemote":"https://preview.redd.it/evmmlntj4z661.jpg?width=640&crop=smart&auto=webp&s=0e00fb530f443697b341e9cbb0e38cb04aa34916","video":null,"channel":"Bitcoin","channelUrl":"https://www.reddit.com/r/Bitcoin","author":"prayank_23","authorUrl":"https://www.reddit.com/user/prayank_23","authorImage":null,"authorSlug":"prayank_23","score":65,"views":null,"sharedCount":null,"likeCount":null,"sharedContent":null,"parent":{"__typename":"RedditJson","localize":[{"title":"Bitfinex是此列表中唯一使用Segwit、支持LN和Liquid的交换机","the_new_excerpt":null,"locale":"zh"},{"title":"Bitfinex是此列表中唯一使用Segwit、支持LN和Liquid的交換機","the_new_excerpt":null,"locale":"zh-Hant"}]}},{"__typename":"SocialMediaPost","id":"RedditPost-kiy7ma","excerpt":"I gave bitcoin to some friends years back ranging from 30-60$, some for free,\nand others was due to a purchase. I educated then on security and backup.\n\nDue to the holidays I contacted them and causally mentioned the bitcoin price.\n\nI told them to open there wallet and look at todays value. They all…","slug":"/reddit/r/Bitcoin/comments/kiy7ma/this_personal_bitcoin_experience_blew_my_mind_i/","title":"This personal bitcoin experience blew my mind. I am speechless.","date":"December 24, 2020","dateISO":"2020-12-24T07:34:34.000Z","datetime":"2020-12-24 07:34","tags":["Bitcoin","reddit"],"image":null,"imageAlt":"Reddit Image","provider":"Reddit","thirdPartyId":"kiy7ma","url":"https://www.reddit.com/r/Bitcoin/comments/kiy7ma/this_personal_bitcoin_experience_blew_my_mind_i/","originalUrl":"https://www.reddit.com/r/Bitcoin/comments/kiy7ma/this_personal_bitcoin_experience_blew_my_mind_i/","imageRemote":"https://external-preview.redd.it/fS1QEqjHBOXJpy10v3ou6mKz_MCq72kSIyOT_pZdqcg.jpg?width=320&crop=smart&auto=webp&s=7dab942a162b978ebb29504ac6e47f4f420e64e2","video":null,"channel":"Bitcoin","channelUrl":"https://www.reddit.com/r/Bitcoin","author":"JackButler2020","authorUrl":"https://www.reddit.com/user/JackButler2020","authorImage":null,"authorSlug":"JackButler2020","score":326,"views":null,"sharedCount":null,"likeCount":null,"sharedContent":null,"parent":{"__typename":"RedditJson","localize":[{"title":"这种个人的比特币体验让我大吃一惊。我不知道应该说什么了。","the_new_excerpt":"几年前，我把比特币送给了一些朋友，价格从30美元到60美元不等，有些是免费的，\n还有一些是因为买了东西。我当时接受过安全和后备方面的教育。\n\n由于假期的原因，我联系了他们，随意地提到了比特币的价格。\n\n我告诉他们打开那里的钱包，看看今天的价值。他们都是…","locale":"zh"},{"title":"這種個人的比特幣體驗讓我大喫一驚。我不知道應該說什麼了。","the_new_excerpt":"幾年前，我把比特幣送給了一些朋友，價格從30美元到60美元不等，有些是免費的，\n還有一些是因爲買了東西。我當時接受過安全和後備方面的教育。\n\n由於假期的原因，我聯繫了他們，隨意地提到了比特幣的價格。\n\n我告訴他們打開那裏的錢包，看看今天的價值。他們都是…","locale":"zh-Hant"}]}},{"__typename":"SocialMediaPost","id":"RedditPost-kizb0w","excerpt":"Throwaway for various reasons. I have not told many people about my stash of\nBTC. For the crypto people in my life, they are all sitting on shit coins and\nbag holding. So I havent told them because I dont want them to feel bad. And for\nthe rest of the people i know, they are struggling and on…","slug":"/reddit/r/Bitcoin/comments/kizb0w/i_havent_told_anyone_yet_and_i_am_about_to_burst/","title":"I havent told anyone yet and I am about to burst","date":"December 24, 2020","dateISO":"2020-12-24T07:34:34.000Z","datetime":"2020-12-24 07:34","tags":["Bitcoin","reddit"],"image":null,"imageAlt":null,"provider":"Reddit","thirdPartyId":"kizb0w","url":"https://www.reddit.com/r/Bitcoin/comments/kizb0w/i_havent_told_anyone_yet_and_i_am_about_to_burst/","originalUrl":"https://www.reddit.com/r/Bitcoin/comments/kizb0w/i_havent_told_anyone_yet_and_i_am_about_to_burst/","imageRemote":null,"video":null,"channel":"Bitcoin","channelUrl":"https://www.reddit.com/r/Bitcoin","author":"Infinite_Emergency82","authorUrl":"https://www.reddit.com/user/Infinite_Emergency82","authorImage":null,"authorSlug":"Infinite_Emergency82","score":281,"views":null,"sharedCount":null,"likeCount":null,"sharedContent":null,"parent":{"__typename":"RedditJson","localize":[{"title":"我还没有告诉任何人，我快要崩溃了","the_new_excerpt":"因为各种原因被扔掉。我没有告诉很多人我藏了\nBTC。对于我生活中的密码人来说，他们都坐在狗屎硬币上\n拿着袋子。所以我没有告诉他们，因为我不想让他们感觉不好。而对于\n我认识的人的睡觉，他们正在苦苦挣扎，在…上","locale":"zh"},{"title":"我還沒有告訴任何人，我快要崩潰了","the_new_excerpt":"因爲各種原因被扔掉。我沒有告訴很多人我藏了\nBTC。對於我生活中的密碼人來說，他們都坐在狗屎硬幣上\n拿着袋子。所以我沒有告訴他們，因爲我不想讓他們感覺不好。而對於\n我認識的人的睡覺，他們正在苦苦掙扎，在…上","locale":"zh-Hant"}]}},{"__typename":"SocialMediaPost","id":"RedditPost-kj0uc8","excerpt":"","slug":"/reddit/r/Bitcoin/comments/kj0uc8/reminder_that_lily_allen_turned_down_200k_in/","title":"Reminder that Lily Allen turned down 200K in Bitcoins for a gig in 2009 which is now worth $4,704,600,000 @ $23.5K per BTC","date":"December 24, 2020","dateISO":"2020-12-24T07:34:34.000Z","datetime":"2020-12-24 07:34","tags":["Bitcoin","reddit"],"image":null,"imageAlt":"Reddit Image","provider":"Reddit","thirdPartyId":"kj0uc8","url":"https://www.reddit.com/r/Bitcoin/comments/kj0uc8/reminder_that_lily_allen_turned_down_200k_in/","originalUrl":"https://www.reddit.com/r/Bitcoin/comments/kj0uc8/reminder_that_lily_allen_turned_down_200k_in/","imageRemote":"https://external-preview.redd.it/8DDhaZTmu9YYZwSkvA5ee_rVph_A76j-rbh3t1PetOI.jpg?width=1080&crop=smart&auto=webp&s=2b9d6815eaa6086931d6f14314d021b860194995","video":null,"channel":"Bitcoin","channelUrl":"https://www.reddit.com/r/Bitcoin","author":"AndroidL","authorUrl":"https://www.reddit.com/user/AndroidL","authorImage":null,"authorSlug":"AndroidL","score":3762,"views":null,"sharedCount":null,"likeCount":null,"sharedContent":null,"parent":{"__typename":"RedditJson","localize":[{"title":"提醒一下，莉莉·艾伦在2009年拒绝了比特币200K的演唱会，现在每BTC价值470460万美元@23.5K","the_new_excerpt":null,"locale":"zh"},{"title":"提醒一下，莉莉·艾倫在2009年拒絕了比特幣200K的演唱會，現在每BTC價值470460萬美元@23.5K","the_new_excerpt":null,"locale":"zh-Hant"}]}},{"__typename":"SocialMediaPost","id":"RedditPost-kj13mb","excerpt":"The dirty bastards at Financial Crimes Enforcement Network (“FinCEN”) US Dept of\nTreasury just posted on the Federal Registry a new regulation to require US\nExchanges to not let you send your crypto to an offline (re: address outside the\nexchange) address unless your tell them whom owns the…","slug":"/reddit/r/Bitcoin/comments/kj13mb/urgent_fincen_reg_to_require_wallet_address/","title":"URGENT: FinCEN Reg to Require Wallet Address Registration in the USA - only 12 days to comment!","date":"December 24, 2020","dateISO":"2020-12-24T07:34:34.000Z","datetime":"2020-12-24 07:34","tags":["Bitcoin","reddit"],"image":null,"imageAlt":"Reddit Image","provider":"Reddit","thirdPartyId":"kj13mb","url":"https://www.reddit.com/r/Bitcoin/comments/kj13mb/urgent_fincen_reg_to_require_wallet_address/","originalUrl":"https://www.reddit.com/r/Bitcoin/comments/kj13mb/urgent_fincen_reg_to_require_wallet_address/","imageRemote":"https://external-preview.redd.it/u6cXg_08kKaKsG5lDtNMpKApwQgt2P22t2tVJB40Cl8.jpg?width=640&crop=smart&auto=webp&s=1df29aa9e3b8874360f0f92d5c052ea53900104d","video":null,"channel":"Bitcoin","channelUrl":"https://www.reddit.com/r/Bitcoin","author":"hashratez","authorUrl":"https://www.reddit.com/user/hashratez","authorImage":null,"authorSlug":"hashratez","score":128,"views":null,"sharedCount":null,"likeCount":null,"sharedContent":null,"parent":{"__typename":"RedditJson","localize":[{"title":"紧急：FinCEN REG要求在美国注册钱包地址-只有12天时间发表评论！","the_new_excerpt":"金融犯罪执法网络(FinCEN)美国部门的肮脏混蛋\n财政部刚刚在联邦登记处发布了一项新规定，要求美国\n交换以不让您将加密发送到脱机(Re：地址在\n…)地址，除非您告诉他们谁拥有Exchange","locale":"zh"},{"title":"緊急：FinCEN REG要求在美國註冊錢包地址-只有12天時間發表評論！","the_new_excerpt":"金融犯罪執法網絡(FinCEN)美國部門的骯髒混蛋\n財政部剛剛在聯邦登記處發佈了一項新規定，要求美國\n交換以不讓您將加密發送到脫機(Re：地址在\n…)地址，除非您告訴他們誰擁有Exchange","locale":"zh-Hant"}]}},{"__typename":"SocialMediaPost","id":"RedditPost-kj3sdz","excerpt":"","slug":"/reddit/r/Bitcoin/comments/kj3sdz/michael_saylor_microstrategy_ceo_bitcoin_is_the/","title":"Michael Saylor, Microstrategy CEO: #Bitcoin is the first engineered safe-haven asset running on the worlds's first digital monetary network. As investors lose faith in Gold & Bonds as safe haven assets, it makes sense for all firms to have a Bitcoin strategy.","date":"December 24, 2020","dateISO":"2020-12-24T07:34:34.000Z","datetime":"2020-12-24 07:34","tags":["Bitcoin","reddit"],"image":null,"imageAlt":"Reddit Image","provider":"Reddit","thirdPartyId":"kj3sdz","url":"https://www.reddit.com/r/Bitcoin/comments/kj3sdz/michael_saylor_microstrategy_ceo_bitcoin_is_the/","originalUrl":"https://www.reddit.com/r/Bitcoin/comments/kj3sdz/michael_saylor_microstrategy_ceo_bitcoin_is_the/","imageRemote":"https://external-preview.redd.it/SIUj3t4U67wok9Ti7mw8k_Tc6heAmL0tTl8SYrlbixg.jpg?width=320&crop=smart&auto=webp&s=971b33efa193001236acad102d91bbdc4f951cc1","video":null,"channel":"Bitcoin","channelUrl":"https://www.reddit.com/r/Bitcoin","author":"CryptoIsMyMoney","authorUrl":"https://www.reddit.com/user/CryptoIsMyMoney","authorImage":null,"authorSlug":"CryptoIsMyMoney","score":121,"views":null,"sharedCount":null,"likeCount":null,"sharedContent":null,"parent":{"__typename":"RedditJson","localize":[{"title":"MicroStrategy首席执行官迈克尔·塞勒：#比特币是世界上第一个在数字货币网络上运行的工程避险资产。随着投资者对黄金和债券作为避险资产失去信心，所有公司都有比特币战略是有意义的。","the_new_excerpt":null,"locale":"zh"},{"title":"MicroStrategy首席執行官邁克爾·塞勒：#比特幣是世界上第一個在數字貨幣網絡上運行的工程避險資產。隨着投資者對黃金和債券作爲避險資產失去信心，所有公司都有比特幣戰略是有意義的。","the_new_excerpt":null,"locale":"zh-Hant"}]}}]}},"pageContext":{"basePath":"/","pageType":"tag","tag":"Bitcoin","tagsFilter":{"id":{"glob":"!*Post-1"}},"filter":{"id":{"glob":"!*Post-1"},"tags":{"eq":"Bitcoin"}},"limit":25,"skip":250,"total":261,"totalPages":11,"currentPage":11,"maxWidth":1024,"maxHeight":512,"locale":"en","hrefLang":"en-US","originalPath":"/tags/bitcoin/page/11","dateFormat":"MM/DD/YYYY"}},"staticQueryHashes":["1239077767","2506312863","2744905544","3493603132","3493603132","386998304","4203388852"]}