{"componentChunkName":"component---gatsby-theme-buzzing-src-gatsby-theme-timeline-templates-posts-query-js","path":"/ja/page/7","result":{"data":{"site":{"siteMetadata":{"title":"Reddit 热门","description":"用中文浏览Reddit热门内容","social":[{"name":"Twitter","url":"https://twitter.com/gatsbyjs","external":null,"prefetch":null},{"name":"GitHub","url":"https://github.com/gatsbyjs","external":null,"prefetch":null}],"menuLinks":[],"localize":[{"locale":"en","title":"Buzzing on Reddit","description":"See what's buzzing on Reddit in your native language","social":[{"name":"Reddit","url":"https://www.reddit.com/","external":true,"prefetch":null}],"menuLinks":[{"name":"Weekly Selection","url":"/issues","external":null,"prefetch":null},{"name":"RSS","url":"/rss.xml","external":null,"prefetch":false}]},{"locale":"zh-Hant","title":"Reddit 熱門","description":"用中文瀏覽Reddit熱門內容","social":null,"menuLinks":null}]}},"tagsGroup":{"group":[{"fieldValue":"ASK HN","totalCount":54},{"fieldValue":"Hacker News","totalCount":3107},{"fieldValue":"Poll","totalCount":1},{"fieldValue":"Show HN","totalCount":100},{"fieldValue":"poll","totalCount":1},{"fieldValue":"story","totalCount":3106}]},"allBlogPost":{"nodes":[{"__typename":"SocialMediaPost","id":"HnPost-26650493","excerpt":"","slug":"/hn/26650493","title":"The deck we used to raise our seed funding","date":"March 31, 2021","dateISO":"2021-03-31T22:41:54.216Z","datetime":"2021-03-31 22:41","tags":["story","Hacker News"],"image":null,"imageAlt":null,"provider":"Hacker News","thirdPartyId":"26650493","url":"https://news.ycombinator.com/item?id=26650493","originalUrl":"https://airbyte.io/articles/our-story/the-deck-we-used-to-raise-our-seed-with-accel-in-13-days/","imageRemote":"https://airbyte.io/wp-content/uploads/2021/03/Airbyte-Seed-Deck-0.jpg","video":null,"channel":null,"channelUrl":null,"author":"jeanlaf","authorUrl":"https://news.ycombinator.com/user?id=jeanlaf","authorImage":null,"authorSlug":null,"score":255,"views":null,"sharedCount":null,"likeCount":null,"sharedContent":null,"parent":{"__typename":"HnJson","localize":[{"title":"我们用来筹集种子资金的卡牌","locale":"zh"},{"title":"我們用來籌集種子資金的卡牌","locale":"zh-Hant"}]}},{"__typename":"SocialMediaPost","id":"HnPost-26646541","excerpt":"","slug":"/hn/26646541","title":"What Data Can’t Do","date":"March 31, 2021","dateISO":"2021-03-31T22:15:35.711Z","datetime":"2021-03-31 22:15","tags":["story","Hacker News"],"image":null,"imageAlt":null,"provider":"Hacker News","thirdPartyId":"26646541","url":"https://news.ycombinator.com/item?id=26646541","originalUrl":"https://www.newyorker.com/magazine/2021/03/29/what-data-cant-do","imageRemote":"https://media.newyorker.com/photos/6053757d5ea3ec31643adf96/16:9/w_1280,c_limit/210329_r38122.jpg","video":null,"channel":null,"channelUrl":null,"author":"RiderOfGiraffes","authorUrl":"https://news.ycombinator.com/user?id=RiderOfGiraffes","authorImage":null,"authorSlug":null,"score":169,"views":null,"sharedCount":null,"likeCount":null,"sharedContent":null,"parent":{"__typename":"HnJson","localize":[{"title":"数据不能做什么","locale":"zh"},{"title":"數據不能做什麼","locale":"zh-Hant"}]}},{"__typename":"SocialMediaPost","id":"HnPost-26649036","excerpt":"","slug":"/hn/26649036","title":"Hitachi to buy U.S. software developer GlobalLogic for $9.6B","date":"March 31, 2021","dateISO":"2021-03-31T21:45:27.977Z","datetime":"2021-03-31 21:45","tags":["story","Hacker News"],"image":null,"imageAlt":null,"provider":"Hacker News","thirdPartyId":"26649036","url":"https://news.ycombinator.com/item?id=26649036","originalUrl":"https://www.reuters.com/article/us-hitachi-globallogic/hitachi-to-buy-u-s-software-developer-globallogic-for-9-6-billion-idUSKBN2BN0ED","imageRemote":"https://static.reuters.com/resources/r/?m=02&d=20210331&t=2&i=1556838562&r=LYNXMPEH2U06P&w=800","video":null,"channel":null,"channelUrl":null,"author":"Element_","authorUrl":"https://news.ycombinator.com/user?id=Element_","authorImage":null,"authorSlug":null,"score":205,"views":null,"sharedCount":null,"likeCount":null,"sharedContent":null,"parent":{"__typename":"HnJson","localize":[{"title":"日立将以96亿美元收购美国软件开发商GlobalLogic。","locale":"zh"},{"title":"日立將以96億美元收購美國軟件開發商GlobalLogic。","locale":"zh-Hant"}]}},{"__typename":"SocialMediaPost","id":"HnPost-26652003","excerpt":"","slug":"/hn/26652003","title":"Microsoft wins $21.9B contract with U.S. Army to supply AR headsets","date":"March 31, 2021","dateISO":"2021-03-31T21:00:31.718Z","datetime":"2021-03-31 21:00","tags":["story","Hacker News"],"image":null,"imageAlt":null,"provider":"Hacker News","thirdPartyId":"26652003","url":"https://news.ycombinator.com/item?id=26652003","originalUrl":"https://www.reuters.com/article/us-microsoft-army/microsoft-wins-21-9-billion-contract-with-u-s-army-to-supply-augmented-reality-headsets-idUSKBN2BN36B","imageRemote":"https://static.reuters.com/resources/r/?m=02&d=20210331&t=2&i=1556930640&r=LYNXMPEH2U1N6&w=800","video":null,"channel":null,"channelUrl":null,"author":"ycom13__","authorUrl":"https://news.ycombinator.com/user?id=ycom13__","authorImage":null,"authorSlug":null,"score":209,"views":null,"sharedCount":null,"likeCount":null,"sharedContent":null,"parent":{"__typename":"HnJson","localize":[{"title":"微软与美国陆军赢得219亿美元合同，提供AR头盔。","locale":"zh"},{"title":"微軟與美國陸軍贏得219億美元合同，提供AR頭盔。","locale":"zh-Hant"}]}},{"__typename":"SocialMediaPost","id":"HnPost-26639901","excerpt":"","slug":"/hn/26639901","title":"Benzene detected in hand sanitizers","date":"March 31, 2021","dateISO":"2021-03-31T20:46:24.928Z","datetime":"2021-03-31 20:46","tags":["story","Hacker News"],"image":null,"imageAlt":null,"provider":"Hacker News","thirdPartyId":"26639901","url":"https://news.ycombinator.com/item?id=26639901","originalUrl":"https://www.valisure.com/blog/valisure-news/valisure-detects-benzene-in-hand-sanitizers/","imageRemote":"https://www.valisure.com/wp-content/uploads/medium-thumbnail-beta.jpg","video":null,"channel":null,"channelUrl":null,"author":"maddyboo","authorUrl":"https://news.ycombinator.com/user?id=maddyboo","authorImage":null,"authorSlug":null,"score":215,"views":null,"sharedCount":null,"likeCount":null,"sharedContent":null,"parent":{"__typename":"HnJson","localize":[{"title":"在洗手液中检测到苯","locale":"zh"},{"title":"在洗手液中檢測到苯","locale":"zh-Hant"}]}},{"__typename":"SocialMediaPost","id":"HnPost-26632004","excerpt":"","slug":"/hn/26632004","title":"Scientists create simple synthetic cell that grows and divides normally","date":"March 31, 2021","dateISO":"2021-03-31T20:29:34.215Z","datetime":"2021-03-31 20:29","tags":["story","Hacker News"],"image":null,"imageAlt":null,"provider":"Hacker News","thirdPartyId":"26632004","url":"https://news.ycombinator.com/item?id=26632004","originalUrl":"https://www.nist.gov/news-events/news/2021/03/scientists-create-simple-synthetic-cell-grows-and-divides-normally","imageRemote":"https://www.nist.gov/sites/default/files/images/2021/03/25/21MML004_SEM_puzzle_simple_cell_highest_res.jpg","video":null,"channel":null,"channelUrl":null,"author":"sdht0","authorUrl":"https://news.ycombinator.com/user?id=sdht0","authorImage":null,"authorSlug":null,"score":342,"views":null,"sharedCount":null,"likeCount":null,"sharedContent":null,"parent":{"__typename":"HnJson","localize":[{"title":"科学家创造出简单的合成细胞，可正常生长和分裂","locale":"zh"},{"title":"科學家創造出簡單的合成細胞，可正常生長和分裂","locale":"zh-Hant"}]}},{"__typename":"SocialMediaPost","id":"HnPost-26650738","excerpt":"","slug":"/hn/26650738","title":"Stop Calling Everything AI, Machine-Learning Pioneer Says","date":"March 31, 2021","dateISO":"2021-03-31T20:29:34.215Z","datetime":"2021-03-31 20:29","tags":["story","Hacker News"],"image":null,"imageAlt":null,"provider":"Hacker News","thirdPartyId":"26650738","url":"https://news.ycombinator.com/item?id=26650738","originalUrl":"https://spectrum.ieee.org/the-institute/ieee-member-news/stop-calling-everything-ai-machinelearning-pioneer-says","imageRemote":null,"video":null,"channel":null,"channelUrl":null,"author":"tmfi","authorUrl":"https://news.ycombinator.com/user?id=tmfi","authorImage":null,"authorSlug":null,"score":249,"views":null,"sharedCount":null,"likeCount":null,"sharedContent":null,"parent":{"__typename":"HnJson","localize":[{"title":"机器学习先驱说，别再把所有东西都叫AI了。","locale":"zh"},{"title":"機器學習先驅說，別再把所有東西都叫AI了。","locale":"zh-Hant"}]}},{"__typename":"SocialMediaPost","id":"HnPost-26640915","excerpt":"","slug":"/hn/26640915","title":"What does a PGP signature on a Git commit prove?","date":"March 31, 2021","dateISO":"2021-03-31T19:00:42.099Z","datetime":"2021-03-31 19:00","tags":["story","Hacker News"],"image":null,"imageAlt":null,"provider":"Hacker News","thirdPartyId":"26640915","url":"https://news.ycombinator.com/item?id=26640915","originalUrl":"https://people.kernel.org/monsieuricon/what-does-a-pgp-signature-on-a-git-commit-prove","imageRemote":"https://people.kernel.org/img/avatars/k.png","video":null,"channel":null,"channelUrl":null,"author":"JNRowe","authorUrl":"https://news.ycombinator.com/user?id=JNRowe","authorImage":null,"authorSlug":null,"score":143,"views":null,"sharedCount":null,"likeCount":null,"sharedContent":null,"parent":{"__typename":"HnJson","localize":[{"title":"Git提交的PGP签名能证明什么？","locale":"zh"},{"title":"Git提交的PGP簽名能證明什麼？","locale":"zh-Hant"}]}},{"__typename":"SocialMediaPost","id":"HnPost-26645876","excerpt":"","slug":"/hn/26645876","title":"Latest Mozilla VPN features","date":"March 31, 2021","dateISO":"2021-03-31T18:30:04.238Z","datetime":"2021-03-31 18:30","tags":["story","Hacker News"],"image":null,"imageAlt":null,"provider":"Hacker News","thirdPartyId":"26645876","url":"https://news.ycombinator.com/item?id=26645876","originalUrl":"https://blog.mozilla.org/blog/2021/03/30/latest-mozilla-vpn-features-keep-your-data-safe/","imageRemote":"https://blog.mozilla.org/wp-content/uploads/2021/03/moz_vpn_produ-t_release_blog_header_1400x770-1400x770.jpg","video":null,"channel":null,"channelUrl":null,"author":"alexrustic","authorUrl":"https://news.ycombinator.com/user?id=alexrustic","authorImage":null,"authorSlug":null,"score":239,"views":null,"sharedCount":null,"likeCount":null,"sharedContent":null,"parent":{"__typename":"HnJson","localize":[{"title":"最新的Mozilla VPN功能","locale":"zh"},{"title":"最新的Mozilla VPN功能","locale":"zh-Hant"}]}},{"__typename":"SocialMediaPost","id":"HnPost-26649050","excerpt":"","slug":"/hn/26649050","title":"The political case for a blanket cryptocurrency ban","date":"March 31, 2021","dateISO":"2021-03-31T18:30:04.238Z","datetime":"2021-03-31 18:30","tags":["story","Hacker News"],"image":null,"imageAlt":null,"provider":"Hacker News","thirdPartyId":"26649050","url":"https://news.ycombinator.com/item?id=26649050","originalUrl":"https://www.stephendiehl.com/blog/banbitcoin.html","imageRemote":null,"video":null,"channel":null,"channelUrl":null,"author":"louwrentius","authorUrl":"https://news.ycombinator.com/user?id=louwrentius","authorImage":null,"authorSlug":null,"score":255,"views":null,"sharedCount":null,"likeCount":null,"sharedContent":null,"parent":{"__typename":"HnJson","localize":[{"title":"全面禁止加密货币的政治案例","locale":"zh"},{"title":"全面禁止加密貨幣的政治案例","locale":"zh-Hant"}]}},{"__typename":"SocialMediaPost","id":"HnPost-26646939","excerpt":"","slug":"/hn/26646939","title":"Masks distributed in Canada with microscopic graphene potentially toxic","date":"March 31, 2021","dateISO":"2021-03-31T17:56:11.835Z","datetime":"2021-03-31 17:56","tags":["story","Hacker News"],"image":null,"imageAlt":null,"provider":"Hacker News","thirdPartyId":"26646939","url":"https://news.ycombinator.com/item?id=26646939","originalUrl":"https://www.cbc.ca/news/canada/montreal/masks-early-pulmonary-toxicity-quebec-schools-daycares-1.5966387","imageRemote":"https://i.cbc.ca/1.5966542.1616799146!/fileImage/httpImage/image.jpg_gen/derivatives/16x9_620/snn200642-masks.jpg","video":null,"channel":null,"channelUrl":null,"author":"SQL2219","authorUrl":"https://news.ycombinator.com/user?id=SQL2219","authorImage":null,"authorSlug":null,"score":153,"views":null,"sharedCount":null,"likeCount":null,"sharedContent":null,"parent":{"__typename":"HnJson","localize":[{"title":"加拿大分发的面具有微型石墨烯潜在毒性","locale":"zh"},{"title":"加拿大分發的面具有微型石墨烯潛在毒性","locale":"zh-Hant"}]}},{"__typename":"SocialMediaPost","id":"HnPost-26637774","excerpt":"","slug":"/hn/26637774","title":"Social media addiction linked to cyberbullying","date":"March 31, 2021","dateISO":"2021-03-31T17:06:28.854Z","datetime":"2021-03-31 17:06","tags":["story","Hacker News"],"image":null,"imageAlt":null,"provider":"Hacker News","thirdPartyId":"26637774","url":"https://news.ycombinator.com/item?id=26637774","originalUrl":"https://news.uga.edu/social-media-addiction-linked-to-cyberbullying/","imageRemote":"https://news.uga.edu/wp-content/uploads/2021/03/adolescent_cyberbully-1024x682.jpg","video":null,"channel":null,"channelUrl":null,"author":"giuliomagnifico","authorUrl":"https://news.ycombinator.com/user?id=giuliomagnifico","authorImage":null,"authorSlug":null,"score":143,"views":null,"sharedCount":null,"likeCount":null,"sharedContent":null,"parent":{"__typename":"HnJson","localize":[{"title":"社交媒体成瘾与网络欺凌有关","locale":"zh"},{"title":"社交媒體成癮與網絡欺凌有關","locale":"zh-Hant"}]}},{"__typename":"SocialMediaPost","id":"HnPost-26646497","excerpt":"","slug":"/hn/26646497","title":"Turing Award to Aho and Ullman for work on compilers","date":"March 31, 2021","dateISO":"2021-03-31T17:06:28.854Z","datetime":"2021-03-31 17:06","tags":["story","Hacker News"],"image":null,"imageAlt":null,"provider":"Hacker News","thirdPartyId":"26646497","url":"https://news.ycombinator.com/item?id=26646497","originalUrl":"https://www.nytimes.com/2021/03/31/technology/turing-award-aho-ullman.html","imageRemote":"https://static01.nyt.com/images/2021/03/31/arts/31TURING-AWARD-COMBO/31TURNING-AWARD-COMBO-facebookJumbo.jpg","video":null,"channel":null,"channelUrl":null,"author":"jonstewart","authorUrl":"https://news.ycombinator.com/user?id=jonstewart","authorImage":null,"authorSlug":null,"score":451,"views":null,"sharedCount":null,"likeCount":null,"sharedContent":null,"parent":{"__typename":"HnJson","localize":[{"title":"图灵奖授予Aho和Ullman，表彰他们在编译器方面的工作","locale":"zh"},{"title":"圖靈獎授予Aho和Ullman，表彰他們在編譯器方面的工作","locale":"zh-Hant"}]}},{"__typename":"SocialMediaPost","id":"HnPost-26647717","excerpt":"","slug":"/hn/26647717","title":"Ask HN: I've realized I'm a bad software engineer and I'm over 30, what's next?","date":"March 31, 2021","dateISO":"2021-03-31T16:09:20.345Z","datetime":"2021-03-31 16:09","tags":["story","ASK HN","Hacker News"],"image":null,"imageAlt":null,"provider":"Hacker News","thirdPartyId":"26647717","url":"https://news.ycombinator.com/item?id=26647717","originalUrl":"https://news.ycombinator.com/item?id=26647717","imageRemote":null,"video":null,"channel":"ASK HN","channelUrl":"https://news.ycombinator.com/ask","author":"mxmpawn","authorUrl":"https://news.ycombinator.com/user?id=mxmpawn","authorImage":null,"authorSlug":null,"score":296,"views":null,"sharedCount":null,"likeCount":null,"sharedContent":null,"parent":{"__typename":"HnJson","localize":[{"title":"问HN：我已经意识到自己是个糟糕的软件工程师，而且我已经超过30岁了，接下来该怎么办？","locale":"zh"},{"title":"問HN：我已經意識到自己是個糟糕的軟件工程師，而且我已經超過30歲了，接下來該怎麼辦？","locale":"zh-Hant"}]}},{"__typename":"SocialMediaPost","id":"HnPost-26647981","excerpt":"","slug":"/hn/26647981","title":"Android's new Bluetooth stack rewrite (Gabeldorsh) is written with Rust","date":"March 31, 2021","dateISO":"2021-03-31T16:09:20.345Z","datetime":"2021-03-31 16:09","tags":["story","Hacker News"],"image":null,"imageAlt":null,"provider":"Hacker News","thirdPartyId":"26647981","url":"https://news.ycombinator.com/item?id=26647981","originalUrl":"https://android.googlesource.com/platform/system/bt/+/master/gd/rust/","imageRemote":"https://www.gstatic.com/images/branding/lockups/2x/lockup_git_color_108x24dp.png","video":null,"channel":null,"channelUrl":null,"author":"nicoburns","authorUrl":"https://news.ycombinator.com/user?id=nicoburns","authorImage":null,"authorSlug":null,"score":616,"views":null,"sharedCount":null,"likeCount":null,"sharedContent":null,"parent":{"__typename":"HnJson","localize":[{"title":"安卓新的蓝牙协议栈重写（Gabeldorsh）是用Rust写的","locale":"zh"},{"title":"安卓新的藍牙協議棧重寫（Gabeldorsh）是用Rust寫的","locale":"zh-Hant"}]}},{"__typename":"SocialMediaPost","id":"HnPost-26646142","excerpt":"","slug":"/hn/26646142","title":"Sublime Text 4 [video]","date":"March 31, 2021","dateISO":"2021-03-31T15:52:50.385Z","datetime":"2021-03-31 15:52","tags":["story","Hacker News"],"image":null,"imageAlt":null,"provider":"Hacker News","thirdPartyId":"26646142","url":"https://news.ycombinator.com/item?id=26646142","originalUrl":"https://vimeo.com/529550701","imageRemote":"https://i.vimeocdn.com/filter/overlay?src0=https%3A%2F%2Fi.vimeocdn.com%2Fvideo%2F1095814015_1280x640.jpg&src1=https%3A%2F%2Ff.vimeocdn.com%2Fimages_v6%2Fshare%2Fplay_icon_overlay.png","video":null,"channel":null,"channelUrl":null,"author":"dsego","authorUrl":"https://news.ycombinator.com/user?id=dsego","authorImage":null,"authorSlug":null,"score":328,"views":null,"sharedCount":null,"likeCount":null,"sharedContent":null,"parent":{"__typename":"HnJson","localize":[{"title":"崇高的文字4 [视频]","locale":"zh"},{"title":"崇高的文字4 [視頻]","locale":"zh-Hant"}]}},{"__typename":"SocialMediaPost","id":"HnPost-26646629","excerpt":"","slug":"/hn/26646629","title":"Hit songwriters ask pop stars to stop taking credit for songs they didn't write","date":"March 31, 2021","dateISO":"2021-03-31T15:29:30.322Z","datetime":"2021-03-31 15:29","tags":["story","Hacker News"],"image":null,"imageAlt":null,"provider":"Hacker News","thirdPartyId":"26646629","url":"https://news.ycombinator.com/item?id=26646629","originalUrl":"https://www.bbc.co.uk/news/entertainment-arts-56587621","imageRemote":"https://ichef.bbci.co.uk/news/1024/branded_news/874D/production/_117773643_tm.jpg","video":null,"channel":null,"channelUrl":null,"author":"mellosouls","authorUrl":"https://news.ycombinator.com/user?id=mellosouls","authorImage":null,"authorSlug":null,"score":310,"views":null,"sharedCount":null,"likeCount":null,"sharedContent":null,"parent":{"__typename":"HnJson","localize":[{"title":"热门歌曲作者要求流行歌星不要再为自己没有写的歌曲邀功了","locale":"zh"},{"title":"熱門歌曲作者要求流行歌星不要再爲自己沒有寫的歌曲邀功了","locale":"zh-Hant"}]}},{"__typename":"SocialMediaPost","id":"HnPost-26629718","excerpt":"","slug":"/hn/26629718","title":"How to Build a Web App with and Without Rails Libraries","date":"March 31, 2021","dateISO":"2021-03-31T13:51:00.846Z","datetime":"2021-03-31 13:51","tags":["story","Hacker News"],"image":null,"imageAlt":null,"provider":"Hacker News","thirdPartyId":"26629718","url":"https://news.ycombinator.com/item?id=26629718","originalUrl":"https://shopify.engineering/building-web-app-ruby-rails","imageRemote":"https://cdn.shopify.com/s/files/1/0779/4361/articles/Shop_Eng_Blog_Header_1_0bb0f247-aaf8-41c8-b2e8-7d939a54a399.png?format=jpg&quality=90&v=1616696367","video":null,"channel":null,"channelUrl":null,"author":"chrisseaton","authorUrl":"https://news.ycombinator.com/user?id=chrisseaton","authorImage":null,"authorSlug":null,"score":183,"views":null,"sharedCount":null,"likeCount":null,"sharedContent":null,"parent":{"__typename":"HnJson","localize":[{"title":"如何使用和不使用Rails库来构建Web应用？","locale":"zh"},{"title":"如何使用和不使用Rails庫來構建Web應用？","locale":"zh-Hant"}]}},{"__typename":"SocialMediaPost","id":"HnPost-26646048","excerpt":"","slug":"/hn/26646048","title":"Libreboot – Defend Richard Stallman!","date":"March 31, 2021","dateISO":"2021-03-31T13:03:22.358Z","datetime":"2021-03-31 13:03","tags":["story","Hacker News"],"image":null,"imageAlt":null,"provider":"Hacker News","thirdPartyId":"26646048","url":"https://news.ycombinator.com/item?id=26646048","originalUrl":"https://libreboot.org/news/rms.html","imageRemote":"https://web.archive.org/web/20210318230618if_/http://techrights.org/wp-content/uploads/2020/01/osi-microsoft-photo-op.jpg","video":null,"channel":null,"channelUrl":null,"author":"arrizalamin","authorUrl":"https://news.ycombinator.com/user?id=arrizalamin","authorImage":null,"authorSlug":null,"score":216,"views":null,"sharedCount":null,"likeCount":null,"sharedContent":null,"parent":{"__typename":"HnJson","localize":[{"title":"Libreboot - 为Richard Stallman辩护!","locale":"zh"},{"title":"Libreboot - 爲Richard Stallman辯護!","locale":"zh-Hant"}]}},{"__typename":"SocialMediaPost","id":"HnPost-26644216","excerpt":"","slug":"/hn/26644216","title":"Apple's Cooperation with Authoritarian Governments","date":"March 31, 2021","dateISO":"2021-03-31T11:24:25.719Z","datetime":"2021-03-31 11:24","tags":["story","Hacker News"],"image":null,"imageAlt":null,"provider":"Hacker News","thirdPartyId":"26644216","url":"https://news.ycombinator.com/item?id=26644216","originalUrl":"https://www.jessesquires.com/blog/2021/03/30/apple-cooperation-with-authoritarian-governments/","imageRemote":"https://www.jessesquires.com/ico/logo.png","video":null,"channel":null,"channelUrl":null,"author":"ig0r0","authorUrl":"https://news.ycombinator.com/user?id=ig0r0","authorImage":null,"authorSlug":null,"score":465,"views":null,"sharedCount":null,"likeCount":null,"sharedContent":null,"parent":{"__typename":"HnJson","localize":[{"title":"苹果与专制政府的合作","locale":"zh"},{"title":"蘋果與專制政府的合作","locale":"zh-Hant"}]}},{"__typename":"SocialMediaPost","id":"HnPost-26644053","excerpt":"","slug":"/hn/26644053","title":"Copyright infringement by German contact tracing app","date":"March 31, 2021","dateISO":"2021-03-31T09:52:50.581Z","datetime":"2021-03-31 09:52","tags":["story","Hacker News"],"image":null,"imageAlt":null,"provider":"Hacker News","thirdPartyId":"26644053","url":"https://news.ycombinator.com/item?id=26644053","originalUrl":"https://github.com/thesimj/jBaseZ85/issues/1","imageRemote":"https://avatars.githubusercontent.com/u/5851708?s=400&v=4","video":null,"channel":null,"channelUrl":null,"author":"Tomte","authorUrl":"https://news.ycombinator.com/user?id=Tomte","authorImage":null,"authorSlug":null,"score":315,"views":null,"sharedCount":null,"likeCount":null,"sharedContent":null,"parent":{"__typename":"HnJson","localize":[{"title":"德国联系人追踪应用侵犯版权","locale":"zh"},{"title":"德國聯繫人追蹤應用侵犯版權","locale":"zh-Hant"}]}},{"__typename":"SocialMediaPost","id":"HnPost-26644110","excerpt":"","slug":"/hn/26644110","title":"UP: A tool for writing Linux pipes with instant live preview","date":"March 31, 2021","dateISO":"2021-03-31T09:30:43.057Z","datetime":"2021-03-31 09:30","tags":["story","Hacker News"],"image":null,"imageAlt":null,"provider":"Hacker News","thirdPartyId":"26644110","url":"https://news.ycombinator.com/item?id=26644110","originalUrl":"https://github.com/akavel/up","imageRemote":"https://avatars.githubusercontent.com/u/273837?s=400&v=4","video":null,"channel":null,"channelUrl":null,"author":"ducktective","authorUrl":"https://news.ycombinator.com/user?id=ducktective","authorImage":null,"authorSlug":null,"score":476,"views":null,"sharedCount":null,"likeCount":null,"sharedContent":null,"parent":{"__typename":"HnJson","localize":[{"title":"UP：一个用于编写Linux管道的工具，具有即时的实时预览功能。","locale":"zh"},{"title":"UP：一個用於編寫Linux管道的工具，具有即時的實時預覽功能。","locale":"zh-Hant"}]}},{"__typename":"SocialMediaPost","id":"HnPost-26643068","excerpt":"","slug":"/hn/26643068","title":"Boeing 737-8 MAX reported a pitch trim issue or failure and returned origin","date":"March 31, 2021","dateISO":"2021-03-31T08:51:34.557Z","datetime":"2021-03-31 08:51","tags":["story","Hacker News"],"image":null,"imageAlt":null,"provider":"Hacker News","thirdPartyId":"26643068","url":"https://news.ycombinator.com/item?id=26643068","originalUrl":"http://avherald.com/h?article=4e52a7cb&opt=0","imageRemote":"http://avherald.com/images/next.jpg","video":null,"channel":null,"channelUrl":null,"author":"xmichael0","authorUrl":"https://news.ycombinator.com/user?id=xmichael0","authorImage":null,"authorSlug":null,"score":158,"views":null,"sharedCount":null,"likeCount":null,"sharedContent":null,"parent":{"__typename":"HnJson","localize":[{"title":"波音737-8 MAX报告俯仰微调问题或故障，并退回原产地。","locale":"zh"},{"title":"波音737-8 MAX報告俯仰微調問題或故障，並退回原產地。","locale":"zh-Hant"}]}},{"__typename":"SocialMediaPost","id":"HnPost-26643608","excerpt":"","slug":"/hn/26643608","title":"What I learnt after burning $10M as an entrepreneur","date":"March 31, 2021","dateISO":"2021-03-31T08:27:37.487Z","datetime":"2021-03-31 08:27","tags":["story","Hacker News"],"image":null,"imageAlt":null,"provider":"Hacker News","thirdPartyId":"26643608","url":"https://news.ycombinator.com/item?id=26643608","originalUrl":"https://twitter.com/awilkinson/status/1376985854229504007","imageRemote":null,"video":null,"channel":null,"channelUrl":null,"author":"dsr12","authorUrl":"https://news.ycombinator.com/user?id=dsr12","authorImage":null,"authorSlug":null,"score":474,"views":null,"sharedCount":null,"likeCount":null,"sharedContent":null,"parent":{"__typename":"HnJson","localize":[{"title":"创业烧钱1000万后，我学到了什么？","locale":"zh"},{"title":"創業燒錢1000萬後，我學到了什麼？","locale":"zh-Hant"}]}},{"__typename":"SocialMediaPost","id":"HnPost-26640453","excerpt":"","slug":"/hn/26640453","title":"EC2 Serial Console","date":"March 31, 2021","dateISO":"2021-03-31T07:43:24.808Z","datetime":"2021-03-31 07:43","tags":["story","Hacker News"],"image":null,"imageAlt":null,"provider":"Hacker News","thirdPartyId":"26640453","url":"https://news.ycombinator.com/item?id=26640453","originalUrl":"https://aws.amazon.com/blogs/aws/troubleshoot-boot-and-networking-issues-with-new-ec2-serial-console/","imageRemote":"https://d2908q01vomqb2.cloudfront.net/da4b9237bacccdf19c0760cab7aec4a8359010b0/2021/03/22/Capture-d%E2%80%99e%CC%81cran-2021-03-22-a%CC%80-14.39.13-1045x630.png","video":null,"channel":null,"channelUrl":null,"author":"TangerineDream","authorUrl":"https://news.ycombinator.com/user?id=TangerineDream","authorImage":null,"authorSlug":null,"score":180,"views":null,"sharedCount":null,"likeCount":null,"sharedContent":null,"parent":{"__typename":"HnJson","localize":[{"title":"EC2 串行控制台","locale":"zh"},{"title":"EC2 串行控制檯","locale":"zh-Hant"}]}}]}},"pageContext":{"basePath":"/","pageType":"home","tagsFilter":{"id":{"glob":"!*Post-1"}},"filter":{"id":{"glob":"!*Post-1"}},"limit":25,"skip":150,"totalPages":125,"total":3107,"currentPage":7,"maxWidth":1024,"maxHeight":512,"locale":"ja","hrefLang":"ja-JA","originalPath":"/page/7","dateFormat":"YYYY-MM-DD"}},"staticQueryHashes":["1239077767","2506312863","2744905544","3025052997","3493603132","3493603132","3513215887","386998304"]}