{"componentChunkName":"component---gatsby-theme-buzzing-src-gatsby-theme-timeline-templates-posts-query-js","path":"/tags/hacker-news/page/20","result":{"data":{"site":{"siteMetadata":{"title":"Reddit 热门","description":"用中文浏览Reddit热门内容","social":[{"name":"Twitter","url":"https://twitter.com/gatsbyjs","external":null,"prefetch":null},{"name":"GitHub","url":"https://github.com/gatsbyjs","external":null,"prefetch":null}],"menuLinks":[],"localize":[{"locale":"en","title":"Buzzing on Reddit","description":"See what's buzzing on Reddit in your native language","social":[{"name":"Reddit","url":"https://www.reddit.com/","external":true,"prefetch":null}],"menuLinks":[{"name":"Weekly Selection","url":"/issues","external":null,"prefetch":null},{"name":"RSS","url":"/rss.xml","external":null,"prefetch":false}]},{"locale":"zh-Hant","title":"Reddit 熱門","description":"用中文瀏覽Reddit熱門內容","social":null,"menuLinks":null}]}},"tagsGroup":{"group":[{"fieldValue":"ASK HN","totalCount":22},{"fieldValue":"Bitcoin","totalCount":3},{"fieldValue":"Hacker News","totalCount":920},{"fieldValue":"Poll","totalCount":1},{"fieldValue":"Show HN","totalCount":34},{"fieldValue":"investing","totalCount":197},{"fieldValue":"poll","totalCount":1},{"fieldValue":"reddit","totalCount":777},{"fieldValue":"science","totalCount":1},{"fieldValue":"stocks","totalCount":336},{"fieldValue":"story","totalCount":919},{"fieldValue":"tweet","totalCount":275},{"fieldValue":"wallstreetbets","totalCount":244}]},"allBlogPost":{"nodes":[{"__typename":"SocialMediaPost","id":"HnPost-25551487","excerpt":"","slug":"/hn/25551487","title":"Just Wanted to Say Thanks","date":"December 27, 2020","dateISO":"2020-12-27T16:57:22.397Z","datetime":"2020-12-27 16:57","tags":["story","Hacker News"],"image":null,"imageAlt":null,"provider":"Hacker News","thirdPartyId":"25551487","url":"https://news.ycombinator.com/item?id=25551487","originalUrl":"https://github.com/compumike/hairpin-proxy/issues/5","imageRemote":"https://avatars3.githubusercontent.com/u/1057385?s=400&v=4","video":null,"channel":null,"channelUrl":null,"author":"compumike","authorUrl":"https://news.ycombinator.com/user?id=compumike","authorImage":null,"authorSlug":null,"score":1241,"views":null,"sharedCount":null,"likeCount":null,"sharedContent":null,"parent":{"__typename":"HnJson","localize":[{"title":"我只想说声谢谢","locale":"zh"},{"title":"我只想說聲謝謝","locale":"zh-Hant"}]}},{"__typename":"SocialMediaPost","id":"HnPost-25546477","excerpt":"","slug":"/hn/25546477","title":"An Oscar Winner Made a Khashoggi Documentary. Streaming Services Didn’t Want It","date":"December 27, 2020","dateISO":"2020-12-27T08:41:19.524Z","datetime":"2020-12-27 08:41","tags":["story","Hacker News"],"image":null,"imageAlt":null,"provider":"Hacker News","thirdPartyId":"25546477","url":"https://news.ycombinator.com/item?id=25546477","originalUrl":"https://www.nytimes.com/2020/12/24/business/media/dissident-jamal-khashoggi-netflix-amazon.html#click=https://t.co/HoBRLE1wPV","imageRemote":"https://static01.nyt.com/images/2020/12/24/business/24dissident-1/24dissident-1-facebookJumbo.jpg","video":null,"channel":null,"channelUrl":null,"author":"doener","authorUrl":"https://news.ycombinator.com/user?id=doener","authorImage":null,"authorSlug":null,"score":220,"views":null,"sharedCount":null,"likeCount":null,"sharedContent":null,"parent":{"__typename":"HnJson","localize":[{"title":"一位奥斯卡奖得主制作了一部卡舒吉纪录片。流媒体服务公司不想要它","locale":"zh"},{"title":"一位奧斯卡獎得主製作了一部卡舒吉紀錄片。流媒體服務公司不想要它","locale":"zh-Hant"}]}},{"__typename":"SocialMediaPost","id":"HnPost-25547450","excerpt":"","slug":"/hn/25547450","title":"The Future of RTS","date":"December 27, 2020","dateISO":"2020-12-27T08:06:56.292Z","datetime":"2020-12-27 08:06","tags":["story","Hacker News"],"image":null,"imageAlt":null,"provider":"Hacker News","thirdPartyId":"25547450","url":"https://news.ycombinator.com/item?id=25547450","originalUrl":"https://docs.google.com/document/d/1RIAmHaInU_tb-Xv9EMZ6SP2zLE50t91zI2ThINwCHHo/edit","imageRemote":"https://lh3.googleusercontent.com/jf15ksyql-ucRacexf75HH0lrPV9GiznwB1hNV0GOiAuqi1b4PKK3wWTJ5MBI66qyLq4_UyCMg=w1200-h630-p","video":null,"channel":null,"channelUrl":null,"author":"henning","authorUrl":"https://news.ycombinator.com/user?id=henning","authorImage":null,"authorSlug":null,"score":188,"views":null,"sharedCount":null,"likeCount":null,"sharedContent":null,"parent":{"__typename":"HnJson","localize":[{"title":"RTS的未来","locale":"zh"},{"title":"RTS的未來","locale":"zh-Hant"}]}},{"__typename":"SocialMediaPost","id":"HnPost-25545153","excerpt":"","slug":"/hn/25545153","title":"Show HN: CodeSwing – A CodePen-like interactive playground, built into VS Code","date":"December 27, 2020","dateISO":"2020-12-27T07:36:04.744Z","datetime":"2020-12-27 07:36","tags":["story","Show HN","Hacker News"],"image":null,"imageAlt":null,"provider":"Hacker News","thirdPartyId":"25545153","url":"https://news.ycombinator.com/item?id=25545153","originalUrl":"https://github.com/codespaces-contrib/codeswing","imageRemote":"https://avatars2.githubusercontent.com/u/71164577?s=400&v=4","video":null,"channel":"Show HN","channelUrl":"https://news.ycombinator.com/show","author":"lostintangent","authorUrl":"https://news.ycombinator.com/user?id=lostintangent","authorImage":null,"authorSlug":null,"score":159,"views":null,"sharedCount":null,"likeCount":null,"sharedContent":null,"parent":{"__typename":"HnJson","localize":[{"title":"HN新产品：CodeSwing-一个类似CodePen的交互式游乐场，内置于VS代码中","locale":"zh"},{"title":"HN新產品：CodeSwing-一個類似CodePen的交互式遊樂場，內置於VS代碼中","locale":"zh-Hant"}]}},{"__typename":"SocialMediaPost","id":"HnPost-25548938","excerpt":"","slug":"/hn/25548938","title":"California Public Utilities Commission fired director who exposed missing $200M","date":"December 27, 2020","dateISO":"2020-12-27T07:01:19.727Z","datetime":"2020-12-27 07:01","tags":["story","Hacker News"],"image":null,"imageAlt":null,"provider":"Hacker News","thirdPartyId":"25548938","url":"https://news.ycombinator.com/item?id=25548938","originalUrl":"https://www.propublica.org/article/she-noticed-200-million-missing-then-she-was-fired","imageRemote":"https://assets-c3.propublica.org/images/articles/_1200x630_crop_center-center_82_none/20201224-stebbins-lead-1200x630.jpg?mtime=1608338064","video":null,"channel":null,"channelUrl":null,"author":"js2","authorUrl":"https://news.ycombinator.com/user?id=js2","authorImage":null,"authorSlug":null,"score":606,"views":null,"sharedCount":null,"likeCount":null,"sharedContent":null,"parent":{"__typename":"HnJson","localize":[{"title":"加州公用事业委员会解雇揭露失踪2亿美元的主管","locale":"zh"},{"title":"加州公用事業委員會解僱揭露失蹤2億美元的主管","locale":"zh-Hant"}]}},{"__typename":"SocialMediaPost","id":"HnPost-25547205","excerpt":"","slug":"/hn/25547205","title":"Run More Stuff in Docker","date":"December 27, 2020","dateISO":"2020-12-27T06:00:27.860Z","datetime":"2020-12-27 06:00","tags":["story","Hacker News"],"image":null,"imageAlt":null,"provider":"Hacker News","thirdPartyId":"25547205","url":"https://news.ycombinator.com/item?id=25547205","originalUrl":"https://jonathan.bergknoff.com/journal/run-more-stuff-in-docker/","imageRemote":null,"video":null,"channel":null,"channelUrl":null,"author":"psxuaw","authorUrl":"https://news.ycombinator.com/user?id=psxuaw","authorImage":null,"authorSlug":null,"score":198,"views":null,"sharedCount":null,"likeCount":null,"sharedContent":null,"parent":{"__typename":"HnJson","localize":[{"title":"在Docker中运行更多内容","locale":"zh"},{"title":"在Docker中運行更多內容","locale":"zh-Hant"}]}},{"__typename":"SocialMediaPost","id":"HnPost-25543838","excerpt":"","slug":"/hn/25543838","title":"New setup for 2020","date":"December 27, 2020","dateISO":"2020-12-27T05:54:12.850Z","datetime":"2020-12-27 05:54","tags":["story","Hacker News"],"image":null,"imageAlt":null,"provider":"Hacker News","thirdPartyId":"25543838","url":"https://news.ycombinator.com/item?id=25543838","originalUrl":"https://changelog.com/posts/the-new-changelog-setup-for-2020","imageRemote":"https://cdn.changelog.com/uploads/posts/dV92/large.png?v=63771908545","video":null,"channel":null,"channelUrl":null,"author":"fagnerbrack","authorUrl":"https://news.ycombinator.com/user?id=fagnerbrack","authorImage":null,"authorSlug":null,"score":117,"views":null,"sharedCount":null,"likeCount":null,"sharedContent":null,"parent":{"__typename":"HnJson","localize":[{"title":"2020年的新设置","locale":"zh"},{"title":"2020年的新設置","locale":"zh-Hant"}]}},{"__typename":"SocialMediaPost","id":"HnPost-25547716","excerpt":"","slug":"/hn/25547716","title":"API pagination design","date":"December 27, 2020","dateISO":"2020-12-27T05:54:12.850Z","datetime":"2020-12-27 05:54","tags":["story","Hacker News"],"image":null,"imageAlt":null,"provider":"Hacker News","thirdPartyId":"25547716","url":"https://news.ycombinator.com/item?id=25547716","originalUrl":"https://solovyov.net/blog/2020/api-pagination-design/","imageRemote":"https://solovyov.net/static/logo.png?v=37bbffb3","video":null,"channel":null,"channelUrl":null,"author":"fagnerbrack","authorUrl":"https://news.ycombinator.com/user?id=fagnerbrack","authorImage":null,"authorSlug":null,"score":352,"views":null,"sharedCount":null,"likeCount":null,"sharedContent":null,"parent":{"__typename":"HnJson","localize":[{"title":"API分页设计","locale":"zh"},{"title":"API分頁設計","locale":"zh-Hant"}]}},{"__typename":"SocialMediaPost","id":"HnPost-25547151","excerpt":"","slug":"/hn/25547151","title":"Apple Silicon M1 Die-Shots","date":"December 27, 2020","dateISO":"2020-12-27T05:04:48.579Z","datetime":"2020-12-27 05:04","tags":["story","Hacker News"],"image":null,"imageAlt":null,"provider":"Hacker News","thirdPartyId":"25547151","url":"https://news.ycombinator.com/item?id=25547151","originalUrl":"https://www.techinsights.com/blog/two-new-apple-socs-two-market-events-apple-a14-and-m1","imageRemote":"https://www.techinsights.com/sites/default/files/2020-12/blog-details.jpg","video":null,"channel":null,"channelUrl":null,"author":"stefanhoelzl","authorUrl":"https://news.ycombinator.com/user?id=stefanhoelzl","authorImage":null,"authorSlug":null,"score":185,"views":null,"sharedCount":null,"likeCount":null,"sharedContent":null,"parent":{"__typename":"HnJson","localize":[{"title":"Apple Silicon M1死因拍摄","locale":"zh"},{"title":"Apple Silicon M1死因拍攝","locale":"zh-Hant"}]}},{"__typename":"SocialMediaPost","id":"HnPost-25547123","excerpt":"","slug":"/hn/25547123","title":"Lost nuclear device atop of Nanda Devi","date":"December 27, 2020","dateISO":"2020-12-27T04:41:43.150Z","datetime":"2020-12-27 04:41","tags":["story","Hacker News"],"image":null,"imageAlt":null,"provider":"Hacker News","thirdPartyId":"25547123","url":"https://news.ycombinator.com/item?id=25547123","originalUrl":"https://www.livehistoryindia.com/cover-story/2020/09/18/nanda-devi-nuclear-device","imageRemote":"https://images.assettype.com/indynetwork/2020-09/de00724b-9ea2-4f38-82dc-ca78b3e6dee0/Image_9.jpg?w=700&ogImage=true&auto=format%2Ccompress","video":null,"channel":null,"channelUrl":null,"author":"hudvin","authorUrl":"https://news.ycombinator.com/user?id=hudvin","authorImage":null,"authorSlug":null,"score":208,"views":null,"sharedCount":null,"likeCount":null,"sharedContent":null,"parent":{"__typename":"HnJson","localize":[{"title":"南大设备顶部丢失的核装置","locale":"zh"},{"title":"南大設備頂部丟失的核裝置","locale":"zh-Hant"}]}},{"__typename":"SocialMediaPost","id":"HnPost-25547438","excerpt":"","slug":"/hn/25547438","title":"Starship / Super Heavy","date":"December 27, 2020","dateISO":"2020-12-27T03:13:26.012Z","datetime":"2020-12-27 03:13","tags":["story","Hacker News"],"image":null,"imageAlt":null,"provider":"Hacker News","thirdPartyId":"25547438","url":"https://news.ycombinator.com/item?id=25547438","originalUrl":"https://www.faa.gov/space/stakeholder_engagement/spacex_starship/starship_super_heavy/","imageRemote":"https://www.faa.gov/templates/4/assets/img/logoDOTRibbon@1x.png","video":null,"channel":null,"channelUrl":null,"author":"zaroth","authorUrl":"https://news.ycombinator.com/user?id=zaroth","authorImage":null,"authorSlug":null,"score":327,"views":null,"sharedCount":null,"likeCount":null,"sharedContent":null,"parent":{"__typename":"HnJson","localize":[{"title":"星际飞船/超重型","locale":"zh"},{"title":"星際飛船/超重型","locale":"zh-Hant"}]}},{"__typename":"SocialMediaPost","id":"HnPost-25547448","excerpt":"","slug":"/hn/25547448","title":"What If You Could Do It All Over?","date":"December 27, 2020","dateISO":"2020-12-27T02:19:19.259Z","datetime":"2020-12-27 02:19","tags":["story","Hacker News"],"image":null,"imageAlt":null,"provider":"Hacker News","thirdPartyId":"25547448","url":"https://news.ycombinator.com/item?id=25547448","originalUrl":"https://www.newyorker.com/magazine/2020/12/21/what-if-you-could-do-it-all-over","imageRemote":"https://media.newyorker.com/photos/5fd296d5f0b3263b5d9c5038/16:9/w_1280,c_limit/201221_r37576.jpg","video":null,"channel":null,"channelUrl":null,"author":"jonas21","authorUrl":"https://news.ycombinator.com/user?id=jonas21","authorImage":null,"authorSlug":null,"score":443,"views":null,"sharedCount":null,"likeCount":null,"sharedContent":null,"parent":{"__typename":"HnJson","localize":[{"title":"如果你能从头再来一遍呢？","locale":"zh"},{"title":"如果你能從頭再來一遍呢？","locale":"zh-Hant"}]}},{"__typename":"SocialMediaPost","id":"HnPost-25542456","excerpt":"","slug":"/hn/25542456","title":"Show HN: System for Private Data Management","date":"December 27, 2020","dateISO":"2020-12-27T01:19:27.658Z","datetime":"2020-12-27 01:19","tags":["story","Show HN","Hacker News"],"image":null,"imageAlt":null,"provider":"Hacker News","thirdPartyId":"25542456","url":"https://news.ycombinator.com/item?id=25542456","originalUrl":"https://github.com/Volmarg/personal-management-system","imageRemote":"https://avatars2.githubusercontent.com/u/37488679?s=400&v=4","video":null,"channel":"Show HN","channelUrl":"https://news.ycombinator.com/show","author":"dariuszW","authorUrl":"https://news.ycombinator.com/user?id=dariuszW","authorImage":null,"authorSlug":null,"score":131,"views":null,"sharedCount":null,"likeCount":null,"sharedContent":null,"parent":{"__typename":"HnJson","localize":[{"title":"HN新产品：私有数据管理系统","locale":"zh"},{"title":"HN新產品：私有數據管理系統","locale":"zh-Hant"}]}},{"__typename":"SocialMediaPost","id":"HnPost-25543898","excerpt":"","slug":"/hn/25543898","title":"Stadia uses a web app to bypass Apple's policy on cloud gaming apps","date":"December 27, 2020","dateISO":"2020-12-27T01:19:27.658Z","datetime":"2020-12-27 01:19","tags":["story","Hacker News"],"image":null,"imageAlt":null,"provider":"Hacker News","thirdPartyId":"25543898","url":"https://news.ycombinator.com/item?id=25543898","originalUrl":"https://www.extremetech.com/mobile/318411-stadia-is-now-playable-on-iphone-thanks-to-googles-new-web-app","imageRemote":"https://www.extremetech.com/wp-content/uploads/2019/11/Stadia-et-33.jpg","video":null,"channel":null,"channelUrl":null,"author":"rewq4321","authorUrl":"https://news.ycombinator.com/user?id=rewq4321","authorImage":null,"authorSlug":null,"score":140,"views":null,"sharedCount":null,"likeCount":null,"sharedContent":null,"parent":{"__typename":"HnJson","localize":[{"title":"Stadia使用网络应用绕过苹果的云游戏应用政策","locale":"zh"},{"title":"Stadia使用網絡應用繞過蘋果的雲遊戲應用政策","locale":"zh-Hant"}]}},{"__typename":"SocialMediaPost","id":"HnPost-25541329","excerpt":"","slug":"/hn/25541329","title":"A family with no fingerprints","date":"December 26, 2020","dateISO":"2020-12-26T23:39:15.611Z","datetime":"2020-12-26 23:39","tags":["story","Hacker News"],"image":null,"imageAlt":null,"provider":"Hacker News","thirdPartyId":"25541329","url":"https://news.ycombinator.com/item?id=25541329","originalUrl":"https://www.bbc.co.uk/news/world-asia-55301200","imageRemote":"https://ichef.bbci.co.uk/news/1024/branded_news/5797/production/_116132422_amal_apu.jpg","video":null,"channel":null,"channelUrl":null,"author":"lnguyen","authorUrl":"https://news.ycombinator.com/user?id=lnguyen","authorImage":null,"authorSlug":null,"score":120,"views":null,"sharedCount":null,"likeCount":null,"sharedContent":null,"parent":{"__typename":"HnJson","localize":[{"title":"一个没有指纹的家庭","locale":"zh"},{"title":"一個沒有指紋的家庭","locale":"zh-Hant"}]}},{"__typename":"SocialMediaPost","id":"HnPost-25543861","excerpt":"","slug":"/hn/25543861","title":"Lawyers automate this, so why don't airlines?","date":"December 26, 2020","dateISO":"2020-12-26T21:56:52.718Z","datetime":"2020-12-26 21:56","tags":["story","Hacker News"],"image":null,"imageAlt":null,"provider":"Hacker News","thirdPartyId":"25543861","url":"https://news.ycombinator.com/item?id=25543861","originalUrl":"https://leejo.github.io/2020/12/26/EZY1952/","imageRemote":"https://leejo.github.io/images/2020/EZY1952/typical_cost.png","video":null,"channel":null,"channelUrl":null,"author":"leejo","authorUrl":"https://news.ycombinator.com/user?id=leejo","authorImage":null,"authorSlug":null,"score":192,"views":null,"sharedCount":null,"likeCount":null,"sharedContent":null,"parent":{"__typename":"HnJson","localize":[{"title":"律师会自动完成这项工作，那么为什么航空公司不能呢？","locale":"zh"},{"title":"律師會自動完成這項工作，那麼爲什麼航空公司不能呢？","locale":"zh-Hant"}]}},{"__typename":"SocialMediaPost","id":"HnPost-25545967","excerpt":"","slug":"/hn/25545967","title":"Cursed IP Address Representations","date":"December 26, 2020","dateISO":"2020-12-26T21:39:42.602Z","datetime":"2020-12-26 21:39","tags":["story","Hacker News"],"image":null,"imageAlt":null,"provider":"Hacker News","thirdPartyId":"25545967","url":"https://news.ycombinator.com/item?id=25545967","originalUrl":"https://blog.dave.tf/post/ip-addr-parsing/","imageRemote":null,"video":null,"channel":null,"channelUrl":null,"author":"mr_tyzic","authorUrl":"https://news.ycombinator.com/user?id=mr_tyzic","authorImage":null,"authorSlug":null,"score":502,"views":null,"sharedCount":null,"likeCount":null,"sharedContent":null,"parent":{"__typename":"HnJson","localize":[{"title":"受诅咒的IP地址表示","locale":"zh"},{"title":"受詛咒的IP地址表示","locale":"zh-Hant"}]}},{"__typename":"SocialMediaPost","id":"HnPost-25544397","excerpt":"","slug":"/hn/25544397","title":"Show HN: Simple-graph – a graph database in SQLite","date":"December 26, 2020","dateISO":"2020-12-26T21:23:34.476Z","datetime":"2020-12-26 21:23","tags":["story","Show HN","Hacker News"],"image":null,"imageAlt":null,"provider":"Hacker News","thirdPartyId":"25544397","url":"https://news.ycombinator.com/item?id=25544397","originalUrl":"https://github.com/dpapathanasiou/simple-graph","imageRemote":"https://avatars2.githubusercontent.com/u/1387395?s=400&v=4","video":null,"channel":"Show HN","channelUrl":"https://news.ycombinator.com/show","author":"dpapathanasiou","authorUrl":"https://news.ycombinator.com/user?id=dpapathanasiou","authorImage":null,"authorSlug":null,"score":235,"views":null,"sharedCount":null,"likeCount":null,"sharedContent":null,"parent":{"__typename":"HnJson","localize":[{"title":"HN新产品：SIMPLE-GRAPH-SQLITE中的图形数据库","locale":"zh"},{"title":"HN新產品：SIMPLE-GRAPH-SQLITE中的圖形數據庫","locale":"zh-Hant"}]}},{"__typename":"SocialMediaPost","id":"HnPost-25534794","excerpt":"","slug":"/hn/25534794","title":"Learning to Play the Chaos Game","date":"December 26, 2020","dateISO":"2020-12-26T20:05:06.332Z","datetime":"2020-12-26 20:05","tags":["story","Hacker News"],"image":null,"imageAlt":null,"provider":"Hacker News","thirdPartyId":"25534794","url":"https://news.ycombinator.com/item?id=25534794","originalUrl":"https://hardmath123.github.io/chaos-game-fractal-foliage.html","imageRemote":"https://hardmath123.github.io/static/chaos-game/tree-building.gif","video":null,"channel":null,"channelUrl":null,"author":"hardmath123","authorUrl":"https://news.ycombinator.com/user?id=hardmath123","authorImage":null,"authorSlug":null,"score":148,"views":null,"sharedCount":null,"likeCount":null,"sharedContent":null,"parent":{"__typename":"HnJson","localize":[{"title":"学会玩混沌游戏","locale":"zh"},{"title":"學會玩混沌遊戲","locale":"zh-Hant"}]}},{"__typename":"SocialMediaPost","id":"HnPost-25543890","excerpt":"","slug":"/hn/25543890","title":"Mass die-off of birds in south-western US 'caused by starvation'","date":"December 26, 2020","dateISO":"2020-12-26T20:05:06.332Z","datetime":"2020-12-26 20:05","tags":["story","Hacker News"],"image":null,"imageAlt":null,"provider":"Hacker News","thirdPartyId":"25543890","url":"https://news.ycombinator.com/item?id=25543890","originalUrl":"https://www.theguardian.com/environment/2020/dec/26/mass-die-off-of-birds-in-south-western-us-caused-by-starvation-aoe","imageRemote":"https://i.guim.co.uk/img/media/2651b5ceec89bc6ad083d0bdfc623b83c400195a/155_0_3242_1945/master/3242.jpg?width=1200&height=630&quality=85&auto=format&fit=crop&overlay-align=bottom%2Cleft&overlay-width=100p&overlay-base64=L2ltZy9zdGF0aWMvb3ZlcmxheXMvdGctZGVmYXVsdC5wbmc&enable=upscale&s=ed41d6d8c291136751734dbf739bfe02","video":null,"channel":null,"channelUrl":null,"author":"wyldfire","authorUrl":"https://news.ycombinator.com/user?id=wyldfire","authorImage":null,"authorSlug":null,"score":184,"views":null,"sharedCount":null,"likeCount":null,"sharedContent":null,"parent":{"__typename":"HnJson","localize":[{"title":"美国西南部鸟类大规模死亡“是由饥饿造成的”","locale":"zh"},{"title":"美國西南部鳥類大規模死亡“是由飢餓造成的”","locale":"zh-Hant"}]}},{"__typename":"SocialMediaPost","id":"HnPost-25543958","excerpt":"","slug":"/hn/25543958","title":"Domino’s Pizza Drove a 90x Increase in Stock Value by Acting Like a Startup","date":"December 26, 2020","dateISO":"2020-12-26T20:05:06.332Z","datetime":"2020-12-26 20:05","tags":["story","Hacker News"],"image":null,"imageAlt":null,"provider":"Hacker News","thirdPartyId":"25543958","url":"https://news.ycombinator.com/item?id=25543958","originalUrl":"https://producthabits.com/dominos-pizza-drove-90x-increase-stock-value-acting-like-tech-startup/","imageRemote":"https://producthabits.com/wp-content/uploads/2019/02/Product-Habits-Share@2x.png","video":null,"channel":null,"channelUrl":null,"author":"swyx","authorUrl":"https://news.ycombinator.com/user?id=swyx","authorImage":null,"authorSlug":null,"score":122,"views":null,"sharedCount":null,"likeCount":null,"sharedContent":null,"parent":{"__typename":"HnJson","localize":[{"title":"Domino‘s Pizza像创业公司一样推动股票价值增加90倍","locale":"zh"},{"title":"Domino‘s Pizza像創業公司一樣推動股票價值增加90倍","locale":"zh-Hant"}]}},{"__typename":"SocialMediaPost","id":"HnPost-25544831","excerpt":"","slug":"/hn/25544831","title":"What’s the Best Non-Smart TV Sold Today?","date":"December 26, 2020","dateISO":"2020-12-26T20:05:06.332Z","datetime":"2020-12-26 20:05","tags":["story","Hacker News"],"image":null,"imageAlt":null,"provider":"Hacker News","thirdPartyId":"25544831","url":"https://news.ycombinator.com/item?id=25544831","originalUrl":"https://helpatmyhome.com/best-non-smart-tv/","imageRemote":"https://helpatmyhome.com/wp-content/uploads/2020/12/tvtvtvtvtvtvtv.jpg","video":null,"channel":null,"channelUrl":null,"author":"thomas","authorUrl":"https://news.ycombinator.com/user?id=thomas","authorImage":null,"authorSlug":null,"score":223,"views":null,"sharedCount":null,"likeCount":null,"sharedContent":null,"parent":{"__typename":"HnJson","localize":[{"title":"今天卖得最好的非智能电视是什么？","locale":"zh"},{"title":"今天賣得最好的非智能電視是什麼？","locale":"zh-Hant"}]}},{"__typename":"SocialMediaPost","id":"HnPost-25545361","excerpt":"","slug":"/hn/25545361","title":"I reverse engineered Google docs (2014)","date":"December 26, 2020","dateISO":"2020-12-26T19:38:14.935Z","datetime":"2020-12-26 19:38","tags":["story","Hacker News"],"image":null,"imageAlt":null,"provider":"Hacker News","thirdPartyId":"25545361","url":"https://news.ycombinator.com/item?id=25545361","originalUrl":"http://features.jsomers.net/how-i-reverse-engineered-google-docs/","imageRemote":"https://cloud.githubusercontent.com/assets/21294/4930884/70fe3062-656c-11e4-9ce6-f83cfa84f095.png","video":null,"channel":null,"channelUrl":null,"author":"flurly","authorUrl":"https://news.ycombinator.com/user?id=flurly","authorImage":null,"authorSlug":null,"score":411,"views":null,"sharedCount":null,"likeCount":null,"sharedContent":null,"parent":{"__typename":"HnJson","localize":[{"title":"我对谷歌文档(Google Docs)进行了反向工程(2014)","locale":"zh"},{"title":"我對谷歌文檔(Google Docs)進行了反向工程(2014)","locale":"zh-Hant"}]}},{"__typename":"SocialMediaPost","id":"HnPost-25541919","excerpt":"","slug":"/hn/25541919","title":"Manga Guide to Lisp","date":"December 26, 2020","dateISO":"2020-12-26T18:50:07.709Z","datetime":"2020-12-26 18:50","tags":["story","Hacker News"],"image":null,"imageAlt":null,"provider":"Hacker News","thirdPartyId":"25541919","url":"https://news.ycombinator.com/item?id=25541919","originalUrl":"http://lambda.bugyo.tk/cdr/mwl/","imageRemote":"http://lambda.bugyo.tk/cdr/mwl/d_lico.png","video":null,"channel":null,"channelUrl":null,"author":"joubert","authorUrl":"https://news.ycombinator.com/user?id=joubert","authorImage":null,"authorSlug":null,"score":137,"views":null,"sharedCount":null,"likeCount":null,"sharedContent":null,"parent":{"__typename":"HnJson","localize":[{"title":"Lisp漫画指南","locale":"zh"},{"title":"Lisp漫畫指南","locale":"zh-Hant"}]}},{"__typename":"SocialMediaPost","id":"HnPost-25535893","excerpt":"","slug":"/hn/25535893","title":"Redox OS 0.6, the micro-kernel based Rust-written operating system","date":"December 26, 2020","dateISO":"2020-12-26T17:42:41.602Z","datetime":"2020-12-26 17:42","tags":["story","Hacker News"],"image":null,"imageAlt":null,"provider":"Hacker News","thirdPartyId":"25535893","url":"https://news.ycombinator.com/item?id=25535893","originalUrl":"https://www.phoronix.com/scan.php?page=news_item&px=Redox-OS-0.6-Released","imageRemote":"https://www.phoronix.com/assets/categories/operatingsystems.jpg","video":null,"channel":null,"channelUrl":null,"author":"cassepipe","authorUrl":"https://news.ycombinator.com/user?id=cassepipe","authorImage":null,"authorSlug":null,"score":104,"views":null,"sharedCount":null,"likeCount":null,"sharedContent":null,"parent":{"__typename":"HnJson","localize":[{"title":"Redox OS 0.6，基于微内核的锈写操作系统","locale":"zh"},{"title":"Redox OS 0.6，基於微內核的鏽寫操作系統","locale":"zh-Hant"}]}}]}},"pageContext":{"basePath":"/","pageType":"tag","tag":"Hacker News","tagsFilter":{"id":{"glob":"!*Post-1"}},"filter":{"id":{"glob":"!*Post-1"},"tags":{"eq":"Hacker News"}},"limit":25,"skip":475,"total":920,"totalPages":37,"currentPage":20,"maxWidth":1024,"maxHeight":512,"locale":"zh","hrefLang":"zh-Hans","originalPath":"/tags/hacker-news/page/20","dateFormat":"YYYY-MM-DD"}},"staticQueryHashes":["1239077767","2506312863","2744905544","3025052997","3493603132","3493603132","3513215887","386998304"]}