{"componentChunkName":"component---gatsby-theme-buzzing-src-gatsby-theme-timeline-templates-posts-query-js","path":"/tags/hacker-news/page/67","result":{"data":{"site":{"siteMetadata":{"title":"Reddit 热门","description":"用中文浏览Reddit热门内容","social":[{"name":"Twitter","url":"https://twitter.com/gatsbyjs","external":null,"prefetch":null},{"name":"GitHub","url":"https://github.com/gatsbyjs","external":null,"prefetch":null}],"menuLinks":[],"localize":[{"locale":"en","title":"Buzzing on Reddit","description":"See what's buzzing on Reddit in your native language","social":[{"name":"Reddit","url":"https://www.reddit.com/","external":true,"prefetch":null}],"menuLinks":[{"name":"Weekly Selection","url":"/issues","external":null,"prefetch":null},{"name":"RSS","url":"/rss.xml","external":null,"prefetch":false}]},{"locale":"zh-Hant","title":"Reddit 熱門","description":"用中文瀏覽Reddit熱門內容","social":null,"menuLinks":null}]}},"tagsGroup":{"group":[{"fieldValue":"ASK HN","totalCount":44},{"fieldValue":"Bitcoin","totalCount":4},{"fieldValue":"Hacker News","totalCount":2600},{"fieldValue":"Poll","totalCount":1},{"fieldValue":"SaveAMC","totalCount":1},{"fieldValue":"Show HN","totalCount":89},{"fieldValue":"bitcoin","totalCount":3},{"fieldValue":"investing","totalCount":797},{"fieldValue":"poll","totalCount":1},{"fieldValue":"reddit","totalCount":4938},{"fieldValue":"science","totalCount":1},{"fieldValue":"stocks","totalCount":1592},{"fieldValue":"story","totalCount":2599},{"fieldValue":"tweet","totalCount":814},{"fieldValue":"wallstreetbets","totalCount":2549}]},"allBlogPost":{"nodes":[{"__typename":"SocialMediaPost","id":"HnPost-25776450","excerpt":"","slug":"/hn/25776450","title":"Fitbit is now officially part of Google","date":"January 16, 2021","dateISO":"2021-01-16T11:49:51.818Z","datetime":"2021-01-16 11:49","tags":["story","Hacker News"],"image":null,"imageAlt":null,"provider":"Hacker News","thirdPartyId":"25776450","url":"https://news.ycombinator.com/item?id=25776450","originalUrl":"https://blog.fitbit.com/2021-update/","imageRemote":"https://43nnuk1fz4a72826eo14gwfb-wpengine.netdna-ssl.com/wp-content/uploads/2017/03/Fitbit_Headshot_James.jpg","video":null,"channel":null,"channelUrl":null,"author":"blinky88","authorUrl":"https://news.ycombinator.com/user?id=blinky88","authorImage":null,"authorSlug":null,"score":292,"views":null,"sharedCount":null,"likeCount":null,"sharedContent":null,"parent":{"__typename":"HnJson","localize":[{"title":"Fitbit现在正式成为谷歌的一部分","locale":"zh"},{"title":"Fitbit現在正式成爲谷歌的一部分","locale":"zh-Hant"}]}},{"__typename":"SocialMediaPost","id":"HnPost-25776657","excerpt":"","slug":"/hn/25776657","title":"Licensing changes to Elasticsearch and Kibana","date":"January 16, 2021","dateISO":"2021-01-16T11:49:51.818Z","datetime":"2021-01-16 11:49","tags":["story","Hacker News"],"image":null,"imageAlt":null,"provider":"Hacker News","thirdPartyId":"25776657","url":"https://news.ycombinator.com/item?id=25776657","originalUrl":"https://www.elastic.co/blog/licensing-change","imageRemote":"https://static-www.elastic.co/v3/assets/bltefdd0b53724fa2ce/blt62f3b89a828cca66/60009475092adc41f184c868/blog-thumb-generic-elastic-lockup.png","video":null,"channel":null,"channelUrl":null,"author":"sl_","authorUrl":"https://news.ycombinator.com/user?id=sl_","authorImage":null,"authorSlug":null,"score":298,"views":null,"sharedCount":null,"likeCount":null,"sharedContent":null,"parent":{"__typename":"HnJson","localize":[{"title":"对Elasticsearch和Kibana的许可变更","locale":"zh"},{"title":"對Elasticsearch和Kibana的許可變更","locale":"zh-Hant"}]}},{"__typename":"SocialMediaPost","id":"HnPost-25783152","excerpt":"","slug":"/hn/25783152","title":"Ask HN: What are you working on?","date":"January 16, 2021","dateISO":"2021-01-16T11:49:51.818Z","datetime":"2021-01-16 11:49","tags":["story","ASK HN","Hacker News"],"image":null,"imageAlt":null,"provider":"Hacker News","thirdPartyId":"25783152","url":"https://news.ycombinator.com/item?id=25783152","originalUrl":"https://news.ycombinator.com/item?id=25783152","imageRemote":null,"video":null,"channel":"ASK HN","channelUrl":"https://news.ycombinator.com/ask","author":"dvt","authorUrl":"https://news.ycombinator.com/user?id=dvt","authorImage":null,"authorSlug":null,"score":526,"views":null,"sharedCount":null,"likeCount":null,"sharedContent":null,"parent":{"__typename":"HnJson","localize":[{"title":"HN提问：你在研究什么？","locale":"zh"},{"title":"HN提問：你在研究什麼？","locale":"zh-Hant"}]}},{"__typename":"SocialMediaPost","id":"HnPost-25790109","excerpt":"","slug":"/hn/25790109","title":"How I hijacked the top-level domain of a sovereign state","date":"January 16, 2021","dateISO":"2021-01-16T11:49:51.818Z","datetime":"2021-01-16 11:49","tags":["story","Hacker News"],"image":null,"imageAlt":null,"provider":"Hacker News","thirdPartyId":"25790109","url":"https://news.ycombinator.com/item?id=25790109","originalUrl":"https://labs.detectify.com/2021/01/15/how-i-hijacked-the-top-level-domain-of-a-sovereign-state/","imageRemote":"https://labs.detectify.com/wp-content/uploads/2021/01/210114_Labs_DNS_Kongo_Hijack.png","video":null,"channel":null,"channelUrl":null,"author":"Berg0X00","authorUrl":"https://news.ycombinator.com/user?id=Berg0X00","authorImage":null,"authorSlug":null,"score":295,"views":null,"sharedCount":null,"likeCount":null,"sharedContent":null,"parent":{"__typename":"HnJson","localize":[{"title":"我是如何劫持一个主权国家的顶级领域的？","locale":"zh"},{"title":"我是如何劫持一個主權國家的頂級領域的？","locale":"zh-Hant"}]}},{"__typename":"SocialMediaPost","id":"HnPost-25790530","excerpt":"","slug":"/hn/25790530","title":"Why cancer cells waste so much energy","date":"January 16, 2021","dateISO":"2021-01-16T11:49:51.818Z","datetime":"2021-01-16 11:49","tags":["story","Hacker News"],"image":null,"imageAlt":null,"provider":"Hacker News","thirdPartyId":"25790530","url":"https://news.ycombinator.com/item?id=25790530","originalUrl":"https://news.mit.edu/2021/cancer-cells-waste-energy-0115","imageRemote":"https://news.mit.edu/sites/default/files/images/202101/MIT-Warburg-Effect-01-press.jpg","video":null,"channel":null,"channelUrl":null,"author":"chmaynard","authorUrl":"https://news.ycombinator.com/user?id=chmaynard","authorImage":null,"authorSlug":null,"score":341,"views":null,"sharedCount":null,"likeCount":null,"sharedContent":null,"parent":{"__typename":"HnJson","localize":[{"title":"为什么癌细胞会浪费这么多能量","locale":"zh"},{"title":"爲什麼癌細胞會浪費這麼多能量","locale":"zh-Hant"}]}},{"__typename":"SocialMediaPost","id":"HnPost-25792316","excerpt":"","slug":"/hn/25792316","title":"The unsettling truth about the ‘Mostly Harmless’ hiker","date":"January 16, 2021","dateISO":"2021-01-16T11:49:51.818Z","datetime":"2021-01-16 11:49","tags":["story","Hacker News"],"image":null,"imageAlt":null,"provider":"Hacker News","thirdPartyId":"25792316","url":"https://news.ycombinator.com/item?id=25792316","originalUrl":"https://www.wired.com/story/unsettling-truth-mostly-harmless-hiker/","imageRemote":"https://media.wired.com/photos/5ff8e9cafff1735ab957fa1b/191:100/w_1280,c_limit/Identified-Hiker.jpg","video":null,"channel":null,"channelUrl":null,"author":"spking","authorUrl":"https://news.ycombinator.com/user?id=spking","authorImage":null,"authorSlug":null,"score":272,"views":null,"sharedCount":null,"likeCount":null,"sharedContent":null,"parent":{"__typename":"HnJson","localize":[{"title":"关于 \"大部分无害 \"的徒步旅行者的不解之谜。","locale":"zh"},{"title":"關於 \"大部分無害 \"的徒步旅行者的不解之謎。","locale":"zh-Hant"}]}},{"__typename":"SocialMediaPost","id":"HnPost-25793483","excerpt":"","slug":"/hn/25793483","title":"Signal is having technical difficulties","date":"January 16, 2021","dateISO":"2021-01-16T11:49:51.818Z","datetime":"2021-01-16 11:49","tags":["story","Hacker News"],"image":null,"imageAlt":null,"provider":"Hacker News","thirdPartyId":"25793483","url":"https://news.ycombinator.com/item?id=25793483","originalUrl":"HTTPS://status.signal.org/","imageRemote":null,"video":null,"channel":null,"channelUrl":null,"author":"tonymet","authorUrl":"https://news.ycombinator.com/user?id=tonymet","authorImage":null,"authorSlug":null,"score":907,"views":null,"sharedCount":null,"likeCount":null,"sharedContent":null,"parent":{"__typename":"HnJson","localize":[{"title":"信号有技术问题","locale":"zh"},{"title":"信號有技術問題","locale":"zh-Hant"}]}},{"__typename":"SocialMediaPost","id":"HnPost-25798008","excerpt":"","slug":"/hn/25798008","title":"Rust is a hard way to make a web API","date":"January 16, 2021","dateISO":"2021-01-16T11:49:51.818Z","datetime":"2021-01-16 11:49","tags":["story","Hacker News"],"image":null,"imageAlt":null,"provider":"Hacker News","thirdPartyId":"25798008","url":"https://news.ycombinator.com/item?id=25798008","originalUrl":"https://macwright.com/2021/01/15/rust.html","imageRemote":null,"video":null,"channel":null,"channelUrl":null,"author":"tmcw","authorUrl":"https://news.ycombinator.com/user?id=tmcw","authorImage":null,"authorSlug":null,"score":329,"views":null,"sharedCount":null,"likeCount":null,"sharedContent":null,"parent":{"__typename":"HnJson","localize":[{"title":"铁锈语言是制作网络API的硬道理。","locale":"zh"},{"title":"鐵鏽語言是製作網絡API的硬道理。","locale":"zh-Hant"}]}},{"__typename":"SocialMediaPost","id":"HnPost-25771885","excerpt":"","slug":"/hn/25771885","title":"German police take down 'world's largest darknet marketplace'","date":"January 16, 2021","dateISO":"2021-01-16T10:08:09.325Z","datetime":"2021-01-16 10:08","tags":["story","Hacker News"],"image":null,"imageAlt":null,"provider":"Hacker News","thirdPartyId":"25771885","url":"https://news.ycombinator.com/item?id=25771885","originalUrl":"https://www.barrons.com/news/german-police-take-down-world-s-largest-darknet-marketplace-01610449507","imageRemote":"https://www.barrons.com/asset/barrons/images/Barrons-Logo-AMP.png","video":null,"channel":null,"channelUrl":null,"author":"thinkloop","authorUrl":"https://news.ycombinator.com/user?id=thinkloop","authorImage":null,"authorSlug":null,"score":203,"views":null,"sharedCount":null,"likeCount":null,"sharedContent":null,"parent":{"__typename":"HnJson","localize":[{"title":"德国警方端掉 \"全球最大暗网市场","locale":"zh"},{"title":"德國警方端掉 \"全球最大暗網市場","locale":"zh-Hant"}]}},{"__typename":"SocialMediaPost","id":"HnPost-25789295","excerpt":"","slug":"/hn/25789295","title":"Maximizing Developer Effectiveness","date":"January 16, 2021","dateISO":"2021-01-16T10:08:09.325Z","datetime":"2021-01-16 10:08","tags":["story","Hacker News"],"image":null,"imageAlt":null,"provider":"Hacker News","thirdPartyId":"25789295","url":"https://news.ycombinator.com/item?id=25789295","originalUrl":"https://martinfowler.com/articles/developer-effectiveness.html","imageRemote":"https://martinfowler.com/articles/developer-effectiveness/micro-feedback-loops.png","video":null,"channel":null,"channelUrl":null,"author":"edoloughlin","authorUrl":"https://news.ycombinator.com/user?id=edoloughlin","authorImage":null,"authorSlug":null,"score":421,"views":null,"sharedCount":null,"likeCount":null,"sharedContent":null,"parent":{"__typename":"HnJson","localize":[{"title":"最大限度地提高开发人员的效率","locale":"zh"},{"title":"最大限度地提高開發人員的效率","locale":"zh-Hant"}]}},{"__typename":"SocialMediaPost","id":"HnPost-25797025","excerpt":"","slug":"/hn/25797025","title":"Why Zig when there is already C++, D, and Rust?","date":"January 16, 2021","dateISO":"2021-01-16T10:08:09.325Z","datetime":"2021-01-16 10:08","tags":["story","Hacker News"],"image":null,"imageAlt":null,"provider":"Hacker News","thirdPartyId":"25797025","url":"https://news.ycombinator.com/item?id=25797025","originalUrl":"https://ziglang.org/learn/why_zig_rust_d_cpp/","imageRemote":"https://ziglang.org/heart.svg","video":null,"channel":null,"channelUrl":null,"author":"mardiyah","authorUrl":"https://news.ycombinator.com/user?id=mardiyah","authorImage":null,"authorSlug":null,"score":276,"views":null,"sharedCount":null,"likeCount":null,"sharedContent":null,"parent":{"__typename":"HnJson","localize":[{"title":"既然已经有了C++、D和Rust，为什么还要Zig？","locale":"zh"},{"title":"既然已經有了C++、D和Rust，爲什麼還要Zig？","locale":"zh-Hant"}]}},{"__typename":"SocialMediaPost","id":"HnPost-25795731","excerpt":"","slug":"/hn/25795731","title":"Escaping VirtualBox 6.1: Part 1","date":"January 16, 2021","dateISO":"2021-01-16T01:48:22.878Z","datetime":"2021-01-16 01:48","tags":["story","Hacker News"],"image":null,"imageAlt":null,"provider":"Hacker News","thirdPartyId":"25795731","url":"https://news.ycombinator.com/item?id=25795731","originalUrl":"https://secret.club/2021/01/14/vbox-escape.html","imageRemote":"https://secret.club/assets/twitter.png","video":null,"channel":null,"channelUrl":null,"author":"lima","authorUrl":"https://news.ycombinator.com/user?id=lima","authorImage":null,"authorSlug":null,"score":323,"views":null,"sharedCount":null,"likeCount":null,"sharedContent":null,"parent":{"__typename":"HnJson","localize":[{"title":"Escaping VirtualBox 6.1: 第一部分","locale":"zh"},{"title":"Escaping VirtualBox 6.1: 第一部分","locale":"zh-Hant"}]}},{"__typename":"SocialMediaPost","id":"HnPost-25795575","excerpt":"","slug":"/hn/25795575","title":"WhatsApp delays privacy changes following backlash","date":"January 15, 2021","dateISO":"2021-01-15T23:08:17.085Z","datetime":"2021-01-15 23:08","tags":["story","Hacker News"],"image":null,"imageAlt":null,"provider":"Hacker News","thirdPartyId":"25795575","url":"https://news.ycombinator.com/item?id=25795575","originalUrl":"https://p.dw.com/p/3nzYg","imageRemote":"https://static.dw.com/image/52141889_6.jpg","video":null,"channel":null,"channelUrl":null,"author":"tchalla","authorUrl":"https://news.ycombinator.com/user?id=tchalla","authorImage":null,"authorSlug":null,"score":436,"views":null,"sharedCount":null,"likeCount":null,"sharedContent":null,"parent":{"__typename":"HnJson","localize":[{"title":"WhatsApp推迟隐私更改后的反弹","locale":"zh"},{"title":"WhatsApp推遲隱私更改後的反彈","locale":"zh-Hant"}]}},{"__typename":"SocialMediaPost","id":"HnPost-25793163","excerpt":"","slug":"/hn/25793163","title":"Be My Eyes","date":"January 15, 2021","dateISO":"2021-01-15T21:41:50.501Z","datetime":"2021-01-15 21:41","tags":["story","Hacker News"],"image":null,"imageAlt":null,"provider":"Hacker News","thirdPartyId":"25793163","url":"https://news.ycombinator.com/item?id=25793163","originalUrl":"https://www.bemyeyes.com/","imageRemote":"https://bemyeyes-assets.s3.amazonaws.com/website/OG/BME-illustration-tagline-01.png","video":null,"channel":null,"channelUrl":null,"author":"EndXA","authorUrl":"https://news.ycombinator.com/user?id=EndXA","authorImage":null,"authorSlug":null,"score":531,"views":null,"sharedCount":null,"likeCount":null,"sharedContent":null,"parent":{"__typename":"HnJson","localize":[{"title":"成为我的眼睛","locale":"zh"},{"title":"成爲我的眼睛","locale":"zh-Hant"}]}},{"__typename":"SocialMediaPost","id":"HnPost-25794962","excerpt":"","slug":"/hn/25794962","title":"Amazon Warehouse Workers to Decide Whether to Form Company's First U.S. Union","date":"January 15, 2021","dateISO":"2021-01-15T21:02:08.316Z","datetime":"2021-01-15 21:02","tags":["story","Hacker News"],"image":null,"imageAlt":null,"provider":"Hacker News","thirdPartyId":"25794962","url":"https://news.ycombinator.com/item?id=25794962","originalUrl":"https://www.npr.org/2021/01/15/948819324/amazon-warehouse-workers-to-decide-whether-to-form-companys-first-u-s-union","imageRemote":"https://media.npr.org/assets/img/2020/12/21/gettyimages-1124819752_wide-7c3600c4ac93e0f78f09f68cc366fd4023fc4acd.jpg?s=1400","video":null,"channel":null,"channelUrl":null,"author":"jimmy2020","authorUrl":"https://news.ycombinator.com/user?id=jimmy2020","authorImage":null,"authorSlug":null,"score":343,"views":null,"sharedCount":null,"likeCount":null,"sharedContent":null,"parent":{"__typename":"HnJson","localize":[{"title":"亚马逊仓库工人将决定是否成立公司在美国的第一个工会。","locale":"zh"},{"title":"亞馬遜倉庫工人將決定是否成立公司在美國的第一個工會。","locale":"zh-Hant"}]}},{"__typename":"SocialMediaPost","id":"HnPost-25788409","excerpt":"","slug":"/hn/25788409","title":"The Bit Short: Inside Crypto’s Doomsday Machine","date":"January 15, 2021","dateISO":"2021-01-15T20:17:32.198Z","datetime":"2021-01-15 20:17","tags":["story","Hacker News"],"image":null,"imageAlt":null,"provider":"Hacker News","thirdPartyId":"25788409","url":"https://news.ycombinator.com/item?id=25788409","originalUrl":"https://crypto-anonymous-2021.medium.com/the-bit-short-inside-cryptos-doomsday-machine-f8dcf78a64d3","imageRemote":"https://miro.medium.com/max/546/1*OgRN5NjsgNder22o8WCO-g.png","video":null,"channel":null,"channelUrl":null,"author":"tim333","authorUrl":"https://news.ycombinator.com/user?id=tim333","authorImage":null,"authorSlug":null,"score":315,"views":null,"sharedCount":null,"likeCount":null,"sharedContent":null,"parent":{"__typename":"HnJson","localize":[{"title":"比特短线：加密货币的末日机器内幕。","locale":"zh"},{"title":"比特短線：加密貨幣的末日機器內幕。","locale":"zh-Hant"}]}},{"__typename":"SocialMediaPost","id":"HnPost-25792719","excerpt":"","slug":"/hn/25792719","title":"Thanks HN: You helped save a company that now helps thousands make a living","date":"January 15, 2021","dateISO":"2021-01-15T20:17:32.198Z","datetime":"2021-01-15 20:17","tags":["story","Hacker News"],"image":null,"imageAlt":null,"provider":"Hacker News","thirdPartyId":"25792719","url":"https://news.ycombinator.com/item?id=25792719","originalUrl":"https://news.ycombinator.com/item?id=25792719","imageRemote":null,"video":null,"channel":null,"channelUrl":null,"author":"callmevlad","authorUrl":"https://news.ycombinator.com/user?id=callmevlad","authorImage":null,"authorSlug":null,"score":1361,"views":null,"sharedCount":null,"likeCount":null,"sharedContent":null,"parent":{"__typename":"HnJson","localize":[{"title":"谢谢HN：你帮助拯救了一家公司，现在帮助成千上万的人谋生。","locale":"zh"},{"title":"謝謝HN：你幫助拯救了一家公司，現在幫助成千上萬的人謀生。","locale":"zh-Hant"}]}},{"__typename":"SocialMediaPost","id":"HnPost-25788052","excerpt":"","slug":"/hn/25788052","title":"The Spoon Theory (2003)","date":"January 15, 2021","dateISO":"2021-01-15T18:27:32.492Z","datetime":"2021-01-15 18:27","tags":["story","Hacker News"],"image":null,"imageAlt":null,"provider":"Hacker News","thirdPartyId":"25788052","url":"https://news.ycombinator.com/item?id=25788052","originalUrl":"https://butyoudontlooksick.com/articles/written-by-christine/the-spoon-theory/","imageRemote":"https://cdn.totalcomputersusa.com/butyoudontlooksick.com/uploads/2011/05/thespoontheory_logo.jpg","video":null,"channel":null,"channelUrl":null,"author":"Eugeleo","authorUrl":"https://news.ycombinator.com/user?id=Eugeleo","authorImage":null,"authorSlug":null,"score":223,"views":null,"sharedCount":null,"likeCount":null,"sharedContent":null,"parent":{"__typename":"HnJson","localize":[{"title":"勺子理论(2003年)","locale":"zh"},{"title":"勺子理論(2003年)","locale":"zh-Hant"}]}},{"__typename":"SocialMediaPost","id":"HnPost-25772365","excerpt":"","slug":"/hn/25772365","title":"If you want peace, study war","date":"January 15, 2021","dateISO":"2021-01-15T17:02:43.535Z","datetime":"2021-01-15 17:02","tags":["story","Hacker News"],"image":null,"imageAlt":null,"provider":"Hacker News","thirdPartyId":"25772365","url":"https://news.ycombinator.com/item?id=25772365","originalUrl":"https://www.persuasion.community/p/if-you-want-peace-study-war-533","imageRemote":"https://cdn.substack.com/image/fetch/h_600,c_limit,f_auto,q_auto:good,fl_progressive:steep/https%3A%2F%2Fbucketeer-e05bbc84-baa3-437e-9518-adb32be77984.s3.amazonaws.com%2Fpublic%2Fimages%2Fee9f8cb1-eee9-4e69-bce8-d7b52537900a_3896x2568.jpeg","video":null,"channel":null,"channelUrl":null,"author":"ascertain","authorUrl":"https://news.ycombinator.com/user?id=ascertain","authorImage":null,"authorSlug":null,"score":208,"views":null,"sharedCount":null,"likeCount":null,"sharedContent":null,"parent":{"__typename":"HnJson","localize":[{"title":"要想和平，先研究战争","locale":"zh"},{"title":"要想和平，先研究戰爭","locale":"zh-Hant"}]}},{"__typename":"SocialMediaPost","id":"HnPost-25788129","excerpt":"","slug":"/hn/25788129","title":"New MacBook Pro models to feature magsafe, no touch bar and more ports","date":"January 15, 2021","dateISO":"2021-01-15T17:02:43.535Z","datetime":"2021-01-15 17:02","tags":["story","Hacker News"],"image":null,"imageAlt":null,"provider":"Hacker News","thirdPartyId":"25788129","url":"https://news.ycombinator.com/item?id=25788129","originalUrl":"https://www.macrumors.com/2021/01/15/new-macbook-pro-models-magsafe-ports/","imageRemote":"https://images.macrumors.com/t/LJXzJkkcCAIu9DTBViePFJXge10=/2344x/https://images.macrumors.com/article-new/2021/01/Flat-2021-MacBook-Pro-Mockup-Feature.jpg","video":null,"channel":null,"channelUrl":null,"author":"Heliosmaster","authorUrl":"https://news.ycombinator.com/user?id=Heliosmaster","authorImage":null,"authorSlug":null,"score":497,"views":null,"sharedCount":null,"likeCount":null,"sharedContent":null,"parent":{"__typename":"HnJson","localize":[{"title":"新款MacBook Pro将配备magsafe、无触控条和更多端口。","locale":"zh"},{"title":"新款MacBook Pro將配備magsafe、無觸控條和更多端口。","locale":"zh-Hant"}]}},{"__typename":"SocialMediaPost","id":"HnPost-25783303","excerpt":"","slug":"/hn/25783303","title":"Native Americans say U.S. does not own land it is about to give to Rio Tinto","date":"January 15, 2021","dateISO":"2021-01-15T15:58:51.703Z","datetime":"2021-01-15 15:58","tags":["story","Hacker News"],"image":null,"imageAlt":null,"provider":"Hacker News","thirdPartyId":"25783303","url":"https://news.ycombinator.com/item?id=25783303","originalUrl":"https://www.reuters.com/article/us-usa-mining-resolution/native-americans-say-u-s-does-not-own-land-it-is-about-to-give-to-rio-tinto-idUSKBN29J2R9","imageRemote":"https://static.reuters.com/resources/r/?m=02&d=20210115&t=2&i=1547858626&r=LYNXMPEH0D1JT&w=800","video":null,"channel":null,"channelUrl":null,"author":"pseudolus","authorUrl":"https://news.ycombinator.com/user?id=pseudolus","authorImage":null,"authorSlug":null,"score":204,"views":null,"sharedCount":null,"likeCount":null,"sharedContent":null,"parent":{"__typename":"HnJson","localize":[{"title":"美国原住民称美国并不拥有其即将给力拓的土地。","locale":"zh"},{"title":"美國原住民稱美國並不擁有其即將給力拓的土地。","locale":"zh-Hant"}]}},{"__typename":"SocialMediaPost","id":"HnPost-25789603","excerpt":"","slug":"/hn/25789603","title":"Tell HN: Dropbox now requires access to contacts for Google login","date":"January 15, 2021","dateISO":"2021-01-15T14:06:47.812Z","datetime":"2021-01-15 14:06","tags":["story","Hacker News"],"image":null,"imageAlt":null,"provider":"Hacker News","thirdPartyId":"25789603","url":"https://news.ycombinator.com/item?id=25789603","originalUrl":"https://news.ycombinator.com/item?id=25789603","imageRemote":null,"video":null,"channel":null,"channelUrl":null,"author":"poxobloc","authorUrl":"https://news.ycombinator.com/user?id=poxobloc","authorImage":null,"authorSlug":null,"score":618,"views":null,"sharedCount":null,"likeCount":null,"sharedContent":null,"parent":{"__typename":"HnJson","localize":[{"title":"告诉HN：Dropbox现在需要访问联系人才能登录谷歌。","locale":"zh"},{"title":"告訴HN：Dropbox現在需要訪問聯繫人才能登錄谷歌。","locale":"zh-Hant"}]}},{"__typename":"SocialMediaPost","id":"HnPost-25781645","excerpt":"","slug":"/hn/25781645","title":"Smart contracts on Bitcoin","date":"January 15, 2021","dateISO":"2021-01-15T10:31:43.652Z","datetime":"2021-01-15 10:31","tags":["story","Hacker News"],"image":null,"imageAlt":null,"provider":"Hacker News","thirdPartyId":"25781645","url":"https://news.ycombinator.com/item?id=25781645","originalUrl":"https://avc.com/2021/01/smart-contracts-on-bitcoin/","imageRemote":"https://avc.com/content/themes/storyware/assets/svg/logo.svg","video":null,"channel":null,"channelUrl":null,"author":"rmason","authorUrl":"https://news.ycombinator.com/user?id=rmason","authorImage":null,"authorSlug":null,"score":214,"views":null,"sharedCount":null,"likeCount":null,"sharedContent":null,"parent":{"__typename":"HnJson","localize":[{"title":"比特币的智能合约","locale":"zh"},{"title":"比特幣的智能合約","locale":"zh-Hant"}]}},{"__typename":"SocialMediaPost","id":"HnPost-25783508","excerpt":"","slug":"/hn/25783508","title":"Zoom improvements requested by music schools","date":"January 15, 2021","dateISO":"2021-01-15T08:56:41.313Z","datetime":"2021-01-15 08:56","tags":["story","Hacker News"],"image":null,"imageAlt":null,"provider":"Hacker News","thirdPartyId":"25783508","url":"https://news.ycombinator.com/item?id=25783508","originalUrl":"https://music.yale.edu/news/yale-led-effort-yields-zoom-upgrades","imageRemote":"https://music.yale.edu/sites/default/files/styles/card_image/public/2020-09/Llewellyn%20Sanchez-Werner%20%2720AD.png?itok=3By9-1G7","video":null,"channel":null,"channelUrl":null,"author":"chat","authorUrl":"https://news.ycombinator.com/user?id=chat","authorImage":null,"authorSlug":null,"score":270,"views":null,"sharedCount":null,"likeCount":null,"sharedContent":null,"parent":{"__typename":"HnJson","localize":[{"title":"音乐学校要求的变焦改进","locale":"zh"},{"title":"音樂學校要求的變焦改進","locale":"zh-Hant"}]}},{"__typename":"SocialMediaPost","id":"HnPost-25786236","excerpt":"","slug":"/hn/25786236","title":"Apple M1 Assembly Language Hello World","date":"January 15, 2021","dateISO":"2021-01-15T08:56:41.313Z","datetime":"2021-01-15 08:56","tags":["story","Hacker News"],"image":null,"imageAlt":null,"provider":"Hacker News","thirdPartyId":"25786236","url":"https://news.ycombinator.com/item?id=25786236","originalUrl":"https://smist08.wordpress.com/2021/01/08/apple-m1-assembly-language-hello-world/","imageRemote":"https://smist08.files.wordpress.com/2020/05/arm64cover.png","video":null,"channel":null,"channelUrl":null,"author":"joubert","authorUrl":"https://news.ycombinator.com/user?id=joubert","authorImage":null,"authorSlug":null,"score":372,"views":null,"sharedCount":null,"likeCount":null,"sharedContent":null,"parent":{"__typename":"HnJson","localize":[{"title":"苹果 M1 汇编语言 Hello World","locale":"zh"},{"title":"蘋果 M1 彙編語言 Hello World","locale":"zh-Hant"}]}}]}},"pageContext":{"basePath":"/","pageType":"tag","tag":"Hacker News","tagsFilter":{"id":{"glob":"!*Post-1"}},"filter":{"id":{"glob":"!*Post-1"},"tags":{"eq":"Hacker News"}},"limit":25,"skip":1650,"total":2600,"totalPages":104,"currentPage":67,"maxWidth":1024,"maxHeight":512,"locale":"zh","hrefLang":"zh-Hans","originalPath":"/tags/hacker-news/page/67","dateFormat":"YYYY-MM-DD"}},"staticQueryHashes":["1239077767","2506312863","2744905544","3025052997","3493603132","3493603132","3513215887","386998304"]}