{"componentChunkName":"component---gatsby-theme-buzzing-src-gatsby-theme-timeline-templates-posts-query-js","path":"/zh-Hant/tags/story/page/7","result":{"data":{"site":{"siteMetadata":{"title":"Reddit 热门","description":"用中文浏览Reddit热门内容","social":[{"name":"Twitter","url":"https://twitter.com/gatsbyjs","external":null,"prefetch":null},{"name":"GitHub","url":"https://github.com/gatsbyjs","external":null,"prefetch":null}],"menuLinks":[],"localize":[{"locale":"en","title":"Buzzing on Reddit","description":"See what's buzzing on Reddit in your native language","social":[{"name":"Reddit","url":"https://www.reddit.com/","external":true,"prefetch":null}],"menuLinks":[{"name":"Weekly Selection","url":"/issues","external":null,"prefetch":null},{"name":"RSS","url":"/rss.xml","external":null,"prefetch":false}]},{"locale":"zh-Hant","title":"Reddit 熱門","description":"用中文瀏覽Reddit熱門內容","social":null,"menuLinks":null}]}},"tagsGroup":{"group":[{"fieldValue":"ASK HN","totalCount":42},{"fieldValue":"Bitcoin","totalCount":4},{"fieldValue":"Hacker News","totalCount":2409},{"fieldValue":"Poll","totalCount":1},{"fieldValue":"SaveAMC","totalCount":1},{"fieldValue":"Show HN","totalCount":81},{"fieldValue":"bitcoin","totalCount":3},{"fieldValue":"investing","totalCount":755},{"fieldValue":"poll","totalCount":1},{"fieldValue":"reddit","totalCount":4525},{"fieldValue":"science","totalCount":1},{"fieldValue":"stocks","totalCount":1482},{"fieldValue":"story","totalCount":2408},{"fieldValue":"tweet","totalCount":767},{"fieldValue":"wallstreetbets","totalCount":2288}]},"allBlogPost":{"nodes":[{"__typename":"SocialMediaPost","id":"HnPost-26362178","excerpt":"","slug":"/hn/26362178","title":"30k U.S. organizations newly hacked via holes in Microsoft Exchange Server","date":"March 05, 2021","dateISO":"2021-03-05T23:37:46.083Z","datetime":"2021-03-05 23:37","tags":["story","Hacker News"],"image":null,"imageAlt":null,"provider":"Hacker News","thirdPartyId":"26362178","url":"https://news.ycombinator.com/item?id=26362178","originalUrl":"https://krebsonsecurity.com/2021/03/at-least-30000-u-s-organizations-newly-hacked-via-holes-in-microsofts-email-software/","imageRemote":"https://krebsonsecurity.com/wp-content/uploads/2021/03/chriskrebstweet.png","video":null,"channel":null,"channelUrl":null,"author":"parsecs","authorUrl":"https://news.ycombinator.com/user?id=parsecs","authorImage":null,"authorSlug":null,"score":160,"views":null,"sharedCount":null,"likeCount":null,"sharedContent":null,"parent":{"__typename":"HnJson","localize":[{"title":"美国3万家机构新近通过微软Exchange服务器的漏洞被黑客攻击","locale":"zh"},{"title":"美國3萬家機構新近通過微軟Exchange服務器的漏洞被黑客攻擊","locale":"zh-Hant"}]}},{"__typename":"SocialMediaPost","id":"HnPost-26359431","excerpt":"","slug":"/hn/26359431","title":"Wing Commander III","date":"March 05, 2021","dateISO":"2021-03-05T23:18:05.807Z","datetime":"2021-03-05 23:18","tags":["story","Hacker News"],"image":null,"imageAlt":null,"provider":"Hacker News","thirdPartyId":"26359431","url":"https://news.ycombinator.com/item?id=26359431","originalUrl":"https://www.filfre.net/2021/03/wing-commander-iii/","imageRemote":"https://www.filfre.net/wp-content/uploads/2021/01/384521-wing-commander-iii-heart-of-the-tiger-dos-front-cover-214x300.jpg","video":null,"channel":null,"channelUrl":null,"author":"doppp","authorUrl":"https://news.ycombinator.com/user?id=doppp","authorImage":null,"authorSlug":null,"score":160,"views":null,"sharedCount":null,"likeCount":null,"sharedContent":null,"parent":{"__typename":"HnJson","localize":[{"title":"Wing Commander III","locale":"zh"},{"title":"Wing Commander III","locale":"zh-Hant"}]}},{"__typename":"SocialMediaPost","id":"HnPost-26361423","excerpt":"","slug":"/hn/26361423","title":"Show HN: Svelte NodeGUI, a lightweight Electron alternative with native UI","date":"March 05, 2021","dateISO":"2021-03-05T22:29:08.416Z","datetime":"2021-03-05 22:29","tags":["story","Show HN","Hacker News"],"image":null,"imageAlt":null,"provider":"Hacker News","thirdPartyId":"26361423","url":"https://news.ycombinator.com/item?id=26361423","originalUrl":"https://github.com/nodegui/svelte-nodegui","imageRemote":"https://avatars.githubusercontent.com/u/51644128?s=400&v=4","video":null,"channel":"Show HN","channelUrl":"https://news.ycombinator.com/show","author":"LinguaBrowse","authorUrl":"https://news.ycombinator.com/user?id=LinguaBrowse","authorImage":null,"authorSlug":null,"score":165,"views":null,"sharedCount":null,"likeCount":null,"sharedContent":null,"parent":{"__typename":"HnJson","localize":[{"title":"显示HN：Svelte NodeGUI，一个轻量级的Electron替代方案，具有原生UI。","locale":"zh"},{"title":"顯示HN：Svelte NodeGUI，一個輕量級的Electron替代方案，具有原生UI。","locale":"zh-Hant"}]}},{"__typename":"SocialMediaPost","id":"HnPost-26360005","excerpt":"","slug":"/hn/26360005","title":"Fusion startup plans reactor with small but powerful superconducting magnets","date":"March 05, 2021","dateISO":"2021-03-05T21:47:31.627Z","datetime":"2021-03-05 21:47","tags":["story","Hacker News"],"image":null,"imageAlt":null,"provider":"Hacker News","thirdPartyId":"26360005","url":"https://news.ycombinator.com/item?id=26360005","originalUrl":"https://www.sciencemag.org/news/2021/03/fusion-startup-plans-reactor-small-powerful-superconducting-magnets","imageRemote":"https://www.sciencemag.org/sites/default/files/styles/article_main_large/public/SPARC_1280p.jpg?itok=2ynaFFT4","video":null,"channel":null,"channelUrl":null,"author":"rbanffy","authorUrl":"https://news.ycombinator.com/user?id=rbanffy","authorImage":null,"authorSlug":null,"score":161,"views":null,"sharedCount":null,"likeCount":null,"sharedContent":null,"parent":{"__typename":"HnJson","localize":[{"title":"核聚变初创公司计划用小型但功能强大的超导磁体来制造反应堆。","locale":"zh"},{"title":"核聚變初創公司計劃用小型但功能強大的超導磁體來製造反應堆。","locale":"zh-Hant"}]}},{"__typename":"SocialMediaPost","id":"HnPost-26357389","excerpt":"","slug":"/hn/26357389","title":"Zola: A fast static site generator in a single binary","date":"March 05, 2021","dateISO":"2021-03-05T20:51:29.893Z","datetime":"2021-03-05 20:51","tags":["story","Hacker News"],"image":null,"imageAlt":null,"provider":"Hacker News","thirdPartyId":"26357389","url":"https://news.ycombinator.com/item?id=26357389","originalUrl":"https://www.getzola.org/","imageRemote":null,"video":null,"channel":null,"channelUrl":null,"author":"ibraheemdev","authorUrl":"https://news.ycombinator.com/user?id=ibraheemdev","authorImage":null,"authorSlug":null,"score":162,"views":null,"sharedCount":null,"likeCount":null,"sharedContent":null,"parent":{"__typename":"HnJson","localize":[{"title":"左拉。一个二进制的快速静态网站生成器。","locale":"zh"},{"title":"左拉。一個二進制的快速靜態網站生成器。","locale":"zh-Hant"}]}},{"__typename":"SocialMediaPost","id":"HnPost-26359424","excerpt":"","slug":"/hn/26359424","title":"Oakland bans the use of combustion engine-powered leaf blowers and trimmers","date":"March 05, 2021","dateISO":"2021-03-05T19:55:01.860Z","datetime":"2021-03-05 19:55","tags":["story","Hacker News"],"image":null,"imageAlt":null,"provider":"Hacker News","thirdPartyId":"26359424","url":"https://news.ycombinator.com/item?id=26359424","originalUrl":"https://www.oaklandca.gov/resources/oakland-bans-the-use-of-combustion-engine-powered-leaf-blowers-and-string-trimmers","imageRemote":"https://city-of-oakland.imgix.net/seo/logo-oakland.png?auto=compress%2Cformat&crop=focalpoint&fit=min&fp-x=0.5&fp-y=0.5&h=630&q=80&w=1200","video":null,"channel":null,"channelUrl":null,"author":"hindsightbias","authorUrl":"https://news.ycombinator.com/user?id=hindsightbias","authorImage":null,"authorSlug":null,"score":165,"views":null,"sharedCount":null,"likeCount":null,"sharedContent":null,"parent":{"__typename":"HnJson","localize":[{"title":"奥克兰市禁止使用内燃机驱动的吹叶机和修剪机。","locale":"zh"},{"title":"奧克蘭市禁止使用內燃機驅動的吹葉機和修剪機。","locale":"zh-Hant"}]}},{"__typename":"SocialMediaPost","id":"HnPost-26358131","excerpt":"","slug":"/hn/26358131","title":"Facial recognition can predict person’s political orientation with 72% accuracy","date":"March 05, 2021","dateISO":"2021-03-05T18:52:13.434Z","datetime":"2021-03-05 18:52","tags":["story","Hacker News"],"image":null,"imageAlt":null,"provider":"Hacker News","thirdPartyId":"26358131","url":"https://news.ycombinator.com/item?id=26358131","originalUrl":"https://www.nature.com/articles/s41598-020-79310-1","imageRemote":"https://media.springernature.com/m685/springer-static/image/art%3A10.1038%2Fs41598-020-79310-1/MediaObjects/41598_2020_79310_Fig1_HTML.png","video":null,"channel":null,"channelUrl":null,"author":"andreykocevski","authorUrl":"https://news.ycombinator.com/user?id=andreykocevski","authorImage":null,"authorSlug":null,"score":168,"views":null,"sharedCount":null,"likeCount":null,"sharedContent":null,"parent":{"__typename":"HnJson","localize":[{"title":"面部识别可预测人的政治倾向，准确率达72%。","locale":"zh"},{"title":"面部識別可預測人的政治傾向，準確率達72%。","locale":"zh-Hant"}]}},{"__typename":"SocialMediaPost","id":"HnPost-26346226","excerpt":"","slug":"/hn/26346226","title":"Understanding deep learning requires rethinking generalization","date":"March 05, 2021","dateISO":"2021-03-05T18:28:16.667Z","datetime":"2021-03-05 18:28","tags":["story","Hacker News"],"image":null,"imageAlt":null,"provider":"Hacker News","thirdPartyId":"26346226","url":"https://news.ycombinator.com/item?id=26346226","originalUrl":"https://cacm.acm.org/magazines/2021/3/250713-understanding-deep-learning-still-requires-rethinking-generalization/fulltext","imageRemote":"https://cacm.acm.org/system/assets/0003/9231/021521_WorldQuant_Understanding-Deep.large.jpg?1613514461&1613514461","video":null,"channel":null,"channelUrl":null,"author":"tmfi","authorUrl":"https://news.ycombinator.com/user?id=tmfi","authorImage":null,"authorSlug":null,"score":160,"views":null,"sharedCount":null,"likeCount":null,"sharedContent":null,"parent":{"__typename":"HnJson","localize":[{"title":"理解深度学习需要重新思考泛化","locale":"zh"},{"title":"理解深度學習需要重新思考泛化","locale":"zh-Hant"}]}},{"__typename":"SocialMediaPost","id":"HnPost-26339421","excerpt":"","slug":"/hn/26339421","title":"Voith Schneider Propeller","date":"March 05, 2021","dateISO":"2021-03-05T17:46:46.186Z","datetime":"2021-03-05 17:46","tags":["story","Hacker News"],"image":null,"imageAlt":null,"provider":"Hacker News","thirdPartyId":"26339421","url":"https://news.ycombinator.com/item?id=26339421","originalUrl":"https://en.wikipedia.org/wiki/Voith_Schneider_Propeller","imageRemote":"https://upload.wikimedia.org/wikipedia/commons/0/0a/VSPreal.jpg","video":null,"channel":null,"channelUrl":null,"author":"luu","authorUrl":"https://news.ycombinator.com/user?id=luu","authorImage":null,"authorSlug":null,"score":160,"views":null,"sharedCount":null,"likeCount":null,"sharedContent":null,"parent":{"__typename":"HnJson","localize":[{"title":"福伊特施耐德螺旋桨","locale":"zh"},{"title":"福伊特施耐德螺旋槳","locale":"zh-Hant"}]}},{"__typename":"SocialMediaPost","id":"HnPost-26356854","excerpt":"","slug":"/hn/26356854","title":"Symbolics.jl: A Modern Computer Algebra System for a Modern Language","date":"March 05, 2021","dateISO":"2021-03-05T17:46:46.186Z","datetime":"2021-03-05 17:46","tags":["story","Hacker News"],"image":null,"imageAlt":null,"provider":"Hacker News","thirdPartyId":"26356854","url":"https://news.ycombinator.com/item?id=26356854","originalUrl":"https://discourse.julialang.org/t/ann-symbolics-jl-a-modern-computer-algebra-system-for-a-modern-language/56251","imageRemote":"https://aws1.discourse-cdn.com/business5/uploads/julialang/original/2X/1/12829a7ba92b924d4ce81099cbf99785bee9b405.png","video":null,"channel":null,"channelUrl":null,"author":"natemcintosh","authorUrl":"https://news.ycombinator.com/user?id=natemcintosh","authorImage":null,"authorSlug":null,"score":185,"views":null,"sharedCount":null,"likeCount":null,"sharedContent":null,"parent":{"__typename":"HnJson","localize":[{"title":"符号学.jl。现代语言的现代计算机代数系统","locale":"zh"},{"title":"符號學.jl。現代語言的現代計算機代數系統","locale":"zh-Hant"}]}},{"__typename":"SocialMediaPost","id":"HnPost-26354243","excerpt":"","slug":"/hn/26354243","title":"Girl and Computer: Reflecting on the journey that got me to where I am today","date":"March 05, 2021","dateISO":"2021-03-05T17:14:51.492Z","datetime":"2021-03-05 17:14","tags":["story","Hacker News"],"image":null,"imageAlt":null,"provider":"Hacker News","thirdPartyId":"26354243","url":"https://news.ycombinator.com/item?id=26354243","originalUrl":"https://rmurphey.medium.com/girl-computer-31ecd328bc53","imageRemote":"https://miro.medium.com/max/1200/1*0mTvlT0Lsc4loWsR9QwWMQ.jpeg","video":null,"channel":null,"channelUrl":null,"author":"mpweiher","authorUrl":"https://news.ycombinator.com/user?id=mpweiher","authorImage":null,"authorSlug":null,"score":161,"views":null,"sharedCount":null,"likeCount":null,"sharedContent":null,"parent":{"__typename":"HnJson","localize":[{"title":"女孩与电脑。反思我走到今天这一步的历程。","locale":"zh"},{"title":"女孩與電腦。反思我走到今天這一步的歷程。","locale":"zh-Hant"}]}},{"__typename":"SocialMediaPost","id":"HnPost-26342020","excerpt":"","slug":"/hn/26342020","title":"Square acquires majority of Tidal in $297M deal","date":"March 05, 2021","dateISO":"2021-03-05T15:08:15.867Z","datetime":"2021-03-05 15:08","tags":["story","Hacker News"],"image":null,"imageAlt":null,"provider":"Hacker News","thirdPartyId":"26342020","url":"https://news.ycombinator.com/item?id=26342020","originalUrl":"https://www.nytimes.com/2021/03/04/business/media/tidal-square-jay-z-dorsey.html","imageRemote":"https://static01.nyt.com/images/2015/03/31/business/31jayz-web2/31jayz-web2-facebookJumbo-v3.jpg","video":null,"channel":null,"channelUrl":null,"author":"daegloe","authorUrl":"https://news.ycombinator.com/user?id=daegloe","authorImage":null,"authorSlug":null,"score":160,"views":null,"sharedCount":null,"likeCount":null,"sharedContent":null,"parent":{"__typename":"HnJson","localize":[{"title":"Square在2.97亿美元的交易中收购了Tidal的大部分股权。","locale":"zh"},{"title":"Square在2.97億美元的交易中收購了Tidal的大部分股權。","locale":"zh-Hant"}]}},{"__typename":"SocialMediaPost","id":"HnPost-26355480","excerpt":"","slug":"/hn/26355480","title":"'Floating ship' photographed off Cornish coast by walker","date":"March 05, 2021","dateISO":"2021-03-05T15:08:15.867Z","datetime":"2021-03-05 15:08","tags":["story","Hacker News"],"image":null,"imageAlt":null,"provider":"Hacker News","thirdPartyId":"26355480","url":"https://news.ycombinator.com/item?id=26355480","originalUrl":"https://www.bbc.co.uk/news/uk-england-cornwall-56286719","imageRemote":"https://ichef.bbci.co.uk/news/1024/branded_news/518E/production/_117387802_apex_hovering_ship_illusion_03.jpg","video":null,"channel":null,"channelUrl":null,"author":"jmkd","authorUrl":"https://news.ycombinator.com/user?id=jmkd","authorImage":null,"authorSlug":null,"score":168,"views":null,"sharedCount":null,"likeCount":null,"sharedContent":null,"parent":{"__typename":"HnJson","localize":[{"title":"步行者在康沃尔海岸拍摄到的 \"浮船\"。","locale":"zh"},{"title":"步行者在康沃爾海岸拍攝到的 \"浮船\"。","locale":"zh-Hant"}]}},{"__typename":"SocialMediaPost","id":"HnPost-26356492","excerpt":"","slug":"/hn/26356492","title":"Valve's Proton Has Enabled 7000 Windows Games on Linux","date":"March 05, 2021","dateISO":"2021-03-05T15:08:15.867Z","datetime":"2021-03-05 15:08","tags":["story","Hacker News"],"image":null,"imageAlt":null,"provider":"Hacker News","thirdPartyId":"26356492","url":"https://news.ycombinator.com/item?id=26356492","originalUrl":"https://boilingsteam.com/7000-windows-games-working-on-linux-with-proton/","imageRemote":"https://boilingsteam.com/wp-content/uploads/death-stranding-top.jpg","video":null,"channel":null,"channelUrl":null,"author":"ekianjo","authorUrl":"https://news.ycombinator.com/user?id=ekianjo","authorImage":null,"authorSlug":null,"score":173,"views":null,"sharedCount":null,"likeCount":null,"sharedContent":null,"parent":{"__typename":"HnJson","localize":[{"title":"Valve的Proton已经在Linux上启用了7000个Windows游戏。","locale":"zh"},{"title":"Valve的Proton已經在Linux上啓用了7000個Windows遊戲。","locale":"zh-Hant"}]}},{"__typename":"SocialMediaPost","id":"HnPost-26351702","excerpt":"","slug":"/hn/26351702","title":"A warning about 5.12-rc1","date":"March 05, 2021","dateISO":"2021-03-05T14:25:00.407Z","datetime":"2021-03-05 14:25","tags":["story","Hacker News"],"image":null,"imageAlt":null,"provider":"Hacker News","thirdPartyId":"26351702","url":"https://news.ycombinator.com/item?id=26351702","originalUrl":"https://lwn.net/Articles/848265/","imageRemote":"https://static.lwn.net/images/logo/barepenguin-70.png","video":null,"channel":null,"channelUrl":null,"author":"eplanit","authorUrl":"https://news.ycombinator.com/user?id=eplanit","authorImage":null,"authorSlug":null,"score":160,"views":null,"sharedCount":null,"likeCount":null,"sharedContent":null,"parent":{"__typename":"HnJson","localize":[{"title":"关于5.12-rc1的警告","locale":"zh"},{"title":"關於5.12-rc1的警告","locale":"zh-Hant"}]}},{"__typename":"SocialMediaPost","id":"HnPost-26355779","excerpt":"","slug":"/hn/26355779","title":"Bring Your Own Client","date":"March 05, 2021","dateISO":"2021-03-05T14:25:00.406Z","datetime":"2021-03-05 14:25","tags":["story","Hacker News"],"image":null,"imageAlt":null,"provider":"Hacker News","thirdPartyId":"26355779","url":"https://news.ycombinator.com/item?id=26355779","originalUrl":"https://www.geoffreylitt.com/2021/03/05/bring-your-own-client.html","imageRemote":"https://geoffreylitt.com/images/gradient.jpg","video":null,"channel":null,"channelUrl":null,"author":"pcr910303","authorUrl":"https://news.ycombinator.com/user?id=pcr910303","authorImage":null,"authorSlug":null,"score":171,"views":null,"sharedCount":null,"likeCount":null,"sharedContent":null,"parent":{"__typename":"HnJson","localize":[{"title":"自带客户","locale":"zh"},{"title":"自帶客戶","locale":"zh-Hant"}]}},{"__typename":"SocialMediaPost","id":"HnPost-26353184","excerpt":"","slug":"/hn/26353184","title":"PyTorch 1.8, with AMD ROCm support","date":"March 05, 2021","dateISO":"2021-03-05T11:00:08.499Z","datetime":"2021-03-05 11:00","tags":["story","Hacker News"],"image":null,"imageAlt":null,"provider":"Hacker News","thirdPartyId":"26353184","url":"https://news.ycombinator.com/item?id=26353184","originalUrl":"https://github.com/pytorch/pytorch/releases/tag/v1.8.0","imageRemote":"https://avatars.githubusercontent.com/u/21003710?s=400&v=4","video":null,"channel":null,"channelUrl":null,"author":"lnyan","authorUrl":"https://news.ycombinator.com/user?id=lnyan","authorImage":null,"authorSlug":null,"score":160,"views":null,"sharedCount":null,"likeCount":null,"sharedContent":null,"parent":{"__typename":"HnJson","localize":[{"title":"PyTorch 1.8，支持AMD ROCm。","locale":"zh"},{"title":"PyTorch 1.8，支持AMD ROCm。","locale":"zh-Hant"}]}},{"__typename":"SocialMediaPost","id":"HnPost-26346879","excerpt":"","slug":"/hn/26346879","title":"Tintern 'secret' medieval tunnel system found by accident","date":"March 05, 2021","dateISO":"2021-03-05T10:39:04.560Z","datetime":"2021-03-05 10:39","tags":["story","Hacker News"],"image":null,"imageAlt":null,"provider":"Hacker News","thirdPartyId":"26346879","url":"https://news.ycombinator.com/item?id=26346879","originalUrl":"https://www.bbc.co.uk/news/uk-wales-56281726","imageRemote":"https://ichef.bbci.co.uk/news/1024/branded_news/6804/production/_117382662_tunnel3.jpg","video":null,"channel":null,"channelUrl":null,"author":"goodcanadian","authorUrl":"https://news.ycombinator.com/user?id=goodcanadian","authorImage":null,"authorSlug":null,"score":161,"views":null,"sharedCount":null,"likeCount":null,"sharedContent":null,"parent":{"__typename":"HnJson","localize":[{"title":"Tintern \"秘密 \"中世纪隧道系统被意外发现","locale":"zh"},{"title":"Tintern \"祕密 \"中世紀隧道系統被意外發現","locale":"zh-Hant"}]}},{"__typename":"SocialMediaPost","id":"HnPost-26337410","excerpt":"","slug":"/hn/26337410","title":"Iceberg simulator – draw an iceberg and see how it floats and melts","date":"March 05, 2021","dateISO":"2021-03-05T07:41:39.600Z","datetime":"2021-03-05 07:41","tags":["story","Hacker News"],"image":null,"imageAlt":null,"provider":"Hacker News","thirdPartyId":"26337410","url":"https://news.ycombinator.com/item?id=26337410","originalUrl":"https://engaging-data.com/iceberger-remixed/?h=","imageRemote":"https://engaging-data.com/wp-content/uploads/2021/02/iceberger2.png","video":null,"channel":null,"channelUrl":null,"author":"engagingdata","authorUrl":"https://news.ycombinator.com/user?id=engagingdata","authorImage":null,"authorSlug":null,"score":160,"views":null,"sharedCount":null,"likeCount":null,"sharedContent":null,"parent":{"__typename":"HnJson","localize":[{"title":"冰山模拟器--画一座冰山，看看它是如何漂浮和融化的。","locale":"zh"},{"title":"冰山模擬器--畫一座冰山，看看它是如何漂浮和融化的。","locale":"zh-Hant"}]}},{"__typename":"SocialMediaPost","id":"HnPost-26345755","excerpt":"","slug":"/hn/26345755","title":"Apache Age: A Graph Extension for PostgreSQL","date":"March 05, 2021","dateISO":"2021-03-05T07:27:10.861Z","datetime":"2021-03-05 07:27","tags":["story","Hacker News"],"image":null,"imageAlt":null,"provider":"Hacker News","thirdPartyId":"26345755","url":"https://news.ycombinator.com/item?id=26345755","originalUrl":"https://age.apache.org/","imageRemote":"https://age.apache.org/assets/images/logo.png","video":null,"channel":null,"channelUrl":null,"author":"based2","authorUrl":"https://news.ycombinator.com/user?id=based2","authorImage":null,"authorSlug":null,"score":160,"views":null,"sharedCount":null,"likeCount":null,"sharedContent":null,"parent":{"__typename":"HnJson","localize":[{"title":"Apache Age: PostgreSQL的图形扩展","locale":"zh"},{"title":"Apache Age: PostgreSQL的圖形擴展","locale":"zh-Hant"}]}},{"__typename":"SocialMediaPost","id":"HnPost-26352039","excerpt":"","slug":"/hn/26352039","title":"Honda's now selling the first production car with level 3 self-driving","date":"March 05, 2021","dateISO":"2021-03-05T07:05:41.817Z","datetime":"2021-03-05 07:05","tags":["story","Hacker News"],"image":null,"imageAlt":null,"provider":"Hacker News","thirdPartyId":"26352039","url":"https://news.ycombinator.com/item?id=26352039","originalUrl":"https://www.thedrive.com/news/39609/hondas-now-selling-the-worlds-first-production-car-with-level-3-self-driving-tech","imageRemote":"https://api.thedrive.com/wp-content/uploads/2021/03/pic_sub_03_pc.jpg?quality=85","video":null,"channel":null,"channelUrl":null,"author":"nradov","authorUrl":"https://news.ycombinator.com/user?id=nradov","authorImage":null,"authorSlug":null,"score":164,"views":null,"sharedCount":null,"likeCount":null,"sharedContent":null,"parent":{"__typename":"HnJson","localize":[{"title":"本田目前在售的首款量产车具备3级自动驾驶功能","locale":"zh"},{"title":"本田目前在售的首款量產車具備3級自動駕駛功能","locale":"zh-Hant"}]}},{"__typename":"SocialMediaPost","id":"HnPost-26346033","excerpt":"","slug":"/hn/26346033","title":"An Introduction to Lockless Algorithms","date":"March 05, 2021","dateISO":"2021-03-05T06:54:49.077Z","datetime":"2021-03-05 06:54","tags":["story","Hacker News"],"image":null,"imageAlt":null,"provider":"Hacker News","thirdPartyId":"26346033","url":"https://news.ycombinator.com/item?id=26346033","originalUrl":"https://lwn.net/Articles/844224/","imageRemote":"https://static.lwn.net/images/logo/barepenguin-70.png","video":null,"channel":null,"channelUrl":null,"author":"signa11","authorUrl":"https://news.ycombinator.com/user?id=signa11","authorImage":null,"authorSlug":null,"score":160,"views":null,"sharedCount":null,"likeCount":null,"sharedContent":null,"parent":{"__typename":"HnJson","localize":[{"title":"无锁算法简介","locale":"zh"},{"title":"無鎖算法簡介","locale":"zh-Hant"}]}},{"__typename":"SocialMediaPost","id":"HnPost-26350951","excerpt":"","slug":"/hn/26350951","title":"US health agency will invest $1B to investigate 'long Covid'","date":"March 05, 2021","dateISO":"2021-03-05T05:55:40.246Z","datetime":"2021-03-05 05:55","tags":["story","Hacker News"],"image":null,"imageAlt":null,"provider":"Hacker News","thirdPartyId":"26350951","url":"https://news.ycombinator.com/item?id=26350951","originalUrl":"https://www.nature.com/articles/d41586-021-00586-y","imageRemote":"https://media.nature.com/lw1024/magazine-assets/d41586-021-00586-y/d41586-021-00586-y_18928142.jpg","video":null,"channel":null,"channelUrl":null,"author":"sohkamyung","authorUrl":"https://news.ycombinator.com/user?id=sohkamyung","authorImage":null,"authorSlug":null,"score":160,"views":null,"sharedCount":null,"likeCount":null,"sharedContent":null,"parent":{"__typename":"HnJson","localize":[{"title":"美国卫生机构将投资10亿美元调查 \"长科威","locale":"zh"},{"title":"美國衛生機構將投資10億美元調查 \"長科威","locale":"zh-Hant"}]}},{"__typename":"SocialMediaPost","id":"HnPost-26351053","excerpt":"","slug":"/hn/26351053","title":"Open source projects should run office hours","date":"March 05, 2021","dateISO":"2021-03-05T03:53:55.699Z","datetime":"2021-03-05 03:53","tags":["story","Hacker News"],"image":null,"imageAlt":null,"provider":"Hacker News","thirdPartyId":"26351053","url":"https://news.ycombinator.com/item?id=26351053","originalUrl":"https://simonwillison.net/2021/Feb/19/office-hours/","imageRemote":"https://avatars0.githubusercontent.com/u/9599?v=4&s=200","video":null,"channel":null,"channelUrl":null,"author":"tosh","authorUrl":"https://news.ycombinator.com/user?id=tosh","authorImage":null,"authorSlug":null,"score":167,"views":null,"sharedCount":null,"likeCount":null,"sharedContent":null,"parent":{"__typename":"HnJson","localize":[{"title":"开源项目应实行办公时间","locale":"zh"},{"title":"開源項目應實行辦公時間","locale":"zh-Hant"}]}},{"__typename":"SocialMediaPost","id":"HnPost-26345235","excerpt":"","slug":"/hn/26345235","title":"Ask HN: Do you think Agile/Scrum is beneficial for software delivery?","date":"March 05, 2021","dateISO":"2021-03-05T03:24:40.372Z","datetime":"2021-03-05 03:24","tags":["story","ASK HN","Hacker News"],"image":null,"imageAlt":null,"provider":"Hacker News","thirdPartyId":"26345235","url":"https://news.ycombinator.com/item?id=26345235","originalUrl":"https://news.ycombinator.com/item?id=26345235","imageRemote":null,"video":null,"channel":"ASK HN","channelUrl":"https://news.ycombinator.com/ask","author":"andyxor","authorUrl":"https://news.ycombinator.com/user?id=andyxor","authorImage":null,"authorSlug":null,"score":281,"views":null,"sharedCount":null,"likeCount":null,"sharedContent":null,"parent":{"__typename":"HnJson","localize":[{"title":"问HN：你认为敏捷/Scrum对软件交付有利吗？","locale":"zh"},{"title":"問HN：你認爲敏捷/Scrum對軟件交付有利嗎？","locale":"zh-Hant"}]}}]}},"pageContext":{"basePath":"/","pageType":"tag","tag":"story","tagsFilter":{"id":{"glob":"!*Post-1"}},"filter":{"id":{"glob":"!*Post-1"},"tags":{"eq":"story"}},"limit":25,"skip":150,"total":2408,"totalPages":97,"currentPage":7,"maxWidth":1024,"maxHeight":512,"locale":"zh-Hant","hrefLang":"zh-Hant","originalPath":"/tags/story/page/7","dateFormat":"YYYY-MM-DD"}},"staticQueryHashes":["1239077767","2506312863","2744905544","3025052997","3493603132","3493603132","3513215887","386998304"]}