{"componentChunkName":"component---gatsby-theme-buzzing-src-gatsby-theme-timeline-templates-posts-query-js","path":"/tags/story/page/9","result":{"data":{"site":{"siteMetadata":{"title":"Reddit 热门","description":"用中文浏览Reddit热门内容","social":[{"name":"Twitter","url":"https://twitter.com/gatsbyjs","external":null,"prefetch":null},{"name":"GitHub","url":"https://github.com/gatsbyjs","external":null,"prefetch":null}],"menuLinks":[],"localize":[{"locale":"en","title":"Buzzing on Reddit","description":"See what's buzzing on Reddit in your native language","social":[{"name":"Reddit","url":"https://www.reddit.com/","external":true,"prefetch":null}],"menuLinks":[{"name":"Weekly Selection","url":"/issues","external":null,"prefetch":null},{"name":"RSS","url":"/rss.xml","external":null,"prefetch":false}]},{"locale":"zh-Hant","title":"Reddit 熱門","description":"用中文瀏覽Reddit熱門內容","social":null,"menuLinks":null}]}},"tagsGroup":{"group":[{"fieldValue":"ASK HN","totalCount":44},{"fieldValue":"Bitcoin","totalCount":4},{"fieldValue":"Hacker News","totalCount":2600},{"fieldValue":"Poll","totalCount":1},{"fieldValue":"SaveAMC","totalCount":1},{"fieldValue":"Show HN","totalCount":89},{"fieldValue":"bitcoin","totalCount":3},{"fieldValue":"investing","totalCount":797},{"fieldValue":"poll","totalCount":1},{"fieldValue":"reddit","totalCount":4938},{"fieldValue":"science","totalCount":1},{"fieldValue":"stocks","totalCount":1592},{"fieldValue":"story","totalCount":2599},{"fieldValue":"tweet","totalCount":814},{"fieldValue":"wallstreetbets","totalCount":2549}]},"allBlogPost":{"nodes":[{"__typename":"SocialMediaPost","id":"HnPost-26421963","excerpt":"","slug":"/hn/26421963","title":"Asahi Linux Progress Report: January/February 2021","date":"March 11, 2021","dateISO":"2021-03-11T17:15:27.694Z","datetime":"2021-03-11 17:15","tags":["story","Hacker News"],"image":null,"imageAlt":null,"provider":"Hacker News","thirdPartyId":"26421963","url":"https://news.ycombinator.com/item?id=26421963","originalUrl":"https://asahilinux.org/2021/03/progress-report-january-february-2021/","imageRemote":"https://asahilinux.org/img/AsahiLinux_logomark_256px.png","video":null,"channel":null,"channelUrl":null,"author":"t4h4","authorUrl":"https://news.ycombinator.com/user?id=t4h4","authorImage":null,"authorSlug":null,"score":266,"views":null,"sharedCount":null,"likeCount":null,"sharedContent":null,"parent":{"__typename":"HnJson","localize":[{"title":"旭Linux进展报告。2021年1月/2月","locale":"zh"},{"title":"旭Linux進展報告。2021年1月/2月","locale":"zh-Hant"}]}},{"__typename":"SocialMediaPost","id":"HnPost-26423090","excerpt":"","slug":"/hn/26423090","title":"Write Simply","date":"March 11, 2021","dateISO":"2021-03-11T17:15:27.694Z","datetime":"2021-03-11 17:15","tags":["story","Hacker News"],"image":null,"imageAlt":null,"provider":"Hacker News","thirdPartyId":"26423090","url":"https://news.ycombinator.com/item?id=26423090","originalUrl":"http://paulgraham.com/simply.html","imageRemote":"https://s.yimg.com/aah/paulgraham/quotes-1.gif","video":null,"channel":null,"channelUrl":null,"author":"razin","authorUrl":"https://news.ycombinator.com/user?id=razin","authorImage":null,"authorSlug":null,"score":481,"views":null,"sharedCount":null,"likeCount":null,"sharedContent":null,"parent":{"__typename":"HnJson","localize":[{"title":"简单书写","locale":"zh"},{"title":"簡單書寫","locale":"zh-Hant"}]}},{"__typename":"SocialMediaPost","id":"HnPost-26419334","excerpt":"","slug":"/hn/26419334","title":"Nuclear power looks to regain its footing 10 years after Fukushima","date":"March 11, 2021","dateISO":"2021-03-11T15:26:58.530Z","datetime":"2021-03-11 15:26","tags":["story","Hacker News"],"image":null,"imageAlt":null,"provider":"Hacker News","thirdPartyId":"26419334","url":"https://news.ycombinator.com/item?id=26419334","originalUrl":"https://www.scientificamerican.com/article/nuclear-power-looks-to-regain-its-footing-10-years-after-fukushima/","imageRemote":"https://static.scientificamerican.com/sciam/cache/file/C1239094-C81E-4CF4-ADFFE21AED6B81AC.jpg","video":null,"channel":null,"channelUrl":null,"author":"pseudolus","authorUrl":"https://news.ycombinator.com/user?id=pseudolus","authorImage":null,"authorSlug":null,"score":207,"views":null,"sharedCount":null,"likeCount":null,"sharedContent":null,"parent":{"__typename":"HnJson","localize":[{"title":"福岛事件10年后，核电期待重振雄风","locale":"zh"},{"title":"福島事件10年後，核電期待重振雄風","locale":"zh-Hant"}]}},{"__typename":"SocialMediaPost","id":"HnPost-26423002","excerpt":"","slug":"/hn/26423002","title":"I earn a living selling my open source software","date":"March 11, 2021","dateISO":"2021-03-11T14:47:15.676Z","datetime":"2021-03-11 14:47","tags":["story","Hacker News"],"image":null,"imageAlt":null,"provider":"Hacker News","thirdPartyId":"26423002","url":"https://news.ycombinator.com/item?id=26423002","originalUrl":"https://www.indiehackers.com/post/how-i-earn-a-living-selling-my-open-source-software-476f6bb07e","imageRemote":"https://storage.googleapis.com/indie-hackers.appspot.com/shareable-images/posts/476f6bb07e","video":null,"channel":null,"channelUrl":null,"author":"nephics","authorUrl":"https://news.ycombinator.com/user?id=nephics","authorImage":null,"authorSlug":null,"score":731,"views":null,"sharedCount":null,"likeCount":null,"sharedContent":null,"parent":{"__typename":"HnJson","localize":[{"title":"我靠出售我的开源软件谋生","locale":"zh"},{"title":"我靠出售我的開源軟件謀生","locale":"zh-Hant"}]}},{"__typename":"SocialMediaPost","id":"HnPost-26421454","excerpt":"","slug":"/hn/26421454","title":"Fuck Domainparkers","date":"March 11, 2021","dateISO":"2021-03-11T14:20:00.382Z","datetime":"2021-03-11 14:20","tags":["story","Hacker News"],"image":null,"imageAlt":null,"provider":"Hacker News","thirdPartyId":"26421454","url":"https://news.ycombinator.com/item?id=26421454","originalUrl":"https://www.indiehackers.com/post/f-k-domainparkers-14f52b7724","imageRemote":"https://storage.googleapis.com/indie-hackers.appspot.com/shareable-images/posts/14f52b7724","video":null,"channel":null,"channelUrl":null,"author":"wolframhempel","authorUrl":"https://news.ycombinator.com/user?id=wolframhempel","authorImage":null,"authorSlug":null,"score":266,"views":null,"sharedCount":null,"likeCount":null,"sharedContent":null,"parent":{"__typename":"HnJson","localize":[{"title":"Fuck Domainparkers","locale":"zh"},{"title":"Fuck Domainparkers","locale":"zh-Hant"}]}},{"__typename":"SocialMediaPost","id":"HnPost-26418492","excerpt":"","slug":"/hn/26418492","title":"Oracle Cloud is unreachable","date":"March 11, 2021","dateISO":"2021-03-11T13:00:35.511Z","datetime":"2021-03-11 13:00","tags":["story","Hacker News"],"image":null,"imageAlt":null,"provider":"Hacker News","thirdPartyId":"26418492","url":"https://news.ycombinator.com/item?id=26418492","originalUrl":"https://ocistatus.oraclecloud.com/incidents/qjxllgkywysj","imageRemote":"https://dka575ofm4ao0.cloudfront.net/assets/logos/favicon-2b86ed00cfa6258307d4a3d0c482fd733c7973f82de213143b24fc062c540367.png","video":null,"channel":null,"channelUrl":null,"author":"inopinatus","authorUrl":"https://news.ycombinator.com/user?id=inopinatus","authorImage":null,"authorSlug":null,"score":171,"views":null,"sharedCount":null,"likeCount":null,"sharedContent":null,"parent":{"__typename":"HnJson","localize":[{"title":"Oracle云无法访问","locale":"zh"},{"title":"Oracle雲無法訪問","locale":"zh-Hant"}]}},{"__typename":"SocialMediaPost","id":"HnPost-26422799","excerpt":"","slug":"/hn/26422799","title":"I bought 300 emoji domain names from Kazakhstan and built an email service","date":"March 11, 2021","dateISO":"2021-03-11T13:00:35.511Z","datetime":"2021-03-11 13:00","tags":["story","Hacker News"],"image":null,"imageAlt":null,"provider":"Hacker News","thirdPartyId":"26422799","url":"https://news.ycombinator.com/item?id=26422799","originalUrl":"https://tinyprojects.dev/projects/mailoji","imageRemote":"https://i.gyazo.com/6aa39e2f0e8e2f9039b61c95ea360cb7.png","video":null,"channel":null,"channelUrl":null,"author":"tinyprojects","authorUrl":"https://news.ycombinator.com/user?id=tinyprojects","authorImage":null,"authorSlug":null,"score":1679,"views":null,"sharedCount":null,"likeCount":null,"sharedContent":null,"parent":{"__typename":"HnJson","localize":[{"title":"我从哈萨克斯坦买了300个表情符号域名，并建立了一个电子邮件服务。","locale":"zh"},{"title":"我從哈薩克斯坦買了300個表情符號域名，並建立了一個電子郵件服務。","locale":"zh-Hant"}]}},{"__typename":"SocialMediaPost","id":"HnPost-26420692","excerpt":"","slug":"/hn/26420692","title":"Ultra-weak gravitational field detected","date":"March 11, 2021","dateISO":"2021-03-11T11:45:08.540Z","datetime":"2021-03-11 11:45","tags":["story","Hacker News"],"image":null,"imageAlt":null,"provider":"Hacker News","thirdPartyId":"26420692","url":"https://news.ycombinator.com/item?id=26420692","originalUrl":"https://www.nature.com/articles/d41586-021-00591-1","imageRemote":"https://media.nature.com/lw1024/magazine-assets/d41586-021-00591-1/d41586-021-00591-1_18934148.png","video":null,"channel":null,"channelUrl":null,"author":"awb","authorUrl":"https://news.ycombinator.com/user?id=awb","authorImage":null,"authorSlug":null,"score":298,"views":null,"sharedCount":null,"likeCount":null,"sharedContent":null,"parent":{"__typename":"HnJson","localize":[{"title":"探测到超弱引力场","locale":"zh"},{"title":"探測到超弱引力場","locale":"zh-Hant"}]}},{"__typename":"SocialMediaPost","id":"HnPost-26419717","excerpt":"","slug":"/hn/26419717","title":"Based Cooking","date":"March 11, 2021","dateISO":"2021-03-11T07:28:12.060Z","datetime":"2021-03-11 07:28","tags":["story","Hacker News"],"image":null,"imageAlt":null,"provider":"Hacker News","thirdPartyId":"26419717","url":"https://news.ycombinator.com/item?id=26419717","originalUrl":"https://based.cooking/","imageRemote":null,"video":null,"channel":null,"channelUrl":null,"author":"meribold","authorUrl":"https://news.ycombinator.com/user?id=meribold","authorImage":null,"authorSlug":null,"score":372,"views":null,"sharedCount":null,"likeCount":null,"sharedContent":null,"parent":{"__typename":"HnJson","localize":[{"title":"基于烹饪","locale":"zh"},{"title":"基於烹飪","locale":"zh-Hant"}]}},{"__typename":"SocialMediaPost","id":"HnPost-26419628","excerpt":"","slug":"/hn/26419628","title":"Dennis Ritchie's first C compiler on GitHub","date":"March 11, 2021","dateISO":"2021-03-11T07:09:06.905Z","datetime":"2021-03-11 07:09","tags":["story","Hacker News"],"image":null,"imageAlt":null,"provider":"Hacker News","thirdPartyId":"26419628","url":"https://news.ycombinator.com/item?id=26419628","originalUrl":"https://github.com/mortdeus/legacy-cc","imageRemote":"https://avatars.githubusercontent.com/u/1876634?s=400&v=4","video":null,"channel":null,"channelUrl":null,"author":"jnord","authorUrl":"https://news.ycombinator.com/user?id=jnord","authorImage":null,"authorSlug":null,"score":365,"views":null,"sharedCount":null,"likeCount":null,"sharedContent":null,"parent":{"__typename":"HnJson","localize":[{"title":"Dennis Ritchie在GitHub上的第一个C编译器","locale":"zh"},{"title":"Dennis Ritchie在GitHub上的第一個C編譯器","locale":"zh-Hant"}]}},{"__typename":"SocialMediaPost","id":"HnPost-26419070","excerpt":"","slug":"/hn/26419070","title":"How the New York Times A/B tests their headlines","date":"March 11, 2021","dateISO":"2021-03-11T05:59:58.886Z","datetime":"2021-03-11 05:59","tags":["story","Hacker News"],"image":null,"imageAlt":null,"provider":"Hacker News","thirdPartyId":"26419070","url":"https://news.ycombinator.com/item?id=26419070","originalUrl":"https://blog.tjcx.me/p/new-york-times-ab-testing","imageRemote":"https://cdn.substack.com/image/fetch/w_1200,c_limit,f_jpg,q_auto:good,fl_progressive:steep/https%3A%2F%2Fbucketeer-e05bbc84-baa3-437e-9518-adb32be77984.s3.amazonaws.com%2Fpublic%2Fimages%2F7a11a345-286e-41d5-a151-935f3b65eabc_1388x836.png","video":null,"channel":null,"channelUrl":null,"author":"mtlynch","authorUrl":"https://news.ycombinator.com/user?id=mtlynch","authorImage":null,"authorSlug":null,"score":241,"views":null,"sharedCount":null,"likeCount":null,"sharedContent":null,"parent":{"__typename":"HnJson","localize":[{"title":"纽约时报》如何对他们的标题进行A/B测试？","locale":"zh"},{"title":"紐約時報》如何對他們的標題進行A/B測試？","locale":"zh-Hant"}]}},{"__typename":"SocialMediaPost","id":"HnPost-26417491","excerpt":"","slug":"/hn/26417491","title":"I guess I have to watch ads everywhere on my $1,500 LG TV now","date":"March 11, 2021","dateISO":"2021-03-11T04:00:09.649Z","datetime":"2021-03-11 04:00","tags":["story","Hacker News"],"image":null,"imageAlt":null,"provider":"Hacker News","thirdPartyId":"26417491","url":"https://news.ycombinator.com/item?id=26417491","originalUrl":"https://www.theverge.com/tldr/2021/3/10/22323790/lg-oled-tv-commercials-content-store","imageRemote":"https://cdn.vox-cdn.com/thumbor/aYn2-ap7SewQudAHCKwxRZLnp6g=/0x146:2040x1214/fit-in/1200x630/cdn.vox-cdn.com/uploads/chorus_asset/file/22360578/DSCF3184.jpg","video":null,"channel":null,"channelUrl":null,"author":"brundolf","authorUrl":"https://news.ycombinator.com/user?id=brundolf","authorImage":null,"authorSlug":null,"score":347,"views":null,"sharedCount":null,"likeCount":null,"sharedContent":null,"parent":{"__typename":"HnJson","localize":[{"title":"我想我现在得在我的1500元LG电视上到处看广告了。","locale":"zh"},{"title":"我想我現在得在我的1500元LG電視上到處看廣告了。","locale":"zh-Hant"}]}},{"__typename":"SocialMediaPost","id":"HnPost-26415856","excerpt":"","slug":"/hn/26415856","title":"OctoPrint","date":"March 11, 2021","dateISO":"2021-03-11T03:19:34.556Z","datetime":"2021-03-11 03:19","tags":["story","Hacker News"],"image":null,"imageAlt":null,"provider":"Hacker News","thirdPartyId":"26415856","url":"https://news.ycombinator.com/item?id=26415856","originalUrl":"https://octoprint.org/","imageRemote":"https://octoprint.org/assets/img/octoprint-600x400.png","video":null,"channel":null,"channelUrl":null,"author":"laktak","authorUrl":"https://news.ycombinator.com/user?id=laktak","authorImage":null,"authorSlug":null,"score":248,"views":null,"sharedCount":null,"likeCount":null,"sharedContent":null,"parent":{"__typename":"HnJson","localize":[{"title":"OctoPrint","locale":"zh"},{"title":"OctoPrint","locale":"zh-Hant"}]}},{"__typename":"SocialMediaPost","id":"HnPost-26401158","excerpt":"","slug":"/hn/26401158","title":"Agate, a simple Gemini server written in Rust","date":"March 11, 2021","dateISO":"2021-03-11T02:08:22.746Z","datetime":"2021-03-11 02:08","tags":["story","Hacker News"],"image":null,"imageAlt":null,"provider":"Hacker News","thirdPartyId":"26401158","url":"https://news.ycombinator.com/item?id=26401158","originalUrl":"https://github.com/mbrubeck/agate","imageRemote":"https://avatars.githubusercontent.com/u/5920?s=400&v=4","video":null,"channel":null,"channelUrl":null,"author":"Funes-","authorUrl":"https://news.ycombinator.com/user?id=Funes-","authorImage":null,"authorSlug":null,"score":196,"views":null,"sharedCount":null,"likeCount":null,"sharedContent":null,"parent":{"__typename":"HnJson","localize":[{"title":"Agate，一个用Rust编写的简单的Gemini服务器。","locale":"zh"},{"title":"Agate，一個用Rust編寫的簡單的Gemini服務器。","locale":"zh-Hant"}]}},{"__typename":"SocialMediaPost","id":"HnPost-26413955","excerpt":"","slug":"/hn/26413955","title":"A tactical guide to kickstarting a community","date":"March 11, 2021","dateISO":"2021-03-11T02:08:22.746Z","datetime":"2021-03-11 02:08","tags":["story","Hacker News"],"image":null,"imageAlt":null,"provider":"Hacker News","thirdPartyId":"26413955","url":"https://news.ycombinator.com/item?id=26413955","originalUrl":"https://orbit.love/blog/a-tactical-guide-to-kickstarting-your-community/","imageRemote":"https://cdn.sanity.io/images/cad8jutx/production/38739f6f529ef1dd8990ccc8a876626f330c6277-1220x694.png","video":null,"channel":null,"channelUrl":null,"author":"someproduct","authorUrl":"https://news.ycombinator.com/user?id=someproduct","authorImage":null,"authorSlug":null,"score":227,"views":null,"sharedCount":null,"likeCount":null,"sharedContent":null,"parent":{"__typename":"HnJson","localize":[{"title":"啟動社區的策略指南","locale":"zh"},{"title":"啟動社區的策略指南","locale":"zh-Hant"}]}},{"__typename":"SocialMediaPost","id":"HnPost-26416553","excerpt":"","slug":"/hn/26416553","title":"netaddr.IP: a new IP address type for Go","date":"March 11, 2021","dateISO":"2021-03-11T02:08:22.746Z","datetime":"2021-03-11 02:08","tags":["story","Hacker News"],"image":null,"imageAlt":null,"provider":"Hacker News","thirdPartyId":"26416553","url":"https://news.ycombinator.com/item?id=26416553","originalUrl":"https://tailscale.com/blog/netaddr-new-ip-type-for-go/","imageRemote":"https://tailscale.com/files/images/og-image.png","video":null,"channel":null,"channelUrl":null,"author":"smitop","authorUrl":"https://news.ycombinator.com/user?id=smitop","authorImage":null,"authorSlug":null,"score":357,"views":null,"sharedCount":null,"likeCount":null,"sharedContent":null,"parent":{"__typename":"HnJson","localize":[{"title":"netaddr.IP：围棋的新IP地址类型。","locale":"zh"},{"title":"netaddr.IP：圍棋的新IP地址類型。","locale":"zh-Hant"}]}},{"__typename":"SocialMediaPost","id":"HnPost-26416531","excerpt":"","slug":"/hn/26416531","title":"Zig, parser combinators, and why they're awesome","date":"March 11, 2021","dateISO":"2021-03-11T01:19:27.716Z","datetime":"2021-03-11 01:19","tags":["story","Hacker News"],"image":null,"imageAlt":null,"provider":"Hacker News","thirdPartyId":"26416531","url":"https://news.ycombinator.com/item?id=26416531","originalUrl":"https://devlog.hexops.com/2021/zig-parser-combinators-and-why-theyre-awesome","imageRemote":"https://raw.githubusercontent.com/hexops/website/master/media/png/square_logo.png","video":null,"channel":null,"channelUrl":null,"author":"todsacerdoti","authorUrl":"https://news.ycombinator.com/user?id=todsacerdoti","authorImage":null,"authorSlug":null,"score":340,"views":null,"sharedCount":null,"likeCount":null,"sharedContent":null,"parent":{"__typename":"HnJson","localize":[{"title":"Zig，解析器组合器，以及它们为什么很厉害？","locale":"zh"},{"title":"Zig，解析器組合器，以及它們爲什麼很厲害？","locale":"zh-Hant"}]}},{"__typename":"SocialMediaPost","id":"HnPost-26406981","excerpt":"","slug":"/hn/26406981","title":"Japan to stage Tokyo Olympics without overseas spectators","date":"March 10, 2021","dateISO":"2021-03-10T22:52:59.946Z","datetime":"2021-03-10 22:52","tags":["story","Hacker News"],"image":null,"imageAlt":null,"provider":"Hacker News","thirdPartyId":"26406981","url":"https://news.ycombinator.com/item?id=26406981","originalUrl":"https://japantoday.com/category/tokyo-2020-olympics/update1-japan-to-stage-tokyo-olympics-without-overseas-spectators","imageRemote":"https://japantoday-asset.scdn3.secure.raxcdn.com/img/store/01/24/798995546cd42715690b24f3d7ff833d6ab3/AP20336371702348_4.jpg","video":null,"channel":null,"channelUrl":null,"author":"curmudgeon22","authorUrl":"https://news.ycombinator.com/user?id=curmudgeon22","authorImage":null,"authorSlug":null,"score":163,"views":null,"sharedCount":null,"likeCount":null,"sharedContent":null,"parent":{"__typename":"HnJson","localize":[{"title":"日本将举办没有海外观众的东京奥运会","locale":"zh"},{"title":"日本將舉辦沒有海外觀衆的東京奧運會","locale":"zh-Hant"}]}},{"__typename":"SocialMediaPost","id":"HnPost-26404675","excerpt":"","slug":"/hn/26404675","title":"Zapier reached a $5B valuation with $1.3M of funding","date":"March 10, 2021","dateISO":"2021-03-10T22:37:42.943Z","datetime":"2021-03-10 22:37","tags":["story","Hacker News"],"image":null,"imageAlt":null,"provider":"Hacker News","thirdPartyId":"26404675","url":"https://news.ycombinator.com/item?id=26404675","originalUrl":"https://www.forbes.com/sites/alexkonrad/2021/03/08/zapier-bootstraps-to-5-billion-valuation/","imageRemote":"https://thumbor.forbes.com/thumbor/fit-in/1200x0/filters%3Aformat(jpg)/https%3A%2F%2Fspecials-images.forbesimg.com%2Fimageserve%2F60469c1d476c5825c44db9e5%2F0x0.jpg","video":null,"channel":null,"channelUrl":null,"author":"gmays","authorUrl":"https://news.ycombinator.com/user?id=gmays","authorImage":null,"authorSlug":null,"score":335,"views":null,"sharedCount":null,"likeCount":null,"sharedContent":null,"parent":{"__typename":"HnJson","localize":[{"title":"Zapier估值达到50亿美元，融资额为130万美元","locale":"zh"},{"title":"Zapier估值達到50億美元，融資額爲130萬美元","locale":"zh-Hant"}]}},{"__typename":"SocialMediaPost","id":"HnPost-26413343","excerpt":"","slug":"/hn/26413343","title":"What does any of this have to do with physics? (2016)","date":"March 10, 2021","dateISO":"2021-03-10T21:49:09.515Z","datetime":"2021-03-10 21:49","tags":["story","Hacker News"],"image":null,"imageAlt":null,"provider":"Hacker News","thirdPartyId":"26413343","url":"https://news.ycombinator.com/item?id=26413343","originalUrl":"https://nautil.us/issue/43/heroes/what-does-any-of-this-have-to-do-with-physics","imageRemote":"http://static.nautil.us/11272_dbdc69ea6ccbdea0ca2d796e1af24ebf.jpg","video":null,"channel":null,"channelUrl":null,"author":"telotortium","authorUrl":"https://news.ycombinator.com/user?id=telotortium","authorImage":null,"authorSlug":null,"score":273,"views":null,"sharedCount":null,"likeCount":null,"sharedContent":null,"parent":{"__typename":"HnJson","localize":[{"title":"这些和物理学有什么关系？(2016)","locale":"zh"},{"title":"這些和物理學有什麼關係？(2016)","locale":"zh-Hant"}]}},{"__typename":"SocialMediaPost","id":"HnPost-26415657","excerpt":"","slug":"/hn/26415657","title":"U.S. senators reintroduce bill to make daylight saving time permanent","date":"March 10, 2021","dateISO":"2021-03-10T21:36:04.723Z","datetime":"2021-03-10 21:36","tags":["story","Hacker News"],"image":null,"imageAlt":null,"provider":"Hacker News","thirdPartyId":"26415657","url":"https://news.ycombinator.com/item?id=26415657","originalUrl":"https://fox8.com/news/u-s-senators-reintroduce-bill-to-make-daylight-saving-time-permanent/","imageRemote":"https://fox8.com/wp-content/uploads/sites/12/2021/03/Daylight20saving20time20generic_1552402208720.JPG_76943959_ver1.0.jpg?w=1280","video":null,"channel":null,"channelUrl":null,"author":"prostoalex","authorUrl":"https://news.ycombinator.com/user?id=prostoalex","authorImage":null,"authorSlug":null,"score":495,"views":null,"sharedCount":null,"likeCount":null,"sharedContent":null,"parent":{"__typename":"HnJson","localize":[{"title":"美参议员重提法案将夏令时永久化","locale":"zh"},{"title":"美參議員重提法案將夏令時永久化","locale":"zh-Hant"}]}},{"__typename":"SocialMediaPost","id":"HnPost-26412624","excerpt":"","slug":"/hn/26412624","title":"Launch HN: Remora (YC W21) – Carbon capture for semi trucks","date":"March 10, 2021","dateISO":"2021-03-10T20:46:11.264Z","datetime":"2021-03-10 20:46","tags":["story","Hacker News"],"image":null,"imageAlt":null,"provider":"Hacker News","thirdPartyId":"26412624","url":"https://news.ycombinator.com/item?id=26412624","originalUrl":"https://news.ycombinator.com/item?id=26412624","imageRemote":null,"video":null,"channel":null,"channelUrl":null,"author":"paulgross","authorUrl":"https://news.ycombinator.com/user?id=paulgross","authorImage":null,"authorSlug":null,"score":288,"views":null,"sharedCount":null,"likeCount":null,"sharedContent":null,"parent":{"__typename":"HnJson","localize":[{"title":"发射 HN：Remora (YC W21)--半挂车的碳捕集","locale":"zh"},{"title":"發射 HN：Remora (YC W21)--半掛車的碳捕集","locale":"zh-Hant"}]}},{"__typename":"SocialMediaPost","id":"HnPost-26411908","excerpt":"","slug":"/hn/26411908","title":"Decoded GNU coreutils: Exploring the design of GNU utilities","date":"March 10, 2021","dateISO":"2021-03-10T20:31:19.020Z","datetime":"2021-03-10 20:31","tags":["story","Hacker News"],"image":null,"imageAlt":null,"provider":"Hacker News","thirdPartyId":"26411908","url":"https://news.ycombinator.com/item?id=26411908","originalUrl":"http://maizure.org/projects/decoded-gnu-coreutils/","imageRemote":"http://maizure.org/projects/decoded-gnu-coreutils/GNU.png","video":null,"channel":null,"channelUrl":null,"author":"pcr910303","authorUrl":"https://news.ycombinator.com/user?id=pcr910303","authorImage":null,"authorSlug":null,"score":278,"views":null,"sharedCount":null,"likeCount":null,"sharedContent":null,"parent":{"__typename":"HnJson","localize":[{"title":"解码的GNU coreutils。探索GNU实用程序的设计","locale":"zh"},{"title":"解碼的GNU coreutils。探索GNU實用程序的設計","locale":"zh-Hant"}]}},{"__typename":"SocialMediaPost","id":"HnPost-26414741","excerpt":"","slug":"/hn/26414741","title":"Apple has gone to extraordinary lengths to make scroll bars invisible, I hate it","date":"March 10, 2021","dateISO":"2021-03-10T19:55:04.784Z","datetime":"2021-03-10 19:55","tags":["story","Hacker News"],"image":null,"imageAlt":null,"provider":"Hacker News","thirdPartyId":"26414741","url":"https://news.ycombinator.com/item?id=26414741","originalUrl":"https://twitter.com/simonw/status/1369708900216270849","imageRemote":null,"video":null,"channel":null,"channelUrl":null,"author":"edward","authorUrl":"https://news.ycombinator.com/user?id=edward","authorImage":null,"authorSlug":null,"score":583,"views":null,"sharedCount":null,"likeCount":null,"sharedContent":null,"parent":{"__typename":"HnJson","localize":[{"title":"苹果为了让滚动条隐形，可谓是煞费苦心，我恨死它了","locale":"zh"},{"title":"蘋果爲了讓滾動條隱形，可謂是煞費苦心，我恨死它了","locale":"zh-Hant"}]}},{"__typename":"SocialMediaPost","id":"HnPost-26412331","excerpt":"","slug":"/hn/26412331","title":"Facebook and Twitter algorithms incentivize 'people to get enraged'","date":"March 10, 2021","dateISO":"2021-03-10T18:00:11.491Z","datetime":"2021-03-10 18:00","tags":["story","Hacker News"],"image":null,"imageAlt":null,"provider":"Hacker News","thirdPartyId":"26412331","url":"https://news.ycombinator.com/item?id=26412331","originalUrl":"https://www.yahoo.com/entertainment/facebook-and-twitter-algorithms-incentivize-people-to-get-enraged-walter-isaacson-145710378.html","imageRemote":"https://s.yimg.com/ny/api/res/1.2/TEDrUSu0Vq52rMgPPcSawQ--/YXBwaWQ9aGlnaGxhbmRlcjt3PTIwMDA7aD0xNTMy/https://s.yimg.com/os/creatr-uploaded-images/2021-03/175905c0-81a1-11eb-9fcf-46f9b361612d","video":null,"channel":null,"channelUrl":null,"author":"garraeth","authorUrl":"https://news.ycombinator.com/user?id=garraeth","authorImage":null,"authorSlug":null,"score":216,"views":null,"sharedCount":null,"likeCount":null,"sharedContent":null,"parent":{"__typename":"HnJson","localize":[{"title":"Facebook和Twitter的算法激励 \"人们被激怒","locale":"zh"},{"title":"Facebook和Twitter的算法激勵 \"人們被激怒","locale":"zh-Hant"}]}}]}},"pageContext":{"basePath":"/","pageType":"tag","tag":"story","tagsFilter":{"id":{"glob":"!*Post-1"}},"filter":{"id":{"glob":"!*Post-1"},"tags":{"eq":"story"}},"limit":25,"skip":200,"total":2599,"totalPages":104,"currentPage":9,"maxWidth":1024,"maxHeight":512,"locale":"zh","hrefLang":"zh-Hans","originalPath":"/tags/story/page/9","dateFormat":"YYYY-MM-DD"}},"staticQueryHashes":["1239077767","2506312863","2744905544","3025052997","3493603132","3493603132","3513215887","386998304"]}