{"componentChunkName":"component---gatsby-theme-buzzing-src-gatsby-theme-timeline-templates-posts-query-js","path":"/tags/hacker-news/page/9","result":{"data":{"site":{"siteMetadata":{"title":"Reddit 热门","description":"用中文浏览Reddit热门内容","social":[{"name":"Twitter","url":"https://twitter.com/gatsbyjs","external":null,"prefetch":null},{"name":"GitHub","url":"https://github.com/gatsbyjs","external":null,"prefetch":null}],"menuLinks":[],"localize":[{"locale":"en","title":"Buzzing on Reddit","description":"See what's buzzing on Reddit in your native language","social":[{"name":"Reddit","url":"https://www.reddit.com/","external":true,"prefetch":null}],"menuLinks":[{"name":"Weekly Selection","url":"/issues","external":null,"prefetch":null},{"name":"RSS","url":"/rss.xml","external":null,"prefetch":false}]},{"locale":"zh-Hant","title":"Reddit 熱門","description":"用中文瀏覽Reddit熱門內容","social":null,"menuLinks":null}]}},"tagsGroup":{"group":[{"fieldValue":"ASK HN","totalCount":36},{"fieldValue":"Bitcoin","totalCount":4},{"fieldValue":"Hacker News","totalCount":2185},{"fieldValue":"Poll","totalCount":1},{"fieldValue":"SaveAMC","totalCount":1},{"fieldValue":"Show HN","totalCount":76},{"fieldValue":"bitcoin","totalCount":3},{"fieldValue":"investing","totalCount":686},{"fieldValue":"poll","totalCount":1},{"fieldValue":"reddit","totalCount":4012},{"fieldValue":"science","totalCount":1},{"fieldValue":"stocks","totalCount":1322},{"fieldValue":"story","totalCount":2184},{"fieldValue":"tweet","totalCount":697},{"fieldValue":"wallstreetbets","totalCount":2004}]},"allBlogPost":{"nodes":[{"__typename":"SocialMediaPost","id":"HnPost-26226273","excerpt":"","slug":"/hn/26226273","title":"Noise pollution hurts the heart","date":"February 23, 2021","dateISO":"2021-02-23T20:39:24.662Z","datetime":"2021-02-23 20:39","tags":["story","Hacker News"],"image":null,"imageAlt":null,"provider":"Hacker News","thirdPartyId":"26226273","url":"https://news.ycombinator.com/item?id=26226273","originalUrl":"https://www.theatlantic.com/health/archive/2021/02/how-noise-harms-heart/618091/","imageRemote":"https://cdn.theatlantic.com/thumbor/q0efvkoY-NMAopEEViqO8lK_n2w=/8x910:5921x3990/960x500/https://cdn.theatlantic.com/assets/media/img/mt/2021/02/GettyImages_1127953165/original.jpg","video":null,"channel":null,"channelUrl":null,"author":"prostoalex","authorUrl":"https://news.ycombinator.com/user?id=prostoalex","authorImage":null,"authorSlug":null,"score":244,"views":null,"sharedCount":null,"likeCount":null,"sharedContent":null,"parent":{"__typename":"HnJson","localize":[{"title":"噪声污染伤人心","locale":"zh"},{"title":"噪聲污染傷人心","locale":"zh-Hant"}]}},{"__typename":"SocialMediaPost","id":"HnPost-26236325","excerpt":"","slug":"/hn/26236325","title":"Gridcoin: An open-source cryptocurrency that rewards volunteer computing","date":"February 23, 2021","dateISO":"2021-02-23T20:25:58.043Z","datetime":"2021-02-23 20:25","tags":["story","Hacker News"],"image":null,"imageAlt":null,"provider":"Hacker News","thirdPartyId":"26236325","url":"https://news.ycombinator.com/item?id=26236325","originalUrl":"https://en.wikipedia.org/wiki/Gridcoin","imageRemote":"https://upload.wikimedia.org/wikipedia/commons/7/79/Grc_universe_logo.png","video":null,"channel":null,"channelUrl":null,"author":"guerrilla","authorUrl":"https://news.ycombinator.com/user?id=guerrilla","authorImage":null,"authorSlug":null,"score":230,"views":null,"sharedCount":null,"likeCount":null,"sharedContent":null,"parent":{"__typename":"HnJson","localize":[{"title":"网格币：一种奖励志愿计算的开源加密货币。","locale":"zh"},{"title":"網格幣：一種獎勵志願計算的開源加密貨幣。","locale":"zh-Hant"}]}},{"__typename":"SocialMediaPost","id":"HnPost-26236908","excerpt":"","slug":"/hn/26236908","title":"You need to be able to run your system","date":"February 23, 2021","dateISO":"2021-02-23T20:25:58.043Z","datetime":"2021-02-23 20:25","tags":["story","Hacker News"],"image":null,"imageAlt":null,"provider":"Hacker News","thirdPartyId":"26236908","url":"https://news.ycombinator.com/item?id=26236908","originalUrl":"http://catern.com/run.html","imageRemote":null,"video":null,"channel":null,"channelUrl":null,"author":"catern","authorUrl":"https://news.ycombinator.com/user?id=catern","authorImage":null,"authorSlug":null,"score":289,"views":null,"sharedCount":null,"likeCount":null,"sharedContent":null,"parent":{"__typename":"HnJson","localize":[{"title":"你需要能够运行你的系统","locale":"zh"},{"title":"你需要能夠運行你的系統","locale":"zh-Hant"}]}},{"__typename":"SocialMediaPost","id":"HnPost-26239711","excerpt":"","slug":"/hn/26239711","title":"Free for Developers","date":"February 23, 2021","dateISO":"2021-02-23T20:01:38.684Z","datetime":"2021-02-23 20:01","tags":["story","Hacker News"],"image":null,"imageAlt":null,"provider":"Hacker News","thirdPartyId":"26239711","url":"https://news.ycombinator.com/item?id=26239711","originalUrl":"https://free-for.dev/#/","imageRemote":null,"video":null,"channel":null,"channelUrl":null,"author":"fs111","authorUrl":"https://news.ycombinator.com/user?id=fs111","authorImage":null,"authorSlug":null,"score":928,"views":null,"sharedCount":null,"likeCount":null,"sharedContent":null,"parent":{"__typename":"HnJson","localize":[{"title":"开发者免费","locale":"zh"},{"title":"開發者免費","locale":"zh-Hant"}]}},{"__typename":"SocialMediaPost","id":"HnPost-26237368","excerpt":"","slug":"/hn/26237368","title":"Teaching Compilers Backward","date":"February 23, 2021","dateISO":"2021-02-23T19:29:26.124Z","datetime":"2021-02-23 19:29","tags":["story","Hacker News"],"image":null,"imageAlt":null,"provider":"Hacker News","thirdPartyId":"26237368","url":"https://news.ycombinator.com/item?id=26237368","originalUrl":"https://blog.sigplan.org/2021/02/23/teaching-compilers-backward/","imageRemote":"https://blog.sigplan.org/wp-content/uploads/2021/02/shutterstock_671583940.jpg","video":null,"channel":null,"channelUrl":null,"author":"azhenley","authorUrl":"https://news.ycombinator.com/user?id=azhenley","authorImage":null,"authorSlug":null,"score":268,"views":null,"sharedCount":null,"likeCount":null,"sharedContent":null,"parent":{"__typename":"HnJson","localize":[{"title":"向后教编译器","locale":"zh"},{"title":"向後教編譯器","locale":"zh-Hant"}]}},{"__typename":"SocialMediaPost","id":"HnPost-26234384","excerpt":"","slug":"/hn/26234384","title":"ComputeSharp, Run C# on the GPU","date":"February 23, 2021","dateISO":"2021-02-23T18:50:55.722Z","datetime":"2021-02-23 18:50","tags":["story","Hacker News"],"image":null,"imageAlt":null,"provider":"Hacker News","thirdPartyId":"26234384","url":"https://news.ycombinator.com/item?id=26234384","originalUrl":"https://github.com/Sergio0694/ComputeSharp/tree/dev","imageRemote":"https://repository-images.githubusercontent.com/201615840/e2cfca00-747b-11eb-84b0-8e24b2a9420a","video":null,"channel":null,"channelUrl":null,"author":"pjmlp","authorUrl":"https://news.ycombinator.com/user?id=pjmlp","authorImage":null,"authorSlug":null,"score":172,"views":null,"sharedCount":null,"likeCount":null,"sharedContent":null,"parent":{"__typename":"HnJson","localize":[{"title":"ComputeSharp，在GPU上运行C#。","locale":"zh"},{"title":"ComputeSharp，在GPU上運行C#。","locale":"zh-Hant"}]}},{"__typename":"SocialMediaPost","id":"HnPost-26239068","excerpt":"","slug":"/hn/26239068","title":"Git is my buddy: Effective Git as a solo developer","date":"February 23, 2021","dateISO":"2021-02-23T18:50:55.722Z","datetime":"2021-02-23 18:50","tags":["story","Hacker News"],"image":null,"imageAlt":null,"provider":"Hacker News","thirdPartyId":"26239068","url":"https://news.ycombinator.com/item?id=26239068","originalUrl":"https://mikkel.ca/blog/git-is-my-buddy-effective-solo-developer/","imageRemote":null,"video":null,"channel":null,"channelUrl":null,"author":"vortex_ape","authorUrl":"https://news.ycombinator.com/user?id=vortex_ape","authorImage":null,"authorSlug":null,"score":411,"views":null,"sharedCount":null,"likeCount":null,"sharedContent":null,"parent":{"__typename":"HnJson","localize":[{"title":"Git是我的好朋友：作为一个单独的开发者，Git是有效的。","locale":"zh"},{"title":"Git是我的好朋友：作爲一個單獨的開發者，Git是有效的。","locale":"zh-Hant"}]}},{"__typename":"SocialMediaPost","id":"HnPost-26236770","excerpt":"","slug":"/hn/26236770","title":"Nextcloud Hub 21","date":"February 23, 2021","dateISO":"2021-02-23T18:33:45.590Z","datetime":"2021-02-23 18:33","tags":["story","Hacker News"],"image":null,"imageAlt":null,"provider":"Hacker News","thirdPartyId":"26236770","url":"https://news.ycombinator.com/item?id=26236770","originalUrl":"https://nextcloud.com/blog/nextcloud-hub-21-out-with-up-to-10x-better-performance-whiteboard-and-more-collaboration-features/","imageRemote":"https://nextcloud.com/media/Whiteboard-2.png","video":null,"channel":null,"channelUrl":null,"author":"threatofrain","authorUrl":"https://news.ycombinator.com/user?id=threatofrain","authorImage":null,"authorSlug":null,"score":207,"views":null,"sharedCount":null,"likeCount":null,"sharedContent":null,"parent":{"__typename":"HnJson","localize":[{"title":"Nextcloud Hub 21","locale":"zh"},{"title":"Nextcloud Hub 21","locale":"zh-Hant"}]}},{"__typename":"SocialMediaPost","id":"HnPost-26234614","excerpt":"","slug":"/hn/26234614","title":"Scientists break through the wall of sleep to the untapped world of dreams","date":"February 23, 2021","dateISO":"2021-02-23T17:55:55.118Z","datetime":"2021-02-23 17:55","tags":["story","Hacker News"],"image":null,"imageAlt":null,"provider":"Hacker News","thirdPartyId":"26234614","url":"https://news.ycombinator.com/item?id=26234614","originalUrl":"https://beta.nsf.gov/science-matters/scientists-break-through-wall-sleep-untapped-world-dreams","imageRemote":"https://das-prod-nsf-gov.s3.amazonaws.com/styles/_inline_image_full_width/s3/2021-01/shutterstock_1199439910%20-%20woman%20in%20dream%20with%20lab%20coat.jpg?itok=-vf0yYm4","video":null,"channel":null,"channelUrl":null,"author":"metaversemaker","authorUrl":"https://news.ycombinator.com/user?id=metaversemaker","authorImage":null,"authorSlug":null,"score":220,"views":null,"sharedCount":null,"likeCount":null,"sharedContent":null,"parent":{"__typename":"HnJson","localize":[{"title":"科学家冲破睡眠的围墙，进入未被开发的梦境世界","locale":"zh"},{"title":"科學家衝破睡眠的圍牆，進入未被開發的夢境世界","locale":"zh-Hant"}]}},{"__typename":"SocialMediaPost","id":"HnPost-26232760","excerpt":"","slug":"/hn/26232760","title":"The road to electric is filled with tiny cars","date":"February 23, 2021","dateISO":"2021-02-23T17:44:26.561Z","datetime":"2021-02-23 17:44","tags":["story","Hacker News"],"image":null,"imageAlt":null,"provider":"Hacker News","thirdPartyId":"26232760","url":"https://news.ycombinator.com/item?id=26232760","originalUrl":"https://restofworld.org/2021/tesla-vs-tiny-cars/","imageRemote":"https://149346090.v2.pressablecdn.com/wp-content/uploads/2021/02/EVBeijing_01-scaled.jpg","video":null,"channel":null,"channelUrl":null,"author":"jimmy2020","authorUrl":"https://news.ycombinator.com/user?id=jimmy2020","authorImage":null,"authorSlug":null,"score":170,"views":null,"sharedCount":null,"likeCount":null,"sharedContent":null,"parent":{"__typename":"HnJson","localize":[{"title":"电动化的道路上充满了小汽车","locale":"zh"},{"title":"電動化的道路上充滿了小汽車","locale":"zh-Hant"}]}},{"__typename":"SocialMediaPost","id":"HnPost-26225339","excerpt":"","slug":"/hn/26225339","title":"Practical Color Theory for People Who Code (2016)","date":"February 23, 2021","dateISO":"2021-02-23T15:37:24.381Z","datetime":"2021-02-23 15:37","tags":["story","Hacker News"],"image":null,"imageAlt":null,"provider":"Hacker News","thirdPartyId":"26225339","url":"https://news.ycombinator.com/item?id=26225339","originalUrl":"http://tallys.github.io/color-theory/","imageRemote":"http://tallys.github.io/color-theory/images/tally-pic.jpg","video":null,"channel":null,"channelUrl":null,"author":"martinlaz","authorUrl":"https://news.ycombinator.com/user?id=martinlaz","authorImage":null,"authorSlug":null,"score":199,"views":null,"sharedCount":null,"likeCount":null,"sharedContent":null,"parent":{"__typename":"HnJson","localize":[{"title":"码字人的实用色彩理论(2016)","locale":"zh"},{"title":"碼字人的實用色彩理論(2016)","locale":"zh-Hant"}]}},{"__typename":"SocialMediaPost","id":"HnPost-26237404","excerpt":"","slug":"/hn/26237404","title":"Firefox 86 Introduces Total Cookie Protection","date":"February 23, 2021","dateISO":"2021-02-23T14:58:20.668Z","datetime":"2021-02-23 14:58","tags":["story","Hacker News"],"image":null,"imageAlt":null,"provider":"Hacker News","thirdPartyId":"26237404","url":"https://news.ycombinator.com/item?id=26237404","originalUrl":"https://blog.mozilla.org/security/2021/02/23/total-cookie-protection/","imageRemote":"https://blog.mozilla.org/security/files/2021/02/panels-3-1400x770.png","video":null,"channel":null,"channelUrl":null,"author":"todsacerdoti","authorUrl":"https://news.ycombinator.com/user?id=todsacerdoti","authorImage":null,"authorSlug":null,"score":1509,"views":null,"sharedCount":null,"likeCount":null,"sharedContent":null,"parent":{"__typename":"HnJson","localize":[{"title":"火狐86引入全面Cookie保护","locale":"zh"},{"title":"火狐86引入全面Cookie保護","locale":"zh-Hant"}]}},{"__typename":"SocialMediaPost","id":"HnPost-26236739","excerpt":"","slug":"/hn/26236739","title":"Bitfinex and Tether required to end all trading activity with New Yorkers","date":"February 23, 2021","dateISO":"2021-02-23T14:44:55.896Z","datetime":"2021-02-23 14:44","tags":["story","Hacker News"],"image":null,"imageAlt":null,"provider":"Hacker News","thirdPartyId":"26236739","url":"https://news.ycombinator.com/item?id=26236739","originalUrl":"https://ag.ny.gov/press-release/2021/attorney-general-james-ends-virtual-currency-trading-platform-bitfinexs-illegal?ref","imageRemote":"https://ag.ny.gov/sites/default/files/default_images/oag_seal_1_1.png","video":null,"channel":null,"channelUrl":null,"author":"dgellow","authorUrl":"https://news.ycombinator.com/user?id=dgellow","authorImage":null,"authorSlug":null,"score":566,"views":null,"sharedCount":null,"likeCount":null,"sharedContent":null,"parent":{"__typename":"HnJson","localize":[{"title":"要求Bitfinex和Tether停止与纽约人的所有交易活动。","locale":"zh"},{"title":"要求Bitfinex和Tether停止與紐約人的所有交易活動。","locale":"zh-Hant"}]}},{"__typename":"SocialMediaPost","id":"HnPost-26235414","excerpt":"","slug":"/hn/26235414","title":"I heat my home by mining crypto currencies","date":"February 23, 2021","dateISO":"2021-02-23T12:37:43.178Z","datetime":"2021-02-23 12:37","tags":["story","Hacker News"],"image":null,"imageAlt":null,"provider":"Hacker News","thirdPartyId":"26235414","url":"https://news.ycombinator.com/item?id=26235414","originalUrl":"https://blog.haschek.at/2021/how-i-heat-my-home-by-mining.html","imageRemote":"https://blog.haschek.at/data/renderedposts/lowerheatbill.jpg","video":null,"channel":null,"channelUrl":null,"author":"geek_at","authorUrl":"https://news.ycombinator.com/user?id=geek_at","authorImage":null,"authorSlug":null,"score":521,"views":null,"sharedCount":null,"likeCount":null,"sharedContent":null,"parent":{"__typename":"HnJson","localize":[{"title":"我通过挖掘加密货币给家里供暖","locale":"zh"},{"title":"我通過挖掘加密貨幣給家裏供暖","locale":"zh-Hant"}]}},{"__typename":"SocialMediaPost","id":"HnPost-26233244","excerpt":"","slug":"/hn/26233244","title":"Mold: A Modern Linker","date":"February 23, 2021","dateISO":"2021-02-23T11:28:35.940Z","datetime":"2021-02-23 11:28","tags":["story","Hacker News"],"image":null,"imageAlt":null,"provider":"Hacker News","thirdPartyId":"26233244","url":"https://news.ycombinator.com/item?id=26233244","originalUrl":"https://github.com/rui314/mold","imageRemote":"https://avatars.githubusercontent.com/u/47400?s=400&v=4","video":null,"channel":null,"channelUrl":null,"author":"signa11","authorUrl":"https://news.ycombinator.com/user?id=signa11","authorImage":null,"authorSlug":null,"score":292,"views":null,"sharedCount":null,"likeCount":null,"sharedContent":null,"parent":{"__typename":"HnJson","localize":[{"title":"模具。一个现代链接器","locale":"zh"},{"title":"模具。一個現代鏈接器","locale":"zh-Hant"}]}},{"__typename":"SocialMediaPost","id":"HnPost-26221925","excerpt":"","slug":"/hn/26221925","title":"Falling sperm counts, declining egg quality, and endocrine disruptors","date":"February 23, 2021","dateISO":"2021-02-23T09:55:24.817Z","datetime":"2021-02-23 09:55","tags":["story","Hacker News"],"image":null,"imageAlt":null,"provider":"Hacker News","thirdPartyId":"26221925","url":"https://news.ycombinator.com/item?id=26221925","originalUrl":"https://www.nytimes.com/2021/02/20/opinion/sunday/endocrine-disruptors-sperm.html","imageRemote":"https://static01.nyt.com/images/2021/02/20/opinion/20kristof/20kristof-facebookJumbo.jpg","video":null,"channel":null,"channelUrl":null,"author":"vincentmarle","authorUrl":"https://news.ycombinator.com/user?id=vincentmarle","authorImage":null,"authorSlug":null,"score":496,"views":null,"sharedCount":null,"likeCount":null,"sharedContent":null,"parent":{"__typename":"HnJson","localize":[{"title":"精子数量下降、卵子质量下降、内分泌干扰因素。","locale":"zh"},{"title":"精子數量下降、卵子質量下降、內分泌干擾因素。","locale":"zh-Hant"}]}},{"__typename":"SocialMediaPost","id":"HnPost-26224994","excerpt":"","slug":"/hn/26224994","title":"ZZT: Epic’s First Game","date":"February 23, 2021","dateISO":"2021-02-23T08:55:20.985Z","datetime":"2021-02-23 08:55","tags":["story","Hacker News"],"image":null,"imageAlt":null,"provider":"Hacker News","thirdPartyId":"26224994","url":"https://news.ycombinator.com/item?id=26224994","originalUrl":"https://www.howtogeek.com/713532/before-fortnite-there-was-zzt-meet-epics-first-game/","imageRemote":"https://www.howtogeek.com/wp-content/uploads/2021/02/zzt_hero_4.jpg?height=200p&trim=2,2,2,2","video":null,"channel":null,"channelUrl":null,"author":"mariuz","authorUrl":"https://news.ycombinator.com/user?id=mariuz","authorImage":null,"authorSlug":null,"score":176,"views":null,"sharedCount":null,"likeCount":null,"sharedContent":null,"parent":{"__typename":"HnJson","localize":[{"title":"ZZT：Epic的第一款游戏。","locale":"zh"},{"title":"ZZT：Epic的第一款遊戲。","locale":"zh-Hant"}]}},{"__typename":"SocialMediaPost","id":"HnPost-26233736","excerpt":"","slug":"/hn/26233736","title":"Canadians derailed a train and drove it to City Hall for power after a ice storm","date":"February 23, 2021","dateISO":"2021-02-23T08:41:13.494Z","datetime":"2021-02-23 08:41","tags":["story","Hacker News"],"image":null,"imageAlt":null,"provider":"Hacker News","thirdPartyId":"26233736","url":"https://news.ycombinator.com/item?id=26233736","originalUrl":"https://www.thedrive.com/news/39378/how-canadians-derailed-a-train-and-drove-it-to-city-hall-for-power-after-a-brutal-ice-storm","imageRemote":"https://api.thedrive.com/wp-content/uploads/2021/02/canada-train-generator-hero.jpg?quality=85","video":null,"channel":null,"channelUrl":null,"author":"nradov","authorUrl":"https://news.ycombinator.com/user?id=nradov","authorImage":null,"authorSlug":null,"score":486,"views":null,"sharedCount":null,"likeCount":null,"sharedContent":null,"parent":{"__typename":"HnJson","localize":[{"title":"加拿大人在冰雪风暴后让火车脱轨，并将其开往市政厅供电","locale":"zh"},{"title":"加拿大人在冰雪風暴後讓火車脫軌，並將其開往市政廳供電","locale":"zh-Hant"}]}},{"__typename":"SocialMediaPost","id":"HnPost-26230354","excerpt":"","slug":"/hn/26230354","title":"India's artisanal fountain pens are making their mark","date":"February 23, 2021","dateISO":"2021-02-23T07:42:38.643Z","datetime":"2021-02-23 07:42","tags":["story","Hacker News"],"image":null,"imageAlt":null,"provider":"Hacker News","thirdPartyId":"26230354","url":"https://news.ycombinator.com/item?id=26230354","originalUrl":"https://www.bbc.com/news/world-asia-india-55314701","imageRemote":"https://ichef.bbci.co.uk/news/1024/branded_news/DE4D/production/_116090965_gettyimages-628324720-594x594.jpg","video":null,"channel":null,"channelUrl":null,"author":"thomas","authorUrl":"https://news.ycombinator.com/user?id=thomas","authorImage":null,"authorSlug":null,"score":211,"views":null,"sharedCount":null,"likeCount":null,"sharedContent":null,"parent":{"__typename":"HnJson","localize":[{"title":"印度的手工钢笔正在崭露头角。","locale":"zh"},{"title":"印度的手工鋼筆正在嶄露頭角。","locale":"zh-Hant"}]}},{"__typename":"SocialMediaPost","id":"HnPost-26232600","excerpt":"","slug":"/hn/26232600","title":"Nintendo DS-TV-Out Restoration Project","date":"February 23, 2021","dateISO":"2021-02-23T07:42:38.643Z","datetime":"2021-02-23 07:42","tags":["story","Hacker News"],"image":null,"imageAlt":null,"provider":"Hacker News","thirdPartyId":"26232600","url":"https://news.ycombinator.com/item?id=26232600","originalUrl":"https://lostnintendohistory.github.io/DS-TV-OUT","imageRemote":"https://raw.githubusercontent.com/LostNintendoHistory/lostnintendohistory.github.io/main/img/NDSTVOUT/DSTVOUT.jpg","video":null,"channel":null,"channelUrl":null,"author":"max-m","authorUrl":"https://news.ycombinator.com/user?id=max-m","authorImage":null,"authorSlug":null,"score":221,"views":null,"sharedCount":null,"likeCount":null,"sharedContent":null,"parent":{"__typename":"HnJson","localize":[{"title":"任天堂DS-TV-Out修复项目","locale":"zh"},{"title":"任天堂DS-TV-Out修復項目","locale":"zh-Hant"}]}},{"__typename":"SocialMediaPost","id":"HnPost-26227807","excerpt":"","slug":"/hn/26227807","title":"Launch HN: Wyndly (YC W21) – Allergy relief through at-home oral drops","date":"February 23, 2021","dateISO":"2021-02-23T05:43:51.328Z","datetime":"2021-02-23 05:43","tags":["story","Hacker News"],"image":null,"imageAlt":null,"provider":"Hacker News","thirdPartyId":"26227807","url":"https://news.ycombinator.com/item?id=26227807","originalUrl":"https://news.ycombinator.com/item?id=26227807","imageRemote":null,"video":null,"channel":null,"channelUrl":null,"author":"ahstilde","authorUrl":"https://news.ycombinator.com/user?id=ahstilde","authorImage":null,"authorSlug":null,"score":206,"views":null,"sharedCount":null,"likeCount":null,"sharedContent":null,"parent":{"__typename":"HnJson","localize":[{"title":"推出HN：Wyndly(YC W21)--通过在家口服滴剂缓解过敏症状。","locale":"zh"},{"title":"推出HN：Wyndly(YC W21)--通過在家口服滴劑緩解過敏症狀。","locale":"zh-Hant"}]}},{"__typename":"SocialMediaPost","id":"HnPost-26224709","excerpt":"","slug":"/hn/26224709","title":"Launch HN: H3X (YC W21) – High power density electric aircraft motors","date":"February 23, 2021","dateISO":"2021-02-23T04:41:39.770Z","datetime":"2021-02-23 04:41","tags":["story","Hacker News"],"image":null,"imageAlt":null,"provider":"Hacker News","thirdPartyId":"26224709","url":"https://news.ycombinator.com/item?id=26224709","originalUrl":"https://news.ycombinator.com/item?id=26224709","imageRemote":null,"video":null,"channel":null,"channelUrl":null,"author":"jjsylvestre","authorUrl":"https://news.ycombinator.com/user?id=jjsylvestre","authorImage":null,"authorSlug":null,"score":228,"views":null,"sharedCount":null,"likeCount":null,"sharedContent":null,"parent":{"__typename":"HnJson","localize":[{"title":"发射HN：H3X(YC W21)--高功率密度飞机电机","locale":"zh"},{"title":"發射HN：H3X(YC W21)--高功率密度飛機電機","locale":"zh-Hant"}]}},{"__typename":"SocialMediaPost","id":"HnPost-26223114","excerpt":"","slug":"/hn/26223114","title":"Research software code is likely to remain a tangled mess","date":"February 23, 2021","dateISO":"2021-02-23T00:56:53.332Z","datetime":"2021-02-23 00:56","tags":["story","Hacker News"],"image":null,"imageAlt":null,"provider":"Hacker News","thirdPartyId":"26223114","url":"https://news.ycombinator.com/item?id=26223114","originalUrl":"http://shape-of-code.coding-guidelines.com/2021/02/21/research-software-code-is-likely-to-remain-a-tangled-mess/","imageRemote":"http://0.gravatar.com/avatar/6f16b09c89dc3243d18e59949bbe2ed6?s=32&d=mm&r=g","video":null,"channel":null,"channelUrl":null,"author":"hacksilver","authorUrl":"https://news.ycombinator.com/user?id=hacksilver","authorImage":null,"authorSlug":null,"score":182,"views":null,"sharedCount":null,"likeCount":null,"sharedContent":null,"parent":{"__typename":"HnJson","localize":[{"title":"研究软件代码很可能仍然是一团乱麻。","locale":"zh"},{"title":"研究軟件代碼很可能仍然是一團亂麻。","locale":"zh-Hant"}]}},{"__typename":"SocialMediaPost","id":"HnPost-26226805","excerpt":"","slug":"/hn/26226805","title":"Show HN: Call a Dev – Pay Stack Overflow users $1/min for live programming help","date":"February 22, 2021","dateISO":"2021-02-22T23:24:40.791Z","datetime":"2021-02-22 23:24","tags":["story","Show HN","Hacker News"],"image":null,"imageAlt":null,"provider":"Hacker News","thirdPartyId":"26226805","url":"https://news.ycombinator.com/item?id=26226805","originalUrl":"https://calladev.com/","imageRemote":"https://files.calladev.com/images/help_devs_save_time.png","video":null,"channel":"Show HN","channelUrl":"https://news.ycombinator.com/show","author":"mcadenhe","authorUrl":"https://news.ycombinator.com/user?id=mcadenhe","authorImage":null,"authorSlug":null,"score":449,"views":null,"sharedCount":null,"likeCount":null,"sharedContent":null,"parent":{"__typename":"HnJson","localize":[{"title":"秀HN：叫一个开发--向Stack Overflow用户支付1美元/分钟的现场编程帮助费。","locale":"zh"},{"title":"秀HN：叫一個開發--向Stack Overflow用戶支付1美元/分鐘的現場編程幫助費。","locale":"zh-Hant"}]}},{"__typename":"SocialMediaPost","id":"HnPost-26229358","excerpt":"","slug":"/hn/26229358","title":"Mars 2020 Descent and Landing Video","date":"February 22, 2021","dateISO":"2021-02-22T21:26:01.417Z","datetime":"2021-02-22 21:26","tags":["story","Hacker News"],"image":null,"imageAlt":null,"provider":"Hacker News","thirdPartyId":"26229358","url":"https://news.ycombinator.com/item?id=26229358","originalUrl":"https://www.youtube.com/watch?v=4czjS9h4Fpg","imageRemote":"https://i.ytimg.com/vi/4czjS9h4Fpg/maxresdefault.jpg","video":null,"channel":null,"channelUrl":null,"author":"jvanderbot","authorUrl":"https://news.ycombinator.com/user?id=jvanderbot","authorImage":null,"authorSlug":null,"score":503,"views":null,"sharedCount":null,"likeCount":null,"sharedContent":null,"parent":{"__typename":"HnJson","localize":[{"title":"火星2020下降和着陆视频","locale":"zh"},{"title":"火星2020下降和着陸視頻","locale":"zh-Hant"}]}}]}},"pageContext":{"basePath":"/","pageType":"tag","tag":"Hacker News","tagsFilter":{"id":{"glob":"!*Post-1"}},"filter":{"id":{"glob":"!*Post-1"},"tags":{"eq":"Hacker News"}},"limit":25,"skip":200,"total":2185,"totalPages":88,"currentPage":9,"maxWidth":1024,"maxHeight":512,"locale":"zh","hrefLang":"zh-Hans","originalPath":"/tags/hacker-news/page/9","dateFormat":"YYYY-MM-DD"}},"staticQueryHashes":["1239077767","2506312863","2744905544","3025052997","3493603132","3493603132","3513215887","386998304"]}