{"componentChunkName":"component---gatsby-theme-buzzing-src-gatsby-theme-timeline-templates-posts-query-js","path":"/zh-Hant/tags/hacker-news/page/79","result":{"data":{"site":{"siteMetadata":{"title":"Reddit 热门","description":"用中文浏览Reddit热门内容","social":[{"name":"Twitter","url":"https://twitter.com/gatsbyjs","external":null,"prefetch":null},{"name":"GitHub","url":"https://github.com/gatsbyjs","external":null,"prefetch":null}],"menuLinks":[],"localize":[{"locale":"en","title":"Buzzing on Reddit","description":"See what's buzzing on Reddit in your native language","social":[{"name":"Reddit","url":"https://www.reddit.com/","external":true,"prefetch":null}],"menuLinks":[{"name":"Weekly Selection","url":"/issues","external":null,"prefetch":null},{"name":"RSS","url":"/rss.xml","external":null,"prefetch":false}]},{"locale":"zh-Hant","title":"Reddit 熱門","description":"用中文瀏覽Reddit熱門內容","social":null,"menuLinks":null}]}},"tagsGroup":{"group":[{"fieldValue":"ASK HN","totalCount":36},{"fieldValue":"Bitcoin","totalCount":4},{"fieldValue":"Hacker News","totalCount":2185},{"fieldValue":"Poll","totalCount":1},{"fieldValue":"SaveAMC","totalCount":1},{"fieldValue":"Show HN","totalCount":76},{"fieldValue":"bitcoin","totalCount":3},{"fieldValue":"investing","totalCount":686},{"fieldValue":"poll","totalCount":1},{"fieldValue":"reddit","totalCount":4012},{"fieldValue":"science","totalCount":1},{"fieldValue":"stocks","totalCount":1322},{"fieldValue":"story","totalCount":2184},{"fieldValue":"tweet","totalCount":697},{"fieldValue":"wallstreetbets","totalCount":2004}]},"allBlogPost":{"nodes":[{"__typename":"SocialMediaPost","id":"HnPost-25498235","excerpt":"","slug":"/hn/25498235","title":"Ignore AMP","date":"December 21, 2020","dateISO":"2020-12-21T20:34:07.425Z","datetime":"2020-12-21 20:34","tags":["story","Hacker News"],"image":null,"imageAlt":null,"provider":"Hacker News","thirdPartyId":"25498235","url":"https://news.ycombinator.com/item?id=25498235","originalUrl":"https://meiert.com/en/blog/ignore-amp/","imageRemote":"https://d3rdtowr0c5lpf.cloudfront.net/media/logo-social.png","video":null,"channel":null,"channelUrl":null,"author":"adamhearn","authorUrl":"https://news.ycombinator.com/user?id=adamhearn","authorImage":null,"authorSlug":null,"score":426,"views":null,"sharedCount":null,"likeCount":null,"sharedContent":null,"parent":{"__typename":"HnJson","localize":[{"title":"忽略AMP","locale":"zh"},{"title":"忽略AMP","locale":"zh-Hant"}]}},{"__typename":"SocialMediaPost","id":"HnPost-25497772","excerpt":"","slug":"/hn/25497772","title":"Jaywalking decriminalization, 100 years after the auto industry made it a crime","date":"December 21, 2020","dateISO":"2020-12-21T20:03:49.883Z","datetime":"2020-12-21 20:03","tags":["story","Hacker News"],"image":null,"imageAlt":null,"provider":"Hacker News","thirdPartyId":"25497772","url":"https://news.ycombinator.com/item?id=25497772","originalUrl":"https://www.virginiamercury.com/2020/12/21/jaywalking-decriminalization-is-coming-to-virginia-100-years-after-the-auto-industry-helped-make-it-a-crime/","imageRemote":"https://www.virginiamercury.com/wp-content/uploads/2020/12/Crossing_wyatt-scaled.jpg","video":null,"channel":null,"channelUrl":null,"author":"jseliger","authorUrl":"https://news.ycombinator.com/user?id=jseliger","authorImage":null,"authorSlug":null,"score":408,"views":null,"sharedCount":null,"likeCount":null,"sharedContent":null,"parent":{"__typename":"HnJson","localize":[{"title":"在汽车业将乱穿马路定为犯罪100年后，乱穿马路合法化","locale":"zh"},{"title":"在汽車業將亂穿馬路定爲犯罪100年後，亂穿馬路合法化","locale":"zh-Hant"}]}},{"__typename":"SocialMediaPost","id":"HnPost-25492557","excerpt":"","slug":"/hn/25492557","title":"Great Hacker != Great Hire (2004)","date":"December 21, 2020","dateISO":"2020-12-21T19:46:56.800Z","datetime":"2020-12-21 19:46","tags":["story","Hacker News"],"image":null,"imageAlt":null,"provider":"Hacker News","thirdPartyId":"25492557","url":"https://news.ycombinator.com/item?id=25492557","originalUrl":"https://ericsink.com/entries/No_Great_Hackers.html","imageRemote":"https://ericsink.com/images/princeton.jpg","video":null,"channel":null,"channelUrl":null,"author":"luu","authorUrl":"https://news.ycombinator.com/user?id=luu","authorImage":null,"authorSlug":null,"score":116,"views":null,"sharedCount":null,"likeCount":null,"sharedContent":null,"parent":{"__typename":"HnJson","localize":[{"title":"伟大的黑客！=伟大的雇佣(2004)","locale":"zh"},{"title":"偉大的黑客！=偉大的僱傭(2004)","locale":"zh-Hant"}]}},{"__typename":"SocialMediaPost","id":"HnPost-25494648","excerpt":"","slug":"/hn/25494648","title":"Nobody ever ported Doom to run on a Cray 1","date":"December 21, 2020","dateISO":"2020-12-21T19:46:56.800Z","datetime":"2020-12-21 19:46","tags":["story","Hacker News"],"image":null,"imageAlt":null,"provider":"Hacker News","thirdPartyId":"25494648","url":"https://news.ycombinator.com/item?id=25494648","originalUrl":"https://twitter.com/id_aa_carmack/status/1340794861050605568","imageRemote":null,"video":null,"channel":null,"channelUrl":null,"author":"tosh","authorUrl":"https://news.ycombinator.com/user?id=tosh","authorImage":null,"authorSlug":null,"score":224,"views":null,"sharedCount":null,"likeCount":null,"sharedContent":null,"parent":{"__typename":"HnJson","localize":[{"title":"从来没有人把“末日”移植到克雷1号上运行。","locale":"zh"},{"title":"從來沒有人把“末日”移植到克雷1號上運行。","locale":"zh-Hant"}]}},{"__typename":"SocialMediaPost","id":"HnPost-25497065","excerpt":"","slug":"/hn/25497065","title":"Zero-Bundle-Size React Server Components","date":"December 21, 2020","dateISO":"2020-12-21T19:33:08.949Z","datetime":"2020-12-21 19:33","tags":["story","Hacker News"],"image":null,"imageAlt":null,"provider":"Hacker News","thirdPartyId":"25497065","url":"https://news.ycombinator.com/item?id=25497065","originalUrl":"https://reactjs.org/blog/2020/12/21/data-fetching-with-react-server-components.html","imageRemote":"https://reactjs.org/logo-og.png","video":null,"channel":null,"channelUrl":null,"author":"danabramov","authorUrl":"https://news.ycombinator.com/user?id=danabramov","authorImage":null,"authorSlug":null,"score":223,"views":null,"sharedCount":null,"likeCount":null,"sharedContent":null,"parent":{"__typename":"HnJson","localize":[{"title":"零捆绑包大小的Reaction服务器组件","locale":"zh"},{"title":"零捆綁包大小的Reaction服務器組件","locale":"zh-Hant"}]}},{"__typename":"SocialMediaPost","id":"HnPost-25493577","excerpt":"","slug":"/hn/25493577","title":"Pijul: Commutation and Scalability","date":"December 21, 2020","dateISO":"2020-12-21T19:08:47.443Z","datetime":"2020-12-21 19:08","tags":["story","Hacker News"],"image":null,"imageAlt":null,"provider":"Hacker News","thirdPartyId":"25493577","url":"https://news.ycombinator.com/item?id=25493577","originalUrl":"https://pijul.org/posts/2020-12-19-partials/","imageRemote":null,"video":null,"channel":null,"channelUrl":null,"author":"Ygg2","authorUrl":"https://news.ycombinator.com/user?id=Ygg2","authorImage":null,"authorSlug":null,"score":151,"views":null,"sharedCount":null,"likeCount":null,"sharedContent":null,"parent":{"__typename":"HnJson","localize":[{"title":"Pijul：可换性和可扩展性","locale":"zh"},{"title":"Pijul：可換性和可擴展性","locale":"zh-Hant"}]}},{"__typename":"SocialMediaPost","id":"HnPost-25494988","excerpt":"","slug":"/hn/25494988","title":"Show HN: Find the safest well lit walking route between two locations","date":"December 21, 2020","dateISO":"2020-12-21T18:47:23.529Z","datetime":"2020-12-21 18:47","tags":["story","Show HN","Hacker News"],"image":null,"imageAlt":null,"provider":"Hacker News","thirdPartyId":"25494988","url":"https://news.ycombinator.com/item?id=25494988","originalUrl":"https://github.com/mfbx9da4/brightpath-backend#mission","imageRemote":"https://avatars1.githubusercontent.com/u/1690659?s=400&v=4","video":null,"channel":"Show HN","channelUrl":"https://news.ycombinator.com/show","author":"mfbx9da4","authorUrl":"https://news.ycombinator.com/user?id=mfbx9da4","authorImage":null,"authorSlug":null,"score":222,"views":null,"sharedCount":null,"likeCount":null,"sharedContent":null,"parent":{"__typename":"HnJson","localize":[{"title":"HN新产品：找到两个地点之间最安全、照明最好的步行路线","locale":"zh"},{"title":"SHOW HN：找到兩個地點之間最安全、照明最好的步行路線","locale":"zh-Hant"}]}},{"__typename":"SocialMediaPost","id":"HnPost-25496725","excerpt":"","slug":"/hn/25496725","title":"Evidence of “modified gravity” in 150 galaxies bolsters dark matter alternative","date":"December 21, 2020","dateISO":"2020-12-21T18:47:23.529Z","datetime":"2020-12-21 18:47","tags":["story","Hacker News"],"image":null,"imageAlt":null,"provider":"Hacker News","thirdPartyId":"25496725","url":"https://news.ycombinator.com/item?id=25496725","originalUrl":"https://newatlas.com/physics/modified-gravity-evidence-dark-matter/","imageRemote":"https://assets.newatlas.com/dims4/default/2f9beb2/2147483647/strip/true/crop/3130x1643+0+121/resize/1200x630!/quality/90/?url=http%3A%2F%2Fnewatlas-brightspot.s3.amazonaws.com%2F68%2F6f%2F459e085349f5a49aacb35c1105e8%2Fgalaxy.jpg","video":null,"channel":null,"channelUrl":null,"author":"bookofjoe","authorUrl":"https://news.ycombinator.com/user?id=bookofjoe","authorImage":null,"authorSlug":null,"score":347,"views":null,"sharedCount":null,"likeCount":null,"sharedContent":null,"parent":{"__typename":"HnJson","localize":[{"title":"150个星系中“修改引力”的证据支持另一种暗物质选择","locale":"zh"},{"title":"150個星系中“修改引力”的證據支持另一種暗物質選擇","locale":"zh-Hant"}]}},{"__typename":"SocialMediaPost","id":"HnPost-25495393","excerpt":"","slug":"/hn/25495393","title":"Show HN: NoteCalc","date":"December 21, 2020","dateISO":"2020-12-21T18:01:49.948Z","datetime":"2020-12-21 18:01","tags":["story","Show HN","Hacker News"],"image":null,"imageAlt":null,"provider":"Hacker News","thirdPartyId":"25495393","url":"https://news.ycombinator.com/item?id=25495393","originalUrl":"https://github.com/bbodi/notecalc3/releases/tag/v0.3.0","imageRemote":"https://avatars1.githubusercontent.com/u/2362136?s=400&v=4","video":null,"channel":"Show HN","channelUrl":"https://news.ycombinator.com/show","author":"bbodi","authorUrl":"https://news.ycombinator.com/user?id=bbodi","authorImage":null,"authorSlug":null,"score":264,"views":null,"sharedCount":null,"likeCount":null,"sharedContent":null,"parent":{"__typename":"HnJson","localize":[{"title":"HN新产品：NoteCalc","locale":"zh"},{"title":"HN新产品：NoteCalc","locale":"zh-Hant"}]}},{"__typename":"SocialMediaPost","id":"HnPost-25485624","excerpt":"","slug":"/hn/25485624","title":"Show HN: Galène Videoconferencing Server","date":"December 21, 2020","dateISO":"2020-12-21T16:48:47.545Z","datetime":"2020-12-21 16:48","tags":["story","Show HN","Hacker News"],"image":null,"imageAlt":null,"provider":"Hacker News","thirdPartyId":"25485624","url":"https://news.ycombinator.com/item?id=25485624","originalUrl":"https://galene.org","imageRemote":"https://galene.org/images/sfu-2000-small.jpg","video":null,"channel":"Show HN","channelUrl":"https://news.ycombinator.com/show","author":"jech","authorUrl":"https://news.ycombinator.com/user?id=jech","authorImage":null,"authorSlug":null,"score":131,"views":null,"sharedCount":null,"likeCount":null,"sharedContent":null,"parent":{"__typename":"HnJson","localize":[{"title":"HN新产品：Galène视频会议服务器","locale":"zh"},{"title":"HN新产品：Galène視頻會議服務器","locale":"zh-Hant"}]}},{"__typename":"SocialMediaPost","id":"HnPost-25495768","excerpt":"","slug":"/hn/25495768","title":"Congress is set to ban most surprise medical bills","date":"December 21, 2020","dateISO":"2020-12-21T16:48:47.545Z","datetime":"2020-12-21 16:48","tags":["story","Hacker News"],"image":null,"imageAlt":null,"provider":"Hacker News","thirdPartyId":"25495768","url":"https://news.ycombinator.com/item?id=25495768","originalUrl":"https://www.nytimes.com/2020/12/20/upshot/surprise-medical-bills-congress-ban.html","imageRemote":"https://static01.nyt.com/images/2020/12/22/upshot/00up-surprise-bill-print/00up-surprise-bill-facebookJumbo-v3.jpg","video":null,"channel":null,"channelUrl":null,"author":"jseliger","authorUrl":"https://news.ycombinator.com/user?id=jseliger","authorImage":null,"authorSlug":null,"score":463,"views":null,"sharedCount":null,"likeCount":null,"sharedContent":null,"parent":{"__typename":"HnJson","localize":[{"title":"国会将禁止最令人惊讶的医疗法案","locale":"zh"},{"title":"國會將禁止最令人驚訝的醫療法案","locale":"zh-Hant"}]}},{"__typename":"SocialMediaPost","id":"HnPost-25493773","excerpt":"","slug":"/hn/25493773","title":"New coronavirus variant in UK: What do we know?","date":"December 21, 2020","dateISO":"2020-12-21T16:07:15.026Z","datetime":"2020-12-21 16:07","tags":["story","Hacker News"],"image":null,"imageAlt":null,"provider":"Hacker News","thirdPartyId":"25493773","url":"https://news.ycombinator.com/item?id=25493773","originalUrl":"https://www.bbc.com/news/health-55388846","imageRemote":"https://ichef.bbci.co.uk/news/1024/branded_news/90FF/production/_116191173_gettyimages-1212213051.jpg","video":null,"channel":null,"channelUrl":null,"author":"justforfunhere","authorUrl":"https://news.ycombinator.com/user?id=justforfunhere","authorImage":null,"authorSlug":null,"score":240,"views":null,"sharedCount":null,"likeCount":null,"sharedContent":null,"parent":{"__typename":"HnJson","localize":[{"title":"英国新的冠状病毒变种：我们知道些什么？","locale":"zh"},{"title":"英國新的冠狀病毒變種：我們知道些什麼？","locale":"zh-Hant"}]}},{"__typename":"SocialMediaPost","id":"HnPost-25495480","excerpt":"","slug":"/hn/25495480","title":"Russian opposition leader Navalny dupes spy into revealing how he was poisoned","date":"December 21, 2020","dateISO":"2020-12-21T16:07:15.026Z","datetime":"2020-12-21 16:07","tags":["story","Hacker News"],"image":null,"imageAlt":null,"provider":"Hacker News","thirdPartyId":"25495480","url":"https://news.ycombinator.com/item?id=25495480","originalUrl":"https://www.cnn.com/2020/12/21/europe/russia-navalny-poisoning-underpants-ward/index.html","imageRemote":"https://cdn.cnn.com/cnnnext/dam/assets/201221132025-01-alexey-navalny-file-2019-super-tease.jpg","video":null,"channel":null,"channelUrl":null,"author":"antfarm","authorUrl":"https://news.ycombinator.com/user?id=antfarm","authorImage":null,"authorSlug":null,"score":782,"views":null,"sharedCount":null,"likeCount":null,"sharedContent":null,"parent":{"__typename":"HnJson","localize":[{"title":"俄罗斯反对派领导人纳瓦尔尼欺骗间谍透露他是如何中毒的","locale":"zh"},{"title":"俄羅斯反對派領導人納瓦爾尼欺騙間諜透露他是如何中毒的","locale":"zh-Hant"}]}},{"__typename":"SocialMediaPost","id":"HnPost-25493606","excerpt":"","slug":"/hn/25493606","title":"Chef cofounder on CentOS: It’s time to open source everything","date":"December 21, 2020","dateISO":"2020-12-21T15:20:04.039Z","datetime":"2020-12-21 15:20","tags":["story","Hacker News"],"image":null,"imageAlt":null,"provider":"Hacker News","thirdPartyId":"25493606","url":"https://news.ycombinator.com/item?id=25493606","originalUrl":"https://planetstoryline.com/chef-cofounder-on-centos-its-time-to-open-source-everything/","imageRemote":"https://planetstoryline.com/wp-content/uploads/2020/12/Chef-cofounder-on-CentOS-Its-time-to-open-source-everything.jpg","video":null,"channel":null,"channelUrl":null,"author":"ashitlerferad","authorUrl":"https://news.ycombinator.com/user?id=ashitlerferad","authorImage":null,"authorSlug":null,"score":187,"views":null,"sharedCount":null,"likeCount":null,"sharedContent":null,"parent":{"__typename":"HnJson","localize":[{"title":"Chef在CentOS上联合创始人：是时候把一切都开源了","locale":"zh"},{"title":"Chef在CentOS上聯合創始人：是時候把一切都開源了","locale":"zh-Hant"}]}},{"__typename":"SocialMediaPost","id":"HnPost-25493692","excerpt":"","slug":"/hn/25493692","title":"GameLisp: Scripting language for Rust game development","date":"December 21, 2020","dateISO":"2020-12-21T15:20:04.039Z","datetime":"2020-12-21 15:20","tags":["story","Hacker News"],"image":null,"imageAlt":null,"provider":"Hacker News","thirdPartyId":"25493692","url":"https://news.ycombinator.com/item?id=25493692","originalUrl":"https://gamelisp.rs/","imageRemote":"https://gamelisp.rs/logo-light.png","video":null,"channel":null,"channelUrl":null,"author":"sundarurfriend","authorUrl":"https://news.ycombinator.com/user?id=sundarurfriend","authorImage":null,"authorSlug":null,"score":231,"views":null,"sharedCount":null,"likeCount":null,"sharedContent":null,"parent":{"__typename":"HnJson","localize":[{"title":"GameLisp：Rust游戏开发的脚本语言","locale":"zh"},{"title":"GameLisp：Rust遊戲開發的腳本語言","locale":"zh-Hant"}]}},{"__typename":"SocialMediaPost","id":"HnPost-25494109","excerpt":"","slug":"/hn/25494109","title":"Facebook's attempt to vilify Apple looks like sour grapes","date":"December 21, 2020","dateISO":"2020-12-21T15:20:04.039Z","datetime":"2020-12-21 15:20","tags":["story","Hacker News"],"image":null,"imageAlt":null,"provider":"Hacker News","thirdPartyId":"25494109","url":"https://news.ycombinator.com/item?id=25494109","originalUrl":"https://www.theguardian.com/technology/2020/dec/16/facebooks-attempt-to-vilify-apple-tastes-like-sour-grapes","imageRemote":"https://i.guim.co.uk/img/media/80520fdb1a7f101fd59cafa4b5de1002e10901d5/0_98_3312_1987/master/3312.jpg?width=1200&height=630&quality=85&auto=format&fit=crop&overlay-align=bottom%2Cleft&overlay-width=100p&overlay-base64=L2ltZy9zdGF0aWMvb3ZlcmxheXMvdGctZGVmYXVsdC5wbmc&enable=upscale&s=32b6e325c62661da8cd10b40ea1d5493","video":null,"channel":null,"channelUrl":null,"author":"ystad","authorUrl":"https://news.ycombinator.com/user?id=ystad","authorImage":null,"authorSlug":null,"score":323,"views":null,"sharedCount":null,"likeCount":null,"sharedContent":null,"parent":{"__typename":"HnJson","localize":[{"title":"Facebook试图诋毁苹果看起来像是酸葡萄","locale":"zh"},{"title":"Facebook試圖詆譭蘋果看起來像是酸葡萄","locale":"zh-Hant"}]}},{"__typename":"SocialMediaPost","id":"HnPost-25494205","excerpt":"","slug":"/hn/25494205","title":"“I took FSFE to court. This is my story”","date":"December 21, 2020","dateISO":"2020-12-21T15:20:04.039Z","datetime":"2020-12-21 15:20","tags":["story","Hacker News"],"image":null,"imageAlt":null,"provider":"Hacker News","thirdPartyId":"25494205","url":"https://news.ycombinator.com/item?id=25494205","originalUrl":"https://write.as/malinagalina/i-took-fsfe-to-court","imageRemote":"https://write.as/img/w-sq-light.png","video":null,"channel":null,"channelUrl":null,"author":"yannovitch","authorUrl":"https://news.ycombinator.com/user?id=yannovitch","authorImage":null,"authorSlug":null,"score":114,"views":null,"sharedCount":null,"likeCount":null,"sharedContent":null,"parent":{"__typename":"HnJson","localize":[{"title":"“我把FSFE告上了法庭。这是我的故事“","locale":"zh"},{"title":"“我把FSFE告上了法庭。這是我的故事“","locale":"zh-Hant"}]}},{"__typename":"SocialMediaPost","id":"HnPost-25492456","excerpt":"","slug":"/hn/25492456","title":"World’s biggest iceberg heads for disaster","date":"December 21, 2020","dateISO":"2020-12-21T14:56:38.143Z","datetime":"2020-12-21 14:56","tags":["story","Hacker News"],"image":null,"imageAlt":null,"provider":"Hacker News","thirdPartyId":"25492456","url":"https://news.ycombinator.com/item?id=25492456","originalUrl":"https://graphics.reuters.com/CLIMATE-CHANGE/ICEBERG/yzdvxjrbzvx/","imageRemote":"https://graphics.reuters.com/CLIMATE-CHANGE/ICEBERG/yzdvxjrbzvx/img/share-card.jpg","video":null,"channel":null,"channelUrl":null,"author":"wglb","authorUrl":"https://news.ycombinator.com/user?id=wglb","authorImage":null,"authorSlug":null,"score":120,"views":null,"sharedCount":null,"likeCount":null,"sharedContent":null,"parent":{"__typename":"HnJson","localize":[{"title":"世界上最大的冰山走向灾难","locale":"zh"},{"title":"世界上最大的冰山走向災難","locale":"zh-Hant"}]}},{"__typename":"SocialMediaPost","id":"HnPost-25486017","excerpt":"","slug":"/hn/25486017","title":"Understanding how AES encryption works","date":"December 21, 2020","dateISO":"2020-12-21T14:47:18.036Z","datetime":"2020-12-21 14:47","tags":["story","Hacker News"],"image":null,"imageAlt":null,"provider":"Hacker News","thirdPartyId":"25486017","url":"https://news.ycombinator.com/item?id=25486017","originalUrl":"https://nakabonne.dev/posts/understanding-how-aes-encryption-works/","imageRemote":"https://nakabonne.dev/img/aes-add-round-key.jpg","video":null,"channel":null,"channelUrl":null,"author":"nakabonne","authorUrl":"https://news.ycombinator.com/user?id=nakabonne","authorImage":null,"authorSlug":null,"score":129,"views":null,"sharedCount":null,"likeCount":null,"sharedContent":null,"parent":{"__typename":"HnJson","localize":[{"title":"了解AES加密的工作原理","locale":"zh"},{"title":"瞭解AES加密的工作原理","locale":"zh-Hant"}]}},{"__typename":"SocialMediaPost","id":"HnPost-25493087","excerpt":"","slug":"/hn/25493087","title":"Threema apps are Open Source","date":"December 21, 2020","dateISO":"2020-12-21T14:35:34.836Z","datetime":"2020-12-21 14:35","tags":["story","Hacker News"],"image":null,"imageAlt":null,"provider":"Hacker News","thirdPartyId":"25493087","url":"https://news.ycombinator.com/item?id=25493087","originalUrl":"https://threema.ch/en/blog/posts/open-source-discount","imageRemote":"https://threema.ch/images/logo-big.png","video":null,"channel":null,"channelUrl":null,"author":"nickexyz","authorUrl":"https://news.ycombinator.com/user?id=nickexyz","authorImage":null,"authorSlug":null,"score":157,"views":null,"sharedCount":null,"likeCount":null,"sharedContent":null,"parent":{"__typename":"HnJson","localize":[{"title":"Threema应用程序是开源的","locale":"zh"},{"title":"Threema應用程序是開源的","locale":"zh-Hant"}]}},{"__typename":"SocialMediaPost","id":"HnPost-25493646","excerpt":"","slug":"/hn/25493646","title":"Startup Stock Options – Why A Good Deal Has Gone Bad (2019)","date":"December 21, 2020","dateISO":"2020-12-21T14:35:34.836Z","datetime":"2020-12-21 14:35","tags":["story","Hacker News"],"image":null,"imageAlt":null,"provider":"Hacker News","thirdPartyId":"25493646","url":"https://news.ycombinator.com/item?id=25493646","originalUrl":"https://steveblank.com/2019/04/10/startup-stock-options-why-a-good-deal-has-gone-bad/","imageRemote":"https://steveblank.com/wp-content/uploads/2019/04/growth-appreciation.jpg","video":null,"channel":null,"channelUrl":null,"author":"simonebrunozzi","authorUrl":"https://news.ycombinator.com/user?id=simonebrunozzi","authorImage":null,"authorSlug":null,"score":361,"views":null,"sharedCount":null,"likeCount":null,"sharedContent":null,"parent":{"__typename":"HnJson","localize":[{"title":"创业公司股票期权-为什么一笔划算的交易变得糟糕(2019年)","locale":"zh"},{"title":"創業公司股票期權-爲什麼一筆劃算的交易變得糟糕(2019年)","locale":"zh-Hant"}]}},{"__typename":"SocialMediaPost","id":"HnPost-25494789","excerpt":"","slug":"/hn/25494789","title":"Ruby 3.0.0 RC1 Released","date":"December 21, 2020","dateISO":"2020-12-21T14:35:34.836Z","datetime":"2020-12-21 14:35","tags":["story","Hacker News"],"image":null,"imageAlt":null,"provider":"Hacker News","thirdPartyId":"25494789","url":"https://news.ycombinator.com/item?id=25494789","originalUrl":"https://www.ruby-lang.org/en/news/2020/12/20/ruby-3-0-0-rc1-released/","imageRemote":"https://www.ruby-lang.org/images/header-ruby-logo@2x.png","video":null,"channel":null,"channelUrl":null,"author":"chenzhekl","authorUrl":"https://news.ycombinator.com/user?id=chenzhekl","authorImage":null,"authorSlug":null,"score":326,"views":null,"sharedCount":null,"likeCount":null,"sharedContent":null,"parent":{"__typename":"HnJson","localize":[{"title":"Ruby 3.0.0 RC1发布","locale":"zh"},{"title":"Ruby 3.0.0 RC1發佈","locale":"zh-Hant"}]}},{"__typename":"SocialMediaPost","id":"HnPost-25493804","excerpt":"","slug":"/hn/25493804","title":"Nikon Is ending 70 years of camera production in Japan","date":"December 21, 2020","dateISO":"2020-12-21T13:39:04.592Z","datetime":"2020-12-21 13:39","tags":["story","Hacker News"],"image":null,"imageAlt":null,"provider":"Hacker News","thirdPartyId":"25493804","url":"https://news.ycombinator.com/item?id=25493804","originalUrl":"https://www.mirrorlessrumors.com/nikon-is-ending-70-years-of-camera-production-in-japan/","imageRemote":"https://www.mirrorlessrumors.com/wp-content/uploads/2020/12/Bildschirmfoto-2020-12-21-um-08.41.07.png","video":null,"channel":null,"channelUrl":null,"author":"giuliomagnifico","authorUrl":"https://news.ycombinator.com/user?id=giuliomagnifico","authorImage":null,"authorSlug":null,"score":607,"views":null,"sharedCount":null,"likeCount":null,"sharedContent":null,"parent":{"__typename":"HnJson","localize":[{"title":"尼康将结束在日本长达70年的相机生产","locale":"zh"},{"title":"尼康將結束在日本長達70年的相機生產","locale":"zh-Hant"}]}},{"__typename":"SocialMediaPost","id":"HnPost-25492880","excerpt":"","slug":"/hn/25492880","title":"Joining Apple 40 years ago","date":"December 21, 2020","dateISO":"2020-12-21T13:07:59.427Z","datetime":"2020-12-21 13:07","tags":["story","Hacker News"],"image":null,"imageAlt":null,"provider":"Hacker News","thirdPartyId":"25492880","url":"https://news.ycombinator.com/item?id=25492880","originalUrl":"https://mondaynote.com/joining-apple-40-years-ago-805114536a2","imageRemote":"https://miro.medium.com/max/500/1*S9WhriAn5D_hZ-qI9pPTnw.jpeg","video":null,"channel":null,"channelUrl":null,"author":"tardyp","authorUrl":"https://news.ycombinator.com/user?id=tardyp","authorImage":null,"authorSlug":null,"score":233,"views":null,"sharedCount":null,"likeCount":null,"sharedContent":null,"parent":{"__typename":"HnJson","localize":[{"title":"40年前加入苹果","locale":"zh"},{"title":"40年前加入蘋果","locale":"zh-Hant"}]}},{"__typename":"SocialMediaPost","id":"HnPost-25493553","excerpt":"","slug":"/hn/25493553","title":"$7/month wages paid to iPhone factory workers despite being hired for $100+/mo","date":"December 21, 2020","dateISO":"2020-12-21T12:42:27.713Z","datetime":"2020-12-21 12:42","tags":["story","Hacker News"],"image":null,"imageAlt":null,"provider":"Hacker News","thirdPartyId":"25493553","url":"https://news.ycombinator.com/item?id=25493553","originalUrl":"https://arstechnica.com/gadgets/2020/12/worker-protests-at-indian-iphone-factory-causes-up-to-7-million-in-damages/","imageRemote":"https://cdn.arstechnica.net/wp-content/uploads/2020/12/GettyImages-1230098368-760x380.jpg","video":null,"channel":null,"channelUrl":null,"author":"mehrdadn","authorUrl":"https://news.ycombinator.com/user?id=mehrdadn","authorImage":null,"authorSlug":null,"score":458,"views":null,"sharedCount":null,"likeCount":null,"sharedContent":null,"parent":{"__typename":"HnJson","localize":[{"title":"支付给iPhone工厂工人的工资为7美元/月，尽管受雇时的月薪为100美元以上","locale":"zh"},{"title":"支付給iPhone工廠工人的工資爲7美元/月，儘管受僱時的月薪爲100美元以上","locale":"zh-Hant"}]}}]}},"pageContext":{"basePath":"/","pageType":"tag","tag":"Hacker News","tagsFilter":{"id":{"glob":"!*Post-1"}},"filter":{"id":{"glob":"!*Post-1"},"tags":{"eq":"Hacker News"}},"limit":25,"skip":1950,"total":2185,"totalPages":88,"currentPage":79,"maxWidth":1024,"maxHeight":512,"locale":"zh-Hant","hrefLang":"zh-Hant","originalPath":"/tags/hacker-news/page/79","dateFormat":"YYYY-MM-DD"}},"staticQueryHashes":["1239077767","2506312863","2744905544","3025052997","3493603132","3493603132","3513215887","386998304"]}