{"componentChunkName":"component---gatsby-theme-buzzing-src-gatsby-theme-timeline-templates-posts-query-js","path":"/zh-Hant/tags/story/page/24","result":{"data":{"site":{"siteMetadata":{"title":"Reddit 热门","description":"用中文浏览Reddit热门内容","social":[{"name":"Twitter","url":"https://twitter.com/gatsbyjs","external":null,"prefetch":null},{"name":"GitHub","url":"https://github.com/gatsbyjs","external":null,"prefetch":null}],"menuLinks":[],"localize":[{"locale":"en","title":"Buzzing on Reddit","description":"See what's buzzing on Reddit in your native language","social":[{"name":"Reddit","url":"https://www.reddit.com/","external":true,"prefetch":null}],"menuLinks":[{"name":"Weekly Selection","url":"/issues","external":null,"prefetch":null},{"name":"RSS","url":"/rss.xml","external":null,"prefetch":false}]},{"locale":"zh-Hant","title":"Reddit 熱門","description":"用中文瀏覽Reddit熱門內容","social":null,"menuLinks":null}]}},"tagsGroup":{"group":[{"fieldValue":"ASK HN","totalCount":54},{"fieldValue":"Hacker News","totalCount":3105},{"fieldValue":"Poll","totalCount":1},{"fieldValue":"Show HN","totalCount":100},{"fieldValue":"poll","totalCount":1},{"fieldValue":"story","totalCount":3104}]},"allBlogPost":{"nodes":[{"__typename":"SocialMediaPost","id":"HnPost-26480922","excerpt":"","slug":"/hn/26480922","title":"Swift Evolution: Actors","date":"March 16, 2021","dateISO":"2021-03-16T22:59:20.984Z","datetime":"2021-03-16 22:59","tags":["story","Hacker News"],"image":null,"imageAlt":null,"provider":"Hacker News","thirdPartyId":"26480922","url":"https://news.ycombinator.com/item?id=26480922","originalUrl":"https://github.com/apple/swift-evolution/blob/main/proposals/0306-actors.md","imageRemote":"https://avatars.githubusercontent.com/u/10639145?s=400&v=4","video":null,"channel":null,"channelUrl":null,"author":"mpweiher","authorUrl":"https://news.ycombinator.com/user?id=mpweiher","authorImage":null,"authorSlug":null,"score":260,"views":null,"sharedCount":null,"likeCount":null,"sharedContent":null,"parent":{"__typename":"HnJson","localize":[{"title":"迅速进化。演员","locale":"zh"},{"title":"迅速進化。演員","locale":"zh-Hant"}]}},{"__typename":"SocialMediaPost","id":"HnPost-26475898","excerpt":"","slug":"/hn/26475898","title":"Show HN: I built a zero-cost, ad-free alternative to LinkedIn","date":"March 16, 2021","dateISO":"2021-03-16T21:21:03.144Z","datetime":"2021-03-16 21:21","tags":["story","Show HN","Hacker News"],"image":null,"imageAlt":null,"provider":"Hacker News","thirdPartyId":"26475898","url":"https://news.ycombinator.com/item?id=26475898","originalUrl":"http://sellff.com","imageRemote":null,"video":null,"channel":"Show HN","channelUrl":"https://news.ycombinator.com/show","author":"4sellff","authorUrl":"https://news.ycombinator.com/user?id=4sellff","authorImage":null,"authorSlug":null,"score":247,"views":null,"sharedCount":null,"likeCount":null,"sharedContent":null,"parent":{"__typename":"HnJson","localize":[{"title":"显示HN：我打造了一个零成本、无广告的LinkedIn替代方案。","locale":"zh"},{"title":"顯示HN：我打造了一個零成本、無廣告的LinkedIn替代方案。","locale":"zh-Hant"}]}},{"__typename":"SocialMediaPost","id":"HnPost-26469738","excerpt":"","slug":"/hn/26469738","title":"It’s time to stop using SMS for security","date":"March 16, 2021","dateISO":"2021-03-16T20:30:35.174Z","datetime":"2021-03-16 20:30","tags":["story","Hacker News"],"image":null,"imageAlt":null,"provider":"Hacker News","thirdPartyId":"26469738","url":"https://news.ycombinator.com/item?id=26469738","originalUrl":"https://lucky225.medium.com/its-time-to-stop-using-sms-for-anything-203c41361c80","imageRemote":null,"video":null,"channel":null,"channelUrl":null,"author":"andyjih_","authorUrl":"https://news.ycombinator.com/user?id=andyjih_","authorImage":null,"authorSlug":null,"score":174,"views":null,"sharedCount":null,"likeCount":null,"sharedContent":null,"parent":{"__typename":"HnJson","localize":[{"title":"是时候停止使用短信进行安全防护了","locale":"zh"},{"title":"是時候停止使用短信進行安全防護了","locale":"zh-Hant"}]}},{"__typename":"SocialMediaPost","id":"HnPost-26463247","excerpt":"","slug":"/hn/26463247","title":"Spain to launch modest trial of four-day working week","date":"March 16, 2021","dateISO":"2021-03-16T20:09:59.548Z","datetime":"2021-03-16 20:09","tags":["story","Hacker News"],"image":null,"imageAlt":null,"provider":"Hacker News","thirdPartyId":"26463247","url":"https://news.ycombinator.com/item?id=26463247","originalUrl":"https://www.theguardian.com/world/2021/mar/15/spain-to-launch-trial-of-four-day-working-week","imageRemote":"https://i.guim.co.uk/img/media/99fd79b935ec96743f62a10ffc5e20c76da29915/0_29_4703_2822/master/4703.jpg?width=1200&height=630&quality=85&auto=format&fit=crop&overlay-align=bottom%2Cleft&overlay-width=100p&overlay-base64=L2ltZy9zdGF0aWMvb3ZlcmxheXMvdGctZGVmYXVsdC5wbmc&enable=upscale&s=4f81a0734a3895baef35713bd17be66c","video":null,"channel":null,"channelUrl":null,"author":"fireinsnow","authorUrl":"https://news.ycombinator.com/user?id=fireinsnow","authorImage":null,"authorSlug":null,"score":165,"views":null,"sharedCount":null,"likeCount":null,"sharedContent":null,"parent":{"__typename":"HnJson","localize":[{"title":"西班牙将适度试行四天工作制","locale":"zh"},{"title":"西班牙將適度試行四天工作制","locale":"zh-Hant"}]}},{"__typename":"SocialMediaPost","id":"HnPost-26479127","excerpt":"","slug":"/hn/26479127","title":"Improving large monorepo performance on GitHub","date":"March 16, 2021","dateISO":"2021-03-16T19:41:11.987Z","datetime":"2021-03-16 19:41","tags":["story","Hacker News"],"image":null,"imageAlt":null,"provider":"Hacker News","thirdPartyId":"26479127","url":"https://news.ycombinator.com/item?id=26479127","originalUrl":"https://github.blog/2021-03-16-improving-large-monorepo-performance-on-github/","imageRemote":"https://github.blog/wp-content/uploads/2019/03/blog-card.png?fit=5001%2C2626","video":null,"channel":null,"channelUrl":null,"author":"todsacerdoti","authorUrl":"https://news.ycombinator.com/user?id=todsacerdoti","authorImage":null,"authorSlug":null,"score":313,"views":null,"sharedCount":null,"likeCount":null,"sharedContent":null,"parent":{"__typename":"HnJson","localize":[{"title":"提高GitHub上的大型monorepo性能","locale":"zh"},{"title":"提高GitHub上的大型monorepo性能","locale":"zh-Hant"}]}},{"__typename":"SocialMediaPost","id":"HnPost-26470223","excerpt":"","slug":"/hn/26470223","title":"Euler's Fizzbuzz (2020)","date":"March 16, 2021","dateISO":"2021-03-16T19:20:05.555Z","datetime":"2021-03-16 19:20","tags":["story","Hacker News"],"image":null,"imageAlt":null,"provider":"Hacker News","thirdPartyId":"26470223","url":"https://news.ycombinator.com/item?id=26470223","originalUrl":"http://philcrissman.net/posts/eulers-fizzbuzz/","imageRemote":"http://philcrissman.net/images/220px-Leonhard_Euler.jpg","video":null,"channel":null,"channelUrl":null,"author":"koevet","authorUrl":"https://news.ycombinator.com/user?id=koevet","authorImage":null,"authorSlug":null,"score":211,"views":null,"sharedCount":null,"likeCount":null,"sharedContent":null,"parent":{"__typename":"HnJson","localize":[{"title":"Euler's Fizzbuzz (2020)","locale":"zh"},{"title":"Euler's Fizzbuzz (2020)","locale":"zh-Hant"}]}},{"__typename":"SocialMediaPost","id":"HnPost-26479953","excerpt":"","slug":"/hn/26479953","title":"Rockstar pays $10k to modder who fixed GTA Online loading times","date":"March 16, 2021","dateISO":"2021-03-16T19:20:05.555Z","datetime":"2021-03-16 19:20","tags":["story","Hacker News"],"image":null,"imageAlt":null,"provider":"Hacker News","thirdPartyId":"26479953","url":"https://news.ycombinator.com/item?id=26479953","originalUrl":"https://www.gamesindustry.biz/articles/2021-03-16-rockstar-pays-usd10-000-to-modder-who-fixed-grand-theft-auto-online-loading-times","imageRemote":"https://images.eurogamer.net/2021/articles/2021-03-16-10-06/gta_money.png","video":null,"channel":null,"channelUrl":null,"author":"geuis","authorUrl":"https://news.ycombinator.com/user?id=geuis","authorImage":null,"authorSlug":null,"score":255,"views":null,"sharedCount":null,"likeCount":null,"sharedContent":null,"parent":{"__typename":"HnJson","localize":[{"title":"Rockstar向修复《GTA Online》加载时间的moder支付1万美元。","locale":"zh"},{"title":"Rockstar向修復《GTA Online》加載時間的moder支付1萬美元。","locale":"zh-Hant"}]}},{"__typename":"SocialMediaPost","id":"HnPost-26475519","excerpt":"","slug":"/hn/26475519","title":"In-kernel WireGuard is on its way to FreeBSD and the pfSense router","date":"March 16, 2021","dateISO":"2021-03-16T18:50:34.617Z","datetime":"2021-03-16 18:50","tags":["story","Hacker News"],"image":null,"imageAlt":null,"provider":"Hacker News","thirdPartyId":"26475519","url":"https://news.ycombinator.com/item?id=26475519","originalUrl":"https://arstechnica.com/gadgets/2021/03/in-kernel-wireguard-is-on-its-way-to-freebsd-and-the-pfsense-router/","imageRemote":"https://cdn.arstechnica.net/wp-content/uploads/2021/03/wireguard-freebsd-desktop-760x380.png","video":null,"channel":null,"channelUrl":null,"author":"xoa","authorUrl":"https://news.ycombinator.com/user?id=xoa","authorImage":null,"authorSlug":null,"score":377,"views":null,"sharedCount":null,"likeCount":null,"sharedContent":null,"parent":{"__typename":"HnJson","localize":[{"title":"内核的WireGuard已经在FreeBSD和pfSense路由器的路上了。","locale":"zh"},{"title":"內核的WireGuard已經在FreeBSD和pfSense路由器的路上了。","locale":"zh-Hant"}]}},{"__typename":"SocialMediaPost","id":"HnPost-26476370","excerpt":"","slug":"/hn/26476370","title":"Justice at Spotify","date":"March 16, 2021","dateISO":"2021-03-16T18:50:34.617Z","datetime":"2021-03-16 18:50","tags":["story","Hacker News"],"image":null,"imageAlt":null,"provider":"Hacker News","thirdPartyId":"26476370","url":"https://news.ycombinator.com/item?id=26476370","originalUrl":"https://www.unionofmusicians.org/justice-at-spotify","imageRemote":"http://static1.squarespace.com/static/5eadacf90966a21ede0b0aa0/t/601db831eef4e6548fd028af/1603681260293/MrEk.jpg?format=1500w","video":null,"channel":null,"channelUrl":null,"author":"giuliomagnifico","authorUrl":"https://news.ycombinator.com/user?id=giuliomagnifico","authorImage":null,"authorSlug":null,"score":193,"views":null,"sharedCount":null,"likeCount":null,"sharedContent":null,"parent":{"__typename":"HnJson","localize":[{"title":"正义在Spotify","locale":"zh"},{"title":"正義在Spotify","locale":"zh-Hant"}]}},{"__typename":"SocialMediaPost","id":"HnPost-26477029","excerpt":"","slug":"/hn/26477029","title":"Cricut Wants Users to Pay for Unlimited Use of Cutting Machines They Already Own","date":"March 16, 2021","dateISO":"2021-03-16T18:50:34.617Z","datetime":"2021-03-16 18:50","tags":["story","Hacker News"],"image":null,"imageAlt":null,"provider":"Hacker News","thirdPartyId":"26477029","url":"https://news.ycombinator.com/item?id=26477029","originalUrl":"https://gizmodo.com/cricut-now-wants-users-to-pay-extra-for-unlimited-use-o-1846477745","imageRemote":"https://i.kinja-img.com/gawker-media/image/upload/c_fill,f_auto,fl_progressive,g_center,h_675,pg_1,q_80,w_1200/xbd1v9lhqdpvmw3w37t0.jpg","video":null,"channel":null,"channelUrl":null,"author":"DyslexicAtheist","authorUrl":"https://news.ycombinator.com/user?id=DyslexicAtheist","authorImage":null,"authorSlug":null,"score":261,"views":null,"sharedCount":null,"likeCount":null,"sharedContent":null,"parent":{"__typename":"HnJson","localize":[{"title":"Cricut希望用户为无限次使用已经拥有的切割机付费","locale":"zh"},{"title":"Cricut希望用戶爲無限次使用已經擁有的切割機付費","locale":"zh-Hant"}]}},{"__typename":"SocialMediaPost","id":"HnPost-26477999","excerpt":"","slug":"/hn/26477999","title":"Docker Raises $23M","date":"March 16, 2021","dateISO":"2021-03-16T18:27:57.281Z","datetime":"2021-03-16 18:27","tags":["story","Hacker News"],"image":null,"imageAlt":null,"provider":"Hacker News","thirdPartyId":"26477999","url":"https://news.ycombinator.com/item?id=26477999","originalUrl":"https://www.docker.com/press-release/Docker-Series-B","imageRemote":"https://www.docker.com/sites/default/files/social/docker_facebook_share.png","video":null,"channel":null,"channelUrl":null,"author":"nickjj","authorUrl":"https://news.ycombinator.com/user?id=nickjj","authorImage":null,"authorSlug":null,"score":296,"views":null,"sharedCount":null,"likeCount":null,"sharedContent":null,"parent":{"__typename":"HnJson","localize":[{"title":"Docker融资2300万美元","locale":"zh"},{"title":"Docker融資2300萬美元","locale":"zh-Hant"}]}},{"__typename":"SocialMediaPost","id":"HnPost-26478740","excerpt":"","slug":"/hn/26478740","title":"Google finally revealed how much personal data they collect in Chrome","date":"March 16, 2021","dateISO":"2021-03-16T18:27:57.281Z","datetime":"2021-03-16 18:27","tags":["story","Hacker News"],"image":null,"imageAlt":null,"provider":"Hacker News","thirdPartyId":"26478740","url":"https://news.ycombinator.com/item?id=26478740","originalUrl":"https://www.twitter.com/DuckDuckGo/status/1371509053613084679","imageRemote":null,"video":null,"channel":null,"channelUrl":null,"author":"URfejk","authorUrl":"https://news.ycombinator.com/user?id=URfejk","authorImage":null,"authorSlug":null,"score":372,"views":null,"sharedCount":null,"likeCount":null,"sharedContent":null,"parent":{"__typename":"HnJson","localize":[{"title":"谷歌终于透露了他们在Chrome中收集了多少个人数据。","locale":"zh"},{"title":"谷歌終於透露了他們在Chrome中收集了多少個人數據。","locale":"zh-Hant"}]}},{"__typename":"SocialMediaPost","id":"HnPost-26476685","excerpt":"","slug":"/hn/26476685","title":"Right to Repair Gaining Momentum","date":"March 16, 2021","dateISO":"2021-03-16T17:49:49.641Z","datetime":"2021-03-16 17:49","tags":["story","Hacker News"],"image":null,"imageAlt":null,"provider":"Hacker News","thirdPartyId":"26476685","url":"https://news.ycombinator.com/item?id=26476685","originalUrl":"https://www.vice.com/en/article/z3vavw/half-the-country-is-now-considering-right-to-repair-laws","imageRemote":"https://video-images.vice.com/articles/604bca0a156fc5009ab0de2a/lede/1615580419651-ewdylrvxiauk82f.jpeg?image-resize-opts=Y3JvcD0xeHc6MC44NDM5NjA5OTAyNDc1NjE5eGg7Y2VudGVyLGNlbnRlciZyZXNpemU9MTIwMDoqJnJlc2l6ZT0xMjAwOio","video":null,"channel":null,"channelUrl":null,"author":"foobarbecue","authorUrl":"https://news.ycombinator.com/user?id=foobarbecue","authorImage":null,"authorSlug":null,"score":273,"views":null,"sharedCount":null,"likeCount":null,"sharedContent":null,"parent":{"__typename":"HnJson","localize":[{"title":"修理权的发展势头","locale":"zh"},{"title":"修理權的發展勢頭","locale":"zh-Hant"}]}},{"__typename":"SocialMediaPost","id":"HnPost-26477855","excerpt":"","slug":"/hn/26477855","title":"Pangolin – Mobile AMD laptop with Ryzen CPU and Radeon graphics","date":"March 16, 2021","dateISO":"2021-03-16T17:49:49.641Z","datetime":"2021-03-16 17:49","tags":["story","Hacker News"],"image":null,"imageAlt":null,"provider":"Hacker News","thirdPartyId":"26477855","url":"https://news.ycombinator.com/item?id=26477855","originalUrl":"https://system76.com/laptops/pangolin?its-the-same-url-but-the-content-has-changed-thank-you","imageRemote":"https://assets.system76.com/components/hero/grid.png?fit=cover&width=500","video":null,"channel":null,"channelUrl":null,"author":"bananicorn","authorUrl":"https://news.ycombinator.com/user?id=bananicorn","authorImage":null,"authorSlug":null,"score":497,"views":null,"sharedCount":null,"likeCount":null,"sharedContent":null,"parent":{"__typename":"HnJson","localize":[{"title":"Pangolin - 搭载Ryzen CPU和Radeon显卡的移动AMD笔记本电脑。","locale":"zh"},{"title":"Pangolin - 搭載Ryzen CPU和Radeon顯卡的移動AMD筆記本電腦。","locale":"zh-Hant"}]}},{"__typename":"SocialMediaPost","id":"HnPost-26466113","excerpt":"","slug":"/hn/26466113","title":"A salt monopoly could spike car accidents in the Midwest","date":"March 16, 2021","dateISO":"2021-03-16T15:49:14.060Z","datetime":"2021-03-16 15:49","tags":["story","Hacker News"],"image":null,"imageAlt":null,"provider":"Hacker News","thirdPartyId":"26466113","url":"https://news.ycombinator.com/item?id=26466113","originalUrl":"https://mattstoller.substack.com/p/how-a-salt-monopoly-could-spike-car","imageRemote":"https://cdn.substack.com/image/fetch/w_1200,c_limit,f_jpg,q_auto:good,fl_progressive:steep/https%3A%2F%2Fbucketeer-e05bbc84-baa3-437e-9518-adb32be77984.s3.amazonaws.com%2Fpublic%2Fimages%2F5b62a93d-baa6-4d17-9458-7da0314cb189_977x628.png","video":null,"channel":null,"channelUrl":null,"author":"new_guy","authorUrl":"https://news.ycombinator.com/user?id=new_guy","authorImage":null,"authorSlug":null,"score":250,"views":null,"sharedCount":null,"likeCount":null,"sharedContent":null,"parent":{"__typename":"HnJson","localize":[{"title":"食盐垄断可能导致中西部地区车祸激增","locale":"zh"},{"title":"食鹽壟斷可能導致中西部地區車禍激增","locale":"zh-Hant"}]}},{"__typename":"SocialMediaPost","id":"HnPost-26466592","excerpt":"","slug":"/hn/26466592","title":"REST vs GraphQL vs gRPC","date":"March 16, 2021","dateISO":"2021-03-16T15:49:14.060Z","datetime":"2021-03-16 15:49","tags":["story","Hacker News"],"image":null,"imageAlt":null,"provider":"Hacker News","thirdPartyId":"26466592","url":"https://news.ycombinator.com/item?id=26466592","originalUrl":"https://www.danhacks.com/software/grpc-rest-graphql.html","imageRemote":"https://www.danhacks.com/assets/grpc-rest-graphql/network.jpg","video":null,"channel":null,"channelUrl":null,"author":"gibbonsd1","authorUrl":"https://news.ycombinator.com/user?id=gibbonsd1","authorImage":null,"authorSlug":null,"score":168,"views":null,"sharedCount":null,"likeCount":null,"sharedContent":null,"parent":{"__typename":"HnJson","localize":[{"title":"REST vs GraphQL vs gRPC","locale":"zh"},{"title":"REST vs GraphQL vs gRPC","locale":"zh-Hant"}]}},{"__typename":"SocialMediaPost","id":"HnPost-26475492","excerpt":"","slug":"/hn/26475492","title":"Encountering Thomas Sowell","date":"March 16, 2021","dateISO":"2021-03-16T15:49:14.060Z","datetime":"2021-03-16 15:49","tags":["story","Hacker News"],"image":null,"imageAlt":null,"provider":"Hacker News","thirdPartyId":"26475492","url":"https://news.ycombinator.com/item?id=26475492","originalUrl":"https://lawliberty.org/encountering-thomas-sowell/","imageRemote":"https://lawliberty.org/app/uploads/2021/03/LL_Sowell_Article2-copy-1024x512.jpg","video":null,"channel":null,"channelUrl":null,"author":"RickJWagner","authorUrl":"https://news.ycombinator.com/user?id=RickJWagner","authorImage":null,"authorSlug":null,"score":222,"views":null,"sharedCount":null,"likeCount":null,"sharedContent":null,"parent":{"__typename":"HnJson","localize":[{"title":"遇到托马斯-索维尔","locale":"zh"},{"title":"遇到托馬斯-索維爾","locale":"zh-Hant"}]}},{"__typename":"SocialMediaPost","id":"HnPost-26473032","excerpt":"","slug":"/hn/26473032","title":"Learning Without Burnout","date":"March 16, 2021","dateISO":"2021-03-16T15:30:29.195Z","datetime":"2021-03-16 15:30","tags":["story","Hacker News"],"image":null,"imageAlt":null,"provider":"Hacker News","thirdPartyId":"26473032","url":"https://news.ycombinator.com/item?id=26473032","originalUrl":"https://junglecoder.com/blog/learning-without-burnout","imageRemote":null,"video":null,"channel":null,"channelUrl":null,"author":"tate","authorUrl":"https://news.ycombinator.com/user?id=tate","authorImage":null,"authorSlug":null,"score":222,"views":null,"sharedCount":null,"likeCount":null,"sharedContent":null,"parent":{"__typename":"HnJson","localize":[{"title":"学习无倦怠","locale":"zh"},{"title":"學習無倦怠","locale":"zh-Hant"}]}},{"__typename":"SocialMediaPost","id":"HnPost-26463910","excerpt":"","slug":"/hn/26463910","title":"When Should I Interrupt Someone?","date":"March 16, 2021","dateISO":"2021-03-16T11:35:45.323Z","datetime":"2021-03-16 11:35","tags":["story","Hacker News"],"image":null,"imageAlt":null,"provider":"Hacker News","thirdPartyId":"26463910","url":"https://news.ycombinator.com/item?id=26463910","originalUrl":"https://zwischenzugs.com/2021/03/15/when-should-i-interrupt-someone/","imageRemote":"https://zwischenzugs.files.wordpress.com/2021/03/screenshot-2021-03-15-at-08.09.14.png","video":null,"channel":null,"channelUrl":null,"author":"zwischenzug","authorUrl":"https://news.ycombinator.com/user?id=zwischenzug","authorImage":null,"authorSlug":null,"score":180,"views":null,"sharedCount":null,"likeCount":null,"sharedContent":null,"parent":{"__typename":"HnJson","localize":[{"title":"什么时候我应该打断别人？","locale":"zh"},{"title":"什麼時候我應該打斷別人？","locale":"zh-Hant"}]}},{"__typename":"SocialMediaPost","id":"HnPost-26453174","excerpt":"","slug":"/hn/26453174","title":"Emacs-ng: Emacs with Deno runtime and TypeScript","date":"March 16, 2021","dateISO":"2021-03-16T09:55:59.311Z","datetime":"2021-03-16 09:55","tags":["story","Hacker News"],"image":null,"imageAlt":null,"provider":"Hacker News","thirdPartyId":"26453174","url":"https://news.ycombinator.com/item?id=26453174","originalUrl":"https://github.com/emacs-ng/emacs-ng","imageRemote":"https://avatars.githubusercontent.com/u/74111198?s=400&v=4","video":null,"channel":null,"channelUrl":null,"author":"karlicoss","authorUrl":"https://news.ycombinator.com/user?id=karlicoss","authorImage":null,"authorSlug":null,"score":176,"views":null,"sharedCount":null,"likeCount":null,"sharedContent":null,"parent":{"__typename":"HnJson","localize":[{"title":"Emacs-ng。Emacs与Deno运行时和TypeScript相结合","locale":"zh"},{"title":"Emacs-ng。Emacs與Deno運行時和TypeScript相結合","locale":"zh-Hant"}]}},{"__typename":"SocialMediaPost","id":"HnPost-26472127","excerpt":"","slug":"/hn/26472127","title":"Loss of myelin is one of the major factors of age-related brain deterioration","date":"March 16, 2021","dateISO":"2021-03-16T09:12:23.952Z","datetime":"2021-03-16 09:12","tags":["story","Hacker News"],"image":null,"imageAlt":null,"provider":"Hacker News","thirdPartyId":"26472127","url":"https://news.ycombinator.com/item?id=26472127","originalUrl":"https://www.port.ac.uk/news-events-and-blogs/news/brains-wiring-insulation-is-one-of-the-major-factors-of-age-related-brain-deterioration","imageRemote":"https://www.port.ac.uk/-/media/images/news-events-and-blogs/news/2021/march/myelin-2-800x400.jpg","video":null,"channel":null,"channelUrl":null,"author":"gmays","authorUrl":"https://news.ycombinator.com/user?id=gmays","authorImage":null,"authorSlug":null,"score":365,"views":null,"sharedCount":null,"likeCount":null,"sharedContent":null,"parent":{"__typename":"HnJson","localize":[{"title":"髓鞘的丧失是老年性脑退化的主要因素之一。","locale":"zh"},{"title":"髓鞘的喪失是老年性腦退化的主要因素之一。","locale":"zh-Hant"}]}},{"__typename":"SocialMediaPost","id":"HnPost-26468204","excerpt":"","slug":"/hn/26468204","title":"Launch HN: Mezli (YC W21) – Robotic restaurants that serve healthy fast food","date":"March 16, 2021","dateISO":"2021-03-16T08:48:47.595Z","datetime":"2021-03-16 08:48","tags":["story","Hacker News"],"image":null,"imageAlt":null,"provider":"Hacker News","thirdPartyId":"26468204","url":"https://news.ycombinator.com/item?id=26468204","originalUrl":"https://news.ycombinator.com/item?id=26468204","imageRemote":null,"video":null,"channel":null,"channelUrl":null,"author":"kolchinski","authorUrl":"https://news.ycombinator.com/user?id=kolchinski","authorImage":null,"authorSlug":null,"score":200,"views":null,"sharedCount":null,"likeCount":null,"sharedContent":null,"parent":{"__typename":"HnJson","localize":[{"title":"发布HN：Mezli（YC W21）--提供健康快餐的机器人餐厅。","locale":"zh"},{"title":"發佈HN：Mezli（YC W21）--提供健康快餐的機器人餐廳。","locale":"zh-Hant"}]}},{"__typename":"SocialMediaPost","id":"HnPost-26471883","excerpt":"","slug":"/hn/26471883","title":"How C++ Resolves a Function Call","date":"March 16, 2021","dateISO":"2021-03-16T08:29:11.366Z","datetime":"2021-03-16 08:29","tags":["story","Hacker News"],"image":null,"imageAlt":null,"provider":"Hacker News","thirdPartyId":"26471883","url":"https://news.ycombinator.com/item?id=26471883","originalUrl":"https://preshing.com/20210315/how-cpp-resolves-a-function-call/","imageRemote":"https://preshing.com/images/function-call-thumb.png","video":null,"channel":null,"channelUrl":null,"author":"pcr910303","authorUrl":"https://news.ycombinator.com/user?id=pcr910303","authorImage":null,"authorSlug":null,"score":297,"views":null,"sharedCount":null,"likeCount":null,"sharedContent":null,"parent":{"__typename":"HnJson","localize":[{"title":"C++如何解决函数调用问题","locale":"zh"},{"title":"C++如何解決函數調用問題","locale":"zh-Hant"}]}},{"__typename":"SocialMediaPost","id":"HnPost-26464063","excerpt":"","slug":"/hn/26464063","title":"Why we decided for and against Ubuntu Core","date":"March 16, 2021","dateISO":"2021-03-16T07:45:24.683Z","datetime":"2021-03-16 07:45","tags":["story","Hacker News"],"image":null,"imageAlt":null,"provider":"Hacker News","thirdPartyId":"26464063","url":"https://news.ycombinator.com/item?id=26464063","originalUrl":"https://www.nitrokey.com/news/2021/nextbox-why-we-decided-and-against-ubuntu-core","imageRemote":"https://www.nitrokey.com/sites/default/files/field/image/Ubuntu_logo_0.png","video":null,"channel":null,"channelUrl":null,"author":"thefilmore","authorUrl":"https://news.ycombinator.com/user?id=thefilmore","authorImage":null,"authorSlug":null,"score":223,"views":null,"sharedCount":null,"likeCount":null,"sharedContent":null,"parent":{"__typename":"HnJson","localize":[{"title":"为什么我们决定支持和反对Ubuntu Core？","locale":"zh"},{"title":"爲什麼我們決定支持和反對Ubuntu Core？","locale":"zh-Hant"}]}},{"__typename":"SocialMediaPost","id":"HnPost-26470546","excerpt":"","slug":"/hn/26470546","title":"Why the new USPS mail trucks look so weird","date":"March 16, 2021","dateISO":"2021-03-16T07:35:34.385Z","datetime":"2021-03-16 07:35","tags":["story","Hacker News"],"image":null,"imageAlt":null,"provider":"Hacker News","thirdPartyId":"26470546","url":"https://news.ycombinator.com/item?id=26470546","originalUrl":"https://www.thedrive.com/news/39427/heres-why-the-new-usps-mail-trucks-look-so-weird","imageRemote":"https://api.thedrive.com/wp-content/uploads/2021/02/USPS-why.jpg?quality=85","video":null,"channel":null,"channelUrl":null,"author":"minding","authorUrl":"https://news.ycombinator.com/user?id=minding","authorImage":null,"authorSlug":null,"score":262,"views":null,"sharedCount":null,"likeCount":null,"sharedContent":null,"parent":{"__typename":"HnJson","localize":[{"title":"为什么美国邮政的新邮车看起来如此怪异？","locale":"zh"},{"title":"爲什麼美國郵政的新郵車看起來如此怪異？","locale":"zh-Hant"}]}}]}},"pageContext":{"basePath":"/","pageType":"tag","tag":"story","tagsFilter":{"id":{"glob":"!*Post-1"}},"filter":{"id":{"glob":"!*Post-1"},"tags":{"eq":"story"}},"limit":25,"skip":575,"total":3104,"totalPages":125,"currentPage":24,"maxWidth":1024,"maxHeight":512,"locale":"zh-Hant","hrefLang":"zh-Hant","originalPath":"/tags/story/page/24","dateFormat":"YYYY-MM-DD"}},"staticQueryHashes":["1239077767","2506312863","2744905544","3025052997","3493603132","3493603132","3513215887","386998304"]}