{"componentChunkName":"component---gatsby-theme-buzzing-src-gatsby-theme-timeline-templates-posts-query-js","path":"/en/tags/hacker-news/page/3","result":{"data":{"site":{"siteMetadata":{"title":"Reddit 热门","description":"用中文浏览Reddit热门内容","social":[{"name":"Reddit","url":"https://www.reddit.com/","external":true,"prefetch":null},{"name":"GitHub","url":"https://github.com/gatsbyjs","external":null,"prefetch":null}],"menuLinks":[{"name":"每周精选","url":"/issues","external":null,"prefetch":null},{"name":"RSS","url":"/rss.xml","external":null,"prefetch":false}],"localize":[{"locale":"en","title":"Buzzing on Reddit","description":"See what's buzzing on Reddit in your native language","social":[{"name":"Reddit","url":"https://www.reddit.com/","external":true,"prefetch":null}],"menuLinks":[{"name":"Weekly Selection","url":"/issues","external":null,"prefetch":null},{"name":"RSS","url":"/rss.xml","external":null,"prefetch":false}]},{"locale":"zh-Hant","title":"Reddit 熱門","description":"用中文瀏覽Reddit熱門內容","social":null,"menuLinks":null}]}},"tagsGroup":{"group":[{"fieldValue":"ASK HN","totalCount":19},{"fieldValue":"Bitcoin","totalCount":3},{"fieldValue":"Hacker News","totalCount":801},{"fieldValue":"Poll","totalCount":1},{"fieldValue":"Show HN","totalCount":31},{"fieldValue":"investing","totalCount":166},{"fieldValue":"poll","totalCount":1},{"fieldValue":"reddit","totalCount":594},{"fieldValue":"science","totalCount":1},{"fieldValue":"stocks","totalCount":277},{"fieldValue":"story","totalCount":800},{"fieldValue":"tweet","totalCount":243},{"fieldValue":"wallstreetbets","totalCount":151}]},"allBlogPost":{"nodes":[{"__typename":"SocialMediaPost","id":"HnPost-25640036","excerpt":"","slug":"/hn/25640036","title":"Truck Art in Pakistan (2018)","date":"January 07, 2021","dateISO":"2021-01-07T08:52:16.273Z","datetime":"2021-01-07 08:52","tags":["story","Hacker News"],"image":null,"imageAlt":null,"provider":"Hacker News","thirdPartyId":"25640036","url":"https://news.ycombinator.com/item?id=25640036","originalUrl":"https://mymodernmet.com/pakistan-truck-art/","imageRemote":"https://mymodernmet.com/wp/wp-content/uploads/2018/04/jingle-truck-art-pakistan-thumbnail.jpg","video":null,"channel":null,"channelUrl":null,"author":"brudgers","authorUrl":"https://news.ycombinator.com/user?id=brudgers","authorImage":null,"authorSlug":null,"score":231,"views":null,"sharedCount":null,"likeCount":null,"sharedContent":null,"parent":{"__typename":"HnJson","localize":[{"title":"巴基斯坦的卡车艺术(2018年)","locale":"zh"},{"title":"巴基斯坦的卡車藝術(2018年)","locale":"zh-Hant"}]}},{"__typename":"SocialMediaPost","id":"HnPost-25662385","excerpt":"","slug":"/hn/25662385","title":"JetBrain's TeamCity May Be Entry Point for U.S. Hack","date":"January 07, 2021","dateISO":"2021-01-07T07:53:09.118Z","datetime":"2021-01-07 07:53","tags":["story","Hacker News"],"image":null,"imageAlt":null,"provider":"Hacker News","thirdPartyId":"25662385","url":"https://news.ycombinator.com/item?id=25662385","originalUrl":"http://nytimes.com/2021/01/06/us/politics/russia-cyber-hack.html","imageRemote":"https://static01.nyt.com/images/2021/01/06/us/politics/06DC-HACK/06DC-HACK-facebookJumbo.jpg","video":null,"channel":null,"channelUrl":null,"author":"ChefboyOG","authorUrl":"https://news.ycombinator.com/user?id=ChefboyOG","authorImage":null,"authorSlug":null,"score":238,"views":null,"sharedCount":null,"likeCount":null,"sharedContent":null,"parent":{"__typename":"HnJson","localize":[{"title":"JetBrain的TeamCity可能成为美国黑客的切入点","locale":"zh"},{"title":"JetBrain的TeamCity可能成爲美國黑客的切入點","locale":"zh-Hant"}]}},{"__typename":"SocialMediaPost","id":"HnPost-25659480","excerpt":"","slug":"/hn/25659480","title":"Deleting Facebook permanently","date":"January 07, 2021","dateISO":"2021-01-07T04:51:16.574Z","datetime":"2021-01-07 04:51","tags":["story","Hacker News"],"image":null,"imageAlt":null,"provider":"Hacker News","thirdPartyId":"25659480","url":"https://news.ycombinator.com/item?id=25659480","originalUrl":"https://blog.spacehey.com/entry?id=4054","imageRemote":"https://spacehey.com/img/meta.png?v=2","video":null,"channel":null,"channelUrl":null,"author":"joshmanders","authorUrl":"https://news.ycombinator.com/user?id=joshmanders","authorImage":null,"authorSlug":null,"score":222,"views":null,"sharedCount":null,"likeCount":null,"sharedContent":null,"parent":{"__typename":"HnJson","localize":[{"title":"永久删除Facebook","locale":"zh"},{"title":"永久刪除Facebook","locale":"zh-Hant"}]}},{"__typename":"SocialMediaPost","id":"HnPost-25663726","excerpt":"","slug":"/hn/25663726","title":"London will be overwhelmed by Covid in a fortnight says leaked NHS briefing","date":"January 07, 2021","dateISO":"2021-01-07T01:46:05.107Z","datetime":"2021-01-07 01:46","tags":["story","Hacker News"],"image":null,"imageAlt":null,"provider":"Hacker News","thirdPartyId":"25663726","url":"https://news.ycombinator.com/item?id=25663726","originalUrl":"https://www.hsj.co.uk/acute-care/exclusive-london-will-be-overwhelmed-by-covid-in-a-fortnight-says-leaked-nhs-england-briefing/7029264.article","imageRemote":"https://d3e6tmgg461bic.cloudfront.net/Pictures/1024x536/1/8/7/3049187_gaslide_175904.jpg","video":null,"channel":null,"channelUrl":null,"author":"biomene","authorUrl":"https://news.ycombinator.com/user?id=biomene","authorImage":null,"authorSlug":null,"score":267,"views":null,"sharedCount":null,"likeCount":null,"sharedContent":null,"parent":{"__typename":"HnJson","localize":[{"title":"泄露的NHS简报称，伦敦将在两周内被Covid淹没","locale":"zh"},{"title":"泄露的NHS簡報稱，倫敦將在兩週內被Covid淹沒","locale":"zh-Hant"}]}},{"__typename":"SocialMediaPost","id":"HnPost-25664822","excerpt":"","slug":"/hn/25664822","title":"The account of realDonaldTrump will be locked for 12 hours","date":"January 07, 2021","dateISO":"2021-01-07T01:46:05.107Z","datetime":"2021-01-07 01:46","tags":["story","Hacker News"],"image":null,"imageAlt":null,"provider":"Hacker News","thirdPartyId":"25664822","url":"https://news.ycombinator.com/item?id=25664822","originalUrl":"https://twitter.com/TwitterSafety/status/1346970431039934464","imageRemote":null,"video":null,"channel":null,"channelUrl":null,"author":"edward","authorUrl":"https://news.ycombinator.com/user?id=edward","authorImage":null,"authorSlug":null,"score":666,"views":null,"sharedCount":null,"likeCount":null,"sharedContent":null,"parent":{"__typename":"HnJson","localize":[{"title":"realDonaldTrump的账户将被锁定12小时","locale":"zh"},{"title":"realDonaldTrump的賬戶將被鎖定12小時","locale":"zh-Hant"}]}},{"__typename":"SocialMediaPost","id":"HnPost-25659498","excerpt":"","slug":"/hn/25659498","title":"The U.S. Is Building a Bike Trail That Runs Coast-to-Coast Across 12 States","date":"January 06, 2021","dateISO":"2021-01-06T23:45:23.464Z","datetime":"2021-01-06 23:45","tags":["story","Hacker News"],"image":null,"imageAlt":null,"provider":"Hacker News","thirdPartyId":"25659498","url":"https://news.ycombinator.com/item?id=25659498","originalUrl":"https://www.ecowatch.com/great-american-rail-trail-2649733595.html","imageRemote":"https://assets.rebelmouse.io/eyJhbGciOiJIUzI1NiIsInR5cCI6IkpXVCJ9.eyJpbWFnZSI6Imh0dHBzOi8vYXNzZXRzLnJibC5tcy8yNTE3NTc0Ni9vcmlnaW4uanBnIiwiZXhwaXJlc19hdCI6MTYyNjY1NjMzMX0.ZVvdZCZTVKMMFk7XkrYRvtKxx3X4nqlI7fgCs4301-k/img.jpg?width=1200&coordinates=0%2C40%2C0%2C40&height=600","video":null,"channel":null,"channelUrl":null,"author":"Xplor","authorUrl":"https://news.ycombinator.com/user?id=Xplor","authorImage":null,"authorSlug":null,"score":279,"views":null,"sharedCount":null,"likeCount":null,"sharedContent":null,"parent":{"__typename":"HnJson","localize":[{"title":"美国正在修建一条横跨12个州从东海岸到西海岸的自行车道","locale":"zh"},{"title":"美國正在修建一條橫跨12個州從東海岸到西海岸的自行車道","locale":"zh-Hant"}]}},{"__typename":"SocialMediaPost","id":"HnPost-25662215","excerpt":"","slug":"/hn/25662215","title":"WhatsApp gives users an ultimatum: Share data with FB or stop using the app","date":"January 06, 2021","dateISO":"2021-01-06T23:45:23.464Z","datetime":"2021-01-06 23:45","tags":["story","Hacker News"],"image":null,"imageAlt":null,"provider":"Hacker News","thirdPartyId":"25662215","url":"https://news.ycombinator.com/item?id=25662215","originalUrl":"https://arstechnica.com/tech-policy/2021/01/whatsapp-users-must-share-their-data-with-facebook-or-stop-using-the-app/","imageRemote":"https://cdn.arstechnica.net/wp-content/uploads/2021/01/whatsapp-760x380.jpg","video":null,"channel":null,"channelUrl":null,"author":"erwinmatijsen","authorUrl":"https://news.ycombinator.com/user?id=erwinmatijsen","authorImage":null,"authorSlug":null,"score":2160,"views":null,"sharedCount":null,"likeCount":null,"sharedContent":null,"parent":{"__typename":"HnJson","localize":[{"title":"WhatsApp向用户发出最后通牒：与FB共享数据或停止使用该应用","locale":"zh"},{"title":"WhatsApp向用戶發出最後通牒：與FB共享數據或停止使用該應用","locale":"zh-Hant"}]}},{"__typename":"SocialMediaPost","id":"HnPost-25657198","excerpt":"","slug":"/hn/25657198","title":"Show HN: I built the antithesis of Zoom. Add GIFs, stickers, BGs. Talk like IRL","date":"January 06, 2021","dateISO":"2021-01-06T23:07:35.029Z","datetime":"2021-01-06 23:07","tags":["story","Show HN","Hacker News"],"image":null,"imageAlt":null,"provider":"Hacker News","thirdPartyId":"25657198","url":"https://news.ycombinator.com/item?id=25657198","originalUrl":"https://reslash.co","imageRemote":"https://lh3.googleusercontent.com/PqDSh8jsRBkIXSVia7c2ApjQe8H-NqMZUH_g-GDw-U4phh5Ce3lSOIiVWMZarby8BItOmiqU1sxKAevJtiRX=s0","video":null,"channel":"Show HN","channelUrl":"https://news.ycombinator.com/show","author":"remotelyyours","authorUrl":"https://news.ycombinator.com/user?id=remotelyyours","authorImage":null,"authorSlug":null,"score":262,"views":null,"sharedCount":null,"likeCount":null,"sharedContent":null,"parent":{"__typename":"HnJson","localize":[{"title":"HN新产品：我建立了缩放的对立面。添加GIF、贴纸、BGS。像现实中的我那样说话","locale":"zh"},{"title":"HN新產品：我建立了縮放的對立面。添加GIF、貼紙、BGS。像現實中的我那樣說話","locale":"zh-Hant"}]}},{"__typename":"SocialMediaPost","id":"HnPost-25659615","excerpt":"","slug":"/hn/25659615","title":"Memory access on the Apple M1 processor","date":"January 06, 2021","dateISO":"2021-01-06T22:31:57.015Z","datetime":"2021-01-06 22:31","tags":["story","Hacker News"],"image":null,"imageAlt":null,"provider":"Hacker News","thirdPartyId":"25659615","url":"https://news.ycombinator.com/item?id=25659615","originalUrl":"https://lemire.me/blog/2021/01/06/memory-access-on-the-apple-m1-processor/","imageRemote":"https://lemire.me/img/portrait2018facebook.jpg","video":null,"channel":null,"channelUrl":null,"author":"luigi23","authorUrl":"https://news.ycombinator.com/user?id=luigi23","authorImage":null,"authorSlug":null,"score":363,"views":null,"sharedCount":null,"likeCount":null,"sharedContent":null,"parent":{"__typename":"HnJson","localize":[{"title":"Apple M1处理器上的内存访问","locale":"zh"},{"title":"Apple M1處理器上的內存訪問","locale":"zh-Hant"}]}},{"__typename":"SocialMediaPost","id":"HnPost-25656855","excerpt":"","slug":"/hn/25656855","title":"Trump bans Alipay and seven other Chinese apps","date":"January 06, 2021","dateISO":"2021-01-06T21:01:46.553Z","datetime":"2021-01-06 21:01","tags":["story","Hacker News"],"image":null,"imageAlt":null,"provider":"Hacker News","thirdPartyId":"25656855","url":"https://news.ycombinator.com/item?id=25656855","originalUrl":"https://www.bbc.com/news/business-55555269","imageRemote":"https://ichef.bbci.co.uk/news/1024/branded_news/8102/production/_116362033_gettyimages-1229450912.jpg","video":null,"channel":null,"channelUrl":null,"author":"tigerlily","authorUrl":"https://news.ycombinator.com/user?id=tigerlily","authorImage":null,"authorSlug":null,"score":223,"views":null,"sharedCount":null,"likeCount":null,"sharedContent":null,"parent":{"__typename":"HnJson","localize":[{"title":"特朗普禁止支付宝和其他七款中国应用","locale":"zh"},{"title":"特朗普禁止支付寶和其他七款中國應用","locale":"zh-Hant"}]}},{"__typename":"SocialMediaPost","id":"HnPost-25661474","excerpt":"","slug":"/hn/25661474","title":"U.S. Capitol Locked Down Amid Escalating Protests","date":"January 06, 2021","dateISO":"2021-01-06T20:42:54.694Z","datetime":"2021-01-06 20:42","tags":["story","Hacker News"],"image":null,"imageAlt":null,"provider":"Hacker News","thirdPartyId":"25661474","url":"https://news.ycombinator.com/item?id=25661474","originalUrl":"https://www.npr.org/sections/congress-electoral-college-tally-live-updates/2021/01/06/954028436/u-s-capitol-locked-down-amid-escalating-far-right-protests","imageRemote":"https://media.npr.org/assets/img/2021/01/06/ap21006702439804-edit_wide-0e4a75b5d28f1994337cee35f83d3918f9c8858f.jpg?s=1400","video":null,"channel":null,"channelUrl":null,"author":"fortran77","authorUrl":"https://news.ycombinator.com/user?id=fortran77","authorImage":null,"authorSlug":null,"score":1966,"views":null,"sharedCount":null,"likeCount":null,"sharedContent":null,"parent":{"__typename":"HnJson","localize":[{"title":"美国国会大厦在不断升级的抗议活动中被封锁","locale":"zh"},{"title":"美國國會大廈在不斷升級的抗議活動中被封鎖","locale":"zh-Hant"}]}},{"__typename":"SocialMediaPost","id":"HnPost-25654948","excerpt":"","slug":"/hn/25654948","title":"DOSBox-X: Free, cross-platform and complete DOS, Windows 3.x and 9x emulation","date":"January 06, 2021","dateISO":"2021-01-06T18:53:12.190Z","datetime":"2021-01-06 18:53","tags":["story","Hacker News"],"image":null,"imageAlt":null,"provider":"Hacker News","thirdPartyId":"25654948","url":"https://news.ycombinator.com/item?id=25654948","originalUrl":"https://dosbox-x.com/","imageRemote":"https://dosbox-x.com/images/dosbox-x-logo.svg","video":null,"channel":null,"channelUrl":null,"author":"FlyMoreRockets","authorUrl":"https://news.ycombinator.com/user?id=FlyMoreRockets","authorImage":null,"authorSlug":null,"score":242,"views":null,"sharedCount":null,"likeCount":null,"sharedContent":null,"parent":{"__typename":"HnJson","localize":[{"title":"DOSBOX-X：免费、跨平台、完整的DOS、Windows 3.x和9x仿真","locale":"zh"},{"title":"DOSBOX-X：免費、跨平臺、完整的DOS、Windows 3.x和9x仿真","locale":"zh-Hant"}]}},{"__typename":"SocialMediaPost","id":"HnPost-25656993","excerpt":"","slug":"/hn/25656993","title":"How WhatsApp works with other Facebook products","date":"January 06, 2021","dateISO":"2021-01-06T18:53:12.190Z","datetime":"2021-01-06 18:53","tags":["story","Hacker News"],"image":null,"imageAlt":null,"provider":"Hacker News","thirdPartyId":"25656993","url":"https://news.ycombinator.com/item?id=25656993","originalUrl":"https://www.whatsapp.com/legal/updates/privacy-policy?eea=0#privacy-policy-updates-how-we-work-with-other-facebook-companies","imageRemote":"https://static.whatsapp.net/rsrc.php/v3/yO/r/FsWUqRoOsPu.png","video":null,"channel":null,"channelUrl":null,"author":"woliveirajr","authorUrl":"https://news.ycombinator.com/user?id=woliveirajr","authorImage":null,"authorSlug":null,"score":324,"views":null,"sharedCount":null,"likeCount":null,"sharedContent":null,"parent":{"__typename":"HnJson","localize":[{"title":"WhatsApp如何与其他Facebook产品配合使用","locale":"zh"},{"title":"WhatsApp如何與其他Facebook產品配合使用","locale":"zh-Hant"}]}},{"__typename":"SocialMediaPost","id":"HnPost-25658098","excerpt":"","slug":"/hn/25658098","title":"Facebook senior software engineer interview","date":"January 06, 2021","dateISO":"2021-01-06T18:53:12.190Z","datetime":"2021-01-06 18:53","tags":["story","Hacker News"],"image":null,"imageAlt":null,"provider":"Hacker News","thirdPartyId":"25658098","url":"https://news.ycombinator.com/item?id=25658098","originalUrl":"https://daqo.medium.com/facebook-senior-software-engineer-interview-the-only-post-youll-need-to-read-e4604ff2336d","imageRemote":"https://miro.medium.com/max/1200/1*Z8kWGSBcRwfu3lKdiziyCQ.jpeg","video":null,"channel":null,"channelUrl":null,"author":"hpux","authorUrl":"https://news.ycombinator.com/user?id=hpux","authorImage":null,"authorSlug":null,"score":414,"views":null,"sharedCount":null,"likeCount":null,"sharedContent":null,"parent":{"__typename":"HnJson","localize":[{"title":"Facebook高级软件工程师访谈","locale":"zh"},{"title":"Facebook高級軟件工程師訪談","locale":"zh-Hant"}]}},{"__typename":"SocialMediaPost","id":"HnPost-25657311","excerpt":"","slug":"/hn/25657311","title":"GNU Units","date":"January 06, 2021","dateISO":"2021-01-06T18:12:23.840Z","datetime":"2021-01-06 18:12","tags":["story","Hacker News"],"image":null,"imageAlt":null,"provider":"Hacker News","thirdPartyId":"25657311","url":"https://news.ycombinator.com/item?id=25657311","originalUrl":"https://www.gnu.org/software/units/","imageRemote":"https://www.gnu.org/server/banners/fence.png","video":null,"channel":null,"channelUrl":null,"author":"tosh","authorUrl":"https://news.ycombinator.com/user?id=tosh","authorImage":null,"authorSlug":null,"score":413,"views":null,"sharedCount":null,"likeCount":null,"sharedContent":null,"parent":{"__typename":"HnJson","localize":[{"title":"GNU单位","locale":"zh"},{"title":"GNU單位","locale":"zh-Hant"}]}},{"__typename":"SocialMediaPost","id":"HnPost-25658216","excerpt":"","slug":"/hn/25658216","title":"What I’ve Learned in 45 Years in the Software Industry","date":"January 06, 2021","dateISO":"2021-01-06T18:12:23.840Z","datetime":"2021-01-06 18:12","tags":["story","Hacker News"],"image":null,"imageAlt":null,"provider":"Hacker News","thirdPartyId":"25658216","url":"https://news.ycombinator.com/item?id=25658216","originalUrl":"https://www.bti360.com/what-ive-learned-in-45-years-in-the-software-industry/","imageRemote":"https://www.bti360.com/wp-content/uploads/2021/01/2021-Goldberg-Wisdom-Twitter.jpg","video":null,"channel":null,"channelUrl":null,"author":"FauxDemure","authorUrl":"https://news.ycombinator.com/user?id=FauxDemure","authorImage":null,"authorSlug":null,"score":1208,"views":null,"sharedCount":null,"likeCount":null,"sharedContent":null,"parent":{"__typename":"HnJson","localize":[{"title":"我在软件行业45年里学到了什么","locale":"zh"},{"title":"我在軟件行業45年裏學到了什麼","locale":"zh-Hant"}]}},{"__typename":"SocialMediaPost","id":"HnPost-25654222","excerpt":"","slug":"/hn/25654222","title":"What I Use Instead of Google","date":"January 06, 2021","dateISO":"2021-01-06T17:02:25.115Z","datetime":"2021-01-06 17:02","tags":["story","Hacker News"],"image":null,"imageAlt":null,"provider":"Hacker News","thirdPartyId":"25654222","url":"https://news.ycombinator.com/item?id=25654222","originalUrl":"https://kiramclean.com/blog/what-i-use-now-instead-of-google/","imageRemote":"https://kiramclean.com/assets/images/logo.png","video":null,"channel":null,"channelUrl":null,"author":"kmclean","authorUrl":"https://news.ycombinator.com/user?id=kmclean","authorImage":null,"authorSlug":null,"score":278,"views":null,"sharedCount":null,"likeCount":null,"sharedContent":null,"parent":{"__typename":"HnJson","localize":[{"title":"我使用的是什么而不是Google","locale":"zh"},{"title":"我使用的是什麼而不是Google","locale":"zh-Hant"}]}},{"__typename":"SocialMediaPost","id":"HnPost-25655423","excerpt":"","slug":"/hn/25655423","title":"Jim Keller moves to AI chip startup","date":"January 06, 2021","dateISO":"2021-01-06T17:02:25.115Z","datetime":"2021-01-06 17:02","tags":["story","Hacker News"],"image":null,"imageAlt":null,"provider":"Hacker News","thirdPartyId":"25655423","url":"https://news.ycombinator.com/item?id=25655423","originalUrl":"https://www.reuters.com/article/tenstorrent-tech/moves-former-intel-tesla-chip-exec-jim-keller-joins-artificial-intelligence-startup-idUSL1N2JG2I6","imageRemote":"https://s1.reutersmedia.net/resources_v2/images/rcom-default.png?w=800","video":null,"channel":null,"channelUrl":null,"author":"vnorilo","authorUrl":"https://news.ycombinator.com/user?id=vnorilo","authorImage":null,"authorSlug":null,"score":278,"views":null,"sharedCount":null,"likeCount":null,"sharedContent":null,"parent":{"__typename":"HnJson","localize":[{"title":"吉姆·凯勒转投AI芯片初创公司","locale":"zh"},{"title":"吉姆·凱勒轉投AI芯片初創公司","locale":"zh-Hant"}]}},{"__typename":"SocialMediaPost","id":"HnPost-25656827","excerpt":"","slug":"/hn/25656827","title":"Simulating the PIN cracking scene in Terminator 2","date":"January 06, 2021","dateISO":"2021-01-06T15:32:20.316Z","datetime":"2021-01-06 15:32","tags":["story","Hacker News"],"image":null,"imageAlt":null,"provider":"Hacker News","thirdPartyId":"25656827","url":"https://news.ycombinator.com/item?id=25656827","originalUrl":"https://bert.org/2021/01/04/t2-pin-cracking/","imageRemote":"https://bert.org/assets/posts/pinid/wargames.jpg","video":null,"channel":null,"channelUrl":null,"author":"fanf2","authorUrl":"https://news.ycombinator.com/user?id=fanf2","authorImage":null,"authorSlug":null,"score":427,"views":null,"sharedCount":null,"likeCount":null,"sharedContent":null,"parent":{"__typename":"HnJson","localize":[{"title":"在“终结者2”中模拟PIN破解场景","locale":"zh"},{"title":"在“終結者2”中模擬PIN破解場景","locale":"zh-Hant"}]}},{"__typename":"SocialMediaPost","id":"HnPost-25655066","excerpt":"","slug":"/hn/25655066","title":"US doctor forgives $650k in medical bills for cancer patients","date":"January 06, 2021","dateISO":"2021-01-06T14:05:20.219Z","datetime":"2021-01-06 14:05","tags":["story","Hacker News"],"image":null,"imageAlt":null,"provider":"Hacker News","thirdPartyId":"25655066","url":"https://news.ycombinator.com/item?id=25655066","originalUrl":"https://www.bbc.com/news/world-us-canada-55544496","imageRemote":"https://ichef.bbci.co.uk/news/1024/branded_news/13A29/production/_116352408_gettyimages-515662930.jpg","video":null,"channel":null,"channelUrl":null,"author":"williamsharris","authorUrl":"https://news.ycombinator.com/user?id=williamsharris","authorImage":null,"authorSlug":null,"score":276,"views":null,"sharedCount":null,"likeCount":null,"sharedContent":null,"parent":{"__typename":"HnJson","localize":[{"title":"美国一位医生原谅癌症患者65万美元的医药费","locale":"zh"},{"title":"美國一位醫生原諒癌症患者65萬美元的醫藥費","locale":"zh-Hant"}]}},{"__typename":"SocialMediaPost","id":"HnPost-25655346","excerpt":"","slug":"/hn/25655346","title":"How the placenta evolved from an ancient virus","date":"January 06, 2021","dateISO":"2021-01-06T14:05:20.219Z","datetime":"2021-01-06 14:05","tags":["story","Hacker News"],"image":null,"imageAlt":null,"provider":"Hacker News","thirdPartyId":"25655346","url":"https://news.ycombinator.com/item?id=25655346","originalUrl":"https://whyy.org/segments/the-placenta-went-viral-and-protomammals-were-born/","imageRemote":"https://whyy.org/wp-content/uploads/2020/01/bigstock-Dreaming-Of-Unborn-Child-37748992-facebook.jpg","video":null,"channel":null,"channelUrl":null,"author":"_Microft","authorUrl":"https://news.ycombinator.com/user?id=_Microft","authorImage":null,"authorSlug":null,"score":382,"views":null,"sharedCount":null,"likeCount":null,"sharedContent":null,"parent":{"__typename":"HnJson","localize":[{"title":"胎盘是如何从一种古老的病毒进化而来的","locale":"zh"},{"title":"胎盤是如何從一種古老的病毒進化而來的","locale":"zh-Hant"}]}},{"__typename":"SocialMediaPost","id":"HnPost-25654118","excerpt":"","slug":"/hn/25654118","title":"Deep-learning text-to-speech tool for generating voices of various characters","date":"January 06, 2021","dateISO":"2021-01-06T13:52:12.725Z","datetime":"2021-01-06 13:52","tags":["story","Hacker News"],"image":null,"imageAlt":null,"provider":"Hacker News","thirdPartyId":"25654118","url":"https://news.ycombinator.com/item?id=25654118","originalUrl":"https://15.ai/","imageRemote":null,"video":null,"channel":null,"channelUrl":null,"author":"clxxx","authorUrl":"https://news.ycombinator.com/user?id=clxxx","authorImage":null,"authorSlug":null,"score":278,"views":null,"sharedCount":null,"likeCount":null,"sharedContent":null,"parent":{"__typename":"HnJson","localize":[{"title":"一种用于生成各种文字语音的深度学习文语转换工具","locale":"zh"},{"title":"一種用於生成各種文字語音的深度學習文語轉換工具","locale":"zh-Hant"}]}},{"__typename":"SocialMediaPost","id":"HnPost-25654504","excerpt":"","slug":"/hn/25654504","title":"We Built a Facebook Inspector","date":"January 06, 2021","dateISO":"2021-01-06T13:52:12.725Z","datetime":"2021-01-06 13:52","tags":["story","Hacker News"],"image":null,"imageAlt":null,"provider":"Hacker News","thirdPartyId":"25654504","url":"https://news.ycombinator.com/item?id=25654504","originalUrl":"https://themarkup.org/citizen-browser/2021/01/05/how-we-built-a-facebook-inspector","imageRemote":"https://mrkp-static-production.themarkup.org/uploads/2021/01/syw-georgia-illo-1200x628.jpg","video":null,"channel":null,"channelUrl":null,"author":"atg_abhishek","authorUrl":"https://news.ycombinator.com/user?id=atg_abhishek","authorImage":null,"authorSlug":null,"score":279,"views":null,"sharedCount":null,"likeCount":null,"sharedContent":null,"parent":{"__typename":"HnJson","localize":[{"title":"我们建立了一个Facebook Inspector","locale":"zh"},{"title":"我們建立了一個Facebook Inspector","locale":"zh-Hant"}]}},{"__typename":"SocialMediaPost","id":"HnPost-25627673","excerpt":"","slug":"/hn/25627673","title":"Show HN: Lightspeed – subsecond, open source, self hosted stream from OBS","date":"January 06, 2021","dateISO":"2021-01-06T09:56:27.782Z","datetime":"2021-01-06 09:56","tags":["story","Show HN","Hacker News"],"image":null,"imageAlt":null,"provider":"Hacker News","thirdPartyId":"25627673","url":"https://news.ycombinator.com/item?id=25627673","originalUrl":"https://github.com/GRVYDEV/Project-Lightspeed","imageRemote":"https://avatars1.githubusercontent.com/u/35381942?s=400&v=4","video":null,"channel":"Show HN","channelUrl":"https://news.ycombinator.com/show","author":"GRVYDEV","authorUrl":"https://news.ycombinator.com/user?id=GRVYDEV","authorImage":null,"authorSlug":null,"score":449,"views":null,"sharedCount":null,"likeCount":null,"sharedContent":null,"parent":{"__typename":"HnJson","localize":[{"title":"HN新产品：光速-亚秒级、开源、来自OBS的自托管流","locale":"zh"},{"title":"HN新產品：光速-亞秒級、開源、來自OBS的自託管流","locale":"zh-Hant"}]}},{"__typename":"SocialMediaPost","id":"HnPost-25630140","excerpt":"","slug":"/hn/25630140","title":"Taking FOSDEM online via Matrix","date":"January 06, 2021","dateISO":"2021-01-06T09:56:27.782Z","datetime":"2021-01-06 09:56","tags":["story","Hacker News"],"image":null,"imageAlt":null,"provider":"Hacker News","thirdPartyId":"25630140","url":"https://news.ycombinator.com/item?id=25630140","originalUrl":"https://matrix.org/blog/2021/01/04/taking-fosdem-online-via-matrix","imageRemote":"https://matrix.org/blog/img/2021-01-04-fosdem.jpg","video":null,"channel":null,"channelUrl":null,"author":"neiljohnson","authorUrl":"https://news.ycombinator.com/user?id=neiljohnson","authorImage":null,"authorSlug":null,"score":213,"views":null,"sharedCount":null,"likeCount":null,"sharedContent":null,"parent":{"__typename":"HnJson","localize":[{"title":"通过矩阵实现FOSDEM在线","locale":"zh"},{"title":"通過矩陣實現FOSDEM在線","locale":"zh-Hant"}]}}]}},"pageContext":{"basePath":"/","pageType":"tag","tag":"Hacker News","tagsFilter":{"id":{"glob":"!*Post-1"}},"filter":{"id":{"glob":"!*Post-1"},"tags":{"eq":"Hacker News"}},"limit":25,"skip":50,"total":801,"totalPages":33,"currentPage":3,"maxWidth":1024,"maxHeight":512,"locale":"en","hrefLang":"en-US","originalPath":"/tags/hacker-news/page/3","dateFormat":"MM/DD/YYYY"}},"staticQueryHashes":["1239077767","2506312863","2744905544","3493603132","3493603132","3513215887","386998304"]}