{"componentChunkName":"component---gatsby-theme-buzzing-src-gatsby-theme-timeline-templates-posts-query-js","path":"/zh-Hant/tags/story/page/28","result":{"data":{"site":{"siteMetadata":{"title":"Reddit 热门","description":"用中文浏览Reddit热门内容","social":[{"name":"Twitter","url":"https://twitter.com/gatsbyjs","external":null,"prefetch":null},{"name":"GitHub","url":"https://github.com/gatsbyjs","external":null,"prefetch":null}],"menuLinks":[],"localize":[{"locale":"en","title":"Buzzing on Reddit","description":"See what's buzzing on Reddit in your native language","social":[{"name":"Reddit","url":"https://www.reddit.com/","external":true,"prefetch":null}],"menuLinks":[{"name":"Weekly Selection","url":"/issues","external":null,"prefetch":null},{"name":"RSS","url":"/rss.xml","external":null,"prefetch":false}]},{"locale":"zh-Hant","title":"Reddit 熱門","description":"用中文瀏覽Reddit熱門內容","social":null,"menuLinks":null}]}},"tagsGroup":{"group":[{"fieldValue":"ASK HN","totalCount":44},{"fieldValue":"Bitcoin","totalCount":4},{"fieldValue":"Hacker News","totalCount":2600},{"fieldValue":"Poll","totalCount":1},{"fieldValue":"SaveAMC","totalCount":1},{"fieldValue":"Show HN","totalCount":89},{"fieldValue":"bitcoin","totalCount":3},{"fieldValue":"investing","totalCount":797},{"fieldValue":"poll","totalCount":1},{"fieldValue":"reddit","totalCount":4938},{"fieldValue":"science","totalCount":1},{"fieldValue":"stocks","totalCount":1592},{"fieldValue":"story","totalCount":2599},{"fieldValue":"tweet","totalCount":814},{"fieldValue":"wallstreetbets","totalCount":2549}]},"allBlogPost":{"nodes":[{"__typename":"SocialMediaPost","id":"HnPost-26215640","excerpt":"","slug":"/hn/26215640","title":"Commenting vs. Making","date":"February 21, 2021","dateISO":"2021-02-21T19:53:30.526Z","datetime":"2021-02-21 19:53","tags":["story","Hacker News"],"image":null,"imageAlt":null,"provider":"Hacker News","thirdPartyId":"26215640","url":"https://news.ycombinator.com/item?id=26215640","originalUrl":"https://chiefofstuff.substack.com/p/commenting-vs-making","imageRemote":"https://cdn.substack.com/image/fetch/w_1200,c_limit,f_jpg,q_auto:good,fl_progressive:steep/https%3A%2F%2Fbucketeer-e05bbc84-baa3-437e-9518-adb32be77984.s3.amazonaws.com%2Fpublic%2Fimages%2F8a17fda3-76f4-463c-8ab3-1df2ac511730_2086x1669.jpeg","video":null,"channel":null,"channelUrl":null,"author":"tosh","authorUrl":"https://news.ycombinator.com/user?id=tosh","authorImage":null,"authorSlug":null,"score":306,"views":null,"sharedCount":null,"likeCount":null,"sharedContent":null,"parent":{"__typename":"HnJson","localize":[{"title":"评论与制作","locale":"zh"},{"title":"評論與製作","locale":"zh-Hant"}]}},{"__typename":"SocialMediaPost","id":"HnPost-26192201","excerpt":"","slug":"/hn/26192201","title":"Nvidia Limits RTX 3060 Hash Rate","date":"February 21, 2021","dateISO":"2021-02-21T17:50:37.247Z","datetime":"2021-02-21 17:50","tags":["story","Hacker News"],"image":null,"imageAlt":null,"provider":"Hacker News","thirdPartyId":"26192201","url":"https://news.ycombinator.com/item?id=26192201","originalUrl":"https://www.tomshardware.com/news/nvidia-announces-cryptocurrency-mining-processor-gpu-line","imageRemote":"https://cdn.mos.cms.futurecdn.net/EMHvX44yB6LJhARA6mYt4B-1200-80.jpg","video":null,"channel":null,"channelUrl":null,"author":"stambros","authorUrl":"https://news.ycombinator.com/user?id=stambros","authorImage":null,"authorSlug":null,"score":280,"views":null,"sharedCount":null,"likeCount":null,"sharedContent":null,"parent":{"__typename":"HnJson","localize":[{"title":"Nvidia限制RTX 3060哈希率","locale":"zh"},{"title":"Nvidia限制RTX 3060哈希率","locale":"zh-Hant"}]}},{"__typename":"SocialMediaPost","id":"HnPost-26212208","excerpt":"","slug":"/hn/26212208","title":"The Beirut Bank Job (2017)","date":"February 21, 2021","dateISO":"2021-02-21T13:47:28.964Z","datetime":"2021-02-21 13:47","tags":["story","Hacker News"],"image":null,"imageAlt":null,"provider":"Hacker News","thirdPartyId":"26212208","url":"https://news.ycombinator.com/item?id=26212208","originalUrl":"https://darknetdiaries.com/episode/6/","imageRemote":"https://darknetdiaries.com/imgs/jaysonstreet.jpg","video":null,"channel":null,"channelUrl":null,"author":"mleonhard","authorUrl":"https://news.ycombinator.com/user?id=mleonhard","authorImage":null,"authorSlug":null,"score":280,"views":null,"sharedCount":null,"likeCount":null,"sharedContent":null,"parent":{"__typename":"HnJson","localize":[{"title":"贝鲁特银行工作(2017)","locale":"zh"},{"title":"貝魯特銀行工作(2017)","locale":"zh-Hant"}]}},{"__typename":"SocialMediaPost","id":"HnPost-26209541","excerpt":"","slug":"/hn/26209541","title":"Find the Hard Work You're Willing to Do (2018)","date":"February 21, 2021","dateISO":"2021-02-21T13:31:11.008Z","datetime":"2021-02-21 13:31","tags":["story","Hacker News"],"image":null,"imageAlt":null,"provider":"Hacker News","thirdPartyId":"26209541","url":"https://news.ycombinator.com/item?id=26209541","originalUrl":"http://www.cs.uni.edu/%7Ewallingf/blog/archives/monthly/2018-10.html#e2018-10-21T09_53_29.htm","imageRemote":"http://www.cs.uni.edu/~wallingf/blog-images/conferences/strangeloop2018/the-view-from-stifel.jpg","video":null,"channel":null,"channelUrl":null,"author":"shagie","authorUrl":"https://news.ycombinator.com/user?id=shagie","authorImage":null,"authorSlug":null,"score":212,"views":null,"sharedCount":null,"likeCount":null,"sharedContent":null,"parent":{"__typename":"HnJson","localize":[{"title":"找到你愿意做的苦差事(2018)","locale":"zh"},{"title":"找到你願意做的苦差事(2018)","locale":"zh-Hant"}]}},{"__typename":"SocialMediaPost","id":"HnPost-26211721","excerpt":"","slug":"/hn/26211721","title":"Boringtechnology.club","date":"February 21, 2021","dateISO":"2021-02-21T13:22:01.778Z","datetime":"2021-02-21 13:22","tags":["story","Hacker News"],"image":null,"imageAlt":null,"provider":"Hacker News","thirdPartyId":"26211721","url":"https://news.ycombinator.com/item?id=26211721","originalUrl":"http://boringtechnology.club/","imageRemote":"http://boringtechnology.club/slides/slides.001.jpeg","video":null,"channel":null,"channelUrl":null,"author":"asyrafql","authorUrl":"https://news.ycombinator.com/user?id=asyrafql","authorImage":null,"authorSlug":null,"score":596,"views":null,"sharedCount":null,"likeCount":null,"sharedContent":null,"parent":{"__typename":"HnJson","localize":[{"title":"Boringtechnology.club","locale":"zh"},{"title":"Boringtechnology.club","locale":"zh-Hant"}]}},{"__typename":"SocialMediaPost","id":"HnPost-26207965","excerpt":"","slug":"/hn/26207965","title":"Debian Packages That Need Lovin'","date":"February 21, 2021","dateISO":"2021-02-21T09:55:09.361Z","datetime":"2021-02-21 09:55","tags":["story","Hacker News"],"image":null,"imageAlt":null,"provider":"Hacker News","thirdPartyId":"26207965","url":"https://news.ycombinator.com/item?id=26207965","originalUrl":"https://wnpp.debian.net/","imageRemote":"https://wnpp.debian.net/static/images/feed-icon.png","video":null,"channel":null,"channelUrl":null,"author":"spyc","authorUrl":"https://news.ycombinator.com/user?id=spyc","authorImage":null,"authorSlug":null,"score":201,"views":null,"sharedCount":null,"likeCount":null,"sharedContent":null,"parent":{"__typename":"HnJson","localize":[{"title":"需要爱护的 Debian 软件包","locale":"zh"},{"title":"需要愛護的 Debian 軟件包","locale":"zh-Hant"}]}},{"__typename":"SocialMediaPost","id":"HnPost-26211670","excerpt":"","slug":"/hn/26211670","title":"A Dishonest, Indifferent, and Toxic Culture","date":"February 21, 2021","dateISO":"2021-02-21T09:29:02.361Z","datetime":"2021-02-21 09:29","tags":["story","Hacker News"],"image":null,"imageAlt":null,"provider":"Hacker News","thirdPartyId":"26211670","url":"https://news.ycombinator.com/item?id=26211670","originalUrl":"https://huixiangvoice.medium.com/a-dishonest-indifferent-and-toxic-culture-113339aa67e9","imageRemote":"https://miro.medium.com/max/1200/1*CEQOm22tPmLx0hrSxRJ-9g.png","video":null,"channel":null,"channelUrl":null,"author":"brzozowski","authorUrl":"https://news.ycombinator.com/user?id=brzozowski","authorImage":null,"authorSlug":null,"score":458,"views":null,"sharedCount":null,"likeCount":null,"sharedContent":null,"parent":{"__typename":"HnJson","localize":[{"title":"不诚实、冷漠、有毒的文化。","locale":"zh"},{"title":"不誠實、冷漠、有毒的文化。","locale":"zh-Hant"}]}},{"__typename":"SocialMediaPost","id":"HnPost-26207539","excerpt":"","slug":"/hn/26207539","title":"California would decriminalize psychedelics, paving way for medical treatment","date":"February 21, 2021","dateISO":"2021-02-21T05:43:59.411Z","datetime":"2021-02-21 05:43","tags":["story","Hacker News"],"image":null,"imageAlt":null,"provider":"Hacker News","thirdPartyId":"26207539","url":"https://news.ycombinator.com/item?id=26207539","originalUrl":"https://www.theguardian.com/us-news/2021/feb/17/california-bill-decriminalize-psychedelic-drugs","imageRemote":"https://i.guim.co.uk/img/media/12ff06749f0a480e2007b6b01e8bbe79a08cbef5/0_471_4612_2768/master/4612.jpg?width=1200&height=630&quality=85&auto=format&fit=crop&overlay-align=bottom%2Cleft&overlay-width=100p&overlay-base64=L2ltZy9zdGF0aWMvb3ZlcmxheXMvdGctZGVmYXVsdC5wbmc&enable=upscale&s=d6378cc2e82ff1a6a7b1e7829efab9a7","video":null,"channel":null,"channelUrl":null,"author":"lelf","authorUrl":"https://news.ycombinator.com/user?id=lelf","authorImage":null,"authorSlug":null,"score":198,"views":null,"sharedCount":null,"likeCount":null,"sharedContent":null,"parent":{"__typename":"HnJson","localize":[{"title":"加州将使迷幻药非刑罪化，为医疗铺平道路。","locale":"zh"},{"title":"加州將使迷幻藥非刑罪化，爲醫療鋪平道路。","locale":"zh-Hant"}]}},{"__typename":"SocialMediaPost","id":"HnPost-26209345","excerpt":"","slug":"/hn/26209345","title":"OpenBSD boots multi-user on Apple M1 hardware","date":"February 21, 2021","dateISO":"2021-02-21T04:52:06.092Z","datetime":"2021-02-21 04:52","tags":["story","Hacker News"],"image":null,"imageAlt":null,"provider":"Hacker News","thirdPartyId":"26209345","url":"https://news.ycombinator.com/item?id=26209345","originalUrl":"https://marc.info/?l=openbsd-arm&m=161386122115249&w=2","imageRemote":null,"video":null,"channel":null,"channelUrl":null,"author":"zdw","authorUrl":"https://news.ycombinator.com/user?id=zdw","authorImage":null,"authorSlug":null,"score":307,"views":null,"sharedCount":null,"likeCount":null,"sharedContent":null,"parent":{"__typename":"HnJson","localize":[{"title":"OpenBSD在苹果M1硬件上启动多用户","locale":"zh"},{"title":"OpenBSD在蘋果M1硬件上啓動多用戶","locale":"zh-Hant"}]}},{"__typename":"SocialMediaPost","id":"HnPost-26207184","excerpt":"","slug":"/hn/26207184","title":"We live in an age of distractions, dealing with constant mental stimulus","date":"February 21, 2021","dateISO":"2021-02-21T03:34:05.828Z","datetime":"2021-02-21 03:34","tags":["story","Hacker News"],"image":null,"imageAlt":null,"provider":"Hacker News","thirdPartyId":"26207184","url":"https://news.ycombinator.com/item?id=26207184","originalUrl":"https://www.lostbookofsales.com/age-of-distractions/","imageRemote":"https://www.lostbookofsales.com/content/images/2021/02/lbs-distractions-santeri-liukkonen.jpg","video":null,"channel":null,"channelUrl":null,"author":"iamsanteri","authorUrl":"https://news.ycombinator.com/user?id=iamsanteri","authorImage":null,"authorSlug":null,"score":400,"views":null,"sharedCount":null,"likeCount":null,"sharedContent":null,"parent":{"__typename":"HnJson","localize":[{"title":"我们生活在一个心烦意乱的时代，要面对不断的精神刺激。","locale":"zh"},{"title":"我們生活在一個心煩意亂的時代，要面對不斷的精神刺激。","locale":"zh-Hant"}]}},{"__typename":"SocialMediaPost","id":"HnPost-26208988","excerpt":"","slug":"/hn/26208988","title":"NASA Has Decided to Start Building the Lunar Gateway Using the Falcon Heavy","date":"February 21, 2021","dateISO":"2021-02-21T02:49:36.576Z","datetime":"2021-02-21 02:49","tags":["story","Hacker News"],"image":null,"imageAlt":null,"provider":"Hacker News","thirdPartyId":"26208988","url":"https://news.ycombinator.com/item?id=26208988","originalUrl":"https://www.universetoday.com/150124/nasa-has-decided-to-start-building-the-lunar-gateway-using-the-falcon-heavy/","imageRemote":"https://www.universetoday.com/wp-content/uploads/2021/02/iac5_gateway_ppehalo_001.jpg","video":null,"channel":null,"channelUrl":null,"author":"CapitalistCartr","authorUrl":"https://news.ycombinator.com/user?id=CapitalistCartr","authorImage":null,"authorSlug":null,"score":382,"views":null,"sharedCount":null,"likeCount":null,"sharedContent":null,"parent":{"__typename":"HnJson","localize":[{"title":"美国宇航局已决定开始使用 \"猎鹰重型 \"建造月球门户。","locale":"zh"},{"title":"美國宇航局已決定開始使用 \"獵鷹重型 \"建造月球門戶。","locale":"zh-Hant"}]}},{"__typename":"SocialMediaPost","id":"HnPost-26207049","excerpt":"","slug":"/hn/26207049","title":"Adversarial.io – Fighting mass image recognition","date":"February 21, 2021","dateISO":"2021-02-21T02:08:38.082Z","datetime":"2021-02-21 02:08","tags":["story","Hacker News"],"image":null,"imageAlt":null,"provider":"Hacker News","thirdPartyId":"26207049","url":"https://news.ycombinator.com/item?id=26207049","originalUrl":"https://adversarial.io","imageRemote":"https://adversarial.io/wp-content/uploads/2020/02/0d85e0103989c850_noise.png","video":null,"channel":null,"channelUrl":null,"author":"petecooper","authorUrl":"https://news.ycombinator.com/user?id=petecooper","authorImage":null,"authorSlug":null,"score":248,"views":null,"sharedCount":null,"likeCount":null,"sharedContent":null,"parent":{"__typename":"HnJson","localize":[{"title":"Adversarial.io - 打击大规模图像识别。","locale":"zh"},{"title":"Adversarial.io - 打擊大規模圖像識別。","locale":"zh-Hant"}]}},{"__typename":"SocialMediaPost","id":"HnPost-26204218","excerpt":"","slug":"/hn/26204218","title":"Little is a statically typed, C-like scripting language","date":"February 21, 2021","dateISO":"2021-02-21T01:49:43.425Z","datetime":"2021-02-21 01:49","tags":["story","Hacker News"],"image":null,"imageAlt":null,"provider":"Hacker News","thirdPartyId":"26204218","url":"https://news.ycombinator.com/item?id=26204218","originalUrl":"http://www.little-lang.org/","imageRemote":"http://www.little-lang.org/forkme.png","video":null,"channel":null,"channelUrl":null,"author":"Thedarkb","authorUrl":"https://news.ycombinator.com/user?id=Thedarkb","authorImage":null,"authorSlug":null,"score":191,"views":null,"sharedCount":null,"likeCount":null,"sharedContent":null,"parent":{"__typename":"HnJson","localize":[{"title":"Little是一种静态类型的、类似C语言的脚本语言。","locale":"zh"},{"title":"Little是一種靜態類型的、類似C語言的腳本語言。","locale":"zh-Hant"}]}},{"__typename":"SocialMediaPost","id":"HnPost-26206513","excerpt":"","slug":"/hn/26206513","title":"New plant-based plastics can be chemically recycled with near-perfect efficiency","date":"February 21, 2021","dateISO":"2021-02-21T00:58:46.703Z","datetime":"2021-02-21 00:58","tags":["story","Hacker News"],"image":null,"imageAlt":null,"provider":"Hacker News","thirdPartyId":"26206513","url":"https://news.ycombinator.com/item?id=26206513","originalUrl":"https://academictimes.com/new-plant-based-plastics-can-be-chemically-recycled-with-near-perfect-efficiency/","imageRemote":"https://academictimes.s3.amazonaws.com/attachments/kunststoffe_rueckseite_ver0shp.jpg?AWSAccessKeyId=AKIAZY7Z2AAV2DOHJOHW&Signature=KFAJHVe2BFWhCTHyLTCB5qBEjME%3D&Expires=1623869158","video":null,"channel":null,"channelUrl":null,"author":"ColinWright","authorUrl":"https://news.ycombinator.com/user?id=ColinWright","authorImage":null,"authorSlug":null,"score":428,"views":null,"sharedCount":null,"likeCount":null,"sharedContent":null,"parent":{"__typename":"HnJson","localize":[{"title":"新型植物基塑料可以以近乎完美的效率进行化学回收利用","locale":"zh"},{"title":"新型植物基塑料可以以近乎完美的效率進行化學回收利用","locale":"zh-Hant"}]}},{"__typename":"SocialMediaPost","id":"HnPost-26208555","excerpt":"","slug":"/hn/26208555","title":"United B772 at Denver on Feb 20th 2021, engine inlet separates from engine","date":"February 20, 2021","dateISO":"2021-02-20T23:24:24.918Z","datetime":"2021-02-20 23:24","tags":["story","Hacker News"],"image":null,"imageAlt":null,"provider":"Hacker News","thirdPartyId":"26208555","url":"https://news.ycombinator.com/item?id=26208555","originalUrl":"https://avherald.com/h?article=4e35503b&opt=0","imageRemote":"https://avherald.com/images/next.jpg","video":null,"channel":null,"channelUrl":null,"author":"haunter","authorUrl":"https://news.ycombinator.com/user?id=haunter","authorImage":null,"authorSlug":null,"score":722,"views":null,"sharedCount":null,"likeCount":null,"sharedContent":null,"parent":{"__typename":"HnJson","localize":[{"title":"2021年2月20日在丹佛的美联航B772，发动机进气口与发动机分离。","locale":"zh"},{"title":"2021年2月20日在丹佛的美聯航B772，發動機進氣口與發動機分離。","locale":"zh-Hant"}]}},{"__typename":"SocialMediaPost","id":"HnPost-26207191","excerpt":"","slug":"/hn/26207191","title":"New Release: 0 A.D. Alpha 24: Xšayāršā","date":"February 20, 2021","dateISO":"2021-02-20T22:59:13.318Z","datetime":"2021-02-20 22:59","tags":["story","Hacker News"],"image":null,"imageAlt":null,"provider":"Hacker News","thirdPartyId":"26207191","url":"https://news.ycombinator.com/item?id=26207191","originalUrl":"https://play0ad.com/new-release-0-a-d-alpha-24-xsayarsa/","imageRemote":"https://play0ad.com/wp-content/uploads/2016/03/dlbtn_top.png","video":null,"channel":null,"channelUrl":null,"author":"shakow","authorUrl":"https://news.ycombinator.com/user?id=shakow","authorImage":null,"authorSlug":null,"score":375,"views":null,"sharedCount":null,"likeCount":null,"sharedContent":null,"parent":{"__typename":"HnJson","localize":[{"title":"新发布。公元0年 阿尔法24： Xšayāršā","locale":"zh"},{"title":"新發布。公元0年 阿爾法24： Xšayāršā","locale":"zh-Hant"}]}},{"__typename":"SocialMediaPost","id":"HnPost-26206921","excerpt":"","slug":"/hn/26206921","title":"How can you not be romantic about programming?","date":"February 20, 2021","dateISO":"2021-02-20T21:20:52.374Z","datetime":"2021-02-20 21:20","tags":["story","Hacker News"],"image":null,"imageAlt":null,"provider":"Hacker News","thirdPartyId":"26206921","url":"https://news.ycombinator.com/item?id=26206921","originalUrl":"https://thorstenball.com/blog/2020/09/08/how-can-you-not-be-romantic-about-programming/","imageRemote":null,"video":null,"channel":null,"channelUrl":null,"author":"joubert","authorUrl":"https://news.ycombinator.com/user?id=joubert","authorImage":null,"authorSlug":null,"score":551,"views":null,"sharedCount":null,"likeCount":null,"sharedContent":null,"parent":{"__typename":"HnJson","localize":[{"title":"对于编程，你怎么能不浪漫？","locale":"zh"},{"title":"對於編程，你怎麼能不浪漫？","locale":"zh-Hant"}]}},{"__typename":"SocialMediaPost","id":"HnPost-26204892","excerpt":"","slug":"/hn/26204892","title":"How to Destroy the Earth (2006)","date":"February 20, 2021","dateISO":"2021-02-20T20:22:19.948Z","datetime":"2021-02-20 20:22","tags":["story","Hacker News"],"image":null,"imageAlt":null,"provider":"Hacker News","thirdPartyId":"26204892","url":"https://news.ycombinator.com/item?id=26204892","originalUrl":"https://qntm.org/destroy","imageRemote":null,"video":null,"channel":null,"channelUrl":null,"author":"NateEag","authorUrl":"https://news.ycombinator.com/user?id=NateEag","authorImage":null,"authorSlug":null,"score":293,"views":null,"sharedCount":null,"likeCount":null,"sharedContent":null,"parent":{"__typename":"HnJson","localize":[{"title":"如何毁灭地球(2006)","locale":"zh"},{"title":"如何毀滅地球(2006)","locale":"zh-Hant"}]}},{"__typename":"SocialMediaPost","id":"HnPost-26199426","excerpt":"","slug":"/hn/26199426","title":"Coinbase valued above $100B, ahead of direct listing","date":"February 20, 2021","dateISO":"2021-02-20T18:26:36.159Z","datetime":"2021-02-20 18:26","tags":["story","Hacker News"],"image":null,"imageAlt":null,"provider":"Hacker News","thirdPartyId":"26199426","url":"https://news.ycombinator.com/item?id=26199426","originalUrl":"https://www.axios.com/coinbase-valued-100-billion-direct-listing-9b43e316-7ff7-4f6a-a1db-4dc2481a93ee.html","imageRemote":"https://images.axios.com/bnoONVuVJbjwGpSOy_8nppRV6fA=/0x0:1920x1080/1366x768/2021/02/19/1613773158752.jpg","video":null,"channel":null,"channelUrl":null,"author":"DLay","authorUrl":"https://news.ycombinator.com/user?id=DLay","authorImage":null,"authorSlug":null,"score":206,"views":null,"sharedCount":null,"likeCount":null,"sharedContent":null,"parent":{"__typename":"HnJson","localize":[{"title":"Coinbase估值超过1000亿美元，领先于直接上市。","locale":"zh"},{"title":"Coinbase估值超過1000億美元，領先於直接上市。","locale":"zh-Hant"}]}},{"__typename":"SocialMediaPost","id":"HnPost-26202049","excerpt":"","slug":"/hn/26202049","title":"Highest rates of teen bullying are between friends and friends-of-friends: study","date":"February 20, 2021","dateISO":"2021-02-20T17:59:37.194Z","datetime":"2021-02-20 17:59","tags":["story","Hacker News"],"image":null,"imageAlt":null,"provider":"Hacker News","thirdPartyId":"26202049","url":"https://news.ycombinator.com/item?id=26202049","originalUrl":"https://www.ucdavis.edu/news/most-teen-bullying-occurs-among-peers-climbing-social-ladder","imageRemote":"https://www.ucdavis.edu/sites/default/files/images/article/teen-peers-gettyimages-1146107040.jpg","video":null,"channel":null,"channelUrl":null,"author":"thereare5lights","authorUrl":"https://news.ycombinator.com/user?id=thereare5lights","authorImage":null,"authorSlug":null,"score":208,"views":null,"sharedCount":null,"likeCount":null,"sharedContent":null,"parent":{"__typename":"HnJson","localize":[{"title":"研究表明，朋友和朋友的朋友之间的欺凌行为发生率最高。","locale":"zh"},{"title":"研究表明，朋友和朋友的朋友之間的欺凌行爲發生率最高。","locale":"zh-Hant"}]}},{"__typename":"SocialMediaPost","id":"HnPost-26204756","excerpt":"","slug":"/hn/26204756","title":"New malware found on 30k Macs has security pros stumped","date":"February 20, 2021","dateISO":"2021-02-20T17:52:49.445Z","datetime":"2021-02-20 17:52","tags":["story","Hacker News"],"image":null,"imageAlt":null,"provider":"Hacker News","thirdPartyId":"26204756","url":"https://news.ycombinator.com/item?id=26204756","originalUrl":"https://arstechnica.com/information-technology/2021/02/new-malware-found-on-30000-macs-has-security-pros-stumped/","imageRemote":"https://cdn.arstechnica.net/wp-content/uploads/2021/02/mac-760x380.jpg","video":null,"channel":null,"channelUrl":null,"author":"furcyd","authorUrl":"https://news.ycombinator.com/user?id=furcyd","authorImage":null,"authorSlug":null,"score":368,"views":null,"sharedCount":null,"likeCount":null,"sharedContent":null,"parent":{"__typename":"HnJson","localize":[{"title":"在3万台Mac上发现的新恶意软件让安全专家们大跌眼镜。","locale":"zh"},{"title":"在3萬臺Mac上發現的新惡意軟件讓安全專家們大跌眼鏡。","locale":"zh-Hant"}]}},{"__typename":"SocialMediaPost","id":"HnPost-26199483","excerpt":"","slug":"/hn/26199483","title":"Diablo II: Resurrected","date":"February 20, 2021","dateISO":"2021-02-20T15:54:25.833Z","datetime":"2021-02-20 15:54","tags":["story","Hacker News"],"image":null,"imageAlt":null,"provider":"Hacker News","thirdPartyId":"26199483","url":"https://news.ycombinator.com/item?id=26199483","originalUrl":"https://diablo2.blizzard.com/","imageRemote":"https://images.blz-contentstack.com/v3/assets/blt45749e0fed8aa592/bltc1241911176b28b2/5fb534449fbb9857903d9800/logo.c6670c99.png","video":null,"channel":null,"channelUrl":null,"author":"eswat","authorUrl":"https://news.ycombinator.com/user?id=eswat","authorImage":null,"authorSlug":null,"score":185,"views":null,"sharedCount":null,"likeCount":null,"sharedContent":null,"parent":{"__typename":"HnJson","localize":[{"title":"暗黑破坏神II：复活","locale":"zh"},{"title":"暗黑破壞神II：復活","locale":"zh-Hant"}]}},{"__typename":"SocialMediaPost","id":"HnPost-26202517","excerpt":"","slug":"/hn/26202517","title":"In the 90s part of Germany's air traffic control software ran on Emacs","date":"February 20, 2021","dateISO":"2021-02-20T15:27:09.079Z","datetime":"2021-02-20 15:27","tags":["story","Hacker News"],"image":null,"imageAlt":null,"provider":"Hacker News","thirdPartyId":"26202517","url":"https://news.ycombinator.com/item?id=26202517","originalUrl":"https://www.reddit.com/r/emacs/comments/lly7po/do_you_use_emacs_lisp_as_a_general_purpose/gnvzisy","imageRemote":"https://www.redditstatic.com/desktop2x/img/renderTimingPixel.png","video":null,"channel":null,"channelUrl":null,"author":"omaranto","authorUrl":"https://news.ycombinator.com/user?id=omaranto","authorImage":null,"authorSlug":null,"score":240,"views":null,"sharedCount":null,"likeCount":null,"sharedContent":null,"parent":{"__typename":"HnJson","localize":[{"title":"在90年代，德国的部分空中交通管制软件在Emacs上运行。","locale":"zh"},{"title":"在90年代，德國的部分空中交通管制軟件在Emacs上運行。","locale":"zh-Hant"}]}},{"__typename":"SocialMediaPost","id":"HnPost-26195057","excerpt":"","slug":"/hn/26195057","title":"Launch HN: MindsDB (YC W20) – Machine Learning Inside Your Database","date":"February 20, 2021","dateISO":"2021-02-20T14:41:19.138Z","datetime":"2021-02-20 14:41","tags":["story","Hacker News"],"image":null,"imageAlt":null,"provider":"Hacker News","thirdPartyId":"26195057","url":"https://news.ycombinator.com/item?id=26195057","originalUrl":"https://news.ycombinator.com/item?id=26195057","imageRemote":null,"video":null,"channel":null,"channelUrl":null,"author":"adam_carrigan","authorUrl":"https://news.ycombinator.com/user?id=adam_carrigan","authorImage":null,"authorSlug":null,"score":176,"views":null,"sharedCount":null,"likeCount":null,"sharedContent":null,"parent":{"__typename":"HnJson","localize":[{"title":"发布HN：MindsDB (YC W20)--在您的数据库中进行机器学习。","locale":"zh"},{"title":"發佈HN：MindsDB (YC W20)--在您的數據庫中進行機器學習。","locale":"zh-Hant"}]}},{"__typename":"SocialMediaPost","id":"HnPost-26203178","excerpt":"","slug":"/hn/26203178","title":"M1 Macs have another hidden boot mode","date":"February 20, 2021","dateISO":"2021-02-20T14:41:19.138Z","datetime":"2021-02-20 14:41","tags":["story","Hacker News"],"image":null,"imageAlt":null,"provider":"Hacker News","thirdPartyId":"26203178","url":"https://news.ycombinator.com/item?id=26203178","originalUrl":"https://eclecticlight.co/2021/02/20/m1-macs-have-another-hidden-boot-mode/","imageRemote":"https://s0.wp.com/i/blank.jpg","video":null,"channel":null,"channelUrl":null,"author":"giuliomagnifico","authorUrl":"https://news.ycombinator.com/user?id=giuliomagnifico","authorImage":null,"authorSlug":null,"score":348,"views":null,"sharedCount":null,"likeCount":null,"sharedContent":null,"parent":{"__typename":"HnJson","localize":[{"title":"M1 Mac有另一种隐藏的启动模式","locale":"zh"},{"title":"M1 Mac有另一種隱藏的啓動模式","locale":"zh-Hant"}]}}]}},"pageContext":{"basePath":"/","pageType":"tag","tag":"story","tagsFilter":{"id":{"glob":"!*Post-1"}},"filter":{"id":{"glob":"!*Post-1"},"tags":{"eq":"story"}},"limit":25,"skip":675,"total":2599,"totalPages":104,"currentPage":28,"maxWidth":1024,"maxHeight":512,"locale":"zh-Hant","hrefLang":"zh-Hant","originalPath":"/tags/story/page/28","dateFormat":"YYYY-MM-DD"}},"staticQueryHashes":["1239077767","2506312863","2744905544","3025052997","3493603132","3493603132","3513215887","386998304"]}