{"componentChunkName":"component---gatsby-theme-buzzing-src-gatsby-theme-timeline-templates-posts-query-js","path":"/page/50","result":{"data":{"site":{"siteMetadata":{"title":"Reddit 热门","description":"用中文浏览Reddit热门内容","social":[{"name":"Twitter","url":"https://twitter.com/gatsbyjs","external":null,"prefetch":null},{"name":"GitHub","url":"https://github.com/gatsbyjs","external":null,"prefetch":null}],"menuLinks":[],"localize":[{"locale":"en","title":"Buzzing on Reddit","description":"See what's buzzing on Reddit in your native language","social":[{"name":"Reddit","url":"https://www.reddit.com/","external":true,"prefetch":null}],"menuLinks":[{"name":"Weekly Selection","url":"/issues","external":null,"prefetch":null},{"name":"RSS","url":"/rss.xml","external":null,"prefetch":false}]},{"locale":"zh-Hant","title":"Reddit 熱門","description":"用中文瀏覽Reddit熱門內容","social":null,"menuLinks":null}]}},"tagsGroup":{"group":[{"fieldValue":"ASK HN","totalCount":22},{"fieldValue":"Bitcoin","totalCount":3},{"fieldValue":"Hacker News","totalCount":906},{"fieldValue":"Poll","totalCount":1},{"fieldValue":"Show HN","totalCount":34},{"fieldValue":"investing","totalCount":194},{"fieldValue":"poll","totalCount":1},{"fieldValue":"reddit","totalCount":752},{"fieldValue":"science","totalCount":1},{"fieldValue":"stocks","totalCount":330},{"fieldValue":"story","totalCount":905},{"fieldValue":"tweet","totalCount":272},{"fieldValue":"wallstreetbets","totalCount":228}]},"allBlogPost":{"nodes":[{"__typename":"SocialMediaPost","id":"RedditPost-kk4sd0","excerpt":"Denver Business Journal\n[https://www.bizjournals.com/denver/news/2020/12/24/palantir-closes-december-2020-contracts.html]\n\n> As the year comes to a close, Denver's newest tech giant is racking up new\n> government contracts.\n> \n> Palantir Technologies, a $20 billion data-analysis software firm that…","slug":"/reddit/r/investing/comments/kk4sd0/denvers_palantir_closes_out_2020_with_nearly_150m/","title":"Denver's Palantir closes out 2020 with nearly $150M in new government contracts","date":"December 25, 2020","dateISO":"2020-12-25T20:30:44.000Z","datetime":"2020-12-25 20:30","tags":["investing","reddit"],"image":null,"imageAlt":null,"provider":"Reddit","thirdPartyId":"kk4sd0","url":"https://www.reddit.com/r/investing/comments/kk4sd0/denvers_palantir_closes_out_2020_with_nearly_150m/","originalUrl":"https://www.reddit.com/r/investing/comments/kk4sd0/denvers_palantir_closes_out_2020_with_nearly_150m/","imageRemote":null,"video":null,"channel":"investing","channelUrl":"https://www.reddit.com/r/investing","author":"NineteenSixtySix","authorUrl":"https://www.reddit.com/user/NineteenSixtySix","authorImage":null,"authorSlug":"NineteenSixtySix","score":345,"views":null,"sharedCount":null,"likeCount":null,"sharedContent":null,"parent":{"__typename":"RedditJson","localize":[{"title":"丹佛Palantir以近1.5亿美元的新政府合同结束2020年","the_new_excerpt":"丹佛商业杂志\n[https://www.bizjournals.com/denver/news/2020/12/24/palantir-closes-december-2020-contracts.html]\n\n>随着这一年的结束，丹佛最新的科技巨头正在积累新的\n>政府合同。\n>\n>Palantir Technologies，一家价值200亿美元的数据分析软件公司，…","locale":"zh"},{"title":"丹佛Palantir以近1.5億美元的新政府合同結束2020年","the_new_excerpt":"丹佛商業雜誌\n[https://www.bizjournals.com/denver/news/2020/12/24/palantir-closes-december-2020-contracts.html]\n\n>隨着這一年的結束，丹佛最新的科技巨頭正在積累新的\n>政府合同。\n>\n>Palantir Technologies，一家價值200億美元的數據分析軟件公司，…","locale":"zh-Hant"}]}},{"__typename":"SocialMediaPost","id":"HnPost-25534645","excerpt":"","slug":"/hn/25534645","title":"Eyes hint at hidden mental-health conditions (2019)","date":"December 25, 2020","dateISO":"2020-12-25T20:28:21.642Z","datetime":"2020-12-25 20:28","tags":["story","Hacker News"],"image":null,"imageAlt":null,"provider":"Hacker News","thirdPartyId":"25534645","url":"https://news.ycombinator.com/item?id=25534645","originalUrl":"https://www.nature.com/articles/d41586-019-01114-9","imageRemote":"https://media.nature.com/lw1024/magazine-assets/d41586-019-01114-9/d41586-019-01114-9_16629040.jpg","video":null,"channel":null,"channelUrl":null,"author":"svrma","authorUrl":"https://news.ycombinator.com/user?id=svrma","authorImage":null,"authorSlug":null,"score":116,"views":null,"sharedCount":null,"likeCount":null,"sharedContent":null,"parent":{"__typename":"HnJson","localize":[{"title":"眼睛暗示隐藏的心理健康状况(2019年)","locale":"zh"},{"title":"眼睛暗示隱藏的心理健康狀況(2019年)","locale":"zh-Hant"}]}},{"__typename":"SocialMediaPost","id":"HnPost-25535971","excerpt":"","slug":"/hn/25535971","title":"Some Differences Between macOS and Common Unix Systems","date":"December 25, 2020","dateISO":"2020-12-25T19:59:26.852Z","datetime":"2020-12-25 19:59","tags":["story","Hacker News"],"image":null,"imageAlt":null,"provider":"Hacker News","thirdPartyId":"25535971","url":"https://news.ycombinator.com/item?id=25535971","originalUrl":"https://www.dyx.name/posts/macunix.html","imageRemote":null,"video":null,"channel":null,"channelUrl":null,"author":"dongyx","authorUrl":"https://news.ycombinator.com/user?id=dongyx","authorImage":null,"authorSlug":null,"score":172,"views":null,"sharedCount":null,"likeCount":null,"sharedContent":null,"parent":{"__typename":"HnJson","localize":[{"title":"MacOS系统与普通Unix系统的一些区别","locale":"zh"},{"title":"MacOS系統與普通Unix系統的一些區別","locale":"zh-Hant"}]}},{"__typename":"SocialMediaPost","id":"HnPost-25537377","excerpt":"","slug":"/hn/25537377","title":"Mountain Peaks in WebGL","date":"December 25, 2020","dateISO":"2020-12-25T19:33:40.848Z","datetime":"2020-12-25 19:33","tags":["story","Hacker News"],"image":null,"imageAlt":null,"provider":"Hacker News","thirdPartyId":"25537377","url":"https://news.ycombinator.com/item?id=25537377","originalUrl":"https://felixpalmer.github.io/peaks-of-austria/","imageRemote":"https://s3.amazonaws.com/github/ribbons/forkme_left_red_aa0000.png","video":null,"channel":null,"channelUrl":null,"author":"pheelicks","authorUrl":"https://news.ycombinator.com/user?id=pheelicks","authorImage":null,"authorSlug":null,"score":280,"views":null,"sharedCount":null,"likeCount":null,"sharedContent":null,"parent":{"__typename":"HnJson","localize":[{"title":"WebGL中的山峰","locale":"zh"},{"title":"WebGL中的山峯","locale":"zh-Hant"}]}},{"__typename":"SocialMediaPost","id":"HnPost-25537986","excerpt":"","slug":"/hn/25537986","title":"Vim³ – Vim rendered on a cube for no reason","date":"December 25, 2020","dateISO":"2020-12-25T19:33:40.848Z","datetime":"2020-12-25 19:33","tags":["story","Hacker News"],"image":null,"imageAlt":null,"provider":"Hacker News","thirdPartyId":"25537986","url":"https://news.ycombinator.com/item?id=25537986","originalUrl":"https://github.com/oakes/vim_cubed#vim","imageRemote":"https://avatars0.githubusercontent.com/u/216147?s=400&v=4","video":null,"channel":null,"channelUrl":null,"author":"capableweb","authorUrl":"https://news.ycombinator.com/user?id=capableweb","authorImage":null,"authorSlug":null,"score":187,"views":null,"sharedCount":null,"likeCount":null,"sharedContent":null,"parent":{"__typename":"HnJson","localize":[{"title":"Vim³-无缘无故地在立方体上渲染Vim","locale":"zh"},{"title":"Vim³-無緣無故地在立方體上渲染Vim","locale":"zh-Hant"}]}},{"__typename":"SocialMediaPost","id":"RedditPost-kjz1lc","excerpt":"I wonder if there is an efficient way to get data on all analysts ratings across\nUS listed companies (>micro caps) in all sectors.\n\nBy concept I would love to see analyst's (and the firm he is representing)\nrating for a particular stock, sector in which business operates,, and a date\nissued. Having…","slug":"/reddit/r/investing/comments/kjz1lc/all_analyst_ratings_across_all_us_listed_companies/","title":"All analyst ratings across all US listed companies","date":"December 25, 2020","dateISO":"2020-12-25T18:38:51.000Z","datetime":"2020-12-25 18:38","tags":["investing","reddit"],"image":null,"imageAlt":null,"provider":"Reddit","thirdPartyId":"kjz1lc","url":"https://www.reddit.com/r/investing/comments/kjz1lc/all_analyst_ratings_across_all_us_listed_companies/","originalUrl":"https://www.reddit.com/r/investing/comments/kjz1lc/all_analyst_ratings_across_all_us_listed_companies/","imageRemote":null,"video":null,"channel":"investing","channelUrl":"https://www.reddit.com/r/investing","author":"cplpro","authorUrl":"https://www.reddit.com/user/cplpro","authorImage":null,"authorSlug":"cplpro","score":209,"views":null,"sharedCount":null,"likeCount":null,"sharedContent":null,"parent":{"__typename":"RedditJson","localize":[{"title":"所有美国上市公司的所有分析师评级","the_new_excerpt":"我想知道是否有一种有效的方法来获取所有分析师评级的数据\n所有行业的美国上市公司(>微型股)。\n\n从概念上讲，我很想看看分析师(以及他所代表的公司)。\n特定股票的评级、业务所在的行业和日期\n已发布。拥有…","locale":"zh"},{"title":"所有美國上市公司的所有分析師評級","the_new_excerpt":"我想知道是否有一種有效的方法來獲取所有分析師評級的數據\n所有行業的美國上市公司(>微型股)。\n\n從概念上講，我很想看看分析師(以及他所代表的公司)。\n特定股票的評級、業務所在的行業和日期\n已發佈。擁有…","locale":"zh-Hant"}]}},{"__typename":"SocialMediaPost","id":"HnPost-25533263","excerpt":"","slug":"/hn/25533263","title":"WireGuard: Great protocol, but skip the Mac app","date":"December 25, 2020","dateISO":"2020-12-25T18:02:57.687Z","datetime":"2020-12-25 18:02","tags":["story","Hacker News"],"image":null,"imageAlt":null,"provider":"Hacker News","thirdPartyId":"25533263","url":"https://news.ycombinator.com/item?id=25533263","originalUrl":"https://rachelbythebay.com/w/2020/12/24/wg/","imageRemote":"https://rachelbythebay.com/w/feed.png","video":null,"channel":null,"channelUrl":null,"author":"parsecs","authorUrl":"https://news.ycombinator.com/user?id=parsecs","authorImage":null,"authorSlug":null,"score":115,"views":null,"sharedCount":null,"likeCount":null,"sharedContent":null,"parent":{"__typename":"HnJson","localize":[{"title":"WireGuard：很棒的协议，但跳过Mac应用程序","locale":"zh"},{"title":"WireGuard：很棒的協議，但跳過Mac應用程序","locale":"zh-Hant"}]}},{"__typename":"SocialMediaPost","id":"RedditPost-kjv8z3","excerpt":"My ten bagger so far has been PLUG and my next one is STPK / STEM. STPK already\nannounced that it will combine with Stem, smart energy storage which uses AI to\noptimise clean energy assets and supplies its customers with digitally connected\nstorage networks.\n\nI'm in STPK and PLUG.\n\nWhat's yours and…","slug":"/reddit/r/investing/comments/kjv8z3/whats_your_potential_ten_bagger_stock/","title":"What's your potential ten bagger stock?","date":"December 25, 2020","dateISO":"2020-12-25T17:16:24.000Z","datetime":"2020-12-25 17:16","tags":["investing","reddit"],"image":null,"imageAlt":null,"provider":"Reddit","thirdPartyId":"kjv8z3","url":"https://www.reddit.com/r/investing/comments/kjv8z3/whats_your_potential_ten_bagger_stock/","originalUrl":"https://www.reddit.com/r/investing/comments/kjv8z3/whats_your_potential_ten_bagger_stock/","imageRemote":null,"video":null,"channel":"investing","channelUrl":"https://www.reddit.com/r/investing","author":"cryptotiks","authorUrl":"https://www.reddit.com/user/cryptotiks","authorImage":null,"authorSlug":"cryptotiks","score":245,"views":null,"sharedCount":null,"likeCount":null,"sharedContent":null,"parent":{"__typename":"RedditJson","localize":[{"title":"你们潜在的十个袋子库存是多少？","the_new_excerpt":"到目前为止，我的十个袋子已经塞好了，我的下一个袋子是STPK/STEM。STPK已经存在\n宣布将与Stem合并，Stem是一家使用人工智能的智能储能公司\n优化清洁能源资产，为客户提供数字连接\n存储网络。\n\n我在STPK和Plug里。\n\n你和…是什么？","locale":"zh"},{"title":"你們潛在的十個袋子庫存是多少？","the_new_excerpt":"到目前爲止，我的十個袋子已經塞好了，我的下一個袋子是STPK/STEM。STPK已經存在\n宣佈將與Stem合併，Stem是一家使用人工智能的智能儲能公司\n優化清潔能源資產，爲客戶提供數字連接\n存儲網絡。\n\n我在STPK和Plug裏。\n\n你和…是什麼？","locale":"zh-Hant"}]}},{"__typename":"SocialMediaPost","id":"RedditPost-kk0ixc","excerpt":"As someone who loves the stock market, I find insider trading activity\nabsolutely disgraceful. Of course there is always a little something going on,\nand that pisses me off too, but the wide open and public situations where the\nrich and powerful don’t face consequences for their actions really rubs…","slug":"/reddit/r/stocks/comments/kk0ixc/is_anyone_else_pissed_that_people_guilty_of/","title":"Is anyone else pissed that people guilty of insider trader on egregious accounts are not facing prosecution/receiving pardons?","date":"December 25, 2020","dateISO":"2020-12-25T17:16:24.000Z","datetime":"2020-12-25 17:16","tags":["stocks","reddit"],"image":null,"imageAlt":null,"provider":"Reddit","thirdPartyId":"kk0ixc","url":"https://www.reddit.com/r/stocks/comments/kk0ixc/is_anyone_else_pissed_that_people_guilty_of/","originalUrl":"https://www.reddit.com/r/stocks/comments/kk0ixc/is_anyone_else_pissed_that_people_guilty_of/","imageRemote":null,"video":null,"channel":"stocks","channelUrl":"https://www.reddit.com/r/stocks","author":"Sens-fan-99","authorUrl":"https://www.reddit.com/user/Sens-fan-99","authorImage":null,"authorSlug":"Sens-fan-99","score":6000,"views":null,"sharedCount":null,"likeCount":null,"sharedContent":null,"parent":{"__typename":"RedditJson","localize":[{"title":"还有没有人对那些犯有严重账户内幕交易罪的人没有面临起诉/获得赦免感到愤怒？","the_new_excerpt":"作为一个热爱股票市场的人，我发现内幕交易活动\n绝对是可耻的。当然，总会有一些小事情在发生，\n这也让我很恼火，但是在公开和公开的情况下\n有钱有势的人不会因为他们的行为而面临后果真的惹恼了…","locale":"zh"},{"title":"還有沒有人對那些犯有嚴重賬戶內幕交易罪的人沒有面臨起訴/獲得赦免感到憤怒？","the_new_excerpt":"作爲一個熱愛股票市場的人，我發現內幕交易活動\n絕對是可恥的。當然，總會有一些小事情在發生，\n這也讓我很惱火，但是在公開和公開的情況下\n有錢有勢的人不會因爲他們的行爲而面臨後果真的惹惱了…","locale":"zh-Hant"}]}},{"__typename":"SocialMediaPost","id":"HnPost-25534498","excerpt":"","slug":"/hn/25534498","title":"Price increase on .io on January 21, 2021","date":"December 25, 2020","dateISO":"2020-12-25T17:16:20.999Z","datetime":"2020-12-25 17:16","tags":["story","Hacker News"],"image":null,"imageAlt":null,"provider":"Hacker News","thirdPartyId":"25534498","url":"https://news.ycombinator.com/item?id=25534498","originalUrl":"https://news.gandi.net/en/2020/12/price-increase-on-io-on-january-1-2021/","imageRemote":"https://news.gandi.net/wp-content/uploads/2020/12/Priceincrease_generic.png","video":null,"channel":null,"channelUrl":null,"author":"wilsonfiifi","authorUrl":"https://news.ycombinator.com/user?id=wilsonfiifi","authorImage":null,"authorSlug":null,"score":138,"views":null,"sharedCount":null,"likeCount":null,"sharedContent":null,"parent":{"__typename":"HnJson","localize":[{"title":"2021年1月21日.io涨价","locale":"zh"},{"title":"2021年1月21日.io漲價","locale":"zh-Hant"}]}},{"__typename":"SocialMediaPost","id":"HnPost-25535822","excerpt":"","slug":"/hn/25535822","title":"Planner 2.6 – An open-source Todoist alternative for Linux","date":"December 25, 2020","dateISO":"2020-12-25T17:16:20.999Z","datetime":"2020-12-25 17:16","tags":["story","Hacker News"],"image":null,"imageAlt":null,"provider":"Hacker News","thirdPartyId":"25535822","url":"https://news.ycombinator.com/item?id=25535822","originalUrl":"https://useplanner.com/release/2020/12/24/merry-christmas-everyone-planner-2-6-is-here/","imageRemote":"https://planner-todo.web.app/images/blogs/2020-12-24-merry-christmas-everyone-planner-2-6-is-here/1.png","video":null,"channel":null,"channelUrl":null,"author":"rayrag","authorUrl":"https://news.ycombinator.com/user?id=rayrag","authorImage":null,"authorSlug":null,"score":240,"views":null,"sharedCount":null,"likeCount":null,"sharedContent":null,"parent":{"__typename":"HnJson","localize":[{"title":"Planner 2.6-Linux的开源Todoist替代方案","locale":"zh"},{"title":"Planner 2.6-Linux的開源Todoist替代方案","locale":"zh-Hant"}]}},{"__typename":"SocialMediaPost","id":"HnPost-25536810","excerpt":"","slug":"/hn/25536810","title":"New Orleans City Council bans facial recognition, predictive policing and other","date":"December 25, 2020","dateISO":"2020-12-25T17:16:20.999Z","datetime":"2020-12-25 17:16","tags":["story","Hacker News"],"image":null,"imageAlt":null,"provider":"Hacker News","thirdPartyId":"25536810","url":"https://news.ycombinator.com/item?id=25536810","originalUrl":"https://thelensnola.org/2020/12/18/new-orleans-city-council-approves-ban-on-facial-recognition-predictive-policing-and-other-surveillance-tech/","imageRemote":"https://i2.wp.com/thelensnola.org/wp-content/uploads/2020/12/DSC_5214-scaled.jpg?fit=2560%2C1709&ssl=1","video":null,"channel":null,"channelUrl":null,"author":"yhvstnpst","authorUrl":"https://news.ycombinator.com/user?id=yhvstnpst","authorImage":null,"authorSlug":null,"score":194,"views":null,"sharedCount":null,"likeCount":null,"sharedContent":null,"parent":{"__typename":"HnJson","localize":[{"title":"新奥尔良市议会禁止面部识别、预测性警务等","locale":"zh"},{"title":"新奧爾良市議會禁止面部識別、預測性警務等","locale":"zh-Hant"}]}},{"__typename":"SocialMediaPost","id":"HnPost-25537230","excerpt":"","slug":"/hn/25537230","title":"Ask HN: Best Talks of 2020?","date":"December 25, 2020","dateISO":"2020-12-25T17:16:20.999Z","datetime":"2020-12-25 17:16","tags":["story","ASK HN","Hacker News"],"image":null,"imageAlt":null,"provider":"Hacker News","thirdPartyId":"25537230","url":"https://news.ycombinator.com/item?id=25537230","originalUrl":"https://news.ycombinator.com/item?id=25537230","imageRemote":null,"video":null,"channel":"ASK HN","channelUrl":"https://news.ycombinator.com/ask","author":"sid6376","authorUrl":"https://news.ycombinator.com/user?id=sid6376","authorImage":null,"authorSlug":null,"score":726,"views":null,"sharedCount":null,"likeCount":null,"sharedContent":null,"parent":{"__typename":"HnJson","localize":[{"title":"HN提问：2020年最佳演讲？","locale":"zh"},{"title":"HN提問：2020年最佳演講？","locale":"zh-Hant"}]}},{"__typename":"SocialMediaPost","id":"RedditPost-kjp5o4","excerpt":"I believe there are many retail investors diving into meme stocks before doing\nany due diligence at all due to FOMO, just like myself. I'm now trying to be\nmore responsible with my money so I started doing short research reports on the\nbusiness models of stocks expecting it will help me identify…","slug":"/reddit/r/stocks/comments/kjp5o4/corsair_gaming_crsr_short_dd/","title":"Corsair Gaming ($CRSR) Short DD","date":"December 25, 2020","dateISO":"2020-12-25T15:30:22.000Z","datetime":"2020-12-25 15:30","tags":["stocks","reddit"],"image":null,"imageAlt":null,"provider":"Reddit","thirdPartyId":"kjp5o4","url":"https://www.reddit.com/r/stocks/comments/kjp5o4/corsair_gaming_crsr_short_dd/","originalUrl":"https://www.reddit.com/r/stocks/comments/kjp5o4/corsair_gaming_crsr_short_dd/","imageRemote":null,"video":null,"channel":"stocks","channelUrl":"https://www.reddit.com/r/stocks","author":"italiansomali","authorUrl":"https://www.reddit.com/user/italiansomali","authorImage":null,"authorSlug":"italiansomali","score":68,"views":null,"sharedCount":null,"likeCount":null,"sharedContent":null,"parent":{"__typename":"RedditJson","localize":[{"title":"海盗船游戏(花旗rsr)短DD","the_new_excerpt":"我相信有很多散户投资者在做之前都会潜入Meme股票\n任何因“信息自由法”而进行的尽职调查，就像我自己一样。我现在正努力成为\n对我的钱更负责，所以我开始做简短的研究报告\n股票的业务模式期望它能帮助我识别…","locale":"zh"},{"title":"海盜船遊戲(花旗rsr)短DD","the_new_excerpt":"我相信有很多散戶投資者在做之前都會潛入Meme股票\n任何因“信息自由法”而進行的盡職調查，就像我自己一樣。我現在正努力成爲\n對我的錢更負責，所以我開始做簡短的研究報告\n股票的業務模式期望它能幫助我識別…","locale":"zh-Hant"}]}},{"__typename":"SocialMediaPost","id":"HnPost-25535456","excerpt":"","slug":"/hn/25535456","title":"Slower News","date":"December 25, 2020","dateISO":"2020-12-25T15:29:40.731Z","datetime":"2020-12-25 15:29","tags":["story","Hacker News"],"image":null,"imageAlt":null,"provider":"Hacker News","thirdPartyId":"25535456","url":"https://news.ycombinator.com/item?id=25535456","originalUrl":"https://www.slowernews.com/","imageRemote":null,"video":null,"channel":null,"channelUrl":null,"author":"galfarragem","authorUrl":"https://news.ycombinator.com/user?id=galfarragem","authorImage":null,"authorSlug":null,"score":268,"views":null,"sharedCount":null,"likeCount":null,"sharedContent":null,"parent":{"__typename":"HnJson","localize":[{"title":"较慢的新闻","locale":"zh"},{"title":"較慢的新聞","locale":"zh-Hant"}]}},{"__typename":"SocialMediaPost","id":"HnPost-25533405","excerpt":"","slug":"/hn/25533405","title":"Stanisław Lem's Reflections on the Objects of His Childhood Home","date":"December 25, 2020","dateISO":"2020-12-25T13:41:26.137Z","datetime":"2020-12-25 13:41","tags":["story","Hacker News"],"image":null,"imageAlt":null,"provider":"Hacker News","thirdPartyId":"25533405","url":"https://news.ycombinator.com/item?id=25533405","originalUrl":"https://thereader.mitpress.mit.edu/stanislaw-lems-reflections-childhood/","imageRemote":"https://thereader.mitpress.mit.edu/wp-content/uploads/2020/12/lem-lede.jpg","video":null,"channel":null,"channelUrl":null,"author":"anarbadalov","authorUrl":"https://news.ycombinator.com/user?id=anarbadalov","authorImage":null,"authorSlug":null,"score":129,"views":null,"sharedCount":null,"likeCount":null,"sharedContent":null,"parent":{"__typename":"HnJson","localize":[{"title":"Stanisław Lem对童年家园对象的思考","locale":"zh"},{"title":"Stanisław Lem對童年家園對象的思考","locale":"zh-Hant"}]}},{"__typename":"SocialMediaPost","id":"HnPost-25534863","excerpt":"","slug":"/hn/25534863","title":"The Impact of Apple Silicon Macs on Broadway","date":"December 25, 2020","dateISO":"2020-12-25T12:53:22.117Z","datetime":"2020-12-25 12:53","tags":["story","Hacker News"],"image":null,"imageAlt":null,"provider":"Hacker News","thirdPartyId":"25534863","url":"https://news.ycombinator.com/item?id=25534863","originalUrl":"https://brianli.com/2020/12/the-impact-of-apple-silicon-macs-on-broadway/","imageRemote":"https://cdn.brianli.com/uploads/2020/12/20201221_APPLE-M1-CHIP.jpg?w=1920&fit=max&auto=format&fm=pjpg&q=65&gif-q=50","video":null,"channel":null,"channelUrl":null,"author":"da02","authorUrl":"https://news.ycombinator.com/user?id=da02","authorImage":null,"authorSlug":null,"score":242,"views":null,"sharedCount":null,"likeCount":null,"sharedContent":null,"parent":{"__typename":"HnJson","localize":[{"title":"苹果硅Mac对百老汇的影响","locale":"zh"},{"title":"蘋果硅Mac對百老匯的影響","locale":"zh-Hant"}]}},{"__typename":"SocialMediaPost","id":"HnPost-25535403","excerpt":"","slug":"/hn/25535403","title":"Working at Apple (2011)","date":"December 25, 2020","dateISO":"2020-12-25T12:53:22.117Z","datetime":"2020-12-25 12:53","tags":["story","Hacker News"],"image":null,"imageAlt":null,"provider":"Hacker News","thirdPartyId":"25535403","url":"https://news.ycombinator.com/item?id=25535403","originalUrl":"http://worrydream.com/#!/Apple","imageRemote":null,"video":null,"channel":null,"channelUrl":null,"author":"sturza","authorUrl":"https://news.ycombinator.com/user?id=sturza","authorImage":null,"authorSlug":null,"score":296,"views":null,"sharedCount":null,"likeCount":null,"sharedContent":null,"parent":{"__typename":"HnJson","localize":[{"title":"在苹果工作(2011)","locale":"zh"},{"title":"在蘋果工作(2011)","locale":"zh-Hant"}]}},{"__typename":"SocialMediaPost","id":"HnPost-25526669","excerpt":"","slug":"/hn/25526669","title":"Animal Crossing’s fake language sounds different in Japanese","date":"December 25, 2020","dateISO":"2020-12-25T11:30:40.440Z","datetime":"2020-12-25 11:30","tags":["story","Hacker News"],"image":null,"imageAlt":null,"provider":"Hacker News","thirdPartyId":"25526669","url":"https://news.ycombinator.com/item?id=25526669","originalUrl":"https://www.polygon.com/videos/2020/3/22/21188355/animal-crossing-new-horizons-language-video","imageRemote":"https://cdn.vox-cdn.com/thumbor/3JSS9kfZ_ocfna9EsXH4PS4HBoc=/0x38:1920x1043/fit-in/1200x630/cdn.vox-cdn.com/uploads/chorus_asset/file/19821314/VoiceSynththumb.png","video":null,"channel":null,"channelUrl":null,"author":"polm23","authorUrl":"https://news.ycombinator.com/user?id=polm23","authorImage":null,"authorSlug":null,"score":127,"views":null,"sharedCount":null,"likeCount":null,"sharedContent":null,"parent":{"__typename":"HnJson","localize":[{"title":"动物穿越的假语言在日语中听起来不同","locale":"zh"},{"title":"動物穿越的假語言在日語中聽起來不同","locale":"zh-Hant"}]}},{"__typename":"SocialMediaPost","id":"HnPost-25532077","excerpt":"","slug":"/hn/25532077","title":"What Shape Are You?","date":"December 25, 2020","dateISO":"2020-12-25T10:51:11.562Z","datetime":"2020-12-25 10:51","tags":["story","Hacker News"],"image":null,"imageAlt":null,"provider":"Hacker News","thirdPartyId":"25532077","url":"https://news.ycombinator.com/item?id=25532077","originalUrl":"https://tynan.com/shapes","imageRemote":"https://cdn.sett.com/images/user/20121021/BadShapes8bpp73dd56549978dc5ab7aea77bda79a5f9.png","video":null,"channel":null,"channelUrl":null,"author":"neilkakkar","authorUrl":"https://news.ycombinator.com/user?id=neilkakkar","authorImage":null,"authorSlug":null,"score":230,"views":null,"sharedCount":null,"likeCount":null,"sharedContent":null,"parent":{"__typename":"HnJson","localize":[{"title":"你是什么形状的？","locale":"zh"},{"title":"你是什麼形狀的？","locale":"zh-Hant"}]}},{"__typename":"SocialMediaPost","id":"HnPost-25534181","excerpt":"","slug":"/hn/25534181","title":"Ham radio and astronauts","date":"December 25, 2020","dateISO":"2020-12-25T10:51:11.562Z","datetime":"2020-12-25 10:51","tags":["story","Hacker News"],"image":null,"imageAlt":null,"provider":"Hacker News","thirdPartyId":"25534181","url":"https://news.ycombinator.com/item?id=25534181","originalUrl":"https://www.latimes.com/business/story/2020-12-23/ham-radio-and-astronauts","imageRemote":"https://ca-times.brightspotcdn.com/dims4/default/2817a63/2147483647/strip/true/crop/5438x2855+0+452/resize/1200x630!/quality/90/?url=https%3A%2F%2Fcalifornia-times-brightspot.s3.amazonaws.com%2F83%2Fcf%2F20edb17046fa89630d4237cdc6dd%2Fla-fi-ham-radio-nasa.JPG","video":null,"channel":null,"channelUrl":null,"author":"tartoran","authorUrl":"https://news.ycombinator.com/user?id=tartoran","authorImage":null,"authorSlug":null,"score":136,"views":null,"sharedCount":null,"likeCount":null,"sharedContent":null,"parent":{"__typename":"HnJson","localize":[{"title":"业余无线电和宇航员","locale":"zh"},{"title":"業餘無線電和宇航員","locale":"zh-Hant"}]}},{"__typename":"SocialMediaPost","id":"HnPost-25534258","excerpt":"","slug":"/hn/25534258","title":"Developer and Power Users Tool List for Windows","date":"December 25, 2020","dateISO":"2020-12-25T10:30:03.503Z","datetime":"2020-12-25 10:30","tags":["story","Hacker News"],"image":null,"imageAlt":null,"provider":"Hacker News","thirdPartyId":"25534258","url":"https://news.ycombinator.com/item?id=25534258","originalUrl":"https://www.hanselman.com/blog/scott-hanselmans-2021-ultimate-developer-and-power-users-tool-list-for-windows","imageRemote":"https://pbs.twimg.com/profile_images/1133122333290291200/xV9gO-D6_400x400.jpg","video":null,"channel":null,"channelUrl":null,"author":"fomine3","authorUrl":"https://news.ycombinator.com/user?id=fomine3","authorImage":null,"authorSlug":null,"score":439,"views":null,"sharedCount":null,"likeCount":null,"sharedContent":null,"parent":{"__typename":"HnJson","localize":[{"title":"适用于Windows的开发人员和高级用户工具列表","locale":"zh"},{"title":"適用於Windows的開發人員和高級用戶工具列表","locale":"zh-Hant"}]}},{"__typename":"SocialMediaPost","id":"HnPost-25519254","excerpt":"","slug":"/hn/25519254","title":"The First Microprocessor, the F-14, and Me","date":"December 25, 2020","dateISO":"2020-12-25T09:32:52.544Z","datetime":"2020-12-25 09:32","tags":["story","Hacker News"],"image":null,"imageAlt":null,"provider":"Hacker News","thirdPartyId":"25519254","url":"https://news.ycombinator.com/item?id=25519254","originalUrl":"https://www.wired.com/story/secret-history-of-the-first-microprocessor-f-14/","imageRemote":"https://media.wired.com/photos/5fe2bb4af7cf9f6d9432bd8c/191:100/w_1280,c_limit/Backchannel-Ray-Holt-Social-615295142.jpg","video":null,"channel":null,"channelUrl":null,"author":"DamnInteresting","authorUrl":"https://news.ycombinator.com/user?id=DamnInteresting","authorImage":null,"authorSlug":null,"score":126,"views":null,"sharedCount":null,"likeCount":null,"sharedContent":null,"parent":{"__typename":"HnJson","localize":[{"title":"第一台微处理器、F-14和我","locale":"zh"},{"title":"第一臺微處理器、F-14和我","locale":"zh-Hant"}]}},{"__typename":"SocialMediaPost","id":"HnPost-25528557","excerpt":"","slug":"/hn/25528557","title":"In CPython, types implemented in C are part of the type tree","date":"December 25, 2020","dateISO":"2020-12-25T07:32:26.206Z","datetime":"2020-12-25 07:32","tags":["story","Hacker News"],"image":null,"imageAlt":null,"provider":"Hacker News","thirdPartyId":"25528557","url":"https://news.ycombinator.com/item?id=25528557","originalUrl":"https://utcc.utoronto.ca/~cks/space/blog/python/CPythonCTypesHaveTree","imageRemote":null,"video":null,"channel":null,"channelUrl":null,"author":"todsacerdoti","authorUrl":"https://news.ycombinator.com/user?id=todsacerdoti","authorImage":null,"authorSlug":null,"score":107,"views":null,"sharedCount":null,"likeCount":null,"sharedContent":null,"parent":{"__typename":"HnJson","localize":[{"title":"在CPython中，用C实现的类型是类型树的一部分","locale":"zh"},{"title":"在CPython中，用C實現的類型是類型樹的一部分","locale":"zh-Hant"}]}},{"__typename":"SocialMediaPost","id":"HnPost-25534588","excerpt":"","slug":"/hn/25534588","title":"Ruby 3.0","date":"December 25, 2020","dateISO":"2020-12-25T07:32:26.206Z","datetime":"2020-12-25 07:32","tags":["story","Hacker News"],"image":null,"imageAlt":null,"provider":"Hacker News","thirdPartyId":"25534588","url":"https://news.ycombinator.com/item?id=25534588","originalUrl":"https://www.ruby-lang.org/en/news/2020/12/25/ruby-3-0-0-released/","imageRemote":"https://www.ruby-lang.org/images/header-ruby-logo@2x.png","video":null,"channel":null,"channelUrl":null,"author":"0x54MUR41","authorUrl":"https://news.ycombinator.com/user?id=0x54MUR41","authorImage":null,"authorSlug":null,"score":771,"views":null,"sharedCount":null,"likeCount":null,"sharedContent":null,"parent":{"__typename":"HnJson","localize":[{"title":"Ruby 3.0","locale":"zh"},{"title":"Ruby 3.0","locale":"zh-Hant"}]}}]}},"pageContext":{"basePath":"/","pageType":"home","tagsFilter":{"id":{"glob":"!*Post-1"}},"filter":{"id":{"glob":"!*Post-1"}},"limit":25,"skip":1225,"totalPages":78,"total":1930,"currentPage":50,"maxWidth":1024,"maxHeight":512,"locale":"zh","hrefLang":"zh-Hans","originalPath":"/page/50","dateFormat":"YYYY-MM-DD"}},"staticQueryHashes":["1239077767","2506312863","2744905544","3025052997","3493603132","3493603132","3513215887","386998304"]}