{"componentChunkName":"component---gatsby-theme-buzzing-src-gatsby-theme-timeline-templates-posts-query-js","path":"/tags/hacker-news/page/58","result":{"data":{"site":{"siteMetadata":{"title":"Reddit 热门","description":"用中文浏览Reddit热门内容","social":[{"name":"Twitter","url":"https://twitter.com/gatsbyjs","external":null,"prefetch":null},{"name":"GitHub","url":"https://github.com/gatsbyjs","external":null,"prefetch":null}],"menuLinks":[],"localize":[{"locale":"en","title":"Buzzing on Reddit","description":"See what's buzzing on Reddit in your native language","social":[{"name":"Reddit","url":"https://www.reddit.com/","external":true,"prefetch":null}],"menuLinks":[{"name":"Weekly Selection","url":"/issues","external":null,"prefetch":null},{"name":"RSS","url":"/rss.xml","external":null,"prefetch":false}]},{"locale":"zh-Hant","title":"Reddit 熱門","description":"用中文瀏覽Reddit熱門內容","social":null,"menuLinks":null}]}},"tagsGroup":{"group":[{"fieldValue":"ASK HN","totalCount":54},{"fieldValue":"Hacker News","totalCount":3107},{"fieldValue":"Poll","totalCount":1},{"fieldValue":"Show HN","totalCount":100},{"fieldValue":"poll","totalCount":1},{"fieldValue":"story","totalCount":3106}]},"allBlogPost":{"nodes":[{"__typename":"SocialMediaPost","id":"HnPost-26104667","excerpt":"","slug":"/hn/26104667","title":"Running unmodified Linux programs on Fuchsia","date":"February 12, 2021","dateISO":"2021-02-12T07:00:11.132Z","datetime":"2021-02-12 07:00","tags":["story","Hacker News"],"image":null,"imageAlt":null,"provider":"Hacker News","thirdPartyId":"26104667","url":"https://news.ycombinator.com/item?id=26104667","originalUrl":"https://fuchsia-review.googlesource.com/c/fuchsia/+/485181","imageRemote":null,"video":null,"channel":null,"channelUrl":null,"author":"lyssue","authorUrl":"https://news.ycombinator.com/user?id=lyssue","authorImage":null,"authorSlug":null,"score":197,"views":null,"sharedCount":null,"likeCount":null,"sharedContent":null,"parent":{"__typename":"HnJson","localize":[{"title":"在Fuchsia上运行未经修改的Linux程序。","locale":"zh"},{"title":"在Fuchsia上運行未經修改的Linux程序。","locale":"zh-Hant"}]}},{"__typename":"SocialMediaPost","id":"HnPost-26105890","excerpt":"","slug":"/hn/26105890","title":"Tell HN: A case of negative SEO I caught on my service and how I dealt with it","date":"February 12, 2021","dateISO":"2021-02-12T05:43:03.298Z","datetime":"2021-02-12 05:43","tags":["story","Hacker News"],"image":null,"imageAlt":null,"provider":"Hacker News","thirdPartyId":"26105890","url":"https://news.ycombinator.com/item?id=26105890","originalUrl":"https://news.ycombinator.com/item?id=26105890","imageRemote":null,"video":null,"channel":null,"channelUrl":null,"author":"santah","authorUrl":"https://news.ycombinator.com/user?id=santah","authorImage":null,"authorSlug":null,"score":278,"views":null,"sharedCount":null,"likeCount":null,"sharedContent":null,"parent":{"__typename":"HnJson","localize":[{"title":"告诉HN：我在服务上抓到的一个SEO负面案例，我是如何处理的？","locale":"zh"},{"title":"告訴HN：我在服務上抓到的一個SEO負面案例，我是如何處理的？","locale":"zh-Hant"}]}},{"__typename":"SocialMediaPost","id":"HnPost-26086196","excerpt":"","slug":"/hn/26086196","title":"Do Things that Don't Scale (2013)","date":"February 12, 2021","dateISO":"2021-02-12T05:17:40.032Z","datetime":"2021-02-12 05:17","tags":["story","Hacker News"],"image":null,"imageAlt":null,"provider":"Hacker News","thirdPartyId":"26086196","url":"https://news.ycombinator.com/item?id=26086196","originalUrl":"http://www.paulgraham.com/ds.html","imageRemote":"https://s.yimg.com/aah/paulgraham/quotes-1.gif","video":null,"channel":null,"channelUrl":null,"author":"ollerac","authorUrl":"https://news.ycombinator.com/user?id=ollerac","authorImage":null,"authorSlug":null,"score":176,"views":null,"sharedCount":null,"likeCount":null,"sharedContent":null,"parent":{"__typename":"HnJson","localize":[{"title":"做不规模的事(2013)","locale":"zh"},{"title":"做不規模的事(2013)","locale":"zh-Hant"}]}},{"__typename":"SocialMediaPost","id":"HnPost-26091100","excerpt":"","slug":"/hn/26091100","title":"LinkedIn’s Alternate Universe","date":"February 11, 2021","dateISO":"2021-02-11T23:25:30.213Z","datetime":"2021-02-11 23:25","tags":["story","Hacker News"],"image":null,"imageAlt":null,"provider":"Hacker News","thirdPartyId":"26091100","url":"https://news.ycombinator.com/item?id=26091100","originalUrl":"https://every.to/divinations/linkedins-alternate-universe-21780381","imageRemote":"https://d24ovhgu8s7341.cloudfront.net/uploads/post/cover/1423/optimized_40ac9496-fcd6-4638-9b55-64f17ba91976_1600x1067.png","video":null,"channel":null,"channelUrl":null,"author":"Benlights","authorUrl":"https://news.ycombinator.com/user?id=Benlights","authorImage":null,"authorSlug":null,"score":444,"views":null,"sharedCount":null,"likeCount":null,"sharedContent":null,"parent":{"__typename":"HnJson","localize":[{"title":"LinkedIn的备用宇宙","locale":"zh"},{"title":"LinkedIn的備用宇宙","locale":"zh-Hant"}]}},{"__typename":"SocialMediaPost","id":"HnPost-26106080","excerpt":"","slug":"/hn/26106080","title":"Kubernetes Failure Stories","date":"February 11, 2021","dateISO":"2021-02-11T23:25:30.213Z","datetime":"2021-02-11 23:25","tags":["story","Hacker News"],"image":null,"imageAlt":null,"provider":"Hacker News","thirdPartyId":"26106080","url":"https://news.ycombinator.com/item?id=26106080","originalUrl":"https://k8s.af","imageRemote":null,"video":null,"channel":null,"channelUrl":null,"author":"jakozaur","authorUrl":"https://news.ycombinator.com/user?id=jakozaur","authorImage":null,"authorSlug":null,"score":545,"views":null,"sharedCount":null,"likeCount":null,"sharedContent":null,"parent":{"__typename":"HnJson","localize":[{"title":"Kubernetes失败的故事","locale":"zh"},{"title":"Kubernetes失敗的故事","locale":"zh-Hant"}]}},{"__typename":"SocialMediaPost","id":"HnPost-26099259","excerpt":"","slug":"/hn/26099259","title":"Wikimedia narrows down the app sendin 90M requests to a pic of flower","date":"February 11, 2021","dateISO":"2021-02-11T21:36:25.653Z","datetime":"2021-02-11 21:36","tags":["story","Hacker News"],"image":null,"imageAlt":null,"provider":"Hacker News","thirdPartyId":"26099259","url":"https://news.ycombinator.com/item?id=26099259","originalUrl":"https://phabricator.wikimedia.org/T273741#6815828","imageRemote":"https://phab.wmfusercontent.org/file/data/hlnbv3qoota266kvqjsn/PHID-FILE-ejomd33brezpjooxsgmy/preview-Screenshot_at_2021-02-08_17-18-10.png","video":null,"channel":null,"channelUrl":null,"author":"hunter-2","authorUrl":"https://news.ycombinator.com/user?id=hunter-2","authorImage":null,"authorSlug":null,"score":190,"views":null,"sharedCount":null,"likeCount":null,"sharedContent":null,"parent":{"__typename":"HnJson","localize":[{"title":"维基媒体缩小了应用程序发送90M请求的花的图片","locale":"zh"},{"title":"維基媒體縮小了應用程序發送90M請求的花的圖片","locale":"zh-Hant"}]}},{"__typename":"SocialMediaPost","id":"HnPost-26102241","excerpt":"","slug":"/hn/26102241","title":"Uncovering a 24-year-old bug in the Linux Kernel","date":"February 11, 2021","dateISO":"2021-02-11T20:47:34.845Z","datetime":"2021-02-11 20:47","tags":["story","Hacker News"],"image":null,"imageAlt":null,"provider":"Hacker News","thirdPartyId":"26102241","url":"https://news.ycombinator.com/item?id=26102241","originalUrl":"https://engineering.skroutz.gr/blog/uncovering-a-24-year-old-bug-in-the-linux-kernel/","imageRemote":"https://engineering.skroutz.gr/images/site-logo.png","video":null,"channel":null,"channelUrl":null,"author":"greenonion","authorUrl":"https://news.ycombinator.com/user?id=greenonion","authorImage":null,"authorSlug":null,"score":496,"views":null,"sharedCount":null,"likeCount":null,"sharedContent":null,"parent":{"__typename":"HnJson","localize":[{"title":"揭开Linux内核中一个24年前的bug。","locale":"zh"},{"title":"揭開Linux內核中一個24年前的bug。","locale":"zh-Hant"}]}},{"__typename":"SocialMediaPost","id":"HnPost-26102709","excerpt":"","slug":"/hn/26102709","title":"America's 1% Has Taken $50T From the Bottom 90%","date":"February 11, 2021","dateISO":"2021-02-11T20:47:34.845Z","datetime":"2021-02-11 20:47","tags":["story","Hacker News"],"image":null,"imageAlt":null,"provider":"Hacker News","thirdPartyId":"26102709","url":"https://news.ycombinator.com/item?id=26102709","originalUrl":"https://time.com/5888024/50-trillion-income-inequality-america/","imageRemote":"https://api.time.com/wp-content/uploads/2020/09/5-trillion-income-inequality-usa-01.jpg?quality=85&crop=0px%2C347px%2C2400px%2C1256px&resize=1200%2C628&strip","video":null,"channel":null,"channelUrl":null,"author":"paulpauper","authorUrl":"https://news.ycombinator.com/user?id=paulpauper","authorImage":null,"authorSlug":null,"score":869,"views":null,"sharedCount":null,"likeCount":null,"sharedContent":null,"parent":{"__typename":"HnJson","localize":[{"title":"美国1%的人从底层90%的人那里拿走了50万美金","locale":"zh"},{"title":"美國1%的人從底層90%的人那裏拿走了50萬美金","locale":"zh-Hant"}]}},{"__typename":"SocialMediaPost","id":"HnPost-26103776","excerpt":"","slug":"/hn/26103776","title":"Why I Built Litestream","date":"February 11, 2021","dateISO":"2021-02-11T20:25:31.532Z","datetime":"2021-02-11 20:25","tags":["story","Hacker News"],"image":null,"imageAlt":null,"provider":"Hacker News","thirdPartyId":"26103776","url":"https://news.ycombinator.com/item?id=26103776","originalUrl":"https://litestream.io/blog/why-i-built-litestream/","imageRemote":null,"video":null,"channel":null,"channelUrl":null,"author":"benbjohnson","authorUrl":"https://news.ycombinator.com/user?id=benbjohnson","authorImage":null,"authorSlug":null,"score":699,"views":null,"sharedCount":null,"likeCount":null,"sharedContent":null,"parent":{"__typename":"HnJson","localize":[{"title":"我为什么要建立Litestream？","locale":"zh"},{"title":"我爲什麼要建立Litestream？","locale":"zh-Hant"}]}},{"__typename":"SocialMediaPost","id":"HnPost-26101092","excerpt":"","slug":"/hn/26101092","title":"What Do You Agree to When You Accept All Cookies","date":"February 11, 2021","dateISO":"2021-02-11T19:08:57.996Z","datetime":"2021-02-11 19:08","tags":["story","Hacker News"],"image":null,"imageAlt":null,"provider":"Hacker News","thirdPartyId":"26101092","url":"https://news.ycombinator.com/item?id=26101092","originalUrl":"http://www.conradakunga.com/blog/what-do-you-actually-agree-to-when-you-accept-all-cookies/","imageRemote":"http://www.conradakunga.com/blog/images/2020/12/Banner1.png","video":null,"channel":null,"channelUrl":null,"author":"kaboro","authorUrl":"https://news.ycombinator.com/user?id=kaboro","authorImage":null,"authorSlug":null,"score":329,"views":null,"sharedCount":null,"likeCount":null,"sharedContent":null,"parent":{"__typename":"HnJson","localize":[{"title":"当您接受所有Cookies时，您同意什么？","locale":"zh"},{"title":"當您接受所有Cookies時，您同意什麼？","locale":"zh-Hant"}]}},{"__typename":"SocialMediaPost","id":"HnPost-26101608","excerpt":"","slug":"/hn/26101608","title":"Podman: A Daemonless Container Engine","date":"February 11, 2021","dateISO":"2021-02-11T18:39:54.923Z","datetime":"2021-02-11 18:39","tags":["story","Hacker News"],"image":null,"imageAlt":null,"provider":"Hacker News","thirdPartyId":"26101608","url":"https://news.ycombinator.com/item?id=26101608","originalUrl":"https://podman.io/","imageRemote":"https://podman.io/images/podman.svg","video":null,"channel":null,"channelUrl":null,"author":"lobo_tuerto","authorUrl":"https://news.ycombinator.com/user?id=lobo_tuerto","authorImage":null,"authorSlug":null,"score":321,"views":null,"sharedCount":null,"likeCount":null,"sharedContent":null,"parent":{"__typename":"HnJson","localize":[{"title":"Podman。一个无守护进程的容器引擎","locale":"zh"},{"title":"Podman。一個無守護進程的容器引擎","locale":"zh-Hant"}]}},{"__typename":"SocialMediaPost","id":"HnPost-26102076","excerpt":"","slug":"/hn/26102076","title":"AMD Is Currently Hiring More Linux Engineers","date":"February 11, 2021","dateISO":"2021-02-11T18:22:16.216Z","datetime":"2021-02-11 18:22","tags":["story","Hacker News"],"image":null,"imageAlt":null,"provider":"Hacker News","thirdPartyId":"26102076","url":"https://news.ycombinator.com/item?id=26102076","originalUrl":"https://www.phoronix.com/scan.php?page=news_item&px=AMD-Hiring-More-Linux-2021","imageRemote":"https://www.phoronix.com/assets/categories/amd.jpg","video":null,"channel":null,"channelUrl":null,"author":"thg","authorUrl":"https://news.ycombinator.com/user?id=thg","authorImage":null,"authorSlug":null,"score":265,"views":null,"sharedCount":null,"likeCount":null,"sharedContent":null,"parent":{"__typename":"HnJson","localize":[{"title":"AMD目前正在招聘更多的Linux工程师","locale":"zh"},{"title":"AMD目前正在招聘更多的Linux工程師","locale":"zh-Hant"}]}},{"__typename":"SocialMediaPost","id":"HnPost-26101435","excerpt":"","slug":"/hn/26101435","title":"From First Principles: Why Scala?","date":"February 11, 2021","dateISO":"2021-02-11T17:50:40.739Z","datetime":"2021-02-11 17:50","tags":["story","Hacker News"],"image":null,"imageAlt":null,"provider":"Hacker News","thirdPartyId":"26101435","url":"https://news.ycombinator.com/item?id=26101435","originalUrl":"https://www.lihaoyi.com/post/FromFirstPrinciplesWhyScala.html","imageRemote":"https://www.lihaoyi.com/handsonscala.png","video":null,"channel":null,"channelUrl":null,"author":"lihaoyi","authorUrl":"https://news.ycombinator.com/user?id=lihaoyi","authorImage":null,"authorSlug":null,"score":285,"views":null,"sharedCount":null,"likeCount":null,"sharedContent":null,"parent":{"__typename":"HnJson","localize":[{"title":"从第一原理开始。为什么是Scala?","locale":"zh"},{"title":"從第一原理開始。爲什麼是Scala?","locale":"zh-Hant"}]}},{"__typename":"SocialMediaPost","id":"HnPost-26101066","excerpt":"","slug":"/hn/26101066","title":"Rust Cookbook","date":"February 11, 2021","dateISO":"2021-02-11T17:39:50.380Z","datetime":"2021-02-11 17:39","tags":["story","Hacker News"],"image":null,"imageAlt":null,"provider":"Hacker News","thirdPartyId":"26101066","url":"https://news.ycombinator.com/item?id=26101066","originalUrl":"https://rust-lang-nursery.github.io/rust-cookbook/intro.html","imageRemote":"https://badge-cache.kominick.com/crates/v/rand.svg?label=rand","video":null,"channel":null,"channelUrl":null,"author":"smusamashah","authorUrl":"https://news.ycombinator.com/user?id=smusamashah","authorImage":null,"authorSlug":null,"score":239,"views":null,"sharedCount":null,"likeCount":null,"sharedContent":null,"parent":{"__typename":"HnJson","localize":[{"title":"Rust Cookbook","locale":"zh"},{"title":"Rust Cookbook","locale":"zh-Hant"}]}},{"__typename":"SocialMediaPost","id":"HnPost-26101153","excerpt":"","slug":"/hn/26101153","title":"Dyson air purifier outperformed by cheap DIY box fan filter in Marketplace test","date":"February 11, 2021","dateISO":"2021-02-11T17:39:50.380Z","datetime":"2021-02-11 17:39","tags":["story","Hacker News"],"image":null,"imageAlt":null,"provider":"Hacker News","thirdPartyId":"26101153","url":"https://news.ycombinator.com/item?id=26101153","originalUrl":"https://www.cbc.ca/1.5900782","imageRemote":"https://i.cbc.ca/1.5900799.1612453779!/fileImage/httpImage/image.jpeg_gen/derivatives/16x9_620/marketplace-purifier-test.jpeg","video":null,"channel":null,"channelUrl":null,"author":"walterbell","authorUrl":"https://news.ycombinator.com/user?id=walterbell","authorImage":null,"authorSlug":null,"score":792,"views":null,"sharedCount":null,"likeCount":null,"sharedContent":null,"parent":{"__typename":"HnJson","localize":[{"title":"戴森空气净化器在市场测试中表现优于廉价的DIY箱式风机滤网","locale":"zh"},{"title":"戴森空氣淨化器在市場測試中表現優於廉價的DIY箱式風機濾網","locale":"zh-Hant"}]}},{"__typename":"SocialMediaPost","id":"HnPost-26101922","excerpt":"","slug":"/hn/26101922","title":"Rust 1.50","date":"February 11, 2021","dateISO":"2021-02-11T17:39:50.380Z","datetime":"2021-02-11 17:39","tags":["story","Hacker News"],"image":null,"imageAlt":null,"provider":"Hacker News","thirdPartyId":"26101922","url":"https://news.ycombinator.com/item?id=26101922","originalUrl":"https://blog.rust-lang.org/2021/02/11/Rust-1.50.0.html","imageRemote":"https://www.rust-lang.org/static/images/rust-social-wide.jpg","video":null,"channel":null,"channelUrl":null,"author":"joseluisq","authorUrl":"https://news.ycombinator.com/user?id=joseluisq","authorImage":null,"authorSlug":null,"score":377,"views":null,"sharedCount":null,"likeCount":null,"sharedContent":null,"parent":{"__typename":"HnJson","localize":[{"title":"生锈 1.50","locale":"zh"},{"title":"生鏽 1.50","locale":"zh-Hant"}]}},{"__typename":"SocialMediaPost","id":"HnPost-26102695","excerpt":"","slug":"/hn/26102695","title":"TurboTax Just Tricked You into Paying to File Your Taxes","date":"February 11, 2021","dateISO":"2021-02-11T17:39:50.380Z","datetime":"2021-02-11 17:39","tags":["story","Hacker News"],"image":null,"imageAlt":null,"provider":"Hacker News","thirdPartyId":"26102695","url":"https://news.ycombinator.com/item?id=26102695","originalUrl":"https://www.propublica.org/article/turbotax-just-tricked-you-into-paying-to-file-your-taxes","imageRemote":"https://assets-c3.propublica.org/images/articles/_1200x630_crop_center-center_82_none/20190422-turbotax-ads-1200x630.jpg?mtime=1571340539","video":null,"channel":null,"channelUrl":null,"author":"paulpauper","authorUrl":"https://news.ycombinator.com/user?id=paulpauper","authorImage":null,"authorSlug":null,"score":410,"views":null,"sharedCount":null,"likeCount":null,"sharedContent":null,"parent":{"__typename":"HnJson","localize":[{"title":"TurboTax只是欺骗你，让你花钱报税","locale":"zh"},{"title":"TurboTax只是欺騙你，讓你花錢報稅","locale":"zh-Hant"}]}},{"__typename":"SocialMediaPost","id":"HnPost-26101929","excerpt":"","slug":"/hn/26101929","title":"The Vaccine Had to Be Used. He Used It. He Was Fired","date":"February 11, 2021","dateISO":"2021-02-11T16:36:54.838Z","datetime":"2021-02-11 16:36","tags":["story","Hacker News"],"image":null,"imageAlt":null,"provider":"Hacker News","thirdPartyId":"26101929","url":"https://news.ycombinator.com/item?id=26101929","originalUrl":"https://nyti.ms/3q5J38a","imageRemote":"https://static01.nyt.com/images/2021/02/09/multimedia/00covid-doctor-1/00covid-doctor-1-facebookJumbo.jpg","video":null,"channel":null,"channelUrl":null,"author":"Clewza313","authorUrl":"https://news.ycombinator.com/user?id=Clewza313","authorImage":null,"authorSlug":null,"score":283,"views":null,"sharedCount":null,"likeCount":null,"sharedContent":null,"parent":{"__typename":"HnJson","localize":[{"title":"疫苗不得不用。他用了 他被解雇了","locale":"zh"},{"title":"疫苗不得不用。他用了 他被解僱了","locale":"zh-Hant"}]}},{"__typename":"SocialMediaPost","id":"HnPost-26102030","excerpt":"","slug":"/hn/26102030","title":"MasterCard to open up network to cryptocurrencies","date":"February 11, 2021","dateISO":"2021-02-11T16:36:54.838Z","datetime":"2021-02-11 16:36","tags":["story","Hacker News"],"image":null,"imageAlt":null,"provider":"Hacker News","thirdPartyId":"26102030","url":"https://news.ycombinator.com/item?id=26102030","originalUrl":"https://www.reuters.com/article/us-crypto-currency-mastercard/mastercard-to-open-up-network-to-select-cryptocurrencies-idUSKBN2AA2WF","imageRemote":"https://static.reuters.com/resources/r/?m=02&d=20210211&t=2&i=1551122467&r=LYNXMPEH19204&w=800","video":null,"channel":null,"channelUrl":null,"author":"ArtTimeInvestor","authorUrl":"https://news.ycombinator.com/user?id=ArtTimeInvestor","authorImage":null,"authorSlug":null,"score":974,"views":null,"sharedCount":null,"likeCount":null,"sharedContent":null,"parent":{"__typename":"HnJson","localize":[{"title":"万事达卡将向加密货币开放网络","locale":"zh"},{"title":"萬事達卡將向加密貨幣開放網絡","locale":"zh-Hant"}]}},{"__typename":"SocialMediaPost","id":"HnPost-26080798","excerpt":"","slug":"/hn/26080798","title":"Migrating a JavaScript Library from JavaScript to WebAssembly","date":"February 11, 2021","dateISO":"2021-02-11T13:33:27.995Z","datetime":"2021-02-11 13:33","tags":["story","Hacker News"],"image":null,"imageAlt":null,"provider":"Hacker News","thirdPartyId":"26080798","url":"https://news.ycombinator.com/item?id=26080798","originalUrl":"https://engineering.q42.nl/webassembly/","imageRemote":"https://engineering.q42.nl/content/images/2020/09/Going-From-JavaScript-to-WebAssembly-in-Three-Steps-1.jpg","video":null,"channel":null,"channelUrl":null,"author":"jasperk","authorUrl":"https://news.ycombinator.com/user?id=jasperk","authorImage":null,"authorSlug":null,"score":210,"views":null,"sharedCount":null,"likeCount":null,"sharedContent":null,"parent":{"__typename":"HnJson","localize":[{"title":"将JavaScript库从JavaScript迁移到WebAssembly上","locale":"zh"},{"title":"將JavaScript庫從JavaScript遷移到WebAssembly上","locale":"zh-Hant"}]}},{"__typename":"SocialMediaPost","id":"HnPost-26100075","excerpt":"","slug":"/hn/26100075","title":"Beej's Guide to Network Programming","date":"February 11, 2021","dateISO":"2021-02-11T13:23:33.960Z","datetime":"2021-02-11 13:23","tags":["story","Hacker News"],"image":null,"imageAlt":null,"provider":"Hacker News","thirdPartyId":"26100075","url":"https://news.ycombinator.com/item?id=26100075","originalUrl":"https://beej.us/guide/bgnet/html/","imageRemote":null,"video":null,"channel":null,"channelUrl":null,"author":"ColinWright","authorUrl":"https://news.ycombinator.com/user?id=ColinWright","authorImage":null,"authorSlug":null,"score":992,"views":null,"sharedCount":null,"likeCount":null,"sharedContent":null,"parent":{"__typename":"HnJson","localize":[{"title":"Beej的网络编程指南","locale":"zh"},{"title":"Beej的網絡編程指南","locale":"zh-Hant"}]}},{"__typename":"SocialMediaPost","id":"HnPost-26096340","excerpt":"","slug":"/hn/26096340","title":"Why Wasn't Ruby 3 Faster?","date":"February 11, 2021","dateISO":"2021-02-11T10:25:17.561Z","datetime":"2021-02-11 10:25","tags":["story","Hacker News"],"image":null,"imageAlt":null,"provider":"Hacker News","thirdPartyId":"26096340","url":"https://news.ycombinator.com/item?id=26096340","originalUrl":"https://www.fastruby.io/blog/ruby/performance/why-wasnt-ruby-3-faster.html","imageRemote":"https://fastruby.io/blog/assets/images/profile.png","video":null,"channel":null,"channelUrl":null,"author":"stanislavb","authorUrl":"https://news.ycombinator.com/user?id=stanislavb","authorImage":null,"authorSlug":null,"score":216,"views":null,"sharedCount":null,"likeCount":null,"sharedContent":null,"parent":{"__typename":"HnJson","localize":[{"title":"为什么Ruby 3的速度不快？","locale":"zh"},{"title":"爲什麼Ruby 3的速度不快？","locale":"zh-Hant"}]}},{"__typename":"SocialMediaPost","id":"HnPost-26097732","excerpt":"","slug":"/hn/26097732","title":"WTF Python: Exploring and understanding Python through surprising snippets","date":"February 11, 2021","dateISO":"2021-02-11T09:40:08.996Z","datetime":"2021-02-11 09:40","tags":["story","Hacker News"],"image":null,"imageAlt":null,"provider":"Hacker News","thirdPartyId":"26097732","url":"https://news.ycombinator.com/item?id=26097732","originalUrl":"https://github.com/satwikkansal/wtfpython","imageRemote":"https://avatars.githubusercontent.com/u/10217535?s=400&v=4","video":null,"channel":null,"channelUrl":null,"author":"srathi","authorUrl":"https://news.ycombinator.com/user?id=srathi","authorImage":null,"authorSlug":null,"score":345,"views":null,"sharedCount":null,"likeCount":null,"sharedContent":null,"parent":{"__typename":"HnJson","localize":[{"title":"WTF Python。通过令人惊讶的片段探索和理解Python。","locale":"zh"},{"title":"WTF Python。通過令人驚訝的片段探索和理解Python。","locale":"zh-Hant"}]}},{"__typename":"SocialMediaPost","id":"HnPost-26096320","excerpt":"","slug":"/hn/26096320","title":"Google is now telling users its apps are out of date. No updates are available","date":"February 11, 2021","dateISO":"2021-02-11T08:58:11.571Z","datetime":"2021-02-11 08:58","tags":["story","Hacker News"],"image":null,"imageAlt":null,"provider":"Hacker News","thirdPartyId":"26096320","url":"https://news.ycombinator.com/item?id=26096320","originalUrl":"https://spencerdailey.com/2021/02/10/google-itself-is-now-telling-users-their-apps-are-out-of-date-despite-no-updates-being-available/","imageRemote":"https://spencerdailey.com/wp-content/uploads/2021/02/IMG_4434.jpeg","video":null,"channel":null,"channelUrl":null,"author":"spenvo","authorUrl":"https://news.ycombinator.com/user?id=spenvo","authorImage":null,"authorSlug":null,"score":304,"views":null,"sharedCount":null,"likeCount":null,"sharedContent":null,"parent":{"__typename":"HnJson","localize":[{"title":"谷歌现在告诉用户，它的应用已经过时了。没有更新","locale":"zh"},{"title":"谷歌現在告訴用戶，它的應用已經過時了。沒有更新","locale":"zh-Hant"}]}},{"__typename":"SocialMediaPost","id":"HnPost-26098010","excerpt":"","slug":"/hn/26098010","title":"System76 Launch Configurable Keyboard with Open Source Code","date":"February 11, 2021","dateISO":"2021-02-11T07:49:43.002Z","datetime":"2021-02-11 07:49","tags":["story","Hacker News"],"image":null,"imageAlt":null,"provider":"Hacker News","thirdPartyId":"26098010","url":"https://news.ycombinator.com/item?id=26098010","originalUrl":"https://github.com/system76/launch","imageRemote":"https://avatars.githubusercontent.com/u/2448433?s=400&v=4","video":null,"channel":null,"channelUrl":null,"author":"nitinreddy88","authorUrl":"https://news.ycombinator.com/user?id=nitinreddy88","authorImage":null,"authorSlug":null,"score":512,"views":null,"sharedCount":null,"likeCount":null,"sharedContent":null,"parent":{"__typename":"HnJson","localize":[{"title":"System76推出可配置的键盘，采用开源代码。","locale":"zh"},{"title":"System76推出可配置的鍵盤，採用開源代碼。","locale":"zh-Hant"}]}}]}},"pageContext":{"basePath":"/","pageType":"tag","tag":"Hacker News","tagsFilter":{"id":{"glob":"!*Post-1"}},"filter":{"id":{"glob":"!*Post-1"},"tags":{"eq":"Hacker News"}},"limit":25,"skip":1425,"total":3107,"totalPages":125,"currentPage":58,"maxWidth":1024,"maxHeight":512,"locale":"zh","hrefLang":"zh-Hans","originalPath":"/tags/hacker-news/page/58","dateFormat":"YYYY-MM-DD"}},"staticQueryHashes":["1239077767","2506312863","2744905544","3025052997","3493603132","3493603132","3513215887","386998304"]}