{"componentChunkName":"component---gatsby-theme-buzzing-src-gatsby-theme-timeline-templates-posts-query-js","path":"/en/tags/hacker-news/page/54","result":{"data":{"site":{"siteMetadata":{"title":"Reddit 热门","description":"用中文浏览Reddit热门内容","social":[{"name":"Twitter","url":"https://twitter.com/gatsbyjs","external":null,"prefetch":null},{"name":"GitHub","url":"https://github.com/gatsbyjs","external":null,"prefetch":null}],"menuLinks":[],"localize":[{"locale":"en","title":"Buzzing on Reddit","description":"See what's buzzing on Reddit in your native language","social":[{"name":"Reddit","url":"https://www.reddit.com/","external":true,"prefetch":null}],"menuLinks":[{"name":"Weekly Selection","url":"/issues","external":null,"prefetch":null},{"name":"RSS","url":"/rss.xml","external":null,"prefetch":false}]},{"locale":"zh-Hant","title":"Reddit 熱門","description":"用中文瀏覽Reddit熱門內容","social":null,"menuLinks":null}]}},"tagsGroup":{"group":[{"fieldValue":"ASK HN","totalCount":54},{"fieldValue":"Hacker News","totalCount":3105},{"fieldValue":"Poll","totalCount":1},{"fieldValue":"Show HN","totalCount":100},{"fieldValue":"poll","totalCount":1},{"fieldValue":"story","totalCount":3104}]},"allBlogPost":{"nodes":[{"__typename":"SocialMediaPost","id":"HnPost-26142432","excerpt":"","slug":"/hn/26142432","title":"The Therac-25 Incident","date":"February 15, 2021","dateISO":"2021-02-15T23:51:40.450Z","datetime":"2021-02-15 23:51","tags":["story","Hacker News"],"image":null,"imageAlt":null,"provider":"Hacker News","thirdPartyId":"26142432","url":"https://news.ycombinator.com/item?id=26142432","originalUrl":"https://thedailywtf.com/articles/the-therac-25-incident","imageRemote":"https://thedailywtf.com/images/remy/Remy203-300x300.png","video":null,"channel":null,"channelUrl":null,"author":"dagurp","authorUrl":"https://news.ycombinator.com/user?id=dagurp","authorImage":null,"authorSlug":null,"score":234,"views":null,"sharedCount":null,"likeCount":null,"sharedContent":null,"parent":{"__typename":"HnJson","localize":[{"title":"Therac-25事件","locale":"zh"},{"title":"Therac-25事件","locale":"zh-Hant"}]}},{"__typename":"SocialMediaPost","id":"HnPost-26146599","excerpt":"","slug":"/hn/26146599","title":"Autopilot on Cars for $999","date":"February 15, 2021","dateISO":"2021-02-15T22:24:49.451Z","datetime":"2021-02-15 22:24","tags":["story","Hacker News"],"image":null,"imageAlt":null,"provider":"Hacker News","thirdPartyId":"26146599","url":"https://news.ycombinator.com/item?id=26146599","originalUrl":"http://comma.ai","imageRemote":"https://comma.ai/meta-cover.jpg","video":null,"channel":null,"channelUrl":null,"author":"cbracketdash","authorUrl":"https://news.ycombinator.com/user?id=cbracketdash","authorImage":null,"authorSlug":null,"score":251,"views":null,"sharedCount":null,"likeCount":null,"sharedContent":null,"parent":{"__typename":"HnJson","localize":[{"title":"汽车上的自动驾驶，售价999元","locale":"zh"},{"title":"汽車上的自動駕駛，售價999元","locale":"zh-Hant"}]}},{"__typename":"SocialMediaPost","id":"HnPost-26146026","excerpt":"","slug":"/hn/26146026","title":"Mining Bitcoin with pencil and paper: 0.67 hashes per day (2014)","date":"February 15, 2021","dateISO":"2021-02-15T21:58:34.436Z","datetime":"2021-02-15 21:58","tags":["story","Hacker News"],"image":null,"imageAlt":null,"provider":"Hacker News","thirdPartyId":"26146026","url":"https://news.ycombinator.com/item?id=26146026","originalUrl":"http://www.righto.com/2014/09/mining-bitcoin-with-pencil-and-paper.html","imageRemote":"https://lh6.googleusercontent.com/proxy/TLCStrwNoSkl9odtjecKu2Imfrd3s159QSyZ-AE-tuDYuHgvSb44mB7u03DsOdNC4eyt1EDgYspm6HUDbxzsgxEUkvL6aUNr5apSNwEwRbxxtw=w1200-h630-p-k-no-nu","video":null,"channel":null,"channelUrl":null,"author":"tusharchoudhary","authorUrl":"https://news.ycombinator.com/user?id=tusharchoudhary","authorImage":null,"authorSlug":null,"score":403,"views":null,"sharedCount":null,"likeCount":null,"sharedContent":null,"parent":{"__typename":"HnJson","localize":[{"title":"用铅笔和纸开采比特币。每天0.67次哈希(2014年)","locale":"zh"},{"title":"用鉛筆和紙開採比特幣。每天0.67次哈希(2014年)","locale":"zh-Hant"}]}},{"__typename":"SocialMediaPost","id":"HnPost-26142654","excerpt":"","slug":"/hn/26142654","title":"How we hosted FOSDEM 2021 on Matrix","date":"February 15, 2021","dateISO":"2021-02-15T21:44:49.431Z","datetime":"2021-02-15 21:44","tags":["story","Hacker News"],"image":null,"imageAlt":null,"provider":"Hacker News","thirdPartyId":"26142654","url":"https://news.ycombinator.com/item?id=26142654","originalUrl":"https://matrix.org/blog/2021/02/15/how-we-hosted-fosdem-2021-on-matrix","imageRemote":"https://matrix.org/blog/img/2021-01-04-fosdem.jpg","video":null,"channel":null,"channelUrl":null,"author":"Arathorn","authorUrl":"https://news.ycombinator.com/user?id=Arathorn","authorImage":null,"authorSlug":null,"score":239,"views":null,"sharedCount":null,"likeCount":null,"sharedContent":null,"parent":{"__typename":"HnJson","localize":[{"title":"我们如何在Matrix上举办FOSDEM 2021展会","locale":"zh"},{"title":"我們如何在Matrix上舉辦FOSDEM 2021展會","locale":"zh-Hant"}]}},{"__typename":"SocialMediaPost","id":"HnPost-26144528","excerpt":"","slug":"/hn/26144528","title":"YouTubers have to declare ads. Why doesn't anyone else? [video]","date":"February 15, 2021","dateISO":"2021-02-15T20:52:32.239Z","datetime":"2021-02-15 20:52","tags":["story","Hacker News"],"image":null,"imageAlt":null,"provider":"Hacker News","thirdPartyId":"26144528","url":"https://news.ycombinator.com/item?id=26144528","originalUrl":"https://www.youtube.com/watch?v=L-x8DYTOv7w","imageRemote":"https://i.ytimg.com/vi/L-x8DYTOv7w/maxresdefault.jpg","video":null,"channel":null,"channelUrl":null,"author":"zinekeller","authorUrl":"https://news.ycombinator.com/user?id=zinekeller","authorImage":null,"authorSlug":null,"score":376,"views":null,"sharedCount":null,"likeCount":null,"sharedContent":null,"parent":{"__typename":"HnJson","localize":[{"title":"YouTubers必须申报广告。为什么别人不用？[视频]","locale":"zh"},{"title":"YouTubers必須申報廣告。爲什麼別人不用？[視頻]","locale":"zh-Hant"}]}},{"__typename":"SocialMediaPost","id":"HnPost-26144432","excerpt":"","slug":"/hn/26144432","title":"Launch HN: Noya (YC W21) – Direct air capture of CO2 using cooling towers","date":"February 15, 2021","dateISO":"2021-02-15T20:38:22.030Z","datetime":"2021-02-15 20:38","tags":["story","Hacker News"],"image":null,"imageAlt":null,"provider":"Hacker News","thirdPartyId":"26144432","url":"https://news.ycombinator.com/item?id=26144432","originalUrl":"https://news.ycombinator.com/item?id=26144432","imageRemote":null,"video":null,"channel":null,"channelUrl":null,"author":"jsantos511","authorUrl":"https://news.ycombinator.com/user?id=jsantos511","authorImage":null,"authorSlug":null,"score":399,"views":null,"sharedCount":null,"likeCount":null,"sharedContent":null,"parent":{"__typename":"HnJson","localize":[{"title":"发射HN： Noya（YC W21）--使用冷却塔直接从空气中捕获二氧化碳","locale":"zh"},{"title":"發射HN： Noya（YC W21）--使用冷卻塔直接從空氣中捕獲二氧化碳","locale":"zh-Hant"}]}},{"__typename":"SocialMediaPost","id":"HnPost-26143407","excerpt":"","slug":"/hn/26143407","title":"Ask HN: Why are e-ink note-taking devices so expensive compared to iPads?","date":"February 15, 2021","dateISO":"2021-02-15T19:52:57.331Z","datetime":"2021-02-15 19:52","tags":["story","ASK HN","Hacker News"],"image":null,"imageAlt":null,"provider":"Hacker News","thirdPartyId":"26143407","url":"https://news.ycombinator.com/item?id=26143407","originalUrl":"https://news.ycombinator.com/item?id=26143407","imageRemote":null,"video":null,"channel":"ASK HN","channelUrl":"https://news.ycombinator.com/ask","author":"behnamoh","authorUrl":"https://news.ycombinator.com/user?id=behnamoh","authorImage":null,"authorSlug":null,"score":330,"views":null,"sharedCount":null,"likeCount":null,"sharedContent":null,"parent":{"__typename":"HnJson","localize":[{"title":"问HN：为什么电子墨水记事本设备比iPad贵？","locale":"zh"},{"title":"問HN：爲什麼電子墨水記事本設備比iPad貴？","locale":"zh-Hant"}]}},{"__typename":"SocialMediaPost","id":"HnPost-26141786","excerpt":"","slug":"/hn/26141786","title":"26 Years of Delphi","date":"February 15, 2021","dateISO":"2021-02-15T19:39:23.449Z","datetime":"2021-02-15 19:39","tags":["story","Hacker News"],"image":null,"imageAlt":null,"provider":"Hacker News","thirdPartyId":"26141786","url":"https://news.ycombinator.com/item?id=26141786","originalUrl":"https://blogs.embarcadero.com/26-years-of-delphi/","imageRemote":"https://blogs.embarcadero.com/wp-content/uploads/2021/02/20_new_designs_delphi26-anniv_white_1200x300-3959676.jpg","video":null,"channel":null,"channelUrl":null,"author":"mustafabisic1","authorUrl":"https://news.ycombinator.com/user?id=mustafabisic1","authorImage":null,"authorSlug":null,"score":197,"views":null,"sharedCount":null,"likeCount":null,"sharedContent":null,"parent":{"__typename":"HnJson","localize":[{"title":"德尔菲26年","locale":"zh"},{"title":"德爾菲26年","locale":"zh-Hant"}]}},{"__typename":"SocialMediaPost","id":"HnPost-26142005","excerpt":"","slug":"/hn/26142005","title":"Running Nomad for a Home Server","date":"February 15, 2021","dateISO":"2021-02-15T18:39:54.490Z","datetime":"2021-02-15 18:39","tags":["story","Hacker News"],"image":null,"imageAlt":null,"provider":"Hacker News","thirdPartyId":"26142005","url":"https://news.ycombinator.com/item?id=26142005","originalUrl":"https://mrkaran.dev/posts/home-server-nomad/","imageRemote":"https://mrkaran.dev/images/nomad-hydra.png","video":null,"channel":null,"channelUrl":null,"author":"elliebike","authorUrl":"https://news.ycombinator.com/user?id=elliebike","authorImage":null,"authorSlug":null,"score":278,"views":null,"sharedCount":null,"likeCount":null,"sharedContent":null,"parent":{"__typename":"HnJson","localize":[{"title":"为家庭服务器运行Nomad","locale":"zh"},{"title":"爲家庭服務器運行Nomad","locale":"zh-Hant"}]}},{"__typename":"SocialMediaPost","id":"HnPost-26143648","excerpt":"","slug":"/hn/26143648","title":"Faster JavaScript Calls","date":"February 15, 2021","dateISO":"2021-02-15T18:39:54.490Z","datetime":"2021-02-15 18:39","tags":["story","Hacker News"],"image":null,"imageAlt":null,"provider":"Hacker News","thirdPartyId":"26143648","url":"https://news.ycombinator.com/item?id=26143648","originalUrl":"https://v8.dev/blog/adaptor-frame","imageRemote":"https://v8.dev/_img/v8-release-89/perf.svg","video":null,"channel":null,"channelUrl":null,"author":"feross","authorUrl":"https://news.ycombinator.com/user?id=feross","authorImage":null,"authorSlug":null,"score":442,"views":null,"sharedCount":null,"likeCount":null,"sharedContent":null,"parent":{"__typename":"HnJson","localize":[{"title":"更快的JavaScript调用","locale":"zh"},{"title":"更快的JavaScript調用","locale":"zh-Hant"}]}},{"__typename":"SocialMediaPost","id":"HnPost-26141469","excerpt":"","slug":"/hn/26141469","title":"Spotify is letting employees work from anywhere while paying SF and NY salaries","date":"February 15, 2021","dateISO":"2021-02-15T17:55:21.444Z","datetime":"2021-02-15 17:55","tags":["story","Hacker News"],"image":null,"imageAlt":null,"provider":"Hacker News","thirdPartyId":"26141469","url":"https://news.ycombinator.com/item?id=26141469","originalUrl":"https://www.businessinsider.com/spotify-unveils-new-remote-work-option-for-all-employees-2021-2","imageRemote":"https://i.insider.com/6026a99a2edd0f001a8d5856?width=1200&format=jpeg","video":null,"channel":null,"channelUrl":null,"author":"ivanche","authorUrl":"https://news.ycombinator.com/user?id=ivanche","authorImage":null,"authorSlug":null,"score":396,"views":null,"sharedCount":null,"likeCount":null,"sharedContent":null,"parent":{"__typename":"HnJson","localize":[{"title":"Spotify让员工在任何地方工作，同时支付旧金山和纽约的工资。","locale":"zh"},{"title":"Spotify讓員工在任何地方工作，同時支付舊金山和紐約的工資。","locale":"zh-Hant"}]}},{"__typename":"SocialMediaPost","id":"HnPost-26140862","excerpt":"","slug":"/hn/26140862","title":"OWASP Cheat Sheet Series","date":"February 15, 2021","dateISO":"2021-02-15T16:05:09.912Z","datetime":"2021-02-15 16:05","tags":["story","Hacker News"],"image":null,"imageAlt":null,"provider":"Hacker News","thirdPartyId":"26140862","url":"https://news.ycombinator.com/item?id=26140862","originalUrl":"https://cheatsheetseries.owasp.org/","imageRemote":"https://cheatsheetseries.owasp.org/assets/Preface_Cheatsheet_Header.png","video":null,"channel":null,"channelUrl":null,"author":"tilt","authorUrl":"https://news.ycombinator.com/user?id=tilt","authorImage":null,"authorSlug":null,"score":297,"views":null,"sharedCount":null,"likeCount":null,"sharedContent":null,"parent":{"__typename":"HnJson","localize":[{"title":"OWASP小抄系列","locale":"zh"},{"title":"OWASP小抄系列","locale":"zh-Hant"}]}},{"__typename":"SocialMediaPost","id":"HnPost-26141003","excerpt":"","slug":"/hn/26141003","title":"Why SELECT * is bad for SQL performance","date":"February 15, 2021","dateISO":"2021-02-15T16:05:09.912Z","datetime":"2021-02-15 16:05","tags":["story","Hacker News"],"image":null,"imageAlt":null,"provider":"Hacker News","thirdPartyId":"26141003","url":"https://news.ycombinator.com/item?id=26141003","originalUrl":"https://tanelpoder.com/posts/reasons-why-select-star-is-bad-for-sql-performance/","imageRemote":"https://tanelpoder.com/files/images/tanelpoder_small.png","video":null,"channel":null,"channelUrl":null,"author":"wheresvic4","authorUrl":"https://news.ycombinator.com/user?id=wheresvic4","authorImage":null,"authorSlug":null,"score":259,"views":null,"sharedCount":null,"likeCount":null,"sharedContent":null,"parent":{"__typename":"HnJson","localize":[{"title":"为什么SELECT *对SQL性能不利","locale":"zh"},{"title":"爲什麼SELECT *對SQL性能不利","locale":"zh-Hant"}]}},{"__typename":"SocialMediaPost","id":"HnPost-26136667","excerpt":"","slug":"/hn/26136667","title":"A Warning to Users of NurseryCam","date":"February 15, 2021","dateISO":"2021-02-15T15:41:30.332Z","datetime":"2021-02-15 15:41","tags":["story","Hacker News"],"image":null,"imageAlt":null,"provider":"Hacker News","thirdPartyId":"26136667","url":"https://news.ycombinator.com/item?id=26136667","originalUrl":"https://cybergibbons.com/security-2/a-warning-to-users-of-nurserycam/","imageRemote":"https://cybergibbons.com/wp-content/uploads/2021/02/2021-02-15-09_24_46-Untitled-1-LibreOffice-Draw.png","video":null,"channel":null,"channelUrl":null,"author":"carwyn","authorUrl":"https://news.ycombinator.com/user?id=carwyn","authorImage":null,"authorSlug":null,"score":166,"views":null,"sharedCount":null,"likeCount":null,"sharedContent":null,"parent":{"__typename":"HnJson","localize":[{"title":"对NurseryCam用户的警告","locale":"zh"},{"title":"對NurseryCam用戶的警告","locale":"zh-Hant"}]}},{"__typename":"SocialMediaPost","id":"HnPost-26132726","excerpt":"","slug":"/hn/26132726","title":"Nyuzi – An Experimental Open-Source FPGA GPGPU Processor","date":"February 15, 2021","dateISO":"2021-02-15T14:38:24.155Z","datetime":"2021-02-15 14:38","tags":["story","Hacker News"],"image":null,"imageAlt":null,"provider":"Hacker News","thirdPartyId":"26132726","url":"https://news.ycombinator.com/item?id=26132726","originalUrl":"https://github.com/jbush001/NyuziProcessor/","imageRemote":"https://avatars.githubusercontent.com/u/1145212?s=400&v=4","video":null,"channel":null,"channelUrl":null,"author":"peter_d_sherman","authorUrl":"https://news.ycombinator.com/user?id=peter_d_sherman","authorImage":null,"authorSlug":null,"score":165,"views":null,"sharedCount":null,"likeCount":null,"sharedContent":null,"parent":{"__typename":"HnJson","localize":[{"title":"Nyuzi - 一个实验性的开源FPGA GPGPU处理器","locale":"zh"},{"title":"Nyuzi - 一個實驗性的開源FPGA GPGPU處理器","locale":"zh-Hant"}]}},{"__typename":"SocialMediaPost","id":"HnPost-26137703","excerpt":"","slug":"/hn/26137703","title":"Melting permafrost cause huge underground methane explosions in Siberia","date":"February 15, 2021","dateISO":"2021-02-15T14:16:40.844Z","datetime":"2021-02-15 14:16","tags":["story","Hacker News"],"image":null,"imageAlt":null,"provider":"Hacker News","thirdPartyId":"26137703","url":"https://news.ycombinator.com/item?id=26137703","originalUrl":"https://siberiantimes.com/other/others/news/scientists-call-for-urgent-increase-in-monitoring-potentially-explosive-permafrost-heave-mounds/","imageRemote":"https://siberiantimes.com/upload/banners/banner_1355678306.png","video":null,"channel":null,"channelUrl":null,"author":"dmitriy_ko","authorUrl":"https://news.ycombinator.com/user?id=dmitriy_ko","authorImage":null,"authorSlug":null,"score":208,"views":null,"sharedCount":null,"likeCount":null,"sharedContent":null,"parent":{"__typename":"HnJson","localize":[{"title":"冻土融化导致西伯利亚巨大的地下甲烷爆炸。","locale":"zh"},{"title":"凍土融化導致西伯利亞巨大的地下甲烷爆炸。","locale":"zh-Hant"}]}},{"__typename":"SocialMediaPost","id":"HnPost-26141124","excerpt":"","slug":"/hn/26141124","title":"A tiny C compiler which can compile itself (in 2048 bytes)","date":"February 15, 2021","dateISO":"2021-02-15T14:16:40.844Z","datetime":"2021-02-15 14:16","tags":["story","Hacker News"],"image":null,"imageAlt":null,"provider":"Hacker News","thirdPartyId":"26141124","url":"https://news.ycombinator.com/item?id=26141124","originalUrl":"https://bellard.org/otcc/","imageRemote":null,"video":null,"channel":null,"channelUrl":null,"author":"ducktective","authorUrl":"https://news.ycombinator.com/user?id=ducktective","authorImage":null,"authorSlug":null,"score":380,"views":null,"sharedCount":null,"likeCount":null,"sharedContent":null,"parent":{"__typename":"HnJson","localize":[{"title":"一个微小的C编译器，它可以自己编译（2048字节）。","locale":"zh"},{"title":"一個微小的C編譯器，它可以自己編譯（2048字節）。","locale":"zh-Hant"}]}},{"__typename":"SocialMediaPost","id":"HnPost-26139348","excerpt":"","slug":"/hn/26139348","title":"I Blew It","date":"February 15, 2021","dateISO":"2021-02-15T12:38:53.643Z","datetime":"2021-02-15 12:38","tags":["story","Hacker News"],"image":null,"imageAlt":null,"provider":"Hacker News","thirdPartyId":"26139348","url":"https://news.ycombinator.com/item?id=26139348","originalUrl":"http://www.erasmatazz.com/personal/self/i-really-blew-it.html","imageRemote":"http://www.erasmatazz.com/_Media/erasmus-2_med_hr.png","video":null,"channel":null,"channelUrl":null,"author":"webmaven","authorUrl":"https://news.ycombinator.com/user?id=webmaven","authorImage":null,"authorSlug":null,"score":318,"views":null,"sharedCount":null,"likeCount":null,"sharedContent":null,"parent":{"__typename":"HnJson","localize":[{"title":"I Blew It","locale":"zh"},{"title":"I Blew It","locale":"zh-Hant"}]}},{"__typename":"SocialMediaPost","id":"HnPost-26136623","excerpt":"","slug":"/hn/26136623","title":"Journalism, particularly at the highest level, is about raw power","date":"February 15, 2021","dateISO":"2021-02-15T11:46:49.715Z","datetime":"2021-02-15 11:46","tags":["story","Hacker News"],"image":null,"imageAlt":null,"provider":"Hacker News","thirdPartyId":"26136623","url":"https://news.ycombinator.com/item?id=26136623","originalUrl":"https://www.cjr.org/public_editor/washington-post-tesla-trump-power.php","imageRemote":"https://cdn.cjr.org/wp-content/uploads/2020/10/AdobeStock_314701961_Editorial_Use_Only-800x419.jpeg?122376","video":null,"channel":null,"channelUrl":null,"author":"apsec112","authorUrl":"https://news.ycombinator.com/user?id=apsec112","authorImage":null,"authorSlug":null,"score":196,"views":null,"sharedCount":null,"likeCount":null,"sharedContent":null,"parent":{"__typename":"HnJson","localize":[{"title":"新闻工作，尤其是最高级别的新闻工作，讲究的是生力军。","locale":"zh"},{"title":"新聞工作，尤其是最高級別的新聞工作，講究的是生力軍。","locale":"zh-Hant"}]}},{"__typename":"SocialMediaPost","id":"HnPost-26136708","excerpt":"","slug":"/hn/26136708","title":"I exploited existing YouTube videos with a fake Patreon profile","date":"February 15, 2021","dateISO":"2021-02-15T11:46:49.715Z","datetime":"2021-02-15 11:46","tags":["story","Hacker News"],"image":null,"imageAlt":null,"provider":"Hacker News","thirdPartyId":"26136708","url":"https://news.ycombinator.com/item?id=26136708","originalUrl":"https://www.lucas03.com/how-i-exploited-existing-youtube-videos-with-a-fake-patreon-profile/","imageRemote":"https://monosnap.com/image/fb9Ccw7qEsGVYOKATw75W5RlvdRgqF","video":null,"channel":null,"channelUrl":null,"author":"lucas03","authorUrl":"https://news.ycombinator.com/user?id=lucas03","authorImage":null,"authorSlug":null,"score":184,"views":null,"sharedCount":null,"likeCount":null,"sharedContent":null,"parent":{"__typename":"HnJson","localize":[{"title":"我利用现有的YouTube视频，用一个假的Patreon个人资料。","locale":"zh"},{"title":"我利用現有的YouTube視頻，用一個假的Patreon個人資料。","locale":"zh-Hant"}]}},{"__typename":"SocialMediaPost","id":"HnPost-26140086","excerpt":"","slug":"/hn/26140086","title":"Israeli study finds 94% drop in symptomatic Covid-19 cases with Pfizer vaccine","date":"February 15, 2021","dateISO":"2021-02-15T11:46:49.715Z","datetime":"2021-02-15 11:46","tags":["story","Hacker News"],"image":null,"imageAlt":null,"provider":"Hacker News","thirdPartyId":"26140086","url":"https://news.ycombinator.com/item?id=26140086","originalUrl":"https://www.reuters.com/article/us-health-coronavirus-israel-vaccine-idUSKBN2AE0Q2","imageRemote":"https://static.reuters.com/resources/r/?m=02&d=20210214&t=2&i=1551517561&r=LYNXMPEH1D0LG&w=800","video":null,"channel":null,"channelUrl":null,"author":"lazycrazyowl","authorUrl":"https://news.ycombinator.com/user?id=lazycrazyowl","authorImage":null,"authorSlug":null,"score":469,"views":null,"sharedCount":null,"likeCount":null,"sharedContent":null,"parent":{"__typename":"HnJson","localize":[{"title":"以色列研究发现，使用辉瑞疫苗后，症状性Covid-19病例下降94%。","locale":"zh"},{"title":"以色列研究發現，使用輝瑞疫苗後，症狀性Covid-19病例下降94%。","locale":"zh-Hant"}]}},{"__typename":"SocialMediaPost","id":"HnPost-26134854","excerpt":"","slug":"/hn/26134854","title":"Graphics Programming Weekly","date":"February 15, 2021","dateISO":"2021-02-15T09:57:19.829Z","datetime":"2021-02-15 09:57","tags":["story","Hacker News"],"image":null,"imageAlt":null,"provider":"Hacker News","thirdPartyId":"26134854","url":"https://news.ycombinator.com/item?id=26134854","originalUrl":"https://www.jendrikillner.com/tags/weekly/","imageRemote":"https://www.jendrikillner.com/img/jendrik_logo.png","video":null,"channel":null,"channelUrl":null,"author":"E-Reverance","authorUrl":"https://news.ycombinator.com/user?id=E-Reverance","authorImage":null,"authorSlug":null,"score":179,"views":null,"sharedCount":null,"likeCount":null,"sharedContent":null,"parent":{"__typename":"HnJson","localize":[{"title":"图形编程周刊","locale":"zh"},{"title":"圖形編程週刊","locale":"zh-Hant"}]}},{"__typename":"SocialMediaPost","id":"HnPost-26122712","excerpt":"","slug":"/hn/26122712","title":"Why “Trusting the Science” Is Complicated","date":"February 15, 2021","dateISO":"2021-02-15T09:17:42.969Z","datetime":"2021-02-15 09:17","tags":["story","Hacker News"],"image":null,"imageAlt":null,"provider":"Hacker News","thirdPartyId":"26122712","url":"https://news.ycombinator.com/item?id=26122712","originalUrl":"https://lareviewofbooks.org/article/why-trusting-the-science-is-complicated/","imageRemote":"https://lareviewofbooks-org-cgwbfgl6lklqqj3f4t3.netdna-ssl.com/wp-content/uploads/2021/02/onthefringe.jpg","video":null,"channel":null,"channelUrl":null,"author":"pseudolus","authorUrl":"https://news.ycombinator.com/user?id=pseudolus","authorImage":null,"authorSlug":null,"score":206,"views":null,"sharedCount":null,"likeCount":null,"sharedContent":null,"parent":{"__typename":"HnJson","localize":[{"title":"为什么 \"相信科学 \"是复杂的？","locale":"zh"},{"title":"爲什麼 \"相信科學 \"是複雜的？","locale":"zh-Hant"}]}},{"__typename":"SocialMediaPost","id":"HnPost-26138446","excerpt":"","slug":"/hn/26138446","title":"Show HN: ustaxes.org – open-source tax filing webapp","date":"February 15, 2021","dateISO":"2021-02-15T09:06:54.536Z","datetime":"2021-02-15 09:06","tags":["story","Show HN","Hacker News"],"image":null,"imageAlt":null,"provider":"Hacker News","thirdPartyId":"26138446","url":"https://news.ycombinator.com/item?id=26138446","originalUrl":"https://github.com/thegrims/UsTaxes","imageRemote":"https://avatars.githubusercontent.com/u/8848557?s=400&v=4","video":null,"channel":"Show HN","channelUrl":"https://news.ycombinator.com/show","author":"aidangrimshaw","authorUrl":"https://news.ycombinator.com/user?id=aidangrimshaw","authorImage":null,"authorSlug":null,"score":460,"views":null,"sharedCount":null,"likeCount":null,"sharedContent":null,"parent":{"__typename":"HnJson","localize":[{"title":"显示 HN: ustaxes.org - 开源报税网络应用。","locale":"zh"},{"title":"顯示 HN: ustaxes.org - 開源報稅網絡應用。","locale":"zh-Hant"}]}},{"__typename":"SocialMediaPost","id":"HnPost-26131350","excerpt":"","slug":"/hn/26131350","title":"Bevy: A game engine built in Rust","date":"February 15, 2021","dateISO":"2021-02-15T08:38:45.777Z","datetime":"2021-02-15 08:38","tags":["story","Hacker News"],"image":null,"imageAlt":null,"provider":"Hacker News","thirdPartyId":"26131350","url":"https://news.ycombinator.com/item?id=26131350","originalUrl":"https://github.com/bevyengine/bevy","imageRemote":"https://repository-images.githubusercontent.com/234798675/18016580-dab2-11ea-9864-452f7149499c","video":null,"channel":null,"channelUrl":null,"author":"yagizdegirmenci","authorUrl":"https://news.ycombinator.com/user?id=yagizdegirmenci","authorImage":null,"authorSlug":null,"score":173,"views":null,"sharedCount":null,"likeCount":null,"sharedContent":null,"parent":{"__typename":"HnJson","localize":[{"title":"Bevy。一个用Rust打造的游戏引擎","locale":"zh"},{"title":"Bevy。一個用Rust打造的遊戲引擎","locale":"zh-Hant"}]}}]}},"pageContext":{"basePath":"/","pageType":"tag","tag":"Hacker News","tagsFilter":{"id":{"glob":"!*Post-1"}},"filter":{"id":{"glob":"!*Post-1"},"tags":{"eq":"Hacker News"}},"limit":25,"skip":1325,"total":3105,"totalPages":125,"currentPage":54,"maxWidth":1024,"maxHeight":512,"locale":"en","hrefLang":"en-US","originalPath":"/tags/hacker-news/page/54","dateFormat":"MM/DD/YYYY"}},"staticQueryHashes":["1239077767","2506312863","2744905544","3025052997","3493603132","3493603132","3513215887","386998304"]}