{"componentChunkName":"component---gatsby-theme-buzzing-src-gatsby-theme-timeline-templates-posts-query-js","path":"/ja/tags/developer-tools/page/23","result":{"data":{"site":{"siteMetadata":{"title":"Reddit 热门","description":"用中文浏览Reddit热门内容","social":[{"name":"Twitter","url":"https://twitter.com/gatsbyjs","external":null,"prefetch":null},{"name":"GitHub","url":"https://github.com/gatsbyjs","external":null,"prefetch":null}],"menuLinks":[],"localize":[{"locale":"en","title":"Buzzing on Reddit","description":"See what's buzzing on Reddit in your native language","social":{"name":null,"url":null,"external":null,"prefetch":null},"menuLinks":[{"name":"Weekly Selection","url":"/issues","external":null,"prefetch":null},{"name":"RSS","url":"/rss.xml","external":null,"prefetch":false}]},{"locale":"zh-Hant","title":"Reddit 熱門","description":"用中文瀏覽Reddit熱門內容","social":null,"menuLinks":null}]}},"tagsGroup":{"group":[{"fieldValue":"3D Printing","totalCount":4},{"fieldValue":"A/B Testing","totalCount":14},{"fieldValue":"AMCarmy","totalCount":1},{"fieldValue":"APIs","totalCount":96},{"fieldValue":"Action Games","totalCount":2},{"fieldValue":"Ad Blockers","totalCount":4},{"fieldValue":"Adventure Games","totalCount":2},{"fieldValue":"Advertising","totalCount":28},{"fieldValue":"Airbnb","totalCount":2},{"fieldValue":"Alexa Skills","totalCount":2},{"fieldValue":"Amazon","totalCount":8},{"fieldValue":"Analytics","totalCount":115},{"fieldValue":"Android","totalCount":168},{"fieldValue":"Anonymous","totalCount":3},{"fieldValue":"Apple","totalCount":58},{"fieldValue":"Apple TV","totalCount":1},{"fieldValue":"Apple Watch","totalCount":7},{"fieldValue":"Art","totalCount":23},{"fieldValue":"Artificial Intelligence","totalCount":247},{"fieldValue":"Audio and Voice ","totalCount":47},{"fieldValue":"Augmented Reality","totalCount":16},{"fieldValue":"Backpacks","totalCount":1},{"fieldValue":"Batteries","totalCount":1},{"fieldValue":"Beauty","totalCount":2},{"fieldValue":"Biking","totalCount":1},{"fieldValue":"Biohacking","totalCount":6},{"fieldValue":"Bitcoin","totalCount":4},{"fieldValue":"Blockstack","totalCount":2},{"fieldValue":"Board Games","totalCount":6},{"fieldValue":"Books","totalCount":26},{"fieldValue":"Bots","totalCount":29},{"fieldValue":"Branding","totalCount":27},{"fieldValue":"CSM Tools","totalCount":2},{"fieldValue":"Calendar and Scheduling","totalCount":61},{"fieldValue":"Cannabis","totalCount":1},{"fieldValue":"Card Games","totalCount":3},{"fieldValue":"Cars","totalCount":4},{"fieldValue":"Cats","totalCount":1},{"fieldValue":"Charity and Giving","totalCount":3},{"fieldValue":"Chrome Extensions","totalCount":100},{"fieldValue":"Coffee","totalCount":4},{"fieldValue":"Comics and Graphic Novels","totalCount":1},{"fieldValue":"Cooking","totalCount":5},{"fieldValue":"Cooking Books","totalCount":3},{"fieldValue":"Couples","totalCount":2},{"fieldValue":"Crafting games","totalCount":1},{"fieldValue":"Crowdfunding","totalCount":31},{"fieldValue":"Crypto","totalCount":69},{"fieldValue":"Custom iPhone Keyboards","totalCount":1},{"fieldValue":"Customer communication","totalCount":59},{"fieldValue":"DJing","totalCount":1},{"fieldValue":"Dating","totalCount":10},{"fieldValue":"Delivery","totalCount":5},{"fieldValue":"Design Books","totalCount":14},{"fieldValue":"Design Tools","totalCount":418},{"fieldValue":"Developer Tools","totalCount":554},{"fieldValue":"Diversity and Inclusion","totalCount":7},{"fieldValue":"Dogs","totalCount":3},{"fieldValue":"Drinking","totalCount":4},{"fieldValue":"Drones","totalCount":4},{"fieldValue":"Dropbox","totalCount":2},{"fieldValue":"E-Commerce","totalCount":76},{"fieldValue":"Education","totalCount":131},{"fieldValue":"Email","totalCount":50},{"fieldValue":"Email Marketing","totalCount":41},{"fieldValue":"Email Newsletters","totalCount":60},{"fieldValue":"Emoji","totalCount":7},{"fieldValue":"Events","totalCount":22},{"fieldValue":"Facebook","totalCount":9},{"fieldValue":"Facebook Messenger","totalCount":4},{"fieldValue":"Fashion","totalCount":8},{"fieldValue":"FemTech","totalCount":5},{"fieldValue":"Fintech","totalCount":130},{"fieldValue":"Firefox Extensions","totalCount":13},{"fieldValue":"Free Games","totalCount":11},{"fieldValue":"Freelance","totalCount":22},{"fieldValue":"FuckElon","totalCount":1},{"fieldValue":"Funny","totalCount":39},{"fieldValue":"Funny Games","totalCount":4},{"fieldValue":"GIFs","totalCount":4},{"fieldValue":"Games","totalCount":63},{"fieldValue":"GitHub","totalCount":66},{"fieldValue":"Google","totalCount":26},{"fieldValue":"Google Home","totalCount":1},{"fieldValue":"Green Tech","totalCount":15},{"fieldValue":"Growth Hacking","totalCount":73},{"fieldValue":"Growth Hacks ","totalCount":9},{"fieldValue":"Hardware","totalCount":17},{"fieldValue":"Health and Fitness","totalCount":112},{"fieldValue":"Hiring and Recruiting","totalCount":47},{"fieldValue":"Home","totalCount":21},{"fieldValue":"Icons","totalCount":19},{"fieldValue":"Indie Games","totalCount":12},{"fieldValue":"Instagram","totalCount":26},{"fieldValue":"Internet of Things","totalCount":32},{"fieldValue":"Investing","totalCount":50},{"fieldValue":"Kids","totalCount":12},{"fieldValue":"Kindle","totalCount":3},{"fieldValue":"Learn a Language","totalCount":21},{"fieldValue":"Legal","totalCount":12},{"fieldValue":"LinkedIn","totalCount":10},{"fieldValue":"Linux","totalCount":5},{"fieldValue":"Mac","totalCount":89},{"fieldValue":"Mac Menu Bar Apps","totalCount":28},{"fieldValue":"Maker Tools ","totalCount":37},{"fieldValue":"Maps","totalCount":16},{"fieldValue":"Marketing","totalCount":463},{"fieldValue":"Meditation","totalCount":12},{"fieldValue":"Medtech","totalCount":13},{"fieldValue":"Meetings","totalCount":45},{"fieldValue":"Messaging","totalCount":53},{"fieldValue":"Money ","totalCount":34},{"fieldValue":"Movies","totalCount":12},{"fieldValue":"Moving and Storage","totalCount":1},{"fieldValue":"Music","totalCount":46},{"fieldValue":"Netflix","totalCount":5},{"fieldValue":"News","totalCount":41},{"fieldValue":"No-Code","totalCount":81},{"fieldValue":"Nomad Lifestyle","totalCount":27},{"fieldValue":"Note","totalCount":23},{"fieldValue":"On-Demand","totalCount":5},{"fieldValue":"Open Source","totalCount":63},{"fieldValue":"Open World Games","totalCount":1},{"fieldValue":"Outdoors","totalCount":4},{"fieldValue":"PC","totalCount":4},{"fieldValue":"Parenting","totalCount":2},{"fieldValue":"Party","totalCount":5},{"fieldValue":"Payment","totalCount":34},{"fieldValue":"Pets","totalCount":4},{"fieldValue":"Photography","totalCount":38},{"fieldValue":"Photoshop","totalCount":6},{"fieldValue":"Politics","totalCount":7},{"fieldValue":"Privacy","totalCount":46},{"fieldValue":"Product Hunt","totalCount":20},{"fieldValue":"ProductHunt","totalCount":2888},{"fieldValue":"Productivity","totalCount":1111},{"fieldValue":"Prototyping","totalCount":29},{"fieldValue":"Public Relations","totalCount":3},{"fieldValue":"Puzzle Games","totalCount":6},{"fieldValue":"Quantified Self","totalCount":8},{"fieldValue":"Remote Work Tools","totalCount":99},{"fieldValue":"Robots","totalCount":4},{"fieldValue":"SEO Tools","totalCount":33},{"fieldValue":"SaaS","totalCount":280},{"fieldValue":"Safari Extensions","totalCount":4},{"fieldValue":"Sales","totalCount":72},{"fieldValue":"SaveAMC","totalCount":1},{"fieldValue":"Sci-fi Games","totalCount":1},{"fieldValue":"Science Books","totalCount":2},{"fieldValue":"Side Projects","totalCount":51},{"fieldValue":"Sketch","totalCount":8},{"fieldValue":"Slack","totalCount":35},{"fieldValue":"Snapchat","totalCount":1},{"fieldValue":"Soccer","totalCount":1},{"fieldValue":"Social Impact ","totalCount":20},{"fieldValue":"Social Media Tools","totalCount":189},{"fieldValue":"Software Engineering","totalCount":73},{"fieldValue":"SoundCloud","totalCount":2},{"fieldValue":"Space","totalCount":4},{"fieldValue":"Sports","totalCount":8},{"fieldValue":"Sports Games","totalCount":1},{"fieldValue":"Spotify","totalCount":9},{"fieldValue":"Spreadsheets","totalCount":15},{"fieldValue":"Squarespace","totalCount":1},{"fieldValue":"Standing Desks","totalCount":2},{"fieldValue":"Startup Books","totalCount":12},{"fieldValue":"Startup Lessons ","totalCount":24},{"fieldValue":"Strategy games","totalCount":4},{"fieldValue":"Surfing","totalCount":2},{"fieldValue":"TV","totalCount":7},{"fieldValue":"Tabletop Games","totalCount":1},{"fieldValue":"Task Management","totalCount":76},{"fieldValue":"Tech","totalCount":865},{"fieldValue":"Telegram","totalCount":3},{"fieldValue":"Text Editors","totalCount":13},{"fieldValue":"Time Tracking","totalCount":18},{"fieldValue":"Transportation","totalCount":1},{"fieldValue":"Travel","totalCount":41},{"fieldValue":"Twitter","totalCount":32},{"fieldValue":"Typography","totalCount":4},{"fieldValue":"User Experience","totalCount":293},{"fieldValue":"Venture Capital","totalCount":23},{"fieldValue":"Video Streaming","totalCount":62},{"fieldValue":"Virtual Assistants","totalCount":11},{"fieldValue":"Virtual Reality","totalCount":10},{"fieldValue":"Wallpaper","totalCount":2},{"fieldValue":"Wearables","totalCount":9},{"fieldValue":"Weather Apps","totalCount":2},{"fieldValue":"Web App","totalCount":344},{"fieldValue":"Windows","totalCount":18},{"fieldValue":"Wine","totalCount":1},{"fieldValue":"Word Games","totalCount":1},{"fieldValue":"WordPress","totalCount":15},{"fieldValue":"Work In Progress ","totalCount":4},{"fieldValue":"Writing Tools","totalCount":65},{"fieldValue":"YouTube","totalCount":13},{"fieldValue":"bitcoin","totalCount":3},{"fieldValue":"iMessage Apps","totalCount":2},{"fieldValue":"iPad","totalCount":37},{"fieldValue":"iPhone","totalCount":350},{"fieldValue":"reddit","totalCount":4},{"fieldValue":"science","totalCount":1},{"fieldValue":"tweet","totalCount":1324}]},"allBlogPost":{"nodes":[{"id":"PhPost-91e3ae9b-09ba-5334-8b1d-1930b241a0b4","excerpt":"Edith is an open-source voice assistant for VSCode. Checkout : https://github.com/Navan0/edith","slug":"/ph/edith","title":"Edith - An open-source voice assistant for vscode","date":"December 19, 2020","dateISO":"2020-12-19T02:46:51.480Z","datetime":"2020-12-19 02:46","tags":["Developer Tools","Audio and Voice ","ProductHunt"],"image":null,"imageAlt":null,"__typename":"SocialMediaPost","provider":"Product Hunt","thirdPartyId":"91e3ae9b-09ba-5334-8b1d-1930b241a0b4","url":"https://www.producthunt.com/posts/edith?utm_campaign=producthunt-api&utm_medium=api-v2&utm_source=Application%3A+Buzzing+%28ID%3A+41381%29","originalUrl":"https://www.producthunt.com/r/e9cb4176ebf01e?utm_campaign=producthunt-api&utm_medium=api-v2&utm_source=Application%3A+Buzzing+%28ID%3A+41381%29","imageRemote":"https://ph-files.imgix.net/5a772888-3532-4c4f-85b3-925df6b90683.png?auto=format&fit=crop","video":null,"channel":null,"channelUrl":null,"author":"navaneeth kt","authorUrl":"https://www.producthunt.com/@navaneeth_kt?utm_campaign=producthunt-api&utm_medium=api-v2&utm_source=Application%3A+Buzzing+%28ID%3A+41381%29","authorImage":null,"authorSlug":null,"score":192,"views":null,"sharedCount":null,"likeCount":null,"sharedContent":null,"parent":{"localize":[{"description":"伊迪丝是VSCode的开源语音助手。结账：https://github.com/Navan0/edith","tagline":"vscode的开源语音助手","locale":"zh"},{"description":"伊迪絲是VSCode的開源語音助手。結賬：https://github.com/Navan0/edith","tagline":"vscode的開源語音助手","locale":"zh-Hant"}]}},{"id":"PhPost-af9f7f77-7788-588d-b603-8c247c3a3f92","excerpt":"A lot happened in 2020. Despite everything, developers coded, learned new stuff, deployed and debugged. Here are a few highlights from a year to remember (or, you know, forget).","slug":"/ph/2020-year-in-review-by-codersrank","title":"2020 Year in Review by CodersRank - How did you code in 2020?","date":"December 18, 2020","dateISO":"2020-12-18T17:21:17.613Z","datetime":"2020-12-18 17:21","tags":["Software Engineering","Developer Tools","Tech","ProductHunt"],"image":null,"imageAlt":null,"__typename":"SocialMediaPost","provider":"Product Hunt","thirdPartyId":"af9f7f77-7788-588d-b603-8c247c3a3f92","url":"https://www.producthunt.com/posts/2020-year-in-review-by-codersrank?utm_campaign=producthunt-api&utm_medium=api-v2&utm_source=Application%3A+Buzzing+%28ID%3A+41381%29","originalUrl":"https://www.producthunt.com/r/5ad1678eacbe36?utm_campaign=producthunt-api&utm_medium=api-v2&utm_source=Application%3A+Buzzing+%28ID%3A+41381%29","imageRemote":null,"video":{"url":"https://youtu.be/nONLvupqsok","embed":null,"width":null,"height":null},"channel":null,"channelUrl":null,"author":"Tibor Szántai","authorUrl":"https://www.producthunt.com/@tibor_szantai1?utm_campaign=producthunt-api&utm_medium=api-v2&utm_source=Application%3A+Buzzing+%28ID%3A+41381%29","authorImage":null,"authorSlug":null,"score":690,"views":null,"sharedCount":null,"likeCount":null,"sharedContent":null,"parent":{"localize":[{"description":"2020年发生了很多事情。尽管如此，开发人员还是编码、学习新知识、部署和调试。以下是一年中值得记住(或者，你知道，忘记)的一些亮点。","tagline":"你在2020年是如何编码的？","locale":"zh"},{"description":"2020年發生了很多事情。儘管如此，開發人員還是編碼、學習新知識、部署和調試。以下是一年中值得記住(或者，你知道，忘記)的一些亮點。","tagline":"你在2020年是如何編碼的？","locale":"zh-Hant"}]}},{"id":"PhPost-2fa1f4c3-0783-5b23-a51c-0681039de42c","excerpt":"Like a fitness tracker for your code. Our contribution analytics empower devs with insight. Let the code speak for itself with dashboards & badges focused on self-improvement & career growth. See where you measure up & translate commits into insights.","slug":"/ph/merico-build","title":"Merico Build - Free analytics to level up your code & career","date":"December 18, 2020","dateISO":"2020-12-18T08:47:54.485Z","datetime":"2020-12-18 08:47","tags":["Productivity","Analytics","Developer Tools","ProductHunt"],"image":null,"imageAlt":null,"__typename":"SocialMediaPost","provider":"Product Hunt","thirdPartyId":"2fa1f4c3-0783-5b23-a51c-0681039de42c","url":"https://www.producthunt.com/posts/merico-build?utm_campaign=producthunt-api&utm_medium=api-v2&utm_source=Application%3A+Buzzing+%28ID%3A+41381%29","originalUrl":"https://www.producthunt.com/r/f70b0be0a71e94?utm_campaign=producthunt-api&utm_medium=api-v2&utm_source=Application%3A+Buzzing+%28ID%3A+41381%29","imageRemote":null,"video":{"url":"https://www.youtube.com/watch?v=YGqCjb6NxII&feature=youtu.be","embed":null,"width":null,"height":null},"channel":null,"channelUrl":null,"author":"Maxim Wheatley","authorUrl":"https://www.producthunt.com/@maxim_wheatley?utm_campaign=producthunt-api&utm_medium=api-v2&utm_source=Application%3A+Buzzing+%28ID%3A+41381%29","authorImage":null,"authorSlug":null,"score":1109,"views":null,"sharedCount":null,"likeCount":null,"sharedContent":null,"parent":{"localize":[{"description":"就像代码的健康跟踪器一样。我们的贡献分析为开发人员提供了洞察力。让代码用仪表板和徽章为自己说话，这些仪表板和徽章侧重于自我提升和职业发展。看一看你的衡量标准&把承诺转化为洞察力。","tagline":"免费分析，提升您的代码和职业水平","locale":"zh"},{"description":"就像代碼的健康跟蹤器一樣。我們的貢獻分析爲開發人員提供了洞察力。讓代碼用儀表板和徽章爲自己說話，這些儀表板和徽章側重於自我提升和職業發展。看一看你的衡量標準&把承諾轉化爲洞察力。","tagline":"免費分析，提升您的代碼和職業水平","locale":"zh-Hant"}]}},{"id":"PhPost-2b32f37a-83df-5446-8e82-01375f65c691","excerpt":"An open-source UI component library for building high-quality, accessible design systems and web apps.","slug":"/ph/radix-ui","title":"Radix UI - Open-source UI components for building accessible web apps.","date":"December 18, 2020","dateISO":"2020-12-18T08:47:54.485Z","datetime":"2020-12-18 08:47","tags":["Design Tools","User Experience","Developer Tools","ProductHunt"],"image":null,"imageAlt":null,"__typename":"SocialMediaPost","provider":"Product Hunt","thirdPartyId":"2b32f37a-83df-5446-8e82-01375f65c691","url":"https://www.producthunt.com/posts/radix-ui?utm_campaign=producthunt-api&utm_medium=api-v2&utm_source=Application%3A+Buzzing+%28ID%3A+41381%29","originalUrl":"https://www.producthunt.com/r/797d770f9558c9?utm_campaign=producthunt-api&utm_medium=api-v2&utm_source=Application%3A+Buzzing+%28ID%3A+41381%29","imageRemote":"https://ph-files.imgix.net/f2e0ca5b-42f2-4623-8889-36423c6ccc10.png?auto=format&fit=crop","video":null,"channel":null,"channelUrl":null,"author":"Joe Alongi","authorUrl":"https://www.producthunt.com/@collectedview?utm_campaign=producthunt-api&utm_medium=api-v2&utm_source=Application%3A+Buzzing+%28ID%3A+41381%29","authorImage":null,"authorSlug":null,"score":535,"views":null,"sharedCount":null,"likeCount":null,"sharedContent":null,"parent":{"localize":[{"description":"一个开源UI组件库，用于构建高质量、易访问的设计系统和Web应用程序。","tagline":"用于构建具有辅助功能的Web应用程序的开源UI组件。","locale":"zh"},{"description":"一個開源UI組件庫，用於構建高質量、易訪問的設計系統和Web應用程序。","tagline":"用於構建具有輔助功能的Web應用程序的開源UI組件。","locale":"zh-Hant"}]}}]}},"pageContext":{"basePath":"/","pageType":"tag","tag":"Developer Tools","tagsFilter":{"date":{"gt":"2000-12-25T10:54:58.000Z"}},"filter":{"date":{"gt":"2000-12-25T10:54:58.000Z"},"tags":{"eq":"Developer Tools"}},"limit":25,"skip":550,"total":554,"totalPages":23,"currentPage":23,"maxWidth":1024,"maxHeight":512,"locale":"ja","hrefLang":"ja-JA","originalPath":"/tags/developer-tools/page/23","dateFormat":"YYYY-MM-DD"}},"staticQueryHashes":["1239077767","2506312863","2744905544","3025052997","3280999885","3948070931","68699025"]}