{"componentChunkName":"component---gatsby-theme-buzzing-src-gatsby-theme-timeline-templates-posts-query-js","path":"/tags/story/page/82","result":{"data":{"site":{"siteMetadata":{"title":"Reddit 热门","description":"用中文浏览Reddit热门内容","social":[{"name":"Twitter","url":"https://twitter.com/gatsbyjs","external":null,"prefetch":null},{"name":"GitHub","url":"https://github.com/gatsbyjs","external":null,"prefetch":null}],"menuLinks":[],"localize":[{"locale":"en","title":"Buzzing on Reddit","description":"See what's buzzing on Reddit in your native language","social":[{"name":"Reddit","url":"https://www.reddit.com/","external":true,"prefetch":null}],"menuLinks":[{"name":"Weekly Selection","url":"/issues","external":null,"prefetch":null},{"name":"RSS","url":"/rss.xml","external":null,"prefetch":false}]},{"locale":"zh-Hant","title":"Reddit 熱門","description":"用中文瀏覽Reddit熱門內容","social":null,"menuLinks":null}]}},"tagsGroup":{"group":[{"fieldValue":"ASK HN","totalCount":54},{"fieldValue":"Hacker News","totalCount":3105},{"fieldValue":"Poll","totalCount":1},{"fieldValue":"Show HN","totalCount":100},{"fieldValue":"poll","totalCount":1},{"fieldValue":"story","totalCount":3104}]},"allBlogPost":{"nodes":[{"__typename":"SocialMediaPost","id":"HnPost-25846968","excerpt":"","slug":"/hn/25846968","title":"Have we already been visited by aliens?","date":"January 21, 2021","dateISO":"2021-01-21T01:51:42.388Z","datetime":"2021-01-21 01:51","tags":["story","Hacker News"],"image":null,"imageAlt":null,"provider":"Hacker News","thirdPartyId":"25846968","url":"https://news.ycombinator.com/item?id=25846968","originalUrl":"https://www.newyorker.com/magazine/2021/01/25/have-we-already-been-visited-by-aliens","imageRemote":"https://media.newyorker.com/photos/5fff76995cb7720da65d3fe1/16:9/w_1280,c_limit/210125_r37763.jpg","video":null,"channel":null,"channelUrl":null,"author":"elorant","authorUrl":"https://news.ycombinator.com/user?id=elorant","authorImage":null,"authorSlug":null,"score":236,"views":null,"sharedCount":null,"likeCount":null,"sharedContent":null,"parent":{"__typename":"HnJson","localize":[{"title":"我们已经被外星人拜访过了吗？","locale":"zh"},{"title":"我們已經被外星人拜訪過了嗎？","locale":"zh-Hant"}]}},{"__typename":"SocialMediaPost","id":"HnPost-25851108","excerpt":"","slug":"/hn/25851108","title":"Vertical farms grow veggies on site at restaurants and grocery stores","date":"January 21, 2021","dateISO":"2021-01-21T01:51:42.388Z","datetime":"2021-01-21 01:51","tags":["story","Hacker News"],"image":null,"imageAlt":null,"provider":"Hacker News","thirdPartyId":"25851108","url":"https://news.ycombinator.com/item?id=25851108","originalUrl":"https://newatlas.com/good-thinking/vertical-field-urban-farm-geoponics/","imageRemote":"https://assets.newatlas.com/dims4/default/0777ab0/2147483647/strip/true/crop/2000x1050+0+143/resize/1200x630!/quality/90/?url=http%3A%2F%2Fnewatlas-brightspot.s3.amazonaws.com%2F89%2Fa2%2Ffac613eb4d14b0f2fd9a1acadbc2%2Fd2s-0488.jpg","video":null,"channel":null,"channelUrl":null,"author":"tolbish","authorUrl":"https://news.ycombinator.com/user?id=tolbish","authorImage":null,"authorSlug":null,"score":240,"views":null,"sharedCount":null,"likeCount":null,"sharedContent":null,"parent":{"__typename":"HnJson","localize":[{"title":"垂直农场在餐厅和杂货店现场种植蔬菜。","locale":"zh"},{"title":"垂直農場在餐廳和雜貨店現場種植蔬菜。","locale":"zh-Hant"}]}},{"__typename":"SocialMediaPost","id":"HnPost-25852346","excerpt":"","slug":"/hn/25852346","title":"The Left-NIMBY Canon","date":"January 21, 2021","dateISO":"2021-01-21T01:51:42.388Z","datetime":"2021-01-21 01:51","tags":["story","Hacker News"],"image":null,"imageAlt":null,"provider":"Hacker News","thirdPartyId":"25852346","url":"https://news.ycombinator.com/item?id=25852346","originalUrl":"https://noahpinion.substack.com/p/the-left-nimby-canon","imageRemote":"https://cdn.substack.com/image/fetch/h_600,c_limit,f_auto,q_auto:good,fl_progressive:steep/https%3A%2F%2Fbucketeer-e05bbc84-baa3-437e-9518-adb32be77984.s3.amazonaws.com%2Fpublic%2Fimages%2F229c3f26-2447-497b-85ad-92da801294fa_600x450.jpeg","video":null,"channel":null,"channelUrl":null,"author":"coryfklein","authorUrl":"https://news.ycombinator.com/user?id=coryfklein","authorImage":null,"authorSlug":null,"score":234,"views":null,"sharedCount":null,"likeCount":null,"sharedContent":null,"parent":{"__typename":"HnJson","localize":[{"title":"左翼-NIMBY佳能","locale":"zh"},{"title":"左翼-NIMBY佳能","locale":"zh-Hant"}]}},{"__typename":"SocialMediaPost","id":"HnPost-25853699","excerpt":"","slug":"/hn/25853699","title":"In a 24-1 vote, Google vetoes Web Privacy Working Group at the W3C (2019)","date":"January 21, 2021","dateISO":"2021-01-21T01:51:42.388Z","datetime":"2021-01-21 01:51","tags":["story","Hacker News"],"image":null,"imageAlt":null,"provider":"Hacker News","thirdPartyId":"25853699","url":"https://news.ycombinator.com/item?id=25853699","originalUrl":"https://www.cpomagazine.com/data-privacy/google-blocking-web-privacy-proposals-at-w3c/","imageRemote":"https://www.cpomagazine.com/wp-content/uploads/2019/10/google-blocking-web-privacy-proposals-at-w3c_1500.jpg","video":null,"channel":null,"channelUrl":null,"author":"crazypython","authorUrl":"https://news.ycombinator.com/user?id=crazypython","authorImage":null,"authorSlug":null,"score":583,"views":null,"sharedCount":null,"likeCount":null,"sharedContent":null,"parent":{"__typename":"HnJson","localize":[{"title":"在24-1的投票中，谷歌在W3C上否决了网络隐私工作组(2019年)","locale":"zh"},{"title":"在24-1的投票中，谷歌在W3C上否決了網絡隱私工作組(2019年)","locale":"zh-Hant"}]}},{"__typename":"SocialMediaPost","id":"HnPost-25850966","excerpt":"","slug":"/hn/25850966","title":"Vitamin D uncorrelated with Covid severity in those of European descent","date":"January 20, 2021","dateISO":"2021-01-20T23:05:13.996Z","datetime":"2021-01-20 23:05","tags":["story","Hacker News"],"image":null,"imageAlt":null,"provider":"Hacker News","thirdPartyId":"25850966","url":"https://news.ycombinator.com/item?id=25850966","originalUrl":"https://nutrition.bmj.com/content/early/2021/01/07/bmjnph-2020-000151","imageRemote":"https://nutrition.bmj.com/sites/default/files/highwire/bmjnph/3/1.cover-source.jpg","video":null,"channel":null,"channelUrl":null,"author":"whoisburbansky","authorUrl":"https://news.ycombinator.com/user?id=whoisburbansky","authorImage":null,"authorSlug":null,"score":263,"views":null,"sharedCount":null,"likeCount":null,"sharedContent":null,"parent":{"__typename":"HnJson","localize":[{"title":"欧洲人后裔的维生素D与Covid严重程度无关","locale":"zh"},{"title":"歐洲人後裔的維生素D與Covid嚴重程度無關","locale":"zh-Hant"}]}},{"__typename":"SocialMediaPost","id":"HnPost-25849679","excerpt":"","slug":"/hn/25849679","title":"FedEx shipping damage creates fractured artworks","date":"January 20, 2021","dateISO":"2021-01-20T21:07:39.189Z","datetime":"2021-01-20 21:07","tags":["story","Hacker News"],"image":null,"imageAlt":null,"provider":"Hacker News","thirdPartyId":"25849679","url":"https://news.ycombinator.com/item?id=25849679","originalUrl":"https://kottke.org/21/01/fedex-shipping-damage-creates-fractured-artworks","imageRemote":"https://kottke.org/plus/misc/images/walead-beshty-fedex-01.jpg","video":null,"channel":null,"channelUrl":null,"author":"talonx","authorUrl":"https://news.ycombinator.com/user?id=talonx","authorImage":null,"authorSlug":null,"score":348,"views":null,"sharedCount":null,"likeCount":null,"sharedContent":null,"parent":{"__typename":"HnJson","localize":[{"title":"联邦快递运输损坏造成艺术作品断裂","locale":"zh"},{"title":"聯邦快遞運輸損壞造成藝術作品斷裂","locale":"zh-Hant"}]}},{"__typename":"SocialMediaPost","id":"HnPost-25849800","excerpt":"","slug":"/hn/25849800","title":"I tried creating a web browser and Google blocked me (2019)","date":"January 20, 2021","dateISO":"2021-01-20T21:07:39.189Z","datetime":"2021-01-20 21:07","tags":["story","Hacker News"],"image":null,"imageAlt":null,"provider":"Hacker News","thirdPartyId":"25849800","url":"https://news.ycombinator.com/item?id=25849800","originalUrl":"https://blog.samuelmaddock.com/posts/google-widevine-blocked-my-browser/","imageRemote":"https://blog.samuelmaddock.com/images/chromium-cover-social.png","video":null,"channel":null,"channelUrl":null,"author":"gu5","authorUrl":"https://news.ycombinator.com/user?id=gu5","authorImage":null,"authorSlug":null,"score":474,"views":null,"sharedCount":null,"likeCount":null,"sharedContent":null,"parent":{"__typename":"HnJson","localize":[{"title":"我试着创建了一个网络浏览器，谷歌却封杀了我(2019)","locale":"zh"},{"title":"我試着創建了一個網絡瀏覽器，谷歌卻封殺了我(2019)","locale":"zh-Hant"}]}},{"__typename":"SocialMediaPost","id":"HnPost-25846262","excerpt":"","slug":"/hn/25846262","title":"Update: YouTube-dl reinstantiated thanks to EFF (2020)","date":"January 20, 2021","dateISO":"2021-01-20T20:23:38.126Z","datetime":"2021-01-20 20:23","tags":["story","Hacker News"],"image":null,"imageAlt":null,"provider":"Hacker News","thirdPartyId":"25846262","url":"https://news.ycombinator.com/item?id=25846262","originalUrl":"https://assassinate-you.net/posts/2020/11/youtube-dl-update/","imageRemote":"https://assassinate-you.net","video":null,"channel":null,"channelUrl":null,"author":"ericdanielski","authorUrl":"https://news.ycombinator.com/user?id=ericdanielski","authorImage":null,"authorSlug":null,"score":426,"views":null,"sharedCount":null,"likeCount":null,"sharedContent":null,"parent":{"__typename":"HnJson","localize":[{"title":"更新：由于EFF(2020)，YouTube-dl重获新生。","locale":"zh"},{"title":"更新：由於EFF(2020)，YouTube-dl重獲新生。","locale":"zh-Hant"}]}},{"__typename":"SocialMediaPost","id":"HnPost-25833557","excerpt":"","slug":"/hn/25833557","title":"Again on 0-based vs. 1-based indexing","date":"January 20, 2021","dateISO":"2021-01-20T19:49:31.541Z","datetime":"2021-01-20 19:49","tags":["story","Hacker News"],"image":null,"imageAlt":null,"provider":"Hacker News","thirdPartyId":"25833557","url":"https://news.ycombinator.com/item?id=25833557","originalUrl":"https://hisham.hm/2021/01/18/again-on-0-based-vs-1-based-indexing/","imageRemote":"https://hisham.hm/postimg.php?entry=entry210118-152858&out=image.jpg","video":null,"channel":null,"channelUrl":null,"author":"Ivoah","authorUrl":"https://news.ycombinator.com/user?id=Ivoah","authorImage":null,"authorSlug":null,"score":183,"views":null,"sharedCount":null,"likeCount":null,"sharedContent":null,"parent":{"__typename":"HnJson","localize":[{"title":"再来说说基于0的索引与基于1的索引。","locale":"zh"},{"title":"再來說說基於0的索引與基於1的索引。","locale":"zh-Hant"}]}},{"__typename":"SocialMediaPost","id":"HnPost-25841263","excerpt":"","slug":"/hn/25841263","title":"The Unauthorized Story of Andreessen Horowitz","date":"January 20, 2021","dateISO":"2021-01-20T19:49:31.541Z","datetime":"2021-01-20 19:49","tags":["story","Hacker News"],"image":null,"imageAlt":null,"provider":"Hacker News","thirdPartyId":"25841263","url":"https://news.ycombinator.com/item?id=25841263","originalUrl":"https://www.newcomer.co/p/the-unauthorized-story-of-andreessen","imageRemote":"https://cdn.substack.com/image/fetch/h_600,c_limit,f_auto,q_auto:good,fl_progressive:steep/https%3A%2F%2Fbucketeer-e05bbc84-baa3-437e-9518-adb32be77984.s3.amazonaws.com%2Fpublic%2Fimages%2F808c0f60-f287-48aa-a1d2-8cac89b2d775_2925x2024.jpeg","video":null,"channel":null,"channelUrl":null,"author":"DLay","authorUrl":"https://news.ycombinator.com/user?id=DLay","authorImage":null,"authorSlug":null,"score":169,"views":null,"sharedCount":null,"likeCount":null,"sharedContent":null,"parent":{"__typename":"HnJson","localize":[{"title":"安德烈森-霍洛维茨未经授权的故事。","locale":"zh"},{"title":"安德烈森-霍洛維茨未經授權的故事。","locale":"zh-Hant"}]}},{"__typename":"SocialMediaPost","id":"HnPost-25846394","excerpt":"","slug":"/hn/25846394","title":"India asks WhatsApp to withdraw new privacy policy over ‘grave concerns’","date":"January 20, 2021","dateISO":"2021-01-20T19:49:31.541Z","datetime":"2021-01-20 19:49","tags":["story","Hacker News"],"image":null,"imageAlt":null,"provider":"Hacker News","thirdPartyId":"25846394","url":"https://news.ycombinator.com/item?id=25846394","originalUrl":"https://techcrunch.com/2021/01/19/india-asks-whatsapp-to-withdraw-new-privacy-policy-expresses-grave-concerns/","imageRemote":"https://techcrunch.com/wp-content/uploads/2021/01/GettyImages-1230551664.jpg?w=600","video":null,"channel":null,"channelUrl":null,"author":"totaldude87","authorUrl":"https://news.ycombinator.com/user?id=totaldude87","authorImage":null,"authorSlug":null,"score":192,"views":null,"sharedCount":null,"likeCount":null,"sharedContent":null,"parent":{"__typename":"HnJson","localize":[{"title":"印度要求WhatsApp撤回新的隐私政策，原因是 \"严重关切\"。","locale":"zh"},{"title":"印度要求WhatsApp撤回新的隱私政策，原因是 \"嚴重關切\"。","locale":"zh-Hant"}]}},{"__typename":"SocialMediaPost","id":"HnPost-25848278","excerpt":"","slug":"/hn/25848278","title":"Show HN: Beeper – All Your Chats in One App","date":"January 20, 2021","dateISO":"2021-01-20T19:49:31.541Z","datetime":"2021-01-20 19:49","tags":["story","Show HN","Hacker News"],"image":null,"imageAlt":null,"provider":"Hacker News","thirdPartyId":"25848278","url":"https://news.ycombinator.com/item?id=25848278","originalUrl":"https://www.beeperhq.com/?hn","imageRemote":"https://uploads-ssl.webflow.com/5ffc199ed786423eb2569667/60085426880a0ada43c6f2b7_opengraph.png","video":null,"channel":"Show HN","channelUrl":"https://news.ycombinator.com/show","author":"erohead","authorUrl":"https://news.ycombinator.com/user?id=erohead","authorImage":null,"authorSlug":null,"score":877,"views":null,"sharedCount":null,"likeCount":null,"sharedContent":null,"parent":{"__typename":"HnJson","localize":[{"title":"","locale":"zh"},{"title":"","locale":"zh-Hant"}]}},{"__typename":"SocialMediaPost","id":"HnPost-25848625","excerpt":"","slug":"/hn/25848625","title":"Porting Firefox to Apple Silicon","date":"January 20, 2021","dateISO":"2021-01-20T19:49:31.541Z","datetime":"2021-01-20 19:49","tags":["story","Hacker News"],"image":null,"imageAlt":null,"provider":"Hacker News","thirdPartyId":"25848625","url":"https://news.ycombinator.com/item?id=25848625","originalUrl":"https://hacks.mozilla.org/2021/01/porting-firefox-to-apple-silicon/","imageRemote":"https://hacks.mozilla.org/files/2021/01/screenshotm1bis.png","video":null,"channel":null,"channelUrl":null,"author":"sylvestre","authorUrl":"https://news.ycombinator.com/user?id=sylvestre","authorImage":null,"authorSlug":null,"score":632,"views":null,"sharedCount":null,"likeCount":null,"sharedContent":null,"parent":{"__typename":"HnJson","localize":[{"title":"移植Firefox到苹果硅","locale":"zh"},{"title":"移植Firefox到蘋果硅","locale":"zh-Hant"}]}},{"__typename":"SocialMediaPost","id":"HnPost-25835227","excerpt":"","slug":"/hn/25835227","title":"Radio users reminded not to use radios in crimes","date":"January 20, 2021","dateISO":"2021-01-20T16:32:56.458Z","datetime":"2021-01-20 16:32","tags":["story","Hacker News"],"image":null,"imageAlt":null,"provider":"Hacker News","thirdPartyId":"25835227","url":"https://news.ycombinator.com/item?id=25835227","originalUrl":"http://www.arrl.org/news/fcc-issues-enforcement-advisory-radio-users-reminded-not-to-use-radios-in-crimes","imageRemote":"http://www.arrl.org/files/image/About_ARRL/ARRL_logo_with_title.jpg","video":null,"channel":null,"channelUrl":null,"author":"aktive0","authorUrl":"https://news.ycombinator.com/user?id=aktive0","authorImage":null,"authorSlug":null,"score":165,"views":null,"sharedCount":null,"likeCount":null,"sharedContent":null,"parent":{"__typename":"HnJson","localize":[{"title":"提醒收音机用户不要用收音机作案","locale":"zh"},{"title":"提醒收音機用戶不要用收音機作案","locale":"zh-Hant"}]}},{"__typename":"SocialMediaPost","id":"HnPost-25846347","excerpt":"","slug":"/hn/25846347","title":"Show HN: I built an online interactive course that helps you learn vim faster","date":"January 20, 2021","dateISO":"2021-01-20T16:32:56.458Z","datetime":"2021-01-20 16:32","tags":["story","Show HN","Hacker News"],"image":null,"imageAlt":null,"provider":"Hacker News","thirdPartyId":"25846347","url":"https://news.ycombinator.com/item?id=25846347","originalUrl":"https://www.vim.so","imageRemote":"https://www.vim.so/meta_image.png","video":null,"channel":"Show HN","channelUrl":"https://news.ycombinator.com/show","author":"CoffeePython","authorUrl":"https://news.ycombinator.com/user?id=CoffeePython","authorImage":null,"authorSlug":null,"score":641,"views":null,"sharedCount":null,"likeCount":null,"sharedContent":null,"parent":{"__typename":"HnJson","localize":[{"title":"HN新产品：我建立了一个在线互动课程，帮助你更快地学习vim。","locale":"zh"},{"title":"HN新產品：我建立了一個在線互動課程，幫助你更快地學習vim。","locale":"zh-Hant"}]}},{"__typename":"SocialMediaPost","id":"HnPost-25844292","excerpt":"","slug":"/hn/25844292","title":"SpaceX acquires former oil rigs to serve as floating Starship spaceports","date":"January 20, 2021","dateISO":"2021-01-20T15:52:40.112Z","datetime":"2021-01-20 15:52","tags":["story","Hacker News"],"image":null,"imageAlt":null,"provider":"Hacker News","thirdPartyId":"25844292","url":"https://news.ycombinator.com/item?id=25844292","originalUrl":"https://www.nasaspaceflight.com/2021/01/spacex-rigs-starship-spaceports/","imageRemote":"https://www.nasaspaceflight.com/wp-content/uploads/2021/01/EsH_biVXMAMBv2i-min-525x350.jpg","video":null,"channel":null,"channelUrl":null,"author":"eddieoz","authorUrl":"https://news.ycombinator.com/user?id=eddieoz","authorImage":null,"authorSlug":null,"score":247,"views":null,"sharedCount":null,"likeCount":null,"sharedContent":null,"parent":{"__typename":"HnJson","localize":[{"title":"SpaceX收购前石油钻井平台，作为漂浮的星际飞船太空港。","locale":"zh"},{"title":"SpaceX收購前石油鑽井平臺，作爲漂浮的星際飛船太空港。","locale":"zh-Hant"}]}},{"__typename":"SocialMediaPost","id":"HnPost-25845201","excerpt":"","slug":"/hn/25845201","title":"Linux Running on Apple M1","date":"January 20, 2021","dateISO":"2021-01-20T15:52:40.112Z","datetime":"2021-01-20 15:52","tags":["story","Hacker News"],"image":null,"imageAlt":null,"provider":"Hacker News","thirdPartyId":"25845201","url":"https://news.ycombinator.com/item?id=25845201","originalUrl":"https://twitter.com/cmwdotme/status/1351838924621099008","imageRemote":null,"video":null,"channel":null,"channelUrl":null,"author":"ig0r0","authorUrl":"https://news.ycombinator.com/user?id=ig0r0","authorImage":null,"authorSlug":null,"score":375,"views":null,"sharedCount":null,"likeCount":null,"sharedContent":null,"parent":{"__typename":"HnJson","localize":[{"title":"在苹果M1上运行的Linux","locale":"zh"},{"title":"在蘋果M1上運行的Linux","locale":"zh-Hant"}]}},{"__typename":"SocialMediaPost","id":"HnPost-25846504","excerpt":"","slug":"/hn/25846504","title":"I no longer trust The Great Suspender","date":"January 20, 2021","dateISO":"2021-01-20T15:52:40.112Z","datetime":"2021-01-20 15:52","tags":["story","Hacker News"],"image":null,"imageAlt":null,"provider":"Hacker News","thirdPartyId":"25846504","url":"https://news.ycombinator.com/item?id=25846504","originalUrl":"https://dafoster.net/articles/2021/01/20/i-no-longer-trust-the-great-suspender/","imageRemote":"https://dafoster.net/assets/twitter-icon-16x16.png","video":null,"channel":null,"channelUrl":null,"author":"davidfstr","authorUrl":"https://news.ycombinator.com/user?id=davidfstr","authorImage":null,"authorSlug":null,"score":870,"views":null,"sharedCount":null,"likeCount":null,"sharedContent":null,"parent":{"__typename":"HnJson","localize":[{"title":"我不再相信 \"大吊带 \"了","locale":"zh"},{"title":"我不再相信 \"大吊帶 \"了","locale":"zh-Hant"}]}},{"__typename":"SocialMediaPost","id":"HnPost-25835280","excerpt":"","slug":"/hn/25835280","title":"Launch HN: Seed (YC W21) – A Fully-Managed CI/CD Pipeline for Serverless","date":"January 20, 2021","dateISO":"2021-01-20T15:14:32.188Z","datetime":"2021-01-20 15:14","tags":["story","Hacker News"],"image":null,"imageAlt":null,"provider":"Hacker News","thirdPartyId":"25835280","url":"https://news.ycombinator.com/item?id=25835280","originalUrl":"https://news.ycombinator.com/item?id=25835280","imageRemote":null,"video":null,"channel":null,"channelUrl":null,"author":"jayair","authorUrl":"https://news.ycombinator.com/user?id=jayair","authorImage":null,"authorSlug":null,"score":177,"views":null,"sharedCount":null,"likeCount":null,"sharedContent":null,"parent":{"__typename":"HnJson","localize":[{"title":"发布HN：Seed (YC W21)--面向无服务器的全面管理的CI/CD流水线","locale":"zh"},{"title":"發佈HN：Seed (YC W21)--面向無服務器的全面管理的CI/CD流水線","locale":"zh-Hant"}]}},{"__typename":"SocialMediaPost","id":"HnPost-25829763","excerpt":"","slug":"/hn/25829763","title":"When costs are nonlinear, keep it small","date":"January 20, 2021","dateISO":"2021-01-20T14:23:33.487Z","datetime":"2021-01-20 14:23","tags":["story","Hacker News"],"image":null,"imageAlt":null,"provider":"Hacker News","thirdPartyId":"25829763","url":"https://news.ycombinator.com/item?id=25829763","originalUrl":"https://jessitron.com/2021/01/18/when-costs-are-nonlinear-keep-it-small/","imageRemote":"https://i2.wp.com/jessitron.com/wp-content/uploads/2021/01/File-Jan-18-7-37-56-PM.png?fit=1200%2C906&ssl=1","video":null,"channel":null,"channelUrl":null,"author":"zdw","authorUrl":"https://news.ycombinator.com/user?id=zdw","authorImage":null,"authorSlug":null,"score":179,"views":null,"sharedCount":null,"likeCount":null,"sharedContent":null,"parent":{"__typename":"HnJson","localize":[{"title":"当成本是非线性的时候，要保持较小的成本。","locale":"zh"},{"title":"當成本是非線性的時候，要保持較小的成本。","locale":"zh-Hant"}]}},{"__typename":"SocialMediaPost","id":"HnPost-25842855","excerpt":"","slug":"/hn/25842855","title":"Jack Ma makes first live appearance in three months in online meet","date":"January 20, 2021","dateISO":"2021-01-20T11:04:44.704Z","datetime":"2021-01-20 11:04","tags":["story","Hacker News"],"image":null,"imageAlt":null,"provider":"Hacker News","thirdPartyId":"25842855","url":"https://news.ycombinator.com/item?id=25842855","originalUrl":"https://www.reuters.com/article/us-china-alibaba-jack-ma/alibabas-jack-ma-makes-first-public-appearance-since-oct-in-online-meeting-state-media-idUSKBN29P0CA","imageRemote":"https://static.reuters.com/resources/r/?m=02&d=20210120&t=2&i=1548399121&r=LYNXMPEH0J08A&w=800","video":null,"channel":null,"channelUrl":null,"author":"late","authorUrl":"https://news.ycombinator.com/user?id=late","authorImage":null,"authorSlug":null,"score":318,"views":null,"sharedCount":null,"likeCount":null,"sharedContent":null,"parent":{"__typename":"HnJson","localize":[{"title":"马云3个月来首次直播上线见面会","locale":"zh"},{"title":"馬雲3個月來首次直播上線見面會","locale":"zh-Hant"}]}},{"__typename":"SocialMediaPost","id":"HnPost-25842999","excerpt":"","slug":"/hn/25842999","title":"Serverless SQLite","date":"January 20, 2021","dateISO":"2021-01-20T11:04:44.704Z","datetime":"2021-01-20 11:04","tags":["story","Hacker News"],"image":null,"imageAlt":null,"provider":"Hacker News","thirdPartyId":"25842999","url":"https://news.ycombinator.com/item?id=25842999","originalUrl":"https://sql.lspgn.workers.dev/?hn","imageRemote":"https://raw.githubusercontent.com/lspgn/edge-sql/main/extra/img.png","video":null,"channel":null,"channelUrl":null,"author":"sfeng","authorUrl":"https://news.ycombinator.com/user?id=sfeng","authorImage":null,"authorSlug":null,"score":392,"views":null,"sharedCount":null,"likeCount":null,"sharedContent":null,"parent":{"__typename":"HnJson","localize":[{"title":"无服务器SQLite","locale":"zh"},{"title":"無服務器SQLite","locale":"zh-Hant"}]}},{"__typename":"SocialMediaPost","id":"HnPost-25843874","excerpt":"","slug":"/hn/25843874","title":"Kids Find a Security Flaw in Linux Mint by Mashing Keys","date":"January 20, 2021","dateISO":"2021-01-20T11:04:44.704Z","datetime":"2021-01-20 11:04","tags":["story","Hacker News"],"image":null,"imageAlt":null,"provider":"Hacker News","thirdPartyId":"25843874","url":"https://news.ycombinator.com/item?id=25843874","originalUrl":"https://github.com/linuxmint/cinnamon-screensaver/issues/354","imageRemote":"https://avatars0.githubusercontent.com/u/107184?s=400&v=4","video":null,"channel":null,"channelUrl":null,"author":"subins2000","authorUrl":"https://news.ycombinator.com/user?id=subins2000","authorImage":null,"authorSlug":null,"score":767,"views":null,"sharedCount":null,"likeCount":null,"sharedContent":null,"parent":{"__typename":"HnJson","localize":[{"title":"孩子们在Linux Mint中找到了一个安全漏洞，通过捣乱键的方式。","locale":"zh"},{"title":"孩子們在Linux Mint中找到了一個安全漏洞，通過搗亂鍵的方式。","locale":"zh-Hant"}]}},{"__typename":"SocialMediaPost","id":"HnPost-25843040","excerpt":"","slug":"/hn/25843040","title":"Anthony Levandowski Pardoned by Trump","date":"January 20, 2021","dateISO":"2021-01-20T09:11:37.128Z","datetime":"2021-01-20 09:11","tags":["story","Hacker News"],"image":null,"imageAlt":null,"provider":"Hacker News","thirdPartyId":"25843040","url":"https://news.ycombinator.com/item?id=25843040","originalUrl":"https://www.whitehouse.gov/briefings-statements/statement-press-secretary-regarding-executive-grants-clemency-012021/","imageRemote":"https://www.whitehouse.gov/wp-content/uploads/2017/12/wh.gov-share-img_03-1024x538.png","video":null,"channel":null,"channelUrl":null,"author":"aresant","authorUrl":"https://news.ycombinator.com/user?id=aresant","authorImage":null,"authorSlug":null,"score":573,"views":null,"sharedCount":null,"likeCount":null,"sharedContent":null,"parent":{"__typename":"HnJson","localize":[{"title":"安东尼-莱万多夫斯基被特朗普特赦","locale":"zh"},{"title":"安東尼-萊萬多夫斯基被特朗普特赦","locale":"zh-Hant"}]}},{"__typename":"SocialMediaPost","id":"HnPost-25836808","excerpt":"","slug":"/hn/25836808","title":"China wants to build an open source ecosystem to rival GitHub","date":"January 20, 2021","dateISO":"2021-01-20T08:01:41.922Z","datetime":"2021-01-20 08:01","tags":["story","Hacker News"],"image":null,"imageAlt":null,"provider":"Hacker News","thirdPartyId":"25836808","url":"https://news.ycombinator.com/item?id=25836808","originalUrl":"https://restofworld.org/2021/china-gitee-to-rival-github/","imageRemote":"https://149346090.v2.pressablecdn.com/wp-content/uploads/2021/01/GettyImages-1178238166-scaled.jpg","video":null,"channel":null,"channelUrl":null,"author":"donohoe","authorUrl":"https://news.ycombinator.com/user?id=donohoe","authorImage":null,"authorSlug":null,"score":197,"views":null,"sharedCount":null,"likeCount":null,"sharedContent":null,"parent":{"__typename":"HnJson","localize":[{"title":"中国欲打造可与GitHub媲美的开源生态圈","locale":"zh"},{"title":"中國欲打造可與GitHub媲美的開源生態圈","locale":"zh-Hant"}]}}]}},"pageContext":{"basePath":"/","pageType":"tag","tag":"story","tagsFilter":{"id":{"glob":"!*Post-1"}},"filter":{"id":{"glob":"!*Post-1"},"tags":{"eq":"story"}},"limit":25,"skip":2025,"total":3104,"totalPages":125,"currentPage":82,"maxWidth":1024,"maxHeight":512,"locale":"zh","hrefLang":"zh-Hans","originalPath":"/tags/story/page/82","dateFormat":"YYYY-MM-DD"}},"staticQueryHashes":["1239077767","2506312863","2744905544","3025052997","3493603132","3493603132","3513215887","386998304"]}