{"componentChunkName":"component---gatsby-theme-buzzing-src-gatsby-theme-timeline-templates-posts-query-js","path":"/zh-Hant/tags/hacker-news/page/8","result":{"data":{"site":{"siteMetadata":{"title":"Reddit 热门","description":"用中文浏览Reddit热门内容","social":[{"name":"Twitter","url":"https://twitter.com/gatsbyjs","external":null,"prefetch":null},{"name":"GitHub","url":"https://github.com/gatsbyjs","external":null,"prefetch":null}],"menuLinks":[],"localize":[{"locale":"en","title":"Buzzing on Reddit","description":"See what's buzzing on Reddit in your native language","social":[{"name":"Reddit","url":"https://www.reddit.com/","external":true,"prefetch":null}],"menuLinks":[{"name":"Weekly Selection","url":"/issues","external":null,"prefetch":null},{"name":"RSS","url":"/rss.xml","external":null,"prefetch":false}]},{"locale":"zh-Hant","title":"Reddit 熱門","description":"用中文瀏覽Reddit熱門內容","social":null,"menuLinks":null}]}},"tagsGroup":{"group":[{"fieldValue":"ASK HN","totalCount":54},{"fieldValue":"Hacker News","totalCount":3105},{"fieldValue":"Poll","totalCount":1},{"fieldValue":"Show HN","totalCount":100},{"fieldValue":"poll","totalCount":1},{"fieldValue":"story","totalCount":3104}]},"allBlogPost":{"nodes":[{"__typename":"SocialMediaPost","id":"HnPost-26638355","excerpt":"","slug":"/hn/26638355","title":"See a Satellite Tonight","date":"March 31, 2021","dateISO":"2021-03-31T03:42:40.635Z","datetime":"2021-03-31 03:42","tags":["story","Hacker News"],"image":null,"imageAlt":null,"provider":"Hacker News","thirdPartyId":"26638355","url":"https://news.ycombinator.com/item?id=26638355","originalUrl":"https://james.darpinian.com/satellites/","imageRemote":"https://james.darpinian.com/satellites/socialthumb.jpg","video":null,"channel":null,"channelUrl":null,"author":"rbanffy","authorUrl":"https://news.ycombinator.com/user?id=rbanffy","authorImage":null,"authorSlug":null,"score":212,"views":null,"sharedCount":null,"likeCount":null,"sharedContent":null,"parent":{"__typename":"HnJson","localize":[{"title":"今晚看卫星","locale":"zh"},{"title":"今晚看衛星","locale":"zh-Hant"}]}},{"__typename":"SocialMediaPost","id":"HnPost-26642449","excerpt":"","slug":"/hn/26642449","title":"BBC: The cost of speaking up against China (Uyghurs)","date":"March 31, 2021","dateISO":"2021-03-31T03:42:40.635Z","datetime":"2021-03-31 03:42","tags":["story","Hacker News"],"image":null,"imageAlt":null,"provider":"Hacker News","thirdPartyId":"26642449","url":"https://news.ycombinator.com/item?id=26642449","originalUrl":"https://www.bbc.com/news/world-asia-china-56563449","imageRemote":"https://ichef.bbci.co.uk/news/1024/branded_news/144F1/production/_117758138_bbc_jmeek4.jpg","video":null,"channel":null,"channelUrl":null,"author":"MichaelMoser123","authorUrl":"https://news.ycombinator.com/user?id=MichaelMoser123","authorImage":null,"authorSlug":null,"score":279,"views":null,"sharedCount":null,"likeCount":null,"sharedContent":null,"parent":{"__typename":"HnJson","localize":[{"title":"BBC: 反对中国的代价(维吾尔族)","locale":"zh"},{"title":"BBC: 反對中國的代價(維吾爾族)","locale":"zh-Hant"}]}},{"__typename":"SocialMediaPost","id":"HnPost-26637526","excerpt":"","slug":"/hn/26637526","title":"The Hitchhiker's Guide to Online Anonymity","date":"March 31, 2021","dateISO":"2021-03-31T01:07:19.513Z","datetime":"2021-03-31 01:07","tags":["story","Hacker News"],"image":null,"imageAlt":null,"provider":"Hacker News","thirdPartyId":"26637526","url":"https://news.ycombinator.com/item?id=26637526","originalUrl":"https://anonymousplanet.org/","imageRemote":null,"video":null,"channel":null,"channelUrl":null,"author":"x14km2d","authorUrl":"https://news.ycombinator.com/user?id=x14km2d","authorImage":null,"authorSlug":null,"score":376,"views":null,"sharedCount":null,"likeCount":null,"sharedContent":null,"parent":{"__typename":"HnJson","localize":[{"title":"网络匿名指南》搭车人的指南","locale":"zh"},{"title":"網絡匿名指南》搭車人的指南","locale":"zh-Hant"}]}},{"__typename":"SocialMediaPost","id":"HnPost-26639933","excerpt":"","slug":"/hn/26639933","title":"Volkswagen will not change name of U.S. operations: sources","date":"March 31, 2021","dateISO":"2021-03-31T01:07:19.513Z","datetime":"2021-03-31 01:07","tags":["story","Hacker News"],"image":null,"imageAlt":null,"provider":"Hacker News","thirdPartyId":"26639933","url":"https://news.ycombinator.com/item?id=26639933","originalUrl":"https://www.reuters.com/article/us-volkswagen-name/volkswagen-will-not-change-name-of-u-s-operations-sources-idUSKBN2BM2YJ","imageRemote":"https://static.reuters.com/resources/r/?m=02&d=20210330&t=2&i=1556790662&r=LYNXMPEH2T1H1&w=800","video":null,"channel":null,"channelUrl":null,"author":"43920","authorUrl":"https://news.ycombinator.com/user?id=43920","authorImage":null,"authorSlug":null,"score":156,"views":null,"sharedCount":null,"likeCount":null,"sharedContent":null,"parent":{"__typename":"HnJson","localize":[{"title":"消息人士：大众汽车不会更改美国业务名称","locale":"zh"},{"title":"消息人士：大衆汽車不會更改美國業務名稱","locale":"zh-Hant"}]}},{"__typename":"SocialMediaPost","id":"HnPost-26640095","excerpt":"","slug":"/hn/26640095","title":"Kafka without ZooKeeper","date":"March 30, 2021","dateISO":"2021-03-30T23:35:08.446Z","datetime":"2021-03-30 23:35","tags":["story","Hacker News"],"image":null,"imageAlt":null,"provider":"Hacker News","thirdPartyId":"26640095","url":"https://news.ycombinator.com/item?id=26640095","originalUrl":"https://www.confluent.io/blog/kafka-without-zookeeper-a-sneak-peek/","imageRemote":"https://cdn.confluent.io/wp-content/uploads/seo-logo-meadow.png","video":null,"channel":null,"channelUrl":null,"author":"toomanybits","authorUrl":"https://news.ycombinator.com/user?id=toomanybits","authorImage":null,"authorSlug":null,"score":385,"views":null,"sharedCount":null,"likeCount":null,"sharedContent":null,"parent":{"__typename":"HnJson","localize":[{"title":"没有ZooKeeper的Kafka","locale":"zh"},{"title":"沒有ZooKeeper的Kafka","locale":"zh-Hant"}]}},{"__typename":"SocialMediaPost","id":"HnPost-26638091","excerpt":"","slug":"/hn/26638091","title":"Arm Announces Armv9 Architecture: SVE2, Security, and the Next Decade","date":"March 30, 2021","dateISO":"2021-03-30T22:10:50.052Z","datetime":"2021-03-30 22:10","tags":["story","Hacker News"],"image":null,"imageAlt":null,"provider":"Hacker News","thirdPartyId":"26638091","url":"https://news.ycombinator.com/item?id=26638091","originalUrl":"https://www.anandtech.com/show/16584/arm-announces-armv9-architecture","imageRemote":"https://images.anandtech.com/doci/16584/car_678x452.png","video":null,"channel":null,"channelUrl":null,"author":"marc__1","authorUrl":"https://news.ycombinator.com/user?id=marc__1","authorImage":null,"authorSlug":null,"score":295,"views":null,"sharedCount":null,"likeCount":null,"sharedContent":null,"parent":{"__typename":"HnJson","localize":[{"title":"Arm宣布Armv9架构。SVE2、安全和下一个十年","locale":"zh"},{"title":"Arm宣佈Armv9架構。SVE2、安全和下一個十年","locale":"zh-Hant"}]}},{"__typename":"SocialMediaPost","id":"HnPost-26639261","excerpt":"","slug":"/hn/26639261","title":"Goolgle collects 20X more telemetry from Android devices than Apple from iOS","date":"March 30, 2021","dateISO":"2021-03-30T20:28:11.411Z","datetime":"2021-03-30 20:28","tags":["story","Hacker News"],"image":null,"imageAlt":null,"provider":"Hacker News","thirdPartyId":"26639261","url":"https://news.ycombinator.com/item?id=26639261","originalUrl":"https://therecord.media/google-collects-20-times-more-telemetry-from-android-devices-than-apple-from-ios/","imageRemote":"https://therecord.media/wp-content/uploads/2021/03/iOS-Android.jpg","video":null,"channel":null,"channelUrl":null,"author":"gormandizer","authorUrl":"https://news.ycombinator.com/user?id=gormandizer","authorImage":null,"authorSlug":null,"score":807,"views":null,"sharedCount":null,"likeCount":null,"sharedContent":null,"parent":{"__typename":"HnJson","localize":[{"title":"Goolgle从安卓设备上收集的遥测数据比苹果从iOS上收集的遥测数据多20倍。","locale":"zh"},{"title":"Goolgle從安卓設備上收集的遙測數據比蘋果從iOS上收集的遙測數據多20倍。","locale":"zh-Hant"}]}},{"__typename":"SocialMediaPost","id":"HnPost-26637065","excerpt":"","slug":"/hn/26637065","title":"Japan's cherry blossom 'earliest peak since records began'","date":"March 30, 2021","dateISO":"2021-03-30T19:44:21.058Z","datetime":"2021-03-30 19:44","tags":["story","Hacker News"],"image":null,"imageAlt":null,"provider":"Hacker News","thirdPartyId":"26637065","url":"https://news.ycombinator.com/item?id=26637065","originalUrl":"https://www.bbc.com/news/world-asia-56574142","imageRemote":"https://ichef.bbci.co.uk/news/1024/branded_news/5163/production/_117753802_gettyimages-1231981058.jpg","video":null,"channel":null,"channelUrl":null,"author":"onetimemanytime","authorUrl":"https://news.ycombinator.com/user?id=onetimemanytime","authorImage":null,"authorSlug":null,"score":262,"views":null,"sharedCount":null,"likeCount":null,"sharedContent":null,"parent":{"__typename":"HnJson","localize":[{"title":"日本樱花 \"有记录以来最早的高峰期","locale":"zh"},{"title":"日本櫻花 \"有記錄以來最早的高峯期","locale":"zh-Hant"}]}},{"__typename":"SocialMediaPost","id":"HnPost-26635652","excerpt":"","slug":"/hn/26635652","title":"Amazon loses effort to install camera to watch counting of ballots in union vote","date":"March 30, 2021","dateISO":"2021-03-30T19:29:14.838Z","datetime":"2021-03-30 19:29","tags":["story","Hacker News"],"image":null,"imageAlt":null,"provider":"Hacker News","thirdPartyId":"26635652","url":"https://news.ycombinator.com/item?id=26635652","originalUrl":"https://www.cnbc.com/2021/03/30/amazon-loses-effort-to-install-camera-to-watch-ballot-box-in-union-vote.html","imageRemote":"https://image.cnbcfm.com/api/v1/image/106850092-1614970521046-gettyimages-1231313259-Lev_Radin_022121.jpeg?v=1614970557","video":null,"channel":null,"channelUrl":null,"author":"koolba","authorUrl":"https://news.ycombinator.com/user?id=koolba","authorImage":null,"authorSlug":null,"score":227,"views":null,"sharedCount":null,"likeCount":null,"sharedContent":null,"parent":{"__typename":"HnJson","localize":[{"title":"亚马逊在工会投票中安装摄像头观看计票的努力失败。","locale":"zh"},{"title":"亞馬遜在工會投票中安裝攝像頭觀看計票的努力失敗。","locale":"zh-Hant"}]}},{"__typename":"SocialMediaPost","id":"HnPost-26633148","excerpt":"","slug":"/hn/26633148","title":"Let’s fix font size","date":"March 30, 2021","dateISO":"2021-03-30T19:05:59.718Z","datetime":"2021-03-30 19:05","tags":["story","Hacker News"],"image":null,"imageAlt":null,"provider":"Hacker News","thirdPartyId":"26633148","url":"https://news.ycombinator.com/item?id=26633148","originalUrl":"https://tonsky.me/blog/font-size/","imageRemote":"https://tonsky.me/blog/font-size/sublime.png","video":null,"channel":null,"channelUrl":null,"author":"rhabarba","authorUrl":"https://news.ycombinator.com/user?id=rhabarba","authorImage":null,"authorSlug":null,"score":909,"views":null,"sharedCount":null,"likeCount":null,"sharedContent":null,"parent":{"__typename":"HnJson","localize":[{"title":"让我们固定字体大小","locale":"zh"},{"title":"讓我們固定字體大小","locale":"zh-Hant"}]}},{"__typename":"SocialMediaPost","id":"HnPost-26638145","excerpt":"","slug":"/hn/26638145","title":"Whistleblower: Ubiquiti Breach “Catastrophic”","date":"March 30, 2021","dateISO":"2021-03-30T19:05:59.718Z","datetime":"2021-03-30 19:05","tags":["story","Hacker News"],"image":null,"imageAlt":null,"provider":"Hacker News","thirdPartyId":"26638145","url":"https://news.ycombinator.com/item?id=26638145","originalUrl":"https://krebsonsecurity.com/2021/03/whistleblower-ubiquiti-breach-catastrophic/","imageRemote":"https://krebsonsecurity.com/wp-content/uploads/2021/03/ubiquiti.png","video":null,"channel":null,"channelUrl":null,"author":"parsecs","authorUrl":"https://news.ycombinator.com/user?id=parsecs","authorImage":null,"authorSlug":null,"score":1933,"views":null,"sharedCount":null,"likeCount":null,"sharedContent":null,"parent":{"__typename":"HnJson","localize":[{"title":"举报人。Ubiquiti公司的违规行为是 \"灾难性的\"","locale":"zh"},{"title":"舉報人。Ubiquiti公司的違規行爲是 \"災難性的\"","locale":"zh-Hant"}]}},{"__typename":"SocialMediaPost","id":"HnPost-26636021","excerpt":"","slug":"/hn/26636021","title":"'Fake' Amazon workers defend company on Twitter","date":"March 30, 2021","dateISO":"2021-03-30T17:06:43.016Z","datetime":"2021-03-30 17:06","tags":["story","Hacker News"],"image":null,"imageAlt":null,"provider":"Hacker News","thirdPartyId":"26636021","url":"https://news.ycombinator.com/item?id=26636021","originalUrl":"https://www.bbc.com/news/technology-56581266","imageRemote":"https://ichef.bbci.co.uk/news/1024/branded_news/111DA/production/_117760107_tv066505173.jpg","video":null,"channel":null,"channelUrl":null,"author":"alexrustic","authorUrl":"https://news.ycombinator.com/user?id=alexrustic","authorImage":null,"authorSlug":null,"score":842,"views":null,"sharedCount":null,"likeCount":null,"sharedContent":null,"parent":{"__typename":"HnJson","localize":[{"title":"\"假 \"亚马逊员工在Twitter上为公司辩护","locale":"zh"},{"title":"\"假 \"亞馬遜員工在Twitter上爲公司辯護","locale":"zh-Hant"}]}},{"__typename":"SocialMediaPost","id":"HnPost-26634101","excerpt":"","slug":"/hn/26634101","title":"Apple’s Worldwide Developers Conference is back in its all-online format","date":"March 30, 2021","dateISO":"2021-03-30T16:09:45.504Z","datetime":"2021-03-30 16:09","tags":["story","Hacker News"],"image":null,"imageAlt":null,"provider":"Hacker News","thirdPartyId":"26634101","url":"https://news.ycombinator.com/item?id=26634101","originalUrl":"https://www.apple.com/newsroom/2021/03/apples-worldwide-developers-conference-is-back-in-its-all-online-format/","imageRemote":"https://www.apple.com/newsroom/images/live-action/wwdc/Apple_wwdc21_newsroom_homepage_tile_033021.jpg.og.jpg?202103301405","video":null,"channel":null,"channelUrl":null,"author":"todsacerdoti","authorUrl":"https://news.ycombinator.com/user?id=todsacerdoti","authorImage":null,"authorSlug":null,"score":229,"views":null,"sharedCount":null,"likeCount":null,"sharedContent":null,"parent":{"__typename":"HnJson","localize":[{"title":"苹果全球开发者大会又以全线上形式举行了","locale":"zh"},{"title":"蘋果全球開發者大會又以全線上形式舉行了","locale":"zh-Hant"}]}},{"__typename":"SocialMediaPost","id":"HnPost-26634857","excerpt":"","slug":"/hn/26634857","title":"Voltswagen of America","date":"March 30, 2021","dateISO":"2021-03-30T15:29:49.802Z","datetime":"2021-03-30 15:29","tags":["story","Hacker News"],"image":null,"imageAlt":null,"provider":"Hacker News","thirdPartyId":"26634857","url":"https://news.ycombinator.com/item?id=26634857","originalUrl":"https://media.vw.com/en-us/releases/1499","imageRemote":"https://media.vw.com/assets/images/original/13212-Voltswagen.png","video":null,"channel":null,"channelUrl":null,"author":"throwaway4good","authorUrl":"https://news.ycombinator.com/user?id=throwaway4good","authorImage":null,"authorSlug":null,"score":562,"views":null,"sharedCount":null,"likeCount":null,"sharedContent":null,"parent":{"__typename":"HnJson","localize":[{"title":"美国大众汽车公司","locale":"zh"},{"title":"美國大衆汽車公司","locale":"zh-Hant"}]}},{"__typename":"SocialMediaPost","id":"HnPost-26633038","excerpt":"","slug":"/hn/26633038","title":"Breakthrough for ‘massless’ energy storage","date":"March 30, 2021","dateISO":"2021-03-30T14:52:18.008Z","datetime":"2021-03-30 14:52","tags":["story","Hacker News"],"image":null,"imageAlt":null,"provider":"Hacker News","thirdPartyId":"26633038","url":"https://news.ycombinator.com/item?id=26633038","originalUrl":"https://www.chalmers.se/en/departments/ims/news/Pages/Big-breakthrough-for-’massless’-energy-storage.aspx","imageRemote":"https://www.chalmers.se/_layouts/ChalmersPublicWeb/images/chalmers.svg","video":null,"channel":null,"channelUrl":null,"author":"reimertz","authorUrl":"https://news.ycombinator.com/user?id=reimertz","authorImage":null,"authorSlug":null,"score":233,"views":null,"sharedCount":null,"likeCount":null,"sharedContent":null,"parent":{"__typename":"HnJson","localize":[{"title":"无质量 \"储能的突破性进展","locale":"zh"},{"title":"無質量 \"儲能的突破性進展","locale":"zh-Hant"}]}},{"__typename":"SocialMediaPost","id":"HnPost-26633698","excerpt":"","slug":"/hn/26633698","title":"PayPal launches crypto checkout service","date":"March 30, 2021","dateISO":"2021-03-30T14:52:18.008Z","datetime":"2021-03-30 14:52","tags":["story","Hacker News"],"image":null,"imageAlt":null,"provider":"Hacker News","thirdPartyId":"26633698","url":"https://news.ycombinator.com/item?id=26633698","originalUrl":"https://www.reuters.com/article/us-crypto-currency-paypal-exclusive-idUSKBN2BM10N","imageRemote":"https://static.reuters.com/resources/r/?m=02&d=20210330&t=2&i=1556721940&r=LYNXMPEH2T0G1&w=800","video":null,"channel":null,"channelUrl":null,"author":"JulianRaphael","authorUrl":"https://news.ycombinator.com/user?id=JulianRaphael","authorImage":null,"authorSlug":null,"score":360,"views":null,"sharedCount":null,"likeCount":null,"sharedContent":null,"parent":{"__typename":"HnJson","localize":[{"title":"PayPal推出加密结账服务","locale":"zh"},{"title":"PayPal推出加密結賬服務","locale":"zh-Hant"}]}},{"__typename":"SocialMediaPost","id":"HnPost-26634113","excerpt":"","slug":"/hn/26634113","title":"Unsplash is being acquired by Getty Images","date":"March 30, 2021","dateISO":"2021-03-30T14:26:18.760Z","datetime":"2021-03-30 14:26","tags":["story","Hacker News"],"image":null,"imageAlt":null,"provider":"Hacker News","thirdPartyId":"26634113","url":"https://news.ycombinator.com/item?id=26634113","originalUrl":"https://unsplash.com/blog/unsplash-getty/","imageRemote":"https://unsplash.com/blog/content/images/2021/03/unsplash-getty-twitter-1.jpg","video":null,"channel":null,"channelUrl":null,"author":"baptlac","authorUrl":"https://news.ycombinator.com/user?id=baptlac","authorImage":null,"authorSlug":null,"score":559,"views":null,"sharedCount":null,"likeCount":null,"sharedContent":null,"parent":{"__typename":"HnJson","localize":[{"title":"Unsplash被Getty Images收购。","locale":"zh"},{"title":"Unsplash被Getty Images收購。","locale":"zh-Hant"}]}},{"__typename":"SocialMediaPost","id":"HnPost-26631041","excerpt":"","slug":"/hn/26631041","title":"Intel to spend $20B on two new chip factories in Arizona","date":"March 30, 2021","dateISO":"2021-03-30T13:51:20.080Z","datetime":"2021-03-30 13:51","tags":["story","Hacker News"],"image":null,"imageAlt":null,"provider":"Hacker News","thirdPartyId":"26631041","url":"https://news.ycombinator.com/item?id=26631041","originalUrl":"https://www.nytimes.com/2021/03/23/technology/intel-arizona-chip-factories.html","imageRemote":"https://static01.nyt.com/images/2021/03/23/business/23economy-briefing-intel/merlin_185454126_034cbb9f-f240-40cb-8082-4cce8c8f0efa-facebookJumbo.jpg","video":null,"channel":null,"channelUrl":null,"author":"fortran77","authorUrl":"https://news.ycombinator.com/user?id=fortran77","authorImage":null,"authorSlug":null,"score":176,"views":null,"sharedCount":null,"likeCount":null,"sharedContent":null,"parent":{"__typename":"HnJson","localize":[{"title":"英特尔将斥资200亿美元在亚利桑那州新建两家芯片工厂。","locale":"zh"},{"title":"英特爾將斥資200億美元在亞利桑那州新建兩家芯片工廠。","locale":"zh-Hant"}]}},{"__typename":"SocialMediaPost","id":"HnPost-26629765","excerpt":"","slug":"/hn/26629765","title":"Git email flow vs. GitHub flow","date":"March 30, 2021","dateISO":"2021-03-30T10:30:21.024Z","datetime":"2021-03-30 10:30","tags":["story","Hacker News"],"image":null,"imageAlt":null,"provider":"Hacker News","thirdPartyId":"26629765","url":"https://news.ycombinator.com/item?id=26629765","originalUrl":"https://blog.brixit.nl/git-email-flow-versus-github-flow/","imageRemote":"https://blog.brixit.nl/content/images/2020/12/git-send-email.png","video":null,"channel":null,"channelUrl":null,"author":"pabs3","authorUrl":"https://news.ycombinator.com/user?id=pabs3","authorImage":null,"authorSlug":null,"score":209,"views":null,"sharedCount":null,"likeCount":null,"sharedContent":null,"parent":{"__typename":"HnJson","localize":[{"title":"Git邮件流VS GitHub流","locale":"zh"},{"title":"Git郵件流VS GitHub流","locale":"zh-Hant"}]}},{"__typename":"SocialMediaPost","id":"HnPost-26631467","excerpt":"","slug":"/hn/26631467","title":"Icecream: Never use print() to debug again in Python","date":"March 30, 2021","dateISO":"2021-03-30T10:30:21.024Z","datetime":"2021-03-30 10:30","tags":["story","Hacker News"],"image":null,"imageAlt":null,"provider":"Hacker News","thirdPartyId":"26631467","url":"https://news.ycombinator.com/item?id=26631467","originalUrl":"https://github.com/gruns/icecream","imageRemote":"https://avatars.githubusercontent.com/u/1041265?s=400&v=4","video":null,"channel":null,"channelUrl":null,"author":"polm23","authorUrl":"https://news.ycombinator.com/user?id=polm23","authorImage":null,"authorSlug":null,"score":483,"views":null,"sharedCount":null,"likeCount":null,"sharedContent":null,"parent":{"__typename":"HnJson","localize":[{"title":"冰激凌。在Python中再也不用print()来调试了。","locale":"zh"},{"title":"冰激凌。在Python中再也不用print()來調試了。","locale":"zh-Hant"}]}},{"__typename":"SocialMediaPost","id":"HnPost-26628285","excerpt":"","slug":"/hn/26628285","title":"Innernet: open source Rust based Tailscale alternative","date":"March 30, 2021","dateISO":"2021-03-30T07:39:14.753Z","datetime":"2021-03-30 07:39","tags":["story","Hacker News"],"image":null,"imageAlt":null,"provider":"Hacker News","thirdPartyId":"26628285","url":"https://news.ycombinator.com/item?id=26628285","originalUrl":"https://blog.tonari.no/introducing-innernet","imageRemote":"https://blog.tonari.no/images/c1dc5548-6074-46c2-91a4-bed8d3342e85-innernet_sakura_lighttext_small.mp4","video":null,"channel":null,"channelUrl":null,"author":"ricklamers","authorUrl":"https://news.ycombinator.com/user?id=ricklamers","authorImage":null,"authorSlug":null,"score":264,"views":null,"sharedCount":null,"likeCount":null,"sharedContent":null,"parent":{"__typename":"HnJson","localize":[{"title":"Innernet：开源的基于Rust的Tailscale替代方案。","locale":"zh"},{"title":"Innernet：開源的基於Rust的Tailscale替代方案。","locale":"zh-Hant"}]}},{"__typename":"SocialMediaPost","id":"HnPost-26622560","excerpt":"","slug":"/hn/26622560","title":"FreeBSD Core Team Statement on FreeBSD Development Processes","date":"March 30, 2021","dateISO":"2021-03-30T06:31:16.825Z","datetime":"2021-03-30 06:31","tags":["story","Hacker News"],"image":null,"imageAlt":null,"provider":"Hacker News","thirdPartyId":"26622560","url":"https://news.ycombinator.com/item?id=26622560","originalUrl":"https://lists.freebsd.org/pipermail/freebsd-hackers/2021-March/057127.html","imageRemote":null,"video":null,"channel":null,"channelUrl":null,"author":"vermaden","authorUrl":"https://news.ycombinator.com/user?id=vermaden","authorImage":null,"authorSlug":null,"score":145,"views":null,"sharedCount":null,"likeCount":null,"sharedContent":null,"parent":{"__typename":"HnJson","localize":[{"title":"FreeBSD 核心团队关于 FreeBSD 开发流程的声明","locale":"zh"},{"title":"FreeBSD 核心團隊關於 FreeBSD 開發流程的聲明","locale":"zh-Hant"}]}},{"__typename":"SocialMediaPost","id":"HnPost-26625461","excerpt":"","slug":"/hn/26625461","title":"The end of TenFourFox and what I've learned from it","date":"March 30, 2021","dateISO":"2021-03-30T05:58:43.889Z","datetime":"2021-03-30 05:58","tags":["story","Hacker News"],"image":null,"imageAlt":null,"provider":"Hacker News","thirdPartyId":"26625461","url":"https://news.ycombinator.com/item?id=26625461","originalUrl":"http://tenfourfox.blogspot.com/2020/04/the-end-of-tenfourfox-and-what-ive.html","imageRemote":"https://1.bp.blogspot.com/-xoMxAY1jxY4/YGFkufT8A0I/AAAAAAAACLA/5RUgt_Q-d9cxc-BxdAwPyJxUNK2-sJJugCLcBGAsYHQ/w1200-h630-p-k-no-nu/TenFourFox-bye.png","video":null,"channel":null,"channelUrl":null,"author":"foodstances","authorUrl":"https://news.ycombinator.com/user?id=foodstances","authorImage":null,"authorSlug":null,"score":172,"views":null,"sharedCount":null,"likeCount":null,"sharedContent":null,"parent":{"__typename":"HnJson","localize":[{"title":"十面埋伏的结局和我从中得到的启示","locale":"zh"},{"title":"十面埋伏的結局和我從中得到的啓示","locale":"zh-Hant"}]}},{"__typename":"SocialMediaPost","id":"HnPost-26627637","excerpt":"","slug":"/hn/26627637","title":"AT&T lobbies against nationwide fiber, says 10Mbps uploads are good enough","date":"March 30, 2021","dateISO":"2021-03-30T05:52:09.517Z","datetime":"2021-03-30 05:52","tags":["story","Hacker News"],"image":null,"imageAlt":null,"provider":"Hacker News","thirdPartyId":"26627637","url":"https://news.ycombinator.com/item?id=26627637","originalUrl":"https://arstechnica.com/tech-policy/2021/03/att-lobbies-against-nationwide-fiber-says-10mbps-uploads-are-good-enough","imageRemote":"https://cdn.arstechnica.net/wp-content/uploads/2021/03/getty-snail-cable-760x380.jpg","video":null,"channel":null,"channelUrl":null,"author":"danaris","authorUrl":"https://news.ycombinator.com/user?id=danaris","authorImage":null,"authorSlug":null,"score":340,"views":null,"sharedCount":null,"likeCount":null,"sharedContent":null,"parent":{"__typename":"HnJson","localize":[{"title":"AT&T游说全国光纤，称10Mbps上传就够了","locale":"zh"},{"title":"AT&T遊說全國光纖，稱10Mbps上傳就夠了","locale":"zh-Hant"}]}},{"__typename":"SocialMediaPost","id":"HnPost-26628679","excerpt":"","slug":"/hn/26628679","title":"React and D3.js","date":"March 30, 2021","dateISO":"2021-03-30T05:52:09.517Z","datetime":"2021-03-30 05:52","tags":["story","Hacker News"],"image":null,"imageAlt":null,"provider":"Hacker News","thirdPartyId":"26628679","url":"https://news.ycombinator.com/item?id=26628679","originalUrl":"https://wattenberger.com/blog/react-and-d3","imageRemote":null,"video":null,"channel":null,"channelUrl":null,"author":"mxschumacher","authorUrl":"https://news.ycombinator.com/user?id=mxschumacher","authorImage":null,"authorSlug":null,"score":334,"views":null,"sharedCount":null,"likeCount":null,"sharedContent":null,"parent":{"__typename":"HnJson","localize":[{"title":"React和D3.js","locale":"zh"},{"title":"React和D3.js","locale":"zh-Hant"}]}}]}},"pageContext":{"basePath":"/","pageType":"tag","tag":"Hacker News","tagsFilter":{"id":{"glob":"!*Post-1"}},"filter":{"id":{"glob":"!*Post-1"},"tags":{"eq":"Hacker News"}},"limit":25,"skip":175,"total":3105,"totalPages":125,"currentPage":8,"maxWidth":1024,"maxHeight":512,"locale":"zh-Hant","hrefLang":"zh-Hant","originalPath":"/tags/hacker-news/page/8","dateFormat":"YYYY-MM-DD"}},"staticQueryHashes":["1239077767","2506312863","2744905544","3025052997","3493603132","3493603132","3513215887","386998304"]}