{"componentChunkName":"component---gatsby-theme-buzzing-src-gatsby-theme-timeline-templates-posts-query-js","path":"/tags/story/page/28","result":{"data":{"site":{"siteMetadata":{"title":"Reddit 热门","description":"用中文浏览Reddit热门内容","social":[{"name":"Twitter","url":"https://twitter.com/gatsbyjs","external":null,"prefetch":null},{"name":"GitHub","url":"https://github.com/gatsbyjs","external":null,"prefetch":null}],"menuLinks":[],"localize":[{"locale":"en","title":"Buzzing on Reddit","description":"See what's buzzing on Reddit in your native language","social":[{"name":"Reddit","url":"https://www.reddit.com/","external":true,"prefetch":null}],"menuLinks":[{"name":"Weekly Selection","url":"/issues","external":null,"prefetch":null},{"name":"RSS","url":"/rss.xml","external":null,"prefetch":false}]},{"locale":"zh-Hant","title":"Reddit 熱門","description":"用中文瀏覽Reddit熱門內容","social":null,"menuLinks":null}]}},"tagsGroup":{"group":[{"fieldValue":"ASK HN","totalCount":42},{"fieldValue":"Bitcoin","totalCount":4},{"fieldValue":"Hacker News","totalCount":2409},{"fieldValue":"Poll","totalCount":1},{"fieldValue":"SaveAMC","totalCount":1},{"fieldValue":"Show HN","totalCount":81},{"fieldValue":"bitcoin","totalCount":3},{"fieldValue":"investing","totalCount":755},{"fieldValue":"poll","totalCount":1},{"fieldValue":"reddit","totalCount":4525},{"fieldValue":"science","totalCount":1},{"fieldValue":"stocks","totalCount":1482},{"fieldValue":"story","totalCount":2408},{"fieldValue":"tweet","totalCount":767},{"fieldValue":"wallstreetbets","totalCount":2288}]},"allBlogPost":{"nodes":[{"__typename":"SocialMediaPost","id":"HnPost-26128388","excerpt":"","slug":"/hn/26128388","title":"Show HN: M1 Chart – The stock market adjusted for the US-dollar money supply","date":"February 14, 2021","dateISO":"2021-02-14T05:29:43.719Z","datetime":"2021-02-14 05:29","tags":["story","Show HN","Hacker News"],"image":null,"imageAlt":null,"provider":"Hacker News","thirdPartyId":"26128388","url":"https://news.ycombinator.com/item?id=26128388","originalUrl":"https://m1chart.com/?ref=hn","imageRemote":"https://m1chart.com/assets/social.png?1613258495","video":null,"channel":"Show HN","channelUrl":"https://news.ycombinator.com/show","author":"pieterhg","authorUrl":"https://news.ycombinator.com/user?id=pieterhg","authorImage":null,"authorSlug":null,"score":205,"views":null,"sharedCount":null,"likeCount":null,"sharedContent":null,"parent":{"__typename":"HnJson","localize":[{"title":"显示HN：M1图--股市调整后的美圆货币供应量","locale":"zh"},{"title":"顯示HN：M1圖--股市調整後的美圓貨幣供應量","locale":"zh-Hant"}]}},{"__typename":"SocialMediaPost","id":"HnPost-26128752","excerpt":"","slug":"/hn/26128752","title":"Statement on New York Times Article","date":"February 14, 2021","dateISO":"2021-02-14T04:56:10.974Z","datetime":"2021-02-14 04:56","tags":["story","Hacker News"],"image":null,"imageAlt":null,"provider":"Hacker News","thirdPartyId":"26128752","url":"https://news.ycombinator.com/item?id=26128752","originalUrl":"https://astralcodexten.substack.com/p/statement-on-new-york-times-article","imageRemote":"https://cdn.substack.com/image/fetch/w_1200,c_limit,f_jpg,q_auto:good,fl_progressive:steep/https%3A%2F%2Fbucketeer-e05bbc84-baa3-437e-9518-adb32be77984.s3.amazonaws.com%2Fpublic%2Fimages%2Ff79365ba-cfb1-4887-ba59-d167e4cf62f1_480x393.jpeg","video":null,"channel":null,"channelUrl":null,"author":"jger15","authorUrl":"https://news.ycombinator.com/user?id=jger15","authorImage":null,"authorSlug":null,"score":863,"views":null,"sharedCount":null,"likeCount":null,"sharedContent":null,"parent":{"__typename":"HnJson","localize":[{"title":"关于《纽约时报》文章的声明","locale":"zh"},{"title":"關於《紐約時報》文章的聲明","locale":"zh-Hant"}]}},{"__typename":"SocialMediaPost","id":"HnPost-26126067","excerpt":"","slug":"/hn/26126067","title":"The worst of the two worlds: Excel meets Outlook","date":"February 14, 2021","dateISO":"2021-02-14T02:00:20.392Z","datetime":"2021-02-14 02:00","tags":["story","Hacker News"],"image":null,"imageAlt":null,"provider":"Hacker News","thirdPartyId":"26126067","url":"https://news.ycombinator.com/item?id=26126067","originalUrl":"https://adepts.of0x.cc/vba-outlook/","imageRemote":"https://adepts.of0x.cc/assets/img/ogp.png","video":null,"channel":null,"channelUrl":null,"author":"mooreds","authorUrl":"https://news.ycombinator.com/user?id=mooreds","authorImage":null,"authorSlug":null,"score":273,"views":null,"sharedCount":null,"likeCount":null,"sharedContent":null,"parent":{"__typename":"HnJson","localize":[{"title":"两个世界中最糟糕的：Excel遇上Outlook","locale":"zh"},{"title":"兩個世界中最糟糕的：Excel遇上Outlook","locale":"zh-Hant"}]}},{"__typename":"SocialMediaPost","id":"HnPost-26126455","excerpt":"","slug":"/hn/26126455","title":"Comp.lang.c Google Group has been banned","date":"February 14, 2021","dateISO":"2021-02-14T00:30:06.430Z","datetime":"2021-02-14 00:30","tags":["story","Hacker News"],"image":null,"imageAlt":null,"provider":"Hacker News","thirdPartyId":"26126455","url":"https://news.ycombinator.com/item?id=26126455","originalUrl":"https://groups.google.com/g/comp.lang.c","imageRemote":null,"video":null,"channel":null,"channelUrl":null,"author":"veltas","authorUrl":"https://news.ycombinator.com/user?id=veltas","authorImage":null,"authorSlug":null,"score":347,"views":null,"sharedCount":null,"likeCount":null,"sharedContent":null,"parent":{"__typename":"HnJson","localize":[{"title":"Comp.lang.c谷歌小组被禁止了","locale":"zh"},{"title":"Comp.lang.c谷歌小組被禁止了","locale":"zh-Hant"}]}},{"__typename":"SocialMediaPost","id":"HnPost-26125145","excerpt":"","slug":"/hn/26125145","title":"US raises ‘deep concerns’ over WHO report on Covid’s Wuhan origins","date":"February 13, 2021","dateISO":"2021-02-13T22:23:40.835Z","datetime":"2021-02-13 22:23","tags":["story","Hacker News"],"image":null,"imageAlt":null,"provider":"Hacker News","thirdPartyId":"26125145","url":"https://news.ycombinator.com/item?id=26125145","originalUrl":"https://www.reuters.com/article/us-health-coronavirus-usa-idUSKBN2AD0FX","imageRemote":"https://static.reuters.com/resources/r/?m=02&d=20210213&t=2&i=1551432367&r=LYNXMPEH1C0BQ&w=800","video":null,"channel":null,"channelUrl":null,"author":"lazycrazyowl","authorUrl":"https://news.ycombinator.com/user?id=lazycrazyowl","authorImage":null,"authorSlug":null,"score":502,"views":null,"sharedCount":null,"likeCount":null,"sharedContent":null,"parent":{"__typename":"HnJson","localize":[{"title":"美国对世卫组织关于科维德武汉产地的报告提出 \"深切关注","locale":"zh"},{"title":"美國對世衛組織關於科維德武漢產地的報告提出 \"深切關注","locale":"zh-Hant"}]}},{"__typename":"SocialMediaPost","id":"HnPost-26125605","excerpt":"","slug":"/hn/26125605","title":"AirPods Causing Tinnitus (600+ reports since 2019?)","date":"February 13, 2021","dateISO":"2021-02-13T21:57:54.386Z","datetime":"2021-02-13 21:57","tags":["story","Hacker News"],"image":null,"imageAlt":null,"provider":"Hacker News","thirdPartyId":"26125605","url":"https://news.ycombinator.com/item?id=26125605","originalUrl":"https://discussions.apple.com/thread/250886390","imageRemote":"https://discussions.apple.com/public/assets/avatars/SYSTEM_DEFAULT_AVATAR_EN_8999.png","video":null,"channel":null,"channelUrl":null,"author":"albertTJames","authorUrl":"https://news.ycombinator.com/user?id=albertTJames","authorImage":null,"authorSlug":null,"score":231,"views":null,"sharedCount":null,"likeCount":null,"sharedContent":null,"parent":{"__typename":"HnJson","localize":[{"title":"AirPods导致耳鸣（2019年以来600多起报道？","locale":"zh"},{"title":"AirPods導致耳鳴（2019年以來600多起報道？","locale":"zh-Hant"}]}},{"__typename":"SocialMediaPost","id":"HnPost-26126183","excerpt":"","slug":"/hn/26126183","title":"50 Years Ago, Sugar Industry Quietly Paid Scientists to Blame Fat (2016)","date":"February 13, 2021","dateISO":"2021-02-13T21:19:08.901Z","datetime":"2021-02-13 21:19","tags":["story","Hacker News"],"image":null,"imageAlt":null,"provider":"Hacker News","thirdPartyId":"26126183","url":"https://news.ycombinator.com/item?id=26126183","originalUrl":"https://www.npr.org/sections/thetwo-way/2016/09/13/493739074/50-years-ago-sugar-industry-quietly-paid-scientists-to-point-blame-at-fat","imageRemote":"https://media.npr.org/assets/img/2016/09/13/sugar_wide-c334d683622a1f40a8f97f8acc8199a44f233e68.jpg?s=1400","video":null,"channel":null,"channelUrl":null,"author":"mgh2","authorUrl":"https://news.ycombinator.com/user?id=mgh2","authorImage":null,"authorSlug":null,"score":788,"views":null,"sharedCount":null,"likeCount":null,"sharedContent":null,"parent":{"__typename":"HnJson","localize":[{"title":"50年前，糖业悄悄付钱给科学家，让他们把责任推给脂肪(2016)","locale":"zh"},{"title":"50年前，糖業悄悄付錢給科學家，讓他們把責任推給脂肪(2016)","locale":"zh-Hant"}]}},{"__typename":"SocialMediaPost","id":"HnPost-26125063","excerpt":"","slug":"/hn/26125063","title":"Ziglings: Learn the Zig programming language by fixing tiny broken programs","date":"February 13, 2021","dateISO":"2021-02-13T20:44:00.126Z","datetime":"2021-02-13 20:44","tags":["story","Hacker News"],"image":null,"imageAlt":null,"provider":"Hacker News","thirdPartyId":"26125063","url":"https://news.ycombinator.com/item?id=26125063","originalUrl":"https://github.com/ratfactor/ziglings","imageRemote":"https://avatars.githubusercontent.com/u/1458409?s=400&v=4","video":null,"channel":null,"channelUrl":null,"author":"DyslexicAtheist","authorUrl":"https://news.ycombinator.com/user?id=DyslexicAtheist","authorImage":null,"authorSlug":null,"score":396,"views":null,"sharedCount":null,"likeCount":null,"sharedContent":null,"parent":{"__typename":"HnJson","localize":[{"title":"Ziglings。学习Zig编程语言，修复微小的破损程序。","locale":"zh"},{"title":"Ziglings。學習Zig編程語言，修復微小的破損程序。","locale":"zh-Hant"}]}},{"__typename":"SocialMediaPost","id":"HnPost-26125003","excerpt":"","slug":"/hn/26125003","title":"Our Brutal Science System Almost Cost Us a Pioneer of mRNA Vaccines","date":"February 13, 2021","dateISO":"2021-02-13T20:34:03.706Z","datetime":"2021-02-13 20:34","tags":["story","Hacker News"],"image":null,"imageAlt":null,"provider":"Hacker News","thirdPartyId":"26125003","url":"https://news.ycombinator.com/item?id=26125003","originalUrl":"https://www.wbur.org/commonhealth/2021/02/12/brutal-science-system-mrna-pioneer","imageRemote":"http://d279m997dpfwgl.cloudfront.net/wp/2020/12/GettyImages-1230011480-1000x667.jpg","video":null,"channel":null,"channelUrl":null,"author":"dsr12","authorUrl":"https://news.ycombinator.com/user?id=dsr12","authorImage":null,"authorSlug":null,"score":565,"views":null,"sharedCount":null,"likeCount":null,"sharedContent":null,"parent":{"__typename":"HnJson","localize":[{"title":"我们残酷的科学体系几乎让我们失去了一个mRNA疫苗的先驱者","locale":"zh"},{"title":"我們殘酷的科學體系幾乎讓我們失去了一個mRNA疫苗的先驅者","locale":"zh-Hant"}]}},{"__typename":"SocialMediaPost","id":"HnPost-26123576","excerpt":"","slug":"/hn/26123576","title":"OpenStreetMap in Realtime","date":"February 13, 2021","dateISO":"2021-02-13T19:16:49.287Z","datetime":"2021-02-13 19:16","tags":["story","Hacker News"],"image":null,"imageAlt":null,"provider":"Hacker News","thirdPartyId":"26123576","url":"https://news.ycombinator.com/item?id=26123576","originalUrl":"https://osm-in-realtime.jwestman.net/","imageRemote":null,"video":null,"channel":null,"channelUrl":null,"author":"grey_earthling","authorUrl":"https://news.ycombinator.com/user?id=grey_earthling","authorImage":null,"authorSlug":null,"score":333,"views":null,"sharedCount":null,"likeCount":null,"sharedContent":null,"parent":{"__typename":"HnJson","localize":[{"title":"实时的OpenStreetMap","locale":"zh"},{"title":"實時的OpenStreetMap","locale":"zh-Hant"}]}},{"__typename":"SocialMediaPost","id":"HnPost-26121592","excerpt":"","slug":"/hn/26121592","title":"Alternative Shells","date":"February 13, 2021","dateISO":"2021-02-13T18:50:51.557Z","datetime":"2021-02-13 18:50","tags":["story","Hacker News"],"image":null,"imageAlt":null,"provider":"Hacker News","thirdPartyId":"26121592","url":"https://news.ycombinator.com/item?id=26121592","originalUrl":"https://github.com/oilshell/oil/wiki/Alternative-Shells","imageRemote":"https://avatars.githubusercontent.com/u/23484962?s=400&v=4","video":null,"channel":null,"channelUrl":null,"author":"chubot","authorUrl":"https://news.ycombinator.com/user?id=chubot","authorImage":null,"authorSlug":null,"score":185,"views":null,"sharedCount":null,"likeCount":null,"sharedContent":null,"parent":{"__typename":"HnJson","localize":[{"title":"替代壳","locale":"zh"},{"title":"替代殼","locale":"zh-Hant"}]}},{"__typename":"SocialMediaPost","id":"HnPost-26124054","excerpt":"","slug":"/hn/26124054","title":"The Kotlin Foundation","date":"February 13, 2021","dateISO":"2021-02-13T18:32:19.979Z","datetime":"2021-02-13 18:32","tags":["story","Hacker News"],"image":null,"imageAlt":null,"provider":"Hacker News","thirdPartyId":"26124054","url":"https://news.ycombinator.com/item?id=26124054","originalUrl":"https://kotlinlang.org/docs/kotlin-foundation.html","imageRemote":null,"video":null,"channel":null,"channelUrl":null,"author":"ta988","authorUrl":"https://news.ycombinator.com/user?id=ta988","authorImage":null,"authorSlug":null,"score":238,"views":null,"sharedCount":null,"likeCount":null,"sharedContent":null,"parent":{"__typename":"HnJson","localize":[{"title":"Kotlin基金会","locale":"zh"},{"title":"Kotlin基金會","locale":"zh-Hant"}]}},{"__typename":"SocialMediaPost","id":"HnPost-26114701","excerpt":"","slug":"/hn/26114701","title":"New model could explain old cholesterol mystery","date":"February 13, 2021","dateISO":"2021-02-13T18:09:33.391Z","datetime":"2021-02-13 18:09","tags":["story","Hacker News"],"image":null,"imageAlt":null,"provider":"Hacker News","thirdPartyId":"26114701","url":"https://news.ycombinator.com/item?id=26114701","originalUrl":"https://sciencenorway.no/cholesterol-fat-heart-attacks/new-model-could-explain-old-cholesterol-mystery/1810159","imageRemote":"https://image.sciencenorway.no/1810284.jpg?imageId=1810284&panow=100&panoh=100&panox=0&panoy=0&heightw=100&heighth=100&heightx=0&heighty=0&width=1200&height=630","video":null,"channel":null,"channelUrl":null,"author":"shadykiller","authorUrl":"https://news.ycombinator.com/user?id=shadykiller","authorImage":null,"authorSlug":null,"score":167,"views":null,"sharedCount":null,"likeCount":null,"sharedContent":null,"parent":{"__typename":"HnJson","localize":[{"title":"新模型可以解释古老的胆固醇之谜","locale":"zh"},{"title":"新模型可以解釋古老的膽固醇之謎","locale":"zh-Hant"}]}},{"__typename":"SocialMediaPost","id":"HnPost-26122924","excerpt":"","slug":"/hn/26122924","title":"Silicon Valley’s Safe Space","date":"February 13, 2021","dateISO":"2021-02-13T17:48:34.601Z","datetime":"2021-02-13 17:48","tags":["story","Hacker News"],"image":null,"imageAlt":null,"provider":"Hacker News","thirdPartyId":"26122924","url":"https://news.ycombinator.com/item?id=26122924","originalUrl":"https://www.nytimes.com/2021/02/13/technology/slate-star-codex-rationalists.html","imageRemote":"https://static01.nyt.com/images/2021/02/08/business/00Rationalists-vid-still/00Rationalists-vid-still-facebookJumbo.jpg","video":null,"channel":null,"channelUrl":null,"author":"implying","authorUrl":"https://news.ycombinator.com/user?id=implying","authorImage":null,"authorSlug":null,"score":423,"views":null,"sharedCount":null,"likeCount":null,"sharedContent":null,"parent":{"__typename":"HnJson","localize":[{"title":"硅谷的安全空间","locale":"zh"},{"title":"硅谷的安全空間","locale":"zh-Hant"}]}},{"__typename":"SocialMediaPost","id":"HnPost-26123726","excerpt":"","slug":"/hn/26123726","title":"S**tbowl: The algorithmically powered in-home physical caching platform","date":"February 13, 2021","dateISO":"2021-02-13T17:48:34.601Z","datetime":"2021-02-13 17:48","tags":["story","Hacker News"],"image":null,"imageAlt":null,"provider":"Hacker News","thirdPartyId":"26123726","url":"https://news.ycombinator.com/item?id=26123726","originalUrl":"https://www.shitbowl.com/","imageRemote":null,"video":null,"channel":null,"channelUrl":null,"author":"fallingfrog","authorUrl":"https://news.ycombinator.com/user?id=fallingfrog","authorImage":null,"authorSlug":null,"score":720,"views":null,"sharedCount":null,"likeCount":null,"sharedContent":null,"parent":{"__typename":"HnJson","localize":[{"title":"S**tbowl。算法驱动的家庭物理缓存平台。","locale":"zh"},{"title":"S**tbowl。算法驅動的家庭物理緩存平臺。","locale":"zh-Hant"}]}},{"__typename":"SocialMediaPost","id":"HnPost-26111570","excerpt":"","slug":"/hn/26111570","title":"So, You Want to Learn to Break Ciphers","date":"February 13, 2021","dateISO":"2021-02-13T16:43:19.709Z","datetime":"2021-02-13 16:43","tags":["story","Hacker News"],"image":null,"imageAlt":null,"provider":"Hacker News","thirdPartyId":"26111570","url":"https://news.ycombinator.com/item?id=26111570","originalUrl":"https://littlemaninmyhead.wordpress.com/2015/09/28/so-you-want-to-learn-to-break-ciphers/","imageRemote":"https://littlemaninmyhead.files.wordpress.com/2019/08/cropped-little-man-in-my-head-1.jpg?w=200","video":null,"channel":null,"channelUrl":null,"author":"noch","authorUrl":"https://news.ycombinator.com/user?id=noch","authorImage":null,"authorSlug":null,"score":180,"views":null,"sharedCount":null,"likeCount":null,"sharedContent":null,"parent":{"__typename":"HnJson","localize":[{"title":"所以，你想学习破解密码？","locale":"zh"},{"title":"所以，你想學習破解密碼？","locale":"zh-Hant"}]}},{"__typename":"SocialMediaPost","id":"HnPost-26120631","excerpt":"","slug":"/hn/26120631","title":"Ditherpunk 2 – beyond 1-bit","date":"February 13, 2021","dateISO":"2021-02-13T15:47:13.496Z","datetime":"2021-02-13 15:47","tags":["story","Hacker News"],"image":null,"imageAlt":null,"provider":"Hacker News","thirdPartyId":"26120631","url":"https://news.ycombinator.com/item?id=26120631","originalUrl":"https://www.makeworld.gq/2021/02/dithering.html","imageRemote":"https://www.makeworld.gq/assets/images/dithering/peppers.png","video":null,"channel":null,"channelUrl":null,"author":"makeworld","authorUrl":"https://news.ycombinator.com/user?id=makeworld","authorImage":null,"authorSlug":null,"score":184,"views":null,"sharedCount":null,"likeCount":null,"sharedContent":null,"parent":{"__typename":"HnJson","localize":[{"title":"Ditherpunk 2 - 超越1-bit","locale":"zh"},{"title":"Ditherpunk 2 - 超越1-bit","locale":"zh-Hant"}]}},{"__typename":"SocialMediaPost","id":"HnPost-26121937","excerpt":"","slug":"/hn/26121937","title":"Google is now a visionary sponsor of the Python Software Foundation","date":"February 13, 2021","dateISO":"2021-02-13T12:45:00.891Z","datetime":"2021-02-13 12:45","tags":["story","Hacker News"],"image":null,"imageAlt":null,"provider":"Hacker News","thirdPartyId":"26121937","url":"https://news.ycombinator.com/item?id=26121937","originalUrl":"http://pyfound.blogspot.com/2021/02/welcoming-google-as-visionary-sponsor.html","imageRemote":"https://3.bp.blogspot.com/-nWqAgbDyLhA/Vrl1s7DIFLI/AAAAAAAAOo8/_hGVqcEcFqY/s1600-r/psf-logo.png","video":null,"channel":null,"channelUrl":null,"author":"Ldorigo","authorUrl":"https://news.ycombinator.com/user?id=Ldorigo","authorImage":null,"authorSlug":null,"score":365,"views":null,"sharedCount":null,"likeCount":null,"sharedContent":null,"parent":{"__typename":"HnJson","localize":[{"title":"谷歌现在是Python软件基金会的一个有远见的赞助商。","locale":"zh"},{"title":"谷歌現在是Python軟件基金會的一個有遠見的贊助商。","locale":"zh-Hant"}]}},{"__typename":"SocialMediaPost","id":"HnPost-26114425","excerpt":"","slug":"/hn/26114425","title":"The Miyawaki Method: A Better Way to Build Forests? (2019)","date":"February 13, 2021","dateISO":"2021-02-13T11:49:35.917Z","datetime":"2021-02-13 11:49","tags":["story","Hacker News"],"image":null,"imageAlt":null,"provider":"Hacker News","thirdPartyId":"26114425","url":"https://news.ycombinator.com/item?id=26114425","originalUrl":"https://daily.jstor.org/the-miyawaki-method-a-better-way-to-build-forests/","imageRemote":"https://daily.jstor.org/wp-content/uploads/2019/07/the_miyawaki_method_a_better_way_to_build_forests_1050x700.jpg","video":null,"channel":null,"channelUrl":null,"author":"nkurz","authorUrl":"https://news.ycombinator.com/user?id=nkurz","authorImage":null,"authorSlug":null,"score":166,"views":null,"sharedCount":null,"likeCount":null,"sharedContent":null,"parent":{"__typename":"HnJson","localize":[{"title":"宫胁法。更好的森林建设方法？(2019)","locale":"zh"},{"title":"宮脅法。更好的森林建設方法？(2019)","locale":"zh-Hant"}]}},{"__typename":"SocialMediaPost","id":"HnPost-26117516","excerpt":"","slug":"/hn/26117516","title":"Linux Memory Management FAQ","date":"February 13, 2021","dateISO":"2021-02-13T10:36:04.021Z","datetime":"2021-02-13 10:36","tags":["story","Hacker News"],"image":null,"imageAlt":null,"provider":"Hacker News","thirdPartyId":"26117516","url":"https://news.ycombinator.com/item?id=26117516","originalUrl":"http://landley.net/writing/memory-faq.txt","imageRemote":null,"video":null,"channel":null,"channelUrl":null,"author":"janselman","authorUrl":"https://news.ycombinator.com/user?id=janselman","authorImage":null,"authorSlug":null,"score":187,"views":null,"sharedCount":null,"likeCount":null,"sharedContent":null,"parent":{"__typename":"HnJson","localize":[{"title":"Linux内存管理常见问题","locale":"zh"},{"title":"Linux內存管理常見問題","locale":"zh-Hant"}]}},{"__typename":"SocialMediaPost","id":"HnPost-26117587","excerpt":"","slug":"/hn/26117587","title":"Fictional Cryptocurrencies","date":"February 13, 2021","dateISO":"2021-02-13T09:58:25.603Z","datetime":"2021-02-13 09:58","tags":["story","Hacker News"],"image":null,"imageAlt":null,"provider":"Hacker News","thirdPartyId":"26117587","url":"https://news.ycombinator.com/item?id=26117587","originalUrl":"https://astralcodexten.substack.com/p/list-of-fictional-cryptocurrencies","imageRemote":"https://cdn.substack.com/image/fetch/w_1200,c_limit,f_jpg,q_auto:good,fl_progressive:steep/https%3A%2F%2Fbucketeer-e05bbc84-baa3-437e-9518-adb32be77984.s3.amazonaws.com%2Fpublic%2Fimages%2F953cb9c9-1e82-4b20-8586-a5a1fbd31a71_1024x444.jpeg","video":null,"channel":null,"channelUrl":null,"author":"gadtfly","authorUrl":"https://news.ycombinator.com/user?id=gadtfly","authorImage":null,"authorSlug":null,"score":213,"views":null,"sharedCount":null,"likeCount":null,"sharedContent":null,"parent":{"__typename":"HnJson","localize":[{"title":"虚构的加密货币","locale":"zh"},{"title":"虛構的加密貨幣","locale":"zh-Hant"}]}},{"__typename":"SocialMediaPost","id":"HnPost-26112361","excerpt":"","slug":"/hn/26112361","title":"Ask HN: Why aren't you coding?","date":"February 13, 2021","dateISO":"2021-02-13T09:25:18.664Z","datetime":"2021-02-13 09:25","tags":["story","ASK HN","Hacker News"],"image":null,"imageAlt":null,"provider":"Hacker News","thirdPartyId":"26112361","url":"https://news.ycombinator.com/item?id=26112361","originalUrl":"https://news.ycombinator.com/item?id=26112361","imageRemote":null,"video":null,"channel":"ASK HN","channelUrl":"https://news.ycombinator.com/ask","author":"boffinism","authorUrl":"https://news.ycombinator.com/user?id=boffinism","authorImage":null,"authorSlug":null,"score":217,"views":null,"sharedCount":null,"likeCount":null,"sharedContent":null,"parent":{"__typename":"HnJson","localize":[{"title":"问HN：你为什么不打码？","locale":"zh"},{"title":"問HN：你爲什麼不打碼？","locale":"zh-Hant"}]}},{"__typename":"SocialMediaPost","id":"HnPost-26118756","excerpt":"","slug":"/hn/26118756","title":"Show HN: Search inside YouTube videos using natural language queries","date":"February 13, 2021","dateISO":"2021-02-13T08:52:50.969Z","datetime":"2021-02-13 08:52","tags":["story","Show HN","Hacker News"],"image":null,"imageAlt":null,"provider":"Hacker News","thirdPartyId":"26118756","url":"https://news.ycombinator.com/item?id=26118756","originalUrl":"https://github.com/haltakov/natural-language-youtube-search","imageRemote":"https://repository-images.githubusercontent.com/335095422/b964b080-6cbb-11eb-812b-cadbab4bae19","video":null,"channel":"Show HN","channelUrl":"https://news.ycombinator.com/show","author":"vladoh","authorUrl":"https://news.ycombinator.com/user?id=vladoh","authorImage":null,"authorSlug":null,"score":261,"views":null,"sharedCount":null,"likeCount":null,"sharedContent":null,"parent":{"__typename":"HnJson","localize":[{"title":"显示HN：使用自然语言查询在YouTube视频内搜索。","locale":"zh"},{"title":"顯示HN：使用自然語言查詢在YouTube視頻內搜索。","locale":"zh-Hant"}]}},{"__typename":"SocialMediaPost","id":"HnPost-26114281","excerpt":"","slug":"/hn/26114281","title":"AWS Babelfish: The Elephant in the PostgreSQL Room?","date":"February 13, 2021","dateISO":"2021-02-13T07:56:56.542Z","datetime":"2021-02-13 07:56","tags":["story","Hacker News"],"image":null,"imageAlt":null,"provider":"Hacker News","thirdPartyId":"26114281","url":"https://news.ycombinator.com/item?id=26114281","originalUrl":"https://postgresql.fund/blog/babelfish-the-elephant-in-the-room/","imageRemote":"https://postgresql.fund/images/logo.png","video":null,"channel":null,"channelUrl":null,"author":"ahachete","authorUrl":"https://news.ycombinator.com/user?id=ahachete","authorImage":null,"authorSlug":null,"score":196,"views":null,"sharedCount":null,"likeCount":null,"sharedContent":null,"parent":{"__typename":"HnJson","localize":[{"title":"AWS Babelfish。PostgreSQL房间里的大象？","locale":"zh"},{"title":"AWS Babelfish。PostgreSQL房間裏的大象？","locale":"zh-Hant"}]}},{"__typename":"SocialMediaPost","id":"HnPost-26118571","excerpt":"","slug":"/hn/26118571","title":"FIDO2 security key company releases hardware that's open source and uses Rust","date":"February 13, 2021","dateISO":"2021-02-13T04:13:10.971Z","datetime":"2021-02-13 04:13","tags":["story","Hacker News"],"image":null,"imageAlt":null,"provider":"Hacker News","thirdPartyId":"26118571","url":"https://news.ycombinator.com/item?id=26118571","originalUrl":"https://solokeys.com/blogs/news/our-solo-v2-campaign-launches-on-january-26th","imageRemote":"https://cdn.shopify.com/s/files/1/0196/3068/6272/articles/ezgif-2-70ed027cc5fd_1200x1200.gif?v=1611639321","video":null,"channel":null,"channelUrl":null,"author":"conorpp","authorUrl":"https://news.ycombinator.com/user?id=conorpp","authorImage":null,"authorSlug":null,"score":396,"views":null,"sharedCount":null,"likeCount":null,"sharedContent":null,"parent":{"__typename":"HnJson","localize":[{"title":"FIDO2安全密钥公司发布的硬件是开源的，使用的是Rust。","locale":"zh"},{"title":"FIDO2安全密鑰公司發佈的硬件是開源的，使用的是Rust。","locale":"zh-Hant"}]}}]}},"pageContext":{"basePath":"/","pageType":"tag","tag":"story","tagsFilter":{"id":{"glob":"!*Post-1"}},"filter":{"id":{"glob":"!*Post-1"},"tags":{"eq":"story"}},"limit":25,"skip":675,"total":2408,"totalPages":97,"currentPage":28,"maxWidth":1024,"maxHeight":512,"locale":"zh","hrefLang":"zh-Hans","originalPath":"/tags/story/page/28","dateFormat":"YYYY-MM-DD"}},"staticQueryHashes":["1239077767","2506312863","2744905544","3025052997","3493603132","3493603132","3513215887","386998304"]}