{"componentChunkName":"component---gatsby-theme-buzzing-src-gatsby-theme-timeline-templates-posts-query-js","path":"/zh-Hant/tags/reddit/page/22","result":{"data":{"site":{"siteMetadata":{"title":"Reddit 热门","description":"用中文浏览Reddit热门内容","social":[{"name":"Reddit","url":"https://www.reddit.com/","external":true,"prefetch":null},{"name":"GitHub","url":"https://github.com/gatsbyjs","external":null,"prefetch":null}],"menuLinks":[{"name":"每周精选","url":"/issues","external":null,"prefetch":null},{"name":"RSS","url":"/rss.xml","external":null,"prefetch":false}],"localize":[{"locale":"en","title":"Buzzing on Reddit","description":"See what's buzzing on Reddit in your native language","social":[{"name":"Reddit","url":"https://www.reddit.com/","external":true,"prefetch":null}],"menuLinks":[{"name":"Weekly Selection","url":"/issues","external":null,"prefetch":null},{"name":"RSS","url":"/rss.xml","external":null,"prefetch":false}]},{"locale":"zh-Hant","title":"Reddit 熱門","description":"用中文瀏覽Reddit熱門內容","social":null,"menuLinks":null}]}},"tagsGroup":{"group":[{"fieldValue":"Bitcoin","totalCount":3},{"fieldValue":"investing","totalCount":151},{"fieldValue":"reddit","totalCount":540},{"fieldValue":"stocks","totalCount":264},{"fieldValue":"tweet","totalCount":234},{"fieldValue":"wallstreetbets","totalCount":125}]},"allBlogPost":{"nodes":[{"__typename":"SocialMediaPost","id":"RedditPost-kafdnh","excerpt":"I started investing in march and have basically been following financial news\npretty religiously. One thing that really stands out to me is the sway big\nbanks/analysts have by putting out their targets. Isn't it just way too easy to\nopen a position and pump the stock, and give it a shit target if…","slug":"/reddit/r/stocks/comments/kafdnh/are_stock_analystsprice_targets_just_one_big_scam/","title":"Are stock analysts/price targets just one big scam?","date":"December 14, 2020","dateISO":"2020-12-14T11:28:18.000Z","datetime":"2020-12-14 11:28","tags":["stocks","reddit"],"image":null,"imageAlt":null,"provider":"Reddit","thirdPartyId":"kafdnh","url":"https://www.reddit.com/r/stocks/comments/kafdnh/are_stock_analystsprice_targets_just_one_big_scam/","originalUrl":"https://www.reddit.com/r/stocks/comments/kafdnh/are_stock_analystsprice_targets_just_one_big_scam/","imageRemote":null,"video":null,"channel":"stocks","channelUrl":"https://www.reddit.com/r/stocks","author":"KaitenRS","authorUrl":"https://www.reddit.com/user/KaitenRS","authorImage":null,"authorSlug":"KaitenRS","score":593,"views":null,"sharedCount":null,"likeCount":null,"sharedContent":null,"parent":{"__typename":"RedditJson","localize":[{"title":"股票分析师/目标价只是一个大骗局吗？","the_new_excerpt":"我从3月份开始投资，基本上一直在关注财经新闻。\n相当虔诚。有一件事让我印象深刻，那就是巨大的摇摆\n银行/分析师已经公布了他们的目标。是不是太简单了\n打开一个头寸，抽走股票，如果…，给它一个狗屎目标","locale":"zh"},{"title":"股票分析師/目標價只是一個大騙局嗎？","the_new_excerpt":"我從3月份開始投資，基本上一直在關注財經新聞。\n相當虔誠。有一件事讓我印象深刻，那就是巨大的搖擺\n銀行/分析師已經公佈了他們的目標。是不是太簡單了\n打開一個頭寸，抽走股票，如果…，給它一個狗屎目標","locale":"zh-Hant"}]}},{"__typename":"SocialMediaPost","id":"RedditPost-kb1ppg","excerpt":"Joined the group in April hoping to take advantage of pandemic. I’ve learned so\nmuch and had countless companies brought up that I never would’ve considered\notherwise. I now officially have 2 that I’ve doubled up on - CLSK (516%) and\nEVRI (102%) and YTD gains of 67% all thanks to this group! Only…","slug":"/reddit/r/stocks/comments/kb1ppg/thank_you_all/","title":"Thank you all!","date":"December 14, 2020","dateISO":"2020-12-14T11:28:18.000Z","datetime":"2020-12-14 11:28","tags":["stocks","reddit"],"image":null,"imageAlt":null,"provider":"Reddit","thirdPartyId":"kb1ppg","url":"https://www.reddit.com/r/stocks/comments/kb1ppg/thank_you_all/","originalUrl":"https://www.reddit.com/r/stocks/comments/kb1ppg/thank_you_all/","imageRemote":null,"video":null,"channel":"stocks","channelUrl":"https://www.reddit.com/r/stocks","author":"boss_naas","authorUrl":"https://www.reddit.com/user/boss_naas","authorImage":null,"authorSlug":"boss_naas","score":1730,"views":null,"sharedCount":null,"likeCount":null,"sharedContent":null,"parent":{"__typename":"RedditJson","localize":[{"title":"谢谢大家！","the_new_excerpt":"4月份加入了该组织，希望利用大流行的机会。我已经明白了这一点\n有无数我从未考虑过的公司\n不然的话。我现在正式有2个，我已经加倍-CLSK(516%)和\nEvri(102%)和YTD收益67%都要归功于这个团队！仅限…","locale":"zh"},{"title":"謝謝大家！","the_new_excerpt":"4月份加入了該組織，希望利用大流行的機會。我已經明白了這一點\n有無數我從未考慮過的公司\n不然的話。我現在正式有2個，我已經加倍-CLSK(516%)和\nEvri(102%)和YTD收益67%都要歸功於這個團隊！僅限…","locale":"zh-Hant"}]}},{"__typename":"SocialMediaPost","id":"RedditPost-kb3x1b","excerpt":"https://www.cnbc.com/2020/12/11/after-showing-massive-growth-disney-hikes-5-year-subscriber-goal-.html\n\nDisney hiked its five-year streaming subscriber estimates on Thursday, expecting\nDisney+ to continue to post remarkable growth.\n\nThe company now forecasts 230 million to 260 million subscribers to…","slug":"/reddit/r/stocks/comments/kb3x1b/disney_emerges_as_an_early_winner_of_streaming/","title":"Disney+ emerges as an early winner of streaming wars, expects up to 260 million subscribers by 2024","date":"December 14, 2020","dateISO":"2020-12-14T11:28:18.000Z","datetime":"2020-12-14 11:28","tags":["stocks","reddit"],"image":null,"imageAlt":null,"provider":"Reddit","thirdPartyId":"kb3x1b","url":"https://www.reddit.com/r/stocks/comments/kb3x1b/disney_emerges_as_an_early_winner_of_streaming/","originalUrl":"https://www.reddit.com/r/stocks/comments/kb3x1b/disney_emerges_as_an_early_winner_of_streaming/","imageRemote":null,"video":null,"channel":"stocks","channelUrl":"https://www.reddit.com/r/stocks","author":"coolcomfort123","authorUrl":"https://www.reddit.com/user/coolcomfort123","authorImage":null,"authorSlug":"coolcomfort123","score":321,"views":null,"sharedCount":null,"likeCount":null,"sharedContent":null,"parent":{"__typename":"RedditJson","localize":[{"title":"迪士尼+成为流媒体战争的早期赢家，预计到2024年订户将达到2.6亿","the_new_excerpt":"https://www.cnbc.com/2020/12/11/after-showing-massive-growth-disney-hikes-5-year-subscriber-goal-.html\n\n迪士尼周四上调了五年流媒体订户预期，预计\n迪士尼+将继续保持显著增长。\n\n该公司目前预计…的订阅量为2.3亿至2.6亿","locale":"zh"},{"title":"迪士尼+成爲流媒體戰爭的早期贏家，預計到2024年訂戶將達到2.6億","the_new_excerpt":"https://www.cnbc.com/2020/12/11/after-showing-massive-growth-disney-hikes-5-year-subscriber-goal-.html\n\n迪士尼週四上調了五年流媒體訂戶預期，預計\n迪士尼+將繼續保持顯著增長。\n\n該公司目前預計…的訂閱量爲2.3億至2.6億","locale":"zh-Hant"}]}},{"__typename":"SocialMediaPost","id":"RedditPost-kbbf2e","excerpt":"Literally every single IPO this week has over 100% gain right when it comes out.\n\nSo, how in the world do common folk or mid tier workers get in? Or is it just\nall the top execs and elitist keep making more and more money?\n\nI’m beyond confused, and it makes me lose faith in our market.","slug":"/reddit/r/stocks/comments/kbbf2e/the_amount_of_insider_trading_with_ipos_is/","title":"The amount of insider trading with IPOs is disgusting","date":"December 14, 2020","dateISO":"2020-12-14T11:28:18.000Z","datetime":"2020-12-14 11:28","tags":["stocks","reddit"],"image":null,"imageAlt":null,"provider":"Reddit","thirdPartyId":"kbbf2e","url":"https://www.reddit.com/r/stocks/comments/kbbf2e/the_amount_of_insider_trading_with_ipos_is/","originalUrl":"https://www.reddit.com/r/stocks/comments/kbbf2e/the_amount_of_insider_trading_with_ipos_is/","imageRemote":null,"video":null,"channel":"stocks","channelUrl":"https://www.reddit.com/r/stocks","author":"BlazeThatTieDye","authorUrl":"https://www.reddit.com/user/BlazeThatTieDye","authorImage":null,"authorSlug":"BlazeThatTieDye","score":1140,"views":null,"sharedCount":null,"likeCount":null,"sharedContent":null,"parent":{"__typename":"RedditJson","localize":[{"title":"首次公开募股的内幕交易数量令人作呕","the_new_excerpt":"从字面上看，本周的每一宗IPO在上市时都有超过100%的涨幅。\n\n那么，普通人或中层工人究竟是如何进入的呢？或者仅仅是因为\n所有的高层管理人员和精英们都在赚越来越多的钱吗？\n\n我简直不知所措，这让我对我们的市场失去了信心。","locale":"zh"},{"title":"首次公開募股的內幕交易數量令人作嘔","the_new_excerpt":"從字面上看，本週的每一宗IPO在上市時都有超過100%的漲幅。\n\n那麼，普通人或中層工人究竟是如何進入的呢？或者僅僅是因爲\n所有的高層管理人員和精英們都在賺越來越多的錢嗎？\n\n我簡直不知所措，這讓我對我們的市場失去了信心。","locale":"zh-Hant"}]}},{"__typename":"SocialMediaPost","id":"RedditPost-kbcczr","excerpt":"I posted on here a couple of weeks ago asking people’s opinion on Disney and\nApple saying I thought they could really go up. Some people said that they saw\nno way that they would reach the levels that I thought they would. I mistakenly\nlistened to internet strangers and sold all my Disney stock to…","slug":"/reddit/r/stocks/comments/kbcczr/learned_my_lesson_disney/","title":"Learned my lesson- Disney","date":"December 14, 2020","dateISO":"2020-12-14T11:28:18.000Z","datetime":"2020-12-14 11:28","tags":["stocks","reddit"],"image":null,"imageAlt":null,"provider":"Reddit","thirdPartyId":"kbcczr","url":"https://www.reddit.com/r/stocks/comments/kbcczr/learned_my_lesson_disney/","originalUrl":"https://www.reddit.com/r/stocks/comments/kbcczr/learned_my_lesson_disney/","imageRemote":null,"video":null,"channel":"stocks","channelUrl":"https://www.reddit.com/r/stocks","author":"anaccountwascreated","authorUrl":"https://www.reddit.com/user/anaccountwascreated","authorImage":null,"authorSlug":"anaccountwascreated","score":285,"views":null,"sharedCount":null,"likeCount":null,"sharedContent":null,"parent":{"__typename":"RedditJson","localize":[{"title":"吸取了我的教训-迪士尼","the_new_excerpt":"几周前我在这里发帖询问人们对迪士尼和\n苹果公司说，我认为他们真的可以上涨。一些人说他们看到\n他们不可能达到我认为的水平。我弄错了\n听了网络陌生人的话，把我所有的迪士尼股票卖给了…","locale":"zh"},{"title":"吸取了我的教訓-迪士尼","the_new_excerpt":"幾周前我在這裏發帖詢問人們對迪士尼和\n蘋果公司說，我認爲他們真的可以上漲。一些人說他們看到\n他們不可能達到我認爲的水平。我弄錯了\n聽了網絡陌生人的話，把我所有的迪士尼股票賣給了…","locale":"zh-Hant"}]}},{"__typename":"SocialMediaPost","id":"RedditPost-kbi9li","excerpt":"I’m invested deep into ARKK and ARKF and I’m interested in adding the rest to my\nportfolio but the run ups have been so wild.\n\nDoes anyone think there is a particular one that will outpace the others? ARKG\nlooks tempting but I know literally nothing about genomics","slug":"/reddit/r/stocks/comments/kbi9li/which_ark_fund_has_the_best_5_year_outlook/","title":"Which ARK fund has the best 5 year outlook?","date":"December 14, 2020","dateISO":"2020-12-14T11:28:18.000Z","datetime":"2020-12-14 11:28","tags":["stocks","reddit"],"image":null,"imageAlt":null,"provider":"Reddit","thirdPartyId":"kbi9li","url":"https://www.reddit.com/r/stocks/comments/kbi9li/which_ark_fund_has_the_best_5_year_outlook/","originalUrl":"https://www.reddit.com/r/stocks/comments/kbi9li/which_ark_fund_has_the_best_5_year_outlook/","imageRemote":null,"video":null,"channel":"stocks","channelUrl":"https://www.reddit.com/r/stocks","author":"rb1754","authorUrl":"https://www.reddit.com/user/rb1754","authorImage":null,"authorSlug":"rb1754","score":254,"views":null,"sharedCount":null,"likeCount":null,"sharedContent":null,"parent":{"__typename":"RedditJson","localize":[{"title":"哪只方舟基金的5年前景最好？","the_new_excerpt":"我对Arkk和Arkf有很深的投资，我有兴趣把睡觉加入我的\n投资组合，但涨幅如此之大。\n\n有没有人认为有一个特别的会比其他的更快？ARKG\n看起来很诱人，但我对基因组学一无所知","locale":"zh"},{"title":"哪隻方舟基金的5年前景最好？","the_new_excerpt":"我對Arkk和Arkf有很深的投資，我有興趣把睡覺加入我的\n投資組合，但漲幅如此之大。\n\n有沒有人認爲有一個特別的會比其他的更快？ARKG\n看起來很誘人，但我對基因組學一無所知","locale":"zh-Hant"}]}},{"__typename":"SocialMediaPost","id":"RedditPost-kbmqmq","excerpt":"According to an article posted on the Chinese Ministry of Commerce website on\nThursday, Wang Weidong, commercial counselor of the Chinese Embassy in Germany,\nmet with Zhang by video on December 9 to exchange views on NIO's current\nsituation and development plans.\n\nThe meeting means that NIO seems to…","slug":"/reddit/r/stocks/comments/kbmqmq/general_manager_of_nio_germany_recently_met_with/","title":"General manager of NIO Germany, recently met with a Chinese diplomat in the European country and introduced NIO's overseas development plans.","date":"December 14, 2020","dateISO":"2020-12-14T11:28:18.000Z","datetime":"2020-12-14 11:28","tags":["stocks","reddit"],"image":null,"imageAlt":null,"provider":"Reddit","thirdPartyId":"kbmqmq","url":"https://www.reddit.com/r/stocks/comments/kbmqmq/general_manager_of_nio_germany_recently_met_with/","originalUrl":"https://www.reddit.com/r/stocks/comments/kbmqmq/general_manager_of_nio_germany_recently_met_with/","imageRemote":null,"video":null,"channel":"stocks","channelUrl":"https://www.reddit.com/r/stocks","author":"tycho_bruhe","authorUrl":"https://www.reddit.com/user/tycho_bruhe","authorImage":null,"authorSlug":"tycho_bruhe","score":943,"views":null,"sharedCount":null,"likeCount":null,"sharedContent":null,"parent":{"__typename":"RedditJson","localize":[{"title":"最近，NIO德国公司总经理会见了中国驻这个欧洲国家的外交官，并介绍了NIO的海外发展计划。","the_new_excerpt":"根据中国商务部网站上发布的一篇文章，\n星期四，中国驻德国大使馆商务参赞王卫东，\n12月9日通过视频会见了张，就NIO目前的情况交换了意见\n形势和发展规划。\n\n这次会议意味着NIO对…来说似乎","locale":"zh"},{"title":"最近，NIO德國公司總經理會見了中國駐這個歐洲國家的外交官，並介紹了NIO的海外發展計劃。","the_new_excerpt":"根據中國商務部網站上發佈的一篇文章，\n星期四，中國駐德國大使館商務參贊王衛東，\n12月9日通過視頻會見了張，就NIO目前的情況交換了意見\n形勢和發展規劃。\n\n這次會議意味着NIO對…來說似乎","locale":"zh-Hant"}]}},{"__typename":"SocialMediaPost","id":"RedditPost-kboh0h","excerpt":"Hi everyone. I’m just trying to get some help understanding the macro-economic\nfactors that could lead to this seemingly impossible situation.\n\nLive Nation is one of the largest live event promoters in the world. They own\nTicketmaster and a slew of live event venues across the world. Due to…","slug":"/reddit/r/stocks/comments/kboh0h/eli5_how_can_the_price_for_live_nation_a_concert/","title":"ELI5 - How can the price for Live Nation, a concert venue and live event promoter, be at or above pre-pandemic levels when revenues are down 95%?","date":"December 14, 2020","dateISO":"2020-12-14T11:28:18.000Z","datetime":"2020-12-14 11:28","tags":["stocks","reddit"],"image":null,"imageAlt":null,"provider":"Reddit","thirdPartyId":"kboh0h","url":"https://www.reddit.com/r/stocks/comments/kboh0h/eli5_how_can_the_price_for_live_nation_a_concert/","originalUrl":"https://www.reddit.com/r/stocks/comments/kboh0h/eli5_how_can_the_price_for_live_nation_a_concert/","imageRemote":null,"video":null,"channel":"stocks","channelUrl":"https://www.reddit.com/r/stocks","author":"purple_kool_aid","authorUrl":"https://www.reddit.com/user/purple_kool_aid","authorImage":null,"authorSlug":"purple_kool_aid","score":407,"views":null,"sharedCount":null,"likeCount":null,"sharedContent":null,"parent":{"__typename":"RedditJson","localize":[{"title":"ELI5-当收入下降95%时，演唱会场地和现场活动推广者Live Nation的价格怎么可能达到或高于大流行前的水平？","the_new_excerpt":"大家好。我只是想寻求一些帮助来理解宏观经济\n可能导致这一看似不可能的情况的因素。\n\nLive Nation是世界上最大的现场活动推广者之一。他们拥有\nTicketmaster和世界各地的许多现场活动场地。由于…","locale":"zh"},{"title":"ELI5-當收入下降95%時，演唱會場地和現場活動推廣者Live Nation的價格怎麼可能達到或高於大流行前的水平？","the_new_excerpt":"大家好。我只是想尋求一些幫助來理解宏觀經濟\n可能導致這一看似不可能的情況的因素。\n\nLive Nation是世界上最大的現場活動推廣者之一。他們擁有\nTicketmaster和世界各地的許多現場活動場地。由於…","locale":"zh-Hant"}]}},{"__typename":"SocialMediaPost","id":"RedditPost-kbpinr","excerpt":"https://www.marketwatch.com/story/electric-vehicle-sales-expected-to-grow-50-in-2021-11607710053\n\nThat’s the view of analysts at Morgan Stanley, who in a note to clients on\nFriday also predicted that global EV penetration would top 4%, rising to 31% by\n2030.\n\nThe year 2021 “is shaping up to be a…","slug":"/reddit/r/stocks/comments/kbpinr/electric_vehicle_sales_expected_to_grow_50_in_2021/","title":"Electric vehicle sales expected to grow 50% in 2021","date":"December 14, 2020","dateISO":"2020-12-14T11:28:18.000Z","datetime":"2020-12-14 11:28","tags":["stocks","reddit"],"image":null,"imageAlt":null,"provider":"Reddit","thirdPartyId":"kbpinr","url":"https://www.reddit.com/r/stocks/comments/kbpinr/electric_vehicle_sales_expected_to_grow_50_in_2021/","originalUrl":"https://www.reddit.com/r/stocks/comments/kbpinr/electric_vehicle_sales_expected_to_grow_50_in_2021/","imageRemote":null,"video":null,"channel":"stocks","channelUrl":"https://www.reddit.com/r/stocks","author":"coolcomfort123","authorUrl":"https://www.reddit.com/user/coolcomfort123","authorImage":null,"authorSlug":"coolcomfort123","score":1437,"views":null,"sharedCount":null,"likeCount":null,"sharedContent":null,"parent":{"__typename":"RedditJson","localize":[{"title":"预计2021年电动汽车销量将增长50%","the_new_excerpt":"https://www.marketwatch.com/story/electric-vehicle-sales-expected-to-grow-50-in-2021-11607710053\n\n这是摩根士丹利(Morgan Stanley)分析师的观点，他们在给客户的一份报告中\n周五还预测，全球电动汽车普及率将超过4%，到2019年将上升到31%\n2030年。\n\n2021年“正在形成一个…","locale":"zh"},{"title":"預計2021年電動汽車銷量將增長50%","the_new_excerpt":"https://www.marketwatch.com/story/electric-vehicle-sales-expected-to-grow-50-in-2021-11607710053\n\n這是摩根士丹利(Morgan Stanley)分析師的觀點，他們在給客戶的一份報告中\n週五還預測，全球電動汽車普及率將超過4%，到2019年將上升到31%\n2030年。\n\n2021年“正在形成一個…","locale":"zh-Hant"}]}},{"__typename":"SocialMediaPost","id":"RedditPost-kbui6l","excerpt":"We have seen about a dozen EV companies this year to go public, but this one is\ndifferent. Most of this companies like Fisker entirely base their valuation on\nprojected revenue estimates and have not a single unit sold and driving out on\nthe streets.\n\nLightning eMotors has delivered more commercial…","slug":"/reddit/r/stocks/comments/kbui6l/new_ev_stock_gik_the_company_that_delivered_more/","title":"New EV stock $GIK - The company that delivered more commercial electric vehicles in the US than Ford and Daimler combined","date":"December 14, 2020","dateISO":"2020-12-14T11:28:18.000Z","datetime":"2020-12-14 11:28","tags":["stocks","reddit"],"image":null,"imageAlt":null,"provider":"Reddit","thirdPartyId":"kbui6l","url":"https://www.reddit.com/r/stocks/comments/kbui6l/new_ev_stock_gik_the_company_that_delivered_more/","originalUrl":"https://www.reddit.com/r/stocks/comments/kbui6l/new_ev_stock_gik_the_company_that_delivered_more/","imageRemote":null,"video":null,"channel":"stocks","channelUrl":"https://www.reddit.com/r/stocks","author":"spacpro","authorUrl":"https://www.reddit.com/user/spacpro","authorImage":null,"authorSlug":"spacpro","score":569,"views":null,"sharedCount":null,"likeCount":null,"sharedContent":null,"parent":{"__typename":"RedditJson","localize":[{"title":"新电动汽车股票$GIK-在美国交付的商用电动汽车比福特和戴姆勒加起来还多","the_new_excerpt":"我们今年已经看到大约12家电动汽车公司上市，但这一家是\n不一样的。像Fisker这样的大多数公司的估值完全基于\n预计收入估计，并且没有一个单位售出和驱赶出去\n街道上。\n\nLightning eMotors提供了更多商业…","locale":"zh"},{"title":"新電動汽車股票$GIK-在美國交付的商用電動汽車比福特和戴姆勒加起來還多","the_new_excerpt":"我們今年已經看到大約12家電動汽車公司上市，但這一家是\n不一樣的。像Fisker這樣的大多數公司的估值完全基於\n預計收入估計，並且沒有一個單位售出和驅趕出去\n街道上。\n\nLightning eMotors提供了更多商業…","locale":"zh-Hant"}]}},{"__typename":"SocialMediaPost","id":"RedditPost-kc5sq5","excerpt":"Subject: S/X Holiday Shutdown\n\nHi Team,\n\nThe SX lines will be shut down for the holidays starting Dec. 24th and returning\nJan. 11th.\n\nWe would like you to take the opportunity to refresh or spend time with your\nfamily, so Tesla will be giving you a full week pay for the week of Jan. 4th.\nThere will…","slug":"/reddit/r/stocks/comments/kc5sq5/tesla_tells_employees_model_s_and_x_production/","title":"Tesla tells employees Model S and X production will shut down for 18 days","date":"December 14, 2020","dateISO":"2020-12-14T11:28:18.000Z","datetime":"2020-12-14 11:28","tags":["stocks","reddit"],"image":null,"imageAlt":null,"provider":"Reddit","thirdPartyId":"kc5sq5","url":"https://www.reddit.com/r/stocks/comments/kc5sq5/tesla_tells_employees_model_s_and_x_production/","originalUrl":"https://www.reddit.com/r/stocks/comments/kc5sq5/tesla_tells_employees_model_s_and_x_production/","imageRemote":null,"video":null,"channel":"stocks","channelUrl":"https://www.reddit.com/r/stocks","author":"Sf766","authorUrl":"https://www.reddit.com/user/Sf766","authorImage":null,"authorSlug":"Sf766","score":1805,"views":null,"sharedCount":null,"likeCount":null,"sharedContent":null,"parent":{"__typename":"RedditJson","localize":[{"title":"特斯拉告诉员工，Model S和X的生产将停产18天","the_new_excerpt":"主题：S/X假日关闭\n\n嗨，队员们，\n\nSX线路将在12月24日开始和返回的假期期间关闭\n1月11日。\n\n我们希望您借此机会更新或花时间与您的\n所以特斯拉将在1月4日的那一周给你整整一周的工资。\n会有…的","locale":"zh"},{"title":"特斯拉告訴員工，Model S和X的生產將停產18天","the_new_excerpt":"主題：S/X假日關閉\n\n嗨，隊員們，\n\nSX線路將在12月24日開始和返回的假期期間關閉\n1月11日。\n\n我們希望您藉此機會更新或花時間與您的\n所以特斯拉將在1月4日的那一週給你整整一週的工資。\n會有…的","locale":"zh-Hant"}]}},{"__typename":"SocialMediaPost","id":"RedditPost-kcekg0","excerpt":"Great news for whoever's long on the psilocybin and psychedelics boom.\n\nhttps://www.cbc.ca/news/canada/london/some-doctors-therapists-get-health-canada-permission-to-use-magic-mushrooms-1.5834485\n\nMMED to the moon baby","slug":"/reddit/r/stocks/comments/kcekg0/health_canada_gives_permission_to_some_doctors/","title":"Health Canada gives permission to some doctors, therapists to use magic mushrooms","date":"December 14, 2020","dateISO":"2020-12-14T11:28:18.000Z","datetime":"2020-12-14 11:28","tags":["stocks","reddit"],"image":null,"imageAlt":null,"provider":"Reddit","thirdPartyId":"kcekg0","url":"https://www.reddit.com/r/stocks/comments/kcekg0/health_canada_gives_permission_to_some_doctors/","originalUrl":"https://www.reddit.com/r/stocks/comments/kcekg0/health_canada_gives_permission_to_some_doctors/","imageRemote":null,"video":null,"channel":"stocks","channelUrl":"https://www.reddit.com/r/stocks","author":"jyeatbvg","authorUrl":"https://www.reddit.com/user/jyeatbvg","authorImage":null,"authorSlug":"jyeatbvg","score":1815,"views":null,"sharedCount":null,"likeCount":null,"sharedContent":null,"parent":{"__typename":"RedditJson","localize":[{"title":"加拿大卫生部允许一些医生和治疗师使用神奇蘑菇","the_new_excerpt":"对热衷于裸盖菇素和迷幻剂的人来说这是个好消息。\n\nhttps://www.cbc.ca/news/canada/london/some-doctors-therapists-get-health-canada-permission-to-use-magic-mushrooms-1.5834485\n\nMMED登月宝贝","locale":"zh"},{"title":"加拿大衛生部允許一些醫生和治療師使用神奇蘑菇","the_new_excerpt":"對熱衷於裸蓋菇素和迷幻劑的人來說這是個好消息。\n\nhttps://www.cbc.ca/news/canada/london/some-doctors-therapists-get-health-canada-permission-to-use-magic-mushrooms-1.5834485\n\nMMED登月寶貝","locale":"zh-Hant"}]}},{"__typename":"SocialMediaPost","id":"RedditPost-k8j66f","excerpt":"Palantir won a 3 year, $44M contract to help the FDA.\n\nThis is great news for the company since it reaffirms their software\ncapabilities in the healthcare sector. They currently work with Merck KGaA and I\nsuspect more healthcare companies will become customers with Palantir over the\nnext year or…","slug":"/reddit/r/stocks/comments/k8j66f/pltr_wins_fda_contract/","title":"$PLTR wins FDA Contract","date":"December 14, 2020","dateISO":"2020-12-14T11:28:17.000Z","datetime":"2020-12-14 11:28","tags":["stocks","reddit"],"image":null,"imageAlt":null,"provider":"Reddit","thirdPartyId":"k8j66f","url":"https://www.reddit.com/r/stocks/comments/k8j66f/pltr_wins_fda_contract/","originalUrl":"https://www.reddit.com/r/stocks/comments/k8j66f/pltr_wins_fda_contract/","imageRemote":null,"video":null,"channel":"stocks","channelUrl":"https://www.reddit.com/r/stocks","author":"infinity884422","authorUrl":"https://www.reddit.com/user/infinity884422","authorImage":null,"authorSlug":"infinity884422","score":1782,"views":null,"sharedCount":null,"likeCount":null,"sharedContent":null,"parent":{"__typename":"RedditJson","localize":[{"title":"$PLTR赢得FDA合同","the_new_excerpt":"Palantir赢得了一份为期3年、价值4400万美元的合同，帮助FDA。\n\n这对公司来说是个好消息，因为它重申了他们的软件\n医疗保健部门的能力。他们目前与默克KGaA和我合作\n怀疑会有更多的医疗保健公司成为Palantir的客户\n明年或…","locale":"zh"},{"title":"$PLTR贏得FDA合同","the_new_excerpt":"Palantir贏得了一份爲期3年、價值4400萬美元的合同，幫助FDA。\n\n這對公司來說是個好消息，因爲它重申了他們的軟件\n醫療保健部門的能力。他們目前與默克KGaA和我合作\n懷疑會有更多的醫療保健公司成爲Palantir的客戶\n明年或…","locale":"zh-Hant"}]}},{"__typename":"SocialMediaPost","id":"RedditPost-k9sfem","excerpt":"https://www.thestreet.com/investing/tesla-trading-at-650-gets-90-price-target-from-jp-morgan\n\n\n\n> JPMorgan analyst Ryan Brinkman has told clients not to increase their holdings\n> in Tesla to approximate its weight in the S&P 500 ahead of its inclusion to\n> the benchmark on December 21.","slug":"/reddit/r/stocks/comments/k9sfem/tesla_trading_at_650_gets_90_price_target_from/","title":"Tesla, Trading at $650, Gets $90 Price Target From JPMorgan","date":"December 14, 2020","dateISO":"2020-12-14T11:28:17.000Z","datetime":"2020-12-14 11:28","tags":["stocks","reddit"],"image":null,"imageAlt":null,"provider":"Reddit","thirdPartyId":"k9sfem","url":"https://www.reddit.com/r/stocks/comments/k9sfem/tesla_trading_at_650_gets_90_price_target_from/","originalUrl":"https://www.reddit.com/r/stocks/comments/k9sfem/tesla_trading_at_650_gets_90_price_target_from/","imageRemote":null,"video":null,"channel":"stocks","channelUrl":"https://www.reddit.com/r/stocks","author":"thatshopifyguy","authorUrl":"https://www.reddit.com/user/thatshopifyguy","authorImage":null,"authorSlug":"thatshopifyguy","score":2280,"views":null,"sharedCount":null,"likeCount":null,"sharedContent":null,"parent":{"__typename":"RedditJson","localize":[{"title":"特斯拉，交易价格650美元，从摩根大通获得90美元的目标价","the_new_excerpt":"https://www.thestreet.com/investing/tesla-trading-at-650-gets-90-price-target-from-jp-morgan\n\n\n\n>摩根大通分析师Ryan Brinkman告诉客户不要增持\n>在特斯拉，以接近其在标准普尔500指数中的权重，然后将其纳入\n>12月21日的基准。","locale":"zh"},{"title":"特斯拉，交易價格650美元，從摩根大通獲得90美元的目標價","the_new_excerpt":"https://www.thestreet.com/investing/tesla-trading-at-650-gets-90-price-target-from-jp-morgan\n\n\n\n>摩根大通分析師Ryan Brinkman告訴客戶不要增持\n>在特斯拉，以接近其在標準普爾500指數中的權重，然後將其納入\n>12月21日的基準。","locale":"zh-Hant"}]}},{"__typename":"SocialMediaPost","id":"RedditPost-kagdre","excerpt":"You're a complete and utter fool. Let's take a look at the issues:\n\n1) No moat at all. Sure they have 50% market share but there are competitors.\nThey're a delivery service - anyone can do what they do. Not only does this pose\na risk to market share, but it poses a huge risk to the already thin…","slug":"/reddit/r/stocks/comments/kagdre/if_you_bought_doordash_at_180/","title":"If you bought DoorDash at $180...","date":"December 14, 2020","dateISO":"2020-12-14T11:28:17.000Z","datetime":"2020-12-14 11:28","tags":["stocks","reddit"],"image":null,"imageAlt":null,"provider":"Reddit","thirdPartyId":"kagdre","url":"https://www.reddit.com/r/stocks/comments/kagdre/if_you_bought_doordash_at_180/","originalUrl":"https://www.reddit.com/r/stocks/comments/kagdre/if_you_bought_doordash_at_180/","imageRemote":null,"video":null,"channel":"stocks","channelUrl":"https://www.reddit.com/r/stocks","author":"SirGasleak","authorUrl":"https://www.reddit.com/user/SirGasleak","authorImage":null,"authorSlug":"SirGasleak","score":4034,"views":null,"sharedCount":null,"likeCount":null,"sharedContent":null,"parent":{"__typename":"RedditJson","localize":[{"title":"如果你花180美元买了DoorDash.","the_new_excerpt":"你是个彻头彻尾的傻瓜。让我们来看看这些问题：\n\n1)没有护城河。当然，他们有50%的市场份额，但也有竞争对手。\n他们是送货服务-任何人都可以做他们做的事情。这个姿势不仅是\n这是对市场份额的风险，但对已经很薄的…构成了巨大的风险","locale":"zh"},{"title":"如果你花180美元買了DoorDash.","the_new_excerpt":"你是個徹頭徹尾的傻瓜。讓我們來看看這些問題：\n\n1)沒有護城河。當然，他們有50%的市場份額，但也有競爭對手。\n他們是送貨服務-任何人都可以做他們做的事情。這個姿勢不僅是\n這是對市場份額的風險，但對已經很薄的…構成了巨大的風險","locale":"zh-Hant"}]}}]}},"pageContext":{"basePath":"/","pageType":"tag","tag":"reddit","tagsFilter":{"id":{"glob":"!*Post-1"}},"filter":{"id":{"glob":"!*Post-1"},"tags":{"eq":"reddit"}},"limit":25,"skip":525,"total":540,"totalPages":22,"currentPage":22,"maxWidth":1024,"maxHeight":512,"locale":"zh-Hant","hrefLang":"zh-Hant","originalPath":"/tags/reddit/page/22","dateFormat":"YYYY-MM-DD"}},"staticQueryHashes":["1239077767","2506312863","2744905544","3493603132","3493603132","386998304","4203388852"]}