{"componentChunkName":"component---gatsby-theme-buzzing-src-gatsby-theme-timeline-templates-posts-query-js","path":"/zh-Hant/tags/story/page/13","result":{"data":{"site":{"siteMetadata":{"title":"Reddit 热门","description":"用中文浏览Reddit热门内容","social":[{"name":"Twitter","url":"https://twitter.com/gatsbyjs","external":null,"prefetch":null},{"name":"GitHub","url":"https://github.com/gatsbyjs","external":null,"prefetch":null}],"menuLinks":[],"localize":[{"locale":"en","title":"Buzzing on Reddit","description":"See what's buzzing on Reddit in your native language","social":[{"name":"Reddit","url":"https://www.reddit.com/","external":true,"prefetch":null}],"menuLinks":[{"name":"Weekly Selection","url":"/issues","external":null,"prefetch":null},{"name":"RSS","url":"/rss.xml","external":null,"prefetch":false}]},{"locale":"zh-Hant","title":"Reddit 熱門","description":"用中文瀏覽Reddit熱門內容","social":null,"menuLinks":null}]}},"tagsGroup":{"group":[{"fieldValue":"ASK HN","totalCount":44},{"fieldValue":"Bitcoin","totalCount":4},{"fieldValue":"Hacker News","totalCount":2600},{"fieldValue":"Poll","totalCount":1},{"fieldValue":"SaveAMC","totalCount":1},{"fieldValue":"Show HN","totalCount":89},{"fieldValue":"bitcoin","totalCount":3},{"fieldValue":"investing","totalCount":797},{"fieldValue":"poll","totalCount":1},{"fieldValue":"reddit","totalCount":4938},{"fieldValue":"science","totalCount":1},{"fieldValue":"stocks","totalCount":1592},{"fieldValue":"story","totalCount":2599},{"fieldValue":"tweet","totalCount":814},{"fieldValue":"wallstreetbets","totalCount":2549}]},"allBlogPost":{"nodes":[{"__typename":"SocialMediaPost","id":"HnPost-26377535","excerpt":"","slug":"/hn/26377535","title":"I Bought a Business for $0","date":"March 07, 2021","dateISO":"2021-03-07T22:50:21.341Z","datetime":"2021-03-07 22:50","tags":["story","Hacker News"],"image":null,"imageAlt":null,"provider":"Hacker News","thirdPartyId":"26377535","url":"https://news.ycombinator.com/item?id=26377535","originalUrl":"https://every.to/superorganizers/how-i-bought-a-business-for-0","imageRemote":"https://d24ovhgu8s7341.cloudfront.net/uploads/post/cover/1530/newsprint_markus-spiske-QOuHmf0_qqk-unsplash.jpg","video":null,"channel":null,"channelUrl":null,"author":"catchmeifyoucan","authorUrl":"https://news.ycombinator.com/user?id=catchmeifyoucan","authorImage":null,"authorSlug":null,"score":280,"views":null,"sharedCount":null,"likeCount":null,"sharedContent":null,"parent":{"__typename":"HnJson","localize":[{"title":"我用0元买了一个生意","locale":"zh"},{"title":"我用0元買了一個生意","locale":"zh-Hant"}]}},{"__typename":"SocialMediaPost","id":"HnPost-26376388","excerpt":"","slug":"/hn/26376388","title":"We may soon have city-spanning 900 MHz mesh networks","date":"March 07, 2021","dateISO":"2021-03-07T22:32:01.928Z","datetime":"2021-03-07 22:32","tags":["story","Hacker News"],"image":null,"imageAlt":null,"provider":"Hacker News","thirdPartyId":"26376388","url":"https://news.ycombinator.com/item?id=26376388","originalUrl":"https://cheapskatesguide.org/articles/900mhz-mesh.html","imageRemote":null,"video":null,"channel":null,"channelUrl":null,"author":"RiderOfGiraffes","authorUrl":"https://news.ycombinator.com/user?id=RiderOfGiraffes","authorImage":null,"authorSlug":null,"score":296,"views":null,"sharedCount":null,"likeCount":null,"sharedContent":null,"parent":{"__typename":"HnJson","localize":[{"title":"我们可能很快就会拥有跨越城市的900兆赫网状网络。","locale":"zh"},{"title":"我們可能很快就會擁有跨越城市的900兆赫網狀網絡。","locale":"zh-Hant"}]}},{"__typename":"SocialMediaPost","id":"HnPost-26371034","excerpt":"","slug":"/hn/26371034","title":"YouTuber Builds Working 3D-Printed Turbojet Engine and Tests It in His Attic","date":"March 07, 2021","dateISO":"2021-03-07T21:35:22.289Z","datetime":"2021-03-07 21:35","tags":["story","Hacker News"],"image":null,"imageAlt":null,"provider":"Hacker News","thirdPartyId":"26371034","url":"https://news.ycombinator.com/item?id=26371034","originalUrl":"https://www.thedrive.com/news/39624/youtuber-builds-working-3d-printed-turbojet-engine-and-tests-it-in-his-attic","imageRemote":"https://api.thedrive.com/wp-content/uploads/2021/03/homeade-turbojet-lead.jpg?quality=85","video":null,"channel":null,"channelUrl":null,"author":"clouddrover","authorUrl":"https://news.ycombinator.com/user?id=clouddrover","authorImage":null,"authorSlug":null,"score":170,"views":null,"sharedCount":null,"likeCount":null,"sharedContent":null,"parent":{"__typename":"HnJson","localize":[{"title":"YouTuber制作了可以使用的3D打印涡轮喷气发动机，并在他的阁楼上进行测试。","locale":"zh"},{"title":"YouTuber製作了可以使用的3D打印渦輪噴氣發動機，並在他的閣樓上進行測試。","locale":"zh-Hant"}]}},{"__typename":"SocialMediaPost","id":"HnPost-26376536","excerpt":"","slug":"/hn/26376536","title":"US Pipeline Caused Biggest Spill in Decades, We’re Just Hearing About It","date":"March 07, 2021","dateISO":"2021-03-07T21:35:22.289Z","datetime":"2021-03-07 21:35","tags":["story","Hacker News"],"image":null,"imageAlt":null,"provider":"Hacker News","thirdPartyId":"26376536","url":"https://news.ycombinator.com/item?id=26376536","originalUrl":"https://earther.gizmodo.com/one-of-the-nation-s-largest-pipelines-caused-the-bigges-1846406684","imageRemote":"https://i.kinja-img.com/gawker-media/image/upload/c_fill,f_auto,fl_progressive,g_center,h_675,pg_1,q_80,w_1200/ehv8ot9ssxb3wbv3dacu.jpg","video":null,"channel":null,"channelUrl":null,"author":"shalmanese","authorUrl":"https://news.ycombinator.com/user?id=shalmanese","authorImage":null,"authorSlug":null,"score":214,"views":null,"sharedCount":null,"likeCount":null,"sharedContent":null,"parent":{"__typename":"HnJson","localize":[{"title":"美国输油管造成数十年来最大的漏油事故，我们只是听说而已。","locale":"zh"},{"title":"美國輸油管造成數十年來最大的漏油事故，我們只是聽說而已。","locale":"zh-Hant"}]}},{"__typename":"SocialMediaPost","id":"HnPost-26376376","excerpt":"","slug":"/hn/26376376","title":"Raspberry Pi for Kill Mosquitoes by Laser","date":"March 07, 2021","dateISO":"2021-03-07T20:46:55.368Z","datetime":"2021-03-07 20:46","tags":["story","Hacker News"],"image":null,"imageAlt":null,"provider":"Hacker News","thirdPartyId":"26376376","url":"https://news.ycombinator.com/item?id=26376376","originalUrl":"https://www.preprints.org/manuscript/202101.0412/v1","imageRemote":"https://www.preprints.org/statics/img/OGP_logo.png?f931be1b8d176d3a","video":null,"channel":null,"channelUrl":null,"author":"ColinWright","authorUrl":"https://news.ycombinator.com/user?id=ColinWright","authorImage":null,"authorSlug":null,"score":342,"views":null,"sharedCount":null,"likeCount":null,"sharedContent":null,"parent":{"__typename":"HnJson","localize":[{"title":"镭射杀蚊子的树莓皮 (Raspberry Pi)","locale":"zh"},{"title":"鐳射殺蚊子的樹莓皮 (Raspberry Pi)","locale":"zh-Hant"}]}},{"__typename":"SocialMediaPost","id":"HnPost-26376549","excerpt":"","slug":"/hn/26376549","title":"FAA safety engineer goes public to slam agency’s oversight of Boeing’s 737 Max","date":"March 07, 2021","dateISO":"2021-03-07T20:22:33.339Z","datetime":"2021-03-07 20:22","tags":["story","Hacker News"],"image":null,"imageAlt":null,"provider":"Hacker News","thirdPartyId":"26376549","url":"https://news.ycombinator.com/item?id=26376549","originalUrl":"https://www.seattletimes.com/business/boeing-aerospace/faa-safety-engineer-goes-public-to-slam-the-agencys-oversight-of-boeings-737-max/","imageRemote":"https://static.seattletimes.com/wp-content/uploads/2021/03/03012021_TZR_tzr_195832-375x241.jpg","video":null,"channel":null,"channelUrl":null,"author":"lukewrites","authorUrl":"https://news.ycombinator.com/user?id=lukewrites","authorImage":null,"authorSlug":null,"score":244,"views":null,"sharedCount":null,"likeCount":null,"sharedContent":null,"parent":{"__typename":"HnJson","localize":[{"title":"FAA安全工程师公开抨击机构对波音737 Max的监督","locale":"zh"},{"title":"FAA安全工程師公開抨擊機構對波音737 Max的監督","locale":"zh-Hant"}]}},{"__typename":"SocialMediaPost","id":"HnPost-26373543","excerpt":"","slug":"/hn/26373543","title":"Divorce rate cut in half for couples who discussed relationship movies (2014)","date":"March 07, 2021","dateISO":"2021-03-07T19:57:39.018Z","datetime":"2021-03-07 19:57","tags":["story","Hacker News"],"image":null,"imageAlt":null,"provider":"Hacker News","thirdPartyId":"26373543","url":"https://news.ycombinator.com/item?id=26373543","originalUrl":"https://www.rochester.edu/news/divorce-rate-cut-in-half-for-couples-who-discussed-relationship-movies/","imageRemote":"https://www.rochester.edu/templatefiles/rwd/img/UR-header-logo.png","video":null,"channel":null,"channelUrl":null,"author":"mleonhard","authorUrl":"https://news.ycombinator.com/user?id=mleonhard","authorImage":null,"authorSlug":null,"score":172,"views":null,"sharedCount":null,"likeCount":null,"sharedContent":null,"parent":{"__typename":"HnJson","localize":[{"title":"讨论恋爱电影的夫妻离婚率减半(2014)","locale":"zh"},{"title":"討論戀愛電影的夫妻離婚率減半(2014)","locale":"zh-Hant"}]}},{"__typename":"SocialMediaPost","id":"HnPost-26376421","excerpt":"","slug":"/hn/26376421","title":"Someone Is Hacking the Hackers","date":"March 07, 2021","dateISO":"2021-03-07T19:57:39.018Z","datetime":"2021-03-07 19:57","tags":["story","Hacker News"],"image":null,"imageAlt":null,"provider":"Hacker News","thirdPartyId":"26376421","url":"https://news.ycombinator.com/item?id=26376421","originalUrl":"https://gizmodo.com/someone-is-hacking-the-hackers-1846406428","imageRemote":"https://i.kinja-img.com/gawker-media/image/upload/c_fill,f_auto,fl_progressive,g_center,h_675,pg_1,q_80,w_1200/hl6dabhnf9kt1x7ry1bx.jpg","video":null,"channel":null,"channelUrl":null,"author":"fortran77","authorUrl":"https://news.ycombinator.com/user?id=fortran77","authorImage":null,"authorSlug":null,"score":295,"views":null,"sharedCount":null,"likeCount":null,"sharedContent":null,"parent":{"__typename":"HnJson","localize":[{"title":"有人在入侵黑客","locale":"zh"},{"title":"有人在入侵黑客","locale":"zh-Hant"}]}},{"__typename":"SocialMediaPost","id":"HnPost-26373364","excerpt":"","slug":"/hn/26373364","title":"ISO Standard for Preparing Tea","date":"March 07, 2021","dateISO":"2021-03-07T19:36:29.663Z","datetime":"2021-03-07 19:36","tags":["story","Hacker News"],"image":null,"imageAlt":null,"provider":"Hacker News","thirdPartyId":"26373364","url":"https://news.ycombinator.com/item?id=26373364","originalUrl":"https://en.wikipedia.org/wiki/ISO_3103","imageRemote":"https://upload.wikimedia.org/wikipedia/commons/thumb/f/fb/Tea_bowl%2C_Meissen_Factory%2C_Germany%2C_c._1730%2C_hard-paste_porcelain_-_Montreal_Museum_of_Fine_Arts_-_Montreal%2C_Canada_-_DSC09242.jpg/220px-Tea_bowl%2C_Meissen_Factory%2C_Germany%2C_c._1730%2C_hard-paste_porcelain_-_Montreal_Museum_of_Fine_Arts_-_Montreal%2C_Canada_-_DSC09242.jpg","video":null,"channel":null,"channelUrl":null,"author":"polm23","authorUrl":"https://news.ycombinator.com/user?id=polm23","authorImage":null,"authorSlug":null,"score":175,"views":null,"sharedCount":null,"likeCount":null,"sharedContent":null,"parent":{"__typename":"HnJson","localize":[{"title":"国际标准化组织的茶叶制备标准","locale":"zh"},{"title":"國際標準化組織的茶葉製備標準","locale":"zh-Hant"}]}},{"__typename":"SocialMediaPost","id":"HnPost-26377906","excerpt":"","slug":"/hn/26377906","title":"Switzerland votes against electronic ID system provided by private companies","date":"March 07, 2021","dateISO":"2021-03-07T19:13:30.999Z","datetime":"2021-03-07 19:13","tags":["story","Hacker News"],"image":null,"imageAlt":null,"provider":"Hacker News","thirdPartyId":"26377906","url":"https://news.ycombinator.com/item?id=26377906","originalUrl":"https://www.swissinfo.ch/eng/digital-identity-scheme-faces-scepticism-around-data-privacy/46399636","imageRemote":"https://www.swissinfo.ch/resource/image/46427574/landscape_ratio16x9/1920/1080/b74f88a420a45da6e70f51276354645a/2D058948D2F593EF8EC9BDB9DDA6D150/438881215_highres.jpg","video":null,"channel":null,"channelUrl":null,"author":"bontoJR","authorUrl":"https://news.ycombinator.com/user?id=bontoJR","authorImage":null,"authorSlug":null,"score":618,"views":null,"sharedCount":null,"likeCount":null,"sharedContent":null,"parent":{"__typename":"HnJson","localize":[{"title":"瑞士投票反对私营公司提供的电子身份证系统。","locale":"zh"},{"title":"瑞士投票反對私營公司提供的電子身份證系統。","locale":"zh-Hant"}]}},{"__typename":"SocialMediaPost","id":"HnPost-26376441","excerpt":"","slug":"/hn/26376441","title":"Donate Unrestricted","date":"March 07, 2021","dateISO":"2021-03-07T18:39:13.087Z","datetime":"2021-03-07 18:39","tags":["story","Hacker News"],"image":null,"imageAlt":null,"provider":"Hacker News","thirdPartyId":"26376441","url":"https://news.ycombinator.com/item?id=26376441","originalUrl":"http://paulgraham.com/donate.html","imageRemote":"https://s.yimg.com/aah/paulgraham/quotes-1.gif","video":null,"channel":null,"channelUrl":null,"author":"razin","authorUrl":"https://news.ycombinator.com/user?id=razin","authorImage":null,"authorSlug":null,"score":288,"views":null,"sharedCount":null,"likeCount":null,"sharedContent":null,"parent":{"__typename":"HnJson","localize":[{"title":"捐赠不受限制","locale":"zh"},{"title":"捐贈不受限制","locale":"zh-Hant"}]}},{"__typename":"SocialMediaPost","id":"HnPost-26374268","excerpt":"","slug":"/hn/26374268","title":"I rewrote my Rust keyboard firmware in Zig: consistency, mastery, and fun","date":"March 07, 2021","dateISO":"2021-03-07T11:40:54.051Z","datetime":"2021-03-07 11:40","tags":["story","Hacker News"],"image":null,"imageAlt":null,"provider":"Hacker News","thirdPartyId":"26374268","url":"https://news.ycombinator.com/item?id=26374268","originalUrl":"https://kevinlynagh.com/rust-zig/","imageRemote":"https://kevinlynagh.com/rust-zig/typical_keyboards.jpg","video":null,"channel":null,"channelUrl":null,"author":"iansinnott","authorUrl":"https://news.ycombinator.com/user?id=iansinnott","authorImage":null,"authorSlug":null,"score":742,"views":null,"sharedCount":null,"likeCount":null,"sharedContent":null,"parent":{"__typename":"HnJson","localize":[{"title":"我用Zig重写了我的Rust键盘固件：一致性、掌握性和趣味性。","locale":"zh"},{"title":"我用Zig重寫了我的Rust鍵盤固件：一致性、掌握性和趣味性。","locale":"zh-Hant"}]}},{"__typename":"SocialMediaPost","id":"HnPost-26362492","excerpt":"","slug":"/hn/26362492","title":"Why is electricity so hard to understand? (1989)","date":"March 07, 2021","dateISO":"2021-03-07T09:18:57.726Z","datetime":"2021-03-07 09:18","tags":["story","Hacker News"],"image":null,"imageAlt":null,"provider":"Hacker News","thirdPartyId":"26362492","url":"https://news.ycombinator.com/item?id=26362492","originalUrl":"http://amasci.com/miscon/whyhard2.html","imageRemote":"http://amasci.com/graphics/abc.gif","video":null,"channel":null,"channelUrl":null,"author":"Tomte","authorUrl":"https://news.ycombinator.com/user?id=Tomte","authorImage":null,"authorSlug":null,"score":168,"views":null,"sharedCount":null,"likeCount":null,"sharedContent":null,"parent":{"__typename":"HnJson","localize":[{"title":"为什么电这么难懂？(1989)","locale":"zh"},{"title":"爲什麼電這麼難懂？(1989)","locale":"zh-Hant"}]}},{"__typename":"SocialMediaPost","id":"HnPost-26369138","excerpt":"","slug":"/hn/26369138","title":"Chinese hacking spree hit an ‘astronomical’ number of victims","date":"March 07, 2021","dateISO":"2021-03-07T06:35:44.339Z","datetime":"2021-03-07 06:35","tags":["story","Hacker News"],"image":null,"imageAlt":null,"provider":"Hacker News","thirdPartyId":"26369138","url":"https://news.ycombinator.com/item?id=26369138","originalUrl":"https://www.wired.com/story/china-microsoft-exchange-server-hack-victims/","imageRemote":"https://media.wired.com/photos/6042ceb9dc2eb5608fca5953/191:100/w_1280,c_limit/Sec_microsoft_1230784785.jpg","video":null,"channel":null,"channelUrl":null,"author":"ombirsharma","authorUrl":"https://news.ycombinator.com/user?id=ombirsharma","authorImage":null,"authorSlug":null,"score":175,"views":null,"sharedCount":null,"likeCount":null,"sharedContent":null,"parent":{"__typename":"HnJson","localize":[{"title":"中国黑客狂潮袭来 受害者数量成 \"天文数字","locale":"zh"},{"title":"中國黑客狂潮襲來 受害者數量成 \"天文數字","locale":"zh-Hant"}]}},{"__typename":"SocialMediaPost","id":"HnPost-26373108","excerpt":"","slug":"/hn/26373108","title":"NFTs Are a Dangerous Trap","date":"March 07, 2021","dateISO":"2021-03-07T06:35:44.339Z","datetime":"2021-03-07 06:35","tags":["story","Hacker News"],"image":null,"imageAlt":null,"provider":"Hacker News","thirdPartyId":"26373108","url":"https://news.ycombinator.com/item?id=26373108","originalUrl":"https://seths.blog/2021/03/nfts-are-a-dangerous-trap/","imageRemote":"https://149521506.v2.pressablecdn.com/wp-content/uploads/2018/06/seth_godin_ogimages_v02_1806136-1.jpg","video":null,"channel":null,"channelUrl":null,"author":"josephscott","authorUrl":"https://news.ycombinator.com/user?id=josephscott","authorImage":null,"authorSlug":null,"score":770,"views":null,"sharedCount":null,"likeCount":null,"sharedContent":null,"parent":{"__typename":"HnJson","localize":[{"title":"非保税区是一个危险的陷阱","locale":"zh"},{"title":"非保稅區是一個危險的陷阱","locale":"zh-Hant"}]}},{"__typename":"SocialMediaPost","id":"HnPost-26371848","excerpt":"","slug":"/hn/26371848","title":"Procrastination is flight, deadline is fight, freeze is staring at the screen","date":"March 07, 2021","dateISO":"2021-03-07T06:11:59.123Z","datetime":"2021-03-07 06:11","tags":["story","Hacker News"],"image":null,"imageAlt":null,"provider":"Hacker News","thirdPartyId":"26371848","url":"https://news.ycombinator.com/item?id=26371848","originalUrl":"https://pmigdal.medium.com/dont-fight-flight-or-freeze-your-body-and-emotions-96f5aa30b299","imageRemote":"https://miro.medium.com/max/1200/1*p3tJuyV5ZTLYBJ7dNNqmbA.jpeg","video":null,"channel":null,"channelUrl":null,"author":"stared","authorUrl":"https://news.ycombinator.com/user?id=stared","authorImage":null,"authorSlug":null,"score":459,"views":null,"sharedCount":null,"likeCount":null,"sharedContent":null,"parent":{"__typename":"HnJson","localize":[{"title":"拖延是逃，限期是打，冻结是盯着屏幕看","locale":"zh"},{"title":"拖延是逃，限期是打，凍結是盯着屏幕看","locale":"zh-Hant"}]}},{"__typename":"SocialMediaPost","id":"HnPost-26371818","excerpt":"","slug":"/hn/26371818","title":"Nodes.io – a new way to create with code","date":"March 07, 2021","dateISO":"2021-03-07T05:25:18.941Z","datetime":"2021-03-07 05:25","tags":["story","Hacker News"],"image":null,"imageAlt":null,"provider":"Hacker News","thirdPartyId":"26371818","url":"https://news.ycombinator.com/item?id=26371818","originalUrl":"https://nodes.io/","imageRemote":"https://nodes.io/static/share.jpg","video":null,"channel":null,"channelUrl":null,"author":"triptych","authorUrl":"https://news.ycombinator.com/user?id=triptych","authorImage":null,"authorSlug":null,"score":360,"views":null,"sharedCount":null,"likeCount":null,"sharedContent":null,"parent":{"__typename":"HnJson","localize":[{"title":"Nodes.io - 一种用代码创建的新方式。","locale":"zh"},{"title":"Nodes.io - 一種用代碼創建的新方式。","locale":"zh-Hant"}]}},{"__typename":"SocialMediaPost","id":"HnPost-26368786","excerpt":"","slug":"/hn/26368786","title":"The bizarre beasts living in Romania's poison cave (2015)","date":"March 07, 2021","dateISO":"2021-03-07T03:53:54.750Z","datetime":"2021-03-07 03:53","tags":["story","Hacker News"],"image":null,"imageAlt":null,"provider":"Hacker News","thirdPartyId":"26368786","url":"https://news.ycombinator.com/item?id=26368786","originalUrl":"http://www.bbc.co.uk/earth/story/20150904-the-bizarre-beasts-living-in-romanias-poison-cave","imageRemote":"https://ychef.files.bbci.co.uk/624x351/p031dbbk.jpg","video":null,"channel":null,"channelUrl":null,"author":"EndXA","authorUrl":"https://news.ycombinator.com/user?id=EndXA","authorImage":null,"authorSlug":null,"score":212,"views":null,"sharedCount":null,"likeCount":null,"sharedContent":null,"parent":{"__typename":"HnJson","localize":[{"title":"生活在罗马尼亚毒洞中的怪兽（2015年）。","locale":"zh"},{"title":"生活在羅馬尼亞毒洞中的怪獸（2015年）。","locale":"zh-Hant"}]}},{"__typename":"SocialMediaPost","id":"HnPost-26371902","excerpt":"","slug":"/hn/26371902","title":"Californians aren’t leaving the state en masse but are leaving San Francisco","date":"March 07, 2021","dateISO":"2021-03-07T03:24:51.828Z","datetime":"2021-03-07 03:24","tags":["story","Hacker News"],"image":null,"imageAlt":null,"provider":"Hacker News","thirdPartyId":"26371902","url":"https://news.ycombinator.com/item?id=26371902","originalUrl":"https://www.latimes.com/california/story/2021-03-04/california-exodus-san-francisco-migration","imageRemote":"https://ca-times.brightspotcdn.com/dims4/default/353a6ec/2147483647/strip/true/crop/840x441+0+43/resize/1200x630!/quality/90/?url=https%3A%2F%2Fcalifornia-times-brightspot.s3.amazonaws.com%2Fd6%2F00%2F19acb8b144eca33e4cbdd334cb3a%2Fgolden-gate.jpg","video":null,"channel":null,"channelUrl":null,"author":"undefined1","authorUrl":"https://news.ycombinator.com/user?id=undefined1","authorImage":null,"authorSlug":null,"score":231,"views":null,"sharedCount":null,"likeCount":null,"sharedContent":null,"parent":{"__typename":"HnJson","localize":[{"title":"加州人不是集体离开加州，而是离开旧金山。","locale":"zh"},{"title":"加州人不是集體離開加州，而是離開舊金山。","locale":"zh-Hant"}]}},{"__typename":"SocialMediaPost","id":"HnPost-26370704","excerpt":"","slug":"/hn/26370704","title":"FFMPEG from Zero to Hero","date":"March 07, 2021","dateISO":"2021-03-07T02:14:25.515Z","datetime":"2021-03-07 02:14","tags":["story","Hacker News"],"image":null,"imageAlt":null,"provider":"Hacker News","thirdPartyId":"26370704","url":"https://news.ycombinator.com/item?id=26370704","originalUrl":"https://ffmpegfromzerotohero.com/","imageRemote":"https://ffmpegfromzerotohero.com/images/logo-dark.png","video":null,"channel":null,"channelUrl":null,"author":"wilsonfiifi","authorUrl":"https://news.ycombinator.com/user?id=wilsonfiifi","authorImage":null,"authorSlug":null,"score":409,"views":null,"sharedCount":null,"likeCount":null,"sharedContent":null,"parent":{"__typename":"HnJson","localize":[{"title":"FFMPEG从无到有","locale":"zh"},{"title":"FFMPEG從無到有","locale":"zh-Hant"}]}},{"__typename":"SocialMediaPost","id":"HnPost-26369305","excerpt":"","slug":"/hn/26369305","title":"Citus 10 brings columnar compression to Postgres","date":"March 07, 2021","dateISO":"2021-03-07T01:32:37.384Z","datetime":"2021-03-07 01:32","tags":["story","Hacker News"],"image":null,"imageAlt":null,"provider":"Hacker News","thirdPartyId":"26369305","url":"https://news.ycombinator.com/item?id=26369305","originalUrl":"https://www.citusdata.com/blog/2021/03/06/citus-10-columnar-compression-for-postgres/","imageRemote":"https://www.citusdata.com/assets/images/twitter/jeff-columnar-blog-1200x630.jpg","video":null,"channel":null,"channelUrl":null,"author":"whitepoplar","authorUrl":"https://news.ycombinator.com/user?id=whitepoplar","authorImage":null,"authorSlug":null,"score":219,"views":null,"sharedCount":null,"likeCount":null,"sharedContent":null,"parent":{"__typename":"HnJson","localize":[{"title":"Citus 10为Postgres带来了列式压缩功能","locale":"zh"},{"title":"Citus 10爲Postgres帶來了列式壓縮功能","locale":"zh-Hant"}]}},{"__typename":"SocialMediaPost","id":"HnPost-26370572","excerpt":"","slug":"/hn/26370572","title":"Dolt is Git for Data: a SQL database that you can fork, clone, branch, merge","date":"March 06, 2021","dateISO":"2021-03-06T23:30:15.430Z","datetime":"2021-03-06 23:30","tags":["story","Hacker News"],"image":null,"imageAlt":null,"provider":"Hacker News","thirdPartyId":"26370572","url":"https://news.ycombinator.com/item?id=26370572","originalUrl":"https://github.com/dolthub/dolt#dolt","imageRemote":"https://avatars.githubusercontent.com/u/42156961?s=400&v=4","video":null,"channel":null,"channelUrl":null,"author":"crazypython","authorUrl":"https://news.ycombinator.com/user?id=crazypython","authorImage":null,"authorSlug":null,"score":749,"views":null,"sharedCount":null,"likeCount":null,"sharedContent":null,"parent":{"__typename":"HnJson","localize":[{"title":"Dolt是Git for Data：一个可以fork、克隆、分支、合并的SQL数据库。","locale":"zh"},{"title":"Dolt是Git for Data：一個可以fork、克隆、分支、合併的SQL數據庫。","locale":"zh-Hant"}]}},{"__typename":"SocialMediaPost","id":"HnPost-26366538","excerpt":"","slug":"/hn/26366538","title":"Ask HN: What tangible benefits did you get from spending time on HN?","date":"March 06, 2021","dateISO":"2021-03-06T21:28:34.787Z","datetime":"2021-03-06 21:28","tags":["story","ASK HN","Hacker News"],"image":null,"imageAlt":null,"provider":"Hacker News","thirdPartyId":"26366538","url":"https://news.ycombinator.com/item?id=26366538","originalUrl":"https://news.ycombinator.com/item?id=26366538","imageRemote":null,"video":null,"channel":"ASK HN","channelUrl":"https://news.ycombinator.com/ask","author":"ElectricMind","authorUrl":"https://news.ycombinator.com/user?id=ElectricMind","authorImage":null,"authorSlug":null,"score":218,"views":null,"sharedCount":null,"likeCount":null,"sharedContent":null,"parent":{"__typename":"HnJson","localize":[{"title":"问HN：在HN上呆久了，你得到了哪些实实在在的好处？","locale":"zh"},{"title":"問HN：在HN上呆久了，你得到了哪些實實在在的好處？","locale":"zh-Hant"}]}},{"__typename":"SocialMediaPost","id":"HnPost-26368939","excerpt":"","slug":"/hn/26368939","title":"Animated Engines","date":"March 06, 2021","dateISO":"2021-03-06T19:47:09.288Z","datetime":"2021-03-06 19:47","tags":["story","Hacker News"],"image":null,"imageAlt":null,"provider":"Hacker News","thirdPartyId":"26368939","url":"https://news.ycombinator.com/item?id=26368939","originalUrl":"http://animatedengines.com/","imageRemote":"http://animatedengines.com/img/507movementsad.png","video":null,"channel":null,"channelUrl":null,"author":"marcodiego","authorUrl":"https://news.ycombinator.com/user?id=marcodiego","authorImage":null,"authorSlug":null,"score":696,"views":null,"sharedCount":null,"likeCount":null,"sharedContent":null,"parent":{"__typename":"HnJson","localize":[{"title":"动画引擎","locale":"zh"},{"title":"動畫引擎","locale":"zh-Hant"}]}},{"__typename":"SocialMediaPost","id":"HnPost-26357033","excerpt":"","slug":"/hn/26357033","title":"Thanks HN: Lessons learned after Google nearly killed my site","date":"March 06, 2021","dateISO":"2021-03-06T19:29:47.549Z","datetime":"2021-03-06 19:29","tags":["story","Hacker News"],"image":null,"imageAlt":null,"provider":"Hacker News","thirdPartyId":"26357033","url":"https://news.ycombinator.com/item?id=26357033","originalUrl":"https://www.uploader.win/blog/","imageRemote":"https://www.uploader.win/assets/img/logo.b80d7a39.svg","video":null,"channel":null,"channelUrl":null,"author":"uploaderwin","authorUrl":"https://news.ycombinator.com/user?id=uploaderwin","authorImage":null,"authorSlug":null,"score":533,"views":null,"sharedCount":null,"likeCount":null,"sharedContent":null,"parent":{"__typename":"HnJson","localize":[{"title":"谢谢HN：谷歌差点杀了我的网站后的教训。","locale":"zh"},{"title":"謝謝HN：谷歌差點殺了我的網站後的教訓。","locale":"zh-Hant"}]}}]}},"pageContext":{"basePath":"/","pageType":"tag","tag":"story","tagsFilter":{"id":{"glob":"!*Post-1"}},"filter":{"id":{"glob":"!*Post-1"},"tags":{"eq":"story"}},"limit":25,"skip":300,"total":2599,"totalPages":104,"currentPage":13,"maxWidth":1024,"maxHeight":512,"locale":"zh-Hant","hrefLang":"zh-Hant","originalPath":"/tags/story/page/13","dateFormat":"YYYY-MM-DD"}},"staticQueryHashes":["1239077767","2506312863","2744905544","3025052997","3493603132","3493603132","3513215887","386998304"]}