{"componentChunkName":"component---gatsby-theme-buzzing-src-gatsby-theme-timeline-templates-posts-query-js","path":"/zh-Hant/tags/hacker-news/page/17","result":{"data":{"site":{"siteMetadata":{"title":"Reddit 热门","description":"用中文浏览Reddit热门内容","social":[{"name":"Reddit","url":"https://www.reddit.com/","external":true,"prefetch":null},{"name":"GitHub","url":"https://github.com/gatsbyjs","external":null,"prefetch":null}],"menuLinks":[{"name":"每周精选","url":"/issues","external":null,"prefetch":null},{"name":"RSS","url":"/rss.xml","external":null,"prefetch":false}],"localize":[{"locale":"en","title":"Buzzing on Reddit","description":"See what's buzzing on Reddit in your native language","social":[{"name":"Reddit","url":"https://www.reddit.com/","external":true,"prefetch":null}],"menuLinks":[{"name":"Weekly Selection","url":"/issues","external":null,"prefetch":null},{"name":"RSS","url":"/rss.xml","external":null,"prefetch":false}]},{"locale":"zh-Hant","title":"Reddit 熱門","description":"用中文瀏覽Reddit熱門內容","social":null,"menuLinks":null}]}},"tagsGroup":{"group":[{"fieldValue":"ASK HN","totalCount":19},{"fieldValue":"Bitcoin","totalCount":3},{"fieldValue":"Hacker News","totalCount":801},{"fieldValue":"Poll","totalCount":1},{"fieldValue":"Show HN","totalCount":31},{"fieldValue":"investing","totalCount":166},{"fieldValue":"poll","totalCount":1},{"fieldValue":"reddit","totalCount":594},{"fieldValue":"science","totalCount":1},{"fieldValue":"stocks","totalCount":277},{"fieldValue":"story","totalCount":800},{"fieldValue":"tweet","totalCount":243},{"fieldValue":"wallstreetbets","totalCount":151}]},"allBlogPost":{"nodes":[{"__typename":"SocialMediaPost","id":"HnPost-25539438","excerpt":"","slug":"/hn/25539438","title":"Salmon spawning in the upper Columbia River, first in 80 years","date":"December 26, 2020","dateISO":"2020-12-26T02:50:15.184Z","datetime":"2020-12-26 02:50","tags":["story","Hacker News"],"image":null,"imageAlt":null,"provider":"Hacker News","thirdPartyId":"25539438","url":"https://news.ycombinator.com/item?id=25539438","originalUrl":"https://www.spokesman.com/stories/2020/dec/17/for-the-first-time-in-more-than-80-years-salmon-sp/","imageRemote":"https://thumb.spokesman.com/VY3pRbIsz58kUjOthVGAurTyUT0=/1200x0/media.spokesman.com/photos/2020/12/16/5fda35b9d3c73.hires.jpg","video":null,"channel":null,"channelUrl":null,"author":"shartshooter","authorUrl":"https://news.ycombinator.com/user?id=shartshooter","authorImage":null,"authorSlug":null,"score":235,"views":null,"sharedCount":null,"likeCount":null,"sharedContent":null,"parent":{"__typename":"HnJson","localize":[{"title":"哥伦比亚河上游的鲑鱼产卵，这是80年来的第一次","locale":"zh"},{"title":"哥倫比亞河上游的鮭魚產卵，這是80年來的第一次","locale":"zh-Hant"}]}},{"__typename":"SocialMediaPost","id":"HnPost-25539797","excerpt":"","slug":"/hn/25539797","title":"A Complete Guide to LLVM for Programming Language Creators","date":"December 26, 2020","dateISO":"2020-12-26T02:50:15.184Z","datetime":"2020-12-26 02:50","tags":["story","Hacker News"],"image":null,"imageAlt":null,"provider":"Hacker News","thirdPartyId":"25539797","url":"https://news.ycombinator.com/item?id=25539797","originalUrl":"https://mukulrathi.co.uk/create-your-own-programming-language/llvm-ir-cpp-api-tutorial/","imageRemote":"https://mukulrathi.co.uk/static/81938ad9f32c6a92607d4c801b7b0516/1711c/llvm.png","video":null,"channel":null,"channelUrl":null,"author":"mseri","authorUrl":"https://news.ycombinator.com/user?id=mseri","authorImage":null,"authorSlug":null,"score":401,"views":null,"sharedCount":null,"likeCount":null,"sharedContent":null,"parent":{"__typename":"HnJson","localize":[{"title":"面向编程语言创建者的LLVM完整指南","locale":"zh"},{"title":"面向編程語言創建者的LLVM完整指南","locale":"zh-Hant"}]}},{"__typename":"SocialMediaPost","id":"HnPost-25539586","excerpt":"","slug":"/hn/25539586","title":"ATT services down due to bombing in Nashville","date":"December 26, 2020","dateISO":"2020-12-26T02:14:13.261Z","datetime":"2020-12-26 02:14","tags":["story","Hacker News"],"image":null,"imageAlt":null,"provider":"Hacker News","thirdPartyId":"25539586","url":"https://news.ycombinator.com/item?id=25539586","originalUrl":"https://www.tennessean.com/story/news/local/2020/12/25/att-outage-internet-down-hours-after-nashville-explosion/4045278001/","imageRemote":"https://www.gannett-cdn.com/presto/2020/12/25/PNAS/53ebc964-452e-47a1-9e5a-4befcef51ad3-_AAA8036.JPG?crop=5567,3131,x0,y283&width=3200&height=1800&format=pjpg&auto=webp","video":null,"channel":null,"channelUrl":null,"author":"SpaceInvader","authorUrl":"https://news.ycombinator.com/user?id=SpaceInvader","authorImage":null,"authorSlug":null,"score":419,"views":null,"sharedCount":null,"likeCount":null,"sharedContent":null,"parent":{"__typename":"HnJson","localize":[{"title":"纳什维尔发生爆炸，ATT服务中断","locale":"zh"},{"title":"納什維爾發生爆炸，ATT服務中斷","locale":"zh-Hant"}]}},{"__typename":"SocialMediaPost","id":"HnPost-25539319","excerpt":"","slug":"/hn/25539319","title":"New Linux port for the Nintendo 64","date":"December 25, 2020","dateISO":"2020-12-25T23:06:53.990Z","datetime":"2020-12-25 23:06","tags":["story","Hacker News"],"image":null,"imageAlt":null,"provider":"Hacker News","thirdPartyId":"25539319","url":"https://news.ycombinator.com/item?id=25539319","originalUrl":"https://lore.kernel.org/linux-mips/20201225190503.12353218812e1655f56f0bf8@gmx.com/T/#m0862c3484e0da7195dc8989421d30f01b3b1c63a","imageRemote":null,"video":null,"channel":null,"channelUrl":null,"author":"MegaDeKay","authorUrl":"https://news.ycombinator.com/user?id=MegaDeKay","authorImage":null,"authorSlug":null,"score":525,"views":null,"sharedCount":null,"likeCount":null,"sharedContent":null,"parent":{"__typename":"HnJson","localize":[{"title":"用于任天堂64的新Linux端口","locale":"zh"},{"title":"用於任天堂64的新Linux端口","locale":"zh-Hant"}]}},{"__typename":"SocialMediaPost","id":"HnPost-25534587","excerpt":"","slug":"/hn/25534587","title":"Elephant decline revealed by shipwreck cargo","date":"December 25, 2020","dateISO":"2020-12-25T22:49:53.452Z","datetime":"2020-12-25 22:49","tags":["story","Hacker News"],"image":null,"imageAlt":null,"provider":"Hacker News","thirdPartyId":"25534587","url":"https://news.ycombinator.com/item?id=25534587","originalUrl":"https://www.bbc.com/news/science-environment-55340975","imageRemote":"https://ichef.bbci.co.uk/news/1024/branded_news/108D1/production/_116139776_c0495712-african_elephants_at_a_waterhole.jpg","video":null,"channel":null,"channelUrl":null,"author":"Thevet","authorUrl":"https://news.ycombinator.com/user?id=Thevet","authorImage":null,"authorSlug":null,"score":152,"views":null,"sharedCount":null,"likeCount":null,"sharedContent":null,"parent":{"__typename":"HnJson","localize":[{"title":"沉船货物揭示大象数量下降","locale":"zh"},{"title":"沉船貨物揭示大象數量下降","locale":"zh-Hant"}]}},{"__typename":"SocialMediaPost","id":"HnPost-25538589","excerpt":"","slug":"/hn/25538589","title":"Mutated Covid-19 strain confirmed in Japan as case tally hits record high","date":"December 25, 2020","dateISO":"2020-12-25T22:18:43.706Z","datetime":"2020-12-25 22:18","tags":["story","Hacker News"],"image":null,"imageAlt":null,"provider":"Hacker News","thirdPartyId":"25538589","url":"https://news.ycombinator.com/item?id=25538589","originalUrl":"https://www.japantimes.co.jp/news/2020/12/25/national/tokyo-coronavirus-884-cases/","imageRemote":"https://cdn-japantimes.com/wp-content/uploads/2020/12/np_file_59640-870x584.jpeg","video":null,"channel":null,"channelUrl":null,"author":"Circumnavigate","authorUrl":"https://news.ycombinator.com/user?id=Circumnavigate","authorImage":null,"authorSlug":null,"score":292,"views":null,"sharedCount":null,"likeCount":null,"sharedContent":null,"parent":{"__typename":"HnJson","localize":[{"title":"日本确认变异冠状病毒株，病例总数创历史新高","locale":"zh"},{"title":"日本確認變異冠狀病毒株，病例總數創歷史新高","locale":"zh-Hant"}]}},{"__typename":"SocialMediaPost","id":"HnPost-25535857","excerpt":"","slug":"/hn/25535857","title":"Figma: The product design team’s process","date":"December 25, 2020","dateISO":"2020-12-25T21:58:31.916Z","datetime":"2020-12-25 21:58","tags":["story","Hacker News"],"image":null,"imageAlt":null,"provider":"Hacker News","thirdPartyId":"25535857","url":"https://news.ycombinator.com/item?id=25535857","originalUrl":"https://www.figma.com/blog/inside-figma-the-product-design-teams-process/","imageRemote":"https://images.ctfassets.net/1khq4uysbvty/5xNg0U7fY4GBL3BWURFfDx/fe26773a131a6251aa4371206dfef2ba/remote_header.png?w=1200&q=80","video":null,"channel":null,"channelUrl":null,"author":"skilled","authorUrl":"https://news.ycombinator.com/user?id=skilled","authorImage":null,"authorSlug":null,"score":163,"views":null,"sharedCount":null,"likeCount":null,"sharedContent":null,"parent":{"__typename":"HnJson","localize":[{"title":"图：产品设计团队的流程","locale":"zh"},{"title":"圖：產品設計團隊的流程","locale":"zh-Hant"}]}},{"__typename":"SocialMediaPost","id":"HnPost-25536197","excerpt":"","slug":"/hn/25536197","title":"The biggest and weirdest commits in Linux kernel Git history (2017)","date":"December 25, 2020","dateISO":"2020-12-25T21:19:11.909Z","datetime":"2020-12-25 21:19","tags":["story","Hacker News"],"image":null,"imageAlt":null,"provider":"Hacker News","thirdPartyId":"25536197","url":"https://news.ycombinator.com/item?id=25536197","originalUrl":"https://www.destroyallsoftware.com/blog/2017/the-biggest-and-weirdest-commits-in-linux-kernel-git-history","imageRemote":"data:image/png;base64,iVBORw0KGgoAAAANSUhEUgAAACMAAAAoCAYAAAB0HkOaAAABG2lUWHRYTUw6Y29tLmFkb2JlLnhtcAAAAAAAPD94cGFja2V0IGJlZ2luPSLvu78iIGlkPSJXNU0wTXBDZWhpSHpyZVN6TlRjemtjOWQiPz4KPHg6eG1wbWV0YSB4bWxuczp4PSJhZG9iZTpuczptZXRhLyIgeDp4bXB0az0iWE1QIENvcmUgNS41LjAiPgogPHJkZjpSREYgeG1sbnM6cmRmPSJodHRwOi8vd3d3LnczLm9yZy8xOTk5LzAyLzIyLXJkZi1zeW50YXgtbnMjIj4KICA8cmRmOkRlc2NyaXB0aW9uIHJkZjphYm91dD0iIi8%2BCiA8L3JkZjpSREY%2BCjwveDp4bXBtZXRhPgo8P3hwYWNrZXQgZW5kPSJyIj8%2BGkqr6gAAAYJpQ0NQc1JHQiBJRUM2MTk2Ni0yLjEAACiRdZHPK0RRFMc%2FM0PECKEsLCYNKyNGTWyUkVCTpjHKYDPz5peaH6%2F3ZpJsle0UJTZ%2BLfgL2CprpYiULKysiQ3Tc96Mmknm3M49n%2Fu995zuPReswZSS1uuGIJ3JaYFpr2MxtORoeMFKD114aA8rujrh9%2FuoaZ%2F3WMx46zJr1T73rzVHY7oClkbhcUXVcsIzwr61nGryjnCnkgxHhc%2BEBzS5oPCdqUfK%2FGpyoszfJmvBwCRY24QdiSqOVLGS1NLC8nKc6VRe%2Bb2P%2BRJ7LLMwL7FXvAedANN4cTDLFJPSk2HGZPbgws2grKiRP1TKnyMruYrMKutorJIgSY4BUfNSPSYxLnpMRop1s%2F9%2F%2B6rHR9zl6nYv1D8bxnsfNGxDsWAYX0eGUTwG2xNcZir52UMY%2FRC9UNGcB9C6CedXFS2yCxdb0P2ohrVwSbKJW%2BNxeDuFlhB03EDTcrlnv%2FucPEBwQ77qGvb2oV%2FOt678AHuMZ%2B%2FPgSnPAAAACXBIWXMAAAsTAAALEwEAmpwYAAAAkElEQVRYhe3XsQ3CMBCF4f%2BiVEjMwggsQ8FOsAwb4GFwhfTSxBIFKaC5U%2FS%2BBe4vbNkHZr8JSUfgDMyJHW%2FgEZKewCkxZGghSdkVw5Qd8KlcTMuOWLVStylxvtnOhKQrcCH%2Fat9D0gs4JIYM3Q%2Fllgno2RGrXukA3xLnm%2B1MqW%2Bnl7gt5d6mMrzEfeElzv6yAMvSPr7b38OWAAAAAElFTkSuQmCC","video":null,"channel":null,"channelUrl":null,"author":"rwmj","authorUrl":"https://news.ycombinator.com/user?id=rwmj","authorImage":null,"authorSlug":null,"score":147,"views":null,"sharedCount":null,"likeCount":null,"sharedContent":null,"parent":{"__typename":"HnJson","localize":[{"title":"Linux内核Git历史上最大和最怪异的提交(2017)","locale":"zh"},{"title":"Linux內核Git歷史上最大和最怪異的提交(2017)","locale":"zh-Hant"}]}},{"__typename":"SocialMediaPost","id":"HnPost-25538218","excerpt":"","slug":"/hn/25538218","title":"Dasung just released a 25 inch eInk monitor","date":"December 25, 2020","dateISO":"2020-12-25T21:19:11.909Z","datetime":"2020-12-25 21:19","tags":["story","Hacker News"],"image":null,"imageAlt":null,"provider":"Hacker News","thirdPartyId":"25538218","url":"https://news.ycombinator.com/item?id=25538218","originalUrl":"https://www.reddit.com/r/eink/comments/kjvsoj/dasung_just_released_a_25_inch_eink_monitor/","imageRemote":"https://external-preview.redd.it/elUs0dGLP_1KyxpgH2030TkNEcMqxg095swflFXeaho.jpg?auto=webp&s=ac5787417555ba2bab703240d504b73baed3cdb6","video":null,"channel":null,"channelUrl":null,"author":"tyler109","authorUrl":"https://news.ycombinator.com/user?id=tyler109","authorImage":null,"authorSlug":null,"score":723,"views":null,"sharedCount":null,"likeCount":null,"sharedContent":null,"parent":{"__typename":"HnJson","localize":[{"title":"大成刚刚发布了一款25英寸的eInk显示器","locale":"zh"},{"title":"大成剛剛發佈了一款25英寸的eInk顯示器","locale":"zh-Hant"}]}},{"__typename":"SocialMediaPost","id":"HnPost-25538586","excerpt":"","slug":"/hn/25538586","title":"Ask HN: Why does Pinterest dominate Google search results?","date":"December 25, 2020","dateISO":"2020-12-25T20:47:26.434Z","datetime":"2020-12-25 20:47","tags":["story","ASK HN","Hacker News"],"image":null,"imageAlt":null,"provider":"Hacker News","thirdPartyId":"25538586","url":"https://news.ycombinator.com/item?id=25538586","originalUrl":"https://news.ycombinator.com/item?id=25538586","imageRemote":null,"video":null,"channel":"ASK HN","channelUrl":"https://news.ycombinator.com/ask","author":"Winterflow3r","authorUrl":"https://news.ycombinator.com/user?id=Winterflow3r","authorImage":null,"authorSlug":null,"score":688,"views":null,"sharedCount":null,"likeCount":null,"sharedContent":null,"parent":{"__typename":"HnJson","localize":[{"title":"HN提问：为什么Pinterest在谷歌搜索结果中占据主导地位？","locale":"zh"},{"title":"HN提問：爲什麼Pinterest在谷歌搜索結果中佔據主導地位？","locale":"zh-Hant"}]}},{"__typename":"SocialMediaPost","id":"HnPost-25534645","excerpt":"","slug":"/hn/25534645","title":"Eyes hint at hidden mental-health conditions (2019)","date":"December 25, 2020","dateISO":"2020-12-25T20:28:21.642Z","datetime":"2020-12-25 20:28","tags":["story","Hacker News"],"image":null,"imageAlt":null,"provider":"Hacker News","thirdPartyId":"25534645","url":"https://news.ycombinator.com/item?id=25534645","originalUrl":"https://www.nature.com/articles/d41586-019-01114-9","imageRemote":"https://media.nature.com/lw1024/magazine-assets/d41586-019-01114-9/d41586-019-01114-9_16629040.jpg","video":null,"channel":null,"channelUrl":null,"author":"svrma","authorUrl":"https://news.ycombinator.com/user?id=svrma","authorImage":null,"authorSlug":null,"score":116,"views":null,"sharedCount":null,"likeCount":null,"sharedContent":null,"parent":{"__typename":"HnJson","localize":[{"title":"眼睛暗示隐藏的心理健康状况(2019年)","locale":"zh"},{"title":"眼睛暗示隱藏的心理健康狀況(2019年)","locale":"zh-Hant"}]}},{"__typename":"SocialMediaPost","id":"HnPost-25535971","excerpt":"","slug":"/hn/25535971","title":"Some Differences Between macOS and Common Unix Systems","date":"December 25, 2020","dateISO":"2020-12-25T19:59:26.852Z","datetime":"2020-12-25 19:59","tags":["story","Hacker News"],"image":null,"imageAlt":null,"provider":"Hacker News","thirdPartyId":"25535971","url":"https://news.ycombinator.com/item?id=25535971","originalUrl":"https://www.dyx.name/posts/macunix.html","imageRemote":null,"video":null,"channel":null,"channelUrl":null,"author":"dongyx","authorUrl":"https://news.ycombinator.com/user?id=dongyx","authorImage":null,"authorSlug":null,"score":172,"views":null,"sharedCount":null,"likeCount":null,"sharedContent":null,"parent":{"__typename":"HnJson","localize":[{"title":"MacOS系统与普通Unix系统的一些区别","locale":"zh"},{"title":"MacOS系統與普通Unix系統的一些區別","locale":"zh-Hant"}]}},{"__typename":"SocialMediaPost","id":"HnPost-25537377","excerpt":"","slug":"/hn/25537377","title":"Mountain Peaks in WebGL","date":"December 25, 2020","dateISO":"2020-12-25T19:33:40.848Z","datetime":"2020-12-25 19:33","tags":["story","Hacker News"],"image":null,"imageAlt":null,"provider":"Hacker News","thirdPartyId":"25537377","url":"https://news.ycombinator.com/item?id=25537377","originalUrl":"https://felixpalmer.github.io/peaks-of-austria/","imageRemote":"https://s3.amazonaws.com/github/ribbons/forkme_left_red_aa0000.png","video":null,"channel":null,"channelUrl":null,"author":"pheelicks","authorUrl":"https://news.ycombinator.com/user?id=pheelicks","authorImage":null,"authorSlug":null,"score":280,"views":null,"sharedCount":null,"likeCount":null,"sharedContent":null,"parent":{"__typename":"HnJson","localize":[{"title":"WebGL中的山峰","locale":"zh"},{"title":"WebGL中的山峯","locale":"zh-Hant"}]}},{"__typename":"SocialMediaPost","id":"HnPost-25537986","excerpt":"","slug":"/hn/25537986","title":"Vim³ – Vim rendered on a cube for no reason","date":"December 25, 2020","dateISO":"2020-12-25T19:33:40.848Z","datetime":"2020-12-25 19:33","tags":["story","Hacker News"],"image":null,"imageAlt":null,"provider":"Hacker News","thirdPartyId":"25537986","url":"https://news.ycombinator.com/item?id=25537986","originalUrl":"https://github.com/oakes/vim_cubed#vim","imageRemote":"https://avatars0.githubusercontent.com/u/216147?s=400&v=4","video":null,"channel":null,"channelUrl":null,"author":"capableweb","authorUrl":"https://news.ycombinator.com/user?id=capableweb","authorImage":null,"authorSlug":null,"score":187,"views":null,"sharedCount":null,"likeCount":null,"sharedContent":null,"parent":{"__typename":"HnJson","localize":[{"title":"Vim³-无缘无故地在立方体上渲染Vim","locale":"zh"},{"title":"Vim³-無緣無故地在立方體上渲染Vim","locale":"zh-Hant"}]}},{"__typename":"SocialMediaPost","id":"HnPost-25533263","excerpt":"","slug":"/hn/25533263","title":"WireGuard: Great protocol, but skip the Mac app","date":"December 25, 2020","dateISO":"2020-12-25T18:02:57.687Z","datetime":"2020-12-25 18:02","tags":["story","Hacker News"],"image":null,"imageAlt":null,"provider":"Hacker News","thirdPartyId":"25533263","url":"https://news.ycombinator.com/item?id=25533263","originalUrl":"https://rachelbythebay.com/w/2020/12/24/wg/","imageRemote":"https://rachelbythebay.com/w/feed.png","video":null,"channel":null,"channelUrl":null,"author":"parsecs","authorUrl":"https://news.ycombinator.com/user?id=parsecs","authorImage":null,"authorSlug":null,"score":115,"views":null,"sharedCount":null,"likeCount":null,"sharedContent":null,"parent":{"__typename":"HnJson","localize":[{"title":"WireGuard：很棒的协议，但跳过Mac应用程序","locale":"zh"},{"title":"WireGuard：很棒的協議，但跳過Mac應用程序","locale":"zh-Hant"}]}},{"__typename":"SocialMediaPost","id":"HnPost-25534498","excerpt":"","slug":"/hn/25534498","title":"Price increase on .io on January 21, 2021","date":"December 25, 2020","dateISO":"2020-12-25T17:16:20.999Z","datetime":"2020-12-25 17:16","tags":["story","Hacker News"],"image":null,"imageAlt":null,"provider":"Hacker News","thirdPartyId":"25534498","url":"https://news.ycombinator.com/item?id=25534498","originalUrl":"https://news.gandi.net/en/2020/12/price-increase-on-io-on-january-1-2021/","imageRemote":"https://news.gandi.net/wp-content/uploads/2020/12/Priceincrease_generic.png","video":null,"channel":null,"channelUrl":null,"author":"wilsonfiifi","authorUrl":"https://news.ycombinator.com/user?id=wilsonfiifi","authorImage":null,"authorSlug":null,"score":138,"views":null,"sharedCount":null,"likeCount":null,"sharedContent":null,"parent":{"__typename":"HnJson","localize":[{"title":"2021年1月21日.io涨价","locale":"zh"},{"title":"2021年1月21日.io漲價","locale":"zh-Hant"}]}},{"__typename":"SocialMediaPost","id":"HnPost-25535822","excerpt":"","slug":"/hn/25535822","title":"Planner 2.6 – An open-source Todoist alternative for Linux","date":"December 25, 2020","dateISO":"2020-12-25T17:16:20.999Z","datetime":"2020-12-25 17:16","tags":["story","Hacker News"],"image":null,"imageAlt":null,"provider":"Hacker News","thirdPartyId":"25535822","url":"https://news.ycombinator.com/item?id=25535822","originalUrl":"https://useplanner.com/release/2020/12/24/merry-christmas-everyone-planner-2-6-is-here/","imageRemote":"https://planner-todo.web.app/images/blogs/2020-12-24-merry-christmas-everyone-planner-2-6-is-here/1.png","video":null,"channel":null,"channelUrl":null,"author":"rayrag","authorUrl":"https://news.ycombinator.com/user?id=rayrag","authorImage":null,"authorSlug":null,"score":240,"views":null,"sharedCount":null,"likeCount":null,"sharedContent":null,"parent":{"__typename":"HnJson","localize":[{"title":"Planner 2.6-Linux的开源Todoist替代方案","locale":"zh"},{"title":"Planner 2.6-Linux的開源Todoist替代方案","locale":"zh-Hant"}]}},{"__typename":"SocialMediaPost","id":"HnPost-25536810","excerpt":"","slug":"/hn/25536810","title":"New Orleans City Council bans facial recognition, predictive policing and other","date":"December 25, 2020","dateISO":"2020-12-25T17:16:20.999Z","datetime":"2020-12-25 17:16","tags":["story","Hacker News"],"image":null,"imageAlt":null,"provider":"Hacker News","thirdPartyId":"25536810","url":"https://news.ycombinator.com/item?id=25536810","originalUrl":"https://thelensnola.org/2020/12/18/new-orleans-city-council-approves-ban-on-facial-recognition-predictive-policing-and-other-surveillance-tech/","imageRemote":"https://i2.wp.com/thelensnola.org/wp-content/uploads/2020/12/DSC_5214-scaled.jpg?fit=2560%2C1709&ssl=1","video":null,"channel":null,"channelUrl":null,"author":"yhvstnpst","authorUrl":"https://news.ycombinator.com/user?id=yhvstnpst","authorImage":null,"authorSlug":null,"score":194,"views":null,"sharedCount":null,"likeCount":null,"sharedContent":null,"parent":{"__typename":"HnJson","localize":[{"title":"新奥尔良市议会禁止面部识别、预测性警务等","locale":"zh"},{"title":"新奧爾良市議會禁止面部識別、預測性警務等","locale":"zh-Hant"}]}},{"__typename":"SocialMediaPost","id":"HnPost-25537230","excerpt":"","slug":"/hn/25537230","title":"Ask HN: Best Talks of 2020?","date":"December 25, 2020","dateISO":"2020-12-25T17:16:20.999Z","datetime":"2020-12-25 17:16","tags":["story","ASK HN","Hacker News"],"image":null,"imageAlt":null,"provider":"Hacker News","thirdPartyId":"25537230","url":"https://news.ycombinator.com/item?id=25537230","originalUrl":"https://news.ycombinator.com/item?id=25537230","imageRemote":null,"video":null,"channel":"ASK HN","channelUrl":"https://news.ycombinator.com/ask","author":"sid6376","authorUrl":"https://news.ycombinator.com/user?id=sid6376","authorImage":null,"authorSlug":null,"score":726,"views":null,"sharedCount":null,"likeCount":null,"sharedContent":null,"parent":{"__typename":"HnJson","localize":[{"title":"HN提问：2020年最佳演讲？","locale":"zh"},{"title":"HN提問：2020年最佳演講？","locale":"zh-Hant"}]}},{"__typename":"SocialMediaPost","id":"HnPost-25535456","excerpt":"","slug":"/hn/25535456","title":"Slower News","date":"December 25, 2020","dateISO":"2020-12-25T15:29:40.731Z","datetime":"2020-12-25 15:29","tags":["story","Hacker News"],"image":null,"imageAlt":null,"provider":"Hacker News","thirdPartyId":"25535456","url":"https://news.ycombinator.com/item?id=25535456","originalUrl":"https://www.slowernews.com/","imageRemote":null,"video":null,"channel":null,"channelUrl":null,"author":"galfarragem","authorUrl":"https://news.ycombinator.com/user?id=galfarragem","authorImage":null,"authorSlug":null,"score":268,"views":null,"sharedCount":null,"likeCount":null,"sharedContent":null,"parent":{"__typename":"HnJson","localize":[{"title":"较慢的新闻","locale":"zh"},{"title":"較慢的新聞","locale":"zh-Hant"}]}},{"__typename":"SocialMediaPost","id":"HnPost-25533405","excerpt":"","slug":"/hn/25533405","title":"Stanisław Lem's Reflections on the Objects of His Childhood Home","date":"December 25, 2020","dateISO":"2020-12-25T13:41:26.137Z","datetime":"2020-12-25 13:41","tags":["story","Hacker News"],"image":null,"imageAlt":null,"provider":"Hacker News","thirdPartyId":"25533405","url":"https://news.ycombinator.com/item?id=25533405","originalUrl":"https://thereader.mitpress.mit.edu/stanislaw-lems-reflections-childhood/","imageRemote":"https://thereader.mitpress.mit.edu/wp-content/uploads/2020/12/lem-lede.jpg","video":null,"channel":null,"channelUrl":null,"author":"anarbadalov","authorUrl":"https://news.ycombinator.com/user?id=anarbadalov","authorImage":null,"authorSlug":null,"score":129,"views":null,"sharedCount":null,"likeCount":null,"sharedContent":null,"parent":{"__typename":"HnJson","localize":[{"title":"Stanisław Lem对童年家园对象的思考","locale":"zh"},{"title":"Stanisław Lem對童年家園對象的思考","locale":"zh-Hant"}]}},{"__typename":"SocialMediaPost","id":"HnPost-25534863","excerpt":"","slug":"/hn/25534863","title":"The Impact of Apple Silicon Macs on Broadway","date":"December 25, 2020","dateISO":"2020-12-25T12:53:22.117Z","datetime":"2020-12-25 12:53","tags":["story","Hacker News"],"image":null,"imageAlt":null,"provider":"Hacker News","thirdPartyId":"25534863","url":"https://news.ycombinator.com/item?id=25534863","originalUrl":"https://brianli.com/2020/12/the-impact-of-apple-silicon-macs-on-broadway/","imageRemote":"https://cdn.brianli.com/uploads/2020/12/20201221_APPLE-M1-CHIP.jpg?w=1920&fit=max&auto=format&fm=pjpg&q=65&gif-q=50","video":null,"channel":null,"channelUrl":null,"author":"da02","authorUrl":"https://news.ycombinator.com/user?id=da02","authorImage":null,"authorSlug":null,"score":242,"views":null,"sharedCount":null,"likeCount":null,"sharedContent":null,"parent":{"__typename":"HnJson","localize":[{"title":"苹果硅Mac对百老汇的影响","locale":"zh"},{"title":"蘋果硅Mac對百老匯的影響","locale":"zh-Hant"}]}},{"__typename":"SocialMediaPost","id":"HnPost-25535403","excerpt":"","slug":"/hn/25535403","title":"Working at Apple (2011)","date":"December 25, 2020","dateISO":"2020-12-25T12:53:22.117Z","datetime":"2020-12-25 12:53","tags":["story","Hacker News"],"image":null,"imageAlt":null,"provider":"Hacker News","thirdPartyId":"25535403","url":"https://news.ycombinator.com/item?id=25535403","originalUrl":"http://worrydream.com/#!/Apple","imageRemote":null,"video":null,"channel":null,"channelUrl":null,"author":"sturza","authorUrl":"https://news.ycombinator.com/user?id=sturza","authorImage":null,"authorSlug":null,"score":296,"views":null,"sharedCount":null,"likeCount":null,"sharedContent":null,"parent":{"__typename":"HnJson","localize":[{"title":"在苹果工作(2011)","locale":"zh"},{"title":"在蘋果工作(2011)","locale":"zh-Hant"}]}},{"__typename":"SocialMediaPost","id":"HnPost-25526669","excerpt":"","slug":"/hn/25526669","title":"Animal Crossing’s fake language sounds different in Japanese","date":"December 25, 2020","dateISO":"2020-12-25T11:30:40.440Z","datetime":"2020-12-25 11:30","tags":["story","Hacker News"],"image":null,"imageAlt":null,"provider":"Hacker News","thirdPartyId":"25526669","url":"https://news.ycombinator.com/item?id=25526669","originalUrl":"https://www.polygon.com/videos/2020/3/22/21188355/animal-crossing-new-horizons-language-video","imageRemote":"https://cdn.vox-cdn.com/thumbor/3JSS9kfZ_ocfna9EsXH4PS4HBoc=/0x38:1920x1043/fit-in/1200x630/cdn.vox-cdn.com/uploads/chorus_asset/file/19821314/VoiceSynththumb.png","video":null,"channel":null,"channelUrl":null,"author":"polm23","authorUrl":"https://news.ycombinator.com/user?id=polm23","authorImage":null,"authorSlug":null,"score":127,"views":null,"sharedCount":null,"likeCount":null,"sharedContent":null,"parent":{"__typename":"HnJson","localize":[{"title":"动物穿越的假语言在日语中听起来不同","locale":"zh"},{"title":"動物穿越的假語言在日語中聽起來不同","locale":"zh-Hant"}]}},{"__typename":"SocialMediaPost","id":"HnPost-25532077","excerpt":"","slug":"/hn/25532077","title":"What Shape Are You?","date":"December 25, 2020","dateISO":"2020-12-25T10:51:11.562Z","datetime":"2020-12-25 10:51","tags":["story","Hacker News"],"image":null,"imageAlt":null,"provider":"Hacker News","thirdPartyId":"25532077","url":"https://news.ycombinator.com/item?id=25532077","originalUrl":"https://tynan.com/shapes","imageRemote":"https://cdn.sett.com/images/user/20121021/BadShapes8bpp73dd56549978dc5ab7aea77bda79a5f9.png","video":null,"channel":null,"channelUrl":null,"author":"neilkakkar","authorUrl":"https://news.ycombinator.com/user?id=neilkakkar","authorImage":null,"authorSlug":null,"score":230,"views":null,"sharedCount":null,"likeCount":null,"sharedContent":null,"parent":{"__typename":"HnJson","localize":[{"title":"你是什么形状的？","locale":"zh"},{"title":"你是什麼形狀的？","locale":"zh-Hant"}]}}]}},"pageContext":{"basePath":"/","pageType":"tag","tag":"Hacker News","tagsFilter":{"id":{"glob":"!*Post-1"}},"filter":{"id":{"glob":"!*Post-1"},"tags":{"eq":"Hacker News"}},"limit":25,"skip":400,"total":801,"totalPages":33,"currentPage":17,"maxWidth":1024,"maxHeight":512,"locale":"zh-Hant","hrefLang":"zh-Hant","originalPath":"/tags/hacker-news/page/17","dateFormat":"YYYY-MM-DD"}},"staticQueryHashes":["1239077767","2506312863","2744905544","3493603132","3493603132","3513215887","386998304"]}