{"componentChunkName":"component---gatsby-theme-buzzing-src-gatsby-theme-timeline-templates-posts-query-js","path":"/en/tags/hacker-news/page/92","result":{"data":{"site":{"siteMetadata":{"title":"Reddit 热门","description":"用中文浏览Reddit热门内容","social":[{"name":"Twitter","url":"https://twitter.com/gatsbyjs","external":null,"prefetch":null},{"name":"GitHub","url":"https://github.com/gatsbyjs","external":null,"prefetch":null}],"menuLinks":[],"localize":[{"locale":"en","title":"Buzzing on Reddit","description":"See what's buzzing on Reddit in your native language","social":[{"name":"Reddit","url":"https://www.reddit.com/","external":true,"prefetch":null}],"menuLinks":[{"name":"Weekly Selection","url":"/issues","external":null,"prefetch":null},{"name":"RSS","url":"/rss.xml","external":null,"prefetch":false}]},{"locale":"zh-Hant","title":"Reddit 熱門","description":"用中文瀏覽Reddit熱門內容","social":null,"menuLinks":null}]}},"tagsGroup":{"group":[{"fieldValue":"ASK HN","totalCount":54},{"fieldValue":"Hacker News","totalCount":3105},{"fieldValue":"Poll","totalCount":1},{"fieldValue":"Show HN","totalCount":100},{"fieldValue":"poll","totalCount":1},{"fieldValue":"story","totalCount":3104}]},"allBlogPost":{"nodes":[{"__typename":"SocialMediaPost","id":"HnPost-25720531","excerpt":"","slug":"/hn/25720531","title":"FPGA dev board that's cheap, simple and supported by OSS toolchain","date":"January 11, 2021","dateISO":"2021-01-11T07:49:25.218Z","datetime":"2021-01-11 07:49","tags":["story","Hacker News"],"image":null,"imageAlt":null,"provider":"Hacker News","thirdPartyId":"25720531","url":"https://news.ycombinator.com/item?id=25720531","originalUrl":"https://github.com/tinyvision-ai-inc/UPduino-v3.0","imageRemote":"https://avatars1.githubusercontent.com/u/49534624?s=400&v=4","video":null,"channel":null,"channelUrl":null,"author":"funkaster","authorUrl":"https://news.ycombinator.com/user?id=funkaster","authorImage":null,"authorSlug":null,"score":274,"views":null,"sharedCount":null,"likeCount":null,"sharedContent":null,"parent":{"__typename":"HnJson","localize":[{"title":"廉价、简单、受OSS工具链支持的FPGA开发板","locale":"zh"},{"title":"廉價、簡單、受OSS工具鏈支持的FPGA開發板","locale":"zh-Hant"}]}},{"__typename":"SocialMediaPost","id":"HnPost-25718098","excerpt":"","slug":"/hn/25718098","title":"NixOS Linux","date":"January 11, 2021","dateISO":"2021-01-11T05:53:42.803Z","datetime":"2021-01-11 05:53","tags":["story","Hacker News"],"image":null,"imageAlt":null,"provider":"Hacker News","thirdPartyId":"25718098","url":"https://news.ycombinator.com/item?id=25718098","originalUrl":"https://nixos.org/","imageRemote":null,"video":null,"channel":null,"channelUrl":null,"author":"lemonspat","authorUrl":"https://news.ycombinator.com/user?id=lemonspat","authorImage":null,"authorSlug":null,"score":227,"views":null,"sharedCount":null,"likeCount":null,"sharedContent":null,"parent":{"__typename":"HnJson","localize":[{"title":"NixOS Linux","locale":"zh"},{"title":"NixOS Linux","locale":"zh-Hant"}]}},{"__typename":"SocialMediaPost","id":"HnPost-25722656","excerpt":"","slug":"/hn/25722656","title":"YouTube bans Steve Bannon's podcast channel","date":"January 11, 2021","dateISO":"2021-01-11T05:53:42.803Z","datetime":"2021-01-11 05:53","tags":["story","Hacker News"],"image":null,"imageAlt":null,"provider":"Hacker News","thirdPartyId":"25722656","url":"https://news.ycombinator.com/item?id=25722656","originalUrl":"https://www.businessinsider.com/youtube-bans-steve-bannon-war-room-podcast-rudy-giuliani-comments-2021-1","imageRemote":"https://i.insider.com/5ff99624d184b30018aaded5?width=1200&format=jpeg","video":null,"channel":null,"channelUrl":null,"author":"jimmy2020","authorUrl":"https://news.ycombinator.com/user?id=jimmy2020","authorImage":null,"authorSlug":null,"score":420,"views":null,"sharedCount":null,"likeCount":null,"sharedContent":null,"parent":{"__typename":"HnJson","localize":[{"title":"YouTube禁止史蒂夫·班农的播客频道","locale":"zh"},{"title":"YouTube禁止史蒂夫·班農的播客頻道","locale":"zh-Hant"}]}},{"__typename":"SocialMediaPost","id":"HnPost-25714822","excerpt":"","slug":"/hn/25714822","title":"The many lies about reducing complexity part 2: Cloud","date":"January 11, 2021","dateISO":"2021-01-11T02:49:35.891Z","datetime":"2021-01-11 02:49","tags":["story","Hacker News"],"image":null,"imageAlt":null,"provider":"Hacker News","thirdPartyId":"25714822","url":"https://news.ycombinator.com/item?id=25714822","originalUrl":"https://ea.rna.nl/2021/01/10/the-many-lies-about-reducing-complexity-part-2-cloud/","imageRemote":"https://rnaea.files.wordpress.com/2021/01/xaas-orthodox-wrong.jpeg?w=1200","video":null,"channel":null,"channelUrl":null,"author":"rapnie","authorUrl":"https://news.ycombinator.com/user?id=rapnie","authorImage":null,"authorSlug":null,"score":223,"views":null,"sharedCount":null,"likeCount":null,"sharedContent":null,"parent":{"__typename":"HnJson","localize":[{"title":"关于降低复杂性的诸多谎言第2部分：云","locale":"zh"},{"title":"關於降低複雜性的諸多謊言第2部分：雲","locale":"zh-Hant"}]}},{"__typename":"SocialMediaPost","id":"HnPost-25717390","excerpt":"","slug":"/hn/25717390","title":"What Silicon Valley gets about engineers that traditional companies do not","date":"January 11, 2021","dateISO":"2021-01-11T01:51:41.295Z","datetime":"2021-01-11 01:51","tags":["story","Hacker News"],"image":null,"imageAlt":null,"provider":"Hacker News","thirdPartyId":"25717390","url":"https://news.ycombinator.com/item?id=25717390","originalUrl":"https://blog.pragmaticengineer.com/what-silicon-valley-gets-right-on-software-engineers/","imageRemote":"https://blog.pragmaticengineer.com/content/images/2020/10/Screenshot-2020-10-20-at-16.29.33.png","video":null,"channel":null,"channelUrl":null,"author":"gregdoesit","authorUrl":"https://news.ycombinator.com/user?id=gregdoesit","authorImage":null,"authorSlug":null,"score":799,"views":null,"sharedCount":null,"likeCount":null,"sharedContent":null,"parent":{"__typename":"HnJson","localize":[{"title":"硅谷从工程师那里获得了传统公司没有的东西","locale":"zh"},{"title":"硅谷從工程師那裏獲得了傳統公司沒有的東西","locale":"zh-Hant"}]}},{"__typename":"SocialMediaPost","id":"HnPost-25717727","excerpt":"","slug":"/hn/25717727","title":"The M1 MacBook Air is the best computer I've ever owned","date":"January 11, 2021","dateISO":"2021-01-11T01:51:41.295Z","datetime":"2021-01-11 01:51","tags":["story","Hacker News"],"image":null,"imageAlt":null,"provider":"Hacker News","thirdPartyId":"25717727","url":"https://news.ycombinator.com/item?id=25717727","originalUrl":"https://bou.ke/blog/macbouk-air/","imageRemote":"https://bou.ke/images/windows-solitaire.png","video":null,"channel":null,"channelUrl":null,"author":"bouk","authorUrl":"https://news.ycombinator.com/user?id=bouk","authorImage":null,"authorSlug":null,"score":225,"views":null,"sharedCount":null,"likeCount":null,"sharedContent":null,"parent":{"__typename":"HnJson","localize":[{"title":"M1 MacBook Air是我拥有过的最好的电脑","locale":"zh"},{"title":"M1 MacBook Air是我擁有過的最好的電腦","locale":"zh-Hant"}]}},{"__typename":"SocialMediaPost","id":"HnPost-25722027","excerpt":"","slug":"/hn/25722027","title":"Stripe bans Trump campaign","date":"January 11, 2021","dateISO":"2021-01-11T01:51:41.295Z","datetime":"2021-01-11 01:51","tags":["story","Hacker News"],"image":null,"imageAlt":null,"provider":"Hacker News","thirdPartyId":"25722027","url":"https://news.ycombinator.com/item?id=25722027","originalUrl":"https://www.axios.com/payment-processor-stripe-bans-trump-campaign-0f55ff23-973b-4168-9f9c-0992b9a26d08.html","imageRemote":"https://images.axios.com/cnhKlgrMTy6W8KlHcus2JYkmdyw=/0x424:5961x3777/1366x768/2021/01/10/1610322715668.jpg","video":null,"channel":null,"channelUrl":null,"author":"benguillet","authorUrl":"https://news.ycombinator.com/user?id=benguillet","authorImage":null,"authorSlug":null,"score":672,"views":null,"sharedCount":null,"likeCount":null,"sharedContent":null,"parent":{"__typename":"HnJson","localize":[{"title":"Stripe禁止特朗普竞选","locale":"zh"},{"title":"Stripe禁止特朗普競選","locale":"zh-Hant"}]}},{"__typename":"SocialMediaPost","id":"HnPost-25715431","excerpt":"","slug":"/hn/25715431","title":"GCC Rust: GCC Front-End for Rust","date":"January 10, 2021","dateISO":"2021-01-10T23:11:47.016Z","datetime":"2021-01-10 23:11","tags":["story","Hacker News"],"image":null,"imageAlt":null,"provider":"Hacker News","thirdPartyId":"25715431","url":"https://news.ycombinator.com/item?id=25715431","originalUrl":"https://github.com/Rust-GCC/gccrs","imageRemote":"https://repository-images.githubusercontent.com/13653100/cd452f00-4522-11eb-8083-9fa49a8c8916","video":null,"channel":null,"channelUrl":null,"author":"varbhat","authorUrl":"https://news.ycombinator.com/user?id=varbhat","authorImage":null,"authorSlug":null,"score":312,"views":null,"sharedCount":null,"likeCount":null,"sharedContent":null,"parent":{"__typename":"HnJson","localize":[{"title":"GCCRust：GCC为Rust做前端","locale":"zh"},{"title":"GCCRust語言：GCC爲Rust語言做前端","locale":"zh-Hant"}]}},{"__typename":"SocialMediaPost","id":"HnPost-25719333","excerpt":"","slug":"/hn/25719333","title":"Facebook buying ads for Messenger to be top result when you search for 'Signal'","date":"January 10, 2021","dateISO":"2021-01-10T23:11:47.016Z","datetime":"2021-01-10 23:11","tags":["story","Hacker News"],"image":null,"imageAlt":null,"provider":"Hacker News","thirdPartyId":"25719333","url":"https://news.ycombinator.com/item?id=25719333","originalUrl":"https://twitter.com/signalapp/status/1348079223701794819/","imageRemote":null,"video":null,"channel":null,"channelUrl":null,"author":"ffpip","authorUrl":"https://news.ycombinator.com/user?id=ffpip","authorImage":null,"authorSlug":null,"score":643,"views":null,"sharedCount":null,"likeCount":null,"sharedContent":null,"parent":{"__typename":"HnJson","localize":[{"title":"Facebook为Messenger购买广告将成为你搜索“Signal”的首选结果","locale":"zh"},{"title":"Facebook爲Messenger購買廣告將成爲你搜索“Signal”的首選結果","locale":"zh-Hant"}]}},{"__typename":"SocialMediaPost","id":"HnPost-25714685","excerpt":"","slug":"/hn/25714685","title":"Element – All-in-one secure chat app for teams, friends and organisations","date":"January 10, 2021","dateISO":"2021-01-10T20:41:51.988Z","datetime":"2021-01-10 20:41","tags":["story","Hacker News"],"image":null,"imageAlt":null,"provider":"Hacker News","thirdPartyId":"25714685","url":"https://news.ycombinator.com/item?id=25714685","originalUrl":"https://element.io/","imageRemote":"https://static.element.io/images/open-graph-large.png","video":null,"channel":null,"channelUrl":null,"author":"dunefox","authorUrl":"https://news.ycombinator.com/user?id=dunefox","authorImage":null,"authorSlug":null,"score":284,"views":null,"sharedCount":null,"likeCount":null,"sharedContent":null,"parent":{"__typename":"HnJson","localize":[{"title":"适用于团队、朋友和组织的Element-All-One安全聊天应用","locale":"zh"},{"title":"適用於團隊、朋友和組織的Element-All-One安全聊天應用","locale":"zh-Hant"}]}},{"__typename":"SocialMediaPost","id":"HnPost-25714805","excerpt":"","slug":"/hn/25714805","title":"Cabal: A peer-to-peer, off-grid, community-first, hackable chat platform","date":"January 10, 2021","dateISO":"2021-01-10T20:41:51.988Z","datetime":"2021-01-10 20:41","tags":["story","Hacker News"],"image":null,"imageAlt":null,"provider":"Hacker News","thirdPartyId":"25714805","url":"https://news.ycombinator.com/item?id=25714805","originalUrl":"https://cabal.chat/","imageRemote":"https://cabal.chat/desktop.png","video":null,"channel":null,"channelUrl":null,"author":"yosoyubik","authorUrl":"https://news.ycombinator.com/user?id=yosoyubik","authorImage":null,"authorSlug":null,"score":384,"views":null,"sharedCount":null,"likeCount":null,"sharedContent":null,"parent":{"__typename":"HnJson","localize":[{"title":"阴谋：一个点对点的、离网的、社区优先的、可黑客攻击的聊天平台","locale":"zh"},{"title":"陰謀：一個點對點的、離網的、社區優先的、可黑客攻擊的聊天平臺","locale":"zh-Hant"}]}},{"__typename":"SocialMediaPost","id":"HnPost-25712949","excerpt":"","slug":"/hn/25712949","title":"Build Your Own Text Editor","date":"January 10, 2021","dateISO":"2021-01-10T20:07:31.742Z","datetime":"2021-01-10 20:07","tags":["story","Hacker News"],"image":null,"imageAlt":null,"provider":"Hacker News","thirdPartyId":"25712949","url":"https://news.ycombinator.com/item?id=25712949","originalUrl":"http://viewsourcecode.org/snaptoken/kilo/","imageRemote":null,"video":null,"channel":null,"channelUrl":null,"author":"Tomte","authorUrl":"https://news.ycombinator.com/user?id=Tomte","authorImage":null,"authorSlug":null,"score":322,"views":null,"sharedCount":null,"likeCount":null,"sharedContent":null,"parent":{"__typename":"HnJson","localize":[{"title":"构建您自己的文本编辑器","locale":"zh"},{"title":"構建您自己的文本編輯器","locale":"zh-Hant"}]}},{"__typename":"SocialMediaPost","id":"HnPost-25715781","excerpt":"","slug":"/hn/25715781","title":"Chemisty of Cast-Iron Seasoning: A Science-Based How-To (2010)","date":"January 10, 2021","dateISO":"2021-01-10T20:07:31.742Z","datetime":"2021-01-10 20:07","tags":["story","Hacker News"],"image":null,"imageAlt":null,"provider":"Hacker News","thirdPartyId":"25715781","url":"https://news.ycombinator.com/item?id=25715781","originalUrl":"http://sherylcanter.com/wordpress/2010/01/a-science-based-technique-for-seasoning-cast-iron/","imageRemote":"http://sherylcanter.com/wordpress/wp-content/uploads/2010/01/GriswoldSkillet7_closeups.jpg","video":null,"channel":null,"channelUrl":null,"author":"Tomte","authorUrl":"https://news.ycombinator.com/user?id=Tomte","authorImage":null,"authorSlug":null,"score":346,"views":null,"sharedCount":null,"likeCount":null,"sharedContent":null,"parent":{"__typename":"HnJson","localize":[{"title":"铸铁调味料的化学：基于科学的操作方法(2010)","locale":"zh"},{"title":"鑄鐵調味料的化學：基於科學的操作方法(2010)","locale":"zh-Hant"}]}},{"__typename":"SocialMediaPost","id":"HnPost-25716581","excerpt":"","slug":"/hn/25716581","title":"Algorithms for Decision Making","date":"January 10, 2021","dateISO":"2021-01-10T20:07:31.742Z","datetime":"2021-01-10 20:07","tags":["story","Hacker News"],"image":null,"imageAlt":null,"provider":"Hacker News","thirdPartyId":"25716581","url":"https://news.ycombinator.com/item?id=25716581","originalUrl":"http://algorithmsbook.com/","imageRemote":null,"video":null,"channel":null,"channelUrl":null,"author":"Dowwie","authorUrl":"https://news.ycombinator.com/user?id=Dowwie","authorImage":null,"authorSlug":null,"score":688,"views":null,"sharedCount":null,"likeCount":null,"sharedContent":null,"parent":{"__typename":"HnJson","localize":[{"title":"用于决策的算法","locale":"zh"},{"title":"用於決策的算法","locale":"zh-Hant"}]}},{"__typename":"SocialMediaPost","id":"HnPost-25714664","excerpt":"","slug":"/hn/25714664","title":"Twitter deletes China embassy's Xinjiang 'emancipation' tweet","date":"January 10, 2021","dateISO":"2021-01-10T19:02:59.369Z","datetime":"2021-01-10 19:02","tags":["story","Hacker News"],"image":null,"imageAlt":null,"provider":"Hacker News","thirdPartyId":"25714664","url":"https://news.ycombinator.com/item?id=25714664","originalUrl":"https://www.bbc.com/news/world-asia-china-55608089","imageRemote":"https://ichef.bbci.co.uk/news/1024/branded_news/ACBD/production/_116412244_gettyimages-1174962800.jpg","video":null,"channel":null,"channelUrl":null,"author":"farseer","authorUrl":"https://news.ycombinator.com/user?id=farseer","authorImage":null,"authorSlug":null,"score":269,"views":null,"sharedCount":null,"likeCount":null,"sharedContent":null,"parent":{"__typename":"HnJson","localize":[{"title":"推特删除中国大使馆在新疆的“解放”推文","locale":"zh"},{"title":"推特刪除中國大使館在新疆的“解放”推文","locale":"zh-Hant"}]}},{"__typename":"SocialMediaPost","id":"HnPost-25713050","excerpt":"","slug":"/hn/25713050","title":"Ecosia – A search engine that plants trees","date":"January 10, 2021","dateISO":"2021-01-10T18:20:44.697Z","datetime":"2021-01-10 18:20","tags":["story","Hacker News"],"image":null,"imageAlt":null,"provider":"Hacker News","thirdPartyId":"25713050","url":"https://news.ycombinator.com/item?id=25713050","originalUrl":"https://www.ecosia.org/","imageRemote":"https://cdn.ecosia.org/og/facebook.jpg","video":null,"channel":null,"channelUrl":null,"author":"fossislife","authorUrl":"https://news.ycombinator.com/user?id=fossislife","authorImage":null,"authorSlug":null,"score":297,"views":null,"sharedCount":null,"likeCount":null,"sharedContent":null,"parent":{"__typename":"HnJson","localize":[{"title":"Ecosia-植树搜索引擎","locale":"zh"},{"title":"Ecosia-植樹搜索引擎","locale":"zh-Hant"}]}},{"__typename":"SocialMediaPost","id":"HnPost-25713830","excerpt":"","slug":"/hn/25713830","title":"Scuttlebutt – A decentralized secure gossip platform","date":"January 10, 2021","dateISO":"2021-01-10T18:20:44.697Z","datetime":"2021-01-10 18:20","tags":["story","Hacker News"],"image":null,"imageAlt":null,"provider":"Hacker News","thirdPartyId":"25713830","url":"https://news.ycombinator.com/item?id=25713830","originalUrl":"https://scuttlebutt.nz/index","imageRemote":"https://scuttlebutt.nz/images/app-icons/hermiepatchwork.svg","video":null,"channel":null,"channelUrl":null,"author":"dgellow","authorUrl":"https://news.ycombinator.com/user?id=dgellow","authorImage":null,"authorSlug":null,"score":344,"views":null,"sharedCount":null,"likeCount":null,"sharedContent":null,"parent":{"__typename":"HnJson","localize":[{"title":"scuttlebutt--一个去中心化的安全八卦平台","locale":"zh"},{"title":"scuttlebutt--一個去中心化的安全八卦平臺","locale":"zh-Hant"}]}},{"__typename":"SocialMediaPost","id":"HnPost-25710151","excerpt":"","slug":"/hn/25710151","title":"Skynet – Build a Free Internet","date":"January 10, 2021","dateISO":"2021-01-10T17:12:10.172Z","datetime":"2021-01-10 17:12","tags":["story","Hacker News"],"image":null,"imageAlt":null,"provider":"Hacker News","thirdPartyId":"25710151","url":"https://news.ycombinator.com/item?id=25710151","originalUrl":"https://siasky.net/","imageRemote":"https://siasky.net/icons/icon-512x512.png","video":null,"channel":null,"channelUrl":null,"author":"thesausageking","authorUrl":"https://news.ycombinator.com/user?id=thesausageking","authorImage":null,"authorSlug":null,"score":259,"views":null,"sharedCount":null,"likeCount":null,"sharedContent":null,"parent":{"__typename":"HnJson","localize":[{"title":"天网-打造免费互联网","locale":"zh"},{"title":"天網-打造免費互聯網","locale":"zh-Hant"}]}},{"__typename":"SocialMediaPost","id":"HnPost-25713704","excerpt":"","slug":"/hn/25713704","title":"A Polar Vortex collapse sequence has begun","date":"January 10, 2021","dateISO":"2021-01-10T16:04:20.111Z","datetime":"2021-01-10 16:04","tags":["story","Hacker News"],"image":null,"imageAlt":null,"provider":"Hacker News","thirdPartyId":"25713704","url":"https://news.ycombinator.com/item?id=25713704","originalUrl":"https://www.severe-weather.eu/global-weather/polar-vortex-collapse-winter-weather-europe-united-states-2021-fa/","imageRemote":"https://www.severe-weather.eu/wp-content/uploads/2021/01/polar-vortex-breakdown-stratospheric-warming-winter-weather-forecast-united-states-europe.png","video":null,"channel":null,"channelUrl":null,"author":"makepanic","authorUrl":"https://news.ycombinator.com/user?id=makepanic","authorImage":null,"authorSlug":null,"score":268,"views":null,"sharedCount":null,"likeCount":null,"sharedContent":null,"parent":{"__typename":"HnJson","localize":[{"title":"极地涡旋塌陷序列已经开始","locale":"zh"},{"title":"極地渦旋塌陷序列已經開始","locale":"zh-Hant"}]}},{"__typename":"SocialMediaPost","id":"HnPost-25681229","excerpt":"","slug":"/hn/25681229","title":"'Exercised' Explains Why It Can Be Hard to Commit to Working Out","date":"January 10, 2021","dateISO":"2021-01-10T15:32:20.094Z","datetime":"2021-01-10 15:32","tags":["story","Hacker News"],"image":null,"imageAlt":null,"provider":"Hacker News","thirdPartyId":"25681229","url":"https://news.ycombinator.com/item?id=25681229","originalUrl":"https://www.npr.org/2021/01/05/953249677/exercised-explains-why-it-can-be-hard-to-commit-to-working-out-and-why-we-should","imageRemote":"https://media.npr.org/assets/img/2021/01/05/exercised_wide-c549b115df265258cb5f90cb0be97633573597ce.jpg?s=1400","video":null,"channel":null,"channelUrl":null,"author":"Hooke","authorUrl":"https://news.ycombinator.com/user?id=Hooke","authorImage":null,"authorSlug":null,"score":207,"views":null,"sharedCount":null,"likeCount":null,"sharedContent":null,"parent":{"__typename":"HnJson","localize":[{"title":"“锻炼”解释了为什么很难致力于锻炼","locale":"zh"},{"title":"“鍛鍊”解釋了爲什麼很難致力於鍛鍊","locale":"zh-Hant"}]}},{"__typename":"SocialMediaPost","id":"HnPost-25707332","excerpt":"","slug":"/hn/25707332","title":"EFF's response to social media companies' decisions to block Trump’s accounts","date":"January 10, 2021","dateISO":"2021-01-10T13:23:25.073Z","datetime":"2021-01-10 13:23","tags":["story","Hacker News"],"image":null,"imageAlt":null,"provider":"Hacker News","thirdPartyId":"25707332","url":"https://news.ycombinator.com/item?id=25707332","originalUrl":"https://www.eff.org/deeplinks/2021/01/eff-response-social-media-companies-decision-block-president-trumps-accounts","imageRemote":"https://www.eff.org/files/banner_library/trump-twitter-1.jpg","video":null,"channel":null,"channelUrl":null,"author":"jelliclesfarm","authorUrl":"https://news.ycombinator.com/user?id=jelliclesfarm","authorImage":null,"authorSlug":null,"score":229,"views":null,"sharedCount":null,"likeCount":null,"sharedContent":null,"parent":{"__typename":"HnJson","localize":[{"title":"EFF对社交媒体公司决定开通挡路特朗普账户的回应","locale":"zh"},{"title":"EFF對社交媒體公司決定開通擋路特朗普賬戶的迴應","locale":"zh-Hant"}]}},{"__typename":"SocialMediaPost","id":"HnPost-25704433","excerpt":"","slug":"/hn/25704433","title":"Ugandan government blocks Google Play Store, Apple App Store, and YouTube","date":"January 10, 2021","dateISO":"2021-01-10T09:25:03.792Z","datetime":"2021-01-10 09:25","tags":["story","Hacker News"],"image":null,"imageAlt":null,"provider":"Hacker News","thirdPartyId":"25704433","url":"https://news.ycombinator.com/item?id=25704433","originalUrl":"https://techjaja.com/govt-blocks-google-playstore-apple-appstore-and-youtube/","imageRemote":"https://techjaja.com/wp-content/uploads/2021/01/UCC-blocks-app-stores-and-youtube.jpg","video":null,"channel":null,"channelUrl":null,"author":"drsim","authorUrl":"https://news.ycombinator.com/user?id=drsim","authorImage":null,"authorSlug":null,"score":263,"views":null,"sharedCount":null,"likeCount":null,"sharedContent":null,"parent":{"__typename":"HnJson","localize":[{"title":"乌干达政府屏蔽Google Play Store、Apple App Store和YouTube","locale":"zh"},{"title":"烏干達政府屏蔽Google Play Store、Apple App Store和YouTube","locale":"zh-Hant"}]}},{"__typename":"SocialMediaPost","id":"HnPost-25704208","excerpt":"","slug":"/hn/25704208","title":"Advice from a 104-year-old PhD student [video]","date":"January 10, 2021","dateISO":"2021-01-10T08:54:44.807Z","datetime":"2021-01-10 08:54","tags":["story","Hacker News"],"image":null,"imageAlt":null,"provider":"Hacker News","thirdPartyId":"25704208","url":"https://news.ycombinator.com/item?id=25704208","originalUrl":"https://www.bbc.com/reel/video/p090s793/advice-from-a-104-year-old-phd-student","imageRemote":"https://ychef.files.bbci.co.uk/1376x774/p090tmd9.jpg","video":null,"channel":null,"channelUrl":null,"author":"hmart","authorUrl":"https://news.ycombinator.com/user?id=hmart","authorImage":null,"authorSlug":null,"score":233,"views":null,"sharedCount":null,"likeCount":null,"sharedContent":null,"parent":{"__typename":"HnJson","localize":[{"title":"一位104岁博士生的建议[视频]","locale":"zh"},{"title":"一位104歲博士生的建議[視頻]","locale":"zh-Hant"}]}},{"__typename":"SocialMediaPost","id":"HnPost-25710055","excerpt":"","slug":"/hn/25710055","title":"Wikipedia is 20","date":"January 10, 2021","dateISO":"2021-01-10T08:10:36.827Z","datetime":"2021-01-10 08:10","tags":["story","Hacker News"],"image":null,"imageAlt":null,"provider":"Hacker News","thirdPartyId":"25710055","url":"https://news.ycombinator.com/item?id=25710055","originalUrl":"https://www.economist.com/international/2021/01/09/wikipedia-is-20-and-its-reputation-has-never-been-higher","imageRemote":"https://www.economist.com/img/b/1280/720/90/sites/default/files/images/print-edition/20210109_IRD001_0.jpg","video":null,"channel":null,"channelUrl":null,"author":"kylebarron","authorUrl":"https://news.ycombinator.com/user?id=kylebarron","authorImage":null,"authorSlug":null,"score":729,"views":null,"sharedCount":null,"likeCount":null,"sharedContent":null,"parent":{"__typename":"HnJson","localize":[{"title":"维基百科20岁","locale":"zh"},{"title":"維基百科20歲","locale":"zh-Hant"}]}},{"__typename":"SocialMediaPost","id":"HnPost-25706252","excerpt":"","slug":"/hn/25706252","title":"An Invisible Tax on the Web: Video Codecs (2018)","date":"January 10, 2021","dateISO":"2021-01-10T07:42:46.663Z","datetime":"2021-01-10 07:42","tags":["story","Hacker News"],"image":null,"imageAlt":null,"provider":"Hacker News","thirdPartyId":"25706252","url":"https://news.ycombinator.com/item?id=25706252","originalUrl":"https://blog.mozilla.org/blog/2018/07/11/royalty-free-web-video-codecs/","imageRemote":"https://blog.mozilla.org/wp-content/uploads/2018/07/SP_Moz.org_Blogheader_AV1-18-1400x700.png","video":null,"channel":null,"channelUrl":null,"author":"doener","authorUrl":"https://news.ycombinator.com/user?id=doener","authorImage":null,"authorSlug":null,"score":314,"views":null,"sharedCount":null,"likeCount":null,"sharedContent":null,"parent":{"__typename":"HnJson","localize":[{"title":"网络上的无形之税：视频编解码器(2018)","locale":"zh"},{"title":"網絡上的無形之稅：視頻編解碼器(2018)","locale":"zh-Hant"}]}}]}},"pageContext":{"basePath":"/","pageType":"tag","tag":"Hacker News","tagsFilter":{"id":{"glob":"!*Post-1"}},"filter":{"id":{"glob":"!*Post-1"},"tags":{"eq":"Hacker News"}},"limit":25,"skip":2275,"total":3105,"totalPages":125,"currentPage":92,"maxWidth":1024,"maxHeight":512,"locale":"en","hrefLang":"en-US","originalPath":"/tags/hacker-news/page/92","dateFormat":"MM/DD/YYYY"}},"staticQueryHashes":["1239077767","2506312863","2744905544","3025052997","3493603132","3493603132","3513215887","386998304"]}