{"componentChunkName":"component---gatsby-theme-buzzing-src-gatsby-theme-timeline-templates-posts-query-js","path":"/page/309","result":{"data":{"site":{"siteMetadata":{"title":"Reddit 热门","description":"用中文浏览Reddit热门内容","social":[{"name":"Twitter","url":"https://twitter.com/gatsbyjs","external":null,"prefetch":null},{"name":"GitHub","url":"https://github.com/gatsbyjs","external":null,"prefetch":null}],"menuLinks":[],"localize":[{"locale":"en","title":"Buzzing on Reddit","description":"See what's buzzing on Reddit in your native language","social":[{"name":"Reddit","url":"https://www.reddit.com/","external":true,"prefetch":null}],"menuLinks":[{"name":"Weekly Selection","url":"/issues","external":null,"prefetch":null},{"name":"RSS","url":"/rss.xml","external":null,"prefetch":false}]},{"locale":"zh-Hant","title":"Reddit 熱門","description":"用中文瀏覽Reddit熱門內容","social":null,"menuLinks":null}]}},"tagsGroup":{"group":[{"fieldValue":"ASK HN","totalCount":42},{"fieldValue":"Bitcoin","totalCount":4},{"fieldValue":"Hacker News","totalCount":2409},{"fieldValue":"Poll","totalCount":1},{"fieldValue":"SaveAMC","totalCount":1},{"fieldValue":"Show HN","totalCount":81},{"fieldValue":"bitcoin","totalCount":3},{"fieldValue":"investing","totalCount":755},{"fieldValue":"poll","totalCount":1},{"fieldValue":"reddit","totalCount":4525},{"fieldValue":"science","totalCount":1},{"fieldValue":"stocks","totalCount":1482},{"fieldValue":"story","totalCount":2408},{"fieldValue":"tweet","totalCount":767},{"fieldValue":"wallstreetbets","totalCount":2288}]},"allBlogPost":{"nodes":[{"__typename":"SocialMediaPost","id":"TweetPost-1325792060566286337","excerpt":"","slug":"/tweet/1325792060566286337","title":"Leisure and hospitality stocks are gonna go nuts.\n\nFour seasons total landscaping  upgraded to five seasons. +15% pre market.","date":"November 09, 2020","dateISO":"2020-11-09T13:27:13.000Z","datetime":"2020-11-09 13:27","tags":["tweet"],"image":null,"imageAlt":null,"provider":"Twitter","thirdPartyId":"1325792060566286337","url":"https://twitter.com/michaelbatnick/statuses/1325792060566286337","originalUrl":null,"imageRemote":null,"video":null,"channel":null,"channelUrl":null,"author":"Michael Batnick","authorUrl":"https://twitter.com/michaelbatnick","authorImage":{"childImageSharp":{"fixed":{"base64":"data:image/jpeg;base64,/9j/2wBDABALDA4MChAODQ4SERATGCgaGBYWGDEjJR0oOjM9PDkzODdASFxOQERXRTc4UG1RV19iZ2hnPk1xeXBkeFxlZ2P/2wBDARESEhgVGC8aGi9jQjhCY2NjY2NjY2NjY2NjY2NjY2NjY2NjY2NjY2NjY2NjY2NjY2NjY2NjY2NjY2NjY2NjY2P/wgARCAAUABQDASIAAhEBAxEB/8QAGAABAAMBAAAAAAAAAAAAAAAAAAEDBAL/xAAUAQEAAAAAAAAAAAAAAAAAAAAA/9oADAMBAAIQAxAAAAGNuWoucjACsH//xAAbEAACAgMBAAAAAAAAAAAAAAABAgADEBEiEv/aAAgBAQABBQIxtYu8VBbVVQdxurrFUKh5/8QAFBEBAAAAAAAAAAAAAAAAAAAAIP/aAAgBAwEBPwEf/8QAFBEBAAAAAAAAAAAAAAAAAAAAIP/aAAgBAgEBPwEf/8QAHBAAAQQDAQAAAAAAAAAAAAAAAQACECERUXLh/9oACAEBAAY/AvFUC3ErqL2nYEf/xAAdEAEAAwABBQAAAAAAAAAAAAABABEhMRBBUXGB/9oACAEBAAE/Ia8RZqEM6O4Q2hJa1deYAsSYefH5FABGd8D7n//aAAwDAQACAAMAAAAQIw88/8QAFBEBAAAAAAAAAAAAAAAAAAAAIP/aAAgBAwEBPxAf/8QAFBEBAAAAAAAAAAAAAAAAAAAAIP/aAAgBAgEBPxAf/8QAHRABAQEAAgIDAAAAAAAAAAAAAREAIUExcVFhkf/aAAgBAQABPxAkKCk7YVQFJ06FfeGRWAofmQuAw5Q81PepmH7zk4UMfgyY2oAS8c5OgMo3/9k=","width":48,"height":48,"src":"/static/306bb4ace8827b52461381b81e1a5577/ffcc9/rNWwlpQL.jpg","srcSet":"/static/306bb4ace8827b52461381b81e1a5577/ffcc9/rNWwlpQL.jpg 1x,\n/static/306bb4ace8827b52461381b81e1a5577/3e51d/rNWwlpQL.jpg 1.5x,\n/static/306bb4ace8827b52461381b81e1a5577/eee8e/rNWwlpQL.jpg 2x"}}},"authorSlug":"michaelbatnick","score":1044,"views":null,"sharedCount":40,"likeCount":964,"sharedContent":null,"parent":{"__typename":"TweetJson","localize":[{"locale":"zh","full_text":"休闲和酒店类股要疯了。\n\n四季总园林绿化升级为五季。上市前+15%。","quoted_status_full_text":null,"retweeted_status_full_text":null},{"locale":"zh-Hant","full_text":"休閒和酒店類股要瘋了。\n\n四季總園林綠化升級爲五季。上市前+15%。","quoted_status_full_text":null,"retweeted_status_full_text":null}]}}]}},"pageContext":{"basePath":"/","pageType":"home","tagsFilter":{"id":{"glob":"!*Post-1"}},"filter":{"id":{"glob":"!*Post-1"}},"limit":25,"skip":7700,"totalPages":309,"total":7701,"currentPage":309,"maxWidth":1024,"maxHeight":512,"locale":"zh","hrefLang":"zh-Hans","originalPath":"/page/309","dateFormat":"YYYY-MM-DD"}},"staticQueryHashes":["1239077767","2506312863","2744905544","3025052997","3493603132","3493603132","3513215887","386998304"]}