{"componentChunkName":"component---gatsby-theme-buzzing-src-gatsby-theme-timeline-templates-posts-query-js","path":"/zh-Hant/tags/story/page/32","result":{"data":{"site":{"siteMetadata":{"title":"Reddit 热门","description":"用中文浏览Reddit热门内容","social":[{"name":"Twitter","url":"https://twitter.com/gatsbyjs","external":null,"prefetch":null},{"name":"GitHub","url":"https://github.com/gatsbyjs","external":null,"prefetch":null}],"menuLinks":[],"localize":[{"locale":"en","title":"Buzzing on Reddit","description":"See what's buzzing on Reddit in your native language","social":[{"name":"Reddit","url":"https://www.reddit.com/","external":true,"prefetch":null}],"menuLinks":[{"name":"Weekly Selection","url":"/issues","external":null,"prefetch":null},{"name":"RSS","url":"/rss.xml","external":null,"prefetch":false}]},{"locale":"zh-Hant","title":"Reddit 熱門","description":"用中文瀏覽Reddit熱門內容","social":null,"menuLinks":null}]}},"tagsGroup":{"group":[{"fieldValue":"ASK HN","totalCount":22},{"fieldValue":"Bitcoin","totalCount":3},{"fieldValue":"Hacker News","totalCount":920},{"fieldValue":"Poll","totalCount":1},{"fieldValue":"Show HN","totalCount":34},{"fieldValue":"investing","totalCount":197},{"fieldValue":"poll","totalCount":1},{"fieldValue":"reddit","totalCount":777},{"fieldValue":"science","totalCount":1},{"fieldValue":"stocks","totalCount":336},{"fieldValue":"story","totalCount":919},{"fieldValue":"tweet","totalCount":275},{"fieldValue":"wallstreetbets","totalCount":244}]},"allBlogPost":{"nodes":[{"__typename":"SocialMediaPost","id":"HnPost-25477110","excerpt":"","slug":"/hn/25477110","title":"Great American Rail Trail - A new way to travel across the US","date":"December 19, 2020","dateISO":"2020-12-19T16:48:24.329Z","datetime":"2020-12-19 16:48","tags":["story","Hacker News"],"image":null,"imageAlt":null,"provider":"Hacker News","thirdPartyId":"25477110","url":"https://news.ycombinator.com/item?id=25477110","originalUrl":"http://www.bbc.com/travel/story/20201213-a-new-way-to-travel-across-the-us","imageRemote":"https://ychef.files.bbci.co.uk/624x351/p09023nh.jpg","video":null,"channel":null,"channelUrl":null,"author":"pseudolus","authorUrl":"https://news.ycombinator.com/user?id=pseudolus","authorImage":null,"authorSlug":null,"score":315,"views":null,"sharedCount":null,"likeCount":null,"sharedContent":null,"parent":{"__typename":"HnJson","localize":[{"title":"伟大的美国铁路小径-一种穿越美国的新方式","locale":"zh"},{"title":"偉大的美國鐵路小徑-一種穿越美國的新方式","locale":"zh-Hant"}]}},{"__typename":"SocialMediaPost","id":"HnPost-25477535","excerpt":"","slug":"/hn/25477535","title":"How AltaVista, our first good search engine, fell into the digital abyss","date":"December 19, 2020","dateISO":"2020-12-19T16:48:24.329Z","datetime":"2020-12-19 16:48","tags":["story","Hacker News"],"image":null,"imageAlt":null,"provider":"Hacker News","thirdPartyId":"25477535","url":"https://news.ycombinator.com/item?id=25477535","originalUrl":"https://tedium.co/2020/12/15/altavista-history-digital-dot-com-domain-name","imageRemote":"https://images.tedium.co/uploads/tedium121520.gif","video":null,"channel":null,"channelUrl":null,"author":"chris_f","authorUrl":"https://news.ycombinator.com/user?id=chris_f","authorImage":null,"authorSlug":null,"score":348,"views":null,"sharedCount":null,"likeCount":null,"sharedContent":null,"parent":{"__typename":"HnJson","localize":[{"title":"我们第一个优秀的搜索引擎AltaVista是如何跌入数字深渊的","locale":"zh"},{"title":"我們第一個優秀的搜索引擎AltaVista是如何跌入數字深淵的","locale":"zh-Hant"}]}},{"__typename":"SocialMediaPost","id":"HnPost-25477664","excerpt":"","slug":"/hn/25477664","title":"California plan for a wealth tax on anyone who spends 60 days/year in the state","date":"December 19, 2020","dateISO":"2020-12-19T16:48:24.329Z","datetime":"2020-12-19 16:48","tags":["story","Hacker News"],"image":null,"imageAlt":null,"provider":"Hacker News","thirdPartyId":"25477664","url":"https://news.ycombinator.com/item?id=25477664","originalUrl":"https://www.wsj.com/articles/a-california-plan-to-chase-away-the-rich-then-keep-stalking-them-11608331448","imageRemote":"https://images.wsj.net/im-275197/social","video":null,"channel":null,"channelUrl":null,"author":"Bostonian","authorUrl":"https://news.ycombinator.com/user?id=Bostonian","authorImage":null,"authorSlug":null,"score":246,"views":null,"sharedCount":null,"likeCount":null,"sharedContent":null,"parent":{"__typename":"HnJson","localize":[{"title":"加州计划对任何在该州停留60天/年的人征收财产税","locale":"zh"},{"title":"加州計劃對任何在該州停留60天/年的人徵收財產稅","locale":"zh-Hant"}]}},{"__typename":"SocialMediaPost","id":"HnPost-25477734","excerpt":"","slug":"/hn/25477734","title":"Facebook: Free as in Bullshit","date":"December 19, 2020","dateISO":"2020-12-19T16:48:24.329Z","datetime":"2020-12-19 16:48","tags":["story","Hacker News"],"image":null,"imageAlt":null,"provider":"Hacker News","thirdPartyId":"25477734","url":"https://news.ycombinator.com/item?id=25477734","originalUrl":"https://daringfireball.net/2020/12/facebook_free_as_in_bullshit","imageRemote":"https://daringfireball.net/graphics/df-square-1024.png","video":null,"channel":null,"channelUrl":null,"author":"throw0101a","authorUrl":"https://news.ycombinator.com/user?id=throw0101a","authorImage":null,"authorSlug":null,"score":555,"views":null,"sharedCount":null,"likeCount":null,"sharedContent":null,"parent":{"__typename":"HnJson","localize":[{"title":"Facebook：免费，就像胡说八道","locale":"zh"},{"title":"Facebook：免費，就像胡說八道","locale":"zh-Hant"}]}},{"__typename":"SocialMediaPost","id":"HnPost-25476545","excerpt":"","slug":"/hn/25476545","title":"The Algorithmic Beauty of Plants","date":"December 19, 2020","dateISO":"2020-12-19T16:02:13.411Z","datetime":"2020-12-19 16:02","tags":["story","Hacker News"],"image":null,"imageAlt":null,"provider":"Hacker News","thirdPartyId":"25476545","url":"https://news.ycombinator.com/item?id=25476545","originalUrl":"http://algorithmicbotany.org/papers/#abop","imageRemote":"http://algorithmicbotany.org/bannerLoRes.png","video":null,"channel":null,"channelUrl":null,"author":"ingve","authorUrl":"https://news.ycombinator.com/user?id=ingve","authorImage":null,"authorSlug":null,"score":206,"views":null,"sharedCount":null,"likeCount":null,"sharedContent":null,"parent":{"__typename":"HnJson","localize":[{"title":"植物的算法美","locale":"zh"},{"title":"植物的算法美","locale":"zh-Hant"}]}},{"__typename":"SocialMediaPost","id":"HnPost-25476605","excerpt":"","slug":"/hn/25476605","title":"How Shopify Uses WebAssembly Outside of the Browser","date":"December 19, 2020","dateISO":"2020-12-19T14:44:33.206Z","datetime":"2020-12-19 14:44","tags":["story","Hacker News"],"image":null,"imageAlt":null,"provider":"Hacker News","thirdPartyId":"25476605","url":"https://news.ycombinator.com/item?id=25476605","originalUrl":"https://shopify.engineering/shopify-webassembly","imageRemote":"https://cdn.shopify.com/s/files/1/0779/4361/articles/frustrated-man-on-computer.jpg?v=1608300101","video":null,"channel":null,"channelUrl":null,"author":"oedmarap","authorUrl":"https://news.ycombinator.com/user?id=oedmarap","authorImage":null,"authorSlug":null,"score":243,"views":null,"sharedCount":null,"likeCount":null,"sharedContent":null,"parent":{"__typename":"HnJson","localize":[{"title":"Shopify如何在浏览器外部使用WebAssembly","locale":"zh"},{"title":"Shopify如何在瀏覽器外部使用WebAssembly","locale":"zh-Hant"}]}},{"__typename":"SocialMediaPost","id":"HnPost-25464354","excerpt":"","slug":"/hn/25464354","title":"Perceus: Garbage Free Reference Counting with Reuse [pdf]","date":"December 19, 2020","dateISO":"2020-12-19T12:59:31.064Z","datetime":"2020-12-19 12:59","tags":["story","Hacker News"],"image":null,"imageAlt":null,"provider":"Hacker News","thirdPartyId":"25464354","url":"https://news.ycombinator.com/item?id=25464354","originalUrl":"https://www.microsoft.com/en-us/research/uploads/prod/2020/11/perceus-tr-v1.pdf","imageRemote":null,"video":null,"channel":null,"channelUrl":null,"author":"Bootvis","authorUrl":"https://news.ycombinator.com/user?id=Bootvis","authorImage":null,"authorSlug":null,"score":153,"views":null,"sharedCount":null,"likeCount":null,"sharedContent":null,"parent":{"__typename":"HnJson","localize":[{"title":"Perceus：可重用的无垃圾引用计数[pdf]","locale":"zh"},{"title":"Perceus：可重用的無垃圾引用計數[pdf]","locale":"zh-Hant"}]}},{"__typename":"SocialMediaPost","id":"HnPost-25476470","excerpt":"","slug":"/hn/25476470","title":"Max: Boeing 'inappropriately coached' pilots in test after crashes","date":"December 19, 2020","dateISO":"2020-12-19T12:59:31.064Z","datetime":"2020-12-19 12:59","tags":["story","Hacker News"],"image":null,"imageAlt":null,"provider":"Hacker News","thirdPartyId":"25476470","url":"https://news.ycombinator.com/item?id=25476470","originalUrl":"https://www.bbc.com/news/world-us-canada-55372499","imageRemote":"https://ichef.bbci.co.uk/news/1024/branded_news/5F74/production/_116163442_hi064404561-1.jpg","video":null,"channel":null,"channelUrl":null,"author":"aluket","authorUrl":"https://news.ycombinator.com/user?id=aluket","authorImage":null,"authorSlug":null,"score":229,"views":null,"sharedCount":null,"likeCount":null,"sharedContent":null,"parent":{"__typename":"HnJson","localize":[{"title":"马克斯：波音公司在坠机后的测试中对飞行员进行了“不适当的指导”","locale":"zh"},{"title":"馬克斯：波音公司在墜機後的測試中對飛行員進行了“不適當的指導”","locale":"zh-Hant"}]}},{"__typename":"SocialMediaPost","id":"HnPost-25473330","excerpt":"","slug":"/hn/25473330","title":"Seuss-Star Trek mashup crashes and burns at Ninth Circuit","date":"December 19, 2020","dateISO":"2020-12-19T11:33:33.966Z","datetime":"2020-12-19 11:33","tags":["story","Hacker News"],"image":null,"imageAlt":null,"provider":"Hacker News","thirdPartyId":"25473330","url":"https://news.ycombinator.com/item?id=25473330","originalUrl":"https://www.courthousenews.com/seuss-star-trek-mash-up-crash-lands-with-ninth-circuit/","imageRemote":"https://i1.wp.com/www.courthousenews.com/wp-content/uploads/2020/04/BoldlyGo-ComicMix.jpg?fit=1200%2C776&ssl=1","video":null,"channel":null,"channelUrl":null,"author":"anigbrowl","authorUrl":"https://news.ycombinator.com/user?id=anigbrowl","authorImage":null,"authorSlug":null,"score":102,"views":null,"sharedCount":null,"likeCount":null,"sharedContent":null,"parent":{"__typename":"HnJson","localize":[{"title":"苏斯-星际迷航混搭在第九赛道坠毁和燃烧","locale":"zh"},{"title":"蘇斯-星際迷航混搭在第九賽道墜毀和燃燒","locale":"zh-Hant"}]}},{"__typename":"SocialMediaPost","id":"HnPost-25460032","excerpt":"","slug":"/hn/25460032","title":"Surrealist painting found in recycling bin at German airport","date":"December 19, 2020","dateISO":"2020-12-19T10:55:43.257Z","datetime":"2020-12-19 10:55","tags":["story","Hacker News"],"image":null,"imageAlt":null,"provider":"Hacker News","thirdPartyId":"25460032","url":"https://news.ycombinator.com/item?id=25460032","originalUrl":"https://www.smithsonianmag.com/smart-news/340000-surrealist-painting-was-found-recycling-bin-180976542/","imageRemote":"https://thumbs-prod.si-cdn.com/yyhgs2Gt4UQMnq4kpktJN0T7DWE=/fit-in/1600x0/filters:focal(1862x1171:1863x1172)/https://public-media.si-cdn.com/filer/7c/93/7c93466d-57bc-4a72-a8c1-c5071b2cc1a9/surrealismus2.jpg","video":null,"channel":null,"channelUrl":null,"author":"commons-tragedy","authorUrl":"https://news.ycombinator.com/user?id=commons-tragedy","authorImage":null,"authorSlug":null,"score":116,"views":null,"sharedCount":null,"likeCount":null,"sharedContent":null,"parent":{"__typename":"HnJson","localize":[{"title":"在德国机场回收站发现超现实主义绘画","locale":"zh"},{"title":"在德國機場回收站發現超現實主義繪畫","locale":"zh-Hant"}]}},{"__typename":"SocialMediaPost","id":"HnPost-25474183","excerpt":"","slug":"/hn/25474183","title":"Virtual Machine Detection in the Browser (2019)","date":"December 19, 2020","dateISO":"2020-12-19T09:40:51.531Z","datetime":"2020-12-19 09:40","tags":["story","Hacker News"],"image":null,"imageAlt":null,"provider":"Hacker News","thirdPartyId":"25474183","url":"https://news.ycombinator.com/item?id=25474183","originalUrl":"https://bannedit.github.io/Virtual-Machine-Detection-In-The-Browser.html","imageRemote":"https://bannedit.github.io/resources/profile.png","video":null,"channel":null,"channelUrl":null,"author":"blindm","authorUrl":"https://news.ycombinator.com/user?id=blindm","authorImage":null,"authorSlug":null,"score":164,"views":null,"sharedCount":null,"likeCount":null,"sharedContent":null,"parent":{"__typename":"HnJson","localize":[{"title":"浏览器中的虚拟机检测(2019年)","locale":"zh"},{"title":"瀏覽器中的虛擬機檢測(2019年)","locale":"zh-Hant"}]}},{"__typename":"SocialMediaPost","id":"HnPost-25466919","excerpt":"","slug":"/hn/25466919","title":"API-diff: a tool for side-by-side evaluations of JSON APIs","date":"December 19, 2020","dateISO":"2020-12-19T09:18:56.765Z","datetime":"2020-12-19 09:18","tags":["story","Hacker News"],"image":null,"imageAlt":null,"provider":"Hacker News","thirdPartyId":"25466919","url":"https://news.ycombinator.com/item?id=25466919","originalUrl":"https://radar.io/blog/open-source-api-diff-library","imageRemote":"https://images.ctfassets.net/f2vbu16fzuly/4ezSEexatjCQdzyG6Hz0mE/a3918eea799b02c17dc0b053f2a4daa6/image1.png","video":null,"channel":null,"channelUrl":null,"author":"blackmad","authorUrl":"https://news.ycombinator.com/user?id=blackmad","authorImage":null,"authorSlug":null,"score":107,"views":null,"sharedCount":null,"likeCount":null,"sharedContent":null,"parent":{"__typename":"HnJson","localize":[{"title":"api-diff：JSONAPI并行评估工具","locale":"zh"},{"title":"api-diff：JSONAPI並行評估工具","locale":"zh-Hant"}]}},{"__typename":"SocialMediaPost","id":"HnPost-25473302","excerpt":"","slug":"/hn/25473302","title":"AWS Joins the Blender Development Fund","date":"December 19, 2020","dateISO":"2020-12-19T07:34:05.686Z","datetime":"2020-12-19 07:34","tags":["story","Hacker News"],"image":null,"imageAlt":null,"provider":"Hacker News","thirdPartyId":"25473302","url":"https://news.ycombinator.com/item?id=25473302","originalUrl":"https://www.blender.org/press/aws-joins-the-blender-development-fund/","imageRemote":"https://www.blender.org/wp-content/uploads/2020/12/aws_dev_fund_blender_16x9-480x270.png","video":null,"channel":null,"channelUrl":null,"author":"EMIRELADERO","authorUrl":"https://news.ycombinator.com/user?id=EMIRELADERO","authorImage":null,"authorSlug":null,"score":137,"views":null,"sharedCount":null,"likeCount":null,"sharedContent":null,"parent":{"__typename":"HnJson","localize":[{"title":"AWS加入搅拌机发展基金","locale":"zh"},{"title":"AWS加入攪拌機發展基金","locale":"zh-Hant"}]}},{"__typename":"SocialMediaPost","id":"HnPost-25474066","excerpt":"","slug":"/hn/25474066","title":"FDA grants authorization to Moderna's Covid-19 vaccine","date":"December 19, 2020","dateISO":"2020-12-19T05:45:56.512Z","datetime":"2020-12-19 05:45","tags":["story","Hacker News"],"image":null,"imageAlt":null,"provider":"Hacker News","thirdPartyId":"25474066","url":"https://news.ycombinator.com/item?id=25474066","originalUrl":"https://www.statnews.com/2020/12/18/fda-eua-moderna-vaccine-covid19/","imageRemote":"https://www.statnews.com/wp-content/uploads/2020/12/GettyImages-1228042510-1024x576.jpg","video":null,"channel":null,"channelUrl":null,"author":"wh-uws","authorUrl":"https://news.ycombinator.com/user?id=wh-uws","authorImage":null,"authorSlug":null,"score":176,"views":null,"sharedCount":null,"likeCount":null,"sharedContent":null,"parent":{"__typename":"HnJson","localize":[{"title":"FDA批准现代冠状病毒疫苗","locale":"zh"},{"title":"FDA批准現代冠狀病毒疫苗","locale":"zh-Hant"}]}},{"__typename":"SocialMediaPost","id":"HnPost-25470678","excerpt":"","slug":"/hn/25470678","title":"The CPUs of Spacecraft Computers in Space","date":"December 19, 2020","dateISO":"2020-12-19T04:34:02.011Z","datetime":"2020-12-19 04:34","tags":["story","Hacker News"],"image":null,"imageAlt":null,"provider":"Hacker News","thirdPartyId":"25470678","url":"https://news.ycombinator.com/item?id=25470678","originalUrl":"http://www.cpushack.com/space-craft-cpu.html","imageRemote":"http://www.cpushack.com/images/piece_01.gif","video":null,"channel":null,"channelUrl":null,"author":"muunbo","authorUrl":"https://news.ycombinator.com/user?id=muunbo","authorImage":null,"authorSlug":null,"score":179,"views":null,"sharedCount":null,"likeCount":null,"sharedContent":null,"parent":{"__typename":"HnJson","localize":[{"title":"空间航天器计算机的CPU","locale":"zh"},{"title":"空間航天器計算機的CPU","locale":"zh-Hant"}]}},{"__typename":"SocialMediaPost","id":"HnPost-25473964","excerpt":"","slug":"/hn/25473964","title":"Show HN: I have found the world's greatest landing page","date":"December 19, 2020","dateISO":"2020-12-19T04:34:02.011Z","datetime":"2020-12-19 04:34","tags":["story","Show HN","Hacker News"],"image":null,"imageAlt":null,"provider":"Hacker News","thirdPartyId":"25473964","url":"https://news.ycombinator.com/item?id=25473964","originalUrl":"https://muzzleapp.com","imageRemote":"https://muzzleapp.com/muzzle_image.jpg","video":null,"channel":"Show HN","channelUrl":"https://news.ycombinator.com/show","author":"CPLX","authorUrl":"https://news.ycombinator.com/user?id=CPLX","authorImage":null,"authorSlug":null,"score":119,"views":null,"sharedCount":null,"likeCount":null,"sharedContent":null,"parent":{"__typename":"HnJson","localize":[{"title":"HN新产品：我找到了世界上最棒的登录页","locale":"zh"},{"title":"SHOW HN：我找到了世界上最棒的登錄頁","locale":"zh-Hant"}]}},{"__typename":"SocialMediaPost","id":"HnPost-25474668","excerpt":"","slug":"/hn/25474668","title":"Boeing 'inappropriately coached' pilots in 737 Max testing -U.S. Senate report","date":"December 19, 2020","dateISO":"2020-12-19T04:34:02.011Z","datetime":"2020-12-19 04:34","tags":["story","Hacker News"],"image":null,"imageAlt":null,"provider":"Hacker News","thirdPartyId":"25474668","url":"https://news.ycombinator.com/item?id=25474668","originalUrl":"https://www.reuters.com/article/us-boeing-737-max/boeing-inappropriately-coached-pilots-in-737-max-testing-u-s-senate-report-idUSKBN28S314","imageRemote":"https://static.reuters.com/resources/r/?m=02&d=20201219&t=2&i=1545115470&r=LYNXMPEGBH1O3&w=800","video":null,"channel":null,"channelUrl":null,"author":"nabla9","authorUrl":"https://news.ycombinator.com/user?id=nabla9","authorImage":null,"authorSlug":null,"score":168,"views":null,"sharedCount":null,"likeCount":null,"sharedContent":null,"parent":{"__typename":"HnJson","localize":[{"title":"波音公司在波音737 MAX测试中“不适当地指导”飞行员-美国参议院报告","locale":"zh"},{"title":"波音公司在波音737 MAX測試中“不適當地指導”飛行員-美國參議院報告","locale":"zh-Hant"}]}},{"__typename":"SocialMediaPost","id":"HnPost-25472322","excerpt":"","slug":"/hn/25472322","title":"Microsoft Designing Its Own Chips for Servers, Surface PCs","date":"December 19, 2020","dateISO":"2020-12-19T03:29:51.088Z","datetime":"2020-12-19 03:29","tags":["story","Hacker News"],"image":null,"imageAlt":null,"provider":"Hacker News","thirdPartyId":"25472322","url":"https://news.ycombinator.com/item?id=25472322","originalUrl":"https://www.bloomberg.com/news/articles/2020-12-18/microsoft-is-designing-its-own-chips-for-servers-surface-pcs","imageRemote":null,"video":null,"channel":null,"channelUrl":null,"author":"slyall","authorUrl":"https://news.ycombinator.com/user?id=slyall","authorImage":null,"authorSlug":null,"score":133,"views":null,"sharedCount":null,"likeCount":null,"sharedContent":null,"parent":{"__typename":"HnJson","localize":[{"title":"微软为服务器、Surface PC设计自己的芯片","locale":"zh"},{"title":"微軟爲服務器、Surface PC設計自己的芯片","locale":"zh-Hant"}]}},{"__typename":"SocialMediaPost","id":"HnPost-25474372","excerpt":"","slug":"/hn/25474372","title":"Zoom executive charged with disrupting meetings commemorating Tiananmen Square","date":"December 19, 2020","dateISO":"2020-12-19T03:29:51.088Z","datetime":"2020-12-19 03:29","tags":["story","Hacker News"],"image":null,"imageAlt":null,"provider":"Hacker News","thirdPartyId":"25474372","url":"https://news.ycombinator.com/item?id=25474372","originalUrl":"https://www.justice.gov/opa/pr/china-based-executive-us-telecommunications-company-charged-disrupting-video-meetings","imageRemote":"https://www.justice.gov/sites/all/modules/features/doj_sharing/images/doj-seal-fb.jpg","video":null,"channel":null,"channelUrl":null,"author":"imraj96","authorUrl":"https://news.ycombinator.com/user?id=imraj96","authorImage":null,"authorSlug":null,"score":685,"views":null,"sharedCount":null,"likeCount":null,"sharedContent":null,"parent":{"__typename":"HnJson","localize":[{"title":"Zoom一名高管被控扰乱天安门广场纪念会议","locale":"zh"},{"title":"Zoom一名高管被控擾亂天安門廣場紀念會議","locale":"zh-Hant"}]}},{"__typename":"SocialMediaPost","id":"HnPost-25470094","excerpt":"","slug":"/hn/25470094","title":"Brian Chesky on Ron Conway","date":"December 19, 2020","dateISO":"2020-12-19T02:12:56.467Z","datetime":"2020-12-19 02:12","tags":["story","Hacker News"],"image":null,"imageAlt":null,"provider":"Hacker News","thirdPartyId":"25470094","url":"https://news.ycombinator.com/item?id=25470094","originalUrl":"https://news.airbnb.com/ron-conway-and-the-economic-empowerment-award/","imageRemote":"https://news.airbnb.com/wp-content/uploads/sites/4/2020/04/BeloRauschDarkNewsroomFeatured_200316.png?resize=1024,683","video":null,"channel":null,"channelUrl":null,"author":"simonebrunozzi","authorUrl":"https://news.ycombinator.com/user?id=simonebrunozzi","authorImage":null,"authorSlug":null,"score":117,"views":null,"sharedCount":null,"likeCount":null,"sharedContent":null,"parent":{"__typename":"HnJson","localize":[{"title":"布莱恩·切斯基谈罗恩·康威","locale":"zh"},{"title":"布萊恩·切斯基談羅恩·康威","locale":"zh-Hant"}]}},{"__typename":"SocialMediaPost","id":"HnPost-25471046","excerpt":"","slug":"/hn/25471046","title":"Ganja.js: Geometric Algebra Generator for JavaScript, C++, C#, Rust, Python","date":"December 19, 2020","dateISO":"2020-12-19T02:12:56.467Z","datetime":"2020-12-19 02:12","tags":["story","Hacker News"],"image":null,"imageAlt":null,"provider":"Hacker News","thirdPartyId":"25471046","url":"https://news.ycombinator.com/item?id=25471046","originalUrl":"https://github.com/enkimute/ganja.js","imageRemote":"https://avatars2.githubusercontent.com/u/5666339?s=400&v=4","video":null,"channel":null,"channelUrl":null,"author":"pizza","authorUrl":"https://news.ycombinator.com/user?id=pizza","authorImage":null,"authorSlug":null,"score":212,"views":null,"sharedCount":null,"likeCount":null,"sharedContent":null,"parent":{"__typename":"HnJson","localize":[{"title":"js：JavaScript、C++、C#、Rust、Python几何代数生成器","locale":"zh"},{"title":"js：JavaScript、C++、C#、Rust、Python幾何代數生成器","locale":"zh-Hant"}]}},{"__typename":"SocialMediaPost","id":"HnPost-25459506","excerpt":"","slug":"/hn/25459506","title":"DRY Is a Trade-Off","date":"December 19, 2020","dateISO":"2020-12-19T01:41:48.070Z","datetime":"2020-12-19 01:41","tags":["story","Hacker News"],"image":null,"imageAlt":null,"provider":"Hacker News","thirdPartyId":"25459506","url":"https://news.ycombinator.com/item?id=25459506","originalUrl":"https://orbifold.xyz/dry-trade-off.html","imageRemote":null,"video":null,"channel":null,"channelUrl":null,"author":"soopurman","authorUrl":"https://news.ycombinator.com/user?id=soopurman","authorImage":null,"authorSlug":null,"score":216,"views":null,"sharedCount":null,"likeCount":null,"sharedContent":null,"parent":{"__typename":"HnJson","localize":[{"title":"干燥是一种权衡","locale":"zh"},{"title":"乾燥是一種權衡","locale":"zh-Hant"}]}},{"__typename":"SocialMediaPost","id":"HnPost-25470672","excerpt":"","slug":"/hn/25470672","title":"Show HN: Sqwok – A low-cruft, minimalist alternative to Reddit and Twitter","date":"December 19, 2020","dateISO":"2020-12-19T01:41:48.070Z","datetime":"2020-12-19 01:41","tags":["story","Show HN","Hacker News"],"image":null,"imageAlt":null,"provider":"Hacker News","thirdPartyId":"25470672","url":"https://news.ycombinator.com/item?id=25470672","originalUrl":"https://sqwok.im/","imageRemote":null,"video":null,"channel":"Show HN","channelUrl":"https://news.ycombinator.com/show","author":"holler","authorUrl":"https://news.ycombinator.com/user?id=holler","authorImage":null,"authorSlug":null,"score":185,"views":null,"sharedCount":null,"likeCount":null,"sharedContent":null,"parent":{"__typename":"HnJson","localize":[{"title":"HN新产品：Sqwok-Reddit和Twitter的低调、简约的替代品","locale":"zh"},{"title":"show HN：Sqwok-Reddit和Twitter的低調、簡約的替代品","locale":"zh-Hant"}]}},{"__typename":"SocialMediaPost","id":"HnPost-25472370","excerpt":"","slug":"/hn/25472370","title":"I Bought Apple Silicon","date":"December 19, 2020","dateISO":"2020-12-19T01:41:48.070Z","datetime":"2020-12-19 01:41","tags":["story","Hacker News"],"image":null,"imageAlt":null,"provider":"Hacker News","thirdPartyId":"25472370","url":"https://news.ycombinator.com/item?id=25472370","originalUrl":"https://honzajavorek.cz/blog/i-bought-apple-silicon/","imageRemote":"https://honzajavorek.cz/images/apple-silicon.jpg","video":null,"channel":null,"channelUrl":null,"author":"honzajavorek","authorUrl":"https://news.ycombinator.com/user?id=honzajavorek","authorImage":null,"authorSlug":null,"score":196,"views":null,"sharedCount":null,"likeCount":null,"sharedContent":null,"parent":{"__typename":"HnJson","localize":[{"title":"我买了苹果硅","locale":"zh"},{"title":"我買了蘋果硅","locale":"zh-Hant"}]}},{"__typename":"SocialMediaPost","id":"HnPost-25472970","excerpt":"","slug":"/hn/25472970","title":"Surgery, the Ultimate Placebo","date":"December 19, 2020","dateISO":"2020-12-19T01:41:48.070Z","datetime":"2020-12-19 01:41","tags":["story","Hacker News"],"image":null,"imageAlt":null,"provider":"Hacker News","thirdPartyId":"25472970","url":"https://news.ycombinator.com/item?id=25472970","originalUrl":"https://www.skepdoc.info/ian-harris-on-surgery-the-ultimate-placebo/","imageRemote":"https://sciencebasedmedicine.org/wp-content/uploads/2020/10/surgery-surgeon-ongoing-operate.jpg","video":null,"channel":null,"channelUrl":null,"author":"cpncrunch","authorUrl":"https://news.ycombinator.com/user?id=cpncrunch","authorImage":null,"authorSlug":null,"score":261,"views":null,"sharedCount":null,"likeCount":null,"sharedContent":null,"parent":{"__typename":"HnJson","localize":[{"title":"外科手术，终极安慰剂","locale":"zh"},{"title":"外科手術，終極安慰劑","locale":"zh-Hant"}]}}]}},"pageContext":{"basePath":"/","pageType":"tag","tag":"story","tagsFilter":{"id":{"glob":"!*Post-1"}},"filter":{"id":{"glob":"!*Post-1"},"tags":{"eq":"story"}},"limit":25,"skip":775,"total":919,"totalPages":37,"currentPage":32,"maxWidth":1024,"maxHeight":512,"locale":"zh-Hant","hrefLang":"zh-Hant","originalPath":"/tags/story/page/32","dateFormat":"YYYY-MM-DD"}},"staticQueryHashes":["1239077767","2506312863","2744905544","3025052997","3493603132","3493603132","3513215887","386998304"]}