{"componentChunkName":"component---gatsby-theme-buzzing-src-gatsby-theme-timeline-templates-posts-query-js","path":"/tags/story/page/63","result":{"data":{"site":{"siteMetadata":{"title":"Reddit 热门","description":"用中文浏览Reddit热门内容","social":[{"name":"Twitter","url":"https://twitter.com/gatsbyjs","external":null,"prefetch":null},{"name":"GitHub","url":"https://github.com/gatsbyjs","external":null,"prefetch":null}],"menuLinks":[],"localize":[{"locale":"en","title":"Buzzing on Reddit","description":"See what's buzzing on Reddit in your native language","social":[{"name":"Reddit","url":"https://www.reddit.com/","external":true,"prefetch":null}],"menuLinks":[{"name":"Weekly Selection","url":"/issues","external":null,"prefetch":null},{"name":"RSS","url":"/rss.xml","external":null,"prefetch":false}]},{"locale":"zh-Hant","title":"Reddit 熱門","description":"用中文瀏覽Reddit熱門內容","social":null,"menuLinks":null}]}},"tagsGroup":{"group":[{"fieldValue":"ASK HN","totalCount":44},{"fieldValue":"Bitcoin","totalCount":4},{"fieldValue":"Hacker News","totalCount":2600},{"fieldValue":"Poll","totalCount":1},{"fieldValue":"SaveAMC","totalCount":1},{"fieldValue":"Show HN","totalCount":89},{"fieldValue":"bitcoin","totalCount":3},{"fieldValue":"investing","totalCount":797},{"fieldValue":"poll","totalCount":1},{"fieldValue":"reddit","totalCount":4938},{"fieldValue":"science","totalCount":1},{"fieldValue":"stocks","totalCount":1592},{"fieldValue":"story","totalCount":2599},{"fieldValue":"tweet","totalCount":814},{"fieldValue":"wallstreetbets","totalCount":2549}]},"allBlogPost":{"nodes":[{"__typename":"SocialMediaPost","id":"HnPost-25839341","excerpt":"","slug":"/hn/25839341","title":"Apple knew a supplier was using child labor but took 3 years to fully cut ties","date":"January 20, 2021","dateISO":"2021-01-20T01:52:29.536Z","datetime":"2021-01-20 01:52","tags":["story","Hacker News"],"image":null,"imageAlt":null,"provider":"Hacker News","thirdPartyId":"25839341","url":"https://news.ycombinator.com/item?id=25839341","originalUrl":"https://www.businessinsider.com/apple-knowingly-used-child-labor-supplier-3-years-cut-costs-2020-12","imageRemote":"https://i.insider.com/5feb5a5eedf8920018094090?width=1200&format=jpeg","video":null,"channel":null,"channelUrl":null,"author":"nailer","authorUrl":"https://news.ycombinator.com/user?id=nailer","authorImage":null,"authorSlug":null,"score":216,"views":null,"sharedCount":null,"likeCount":null,"sharedContent":null,"parent":{"__typename":"HnJson","localize":[{"title":"苹果知道一家供应商使用童工，但用了3年时间才完全断绝关系。","locale":"zh"},{"title":"蘋果知道一家供應商使用童工，但用了3年時間才完全斷絕關係。","locale":"zh-Hant"}]}},{"__typename":"SocialMediaPost","id":"HnPost-25834444","excerpt":"","slug":"/hn/25834444","title":"Container networking is simple (2020)","date":"January 19, 2021","dateISO":"2021-01-19T23:08:46.011Z","datetime":"2021-01-19 23:08","tags":["story","Hacker News"],"image":null,"imageAlt":null,"provider":"Hacker News","thirdPartyId":"25834444","url":"https://news.ycombinator.com/item?id=25834444","originalUrl":"https://iximiuz.com/en/posts/container-networking-is-simple/","imageRemote":"https://iximiuz.com/container-networking-is-simple/veth.png","video":null,"channel":null,"channelUrl":null,"author":"zdw","authorUrl":"https://news.ycombinator.com/user?id=zdw","authorImage":null,"authorSlug":null,"score":269,"views":null,"sharedCount":null,"likeCount":null,"sharedContent":null,"parent":{"__typename":"HnJson","localize":[{"title":"集装箱联网很简单（2020年","locale":"zh"},{"title":"集裝箱聯網很簡單（2020年","locale":"zh-Hant"}]}},{"__typename":"SocialMediaPost","id":"HnPost-25835823","excerpt":"","slug":"/hn/25835823","title":"Capitol Attack Was Months in the Making on Facebook","date":"January 19, 2021","dateISO":"2021-01-19T23:08:46.011Z","datetime":"2021-01-19 23:08","tags":["story","Hacker News"],"image":null,"imageAlt":null,"provider":"Hacker News","thirdPartyId":"25835823","url":"https://news.ycombinator.com/item?id=25835823","originalUrl":"https://www.techtransparencyproject.org/articles/capitol-attack-was-months-making-facebook","imageRemote":"https://www.techtransparencyproject.org/sites/default/files/riot-dome.jpg","video":null,"channel":null,"channelUrl":null,"author":"alexrustic","authorUrl":"https://news.ycombinator.com/user?id=alexrustic","authorImage":null,"authorSlug":null,"score":612,"views":null,"sharedCount":null,"likeCount":null,"sharedContent":null,"parent":{"__typename":"HnJson","localize":[{"title":"国会大厦袭击事件在Facebook上酝酿了数月之久","locale":"zh"},{"title":"國會大廈襲擊事件在Facebook上醞釀了數月之久","locale":"zh-Hant"}]}},{"__typename":"SocialMediaPost","id":"HnPost-25836085","excerpt":"","slug":"/hn/25836085","title":"This Anime Does Not Exist","date":"January 19, 2021","dateISO":"2021-01-19T23:08:46.011Z","datetime":"2021-01-19 23:08","tags":["story","Hacker News"],"image":null,"imageAlt":null,"provider":"Hacker News","thirdPartyId":"25836085","url":"https://news.ycombinator.com/item?id=25836085","originalUrl":"https://thisanimedoesnotexist.ai/","imageRemote":"https://thisanimedoesnotexist.ai/thumbnail.png","video":null,"channel":null,"channelUrl":null,"author":"gwern","authorUrl":"https://news.ycombinator.com/user?id=gwern","authorImage":null,"authorSlug":null,"score":334,"views":null,"sharedCount":null,"likeCount":null,"sharedContent":null,"parent":{"__typename":"HnJson","localize":[{"title":"这个动画不存在","locale":"zh"},{"title":"這個動畫不存在","locale":"zh-Hant"}]}},{"__typename":"SocialMediaPost","id":"HnPost-25835503","excerpt":"","slug":"/hn/25835503","title":"When radio was king, many outlets chose to stop broadcasting Father Coughlin","date":"January 19, 2021","dateISO":"2021-01-19T21:47:15.354Z","datetime":"2021-01-19 21:47","tags":["story","Hacker News"],"image":null,"imageAlt":null,"provider":"Hacker News","thirdPartyId":"25835503","url":"https://news.ycombinator.com/item?id=25835503","originalUrl":"https://theconversation.com/that-time-private-us-media-companies-stepped-in-to-silence-the-falsehoods-and-incitements-of-a-major-public-figure-in-1938-153157","imageRemote":"https://images.theconversation.com/files/378853/original/file-20210114-15-1klvmrz.jpg?ixlib=rb-1.1.0&rect=0%2C0%2C6262%2C3126&q=45&auto=format&w=1356&h=668&fit=crop","video":null,"channel":null,"channelUrl":null,"author":"samizdis","authorUrl":"https://news.ycombinator.com/user?id=samizdis","authorImage":null,"authorSlug":null,"score":178,"views":null,"sharedCount":null,"likeCount":null,"sharedContent":null,"parent":{"__typename":"HnJson","localize":[{"title":"在广播为王的时候，很多媒体都选择了停播《考夫林神父》。","locale":"zh"},{"title":"在廣播爲王的時候，很多媒體都選擇了停播《考夫林神父》。","locale":"zh-Hant"}]}},{"__typename":"SocialMediaPost","id":"HnPost-25836398","excerpt":"","slug":"/hn/25836398","title":"The State of State Machines","date":"January 19, 2021","dateISO":"2021-01-19T21:47:15.354Z","datetime":"2021-01-19 21:47","tags":["story","Hacker News"],"image":null,"imageAlt":null,"provider":"Hacker News","thirdPartyId":"25836398","url":"https://news.ycombinator.com/item?id=25836398","originalUrl":"https://googleprojectzero.blogspot.com/2021/01/the-state-of-state-machines.html","imageRemote":"https://1.bp.blogspot.com/-3WEtXcOMSJ8/YADm6aUFTfI/AAAAAAAAao8/VnztmKLwoFsJOFS413fG9j83nxIxW_cfwCNcBGAsYHQ/w1200-h630-p-k-no-nu/image2.jpg","video":null,"channel":null,"channelUrl":null,"author":"arkadiyt","authorUrl":"https://news.ycombinator.com/user?id=arkadiyt","authorImage":null,"authorSlug":null,"score":418,"views":null,"sharedCount":null,"likeCount":null,"sharedContent":null,"parent":{"__typename":"HnJson","localize":[{"title":"国家机器的状况","locale":"zh"},{"title":"國家機器的狀況","locale":"zh-Hant"}]}},{"__typename":"SocialMediaPost","id":"HnPost-25836886","excerpt":"","slug":"/hn/25836886","title":"IPFS Support in Brave","date":"January 19, 2021","dateISO":"2021-01-19T21:47:15.354Z","datetime":"2021-01-19 21:47","tags":["story","Hacker News"],"image":null,"imageAlt":null,"provider":"Hacker News","thirdPartyId":"25836886","url":"https://news.ycombinator.com/item?id=25836886","originalUrl":"https://brave.com/ipfs-support/","imageRemote":"https://brave.com/wp-content/uploads/2021/01/brave-and-ipfs-featured.png","video":null,"channel":null,"channelUrl":null,"author":"alexrustic","authorUrl":"https://news.ycombinator.com/user?id=alexrustic","authorImage":null,"authorSlug":null,"score":1159,"views":null,"sharedCount":null,"likeCount":null,"sharedContent":null,"parent":{"__typename":"HnJson","localize":[{"title":"勇敢的IPFS支持","locale":"zh"},{"title":"勇敢的IPFS支持","locale":"zh-Hant"}]}},{"__typename":"SocialMediaPost","id":"HnPost-25830087","excerpt":"","slug":"/hn/25830087","title":"Paint.wtf","date":"January 19, 2021","dateISO":"2021-01-19T19:27:14.651Z","datetime":"2021-01-19 19:27","tags":["story","Hacker News"],"image":null,"imageAlt":null,"provider":"Hacker News","thirdPartyId":"25830087","url":"https://news.ycombinator.com/item?id=25830087","originalUrl":"https://paint.wtf/","imageRemote":"https://paint.wtf/images/opengraph.png","video":null,"channel":null,"channelUrl":null,"author":"hgarg","authorUrl":"https://news.ycombinator.com/user?id=hgarg","authorImage":null,"authorSlug":null,"score":190,"views":null,"sharedCount":null,"likeCount":null,"sharedContent":null,"parent":{"__typename":"HnJson","localize":[{"title":"Paint.wtf","locale":"zh"},{"title":"Paint.wtf","locale":"zh-Hant"}]}},{"__typename":"SocialMediaPost","id":"HnPost-25836503","excerpt":"","slug":"/hn/25836503","title":"GitHub has received a DMCA from MPA for source code of torrent tracker nyaa.si","date":"January 19, 2021","dateISO":"2021-01-19T19:27:14.651Z","datetime":"2021-01-19 19:27","tags":["story","Hacker News"],"image":null,"imageAlt":null,"provider":"Hacker News","thirdPartyId":"25836503","url":"https://news.ycombinator.com/item?id=25836503","originalUrl":"https://github.com/github/dmca/blob/master/2021/01/2021-01-14-mpa.md","imageRemote":"https://avatars3.githubusercontent.com/u/9919?s=400&v=4","video":null,"channel":null,"channelUrl":null,"author":"livueta","authorUrl":"https://news.ycombinator.com/user?id=livueta","authorImage":null,"authorSlug":null,"score":579,"views":null,"sharedCount":null,"likeCount":null,"sharedContent":null,"parent":{"__typename":"HnJson","localize":[{"title":"GitHub 收到了 MPA 发出的关于 torrent 跟踪器 nyaa.si 源代码的 DMCA。","locale":"zh"},{"title":"GitHub 收到了 MPA 發出的關於 torrent 跟蹤器 nyaa.si 源代碼的 DMCA。","locale":"zh-Hant"}]}},{"__typename":"SocialMediaPost","id":"HnPost-25833639","excerpt":"","slug":"/hn/25833639","title":"Ask HN: Anyone else burnt out due to extended lockdown and work-from-home?","date":"January 19, 2021","dateISO":"2021-01-19T18:27:05.032Z","datetime":"2021-01-19 18:27","tags":["story","ASK HN","Hacker News"],"image":null,"imageAlt":null,"provider":"Hacker News","thirdPartyId":"25833639","url":"https://news.ycombinator.com/item?id=25833639","originalUrl":"https://news.ycombinator.com/item?id=25833639","imageRemote":null,"video":null,"channel":"ASK HN","channelUrl":"https://news.ycombinator.com/ask","author":"throwwfh","authorUrl":"https://news.ycombinator.com/user?id=throwwfh","authorImage":null,"authorSlug":null,"score":694,"views":null,"sharedCount":null,"likeCount":null,"sharedContent":null,"parent":{"__typename":"HnJson","localize":[{"title":"HN提问：还有人因为长时间的封锁和在家办公而焦头烂额吗？","locale":"zh"},{"title":"HN提問：還有人因爲長時間的封鎖和在家辦公而焦頭爛額嗎？","locale":"zh-Hant"}]}},{"__typename":"SocialMediaPost","id":"HnPost-25825390","excerpt":"","slug":"/hn/25825390","title":"Nobody lives here: Nearly 5M Census Blocks with zero population (2014)","date":"January 19, 2021","dateISO":"2021-01-19T17:09:31.752Z","datetime":"2021-01-19 17:09","tags":["story","Hacker News"],"image":null,"imageAlt":null,"provider":"Hacker News","thirdPartyId":"25825390","url":"https://news.ycombinator.com/item?id=25825390","originalUrl":"https://tumblr.mapsbynik.com/post/82791188950/nobody-lives-here-the-4-million-census-blocks","imageRemote":"https://64.media.tumblr.com/759e0a79fc0d9821672a1ae2fe062e8e/tumblr_n42t5sFIeE1sisl6fo1_r1_1280.jpg","video":null,"channel":null,"channelUrl":null,"author":"sndean","authorUrl":"https://news.ycombinator.com/user?id=sndean","authorImage":null,"authorSlug":null,"score":162,"views":null,"sharedCount":null,"likeCount":null,"sharedContent":null,"parent":{"__typename":"HnJson","localize":[{"title":"没有人住在这里。近500万个人口为零的普查区(2014年)","locale":"zh"},{"title":"沒有人住在這裏。近500萬個人口爲零的普查區(2014年)","locale":"zh-Hant"}]}},{"__typename":"SocialMediaPost","id":"HnPost-25833328","excerpt":"","slug":"/hn/25833328","title":"NovelWriter 1.0 – A markdown-like editor for writing novels","date":"January 19, 2021","dateISO":"2021-01-19T17:09:31.752Z","datetime":"2021-01-19 17:09","tags":["story","Hacker News"],"image":null,"imageAlt":null,"provider":"Hacker News","thirdPartyId":"25833328","url":"https://news.ycombinator.com/item?id=25833328","originalUrl":"https://novelwriter.io/","imageRemote":"https://novelwriter.io/wp-content/uploads/2020/10/nw-Multi.png","video":null,"channel":null,"channelUrl":null,"author":"app4soft","authorUrl":"https://news.ycombinator.com/user?id=app4soft","authorImage":null,"authorSlug":null,"score":369,"views":null,"sharedCount":null,"likeCount":null,"sharedContent":null,"parent":{"__typename":"HnJson","localize":[{"title":"NovelWriter 1.0 - 一个类似于markdown的小说写作编辑器","locale":"zh"},{"title":"NovelWriter 1.0 - 一個類似於markdown的小說寫作編輯器","locale":"zh-Hant"}]}},{"__typename":"SocialMediaPost","id":"HnPost-25833667","excerpt":"","slug":"/hn/25833667","title":"Intel Problems","date":"January 19, 2021","dateISO":"2021-01-19T17:09:31.752Z","datetime":"2021-01-19 17:09","tags":["story","Hacker News"],"image":null,"imageAlt":null,"provider":"Hacker News","thirdPartyId":"25833667","url":"https://news.ycombinator.com/item?id=25833667","originalUrl":"https://stratechery.com/2021/intel-problems/","imageRemote":"https://stratechery.com/wp-content/uploads/2021/01/intel-1.png","video":null,"channel":null,"channelUrl":null,"author":"camillovisini","authorUrl":"https://news.ycombinator.com/user?id=camillovisini","authorImage":null,"authorSlug":null,"score":562,"views":null,"sharedCount":null,"likeCount":null,"sharedContent":null,"parent":{"__typename":"HnJson","localize":[{"title":"英特尔问题","locale":"zh"},{"title":"英特爾問題","locale":"zh-Hant"}]}},{"__typename":"SocialMediaPost","id":"HnPost-25831981","excerpt":"","slug":"/hn/25831981","title":"How to leave Google and why","date":"January 19, 2021","dateISO":"2021-01-19T15:56:52.039Z","datetime":"2021-01-19 15:56","tags":["story","Hacker News"],"image":null,"imageAlt":null,"provider":"Hacker News","thirdPartyId":"25831981","url":"https://news.ycombinator.com/item?id=25831981","originalUrl":"https://jach.me/how-to-leave-google","imageRemote":null,"video":null,"channel":null,"channelUrl":null,"author":"yaszko","authorUrl":"https://news.ycombinator.com/user?id=yaszko","authorImage":null,"authorSlug":null,"score":231,"views":null,"sharedCount":null,"likeCount":null,"sharedContent":null,"parent":{"__typename":"HnJson","localize":[{"title":"如何离开谷歌，为什么？","locale":"zh"},{"title":"如何離開谷歌，爲什麼？","locale":"zh-Hant"}]}},{"__typename":"SocialMediaPost","id":"HnPost-25833291","excerpt":"","slug":"/hn/25833291","title":"Woman Is Sentenced to 43 Years for Criticizing Thai Monarchy","date":"January 19, 2021","dateISO":"2021-01-19T15:56:52.039Z","datetime":"2021-01-19 15:56","tags":["story","Hacker News"],"image":null,"imageAlt":null,"provider":"Hacker News","thirdPartyId":"25833291","url":"https://news.ycombinator.com/item?id=25833291","originalUrl":"https://www.nytimes.com/2021/01/19/world/asia/thailand-king-lese-majeste.html","imageRemote":"https://static01.nyt.com/images/2021/01/19/world/19thailand-1/19thailand-1-facebookJumbo.jpg","video":null,"channel":null,"channelUrl":null,"author":"mzs","authorUrl":"https://news.ycombinator.com/user?id=mzs","authorImage":null,"authorSlug":null,"score":381,"views":null,"sharedCount":null,"likeCount":null,"sharedContent":null,"parent":{"__typename":"HnJson","localize":[{"title":"女子因批评泰国君主制被判刑43年","locale":"zh"},{"title":"女子因批評泰國君主制被判刑43年","locale":"zh-Hant"}]}},{"__typename":"SocialMediaPost","id":"HnPost-25823546","excerpt":"","slug":"/hn/25823546","title":"TV detector vans once prowled the streets of England","date":"January 19, 2021","dateISO":"2021-01-19T14:18:30.864Z","datetime":"2021-01-19 14:18","tags":["story","Hacker News"],"image":null,"imageAlt":null,"provider":"Hacker News","thirdPartyId":"25823546","url":"https://news.ycombinator.com/item?id=25823546","originalUrl":"https://hackaday.com/2021/01/18/tv-detector-vans-once-prowled-the-streets-of-england/","imageRemote":"https://hackaday.com/wp-content/uploads/2021/01/TVdetectorvan.jpg","video":null,"channel":null,"channelUrl":null,"author":"szczys","authorUrl":"https://news.ycombinator.com/user?id=szczys","authorImage":null,"authorSlug":null,"score":263,"views":null,"sharedCount":null,"likeCount":null,"sharedContent":null,"parent":{"__typename":"HnJson","localize":[{"title":"电视检测车曾在英国的大街上出没过","locale":"zh"},{"title":"電視檢測車曾在英國的大街上出沒過","locale":"zh-Hant"}]}},{"__typename":"SocialMediaPost","id":"HnPost-25828081","excerpt":"","slug":"/hn/25828081","title":"Local rules instead of global censorship","date":"January 19, 2021","dateISO":"2021-01-19T14:18:30.864Z","datetime":"2021-01-19 14:18","tags":["story","Hacker News"],"image":null,"imageAlt":null,"provider":"Hacker News","thirdPartyId":"25828081","url":"https://news.ycombinator.com/item?id=25828081","originalUrl":"https://redecentralize.org/blog/2021/01/18/centralization-is-a-danger-to-democracy","imageRemote":"https://redecentralize.org/assets/images/logo-square-large.png","video":null,"channel":null,"channelUrl":null,"author":"bklaasen","authorUrl":"https://news.ycombinator.com/user?id=bklaasen","authorImage":null,"authorSlug":null,"score":206,"views":null,"sharedCount":null,"likeCount":null,"sharedContent":null,"parent":{"__typename":"HnJson","localize":[{"title":"地方规则而不是全球审查制度","locale":"zh"},{"title":"地方規則而不是全球審查制度","locale":"zh-Hant"}]}},{"__typename":"SocialMediaPost","id":"HnPost-25831428","excerpt":"","slug":"/hn/25831428","title":"Free Math Books","date":"January 19, 2021","dateISO":"2021-01-19T14:18:30.864Z","datetime":"2021-01-19 14:18","tags":["story","Hacker News"],"image":null,"imageAlt":null,"provider":"Hacker News","thirdPartyId":"25831428","url":"https://news.ycombinator.com/item?id=25831428","originalUrl":"https://klkuttler.com/","imageRemote":null,"video":null,"channel":null,"channelUrl":null,"author":"blewboarwastake","authorUrl":"https://news.ycombinator.com/user?id=blewboarwastake","authorImage":null,"authorSlug":null,"score":309,"views":null,"sharedCount":null,"likeCount":null,"sharedContent":null,"parent":{"__typename":"HnJson","localize":[{"title":"免费数学书","locale":"zh"},{"title":"免費數學書","locale":"zh-Hant"}]}},{"__typename":"SocialMediaPost","id":"HnPost-25823907","excerpt":"","slug":"/hn/25823907","title":"Are We Really Engineers?","date":"January 19, 2021","dateISO":"2021-01-19T12:05:42.763Z","datetime":"2021-01-19 12:05","tags":["story","Hacker News"],"image":null,"imageAlt":null,"provider":"Hacker News","thirdPartyId":"25823907","url":"https://news.ycombinator.com/item?id=25823907","originalUrl":"https://www.hillelwayne.com/post/crossover-project/are-we-really-engineers/","imageRemote":"https://www.hillelwayne.com/post/crossover-project/img/chart.png","video":null,"channel":null,"channelUrl":null,"author":"nathcd","authorUrl":"https://news.ycombinator.com/user?id=nathcd","authorImage":null,"authorSlug":null,"score":176,"views":null,"sharedCount":null,"likeCount":null,"sharedContent":null,"parent":{"__typename":"HnJson","localize":[{"title":"我们真的是工程师吗？","locale":"zh"},{"title":"我們真的是工程師嗎？","locale":"zh-Hant"}]}},{"__typename":"SocialMediaPost","id":"HnPost-25829337","excerpt":"","slug":"/hn/25829337","title":"Everything you need to know to design your own CNC router","date":"January 19, 2021","dateISO":"2021-01-19T10:18:07.499Z","datetime":"2021-01-19 10:18","tags":["story","Hacker News"],"image":null,"imageAlt":null,"provider":"Hacker News","thirdPartyId":"25829337","url":"https://news.ycombinator.com/item?id=25829337","originalUrl":"https://mattferraro.dev/posts/cnc-router","imageRemote":"https://www.mattferraro.dev/images/my_router_small.jpeg","video":null,"channel":null,"channelUrl":null,"author":"mferraro89","authorUrl":"https://news.ycombinator.com/user?id=mferraro89","authorImage":null,"authorSlug":null,"score":327,"views":null,"sharedCount":null,"likeCount":null,"sharedContent":null,"parent":{"__typename":"HnJson","localize":[{"title":"设计自己的数控路由器所需了解的一切。","locale":"zh"},{"title":"設計自己的數控路由器所需瞭解的一切。","locale":"zh-Hant"}]}},{"__typename":"SocialMediaPost","id":"HnPost-25816753","excerpt":"","slug":"/hn/25816753","title":"The short, tormented life of computer genius Phil Katz (2000)","date":"January 19, 2021","dateISO":"2021-01-19T08:23:06.161Z","datetime":"2021-01-19 08:23","tags":["story","Hacker News"],"image":null,"imageAlt":null,"provider":"Hacker News","thirdPartyId":"25816753","url":"https://news.ycombinator.com/item?id=25816753","originalUrl":"https://web.archive.org/web/20000829071343/http://www2.jsonline.com/news/state/may00/katz21052000a.asp","imageRemote":"https://web.archive.org/_static/images/toolbar/wayback-toolbar-logo-200.png","video":null,"channel":null,"channelUrl":null,"author":"mmastrac","authorUrl":"https://news.ycombinator.com/user?id=mmastrac","authorImage":null,"authorSlug":null,"score":200,"views":null,"sharedCount":null,"likeCount":null,"sharedContent":null,"parent":{"__typename":"HnJson","localize":[{"title":"电脑天才菲尔-卡茨短暂而煎熬的一生（2000年）。","locale":"zh"},{"title":"電腦天才菲爾-卡茨短暫而煎熬的一生（2000年）。","locale":"zh-Hant"}]}},{"__typename":"SocialMediaPost","id":"HnPost-25827356","excerpt":"","slug":"/hn/25827356","title":"Software engineering is a learning process, working code is a side effect","date":"January 19, 2021","dateISO":"2021-01-19T07:40:33.841Z","datetime":"2021-01-19 07:40","tags":["story","Hacker News"],"image":null,"imageAlt":null,"provider":"Hacker News","thirdPartyId":"25827356","url":"https://news.ycombinator.com/item?id=25827356","originalUrl":"https://www.lambdabytes.io/posts/selearning/","imageRemote":null,"video":null,"channel":null,"channelUrl":null,"author":"io_nathan","authorUrl":"https://news.ycombinator.com/user?id=io_nathan","authorImage":null,"authorSlug":null,"score":236,"views":null,"sharedCount":null,"likeCount":null,"sharedContent":null,"parent":{"__typename":"HnJson","localize":[{"title":"软件工程是一个学习的过程，工作代码是一个副作用","locale":"zh"},{"title":"軟件工程是一個學習的過程，工作代碼是一個副作用","locale":"zh-Hant"}]}},{"__typename":"SocialMediaPost","id":"HnPost-25829748","excerpt":"","slug":"/hn/25829748","title":"What You Should Know Before Leaking a Zoom Meeting","date":"January 19, 2021","dateISO":"2021-01-19T06:55:24.050Z","datetime":"2021-01-19 06:55","tags":["story","Hacker News"],"image":null,"imageAlt":null,"provider":"Hacker News","thirdPartyId":"25829748","url":"https://news.ycombinator.com/item?id=25829748","originalUrl":"https://theintercept.com/2021/01/18/leak-zoom-meeting/","imageRemote":"https://theintercept.imgix.net/wp-uploads/sites/1/2021/01/zoom-leak-theintercept-SH-2.png?auto=compress%2Cformat&q=90&fit=crop&w=1200&h=800","video":null,"channel":null,"channelUrl":null,"author":"danso","authorUrl":"https://news.ycombinator.com/user?id=danso","authorImage":null,"authorSlug":null,"score":730,"views":null,"sharedCount":null,"likeCount":null,"sharedContent":null,"parent":{"__typename":"HnJson","localize":[{"title":"泄露Zoom会议之前，你应该知道什么？","locale":"zh"},{"title":"泄露Zoom會議之前，你應該知道什麼？","locale":"zh-Hant"}]}},{"__typename":"SocialMediaPost","id":"HnPost-25809640","excerpt":"","slug":"/hn/25809640","title":"Sosumi Snap – Download and Install macOS in Ubuntu","date":"January 19, 2021","dateISO":"2021-01-19T05:03:47.455Z","datetime":"2021-01-19 05:03","tags":["story","Hacker News"],"image":null,"imageAlt":null,"provider":"Hacker News","thirdPartyId":"25809640","url":"https://news.ycombinator.com/item?id=25809640","originalUrl":"https://github.com/popey/sosumi-snap","imageRemote":"https://avatars1.githubusercontent.com/u/1841272?s=400&v=4","video":null,"channel":null,"channelUrl":null,"author":"macco","authorUrl":"https://news.ycombinator.com/user?id=macco","authorImage":null,"authorSlug":null,"score":323,"views":null,"sharedCount":null,"likeCount":null,"sharedContent":null,"parent":{"__typename":"HnJson","localize":[{"title":"Sosumi Snap - 在Ubuntu中下载并安装macOS。","locale":"zh"},{"title":"Sosumi Snap - 在Ubuntu中下載並安裝macOS。","locale":"zh-Hant"}]}},{"__typename":"SocialMediaPost","id":"HnPost-25824799","excerpt":"","slug":"/hn/25824799","title":"Three reasons fungi are not plants","date":"January 19, 2021","dateISO":"2021-01-19T03:00:16.329Z","datetime":"2021-01-19 03:00","tags":["story","Hacker News"],"image":null,"imageAlt":null,"provider":"Hacker News","thirdPartyId":"25824799","url":"https://news.ycombinator.com/item?id=25824799","originalUrl":"https://asm.org/Articles/2021/January/Three-Reasons-Fungi-Are-Not-Plants","imageRemote":"https://asm.org/ASM/media/Article-Images/2021/January/Mushrooms-874x492.jpg?ext=.jpg","video":null,"channel":null,"channelUrl":null,"author":"chewbacha","authorUrl":"https://news.ycombinator.com/user?id=chewbacha","authorImage":null,"authorSlug":null,"score":219,"views":null,"sharedCount":null,"likeCount":null,"sharedContent":null,"parent":{"__typename":"HnJson","localize":[{"title":"真菌不是植物的三个原因","locale":"zh"},{"title":"真菌不是植物的三個原因","locale":"zh-Hant"}]}}]}},"pageContext":{"basePath":"/","pageType":"tag","tag":"story","tagsFilter":{"id":{"glob":"!*Post-1"}},"filter":{"id":{"glob":"!*Post-1"},"tags":{"eq":"story"}},"limit":25,"skip":1550,"total":2599,"totalPages":104,"currentPage":63,"maxWidth":1024,"maxHeight":512,"locale":"zh","hrefLang":"zh-Hans","originalPath":"/tags/story/page/63","dateFormat":"YYYY-MM-DD"}},"staticQueryHashes":["1239077767","2506312863","2744905544","3025052997","3493603132","3493603132","3513215887","386998304"]}