{"componentChunkName":"component---gatsby-theme-buzzing-src-gatsby-theme-timeline-templates-posts-query-js","path":"/zh-Hant/tags/story/page/70","result":{"data":{"site":{"siteMetadata":{"title":"Reddit 热门","description":"用中文浏览Reddit热门内容","social":[{"name":"Twitter","url":"https://twitter.com/gatsbyjs","external":null,"prefetch":null},{"name":"GitHub","url":"https://github.com/gatsbyjs","external":null,"prefetch":null}],"menuLinks":[],"localize":[{"locale":"en","title":"Buzzing on Reddit","description":"See what's buzzing on Reddit in your native language","social":[{"name":"Reddit","url":"https://www.reddit.com/","external":true,"prefetch":null}],"menuLinks":[{"name":"Weekly Selection","url":"/issues","external":null,"prefetch":null},{"name":"RSS","url":"/rss.xml","external":null,"prefetch":false}]},{"locale":"zh-Hant","title":"Reddit 熱門","description":"用中文瀏覽Reddit熱門內容","social":null,"menuLinks":null}]}},"tagsGroup":{"group":[{"fieldValue":"ASK HN","totalCount":44},{"fieldValue":"Bitcoin","totalCount":4},{"fieldValue":"Hacker News","totalCount":2600},{"fieldValue":"Poll","totalCount":1},{"fieldValue":"SaveAMC","totalCount":1},{"fieldValue":"Show HN","totalCount":89},{"fieldValue":"bitcoin","totalCount":3},{"fieldValue":"investing","totalCount":797},{"fieldValue":"poll","totalCount":1},{"fieldValue":"reddit","totalCount":4938},{"fieldValue":"science","totalCount":1},{"fieldValue":"stocks","totalCount":1592},{"fieldValue":"story","totalCount":2599},{"fieldValue":"tweet","totalCount":814},{"fieldValue":"wallstreetbets","totalCount":2549}]},"allBlogPost":{"nodes":[{"__typename":"SocialMediaPost","id":"HnPost-25750582","excerpt":"","slug":"/hn/25750582","title":"A Proposal for Adding Generics to Go","date":"January 13, 2021","dateISO":"2021-01-13T02:58:43.187Z","datetime":"2021-01-13 02:58","tags":["story","Hacker News"],"image":null,"imageAlt":null,"provider":"Hacker News","thirdPartyId":"25750582","url":"https://news.ycombinator.com/item?id=25750582","originalUrl":"https://blog.golang.org/generics-proposal","imageRemote":"https://blog.golang.org/lib/godoc/images/go-logo-blue.svg","video":null,"channel":null,"channelUrl":null,"author":"jparise","authorUrl":"https://news.ycombinator.com/user?id=jparise","authorImage":null,"authorSlug":null,"score":220,"views":null,"sharedCount":null,"likeCount":null,"sharedContent":null,"parent":{"__typename":"HnJson","localize":[{"title":"关于在围棋中增加通用名称的建议。","locale":"zh"},{"title":"關於在圍棋中增加通用名稱的建議。","locale":"zh-Hant"}]}},{"__typename":"SocialMediaPost","id":"HnPost-25745304","excerpt":"","slug":"/hn/25745304","title":"Facebook to staff: Avoid company-branded clothing for own safety","date":"January 13, 2021","dateISO":"2021-01-13T01:55:07.168Z","datetime":"2021-01-13 01:55","tags":["story","Hacker News"],"image":null,"imageAlt":null,"provider":"Hacker News","thirdPartyId":"25745304","url":"https://news.ycombinator.com/item?id=25745304","originalUrl":"https://www.businessinsider.com/facebook-trump-ban-staff-company-branded-clothing-safety-concerns-2021-1","imageRemote":"https://i.insider.com/5ffd71aed184b30018aae3b3?width=1200&format=jpeg","video":null,"channel":null,"channelUrl":null,"author":"pera","authorUrl":"https://news.ycombinator.com/user?id=pera","authorImage":null,"authorSlug":null,"score":306,"views":null,"sharedCount":null,"likeCount":null,"sharedContent":null,"parent":{"__typename":"HnJson","localize":[{"title":"脸书对员工。为了自身安全，避免穿公司品牌的衣服","locale":"zh"},{"title":"臉書對員工。爲了自身安全，避免穿公司品牌的衣服","locale":"zh-Hant"}]}},{"__typename":"SocialMediaPost","id":"HnPost-25749492","excerpt":"","slug":"/hn/25749492","title":"Show HN: Amplication – Instantly Generate Node.js Apps with GraphQL and REST API","date":"January 13, 2021","dateISO":"2021-01-13T01:55:07.168Z","datetime":"2021-01-13 01:55","tags":["story","Show HN","Hacker News"],"image":null,"imageAlt":null,"provider":"Hacker News","thirdPartyId":"25749492","url":"https://news.ycombinator.com/item?id=25749492","originalUrl":"https://github.com/amplication/amplication","imageRemote":"https://repository-images.githubusercontent.com/262862475/89475900-2730-11eb-8f1f-bdb1b9648403","video":null,"channel":"Show HN","channelUrl":"https://news.ycombinator.com/show","author":"yuvalhazaz","authorUrl":"https://news.ycombinator.com/user?id=yuvalhazaz","authorImage":null,"authorSlug":null,"score":270,"views":null,"sharedCount":null,"likeCount":null,"sharedContent":null,"parent":{"__typename":"HnJson","localize":[{"title":"HN新产品：Amplication - 使用GraphQL和REST API即时生成Node.js应用。","locale":"zh"},{"title":"HN新產品：Amplication - 使用GraphQL和REST API即時生成Node.js應用。","locale":"zh-Hant"}]}},{"__typename":"SocialMediaPost","id":"HnPost-25753166","excerpt":"","slug":"/hn/25753166","title":"Computer Science Curriculum in 1000 YouTube Videos","date":"January 13, 2021","dateISO":"2021-01-13T00:11:33.256Z","datetime":"2021-01-13 00:11","tags":["story","Hacker News"],"image":null,"imageAlt":null,"provider":"Hacker News","thirdPartyId":"25753166","url":"https://news.ycombinator.com/item?id=25753166","originalUrl":"https://laconicml.com/computer-science-curriculum-youtube-videos/","imageRemote":"https://laconicml.com/wp-content/uploads/2020/12/post_58_naslovna.jpg","video":null,"channel":null,"channelUrl":null,"author":"nixass","authorUrl":"https://news.ycombinator.com/user?id=nixass","authorImage":null,"authorSlug":null,"score":340,"views":null,"sharedCount":null,"likeCount":null,"sharedContent":null,"parent":{"__typename":"HnJson","localize":[{"title":"计算机科学课程在1000个YouTube视频中","locale":"zh"},{"title":"計算機科學課程在1000個YouTube視頻中","locale":"zh-Hant"}]}},{"__typename":"SocialMediaPost","id":"HnPost-25752000","excerpt":"","slug":"/hn/25752000","title":"U.S. to require negative Covid-19 tests for international air passengers","date":"January 12, 2021","dateISO":"2021-01-12T21:42:57.714Z","datetime":"2021-01-12 21:42","tags":["story","Hacker News"],"image":null,"imageAlt":null,"provider":"Hacker News","thirdPartyId":"25752000","url":"https://news.ycombinator.com/item?id=25752000","originalUrl":"https://www.reuters.com/article/us-health-coronavirus-airlines/u-s-to-require-negative-covid-19-tests-for-international-air-passengers-sources-idUSKBN29H2KD","imageRemote":"https://static.reuters.com/resources/r/?m=02&d=20210112&t=2&i=1547531421&r=LYNXMPEH0B1CR&w=800","video":null,"channel":null,"channelUrl":null,"author":"Element_","authorUrl":"https://news.ycombinator.com/user?id=Element_","authorImage":null,"authorSlug":null,"score":380,"views":null,"sharedCount":null,"likeCount":null,"sharedContent":null,"parent":{"__typename":"HnJson","localize":[{"title":"美国将要求国际航空旅客进行Covid-19阴性检测。","locale":"zh"},{"title":"美國將要求國際航空旅客進行Covid-19陰性檢測。","locale":"zh-Hant"}]}},{"__typename":"SocialMediaPost","id":"HnPost-25751808","excerpt":"","slug":"/hn/25751808","title":"If it will matter after today, don't talk about it in a chat room","date":"January 12, 2021","dateISO":"2021-01-12T20:44:49.459Z","datetime":"2021-01-12 20:44","tags":["story","Hacker News"],"image":null,"imageAlt":null,"provider":"Hacker News","thirdPartyId":"25751808","url":"https://news.ycombinator.com/item?id=25751808","originalUrl":"https://critter.blog/2021/01/12/if-it-matters-after-today-stop-talking-about-it-in-a-chat-room/","imageRemote":"https://mikecrittendenhome.files.wordpress.com/2021/01/stephen-phillips-hostreviews-co-uk-ae0ix-blcjc-unsplash.jpg?w=1200","video":null,"channel":null,"channelUrl":null,"author":"mcrittenden","authorUrl":"https://news.ycombinator.com/user?id=mcrittenden","authorImage":null,"authorSlug":null,"score":749,"views":null,"sharedCount":null,"likeCount":null,"sharedContent":null,"parent":{"__typename":"HnJson","localize":[{"title":"如果过了今天就有关系了，就不要在聊天室里说了。","locale":"zh"},{"title":"如果過了今天就有關係了，就不要在聊天室裏說了。","locale":"zh-Hant"}]}},{"__typename":"SocialMediaPost","id":"HnPost-25744251","excerpt":"","slug":"/hn/25744251","title":"Signal Fork with WhatsApp Migration","date":"January 12, 2021","dateISO":"2021-01-12T17:42:57.735Z","datetime":"2021-01-12 17:42","tags":["story","Hacker News"],"image":null,"imageAlt":null,"provider":"Hacker News","thirdPartyId":"25744251","url":"https://news.ycombinator.com/item?id=25744251","originalUrl":"https://github.com/jukefoxer/Signal-Android/tree/feature/wa-db-import","imageRemote":"https://avatars3.githubusercontent.com/u/30292742?s=400&v=4","video":null,"channel":null,"channelUrl":null,"author":"lsblk","authorUrl":"https://news.ycombinator.com/user?id=lsblk","authorImage":null,"authorSlug":null,"score":290,"views":null,"sharedCount":null,"likeCount":null,"sharedContent":null,"parent":{"__typename":"HnJson","localize":[{"title":"WhatsApp迁移的信号分叉","locale":"zh"},{"title":"WhatsApp遷移的信號分叉","locale":"zh-Hant"}]}},{"__typename":"SocialMediaPost","id":"HnPost-25744661","excerpt":"","slug":"/hn/25744661","title":"I received my first donation on my open-source side project and it felt great","date":"January 12, 2021","dateISO":"2021-01-12T17:42:57.735Z","datetime":"2021-01-12 17:42","tags":["story","Hacker News"],"image":null,"imageAlt":null,"provider":"Hacker News","thirdPartyId":"25744661","url":"https://news.ycombinator.com/item?id=25744661","originalUrl":"https://gourav.io/blog/first-donation-on-open-source-side-project","imageRemote":"https://gourav.io/_next/static/media/pages/blog/first-donation-on-open-source-side-project/og.png","video":null,"channel":null,"channelUrl":null,"author":"jerrygoyal","authorUrl":"https://news.ycombinator.com/user?id=jerrygoyal","authorImage":null,"authorSlug":null,"score":401,"views":null,"sharedCount":null,"likeCount":null,"sharedContent":null,"parent":{"__typename":"HnJson","localize":[{"title":"我收到了我的开源项目的第一笔捐款，感觉很棒","locale":"zh"},{"title":"我收到了我的開源項目的第一筆捐款，感覺很棒","locale":"zh-Hant"}]}},{"__typename":"SocialMediaPost","id":"HnPost-25745615","excerpt":"","slug":"/hn/25745615","title":"Plain Text Accounting","date":"January 12, 2021","dateISO":"2021-01-12T17:42:57.735Z","datetime":"2021-01-12 17:42","tags":["story","Hacker News"],"image":null,"imageAlt":null,"provider":"Hacker News","thirdPartyId":"25745615","url":"https://news.ycombinator.com/item?id=25745615","originalUrl":"https://plaintextaccounting.org/","imageRemote":"https://img.shields.io/github/stars/plaintextaccounting/plaintextaccounting.github.io.svg?style=social&label=Github","video":null,"channel":null,"channelUrl":null,"author":"sundarurfriend","authorUrl":"https://news.ycombinator.com/user?id=sundarurfriend","authorImage":null,"authorSlug":null,"score":469,"views":null,"sharedCount":null,"likeCount":null,"sharedContent":null,"parent":{"__typename":"HnJson","localize":[{"title":"明文记帐","locale":"zh"},{"title":"明文記帳","locale":"zh-Hant"}]}},{"__typename":"SocialMediaPost","id":"HnPost-25747659","excerpt":"","slug":"/hn/25747659","title":"How Silicon Valley, in a Show of Monopolistic Force, Destroyed Parler","date":"January 12, 2021","dateISO":"2021-01-12T17:42:57.734Z","datetime":"2021-01-12 17:42","tags":["story","Hacker News"],"image":null,"imageAlt":null,"provider":"Hacker News","thirdPartyId":"25747659","url":"https://news.ycombinator.com/item?id=25747659","originalUrl":"https://greenwald.substack.com/p/how-silicon-valley-in-a-show-of-monopolistic","imageRemote":"https://cdn.substack.com/image/fetch/h_600,c_limit,f_auto,q_auto:good,fl_progressive:steep/https%3A%2F%2Fbucketeer-e05bbc84-baa3-437e-9518-adb32be77984.s3.amazonaws.com%2Fpublic%2Fimages%2F5bf83518-22df-4333-a423-63fbb59cb9a2_4032x3024.jpeg","video":null,"channel":null,"channelUrl":null,"author":"amadeuspagel","authorUrl":"https://news.ycombinator.com/user?id=amadeuspagel","authorImage":null,"authorSlug":null,"score":1049,"views":null,"sharedCount":null,"likeCount":null,"sharedContent":null,"parent":{"__typename":"HnJson","localize":[{"title":"硅谷如何在一场垄断力量的展示中摧毁了帕勒","locale":"zh"},{"title":"硅谷如何在一場壟斷力量的展示中摧毀了帕勒","locale":"zh-Hant"}]}},{"__typename":"SocialMediaPost","id":"HnPost-25747284","excerpt":"","slug":"/hn/25747284","title":"Sci-Hub Is Now on the ‘Uncensorable Web’","date":"January 12, 2021","dateISO":"2021-01-12T15:47:14.563Z","datetime":"2021-01-12 15:47","tags":["story","Hacker News"],"image":null,"imageAlt":null,"provider":"Hacker News","thirdPartyId":"25747284","url":"https://news.ycombinator.com/item?id=25747284","originalUrl":"https://www.nasdaq.com/articles/pirated-academic-database-sci-hub-is-now-on-the-uncensorable-web-2021-01-11","imageRemote":null,"video":null,"channel":null,"channelUrl":null,"author":"rasengan","authorUrl":"https://news.ycombinator.com/user?id=rasengan","authorImage":null,"authorSlug":null,"score":840,"views":null,"sharedCount":null,"likeCount":null,"sharedContent":null,"parent":{"__typename":"HnJson","localize":[{"title":"SCI-Hub现在出现在“不受监控的网络”上","locale":"zh"},{"title":"SCI-Hub現在出現在“不受監控的網絡”上","locale":"zh-Hant"}]}},{"__typename":"SocialMediaPost","id":"HnPost-25743546","excerpt":"","slug":"/hn/25743546","title":"Lulu – Mac open-source firewall that aims to block unknown outgoing connections","date":"January 12, 2021","dateISO":"2021-01-12T15:15:23.411Z","datetime":"2021-01-12 15:15","tags":["story","Hacker News"],"image":null,"imageAlt":null,"provider":"Hacker News","thirdPartyId":"25743546","url":"https://news.ycombinator.com/item?id=25743546","originalUrl":"https://objective-see.com/products/lulu.html","imageRemote":"https://objective-see.com/images/LL/alert.png","video":null,"channel":null,"channelUrl":null,"author":"tambourine_man","authorUrl":"https://news.ycombinator.com/user?id=tambourine_man","authorImage":null,"authorSlug":null,"score":363,"views":null,"sharedCount":null,"likeCount":null,"sharedContent":null,"parent":{"__typename":"HnJson","localize":[{"title":"Lulu-Mac开源防火墙，针对挡路未知出站连接","locale":"zh"},{"title":"Lulu-Mac開源防火牆，針對擋路未知出站連接","locale":"zh-Hant"}]}},{"__typename":"SocialMediaPost","id":"HnPost-25741858","excerpt":"","slug":"/hn/25741858","title":"Two Worlds: So Much Prosperity, So Much Skepticism","date":"January 12, 2021","dateISO":"2021-01-12T14:48:05.158Z","datetime":"2021-01-12 14:48","tags":["story","Hacker News"],"image":null,"imageAlt":null,"provider":"Hacker News","thirdPartyId":"25741858","url":"https://news.ycombinator.com/item?id=25741858","originalUrl":"https://www.collaborativefund.com/blog/two-worlds/","imageRemote":"http://www.collaborativefund.com/uploads/ashkan-forouzani-VlBygHw4K3I-unsplash.jpg","video":null,"channel":null,"channelUrl":null,"author":"loosetypes","authorUrl":"https://news.ycombinator.com/user?id=loosetypes","authorImage":null,"authorSlug":null,"score":236,"views":null,"sharedCount":null,"likeCount":null,"sharedContent":null,"parent":{"__typename":"HnJson","localize":[{"title":"两个世界：如此繁荣，如此怀疑","locale":"zh"},{"title":"兩個世界：如此繁榮，如此懷疑","locale":"zh-Hant"}]}},{"__typename":"SocialMediaPost","id":"HnPost-25741972","excerpt":"","slug":"/hn/25741972","title":"Moderna is announcing three new vaccine programs","date":"January 12, 2021","dateISO":"2021-01-12T10:05:35.278Z","datetime":"2021-01-12 10:05","tags":["story","Hacker News"],"image":null,"imageAlt":null,"provider":"Hacker News","thirdPartyId":"25741972","url":"https://news.ycombinator.com/item?id=25741972","originalUrl":"https://investors.modernatx.com/news-releases/news-release-details/moderna-provides-business-update-and-announces-three-new","imageRemote":"https://cts.businesswire.com/ct/CT?id=bwnews&sty=20210111005580r1&sid=acqr8&distro=nx&lang=en","video":null,"channel":null,"channelUrl":null,"author":"Osiris30","authorUrl":"https://news.ycombinator.com/user?id=Osiris30","authorImage":null,"authorSlug":null,"score":355,"views":null,"sharedCount":null,"likeCount":null,"sharedContent":null,"parent":{"__typename":"HnJson","localize":[{"title":"莫德纳宣布了三个新的疫苗项目","locale":"zh"},{"title":"莫德納宣佈了三個新的疫苗項目","locale":"zh-Hant"}]}},{"__typename":"SocialMediaPost","id":"HnPost-25741729","excerpt":"","slug":"/hn/25741729","title":"Theseus: A modern experimental OS written from scratch in Rust","date":"January 12, 2021","dateISO":"2021-01-12T09:22:23.662Z","datetime":"2021-01-12 09:22","tags":["story","Hacker News"],"image":null,"imageAlt":null,"provider":"Hacker News","thirdPartyId":"25741729","url":"https://news.ycombinator.com/item?id=25741729","originalUrl":"https://github.com/theseus-os/Theseus","imageRemote":"https://avatars3.githubusercontent.com/u/42755277?s=400&v=4","video":null,"channel":null,"channelUrl":null,"author":"metalwhale","authorUrl":"https://news.ycombinator.com/user?id=metalwhale","authorImage":null,"authorSlug":null,"score":377,"views":null,"sharedCount":null,"likeCount":null,"sharedContent":null,"parent":{"__typename":"HnJson","localize":[{"title":"Teseus：一个用铁锈白手起家的现代实验操作系统","locale":"zh"},{"title":"Teseus：一個用鐵鏽白手起家的現代實驗操作系統","locale":"zh-Hant"}]}},{"__typename":"SocialMediaPost","id":"HnPost-25742276","excerpt":"","slug":"/hn/25742276","title":"Amazon Echo Flex Teardown: Microphone Mute, Real or Fake?","date":"January 12, 2021","dateISO":"2021-01-12T08:49:54.035Z","datetime":"2021-01-12 08:49","tags":["story","Hacker News"],"image":null,"imageAlt":null,"provider":"Hacker News","thirdPartyId":"25742276","url":"https://news.ycombinator.com/item?id=25742276","originalUrl":"https://electronupdate.blogspot.com/2021/01/amazon-echo-flex-microphone-mute-real.html","imageRemote":"https://1.bp.blogspot.com/-w-OdOP8R-XA/X_W4e3hgxWI/AAAAAAAABgY/_EmKhHLtksAoFbLJEjZmGVk-JZ9X-_kowCLcBGAsYHQ/w1200-h630-p-k-no-nu/mute1.png","video":null,"channel":null,"channelUrl":null,"author":"parsecs","authorUrl":"https://news.ycombinator.com/user?id=parsecs","authorImage":null,"authorSlug":null,"score":435,"views":null,"sharedCount":null,"likeCount":null,"sharedContent":null,"parent":{"__typename":"HnJson","localize":[{"title":"亚马逊Echo Flex Teardown：麦克风静音，真的还是假的？","locale":"zh"},{"title":"亞馬遜Echo Flex Teardown：麥克風靜音，真的還是假的？","locale":"zh-Hant"}]}},{"__typename":"SocialMediaPost","id":"HnPost-25730778","excerpt":"","slug":"/hn/25730778","title":"A bit on scaling chess.com's database","date":"January 12, 2021","dateISO":"2021-01-12T08:00:30.922Z","datetime":"2021-01-12 08:00","tags":["story","Hacker News"],"image":null,"imageAlt":null,"provider":"Hacker News","thirdPartyId":"25730778","url":"https://news.ycombinator.com/item?id=25730778","originalUrl":"https://unstructed.tech/2021/01/11/your-legacy-database-is-outgrowing-itself/","imageRemote":"https://unstructed.tech/wp-content/uploads/2021/01/server-2160321_1920.jpg","video":null,"channel":null,"channelUrl":null,"author":"ikonic89","authorUrl":"https://news.ycombinator.com/user?id=ikonic89","authorImage":null,"authorSlug":null,"score":245,"views":null,"sharedCount":null,"likeCount":null,"sharedContent":null,"parent":{"__typename":"HnJson","localize":[{"title":"略论扩展chess.com的数据库","locale":"zh"},{"title":"略論擴展chess.com的數據庫","locale":"zh-Hant"}]}},{"__typename":"SocialMediaPost","id":"HnPost-25733406","excerpt":"","slug":"/hn/25733406","title":"Intruder at the top of the 20 meter amateur band?","date":"January 12, 2021","dateISO":"2021-01-12T05:55:19.254Z","datetime":"2021-01-12 05:55","tags":["story","Hacker News"],"image":null,"imageAlt":null,"provider":"Hacker News","thirdPartyId":"25733406","url":"https://news.ycombinator.com/item?id=25733406","originalUrl":"http://ka7oei.blogspot.com/2020/12/intruder-at-top-of-20-meter-amateur-band.html","imageRemote":"https://1.bp.blogspot.com/-w2YHSwRm1rc/X9Y7-hLdioI/AAAAAAAAHks/woUvfkPtuM8_cy7D2cej26TsI3Zue1gSQCLcBGAsYHQ/w1200-h630-p-k-no-nu/wide_signal_20m_2a.jpg","video":null,"channel":null,"channelUrl":null,"author":"lmh","authorUrl":"https://news.ycombinator.com/user?id=lmh","authorImage":null,"authorSlug":null,"score":250,"views":null,"sharedCount":null,"likeCount":null,"sharedContent":null,"parent":{"__typename":"HnJson","localize":[{"title":"20米业余乐队顶端的入侵者？","locale":"zh"},{"title":"20米業餘樂隊頂端的入侵者？","locale":"zh-Hant"}]}},{"__typename":"SocialMediaPost","id":"HnPost-25737611","excerpt":"","slug":"/hn/25737611","title":"My ISP Is Killing My Idle SSH Sessions","date":"January 12, 2021","dateISO":"2021-01-12T05:55:19.254Z","datetime":"2021-01-12 05:55","tags":["story","Hacker News"],"image":null,"imageAlt":null,"provider":"Hacker News","thirdPartyId":"25737611","url":"https://news.ycombinator.com/item?id=25737611","originalUrl":"https://anderstrier.dk/2021/01/11/my-isp-is-killing-my-idle-ssh-sessions-yours-might-be-too/","imageRemote":"https://anderstrier.dk/wp-content/uploads/2020/12/ssh-session-clientside.png","video":null,"channel":null,"channelUrl":null,"author":"anderstrier","authorUrl":"https://news.ycombinator.com/user?id=anderstrier","authorImage":null,"authorSlug":null,"score":398,"views":null,"sharedCount":null,"likeCount":null,"sharedContent":null,"parent":{"__typename":"HnJson","localize":[{"title":"我的ISP正在扼杀我的空闲SSH会话","locale":"zh"},{"title":"我的ISP正在扼殺我的空閒SSH會話","locale":"zh-Hant"}]}},{"__typename":"SocialMediaPost","id":"HnPost-25728198","excerpt":"","slug":"/hn/25728198","title":"How to Become a Data Engineer in 2021","date":"January 12, 2021","dateISO":"2021-01-12T02:48:05.600Z","datetime":"2021-01-12 02:48","tags":["story","Hacker News"],"image":null,"imageAlt":null,"provider":"Hacker News","thirdPartyId":"25728198","url":"https://news.ycombinator.com/item?id=25728198","originalUrl":"https://khashtamov.com/en/how-to-become-a-data-engineer/","imageRemote":"https://khashtamov.com/uploads/redactor/1_7IMev5xslc9FLxr9hHhpFw.png","video":null,"channel":null,"channelUrl":null,"author":"adilkhash","authorUrl":"https://news.ycombinator.com/user?id=adilkhash","authorImage":null,"authorSlug":null,"score":263,"views":null,"sharedCount":null,"likeCount":null,"sharedContent":null,"parent":{"__typename":"HnJson","localize":[{"title":"如何在2021年成为一名数据工程师","locale":"zh"},{"title":"如何在2021年成爲一名數據工程師","locale":"zh-Hant"}]}},{"__typename":"SocialMediaPost","id":"HnPost-25735451","excerpt":"","slug":"/hn/25735451","title":"We Need a New Media System","date":"January 12, 2021","dateISO":"2021-01-12T01:31:40.444Z","datetime":"2021-01-12 01:31","tags":["story","Hacker News"],"image":null,"imageAlt":null,"provider":"Hacker News","thirdPartyId":"25735451","url":"https://news.ycombinator.com/item?id=25735451","originalUrl":"https://taibbi.substack.com/p/we-need-a-new-media-system","imageRemote":"https://cdn.substack.com/image/fetch/h_600,c_limit,f_auto,q_auto:good,fl_progressive:steep/https%3A%2F%2Fbucketeer-e05bbc84-baa3-437e-9518-adb32be77984.s3.amazonaws.com%2Fpublic%2Fimages%2F77b4d018-c8a6-4c32-8cc7-98d786a2281f_2219x1201.png","video":null,"channel":null,"channelUrl":null,"author":"Reedx","authorUrl":"https://news.ycombinator.com/user?id=Reedx","authorImage":null,"authorSlug":null,"score":305,"views":null,"sharedCount":null,"likeCount":null,"sharedContent":null,"parent":{"__typename":"HnJson","localize":[{"title":"我们需要一个新的媒体系统","locale":"zh"},{"title":"我們需要一個新的媒體系統","locale":"zh-Hant"}]}},{"__typename":"SocialMediaPost","id":"HnPost-25736155","excerpt":"","slug":"/hn/25736155","title":"Poland Justice Minister announces online freedom of speech bill","date":"January 12, 2021","dateISO":"2021-01-12T01:31:40.444Z","datetime":"2021-01-12 01:31","tags":["story","Hacker News"],"image":null,"imageAlt":null,"provider":"Hacker News","thirdPartyId":"25736155","url":"https://news.ycombinator.com/item?id=25736155","originalUrl":"https://polandin.com/51388314/justice-minister-announces-online-freedom-of-speech-bill","imageRemote":"http://s10.tvp.pl/images2/0/6/e/uid_06e8435fb29de0d047b646ea085c0a061608275303404_width_960_play_0_pos_0_gs_0_height_540.jpg","video":null,"channel":null,"channelUrl":null,"author":"andrenth","authorUrl":"https://news.ycombinator.com/user?id=andrenth","authorImage":null,"authorSlug":null,"score":295,"views":null,"sharedCount":null,"likeCount":null,"sharedContent":null,"parent":{"__typename":"HnJson","localize":[{"title":"波兰司法部长宣布网上言论自由法案","locale":"zh"},{"title":"波蘭司法部長宣佈網上言論自由法案","locale":"zh-Hant"}]}},{"__typename":"SocialMediaPost","id":"HnPost-25731699","excerpt":"","slug":"/hn/25731699","title":"Simple Anomaly Detection Using Plain SQL","date":"January 11, 2021","dateISO":"2021-01-11T23:58:58.936Z","datetime":"2021-01-11 23:58","tags":["story","Hacker News"],"image":null,"imageAlt":null,"provider":"Hacker News","thirdPartyId":"25731699","url":"https://news.ycombinator.com/item?id=25731699","originalUrl":"https://hakibenita.com/sql-anomaly-detection","imageRemote":"https://hakibenita.com/images/00-sql-anomaly-detection-backtest-30-3-360.png","video":null,"channel":null,"channelUrl":null,"author":"harporoeder","authorUrl":"https://news.ycombinator.com/user?id=harporoeder","authorImage":null,"authorSlug":null,"score":511,"views":null,"sharedCount":null,"likeCount":null,"sharedContent":null,"parent":{"__typename":"HnJson","localize":[{"title":"基于纯SQL的简单异常检测","locale":"zh"},{"title":"基於純SQL的簡單異常檢測","locale":"zh-Hant"}]}},{"__typename":"SocialMediaPost","id":"HnPost-25737811","excerpt":"","slug":"/hn/25737811","title":"Facebook Says It Is Removing All Content Mentioning 'Stop the Steal'","date":"January 11, 2021","dateISO":"2021-01-11T23:58:58.936Z","datetime":"2021-01-11 23:58","tags":["story","Hacker News"],"image":null,"imageAlt":null,"provider":"Hacker News","thirdPartyId":"25737811","url":"https://news.ycombinator.com/item?id=25737811","originalUrl":"https://www.wsj.com/articles/facebook-says-it-is-removing-all-content-mentioning-stop-the-steal-11610401305","imageRemote":"https://images.wsj.net/im-283758/social","video":null,"channel":null,"channelUrl":null,"author":"admiralspoo","authorUrl":"https://news.ycombinator.com/user?id=admiralspoo","authorImage":null,"authorSlug":null,"score":270,"views":null,"sharedCount":null,"likeCount":null,"sharedContent":null,"parent":{"__typename":"HnJson","localize":[{"title":"Facebook称将删除所有提及“停止偷窃”的内容","locale":"zh"},{"title":"Facebook稱將刪除所有提及“停止偷竊”的內容","locale":"zh-Hant"}]}},{"__typename":"SocialMediaPost","id":"HnPost-25738457","excerpt":"","slug":"/hn/25738457","title":"Citing 'Censorship' Concerns, North Idaho ISP Blocks Facebook, Twitter","date":"January 11, 2021","dateISO":"2021-01-11T23:58:58.936Z","datetime":"2021-01-11 23:58","tags":["story","Hacker News"],"image":null,"imageAlt":null,"provider":"Hacker News","thirdPartyId":"25738457","url":"https://news.ycombinator.com/item?id=25738457","originalUrl":"https://www.kgw.com/article/news/local/idaho-internet-provider-blocks-facebook-and-twitter/293-867cc22b-fb90-4142-a296-8d800d2a03fb","imageRemote":"https://media.kgw.com/assets/KARE/images/352373316/352373316_1140x641.jpg","video":null,"channel":null,"channelUrl":null,"author":"thereare5lights","authorUrl":"https://news.ycombinator.com/user?id=thereare5lights","authorImage":null,"authorSlug":null,"score":299,"views":null,"sharedCount":null,"likeCount":null,"sharedContent":null,"parent":{"__typename":"HnJson","localize":[{"title":"北爱达荷州ISP以“审查”担忧为由屏蔽Facebook和Twitter","locale":"zh"},{"title":"北愛達荷州ISP以“審查”擔憂爲由屏蔽Facebook和Twitter","locale":"zh-Hant"}]}}]}},"pageContext":{"basePath":"/","pageType":"tag","tag":"story","tagsFilter":{"id":{"glob":"!*Post-1"}},"filter":{"id":{"glob":"!*Post-1"},"tags":{"eq":"story"}},"limit":25,"skip":1725,"total":2599,"totalPages":104,"currentPage":70,"maxWidth":1024,"maxHeight":512,"locale":"zh-Hant","hrefLang":"zh-Hant","originalPath":"/tags/story/page/70","dateFormat":"YYYY-MM-DD"}},"staticQueryHashes":["1239077767","2506312863","2744905544","3025052997","3493603132","3493603132","3513215887","386998304"]}