{"componentChunkName":"component---gatsby-theme-buzzing-src-gatsby-theme-timeline-templates-posts-query-js","path":"/tags/hacker-news/page/3","result":{"data":{"site":{"siteMetadata":{"title":"Reddit 热门","description":"用中文浏览Reddit热门内容","social":[{"name":"Twitter","url":"https://twitter.com/gatsbyjs","external":null,"prefetch":null},{"name":"GitHub","url":"https://github.com/gatsbyjs","external":null,"prefetch":null}],"menuLinks":[],"localize":[{"locale":"en","title":"Buzzing on Reddit","description":"See what's buzzing on Reddit in your native language","social":[{"name":"Reddit","url":"https://www.reddit.com/","external":true,"prefetch":null}],"menuLinks":[{"name":"Weekly Selection","url":"/issues","external":null,"prefetch":null},{"name":"RSS","url":"/rss.xml","external":null,"prefetch":false}]},{"locale":"zh-Hant","title":"Reddit 熱門","description":"用中文瀏覽Reddit熱門內容","social":null,"menuLinks":null}]}},"tagsGroup":{"group":[{"fieldValue":"ASK HN","totalCount":22},{"fieldValue":"Bitcoin","totalCount":3},{"fieldValue":"Hacker News","totalCount":906},{"fieldValue":"Poll","totalCount":1},{"fieldValue":"Show HN","totalCount":34},{"fieldValue":"investing","totalCount":194},{"fieldValue":"poll","totalCount":1},{"fieldValue":"reddit","totalCount":752},{"fieldValue":"science","totalCount":1},{"fieldValue":"stocks","totalCount":330},{"fieldValue":"story","totalCount":905},{"fieldValue":"tweet","totalCount":272},{"fieldValue":"wallstreetbets","totalCount":228}]},"allBlogPost":{"nodes":[{"__typename":"SocialMediaPost","id":"HnPost-25728198","excerpt":"","slug":"/hn/25728198","title":"How to Become a Data Engineer in 2021","date":"January 12, 2021","dateISO":"2021-01-12T02:48:05.600Z","datetime":"2021-01-12 02:48","tags":["story","Hacker News"],"image":null,"imageAlt":null,"provider":"Hacker News","thirdPartyId":"25728198","url":"https://news.ycombinator.com/item?id=25728198","originalUrl":"https://khashtamov.com/en/how-to-become-a-data-engineer/","imageRemote":"https://khashtamov.com/uploads/redactor/1_7IMev5xslc9FLxr9hHhpFw.png","video":null,"channel":null,"channelUrl":null,"author":"adilkhash","authorUrl":"https://news.ycombinator.com/user?id=adilkhash","authorImage":null,"authorSlug":null,"score":212,"views":null,"sharedCount":null,"likeCount":null,"sharedContent":null,"parent":{"__typename":"HnJson","localize":[{"title":"如何在2021年成为一名数据工程师","locale":"zh"},{"title":"如何在2021年成爲一名數據工程師","locale":"zh-Hant"}]}},{"__typename":"SocialMediaPost","id":"HnPost-25735451","excerpt":"","slug":"/hn/25735451","title":"We Need a New Media System","date":"January 12, 2021","dateISO":"2021-01-12T01:31:40.444Z","datetime":"2021-01-12 01:31","tags":["story","Hacker News"],"image":null,"imageAlt":null,"provider":"Hacker News","thirdPartyId":"25735451","url":"https://news.ycombinator.com/item?id=25735451","originalUrl":"https://taibbi.substack.com/p/we-need-a-new-media-system","imageRemote":"https://cdn.substack.com/image/fetch/h_600,c_limit,f_auto,q_auto:good,fl_progressive:steep/https%3A%2F%2Fbucketeer-e05bbc84-baa3-437e-9518-adb32be77984.s3.amazonaws.com%2Fpublic%2Fimages%2F77b4d018-c8a6-4c32-8cc7-98d786a2281f_2219x1201.png","video":null,"channel":null,"channelUrl":null,"author":"Reedx","authorUrl":"https://news.ycombinator.com/user?id=Reedx","authorImage":null,"authorSlug":null,"score":204,"views":null,"sharedCount":null,"likeCount":null,"sharedContent":null,"parent":{"__typename":"HnJson","localize":[{"title":"我们需要一个新的媒体系统","locale":"zh"},{"title":"我們需要一個新的媒體系統","locale":"zh-Hant"}]}},{"__typename":"SocialMediaPost","id":"HnPost-25736155","excerpt":"","slug":"/hn/25736155","title":"Poland Justice Minister announces online freedom of speech bill","date":"January 12, 2021","dateISO":"2021-01-12T01:31:40.444Z","datetime":"2021-01-12 01:31","tags":["story","Hacker News"],"image":null,"imageAlt":null,"provider":"Hacker News","thirdPartyId":"25736155","url":"https://news.ycombinator.com/item?id=25736155","originalUrl":"https://polandin.com/51388314/justice-minister-announces-online-freedom-of-speech-bill","imageRemote":"http://s10.tvp.pl/images2/0/6/e/uid_06e8435fb29de0d047b646ea085c0a061608275303404_width_960_play_0_pos_0_gs_0_height_540.jpg","video":null,"channel":null,"channelUrl":null,"author":"andrenth","authorUrl":"https://news.ycombinator.com/user?id=andrenth","authorImage":null,"authorSlug":null,"score":204,"views":null,"sharedCount":null,"likeCount":null,"sharedContent":null,"parent":{"__typename":"HnJson","localize":[{"title":"波兰司法部长宣布网上言论自由法案","locale":"zh"},{"title":"波蘭司法部長宣佈網上言論自由法案","locale":"zh-Hant"}]}},{"__typename":"SocialMediaPost","id":"HnPost-25731699","excerpt":"","slug":"/hn/25731699","title":"Simple Anomaly Detection Using Plain SQL","date":"January 11, 2021","dateISO":"2021-01-11T23:58:58.936Z","datetime":"2021-01-11 23:58","tags":["story","Hacker News"],"image":null,"imageAlt":null,"provider":"Hacker News","thirdPartyId":"25731699","url":"https://news.ycombinator.com/item?id=25731699","originalUrl":"https://hakibenita.com/sql-anomaly-detection","imageRemote":"https://hakibenita.com/images/00-sql-anomaly-detection-backtest-30-3-360.png","video":null,"channel":null,"channelUrl":null,"author":"harporoeder","authorUrl":"https://news.ycombinator.com/user?id=harporoeder","authorImage":null,"authorSlug":null,"score":201,"views":null,"sharedCount":null,"likeCount":null,"sharedContent":null,"parent":{"__typename":"HnJson","localize":[{"title":"基于纯SQL的简单异常检测","locale":"zh"},{"title":"基於純SQL的簡單異常檢測","locale":"zh-Hant"}]}},{"__typename":"SocialMediaPost","id":"HnPost-25737811","excerpt":"","slug":"/hn/25737811","title":"Facebook Says It Is Removing All Content Mentioning 'Stop the Steal'","date":"January 11, 2021","dateISO":"2021-01-11T23:58:58.936Z","datetime":"2021-01-11 23:58","tags":["story","Hacker News"],"image":null,"imageAlt":null,"provider":"Hacker News","thirdPartyId":"25737811","url":"https://news.ycombinator.com/item?id=25737811","originalUrl":"https://www.wsj.com/articles/facebook-says-it-is-removing-all-content-mentioning-stop-the-steal-11610401305","imageRemote":"https://images.wsj.net/im-283758/social","video":null,"channel":null,"channelUrl":null,"author":"admiralspoo","authorUrl":"https://news.ycombinator.com/user?id=admiralspoo","authorImage":null,"authorSlug":null,"score":235,"views":null,"sharedCount":null,"likeCount":null,"sharedContent":null,"parent":{"__typename":"HnJson","localize":[{"title":"Facebook称将删除所有提及“停止偷窃”的内容","locale":"zh"},{"title":"Facebook稱將刪除所有提及“停止偷竊”的內容","locale":"zh-Hant"}]}},{"__typename":"SocialMediaPost","id":"HnPost-25738457","excerpt":"","slug":"/hn/25738457","title":"Citing 'Censorship' Concerns, North Idaho ISP Blocks Facebook, Twitter","date":"January 11, 2021","dateISO":"2021-01-11T23:58:58.936Z","datetime":"2021-01-11 23:58","tags":["story","Hacker News"],"image":null,"imageAlt":null,"provider":"Hacker News","thirdPartyId":"25738457","url":"https://news.ycombinator.com/item?id=25738457","originalUrl":"https://www.kgw.com/article/news/local/idaho-internet-provider-blocks-facebook-and-twitter/293-867cc22b-fb90-4142-a296-8d800d2a03fb","imageRemote":"https://media.kgw.com/assets/KARE/images/352373316/352373316_1140x641.jpg","video":null,"channel":null,"channelUrl":null,"author":"thereare5lights","authorUrl":"https://news.ycombinator.com/user?id=thereare5lights","authorImage":null,"authorSlug":null,"score":270,"views":null,"sharedCount":null,"likeCount":null,"sharedContent":null,"parent":{"__typename":"HnJson","localize":[{"title":"北爱达荷州ISP以“审查”担忧为由屏蔽Facebook和Twitter","locale":"zh"},{"title":"北愛達荷州ISP以“審查”擔憂爲由屏蔽Facebook和Twitter","locale":"zh-Hant"}]}},{"__typename":"SocialMediaPost","id":"HnPost-25737011","excerpt":"","slug":"/hn/25737011","title":"FBI warns of plans for nationwide armed protests next week","date":"January 11, 2021","dateISO":"2021-01-11T23:16:10.668Z","datetime":"2021-01-11 23:16","tags":["story","Hacker News"],"image":null,"imageAlt":null,"provider":"Hacker News","thirdPartyId":"25737011","url":"https://news.ycombinator.com/item?id=25737011","originalUrl":"https://www.seattletimes.com/nation-world/nation/fbi-warns-of-plans-for-nationwide-armed-protests-next-week/","imageRemote":"https://static.seattletimes.com/wp-content/uploads/2021/01/01112021_FBI-warn2_tzr_120540-375x241.jpg","video":null,"channel":null,"channelUrl":null,"author":"ali92hm","authorUrl":"https://news.ycombinator.com/user?id=ali92hm","authorImage":null,"authorSlug":null,"score":240,"views":null,"sharedCount":null,"likeCount":null,"sharedContent":null,"parent":{"__typename":"HnJson","localize":[{"title":"FBI警告下周全国范围内的武装抗议计划","locale":"zh"},{"title":"FBI警告下週全國範圍內的武裝抗議計劃","locale":"zh-Hant"}]}},{"__typename":"SocialMediaPost","id":"HnPost-25728504","excerpt":"","slug":"/hn/25728504","title":"Tim Berners-Lee wants to put people in control of their personal data","date":"January 11, 2021","dateISO":"2021-01-11T21:36:52.119Z","datetime":"2021-01-11 21:36","tags":["story","Hacker News"],"image":null,"imageAlt":null,"provider":"Hacker News","thirdPartyId":"25728504","url":"https://news.ycombinator.com/item?id=25728504","originalUrl":"https://www.nytimes.com/2021/01/10/technology/tim-berners-lee-privacy-internet.html","imageRemote":"https://static01.nyt.com/images/2021/01/11/business/10BERNERS-LEE1-print/10BERNERS-LEE1-facebookJumbo.jpg","video":null,"channel":null,"channelUrl":null,"author":"IvanSologub","authorUrl":"https://news.ycombinator.com/user?id=IvanSologub","authorImage":null,"authorSlug":null,"score":203,"views":null,"sharedCount":null,"likeCount":null,"sharedContent":null,"parent":{"__typename":"HnJson","localize":[{"title":"蒂姆·伯纳斯-李希望让人们控制他们的个人数据","locale":"zh"},{"title":"蒂姆·伯納斯-李希望讓人們控制他們的個人數據","locale":"zh-Hant"}]}},{"__typename":"SocialMediaPost","id":"HnPost-25735032","excerpt":"","slug":"/hn/25735032","title":"Ubiquiti Networks Breach","date":"January 11, 2021","dateISO":"2021-01-11T21:36:52.119Z","datetime":"2021-01-11 21:36","tags":["story","Hacker News"],"image":null,"imageAlt":null,"provider":"Hacker News","thirdPartyId":"25735032","url":"https://news.ycombinator.com/item?id=25735032","originalUrl":"https://mailchi.mp/ubnt/account-notification?e=30527b2904","imageRemote":"https://gallery.mailchimp.com/bc856e62a9254399365d0277b/images/d44e0555-392a-4231-8dad-e1af7ed089d2.png","video":null,"channel":null,"channelUrl":null,"author":"ShaneCurran","authorUrl":"https://news.ycombinator.com/user?id=ShaneCurran","authorImage":null,"authorSlug":null,"score":231,"views":null,"sharedCount":null,"likeCount":null,"sharedContent":null,"parent":{"__typename":"HnJson","localize":[{"title":"Ubiquiti网络漏洞","locale":"zh"},{"title":"Ubiquiti網絡漏洞","locale":"zh-Hant"}]}},{"__typename":"SocialMediaPost","id":"HnPost-25731419","excerpt":"","slug":"/hn/25731419","title":"My personal wishlist for a decentralized social network","date":"January 11, 2021","dateISO":"2021-01-11T21:05:31.621Z","datetime":"2021-01-11 21:05","tags":["story","Hacker News"],"image":null,"imageAlt":null,"provider":"Hacker News","thirdPartyId":"25731419","url":"https://news.ycombinator.com/item?id=25731419","originalUrl":"https://carter.sande.duodecima.technology/decentralized-wishlist/","imageRemote":null,"video":null,"channel":null,"channelUrl":null,"author":"csande17","authorUrl":"https://news.ycombinator.com/user?id=csande17","authorImage":null,"authorSlug":null,"score":201,"views":null,"sharedCount":null,"likeCount":null,"sharedContent":null,"parent":{"__typename":"HnJson","localize":[{"title":"我个人对去中心化社交网络的愿望清单","locale":"zh"},{"title":"我個人對去中心化社交網絡的願望清單","locale":"zh-Hant"}]}},{"__typename":"SocialMediaPost","id":"HnPost-25726453","excerpt":"","slug":"/hn/25726453","title":"Parler drops offline after Amazon pulls support","date":"January 11, 2021","dateISO":"2021-01-11T18:23:16.059Z","datetime":"2021-01-11 18:23","tags":["story","Hacker News"],"image":null,"imageAlt":null,"provider":"Hacker News","thirdPartyId":"25726453","url":"https://news.ycombinator.com/item?id=25726453","originalUrl":"https://www.bbc.co.uk/news/technology-55615214","imageRemote":"https://ichef.bbci.co.uk/news/1024/branded_news/135BB/production/_116419297_mediaitem116419296.jpg","video":null,"channel":null,"channelUrl":null,"author":"brobdingnagians","authorUrl":"https://news.ycombinator.com/user?id=brobdingnagians","authorImage":null,"authorSlug":null,"score":261,"views":null,"sharedCount":null,"likeCount":null,"sharedContent":null,"parent":{"__typename":"HnJson","localize":[{"title":"在亚马逊取消支持后，Parler下线","locale":"zh"},{"title":"在亞馬遜取消支持後，Parler下線","locale":"zh-Hant"}]}},{"__typename":"SocialMediaPost","id":"HnPost-25730949","excerpt":"","slug":"/hn/25730949","title":"Study: All non-violent criminals jailed on minor drug offence should be released","date":"January 11, 2021","dateISO":"2021-01-11T18:23:16.059Z","datetime":"2021-01-11 18:23","tags":["story","Hacker News"],"image":null,"imageAlt":null,"provider":"Hacker News","thirdPartyId":"25730949","url":"https://news.ycombinator.com/item?id=25730949","originalUrl":"https://www.newkerala.com/news/2021/4866.htm","imageRemote":null,"video":null,"channel":null,"channelUrl":null,"author":"rustoo","authorUrl":"https://news.ycombinator.com/user?id=rustoo","authorImage":null,"authorSlug":null,"score":266,"views":null,"sharedCount":null,"likeCount":null,"sharedContent":null,"parent":{"__typename":"HnJson","localize":[{"title":"研究：所有因轻微毒品犯罪入狱的非暴力罪犯都应获释","locale":"zh"},{"title":"研究：所有因輕微毒品犯罪入獄的非暴力罪犯都應獲釋","locale":"zh-Hant"}]}},{"__typename":"SocialMediaPost","id":"HnPost-25731566","excerpt":"","slug":"/hn/25731566","title":"Tell HN: Aaron Swartz died today, 8 years ago","date":"January 11, 2021","dateISO":"2021-01-11T18:23:16.059Z","datetime":"2021-01-11 18:23","tags":["story","Hacker News"],"image":null,"imageAlt":null,"provider":"Hacker News","thirdPartyId":"25731566","url":"https://news.ycombinator.com/item?id=25731566","originalUrl":"https://news.ycombinator.com/item?id=25731566","imageRemote":null,"video":null,"channel":null,"channelUrl":null,"author":"ignoramous","authorUrl":"https://news.ycombinator.com/user?id=ignoramous","authorImage":null,"authorSlug":null,"score":512,"views":null,"sharedCount":null,"likeCount":null,"sharedContent":null,"parent":{"__typename":"HnJson","localize":[{"title":"告诉HN：Aaron Swartz今天去世了，8年前","locale":"zh"},{"title":"告訴HN：Aaron Swartz今天去世了，8年前","locale":"zh-Hant"}]}},{"__typename":"SocialMediaPost","id":"HnPost-25724014","excerpt":"","slug":"/hn/25724014","title":"The Confusing World of USB","date":"January 11, 2021","dateISO":"2021-01-11T17:14:26.161Z","datetime":"2021-01-11 17:14","tags":["story","Hacker News"],"image":null,"imageAlt":null,"provider":"Hacker News","thirdPartyId":"25724014","url":"https://news.ycombinator.com/item?id=25724014","originalUrl":"https://fabiensanglard.net/nousb/index.html","imageRemote":"https://fabiensanglard.net/nousb/usb_wires.svg","video":null,"channel":null,"channelUrl":null,"author":"guiambros","authorUrl":"https://news.ycombinator.com/user?id=guiambros","authorImage":null,"authorSlug":null,"score":208,"views":null,"sharedCount":null,"likeCount":null,"sharedContent":null,"parent":{"__typename":"HnJson","localize":[{"title":"令人困惑的USB世界","locale":"zh"},{"title":"令人困惑的USB世界","locale":"zh-Hant"}]}},{"__typename":"SocialMediaPost","id":"HnPost-25726068","excerpt":"","slug":"/hn/25726068","title":"Cryptography Dispatches: The Most Backdoor-Looking Bug I’ve Ever Seen","date":"January 11, 2021","dateISO":"2021-01-11T17:14:26.161Z","datetime":"2021-01-11 17:14","tags":["story","Hacker News"],"image":null,"imageAlt":null,"provider":"Hacker News","thirdPartyId":"25726068","url":"https://news.ycombinator.com/item?id=25726068","originalUrl":"https://buttondown.email/cryptography-dispatches/archive/cryptography-dispatches-the-most-backdoor-looking/","imageRemote":"https://buttondown.s3.us-west-2.amazonaws.com/images/ee618b89-a8fa-45a2-af01-6f9955d2c99a.jpeg","video":null,"channel":null,"channelUrl":null,"author":"iamd3vil","authorUrl":"https://news.ycombinator.com/user?id=iamd3vil","authorImage":null,"authorSlug":null,"score":203,"views":null,"sharedCount":null,"likeCount":null,"sharedContent":null,"parent":{"__typename":"HnJson","localize":[{"title":"密码调度：我见过的最像后门的漏洞","locale":"zh"},{"title":"密碼調度：我見過的最像後門的漏洞","locale":"zh-Hant"}]}},{"__typename":"SocialMediaPost","id":"HnPost-25726588","excerpt":"","slug":"/hn/25726588","title":" Haskell is our first choice for building production software systems","date":"January 11, 2021","dateISO":"2021-01-11T17:14:26.161Z","datetime":"2021-01-11 17:14","tags":["story","Hacker News"],"image":null,"imageAlt":null,"provider":"Hacker News","thirdPartyId":"25726588","url":"https://news.ycombinator.com/item?id=25726588","originalUrl":"https://www.foxhound.systems/blog/why-haskell-for-production/","imageRemote":"https://www.foxhound.systems/img/2021-01-11-why-haskell-for-production/architecture-banner.jpg","video":null,"channel":null,"channelUrl":null,"author":"Albert_Camus","authorUrl":"https://news.ycombinator.com/user?id=Albert_Camus","authorImage":null,"authorSlug":null,"score":215,"views":null,"sharedCount":null,"likeCount":null,"sharedContent":null,"parent":{"__typename":"HnJson","localize":[{"title":"Haskell是我们构建生产软件系统的首选","locale":"zh"},{"title":"Haskell是我們構建生產軟件系統的首選","locale":"zh-Hant"}]}},{"__typename":"SocialMediaPost","id":"HnPost-25728149","excerpt":"","slug":"/hn/25728149","title":"iPhone 7 with dead NAND netbooting unmodified Ubuntu 20.04 via USB ethernet","date":"January 11, 2021","dateISO":"2021-01-11T17:14:26.161Z","datetime":"2021-01-11 17:14","tags":["story","Hacker News"],"image":null,"imageAlt":null,"provider":"Hacker News","thirdPartyId":"25728149","url":"https://news.ycombinator.com/item?id=25728149","originalUrl":"https://old.reddit.com/r/linux/comments/kux9xx/success_iphone_7_with_dead_nand_netbooting/","imageRemote":"https://www.redditstatic.com/new-icon.png","video":null,"channel":null,"channelUrl":null,"author":"paulcarroty","authorUrl":"https://news.ycombinator.com/user?id=paulcarroty","authorImage":null,"authorSlug":null,"score":237,"views":null,"sharedCount":null,"likeCount":null,"sharedContent":null,"parent":{"__typename":"HnJson","localize":[{"title":"带有死NAND网络引导的iPhone7，未修改的Ubuntu 20.04通过USB以太网","locale":"zh"},{"title":"帶有死NAND網絡引導的iPhone7，未修改的Ubuntu 20.04通過USB以太網","locale":"zh-Hant"}]}},{"__typename":"SocialMediaPost","id":"HnPost-25728453","excerpt":"","slug":"/hn/25728453","title":"Don't Toss It, Fix It Europe Is Guaranteeing Citizens the “Right to Repair”","date":"January 11, 2021","dateISO":"2021-01-11T16:07:27.740Z","datetime":"2021-01-11 16:07","tags":["story","Hacker News"],"image":null,"imageAlt":null,"provider":"Hacker News","thirdPartyId":"25728453","url":"https://news.ycombinator.com/item?id=25728453","originalUrl":"https://reasonstobecheerful.world/europe-guarantee-right-to-repair-ifixit/","imageRemote":"https://reasonstobecheerful.world/wp-content/uploads/2021/01/19iFixitFirstBatchJuly0006-scaled-e1610112134281.jpg","video":null,"channel":null,"channelUrl":null,"author":"janvdberg","authorUrl":"https://news.ycombinator.com/user?id=janvdberg","authorImage":null,"authorSlug":null,"score":240,"views":null,"sharedCount":null,"likeCount":null,"sharedContent":null,"parent":{"__typename":"HnJson","localize":[{"title":"不要扔掉它，解决它欧洲正在保障公民的“修理权”","locale":"zh"},{"title":"不要扔掉它，解決它歐洲正在保障公民的“修理權”","locale":"zh-Hant"}]}},{"__typename":"SocialMediaPost","id":"HnPost-25729088","excerpt":"","slug":"/hn/25729088","title":"70TB of Parler users’ messages, videos, and posts leaked by security researchers","date":"January 11, 2021","dateISO":"2021-01-11T15:36:49.058Z","datetime":"2021-01-11 15:36","tags":["story","Hacker News"],"image":null,"imageAlt":null,"provider":"Hacker News","thirdPartyId":"25729088","url":"https://news.ycombinator.com/item?id=25729088","originalUrl":"https://cybernews.com/news/70tb-of-parler-users-messages-videos-and-posts-leaked-by-security-researchers/","imageRemote":"https://cybernews.com/wp-content/uploads/2021/01/shutterstock_1889045107.jpg","video":null,"channel":null,"channelUrl":null,"author":"joiguru","authorUrl":"https://news.ycombinator.com/user?id=joiguru","authorImage":null,"authorSlug":null,"score":242,"views":null,"sharedCount":null,"likeCount":null,"sharedContent":null,"parent":{"__typename":"HnJson","localize":[{"title":"安全研究人员泄露的70TB谈话者用户的消息、视频和帖子","locale":"zh"},{"title":"安全研究人員泄露的70TB談話者用戶的消息、視頻和帖子","locale":"zh-Hant"}]}},{"__typename":"SocialMediaPost","id":"HnPost-25708099","excerpt":"","slug":"/hn/25708099","title":"The Platform Is the Enemy","date":"January 11, 2021","dateISO":"2021-01-11T15:08:57.472Z","datetime":"2021-01-11 15:08","tags":["story","Hacker News"],"image":null,"imageAlt":null,"provider":"Hacker News","thirdPartyId":"25708099","url":"https://news.ycombinator.com/item?id=25708099","originalUrl":"https://danielbmarkham.com/the-platform-is-the-enemy/","imageRemote":"https://cdn.danielbmarkham.com/2021/01/idiocracy-president.jpg","video":null,"channel":null,"channelUrl":null,"author":"nomdep","authorUrl":"https://news.ycombinator.com/user?id=nomdep","authorImage":null,"authorSlug":null,"score":200,"views":null,"sharedCount":null,"likeCount":null,"sharedContent":null,"parent":{"__typename":"HnJson","localize":[{"title":"站台就是敌人","locale":"zh"},{"title":"站臺就是敵人","locale":"zh-Hant"}]}},{"__typename":"SocialMediaPost","id":"HnPost-25713858","excerpt":"","slug":"/hn/25713858","title":"Show HN: Using flamegraphs to read big HN threads","date":"January 11, 2021","dateISO":"2021-01-11T14:46:22.997Z","datetime":"2021-01-11 14:46","tags":["story","Show HN","Hacker News"],"image":null,"imageAlt":null,"provider":"Hacker News","thirdPartyId":"25713858","url":"https://news.ycombinator.com/item?id=25713858","originalUrl":"https://trungdq88.github.io/hn-big-threads/index.html","imageRemote":null,"video":null,"channel":"Show HN","channelUrl":"https://news.ycombinator.com/show","author":"trungdq88","authorUrl":"https://news.ycombinator.com/user?id=trungdq88","authorImage":null,"authorSlug":null,"score":204,"views":null,"sharedCount":null,"likeCount":null,"sharedContent":null,"parent":{"__typename":"HnJson","localize":[{"title":"HN新产品：使用火焰记录仪读取大型HN线程","locale":"zh"},{"title":"HN新產品：使用火焰記錄儀讀取大型HN線程","locale":"zh-Hant"}]}},{"__typename":"SocialMediaPost","id":"HnPost-25728175","excerpt":"","slug":"/hn/25728175","title":"Stealing Your Private YouTube Videos, One Frame at a Time","date":"January 11, 2021","dateISO":"2021-01-11T14:46:22.997Z","datetime":"2021-01-11 14:46","tags":["story","Hacker News"],"image":null,"imageAlt":null,"provider":"Hacker News","thirdPartyId":"25728175","url":"https://news.ycombinator.com/item?id=25728175","originalUrl":"https://bugs.xdavidhu.me/google/2021/01/11/stealing-your-private-videos-one-frame-at-a-time/","imageRemote":"https://bugs.xdavidhu.me/assets/posts/2021-01-11-stealing-your-private-videos-one-frame-at-a-time/twitter-card.png","video":null,"channel":null,"channelUrl":null,"author":"gbrown_","authorUrl":"https://news.ycombinator.com/user?id=gbrown_","authorImage":null,"authorSlug":null,"score":271,"views":null,"sharedCount":null,"likeCount":null,"sharedContent":null,"parent":{"__typename":"HnJson","localize":[{"title":"窃取你的YouTube私人视频，一次一帧","locale":"zh"},{"title":"竊取你的YouTube私人視頻，一次一幀","locale":"zh-Hant"}]}},{"__typename":"SocialMediaPost","id":"HnPost-25728066","excerpt":"","slug":"/hn/25728066","title":"Hyundai buys Boston Dynamics for nearly $1B","date":"January 11, 2021","dateISO":"2021-01-11T14:09:03.444Z","datetime":"2021-01-11 14:09","tags":["story","Hacker News"],"image":null,"imageAlt":null,"provider":"Hacker News","thirdPartyId":"25728066","url":"https://news.ycombinator.com/item?id=25728066","originalUrl":"https://spectrum.ieee.org/automaton/robotics/humanoids/hyundai-buys-boston-dynamics","imageRemote":null,"video":null,"channel":null,"channelUrl":null,"author":"mg","authorUrl":"https://news.ycombinator.com/user?id=mg","authorImage":null,"authorSlug":null,"score":238,"views":null,"sharedCount":null,"likeCount":null,"sharedContent":null,"parent":{"__typename":"HnJson","localize":[{"title":"现代汽车以近10亿美元收购波士顿动力公司","locale":"zh"},{"title":"現代汽車以近10億美元收購波士頓動力公司","locale":"zh-Hant"}]}},{"__typename":"SocialMediaPost","id":"HnPost-25725561","excerpt":"","slug":"/hn/25725561","title":"Malware on My Android Phone","date":"January 11, 2021","dateISO":"2021-01-11T13:37:49.236Z","datetime":"2021-01-11 13:37","tags":["story","Hacker News"],"image":null,"imageAlt":null,"provider":"Hacker News","thirdPartyId":"25725561","url":"https://news.ycombinator.com/item?id=25725561","originalUrl":"https://www.beust.com/weblog/malware-on-my-android-phone/","imageRemote":null,"video":null,"channel":null,"channelUrl":null,"author":"rossjudson","authorUrl":"https://news.ycombinator.com/user?id=rossjudson","authorImage":null,"authorSlug":null,"score":214,"views":null,"sharedCount":null,"likeCount":null,"sharedContent":null,"parent":{"__typename":"HnJson","localize":[{"title":"我的Android手机上的恶意软件","locale":"zh"},{"title":"我的Android手機上的惡意軟件","locale":"zh-Hant"}]}},{"__typename":"SocialMediaPost","id":"HnPost-25712080","excerpt":"","slug":"/hn/25712080","title":"Will the US experience a violent upheaval in 2020? (2012)","date":"January 11, 2021","dateISO":"2021-01-11T12:05:50.800Z","datetime":"2021-01-11 12:05","tags":["story","Hacker News"],"image":null,"imageAlt":null,"provider":"Hacker News","thirdPartyId":"25712080","url":"https://news.ycombinator.com/item?id=25712080","originalUrl":"https://www.livescience.com/22109-cycles-violence-2020.html","imageRemote":"https://cdn.mos.cms.futurecdn.net/JSeYk7vpJ6LxZzswVAKbCT-1200-80.png","video":null,"channel":null,"channelUrl":null,"author":"monort","authorUrl":"https://news.ycombinator.com/user?id=monort","authorImage":null,"authorSlug":null,"score":200,"views":null,"sharedCount":null,"likeCount":null,"sharedContent":null,"parent":{"__typename":"HnJson","localize":[{"title":"2020年美国会不会经历一场暴力剧变？(2012)","locale":"zh"},{"title":"2020年美國會不會經歷一場暴力劇變？(2012)","locale":"zh-Hant"}]}}]}},"pageContext":{"basePath":"/","pageType":"tag","tag":"Hacker News","tagsFilter":{"id":{"glob":"!*Post-1"}},"filter":{"id":{"glob":"!*Post-1"},"tags":{"eq":"Hacker News"}},"limit":25,"skip":50,"total":906,"totalPages":37,"currentPage":3,"maxWidth":1024,"maxHeight":512,"locale":"zh","hrefLang":"zh-Hans","originalPath":"/tags/hacker-news/page/3","dateFormat":"YYYY-MM-DD"}},"staticQueryHashes":["1239077767","2506312863","2744905544","3025052997","3493603132","3493603132","3513215887","386998304"]}