{"componentChunkName":"component---gatsby-theme-buzzing-src-gatsby-theme-timeline-templates-posts-query-js","path":"/zh-Hant/page/10","result":{"data":{"site":{"siteMetadata":{"title":"Reddit 热门","description":"用中文浏览Reddit热门内容","social":[{"name":"Twitter","url":"https://twitter.com/gatsbyjs","external":null,"prefetch":null},{"name":"GitHub","url":"https://github.com/gatsbyjs","external":null,"prefetch":null}],"menuLinks":[],"localize":[{"locale":"en","title":"Buzzing on Reddit","description":"See what's buzzing on Reddit in your native language","social":[{"name":"Reddit","url":"https://www.reddit.com/","external":true,"prefetch":null}],"menuLinks":[{"name":"Weekly Selection","url":"/issues","external":null,"prefetch":null},{"name":"RSS","url":"/rss.xml","external":null,"prefetch":false}]},{"locale":"zh-Hant","title":"Reddit 熱門","description":"用中文瀏覽Reddit熱門內容","social":null,"menuLinks":null}]}},"tagsGroup":{"group":[{"fieldValue":"ASK HN","totalCount":54},{"fieldValue":"Hacker News","totalCount":3107},{"fieldValue":"Poll","totalCount":1},{"fieldValue":"Show HN","totalCount":100},{"fieldValue":"poll","totalCount":1},{"fieldValue":"story","totalCount":3106}]},"allBlogPost":{"nodes":[{"__typename":"SocialMediaPost","id":"HnPost-26614654","excerpt":"","slug":"/hn/26614654","title":"Collabora Office: The enterprise-ready edition of LibreOffice","date":"March 29, 2021","dateISO":"2021-03-29T09:56:02.723Z","datetime":"2021-03-29 09:56","tags":["story","Hacker News"],"image":null,"imageAlt":null,"provider":"Hacker News","thirdPartyId":"26614654","url":"https://news.ycombinator.com/item?id=26614654","originalUrl":"https://www.collaboraoffice.com/solutions/collabora-office/","imageRemote":"https://www.collaboraoffice.com/wp-content/uploads/2015/10/desktop-with-perspective-with-calc-v3-cropped.png","video":null,"channel":null,"channelUrl":null,"author":"crazypython","authorUrl":"https://news.ycombinator.com/user?id=crazypython","authorImage":null,"authorSlug":null,"score":177,"views":null,"sharedCount":null,"likeCount":null,"sharedContent":null,"parent":{"__typename":"HnJson","localize":[{"title":"Collabora Office。LibreOffice的企业版","locale":"zh"},{"title":"Collabora Office。LibreOffice的企業版","locale":"zh-Hant"}]}},{"__typename":"SocialMediaPost","id":"HnPost-26616973","excerpt":"","slug":"/hn/26616973","title":"Robots.txt for the NYT has a specific exclusion for an 1996 news article","date":"March 29, 2021","dateISO":"2021-03-29T07:25:35.468Z","datetime":"2021-03-29 07:25","tags":["story","Hacker News"],"image":null,"imageAlt":null,"provider":"Hacker News","thirdPartyId":"26616973","url":"https://news.ycombinator.com/item?id=26616973","originalUrl":"https://twitter.com/oliviasolon/status/1171200746240372737","imageRemote":null,"video":null,"channel":null,"channelUrl":null,"author":"mikeortman","authorUrl":"https://news.ycombinator.com/user?id=mikeortman","authorImage":null,"authorSlug":null,"score":270,"views":null,"sharedCount":null,"likeCount":null,"sharedContent":null,"parent":{"__typename":"HnJson","localize":[{"title":"纽约时报的Robots.txt有一篇1996年的新闻文章，特别排除了以下内容","locale":"zh"},{"title":"紐約時報的Robots.txt有一篇1996年的新聞文章，特別排除了以下內容","locale":"zh-Hant"}]}},{"__typename":"SocialMediaPost","id":"HnPost-26616454","excerpt":"","slug":"/hn/26616454","title":"Everyone wants to do the model work, not the data work [pdf]","date":"March 29, 2021","dateISO":"2021-03-29T06:32:42.008Z","datetime":"2021-03-29 06:32","tags":["story","Hacker News"],"image":null,"imageAlt":null,"provider":"Hacker News","thirdPartyId":"26616454","url":"https://news.ycombinator.com/item?id=26616454","originalUrl":"https://storage.googleapis.com/pub-tools-public-publication-data/pdf/0d556e45afc54afeb2eb6b51a9bc1827b9961ff4.pdf","imageRemote":null,"video":null,"channel":null,"channelUrl":null,"author":"Anon84","authorUrl":"https://news.ycombinator.com/user?id=Anon84","authorImage":null,"authorSlug":null,"score":356,"views":null,"sharedCount":null,"likeCount":null,"sharedContent":null,"parent":{"__typename":"HnJson","localize":[{"title":"大家都想做模型的工作，而不是数据的工作[pdf]。","locale":"zh"},{"title":"大家都想做模型的工作，而不是數據的工作[pdf]。","locale":"zh-Hant"}]}},{"__typename":"SocialMediaPost","id":"HnPost-26615791","excerpt":"","slug":"/hn/26615791","title":"Text to Image Generation","date":"March 29, 2021","dateISO":"2021-03-29T05:34:33.342Z","datetime":"2021-03-29 05:34","tags":["story","Hacker News"],"image":null,"imageAlt":null,"provider":"Hacker News","thirdPartyId":"26615791","url":"https://news.ycombinator.com/item?id=26615791","originalUrl":"https://github.com/lucidrains/deep-daze","imageRemote":"https://avatars.githubusercontent.com/u/108653?s=400&v=4","video":null,"channel":null,"channelUrl":null,"author":"indigodaddy","authorUrl":"https://news.ycombinator.com/user?id=indigodaddy","authorImage":null,"authorSlug":null,"score":467,"views":null,"sharedCount":null,"likeCount":null,"sharedContent":null,"parent":{"__typename":"HnJson","localize":[{"title":"文本到图像生成","locale":"zh"},{"title":"文本到圖像生成","locale":"zh-Hant"}]}},{"__typename":"SocialMediaPost","id":"HnPost-26617081","excerpt":"","slug":"/hn/26617081","title":"Ever Given Everywhere","date":"March 29, 2021","dateISO":"2021-03-29T04:35:05.656Z","datetime":"2021-03-29 04:35","tags":["story","Hacker News"],"image":null,"imageAlt":null,"provider":"Hacker News","thirdPartyId":"26617081","url":"https://news.ycombinator.com/item?id=26617081","originalUrl":"https://evergiven-everywhere.glitch.me/","imageRemote":"https://cdn.glitch.com/40d83f73-34cc-401e-90f3-d6b2f92f2b01%2Fevergiven.png?v=1616949352560","video":null,"channel":null,"channelUrl":null,"author":"jbegley","authorUrl":"https://news.ycombinator.com/user?id=jbegley","authorImage":null,"authorSlug":null,"score":348,"views":null,"sharedCount":null,"likeCount":null,"sharedContent":null,"parent":{"__typename":"HnJson","localize":[{"title":"无处不在的永远给予","locale":"zh"},{"title":"無處不在的永遠給予","locale":"zh-Hant"}]}},{"__typename":"SocialMediaPost","id":"HnPost-26612357","excerpt":"","slug":"/hn/26612357","title":"No, I did not hack your MS Exchange server","date":"March 29, 2021","dateISO":"2021-03-29T03:36:25.836Z","datetime":"2021-03-29 03:36","tags":["story","Hacker News"],"image":null,"imageAlt":null,"provider":"Hacker News","thirdPartyId":"26612357","url":"https://news.ycombinator.com/item?id=26612357","originalUrl":"https://krebsonsecurity.com/2021/03/no-i-did-not-hack-your-ms-exchange-server/","imageRemote":"https://krebsonsecurity.com/wp-content/uploads/2021/03/ss-activewebshells.png","video":null,"channel":null,"channelUrl":null,"author":"todsacerdoti","authorUrl":"https://news.ycombinator.com/user?id=todsacerdoti","authorImage":null,"authorSlug":null,"score":178,"views":null,"sharedCount":null,"likeCount":null,"sharedContent":null,"parent":{"__typename":"HnJson","localize":[{"title":"不，我没有黑你的MS Exchange服务器。","locale":"zh"},{"title":"不，我沒有黑你的MS Exchange服務器。","locale":"zh-Hant"}]}},{"__typename":"SocialMediaPost","id":"HnPost-26615938","excerpt":"","slug":"/hn/26615938","title":"Terminal escape sequences in Git commit email field","date":"March 29, 2021","dateISO":"2021-03-29T03:36:25.836Z","datetime":"2021-03-29 03:36","tags":["story","Hacker News"],"image":null,"imageAlt":null,"provider":"Hacker News","thirdPartyId":"26615938","url":"https://news.ycombinator.com/item?id=26615938","originalUrl":"https://twitter.com/ryancdotorg/status/1375484757916672000","imageRemote":null,"video":null,"channel":null,"channelUrl":null,"author":"whack","authorUrl":"https://news.ycombinator.com/user?id=whack","authorImage":null,"authorSlug":null,"score":322,"views":null,"sharedCount":null,"likeCount":null,"sharedContent":null,"parent":{"__typename":"HnJson","localize":[{"title":"Git提交邮件字段中的终端转义序列","locale":"zh"},{"title":"Git提交郵件字段中的終端轉義序列","locale":"zh-Hant"}]}},{"__typename":"SocialMediaPost","id":"HnPost-26614959","excerpt":"","slug":"/hn/26614959","title":"The lawyer who took on Chevron – and now marks his 600th day under house arrest","date":"March 29, 2021","dateISO":"2021-03-29T02:31:05.530Z","datetime":"2021-03-29 02:31","tags":["story","Hacker News"],"image":null,"imageAlt":null,"provider":"Hacker News","thirdPartyId":"26614959","url":"https://news.ycombinator.com/item?id=26614959","originalUrl":"https://www.theguardian.com/us-news/2021/mar/28/chevron-lawyer-steven-donziger-ecuador-house-arrest","imageRemote":"https://i.guim.co.uk/img/media/6550bdeb8ab17d43dc8fe93f067404ef8291abac/0_0_4949_2968/master/4949.jpg?width=1200&height=630&quality=85&auto=format&fit=crop&overlay-align=bottom%2Cleft&overlay-width=100p&overlay-base64=L2ltZy9zdGF0aWMvb3ZlcmxheXMvdGctZGVmYXVsdC5wbmc&enable=upscale&s=4d84258845166a87db43d154c855658d","video":null,"channel":null,"channelUrl":null,"author":"ljf","authorUrl":"https://news.ycombinator.com/user?id=ljf","authorImage":null,"authorSlug":null,"score":321,"views":null,"sharedCount":null,"likeCount":null,"sharedContent":null,"parent":{"__typename":"HnJson","localize":[{"title":"对付雪佛龙的律师--现在是他被软禁的第600天。","locale":"zh"},{"title":"對付雪佛龍的律師--現在是他被軟禁的第600天。","locale":"zh-Hant"}]}},{"__typename":"SocialMediaPost","id":"HnPost-26609247","excerpt":"","slug":"/hn/26609247","title":"Bitcoin as a Battery","date":"March 29, 2021","dateISO":"2021-03-29T01:43:12.608Z","datetime":"2021-03-29 01:43","tags":["story","Hacker News"],"image":null,"imageAlt":null,"provider":"Hacker News","thirdPartyId":"26609247","url":"https://news.ycombinator.com/item?id=26609247","originalUrl":"https://www.nickgrossman.xyz/2021/bitcoin-as-battery/","imageRemote":"https://www.nickgrossman.xyz/wp-content/themes/johannes/assets/img/favicon.png","video":null,"channel":null,"channelUrl":null,"author":"tomsyouruncle","authorUrl":"https://news.ycombinator.com/user?id=tomsyouruncle","authorImage":null,"authorSlug":null,"score":147,"views":null,"sharedCount":null,"likeCount":null,"sharedContent":null,"parent":{"__typename":"HnJson","localize":[{"title":"比特币作为一种电池","locale":"zh"},{"title":"比特幣作爲一種電池","locale":"zh-Hant"}]}},{"__typename":"SocialMediaPost","id":"HnPost-26612987","excerpt":"","slug":"/hn/26612987","title":"How U.S. media lost the trust of the public","date":"March 29, 2021","dateISO":"2021-03-29T01:43:12.608Z","datetime":"2021-03-29 01:43","tags":["story","Hacker News"],"image":null,"imageAlt":null,"provider":"Hacker News","thirdPartyId":"26612987","url":"https://news.ycombinator.com/item?id=26612987","originalUrl":"https://www.cbc.ca/news/world/media-distrust-big-news-1.5965622","imageRemote":"https://i.cbc.ca/1.5965638.1616778683!/fileImage/httpImage/image.jpeg_gen/derivatives/16x9_620/press-capitol-riot.jpeg","video":null,"channel":null,"channelUrl":null,"author":"empressplay","authorUrl":"https://news.ycombinator.com/user?id=empressplay","authorImage":null,"authorSlug":null,"score":261,"views":null,"sharedCount":null,"likeCount":null,"sharedContent":null,"parent":{"__typename":"HnJson","localize":[{"title":"美国媒体是如何失去公众信任的？","locale":"zh"},{"title":"美國媒體是如何失去公衆信任的？","locale":"zh-Hant"}]}},{"__typename":"SocialMediaPost","id":"HnPost-26609060","excerpt":"","slug":"/hn/26609060","title":"Ada for the C++ and Java Developer [pdf]","date":"March 29, 2021","dateISO":"2021-03-29T00:25:29.871Z","datetime":"2021-03-29 00:25","tags":["story","Hacker News"],"image":null,"imageAlt":null,"provider":"Hacker News","thirdPartyId":"26609060","url":"https://news.ycombinator.com/item?id=26609060","originalUrl":"https://learn.adacore.com/pdf_books/courses/Ada_For_The_CPP_Java_Developer.pdf","imageRemote":null,"video":null,"channel":null,"channelUrl":null,"author":"pjmlp","authorUrl":"https://news.ycombinator.com/user?id=pjmlp","authorImage":null,"authorSlug":null,"score":152,"views":null,"sharedCount":null,"likeCount":null,"sharedContent":null,"parent":{"__typename":"HnJson","localize":[{"title":"Ada for the C++ and Java Developer [pdf]。","locale":"zh"},{"title":"Ada for the C++ and Java Developer [pdf]。","locale":"zh-Hant"}]}},{"__typename":"SocialMediaPost","id":"HnPost-26611413","excerpt":"","slug":"/hn/26611413","title":"The forgotten medieval fruit with a vulgar name","date":"March 28, 2021","dateISO":"2021-03-28T23:53:49.821Z","datetime":"2021-03-28 23:53","tags":["story","Hacker News"],"image":null,"imageAlt":null,"provider":"Hacker News","thirdPartyId":"26611413","url":"https://news.ycombinator.com/item?id=26611413","originalUrl":"https://www.bbc.com/future/article/20210325-the-strange-medieval-fruit-the-world-forgot","imageRemote":"https://ychef.files.bbci.co.uk/live/624x351/p09bv2md.jpg","video":null,"channel":null,"channelUrl":null,"author":"ranit","authorUrl":"https://news.ycombinator.com/user?id=ranit","authorImage":null,"authorSlug":null,"score":276,"views":null,"sharedCount":null,"likeCount":null,"sharedContent":null,"parent":{"__typename":"HnJson","localize":[{"title":"被人遗忘的中世纪水果，名字很俗气。","locale":"zh"},{"title":"被人遺忘的中世紀水果，名字很俗氣。","locale":"zh-Hant"}]}},{"__typename":"SocialMediaPost","id":"HnPost-26612063","excerpt":"","slug":"/hn/26612063","title":"The Ambiguous Utopia of Iain M. Banks (2009)","date":"March 28, 2021","dateISO":"2021-03-28T22:54:41.301Z","datetime":"2021-03-28 22:54","tags":["story","Hacker News"],"image":null,"imageAlt":null,"provider":"Hacker News","thirdPartyId":"26612063","url":"https://news.ycombinator.com/item?id=26612063","originalUrl":"https://www.thenewatlantis.com/publications/the-ambiguous-utopia-of-iain-m-banks","imageRemote":"https://www.thenewatlantis.com/wp-content/uploads/2020/09/social-share-default.png","video":null,"channel":null,"channelUrl":null,"author":"jasim","authorUrl":"https://news.ycombinator.com/user?id=jasim","authorImage":null,"authorSlug":null,"score":191,"views":null,"sharedCount":null,"likeCount":null,"sharedContent":null,"parent":{"__typename":"HnJson","localize":[{"title":"班克斯（Iain M. Banks）的模糊乌托邦（2009）。","locale":"zh"},{"title":"班克斯（Iain M. Banks）的模糊烏托邦（2009）。","locale":"zh-Hant"}]}},{"__typename":"SocialMediaPost","id":"HnPost-26612894","excerpt":"","slug":"/hn/26612894","title":"Developer tools can be magic but instead collect dust","date":"March 28, 2021","dateISO":"2021-03-28T22:35:47.608Z","datetime":"2021-03-28 22:35","tags":["story","Hacker News"],"image":null,"imageAlt":null,"provider":"Hacker News","thirdPartyId":"26612894","url":"https://news.ycombinator.com/item?id=26612894","originalUrl":"http://www.pathsensitive.com/2021/03/developer-tools-can-be-magic-instead.html","imageRemote":"https://lh4.googleusercontent.com/eYYnIVaV84PH8mIiUCUPeUF2F_Mc3-TvishtKVHbGlymIL2lrROqtnPnIupmmmNYWpCL1vnQ2sF--dQIPitAcp42h7kQk-dMSUvz5FWPAWpjgtpvO2ES_fsHOl1ECSNKt25xC3nl=w1200-h630-p-k-no-nu","video":null,"channel":null,"channelUrl":null,"author":"todsacerdoti","authorUrl":"https://news.ycombinator.com/user?id=todsacerdoti","authorImage":null,"authorSlug":null,"score":495,"views":null,"sharedCount":null,"likeCount":null,"sharedContent":null,"parent":{"__typename":"HnJson","localize":[{"title":"开发者工具可以有魔力，但反而会收集灰尘","locale":"zh"},{"title":"開發者工具可以有魔力，但反而會收集灰塵","locale":"zh-Hant"}]}},{"__typename":"SocialMediaPost","id":"HnPost-26611175","excerpt":"","slug":"/hn/26611175","title":"This is What Happens When You Fly a Drone Into a Volcano","date":"March 28, 2021","dateISO":"2021-03-28T20:27:54.502Z","datetime":"2021-03-28 20:27","tags":["story","Hacker News"],"image":null,"imageAlt":null,"provider":"Hacker News","thirdPartyId":"26611175","url":"https://news.ycombinator.com/item?id=26611175","originalUrl":"https://petapixel.com/2021/03/26/this-is-what-happens-when-you-fly-a-drone-into-a-volcano/","imageRemote":"https://petapixel.com/assets/uploads/2021/03/This-is-What-Happens-When-You-Fly-a-Drone-Into-a-Volcano.jpg","video":null,"channel":null,"channelUrl":null,"author":"giuliomagnifico","authorUrl":"https://news.ycombinator.com/user?id=giuliomagnifico","authorImage":null,"authorSlug":null,"score":265,"views":null,"sharedCount":null,"likeCount":null,"sharedContent":null,"parent":{"__typename":"HnJson","localize":[{"title":"当你的无人机飞入火山时会发生什么？","locale":"zh"},{"title":"當你的無人機飛入火山時會發生什麼？","locale":"zh-Hant"}]}},{"__typename":"SocialMediaPost","id":"HnPost-26613482","excerpt":"","slug":"/hn/26613482","title":"Addiction to Outrage Is Ruining Your Life","date":"March 28, 2021","dateISO":"2021-03-28T20:27:54.502Z","datetime":"2021-03-28 20:27","tags":["story","Hacker News"],"image":null,"imageAlt":null,"provider":"Hacker News","thirdPartyId":"26613482","url":"https://news.ycombinator.com/item?id=26613482","originalUrl":"https://medium.com/the-bad-influence/your-addiction-to-outrage-is-ruining-your-life-9effebdfeaca","imageRemote":"https://miro.medium.com/max/1200/1*CMYGF7GZlstCX5YUx1Q-Qg.jpeg","video":null,"channel":null,"channelUrl":null,"author":"prostoalex","authorUrl":"https://news.ycombinator.com/user?id=prostoalex","authorImage":null,"authorSlug":null,"score":460,"views":null,"sharedCount":null,"likeCount":null,"sharedContent":null,"parent":{"__typename":"HnJson","localize":[{"title":"愤怒成瘾正在毁掉你的生活","locale":"zh"},{"title":"憤怒成癮正在毀掉你的生活","locale":"zh-Hant"}]}},{"__typename":"SocialMediaPost","id":"HnPost-26612918","excerpt":"","slug":"/hn/26612918","title":"Female Founder Secrets: Men Clamming Up","date":"March 28, 2021","dateISO":"2021-03-28T19:58:42.727Z","datetime":"2021-03-28 19:58","tags":["story","Hacker News"],"image":null,"imageAlt":null,"provider":"Hacker News","thirdPartyId":"26612918","url":"https://news.ycombinator.com/item?id=26612918","originalUrl":"https://femfosec.com/men-clamming-up/","imageRemote":"https://femfosec.com/content/images/2021/03/saint_card-1.png","video":null,"channel":null,"channelUrl":null,"author":"femfosec","authorUrl":"https://news.ycombinator.com/user?id=femfosec","authorImage":null,"authorSlug":null,"score":998,"views":null,"sharedCount":null,"likeCount":null,"sharedContent":null,"parent":{"__typename":"HnJson","localize":[{"title":"女性创始人的秘密。男人们哗啦啦地来了","locale":"zh"},{"title":"女性創始人的祕密。男人們嘩啦啦地來了","locale":"zh-Hant"}]}},{"__typename":"SocialMediaPost","id":"HnPost-26612094","excerpt":"","slug":"/hn/26612094","title":"Drinking strong coffee before exercising increases fat-burning, new study finds","date":"March 28, 2021","dateISO":"2021-03-28T19:51:51.046Z","datetime":"2021-03-28 19:51","tags":["story","Hacker News"],"image":null,"imageAlt":null,"provider":"Hacker News","thirdPartyId":"26612094","url":"https://news.ycombinator.com/item?id=26612094","originalUrl":"https://canal.ugr.es/uncategorized/drinking-a-strong-coffee-half-an-hour-before-exercising-increases-fat-burning-new-study-finds/","imageRemote":"https://i2.wp.com/canal.ugr.es/wp-content/uploads/2021/02/cafe-americano-destacada.jpg?fit=900%2C600&ssl=1","video":null,"channel":null,"channelUrl":null,"author":"curmudgeon22","authorUrl":"https://news.ycombinator.com/user?id=curmudgeon22","authorImage":null,"authorSlug":null,"score":226,"views":null,"sharedCount":null,"likeCount":null,"sharedContent":null,"parent":{"__typename":"HnJson","localize":[{"title":"新研究发现，运动前喝浓咖啡可增加脂肪燃烧量","locale":"zh"},{"title":"新研究發現，運動前喝濃咖啡可增加脂肪燃燒量","locale":"zh-Hant"}]}},{"__typename":"SocialMediaPost","id":"HnPost-26610705","excerpt":"","slug":"/hn/26610705","title":"New 5G protocol vulnerabilities allow location tracking","date":"March 28, 2021","dateISO":"2021-03-28T19:32:39.215Z","datetime":"2021-03-28 19:32","tags":["story","Hacker News"],"image":null,"imageAlt":null,"provider":"Hacker News","thirdPartyId":"26610705","url":"https://news.ycombinator.com/item?id=26610705","originalUrl":"https://therecord.media/new-5g-protocol-vulnerabilities-allow-location-tracking/","imageRemote":"https://therecord.media/wp-content/uploads/2021/03/5G-tower-mobile-1.jpg","video":null,"channel":null,"channelUrl":null,"author":"DyslexicAtheist","authorUrl":"https://news.ycombinator.com/user?id=DyslexicAtheist","authorImage":null,"authorSlug":null,"score":304,"views":null,"sharedCount":null,"likeCount":null,"sharedContent":null,"parent":{"__typename":"HnJson","localize":[{"title":"新的5G协议漏洞允许位置跟踪","locale":"zh"},{"title":"新的5G協議漏洞允許位置跟蹤","locale":"zh-Hant"}]}},{"__typename":"SocialMediaPost","id":"HnPost-26611371","excerpt":"","slug":"/hn/26611371","title":"I made an eInk newspaper","date":"March 28, 2021","dateISO":"2021-03-28T19:12:36.875Z","datetime":"2021-03-28 19:12","tags":["story","Hacker News"],"image":null,"imageAlt":null,"provider":"Hacker News","thirdPartyId":"26611371","url":"https://news.ycombinator.com/item?id=26611371","originalUrl":"https://gregraiz.com/i-made-an-eink-newspaper/","imageRemote":"https://gregraiz.com/wp-content/uploads/2021/03/62-Epaper-Newspaper.jpg","video":null,"channel":null,"channelUrl":null,"author":"graiz","authorUrl":"https://news.ycombinator.com/user?id=graiz","authorImage":null,"authorSlug":null,"score":545,"views":null,"sharedCount":null,"likeCount":null,"sharedContent":null,"parent":{"__typename":"HnJson","localize":[{"title":"我做了一份电子墨水报纸","locale":"zh"},{"title":"我做了一份電子墨水報紙","locale":"zh-Hant"}]}},{"__typename":"SocialMediaPost","id":"HnPost-26609029","excerpt":"","slug":"/hn/26609029","title":"Amazon driver quits over AI-powered safety cameras in delivery vehicles","date":"March 28, 2021","dateISO":"2021-03-28T17:04:41.758Z","datetime":"2021-03-28 17:04","tags":["story","Hacker News"],"image":null,"imageAlt":null,"provider":"Hacker News","thirdPartyId":"26609029","url":"https://news.ycombinator.com/item?id=26609029","originalUrl":"https://www.businessinsider.com/amazon-ai-camera-delivery-tracking-tech-bezos-2021-3","imageRemote":"https://i.insider.com/5f7219a70ab50d00184acce5?width=1200&format=jpeg","video":null,"channel":null,"channelUrl":null,"author":"Black101","authorUrl":"https://news.ycombinator.com/user?id=Black101","authorImage":null,"authorSlug":null,"score":161,"views":null,"sharedCount":null,"likeCount":null,"sharedContent":null,"parent":{"__typename":"HnJson","localize":[{"title":"亚马逊司机因送货车辆中的AI动力安全摄像头而辞职","locale":"zh"},{"title":"亞馬遜司機因送貨車輛中的AI動力安全攝像頭而辭職","locale":"zh-Hant"}]}},{"__typename":"SocialMediaPost","id":"HnPost-26609482","excerpt":"","slug":"/hn/26609482","title":"Lots of progress on the piano practice software","date":"March 28, 2021","dateISO":"2021-03-28T17:04:41.758Z","datetime":"2021-03-28 17:04","tags":["story","Hacker News"],"image":null,"imageAlt":null,"provider":"Hacker News","thirdPartyId":"26609482","url":"https://news.ycombinator.com/item?id=26609482","originalUrl":"https://jacquesmattheij.com/piano-practice-software-progress/","imageRemote":"https://jacquesmattheij.com/pianojacq.png","video":null,"channel":null,"channelUrl":null,"author":"jacquesm","authorUrl":"https://news.ycombinator.com/user?id=jacquesm","authorImage":null,"authorSlug":null,"score":314,"views":null,"sharedCount":null,"likeCount":null,"sharedContent":null,"parent":{"__typename":"HnJson","localize":[{"title":"练琴软件的进步很大","locale":"zh"},{"title":"練琴軟件的進步很大","locale":"zh-Hant"}]}},{"__typename":"SocialMediaPost","id":"HnPost-26610221","excerpt":"","slug":"/hn/26610221","title":"Formal Methods of Software Design an Online Course by Eric Hehner","date":"March 28, 2021","dateISO":"2021-03-28T16:08:29.888Z","datetime":"2021-03-28 16:08","tags":["story","Hacker News"],"image":null,"imageAlt":null,"provider":"Hacker News","thirdPartyId":"26610221","url":"https://news.ycombinator.com/item?id=26610221","originalUrl":"http://www.cs.utoronto.ca/~hehner/FMSD/","imageRemote":null,"video":null,"channel":null,"channelUrl":null,"author":"blewboarwastake","authorUrl":"https://news.ycombinator.com/user?id=blewboarwastake","authorImage":null,"authorSlug":null,"score":253,"views":null,"sharedCount":null,"likeCount":null,"sharedContent":null,"parent":{"__typename":"HnJson","localize":[{"title":"软件设计的形式化方法》在线课程，Eric Hehner 著。","locale":"zh"},{"title":"軟件設計的形式化方法》在線課程，Eric Hehner 著。","locale":"zh-Hant"}]}},{"__typename":"SocialMediaPost","id":"HnPost-26608592","excerpt":"","slug":"/hn/26608592","title":"The fingerprint inside photos","date":"March 28, 2021","dateISO":"2021-03-28T13:54:15.402Z","datetime":"2021-03-28 13:54","tags":["story","Hacker News"],"image":null,"imageAlt":null,"provider":"Hacker News","thirdPartyId":"26608592","url":"https://news.ycombinator.com/item?id=26608592","originalUrl":"https://www.bbc.com/future/article/20210324-the-hidden-fingerprint-inside-your-photos","imageRemote":"https://ychef.files.bbci.co.uk/live/624x351/p09bp9ly.jpg","video":null,"channel":null,"channelUrl":null,"author":"LordAtlas","authorUrl":"https://news.ycombinator.com/user?id=LordAtlas","authorImage":null,"authorSlug":null,"score":186,"views":null,"sharedCount":null,"likeCount":null,"sharedContent":null,"parent":{"__typename":"HnJson","localize":[{"title":"照片中的指纹","locale":"zh"},{"title":"照片中的指紋","locale":"zh-Hant"}]}},{"__typename":"SocialMediaPost","id":"HnPost-26607006","excerpt":"","slug":"/hn/26607006","title":"High schooler invented color-changing sutures to detect infection","date":"March 28, 2021","dateISO":"2021-03-28T12:21:36.654Z","datetime":"2021-03-28 12:21","tags":["story","Hacker News"],"image":null,"imageAlt":null,"provider":"Hacker News","thirdPartyId":"26607006","url":"https://news.ycombinator.com/item?id=26607006","originalUrl":"https://www.smithsonianmag.com/innovation/high-schooler-invented-color-changing-sutures-detect-infection-180977345/","imageRemote":"https://thumbs-prod.si-cdn.com/WLAx8o-9P01v3wO3BSzc2uMgxU0=/fit-in/1600x0/https://public-media.si-cdn.com/filer/4a/26/4a264c90-0536-4acc-9e2b-4b5a5dff696d/dasia_taylor.jpg","video":null,"channel":null,"channelUrl":null,"author":"webmaven","authorUrl":"https://news.ycombinator.com/user?id=webmaven","authorImage":null,"authorSlug":null,"score":220,"views":null,"sharedCount":null,"likeCount":null,"sharedContent":null,"parent":{"__typename":"HnJson","localize":[{"title":"高中生发明变色缝合线可检测感染情况","locale":"zh"},{"title":"高中生髮明變色縫合線可檢測感染情況","locale":"zh-Hant"}]}}]}},"pageContext":{"basePath":"/","pageType":"home","tagsFilter":{"id":{"glob":"!*Post-1"}},"filter":{"id":{"glob":"!*Post-1"}},"limit":25,"skip":225,"totalPages":125,"total":3107,"currentPage":10,"maxWidth":1024,"maxHeight":512,"locale":"zh-Hant","hrefLang":"zh-Hant","originalPath":"/page/10","dateFormat":"YYYY-MM-DD"}},"staticQueryHashes":["1239077767","2506312863","2744905544","3025052997","3493603132","3493603132","3513215887","386998304"]}