{"componentChunkName":"component---gatsby-theme-buzzing-src-gatsby-theme-timeline-templates-posts-query-js","path":"/ja/tags/story/page/21","result":{"data":{"site":{"siteMetadata":{"title":"Reddit 热门","description":"用中文浏览Reddit热门内容","social":[{"name":"Twitter","url":"https://twitter.com/gatsbyjs","external":null,"prefetch":null},{"name":"GitHub","url":"https://github.com/gatsbyjs","external":null,"prefetch":null}],"menuLinks":[],"localize":[{"locale":"en","title":"Buzzing on Reddit","description":"See what's buzzing on Reddit in your native language","social":[{"name":"Reddit","url":"https://www.reddit.com/","external":true,"prefetch":null}],"menuLinks":[{"name":"Weekly Selection","url":"/issues","external":null,"prefetch":null},{"name":"RSS","url":"/rss.xml","external":null,"prefetch":false}]},{"locale":"zh-Hant","title":"Reddit 熱門","description":"用中文瀏覽Reddit熱門內容","social":null,"menuLinks":null}]}},"tagsGroup":{"group":[{"fieldValue":"ASK HN","totalCount":54},{"fieldValue":"Hacker News","totalCount":3107},{"fieldValue":"Poll","totalCount":1},{"fieldValue":"Show HN","totalCount":100},{"fieldValue":"poll","totalCount":1},{"fieldValue":"story","totalCount":3106}]},"allBlogPost":{"nodes":[{"__typename":"SocialMediaPost","id":"HnPost-26512720","excerpt":"","slug":"/hn/26512720","title":"The Art of Warez Documents the Lost ANSI Art Scene (2019)","date":"March 19, 2021","dateISO":"2021-03-19T16:45:54.854Z","datetime":"2021-03-19 16:45","tags":["story","Hacker News"],"image":null,"imageAlt":null,"provider":"Hacker News","thirdPartyId":"26512720","url":"https://news.ycombinator.com/item?id=26512720","originalUrl":"https://www.juxtapoz.com/news/film/the-art-of-warez-documents-the-lost-ansi-art-scene/","imageRemote":"https://www.juxtapoz.com/media/k2/items/cache/c5216473bc398277eab4a081afb02904_L.jpg?t=1566414547","video":null,"channel":null,"channelUrl":null,"author":"DyslexicAtheist","authorUrl":"https://news.ycombinator.com/user?id=DyslexicAtheist","authorImage":null,"authorSlug":null,"score":407,"views":null,"sharedCount":null,"likeCount":null,"sharedContent":null,"parent":{"__typename":"HnJson","localize":[{"title":"器物的艺术》记录了失落的ANSI艺术场景(2019)","locale":"zh"},{"title":"器物的藝術》記錄了失落的ANSI藝術場景(2019)","locale":"zh-Hant"}]}},{"__typename":"SocialMediaPost","id":"HnPost-26513413","excerpt":"","slug":"/hn/26513413","title":"Young female Japanese biker is 50-year-old man using FaceApp","date":"March 19, 2021","dateISO":"2021-03-19T16:45:54.854Z","datetime":"2021-03-19 16:45","tags":["story","Hacker News"],"image":null,"imageAlt":null,"provider":"Hacker News","thirdPartyId":"26513413","url":"https://news.ycombinator.com/item?id=26513413","originalUrl":"https://mothership.sg/2021/03/japanese-biker-actually-man/","imageRemote":"https://static.mothership.sg/1/2021/03/biker.png","video":null,"channel":null,"channelUrl":null,"author":"amrrs","authorUrl":"https://news.ycombinator.com/user?id=amrrs","authorImage":null,"authorSlug":null,"score":772,"views":null,"sharedCount":null,"likeCount":null,"sharedContent":null,"parent":{"__typename":"HnJson","localize":[{"title":"日本年轻女骑手是50岁男子使用FaceApp","locale":"zh"},{"title":"日本年輕女騎手是50歲男子使用FaceApp","locale":"zh-Hant"}]}},{"__typename":"SocialMediaPost","id":"HnPost-26500745","excerpt":"","slug":"/hn/26500745","title":"Ghana will no longer sell cocoa to Switzerland","date":"March 19, 2021","dateISO":"2021-03-19T15:15:57.827Z","datetime":"2021-03-19 15:15","tags":["story","Hacker News"],"image":null,"imageAlt":null,"provider":"Hacker News","thirdPartyId":"26500745","url":"https://news.ycombinator.com/item?id=26500745","originalUrl":"https://face2faceafrica.com/article/why-ghana-will-no-longer-sell-cocoa-to-switzerland","imageRemote":"https://cdn.face2faceafrica.com/www/wp-content/uploads/2021/03/Akufo-Addo-Switzerland.jpg","video":null,"channel":null,"channelUrl":null,"author":"DanBC","authorUrl":"https://news.ycombinator.com/user?id=DanBC","authorImage":null,"authorSlug":null,"score":477,"views":null,"sharedCount":null,"likeCount":null,"sharedContent":null,"parent":{"__typename":"HnJson","localize":[{"title":"加纳将不再向瑞士出售可可","locale":"zh"},{"title":"加納將不再向瑞士出售可可","locale":"zh-Hant"}]}},{"__typename":"SocialMediaPost","id":"HnPost-26511266","excerpt":"","slug":"/hn/26511266","title":"Incredible 256 Byte C64 Demo: “A Mind Is Born” (2017)","date":"March 19, 2021","dateISO":"2021-03-19T14:38:45.716Z","datetime":"2021-03-19 14:38","tags":["story","Hacker News"],"image":null,"imageAlt":null,"provider":"Hacker News","thirdPartyId":"26511266","url":"https://news.ycombinator.com/item?id=26511266","originalUrl":"https://linusakesson.net/scene/a-mind-is-born/","imageRemote":"https://linusakesson.net/img/linus1.png","video":null,"channel":null,"channelUrl":null,"author":"matthewsinclair","authorUrl":"https://news.ycombinator.com/user?id=matthewsinclair","authorImage":null,"authorSlug":null,"score":310,"views":null,"sharedCount":null,"likeCount":null,"sharedContent":null,"parent":{"__typename":"HnJson","localize":[{"title":"不可思议的256字节C64演示。\"心灵的诞生\"（2017年）","locale":"zh"},{"title":"不可思議的256字節C64演示。\"心靈的誕生\"（2017年）","locale":"zh-Hant"}]}},{"__typename":"SocialMediaPost","id":"HnPost-26512281","excerpt":"","slug":"/hn/26512281","title":"Out of prison after 30 years and people telling him to find forms on the web","date":"March 19, 2021","dateISO":"2021-03-19T14:38:45.715Z","datetime":"2021-03-19 14:38","tags":["story","Hacker News"],"image":null,"imageAlt":null,"provider":"Hacker News","thirdPartyId":"26512281","url":"https://news.ycombinator.com/item?id=26512281","originalUrl":"https://twitter.com/_MariaBurnett/status/1369330209036632068","imageRemote":null,"video":null,"channel":null,"channelUrl":null,"author":"DyslexicAtheist","authorUrl":"https://news.ycombinator.com/user?id=DyslexicAtheist","authorImage":null,"authorSlug":null,"score":396,"views":null,"sharedCount":null,"likeCount":null,"sharedContent":null,"parent":{"__typename":"HnJson","localize":[{"title":"30年后出狱，人们告诉他在网上找表格。","locale":"zh"},{"title":"30年後出獄，人們告訴他在網上找表格。","locale":"zh-Hant"}]}},{"__typename":"SocialMediaPost","id":"HnPost-26511997","excerpt":"","slug":"/hn/26511997","title":"Cookie Consent Speed Running Game","date":"March 19, 2021","dateISO":"2021-03-19T13:28:06.164Z","datetime":"2021-03-19 13:28","tags":["story","Hacker News"],"image":null,"imageAlt":null,"provider":"Hacker News","thirdPartyId":"26511997","url":"https://news.ycombinator.com/item?id=26511997","originalUrl":"https://cookieconsentspeed.run","imageRemote":"https://i.ibb.co/0XRj5Bw/header-img.png","video":null,"channel":null,"channelUrl":null,"author":"bigdatagirl","authorUrl":"https://news.ycombinator.com/user?id=bigdatagirl","authorImage":null,"authorSlug":null,"score":482,"views":null,"sharedCount":null,"likeCount":null,"sharedContent":null,"parent":{"__typename":"HnJson","localize":[{"title":"Cookie同意速度运行游戏","locale":"zh"},{"title":"Cookie同意速度運行遊戲","locale":"zh-Hant"}]}},{"__typename":"SocialMediaPost","id":"HnPost-26511327","excerpt":"","slug":"/hn/26511327","title":"Docker for Mac M1 RC","date":"March 19, 2021","dateISO":"2021-03-19T13:01:59.576Z","datetime":"2021-03-19 13:01","tags":["story","Hacker News"],"image":null,"imageAlt":null,"provider":"Hacker News","thirdPartyId":"26511327","url":"https://news.ycombinator.com/item?id=26511327","originalUrl":"https://docs.docker.com/docker-for-mac/apple-m1/","imageRemote":"https://docs.docker.com/favicons/docs@2x.ico","video":null,"channel":null,"channelUrl":null,"author":"mikkelam","authorUrl":"https://news.ycombinator.com/user?id=mikkelam","authorImage":null,"authorSlug":null,"score":444,"views":null,"sharedCount":null,"likeCount":null,"sharedContent":null,"parent":{"__typename":"HnJson","localize":[{"title":"Docker for Mac M1 RC","locale":"zh"},{"title":"Docker for Mac M1 RC","locale":"zh-Hant"}]}},{"__typename":"SocialMediaPost","id":"HnPost-26495059","excerpt":"","slug":"/hn/26495059","title":"Show HN: Video Game in a Font","date":"March 19, 2021","dateISO":"2021-03-19T08:52:56.436Z","datetime":"2021-03-19 08:52","tags":["story","Show HN","Hacker News"],"image":null,"imageAlt":null,"provider":"Hacker News","thirdPartyId":"26495059","url":"https://news.ycombinator.com/item?id=26495059","originalUrl":"https://www.coderelay.io/fontemon.html","imageRemote":"https://www.coderelay.io/assets/webTitle0001.png","video":null,"channel":"Show HN","channelUrl":"https://news.ycombinator.com/show","author":"ghub-mmulet","authorUrl":"https://news.ycombinator.com/user?id=ghub-mmulet","authorImage":null,"authorSlug":null,"score":604,"views":null,"sharedCount":null,"likeCount":null,"sharedContent":null,"parent":{"__typename":"HnJson","localize":[{"title":"显示HN：电子游戏中的字体","locale":"zh"},{"title":"顯示HN：電子遊戲中的字體","locale":"zh-Hant"}]}},{"__typename":"SocialMediaPost","id":"HnPost-26492931","excerpt":"","slug":"/hn/26492931","title":"Show HN: Cloud GPUs for Deep Learning – At 1/3 the Cost of AWS/GCP","date":"March 19, 2021","dateISO":"2021-03-19T08:32:49.622Z","datetime":"2021-03-19 08:32","tags":["story","Show HN","Hacker News"],"image":null,"imageAlt":null,"provider":"Hacker News","thirdPartyId":"26492931","url":"https://news.ycombinator.com/item?id=26492931","originalUrl":"https://gpu.land/","imageRemote":null,"video":null,"channel":"Show HN","channelUrl":"https://news.ycombinator.com/show","author":"ilmoi","authorUrl":"https://news.ycombinator.com/user?id=ilmoi","authorImage":null,"authorSlug":null,"score":168,"views":null,"sharedCount":null,"likeCount":null,"sharedContent":null,"parent":{"__typename":"HnJson","localize":[{"title":"显示HN：用于深度学习的云GPU--成本只有AWS/GCP的1/3。","locale":"zh"},{"title":"顯示HN：用於深度學習的雲GPU--成本只有AWS/GCP的1/3。","locale":"zh-Hant"}]}},{"__typename":"SocialMediaPost","id":"HnPost-26500021","excerpt":"","slug":"/hn/26500021","title":"Ask HN: How do I find energy to work on hobbies after the work day ends?","date":"March 19, 2021","dateISO":"2021-03-19T05:46:49.534Z","datetime":"2021-03-19 05:46","tags":["story","ASK HN","Hacker News"],"image":null,"imageAlt":null,"provider":"Hacker News","thirdPartyId":"26500021","url":"https://news.ycombinator.com/item?id=26500021","originalUrl":"https://news.ycombinator.com/item?id=26500021","imageRemote":null,"video":null,"channel":"ASK HN","channelUrl":"https://news.ycombinator.com/ask","author":"cgb223","authorUrl":"https://news.ycombinator.com/user?id=cgb223","authorImage":null,"authorSlug":null,"score":219,"views":null,"sharedCount":null,"likeCount":null,"sharedContent":null,"parent":{"__typename":"HnJson","localize":[{"title":"问HN：在一天的工作结束后，如何找到精力去研究兴趣爱好？","locale":"zh"},{"title":"問HN：在一天的工作結束後，如何找到精力去研究興趣愛好？","locale":"zh-Hant"}]}},{"__typename":"SocialMediaPost","id":"HnPost-26493990","excerpt":"","slug":"/hn/26493990","title":"How to Design Programs","date":"March 19, 2021","dateISO":"2021-03-19T04:46:23.647Z","datetime":"2021-03-19 04:46","tags":["story","Hacker News"],"image":null,"imageAlt":null,"provider":"Hacker News","thirdPartyId":"26493990","url":"https://news.ycombinator.com/item?id=26493990","originalUrl":"https://htdp.org/2018-01-06/Book/","imageRemote":null,"video":null,"channel":null,"channelUrl":null,"author":"brudgers","authorUrl":"https://news.ycombinator.com/user?id=brudgers","authorImage":null,"authorSlug":null,"score":404,"views":null,"sharedCount":null,"likeCount":null,"sharedContent":null,"parent":{"__typename":"HnJson","localize":[{"title":"如何设计程序","locale":"zh"},{"title":"如何設計程序","locale":"zh-Hant"}]}},{"__typename":"SocialMediaPost","id":"HnPost-26503809","excerpt":"","slug":"/hn/26503809","title":"Building a shared vision for Async Rust","date":"March 19, 2021","dateISO":"2021-03-19T04:46:23.647Z","datetime":"2021-03-19 04:46","tags":["story","Hacker News"],"image":null,"imageAlt":null,"provider":"Hacker News","thirdPartyId":"26503809","url":"https://news.ycombinator.com/item?id=26503809","originalUrl":"https://blog.rust-lang.org/2021/03/18/async-vision-doc.html","imageRemote":"https://www.rust-lang.org/static/images/rust-social-wide.jpg","video":null,"channel":null,"channelUrl":null,"author":"todsacerdoti","authorUrl":"https://news.ycombinator.com/user?id=todsacerdoti","authorImage":null,"authorSlug":null,"score":190,"views":null,"sharedCount":null,"likeCount":null,"sharedContent":null,"parent":{"__typename":"HnJson","localize":[{"title":"构建Async Rust的共同愿景","locale":"zh"},{"title":"構建Async Rust的共同願景","locale":"zh-Hant"}]}},{"__typename":"SocialMediaPost","id":"HnPost-26509062","excerpt":"","slug":"/hn/26509062","title":"She Came to the US to Study with Only $300 – Now She’s a NASA Director","date":"March 19, 2021","dateISO":"2021-03-19T04:46:23.647Z","datetime":"2021-03-19 04:46","tags":["story","Hacker News"],"image":null,"imageAlt":null,"provider":"Hacker News","thirdPartyId":"26509062","url":"https://news.ycombinator.com/item?id=26509062","originalUrl":"https://www.goodnewsnetwork.org/diana-trujillo-nasa-role-model-mars","imageRemote":"https://www.goodnewsnetwork.org/wp-content/uploads/2021/03/Diana_Trujillo-public-domain-NASA-on-the-Commons-@-Flickr-Commons.jpg","video":null,"channel":null,"channelUrl":null,"author":"RickJWagner","authorUrl":"https://news.ycombinator.com/user?id=RickJWagner","authorImage":null,"authorSlug":null,"score":180,"views":null,"sharedCount":null,"likeCount":null,"sharedContent":null,"parent":{"__typename":"HnJson","localize":[{"title":"她只带着300美元来美国留学--现在她是NASA局长了","locale":"zh"},{"title":"她只帶着300美元來美國留學--現在她是NASA局長了","locale":"zh-Hant"}]}},{"__typename":"SocialMediaPost","id":"HnPost-26503284","excerpt":"","slug":"/hn/26503284","title":"New Brunswick monitoring more than 40 cases of unknown neurological disease","date":"March 19, 2021","dateISO":"2021-03-19T04:22:41.086Z","datetime":"2021-03-19 04:22","tags":["story","Hacker News"],"image":null,"imageAlt":null,"provider":"Hacker News","thirdPartyId":"26503284","url":"https://news.ycombinator.com/item?id=26503284","originalUrl":"https://www.cbc.ca/news/canada/new-brunswick/mad-cow-disease-public-health-1.5953478","imageRemote":"https://i.cbc.ca/1.5847215.1616065003!/fileImage/httpImage/image.jpg_gen/derivatives/16x9_620/dr-jennifer-russell-dec-17-2020.jpg","video":null,"channel":null,"channelUrl":null,"author":"curmudgeon22","authorUrl":"https://news.ycombinator.com/user?id=curmudgeon22","authorImage":null,"authorSlug":null,"score":185,"views":null,"sharedCount":null,"likeCount":null,"sharedContent":null,"parent":{"__typename":"HnJson","localize":[{"title":"新不伦瑞克省监测到40多例不明神经系统疾病。","locale":"zh"},{"title":"新不倫瑞克省監測到40多例不明神經系統疾病。","locale":"zh-Hant"}]}},{"__typename":"SocialMediaPost","id":"HnPost-26503715","excerpt":"","slug":"/hn/26503715","title":"Show HN: LitiHolo – a desktop 3D hologram printer that makes true holograms","date":"March 19, 2021","dateISO":"2021-03-19T03:56:59.645Z","datetime":"2021-03-19 03:56","tags":["story","Show HN","Hacker News"],"image":null,"imageAlt":null,"provider":"Hacker News","thirdPartyId":"26503715","url":"https://news.ycombinator.com/item?id=26503715","originalUrl":"http://www.litiholo.com/3d-hologram-printer.html#3DHologramPrinterStory","imageRemote":"http://www.litiholo.com/images/litiholo-logo-8-16-2019lightback.png","video":null,"channel":"Show HN","channelUrl":"https://news.ycombinator.com/show","author":"hologram-paul","authorUrl":"https://news.ycombinator.com/user?id=hologram-paul","authorImage":null,"authorSlug":null,"score":180,"views":null,"sharedCount":null,"likeCount":null,"sharedContent":null,"parent":{"__typename":"HnJson","localize":[{"title":"显示HN：LitiHolo--桌面3D全息图打印机，可以制作真正的全息图。","locale":"zh"},{"title":"顯示HN：LitiHolo--桌面3D全息圖打印機，可以製作真正的全息圖。","locale":"zh-Hant"}]}},{"__typename":"SocialMediaPost","id":"HnPost-26504021","excerpt":"","slug":"/hn/26504021","title":"What’s up with these new not-open source licenses?","date":"March 19, 2021","dateISO":"2021-03-19T02:59:30.204Z","datetime":"2021-03-19 02:59","tags":["story","Hacker News"],"image":null,"imageAlt":null,"provider":"Hacker News","thirdPartyId":"26504021","url":"https://news.ycombinator.com/item?id=26504021","originalUrl":"https://github.blog/2021-03-18-whats-up-with-these-new-not-open-source-licenses/","imageRemote":"https://github.blog/wp-content/uploads/2019/03/policy-social-1.png?fit=1201%2C630","video":null,"channel":null,"channelUrl":null,"author":"todsacerdoti","authorUrl":"https://news.ycombinator.com/user?id=todsacerdoti","authorImage":null,"authorSlug":null,"score":221,"views":null,"sharedCount":null,"likeCount":null,"sharedContent":null,"parent":{"__typename":"HnJson","localize":[{"title":"这些新的非开源许可证是怎么回事？","locale":"zh"},{"title":"這些新的非開源許可證是怎麼回事？","locale":"zh-Hant"}]}},{"__typename":"SocialMediaPost","id":"HnPost-26505303","excerpt":"","slug":"/hn/26505303","title":"“When the entire household goes to bed, I do curl development for 2 more hours.”","date":"March 19, 2021","dateISO":"2021-03-19T02:39:57.631Z","datetime":"2021-03-19 02:39","tags":["story","Hacker News"],"image":null,"imageAlt":null,"provider":"Hacker News","thirdPartyId":"26505303","url":"https://news.ycombinator.com/item?id=26505303","originalUrl":"https://twitter.com/bagder/status/1372572657317711876","imageRemote":null,"video":null,"channel":null,"channelUrl":null,"author":"danso","authorUrl":"https://news.ycombinator.com/user?id=danso","authorImage":null,"authorSlug":null,"score":368,"views":null,"sharedCount":null,"likeCount":null,"sharedContent":null,"parent":{"__typename":"HnJson","localize":[{"title":"\"等全家人都睡了，我再做2个小时的卷曲开发。\"","locale":"zh"},{"title":"\"等全家人都睡了，我再做2個小時的捲曲開發。\"","locale":"zh-Hant"}]}},{"__typename":"SocialMediaPost","id":"HnPost-26506920","excerpt":"","slug":"/hn/26506920","title":"We found and fixed a rare race condition in our session handling","date":"March 18, 2021","dateISO":"2021-03-18T22:41:44.991Z","datetime":"2021-03-18 22:41","tags":["story","Hacker News"],"image":null,"imageAlt":null,"provider":"Hacker News","thirdPartyId":"26506920","url":"https://news.ycombinator.com/item?id=26506920","originalUrl":"https://github.blog/2021-03-18-how-we-found-and-fixed-a-rare-race-condition-in-our-session-handling/","imageRemote":"https://github.blog/wp-content/uploads/2019/09/security-1200-630.png?fit=1200%2C630","video":null,"channel":null,"channelUrl":null,"author":"todsacerdoti","authorUrl":"https://news.ycombinator.com/user?id=todsacerdoti","authorImage":null,"authorSlug":null,"score":584,"views":null,"sharedCount":null,"likeCount":null,"sharedContent":null,"parent":{"__typename":"HnJson","localize":[{"title":"在我们的环节处理中，我们发现并解决了一个罕见的比赛状况。","locale":"zh"},{"title":"在我們的環節處理中，我們發現並解決了一個罕見的比賽狀況。","locale":"zh-Hant"}]}},{"__typename":"SocialMediaPost","id":"HnPost-26502900","excerpt":"","slug":"/hn/26502900","title":"Unironically using Kubernetes for my personal blog","date":"March 18, 2021","dateISO":"2021-03-18T22:21:37.446Z","datetime":"2021-03-18 22:21","tags":["story","Hacker News"],"image":null,"imageAlt":null,"provider":"Hacker News","thirdPartyId":"26502900","url":"https://news.ycombinator.com/item?id=26502900","originalUrl":"https://mbuffett.com/posts/kubernetes-setup/","imageRemote":"https://mbuffett.com","video":null,"channel":null,"channelUrl":null,"author":"tate","authorUrl":"https://news.ycombinator.com/user?id=tate","authorImage":null,"authorSlug":null,"score":266,"views":null,"sharedCount":null,"likeCount":null,"sharedContent":null,"parent":{"__typename":"HnJson","localize":[{"title":"讽刺的是，我的个人博客使用Kubernetes。","locale":"zh"},{"title":"諷刺的是，我的個人博客使用Kubernetes。","locale":"zh-Hant"}]}},{"__typename":"SocialMediaPost","id":"HnPost-26506447","excerpt":"","slug":"/hn/26506447","title":"All Futurama Opening Quotes","date":"March 18, 2021","dateISO":"2021-03-18T22:21:37.445Z","datetime":"2021-03-18 22:21","tags":["story","Hacker News"],"image":null,"imageAlt":null,"provider":"Hacker News","thirdPartyId":"26506447","url":"https://news.ycombinator.com/item?id=26506447","originalUrl":"https://theabbie.github.io/blog/All-Futurama-Opening-Quotes","imageRemote":"https://theabbie.github.io/blog/assets/All-Futurama-Opening-Quotes.jpg","video":null,"channel":null,"channelUrl":null,"author":"melector","authorUrl":"https://news.ycombinator.com/user?id=melector","authorImage":null,"authorSlug":null,"score":212,"views":null,"sharedCount":null,"likeCount":null,"sharedContent":null,"parent":{"__typename":"HnJson","localize":[{"title":"所有《未来之城》开篇语录","locale":"zh"},{"title":"所有《未來之城》開篇語錄","locale":"zh-Hant"}]}},{"__typename":"SocialMediaPost","id":"HnPost-26504661","excerpt":"","slug":"/hn/26504661","title":"ShellCheck: A static analysis tool for shell scripts","date":"March 18, 2021","dateISO":"2021-03-18T21:36:30.419Z","datetime":"2021-03-18 21:36","tags":["story","Hacker News"],"image":null,"imageAlt":null,"provider":"Hacker News","thirdPartyId":"26504661","url":"https://news.ycombinator.com/item?id=26504661","originalUrl":"https://github.com/koalaman/shellcheck","imageRemote":"https://avatars.githubusercontent.com/u/2818758?s=400&v=4","video":null,"channel":null,"channelUrl":null,"author":"ducktective","authorUrl":"https://news.ycombinator.com/user?id=ducktective","authorImage":null,"authorSlug":null,"score":399,"views":null,"sharedCount":null,"likeCount":null,"sharedContent":null,"parent":{"__typename":"HnJson","localize":[{"title":"ShellCheck。一个静态分析工具，用于分析shell脚本","locale":"zh"},{"title":"ShellCheck。一個靜態分析工具，用於分析shell腳本","locale":"zh-Hant"}]}},{"__typename":"SocialMediaPost","id":"HnPost-26500295","excerpt":"","slug":"/hn/26500295","title":"Reverse Engineering a Docker Image","date":"March 18, 2021","dateISO":"2021-03-18T20:32:36.013Z","datetime":"2021-03-18 20:32","tags":["story","Hacker News"],"image":null,"imageAlt":null,"provider":"Hacker News","thirdPartyId":"26500295","url":"https://news.ycombinator.com/item?id=26500295","originalUrl":"https://theartofmachinery.com/2021/03/18/reverse_engineering_a_docker_image.html","imageRemote":"https://theartofmachinery.com/feed-icon-28x28.png","video":null,"channel":null,"channelUrl":null,"author":"ingve","authorUrl":"https://news.ycombinator.com/user?id=ingve","authorImage":null,"authorSlug":null,"score":176,"views":null,"sharedCount":null,"likeCount":null,"sharedContent":null,"parent":{"__typename":"HnJson","localize":[{"title":"逆向工程的Docker镜像","locale":"zh"},{"title":"逆向工程的Docker鏡像","locale":"zh-Hant"}]}},{"__typename":"SocialMediaPost","id":"HnPost-26504287","excerpt":"","slug":"/hn/26504287","title":"Interview with CEO of rsync.net: “no firewalls and no routers”","date":"March 18, 2021","dateISO":"2021-03-18T19:41:37.759Z","datetime":"2021-03-18 19:41","tags":["story","Hacker News"],"image":null,"imageAlt":null,"provider":"Hacker News","thirdPartyId":"26504287","url":"https://news.ycombinator.com/item?id=26504287","originalUrl":"https://console.dev/qa/rsync-john-kozubik/","imageRemote":"https://console.dev/img/qa/rsync-john-kozubik-desk.png","video":null,"channel":null,"channelUrl":null,"author":"dmytton","authorUrl":"https://news.ycombinator.com/user?id=dmytton","authorImage":null,"authorSlug":null,"score":651,"views":null,"sharedCount":null,"likeCount":null,"sharedContent":null,"parent":{"__typename":"HnJson","localize":[{"title":"采访rsync.net的CEO。\"没有防火墙也没有路由器\"","locale":"zh"},{"title":"採訪rsync.net的CEO。\"沒有防火牆也沒有路由器\"","locale":"zh-Hant"}]}},{"__typename":"SocialMediaPost","id":"HnPost-26504131","excerpt":"","slug":"/hn/26504131","title":"Outrun: Execute local command using processing power of another Linux machine","date":"March 18, 2021","dateISO":"2021-03-18T19:22:05.130Z","datetime":"2021-03-18 19:22","tags":["story","Hacker News"],"image":null,"imageAlt":null,"provider":"Hacker News","thirdPartyId":"26504131","url":"https://news.ycombinator.com/item?id=26504131","originalUrl":"https://github.com/Overv/outrun#outrun","imageRemote":"https://avatars.githubusercontent.com/u/285063?s=400&v=4","video":null,"channel":null,"channelUrl":null,"author":"ingve","authorUrl":"https://news.ycombinator.com/user?id=ingve","authorImage":null,"authorSlug":null,"score":526,"views":null,"sharedCount":null,"likeCount":null,"sharedContent":null,"parent":{"__typename":"HnJson","localize":[{"title":"逃跑 使用另一台Linux机器的处理能力执行本地命令。","locale":"zh"},{"title":"逃跑 使用另一臺Linux機器的處理能力執行本地命令。","locale":"zh-Hant"}]}},{"__typename":"SocialMediaPost","id":"HnPost-26492997","excerpt":"","slug":"/hn/26492997","title":"José Epita Mbomo, a Spanish electrician who sabotaged the Nazis","date":"March 18, 2021","dateISO":"2021-03-18T19:03:54.705Z","datetime":"2021-03-18 19:03","tags":["story","Hacker News"],"image":null,"imageAlt":null,"provider":"Hacker News","thirdPartyId":"26492997","url":"https://news.ycombinator.com/item?id=26492997","originalUrl":"https://english.elpais.com/historical_memory/2021-03-01/jose-epita-mbomo-the-spanish-electrician-who-sabotaged-the-nazis.html","imageRemote":"https://images.english.elpais.com/resizer/gwmbKPptRxFLI1rcdOwMrhedf1A=/1000x0/cloudfront-eu-central-1.images.arcpublishing.com/prisa/2IA6FZ5R5FA4XGGF74MDKJ2QLM.jpg","video":null,"channel":null,"channelUrl":null,"author":"howrude","authorUrl":"https://news.ycombinator.com/user?id=howrude","authorImage":null,"authorSlug":null,"score":174,"views":null,"sharedCount":null,"likeCount":null,"sharedContent":null,"parent":{"__typename":"HnJson","localize":[{"title":"姆博莫","locale":"zh"},{"title":"姆博莫","locale":"zh-Hant"}]}}]}},"pageContext":{"basePath":"/","pageType":"tag","tag":"story","tagsFilter":{"id":{"glob":"!*Post-1"}},"filter":{"id":{"glob":"!*Post-1"},"tags":{"eq":"story"}},"limit":25,"skip":500,"total":3106,"totalPages":125,"currentPage":21,"maxWidth":1024,"maxHeight":512,"locale":"ja","hrefLang":"ja-JA","originalPath":"/tags/story/page/21","dateFormat":"YYYY-MM-DD"}},"staticQueryHashes":["1239077767","2506312863","2744905544","3025052997","3493603132","3493603132","3513215887","386998304"]}