{"componentChunkName":"component---gatsby-theme-buzzing-src-gatsby-theme-timeline-templates-posts-query-js","path":"/tags/hacker-news/page/39","result":{"data":{"site":{"siteMetadata":{"title":"Reddit 热门","description":"用中文浏览Reddit热门内容","social":[{"name":"Twitter","url":"https://twitter.com/gatsbyjs","external":null,"prefetch":null},{"name":"GitHub","url":"https://github.com/gatsbyjs","external":null,"prefetch":null}],"menuLinks":[],"localize":[{"locale":"en","title":"Buzzing on Reddit","description":"See what's buzzing on Reddit in your native language","social":[{"name":"Reddit","url":"https://www.reddit.com/","external":true,"prefetch":null}],"menuLinks":[{"name":"Weekly Selection","url":"/issues","external":null,"prefetch":null},{"name":"RSS","url":"/rss.xml","external":null,"prefetch":false}]},{"locale":"zh-Hant","title":"Reddit 熱門","description":"用中文瀏覽Reddit熱門內容","social":null,"menuLinks":null}]}},"tagsGroup":{"group":[{"fieldValue":"ASK HN","totalCount":44},{"fieldValue":"Bitcoin","totalCount":4},{"fieldValue":"Hacker News","totalCount":2600},{"fieldValue":"Poll","totalCount":1},{"fieldValue":"SaveAMC","totalCount":1},{"fieldValue":"Show HN","totalCount":89},{"fieldValue":"bitcoin","totalCount":3},{"fieldValue":"investing","totalCount":797},{"fieldValue":"poll","totalCount":1},{"fieldValue":"reddit","totalCount":4938},{"fieldValue":"science","totalCount":1},{"fieldValue":"stocks","totalCount":1592},{"fieldValue":"story","totalCount":2599},{"fieldValue":"tweet","totalCount":814},{"fieldValue":"wallstreetbets","totalCount":2549}]},"allBlogPost":{"nodes":[{"__typename":"SocialMediaPost","id":"HnPost-26087344","excerpt":"","slug":"/hn/26087344","title":"EPA Takes Action to Protect Scientific Integrity","date":"February 11, 2021","dateISO":"2021-02-11T02:47:06.232Z","datetime":"2021-02-11 02:47","tags":["story","Hacker News"],"image":null,"imageAlt":null,"provider":"Hacker News","thirdPartyId":"26087344","url":"https://news.ycombinator.com/item?id=26087344","originalUrl":"https://www.epa.gov/newsreleases/epa-takes-action-protect-scientific-integrity","imageRemote":"https://www.epa.gov/sites/all/themes/epa/img/epa-seal-large.png","video":null,"channel":null,"channelUrl":null,"author":"samizdis","authorUrl":"https://news.ycombinator.com/user?id=samizdis","authorImage":null,"authorSlug":null,"score":163,"views":null,"sharedCount":null,"likeCount":null,"sharedContent":null,"parent":{"__typename":"HnJson","localize":[{"title":"环保局采取行动保护科学的完整性","locale":"zh"},{"title":"環保局採取行動保護科學的完整性","locale":"zh-Hant"}]}},{"__typename":"SocialMediaPost","id":"HnPost-26095834","excerpt":"","slug":"/hn/26095834","title":"Yuzu (Nintendo Switch Emulator) Progress Report January 2021","date":"February 11, 2021","dateISO":"2021-02-11T02:30:45.020Z","datetime":"2021-02-11 02:30","tags":["story","Hacker News"],"image":null,"imageAlt":null,"provider":"Hacker News","thirdPartyId":"26095834","url":"https://news.ycombinator.com/item?id=26095834","originalUrl":"https://yuzu-emu.org/entry/yuzu-progress-report-jan-2021/","imageRemote":"https://yuzu-emu.org/entry/yuzu-progress-report-jan-2021/banner.png","video":null,"channel":null,"channelUrl":null,"author":"Parseus","authorUrl":"https://news.ycombinator.com/user?id=Parseus","authorImage":null,"authorSlug":null,"score":364,"views":null,"sharedCount":null,"likeCount":null,"sharedContent":null,"parent":{"__typename":"HnJson","localize":[{"title":"柚子（任天堂Switch模拟器）2021年1月进展报告","locale":"zh"},{"title":"柚子（任天堂Switch模擬器）2021年1月進展報告","locale":"zh-Hant"}]}},{"__typename":"SocialMediaPost","id":"HnPost-26095057","excerpt":"","slug":"/hn/26095057","title":"8-Year-Old Calls Out NPR for Lack of Dinosaur Stories","date":"February 11, 2021","dateISO":"2021-02-11T01:58:05.499Z","datetime":"2021-02-11 01:58","tags":["story","Hacker News"],"image":null,"imageAlt":null,"provider":"Hacker News","thirdPartyId":"26095057","url":"https://news.ycombinator.com/item?id=26095057","originalUrl":"https://www.npr.org/2021/02/09/965953078/8-year-old-calls-out-npr-for-lack-of-dinosaur-stories","imageRemote":"https://media.npr.org/assets/img/2021/02/09/gettyimages-1128763089_wide-70eff5765b9412003931f5bc608a7430f82f2a2d.jpg?s=1400","video":null,"channel":null,"channelUrl":null,"author":"sharkweek","authorUrl":"https://news.ycombinator.com/user?id=sharkweek","authorImage":null,"authorSlug":null,"score":413,"views":null,"sharedCount":null,"likeCount":null,"sharedContent":null,"parent":{"__typename":"HnJson","localize":[{"title":"8岁的孩子呼吁NPR缺乏恐龙的故事。","locale":"zh"},{"title":"8歲的孩子呼籲NPR缺乏恐龍的故事。","locale":"zh-Hant"}]}},{"__typename":"SocialMediaPost","id":"HnPost-26095598","excerpt":"","slug":"/hn/26095598","title":"What’s interesting about the Florida water system hack is that we heard about it","date":"February 11, 2021","dateISO":"2021-02-11T01:58:05.499Z","datetime":"2021-02-11 01:58","tags":["story","Hacker News"],"image":null,"imageAlt":null,"provider":"Hacker News","thirdPartyId":"26095598","url":"https://news.ycombinator.com/item?id=26095598","originalUrl":"https://krebsonsecurity.com/2021/02/whats-most-interesting-about-the-florida-water-system-hack-that-we-heard-about-it-at-all/","imageRemote":"https://krebsonsecurity.com/wp-content/uploads/2021/02/drinkwatersupply.jpg","video":null,"channel":null,"channelUrl":null,"author":"todsacerdoti","authorUrl":"https://news.ycombinator.com/user?id=todsacerdoti","authorImage":null,"authorSlug":null,"score":428,"views":null,"sharedCount":null,"likeCount":null,"sharedContent":null,"parent":{"__typename":"HnJson","localize":[{"title":"佛罗里达州供水系统被黑事件的有趣之处在于，我们听说过它","locale":"zh"},{"title":"佛羅里達州供水系統被黑事件的有趣之處在於，我們聽說過它","locale":"zh-Hant"}]}},{"__typename":"SocialMediaPost","id":"HnPost-26089770","excerpt":"","slug":"/hn/26089770","title":"Preparing to Issue 200M Certificates in 24 Hours","date":"February 11, 2021","dateISO":"2021-02-11T01:07:06.136Z","datetime":"2021-02-11 01:07","tags":["story","Hacker News"],"image":null,"imageAlt":null,"provider":"Hacker News","thirdPartyId":"26089770","url":"https://news.ycombinator.com/item?id=26089770","originalUrl":"https://letsencrypt.org/2021/02/10/200m-certs-24hrs.html","imageRemote":"https://letsencrypt.org/images/le-logo-twitter-noalpha.png","video":null,"channel":null,"channelUrl":null,"author":"jaas","authorUrl":"https://news.ycombinator.com/user?id=jaas","authorImage":null,"authorSlug":null,"score":210,"views":null,"sharedCount":null,"likeCount":null,"sharedContent":null,"parent":{"__typename":"HnJson","localize":[{"title":"准备在24小时内发行200M证书。","locale":"zh"},{"title":"準備在24小時內發行200M證書。","locale":"zh-Hant"}]}},{"__typename":"SocialMediaPost","id":"HnPost-26081919","excerpt":"","slug":"/hn/26081919","title":"Python behind the scenes #8: how Python integers work","date":"February 10, 2021","dateISO":"2021-02-10T22:57:13.418Z","datetime":"2021-02-10 22:57","tags":["story","Hacker News"],"image":null,"imageAlt":null,"provider":"Hacker News","thirdPartyId":"26081919","url":"https://news.ycombinator.com/item?id=26081919","originalUrl":"https://tenthousandmeters.com/blog/python-behind-the-scenes-8-how-python-integers-work/","imageRemote":"https://tenthousandmeters.com/blog/python_bts_08/mult.gif","video":null,"channel":null,"channelUrl":null,"author":"rbanffy","authorUrl":"https://news.ycombinator.com/user?id=rbanffy","authorImage":null,"authorSlug":null,"score":163,"views":null,"sharedCount":null,"likeCount":null,"sharedContent":null,"parent":{"__typename":"HnJson","localize":[{"title":"Python幕后花絮#8：Python整数是如何工作的？","locale":"zh"},{"title":"Python幕後花絮#8：Python整數是如何工作的？","locale":"zh-Hant"}]}},{"__typename":"SocialMediaPost","id":"HnPost-26094524","excerpt":"","slug":"/hn/26094524","title":"Samsung Foundry: New $17B Fab in the USA by Late 2023","date":"February 10, 2021","dateISO":"2021-02-10T22:57:13.418Z","datetime":"2021-02-10 22:57","tags":["story","Hacker News"],"image":null,"imageAlt":null,"provider":"Hacker News","thirdPartyId":"26094524","url":"https://news.ycombinator.com/item?id=26094524","originalUrl":"https://www.anandtech.com/show/16483/samsung-in-the-usa-a-17-billion-usd-fab-by-late-2023","imageRemote":"https://images.anandtech.com/doci/16483/samsung-foundry-hero_678x452.jpg","video":null,"channel":null,"channelUrl":null,"author":"manojkr","authorUrl":"https://news.ycombinator.com/user?id=manojkr","authorImage":null,"authorSlug":null,"score":617,"views":null,"sharedCount":null,"likeCount":null,"sharedContent":null,"parent":{"__typename":"HnJson","localize":[{"title":"三星代工厂。2023年底前在美国新建170亿美元的工厂","locale":"zh"},{"title":"三星代工廠。2023年底前在美國新建170億美元的工廠","locale":"zh-Hant"}]}},{"__typename":"SocialMediaPost","id":"HnPost-26085515","excerpt":"","slug":"/hn/26085515","title":"Evidence that the FBI can hack into private Signal messages on a locked iPhone","date":"February 10, 2021","dateISO":"2021-02-10T22:28:12.112Z","datetime":"2021-02-10 22:28","tags":["story","Hacker News"],"image":null,"imageAlt":null,"provider":"Hacker News","thirdPartyId":"26085515","url":"https://news.ycombinator.com/item?id=26085515","originalUrl":"https://www.forbes.com/sites/thomasbrewster/2021/02/08/can-the-fbi-can-hack-into-private-signal-messages-on-a-locked-iphone-evidence-indicates-yes/","imageRemote":"https://thumbor.forbes.com/thumbor/fit-in/1200x0/filters%3Aformat(jpg)/https%3A%2F%2Fspecials-images.forbesimg.com%2Fimageserve%2F602187aad2fe29fe86540f39%2F0x0.jpg%3FcropX1%3D0%26cropX2%3D5000%26cropY1%3D254%26cropY2%3D3067","video":null,"channel":null,"channelUrl":null,"author":"foolinaround","authorUrl":"https://news.ycombinator.com/user?id=foolinaround","authorImage":null,"authorSlug":null,"score":348,"views":null,"sharedCount":null,"likeCount":null,"sharedContent":null,"parent":{"__typename":"HnJson","localize":[{"title":"有证据表明，FBI可以黑进锁定的iPhone上的Signal私人信息。","locale":"zh"},{"title":"有證據表明，FBI可以黑進鎖定的iPhone上的Signal私人信息。","locale":"zh-Hant"}]}},{"__typename":"SocialMediaPost","id":"HnPost-26093535","excerpt":"","slug":"/hn/26093535","title":"Kenyan recycles plastic waste into bricks stronger than concrete","date":"February 10, 2021","dateISO":"2021-02-10T22:28:12.112Z","datetime":"2021-02-10 22:28","tags":["story","Hacker News"],"image":null,"imageAlt":null,"provider":"Hacker News","thirdPartyId":"26093535","url":"https://news.ycombinator.com/item?id=26093535","originalUrl":"https://www.reuters.com/article/us-kenya-environment-recycling-idUSKBN2A211N","imageRemote":"https://static.reuters.com/resources/r/?m=02&d=20210202&t=2&i=1549970897&r=LYNXMPEH110LD&w=800","video":null,"channel":null,"channelUrl":null,"author":"elorant","authorUrl":"https://news.ycombinator.com/user?id=elorant","authorImage":null,"authorSlug":null,"score":476,"views":null,"sharedCount":null,"likeCount":null,"sharedContent":null,"parent":{"__typename":"HnJson","localize":[{"title":"肯尼亚回收塑料垃圾制成比混凝土还坚固的砖块","locale":"zh"},{"title":"肯尼亞回收塑料垃圾製成比混凝土還堅固的磚塊","locale":"zh-Hant"}]}},{"__typename":"SocialMediaPost","id":"HnPost-26092040","excerpt":"","slug":"/hn/26092040","title":"Hello system, a FreeBSD-based OS designed to resemble Mac","date":"February 10, 2021","dateISO":"2021-02-10T21:28:05.446Z","datetime":"2021-02-10 21:28","tags":["story","Hacker News"],"image":null,"imageAlt":null,"provider":"Hacker News","thirdPartyId":"26092040","url":"https://news.ycombinator.com/item?id=26092040","originalUrl":"https://hellosystem.github.io/docs/","imageRemote":"https://hellosystem.github.io/docs/_static/hello_logo.png","video":null,"channel":null,"channelUrl":null,"author":"gautamcgoel","authorUrl":"https://news.ycombinator.com/user?id=gautamcgoel","authorImage":null,"authorSlug":null,"score":314,"views":null,"sharedCount":null,"likeCount":null,"sharedContent":null,"parent":{"__typename":"HnJson","localize":[{"title":"哈啰系统","locale":"zh"},{"title":"哈囉系統","locale":"zh-Hant"}]}},{"__typename":"SocialMediaPost","id":"HnPost-26092868","excerpt":"","slug":"/hn/26092868","title":"Block Facebook Servers","date":"February 10, 2021","dateISO":"2021-02-10T21:00:57.045Z","datetime":"2021-02-10 21:00","tags":["story","Hacker News"],"image":null,"imageAlt":null,"provider":"Hacker News","thirdPartyId":"26092868","url":"https://news.ycombinator.com/item?id=26092868","originalUrl":"https://github.com/jmdugan/blocklists/tree/master/corporations/facebook","imageRemote":"https://avatars.githubusercontent.com/u/25763?s=400&v=4","video":null,"channel":null,"channelUrl":null,"author":"prakhargurunani","authorUrl":"https://news.ycombinator.com/user?id=prakhargurunani","authorImage":null,"authorSlug":null,"score":232,"views":null,"sharedCount":null,"likeCount":null,"sharedContent":null,"parent":{"__typename":"HnJson","localize":[{"title":"屏蔽Facebook服务器","locale":"zh"},{"title":"屏蔽Facebook服務器","locale":"zh-Hant"}]}},{"__typename":"SocialMediaPost","id":"HnPost-26093778","excerpt":"","slug":"/hn/26093778","title":"Golang generics proposal has been accepted","date":"February 10, 2021","dateISO":"2021-02-10T20:55:56.358Z","datetime":"2021-02-10 20:55","tags":["story","Hacker News"],"image":null,"imageAlt":null,"provider":"Hacker News","thirdPartyId":"26093778","url":"https://news.ycombinator.com/item?id=26093778","originalUrl":"https://github.com/golang/go/issues/43651#issuecomment-776944155","imageRemote":"https://avatars.githubusercontent.com/u/4314092?s=400&v=4","video":null,"channel":null,"channelUrl":null,"author":"komuW","authorUrl":"https://news.ycombinator.com/user?id=komuW","authorImage":null,"authorSlug":null,"score":269,"views":null,"sharedCount":null,"likeCount":null,"sharedContent":null,"parent":{"__typename":"HnJson","localize":[{"title":"高朗仿制药提案已被接受","locale":"zh"},{"title":"高朗仿製藥提案已被接受","locale":"zh-Hant"}]}},{"__typename":"SocialMediaPost","id":"HnPost-26093070","excerpt":"","slug":"/hn/26093070","title":"Viral 'I'm not a cat' filter is decades-old software","date":"February 10, 2021","dateISO":"2021-02-10T20:46:49.826Z","datetime":"2021-02-10 20:46","tags":["story","Hacker News"],"image":null,"imageAlt":null,"provider":"Hacker News","thirdPartyId":"26093070","url":"https://news.ycombinator.com/item?id=26093070","originalUrl":"https://www.bbc.co.uk/news/technology-56010156","imageRemote":"https://ichef.bbci.co.uk/news/1024/branded_news/5149/production/_116890802_p096j77c.jpg","video":null,"channel":null,"channelUrl":null,"author":"beermonster","authorUrl":"https://news.ycombinator.com/user?id=beermonster","authorImage":null,"authorSlug":null,"score":532,"views":null,"sharedCount":null,"likeCount":null,"sharedContent":null,"parent":{"__typename":"HnJson","localize":[{"title":"病毒式 \"我不是猫 \"滤镜是几十年前的软件。","locale":"zh"},{"title":"病毒式 \"我不是貓 \"濾鏡是幾十年前的軟件。","locale":"zh-Hant"}]}},{"__typename":"SocialMediaPost","id":"HnPost-26089321","excerpt":"","slug":"/hn/26089321","title":"Apple Watch Identifies SARS-CoV2 Infection and Predicts Diagnosis","date":"February 10, 2021","dateISO":"2021-02-10T20:29:12.474Z","datetime":"2021-02-10 20:29","tags":["story","Hacker News"],"image":null,"imageAlt":null,"provider":"Hacker News","thirdPartyId":"26089321","url":"https://news.ycombinator.com/item?id=26089321","originalUrl":"https://preprints.jmir.org/preprint/26107","imageRemote":"https://preprints.jmir.org/article/viewFile/26107/1/464672","video":null,"channel":null,"channelUrl":null,"author":"giuliomagnifico","authorUrl":"https://news.ycombinator.com/user?id=giuliomagnifico","authorImage":null,"authorSlug":null,"score":191,"views":null,"sharedCount":null,"likeCount":null,"sharedContent":null,"parent":{"__typename":"HnJson","localize":[{"title":"Apple Watch可识别SARS-CoV2感染并预测诊断结果","locale":"zh"},{"title":"Apple Watch可識別SARS-CoV2感染並預測診斷結果","locale":"zh-Hant"}]}},{"__typename":"SocialMediaPost","id":"HnPost-26091410","excerpt":"","slug":"/hn/26091410","title":"Illegal CFC emissions have stopped since scientists raised alarm","date":"February 10, 2021","dateISO":"2021-02-10T19:56:44.321Z","datetime":"2021-02-10 19:56","tags":["story","Hacker News"],"image":null,"imageAlt":null,"provider":"Hacker News","thirdPartyId":"26091410","url":"https://news.ycombinator.com/item?id=26091410","originalUrl":"https://www.nature.com/articles/d41586-021-00360-0","imageRemote":"https://media.nature.com/lw1024/magazine-assets/d41586-021-00360-0/d41586-021-00360-0_18848484.jpg","video":null,"channel":null,"channelUrl":null,"author":"samizdis","authorUrl":"https://news.ycombinator.com/user?id=samizdis","authorImage":null,"authorSlug":null,"score":331,"views":null,"sharedCount":null,"likeCount":null,"sharedContent":null,"parent":{"__typename":"HnJson","localize":[{"title":"自科学家发出警报以来，氟氯化碳的非法排放已经停止。","locale":"zh"},{"title":"自科學家發出警報以來，氟氯化碳的非法排放已經停止。","locale":"zh-Hant"}]}},{"__typename":"SocialMediaPost","id":"HnPost-26090243","excerpt":"","slug":"/hn/26090243","title":"Web Scraping 101 with Python","date":"February 10, 2021","dateISO":"2021-02-10T19:45:39.602Z","datetime":"2021-02-10 19:45","tags":["story","Hacker News"],"image":null,"imageAlt":null,"provider":"Hacker News","thirdPartyId":"26090243","url":"https://news.ycombinator.com/item?id=26090243","originalUrl":"https://www.scrapingbee.com/blog/web-scraping-101-with-python/","imageRemote":"https://www.scrapingbee.com/images/post/python-101/python_101_cover.jpg","video":null,"channel":null,"channelUrl":null,"author":"daolf","authorUrl":"https://news.ycombinator.com/user?id=daolf","authorImage":null,"authorSlug":null,"score":378,"views":null,"sharedCount":null,"likeCount":null,"sharedContent":null,"parent":{"__typename":"HnJson","localize":[{"title":"用Python进行Web Scraping 101","locale":"zh"},{"title":"用Python進行Web Scraping 101","locale":"zh-Hant"}]}},{"__typename":"SocialMediaPost","id":"HnPost-26089683","excerpt":"","slug":"/hn/26089683","title":"Patterns of Distributed Systems (2020)","date":"February 10, 2021","dateISO":"2021-02-10T18:55:09.210Z","datetime":"2021-02-10 18:55","tags":["story","Hacker News"],"image":null,"imageAlt":null,"provider":"Hacker News","thirdPartyId":"26089683","url":"https://news.ycombinator.com/item?id=26089683","originalUrl":"https://martinfowler.com/articles/patterns-of-distributed-systems/","imageRemote":"https://martinfowler.com/articles/patterns-of-distributed-systems/card.png","video":null,"channel":null,"channelUrl":null,"author":"sbmthakur","authorUrl":"https://news.ycombinator.com/user?id=sbmthakur","authorImage":null,"authorSlug":null,"score":307,"views":null,"sharedCount":null,"likeCount":null,"sharedContent":null,"parent":{"__typename":"HnJson","localize":[{"title":"分布式系统的模式（2020年）","locale":"zh"},{"title":"分佈式系統的模式（2020年）","locale":"zh-Hant"}]}},{"__typename":"SocialMediaPost","id":"HnPost-26085238","excerpt":"","slug":"/hn/26085238","title":"Ham Radio Forms a Planet-Sized Space Weather Sensor Network","date":"February 10, 2021","dateISO":"2021-02-10T17:48:18.943Z","datetime":"2021-02-10 17:48","tags":["story","Hacker News"],"image":null,"imageAlt":null,"provider":"Hacker News","thirdPartyId":"26085238","url":"https://news.ycombinator.com/item?id=26085238","originalUrl":"https://eos.org/features/ham-radio-forms-a-planet-sized-space-weather-sensor-network","imageRemote":"https://eos.org/wp-content/uploads/2021/02/ham-radio-club-case-western-reserve.jpg","video":null,"channel":null,"channelUrl":null,"author":"sohkamyung","authorUrl":"https://news.ycombinator.com/user?id=sohkamyung","authorImage":null,"authorSlug":null,"score":177,"views":null,"sharedCount":null,"likeCount":null,"sharedContent":null,"parent":{"__typename":"HnJson","localize":[{"title":"哈姆无线电形成行星大小的空间气象传感器网络","locale":"zh"},{"title":"哈姆無線電形成行星大小的空間氣象傳感器網絡","locale":"zh-Hant"}]}},{"__typename":"SocialMediaPost","id":"HnPost-26091085","excerpt":"","slug":"/hn/26091085","title":"Stanford Makes iPhone Development Course Free","date":"February 10, 2021","dateISO":"2021-02-10T17:48:18.943Z","datetime":"2021-02-10 17:48","tags":["story","Hacker News"],"image":null,"imageAlt":null,"provider":"Hacker News","thirdPartyId":"26091085","url":"https://news.ycombinator.com/item?id=26091085","originalUrl":"https://cs193p.sites.stanford.edu/","imageRemote":"https://cs193p.sites.stanford.edu/sites/g/files/sbiybj16636/files/styles/card_1900x950/public/media/image/l1_still.jpg?h=5ce26e05&itok=ONevivMe","video":null,"channel":null,"channelUrl":null,"author":"rangoon626","authorUrl":"https://news.ycombinator.com/user?id=rangoon626","authorImage":null,"authorSlug":null,"score":688,"views":null,"sharedCount":null,"likeCount":null,"sharedContent":null,"parent":{"__typename":"HnJson","localize":[{"title":"斯坦福大学让iPhone开发课程免费","locale":"zh"},{"title":"斯坦福大學讓iPhone開發課程免費","locale":"zh-Hant"}]}},{"__typename":"SocialMediaPost","id":"HnPost-26087949","excerpt":"","slug":"/hn/26087949","title":"Are we game yet? – A guide to the Rust game development ecosystem","date":"February 10, 2021","dateISO":"2021-02-10T17:01:56.419Z","datetime":"2021-02-10 17:01","tags":["story","Hacker News"],"image":null,"imageAlt":null,"provider":"Hacker News","thirdPartyId":"26087949","url":"https://news.ycombinator.com/item?id=26087949","originalUrl":"https://arewegameyet.rs/","imageRemote":"https://arewegameyet.rs/assets/img/rust-logo-128x128-blk-v2.png","video":null,"channel":null,"channelUrl":null,"author":"lnyan","authorUrl":"https://news.ycombinator.com/user?id=lnyan","authorImage":null,"authorSlug":null,"score":300,"views":null,"sharedCount":null,"likeCount":null,"sharedContent":null,"parent":{"__typename":"HnJson","localize":[{"title":"我们是游戏了吗？- Rust游戏开发生态系统指南","locale":"zh"},{"title":"我們是遊戲了嗎？- Rust遊戲開發生態系統指南","locale":"zh-Hant"}]}},{"__typename":"SocialMediaPost","id":"HnPost-26087502","excerpt":"","slug":"/hn/26087502","title":"Timezone Bullshit","date":"February 10, 2021","dateISO":"2021-02-10T14:45:30.268Z","datetime":"2021-02-10 14:45","tags":["story","Hacker News"],"image":null,"imageAlt":null,"provider":"Hacker News","thirdPartyId":"26087502","url":"https://news.ycombinator.com/item?id=26087502","originalUrl":"https://blog.wesleyac.com/posts/timezone-bullshit","imageRemote":null,"video":null,"channel":null,"channelUrl":null,"author":"organian","authorUrl":"https://news.ycombinator.com/user?id=organian","authorImage":null,"authorSlug":null,"score":388,"views":null,"sharedCount":null,"likeCount":null,"sharedContent":null,"parent":{"__typename":"HnJson","localize":[{"title":"时区废话","locale":"zh"},{"title":"時區廢話","locale":"zh-Hant"}]}},{"__typename":"SocialMediaPost","id":"HnPost-26088133","excerpt":"","slug":"/hn/26088133","title":"Mozilla Welcomes the Rust Foundation","date":"February 10, 2021","dateISO":"2021-02-10T14:31:09.777Z","datetime":"2021-02-10 14:31","tags":["story","Hacker News"],"image":null,"imageAlt":null,"provider":"Hacker News","thirdPartyId":"26088133","url":"https://news.ycombinator.com/item?id=26088133","originalUrl":"https://blog.mozilla.org/blog/2021/02/08/mozilla-welcomes-the-rust-foundation/","imageRemote":"https://blog.mozilla.org/wp-content/uploads/2021/02/Rust-Logo.png","video":null,"channel":null,"channelUrl":null,"author":"Garbage","authorUrl":"https://news.ycombinator.com/user?id=Garbage","authorImage":null,"authorSlug":null,"score":435,"views":null,"sharedCount":null,"likeCount":null,"sharedContent":null,"parent":{"__typename":"HnJson","localize":[{"title":"Mozilla欢迎Rust基金会","locale":"zh"},{"title":"Mozilla歡迎Rust基金會","locale":"zh-Hant"}]}},{"__typename":"SocialMediaPost","id":"HnPost-26088455","excerpt":"","slug":"/hn/26088455","title":"Bitcoin now uses more electricity than Argentina","date":"February 10, 2021","dateISO":"2021-02-10T14:31:09.777Z","datetime":"2021-02-10 14:31","tags":["story","Hacker News"],"image":null,"imageAlt":null,"provider":"Hacker News","thirdPartyId":"26088455","url":"https://news.ycombinator.com/item?id=26088455","originalUrl":"https://cbeci.org/cbeci/comparisons","imageRemote":null,"video":null,"channel":null,"channelUrl":null,"author":"apples_oranges","authorUrl":"https://news.ycombinator.com/user?id=apples_oranges","authorImage":null,"authorSlug":null,"score":961,"views":null,"sharedCount":null,"likeCount":null,"sharedContent":null,"parent":{"__typename":"HnJson","localize":[{"title":"比特币现在用电量比阿根廷还多","locale":"zh"},{"title":"比特幣現在用電量比阿根廷還多","locale":"zh-Hant"}]}},{"__typename":"SocialMediaPost","id":"HnPost-26078677","excerpt":"","slug":"/hn/26078677","title":"Infinitely zooming botanical floral paradise painting","date":"February 10, 2021","dateISO":"2021-02-10T12:42:03.461Z","datetime":"2021-02-10 12:42","tags":["story","Hacker News"],"image":null,"imageAlt":null,"provider":"Hacker News","thirdPartyId":"26078677","url":"https://news.ycombinator.com/item?id=26078677","originalUrl":"http://arkadia.xyz/","imageRemote":"https://arkadia.xyz/arkadia.jpg","video":null,"channel":null,"channelUrl":null,"author":"masupicchu","authorUrl":"https://news.ycombinator.com/user?id=masupicchu","authorImage":null,"authorSlug":null,"score":331,"views":null,"sharedCount":null,"likeCount":null,"sharedContent":null,"parent":{"__typename":"HnJson","localize":[{"title":"无限放大的植物花卉天堂画作。","locale":"zh"},{"title":"無限放大的植物花卉天堂畫作。","locale":"zh-Hant"}]}},{"__typename":"SocialMediaPost","id":"HnPost-26086288","excerpt":"","slug":"/hn/26086288","title":"90-year-old man spends $10k on 2 ads in WSJ to tell AT&T CEO about slow internet","date":"February 10, 2021","dateISO":"2021-02-10T12:13:55.648Z","datetime":"2021-02-10 12:13","tags":["story","Hacker News"],"image":null,"imageAlt":null,"provider":"Hacker News","thirdPartyId":"26086288","url":"https://news.ycombinator.com/item?id=26086288","originalUrl":"https://www.foxla.com/news/90-year-old-man-spends-10000-on-2-ads-in-wsj-to-tell-att-ceo-about-his-slow-internet-service","imageRemote":"https://images.foxtv.com/static.foxla.com/www.foxla.com/content/uploads/2021/02/1280/720/Epstein-ATT-ad1.jpg?ve=1&tl=1","video":null,"channel":null,"channelUrl":null,"author":"us0r","authorUrl":"https://news.ycombinator.com/user?id=us0r","authorImage":null,"authorSlug":null,"score":199,"views":null,"sharedCount":null,"likeCount":null,"sharedContent":null,"parent":{"__typename":"HnJson","localize":[{"title":"90岁老人花1万美元在《华尔街日报》上做2个广告，向AT&T CEO诉说网速慢的问题。","locale":"zh"},{"title":"90歲老人花1萬美元在《華爾街日報》上做2個廣告，向AT&T CEO訴說網速慢的問題。","locale":"zh-Hant"}]}}]}},"pageContext":{"basePath":"/","pageType":"tag","tag":"Hacker News","tagsFilter":{"id":{"glob":"!*Post-1"}},"filter":{"id":{"glob":"!*Post-1"},"tags":{"eq":"Hacker News"}},"limit":25,"skip":950,"total":2600,"totalPages":104,"currentPage":39,"maxWidth":1024,"maxHeight":512,"locale":"zh","hrefLang":"zh-Hans","originalPath":"/tags/hacker-news/page/39","dateFormat":"YYYY-MM-DD"}},"staticQueryHashes":["1239077767","2506312863","2744905544","3025052997","3493603132","3493603132","3513215887","386998304"]}