{"componentChunkName":"component---gatsby-theme-buzzing-src-gatsby-theme-timeline-templates-posts-query-js","path":"/zh-Hant/tags/hacker-news/page/34","result":{"data":{"site":{"siteMetadata":{"title":"Reddit 热门","description":"用中文浏览Reddit热门内容","social":[{"name":"Twitter","url":"https://twitter.com/gatsbyjs","external":null,"prefetch":null},{"name":"GitHub","url":"https://github.com/gatsbyjs","external":null,"prefetch":null}],"menuLinks":[],"localize":[{"locale":"en","title":"Buzzing on Reddit","description":"See what's buzzing on Reddit in your native language","social":[{"name":"Reddit","url":"https://www.reddit.com/","external":true,"prefetch":null}],"menuLinks":[{"name":"Weekly Selection","url":"/issues","external":null,"prefetch":null},{"name":"RSS","url":"/rss.xml","external":null,"prefetch":false}]},{"locale":"zh-Hant","title":"Reddit 熱門","description":"用中文瀏覽Reddit熱門內容","social":null,"menuLinks":null}]}},"tagsGroup":{"group":[{"fieldValue":"ASK HN","totalCount":42},{"fieldValue":"Bitcoin","totalCount":4},{"fieldValue":"Hacker News","totalCount":2407},{"fieldValue":"Poll","totalCount":1},{"fieldValue":"SaveAMC","totalCount":1},{"fieldValue":"Show HN","totalCount":81},{"fieldValue":"bitcoin","totalCount":3},{"fieldValue":"investing","totalCount":753},{"fieldValue":"poll","totalCount":1},{"fieldValue":"reddit","totalCount":4523},{"fieldValue":"science","totalCount":1},{"fieldValue":"stocks","totalCount":1482},{"fieldValue":"story","totalCount":2406},{"fieldValue":"tweet","totalCount":767},{"fieldValue":"wallstreetbets","totalCount":2288}]},"allBlogPost":{"nodes":[{"__typename":"SocialMediaPost","id":"HnPost-26066365","excerpt":"","slug":"/hn/26066365","title":"GitHub experiencing issues with actions, pull requests, packages","date":"February 08, 2021","dateISO":"2021-02-08T20:41:50.231Z","datetime":"2021-02-08 20:41","tags":["story","Hacker News"],"image":null,"imageAlt":null,"provider":"Hacker News","thirdPartyId":"26066365","url":"https://news.ycombinator.com/item?id=26066365","originalUrl":"https://www.githubstatus.com/incidents/th4mgzt9y25t","imageRemote":"https://dka575ofm4ao0.cloudfront.net/pages-twitter_logos/original/36420/GitHub-Mark-120px-plus.png","video":null,"channel":null,"channelUrl":null,"author":"Amorymeltzer","authorUrl":"https://news.ycombinator.com/user?id=Amorymeltzer","authorImage":null,"authorSlug":null,"score":214,"views":null,"sharedCount":null,"likeCount":null,"sharedContent":null,"parent":{"__typename":"HnJson","localize":[{"title":"GitHub在动作、拉取请求、包方面遇到问题。","locale":"zh"},{"title":"GitHub在動作、拉取請求、包方面遇到問題。","locale":"zh-Hant"}]}},{"__typename":"SocialMediaPost","id":"HnPost-26065511","excerpt":"","slug":"/hn/26065511","title":"State of the Common Lisp ecosystem, 2020","date":"February 08, 2021","dateISO":"2021-02-08T19:52:43.523Z","datetime":"2021-02-08 19:52","tags":["story","Hacker News"],"image":null,"imageAlt":null,"provider":"Hacker News","thirdPartyId":"26065511","url":"https://news.ycombinator.com/item?id=26065511","originalUrl":"https://lisp-journey.gitlab.io/blog/state-of-the-common-lisp-ecosystem-2020/","imageRemote":null,"video":null,"channel":null,"channelUrl":null,"author":"lelf","authorUrl":"https://news.ycombinator.com/user?id=lelf","authorImage":null,"authorSlug":null,"score":310,"views":null,"sharedCount":null,"likeCount":null,"sharedContent":null,"parent":{"__typename":"HnJson","localize":[{"title":"2020年共同语言生态系统的现状","locale":"zh"},{"title":"2020年共同語言生態系統的現狀","locale":"zh-Hant"}]}},{"__typename":"SocialMediaPost","id":"HnPost-26067188","excerpt":"","slug":"/hn/26067188","title":"Reminder: Terraria Dev’s Google Story Is Not Unusual at All","date":"February 08, 2021","dateISO":"2021-02-08T19:19:13.150Z","datetime":"2021-02-08 19:19","tags":["story","Hacker News"],"image":null,"imageAlt":null,"provider":"Hacker News","thirdPartyId":"26067188","url":"https://news.ycombinator.com/item?id=26067188","originalUrl":"https://codewriteplay.com/2021/02/08/reminder-terraria-devs-google-story-is-not-unusual-at-all/","imageRemote":null,"video":null,"channel":null,"channelUrl":null,"author":"teddyh","authorUrl":"https://news.ycombinator.com/user?id=teddyh","authorImage":null,"authorSlug":null,"score":316,"views":null,"sharedCount":null,"likeCount":null,"sharedContent":null,"parent":{"__typename":"HnJson","localize":[{"title":"提醒。Terraria Dev的谷歌故事一点也不稀奇","locale":"zh"},{"title":"提醒。Terraria Dev的谷歌故事一點也不稀奇","locale":"zh-Hant"}]}},{"__typename":"SocialMediaPost","id":"HnPost-26066918","excerpt":"","slug":"/hn/26066918","title":"I followed my dreams and got demoted to software developer","date":"February 08, 2021","dateISO":"2021-02-08T18:53:24.897Z","datetime":"2021-02-08 18:53","tags":["story","Hacker News"],"image":null,"imageAlt":null,"provider":"Hacker News","thirdPartyId":"26066918","url":"https://news.ycombinator.com/item?id=26066918","originalUrl":"https://stackoverflow.blog/2021/02/08/moving-from-designer-to-developer-stack-overflow/","imageRemote":"https://149351115.v2.pressablecdn.com/wp-content/uploads/2021/02/Kristina-Lustig-Blog-Post-Header.jpg","video":null,"channel":null,"channelUrl":null,"author":"TangerineDream","authorUrl":"https://news.ycombinator.com/user?id=TangerineDream","authorImage":null,"authorSlug":null,"score":350,"views":null,"sharedCount":null,"likeCount":null,"sharedContent":null,"parent":{"__typename":"HnJson","localize":[{"title":"我追寻着自己的梦想，却被降职为软件开发人员。","locale":"zh"},{"title":"我追尋着自己的夢想，卻被降職爲軟件開發人員。","locale":"zh-Hant"}]}},{"__typename":"SocialMediaPost","id":"HnPost-26067118","excerpt":"","slug":"/hn/26067118","title":"Rust Foundation: Hello, World","date":"February 08, 2021","dateISO":"2021-02-08T17:48:35.241Z","datetime":"2021-02-08 17:48","tags":["story","Hacker News"],"image":null,"imageAlt":null,"provider":"Hacker News","thirdPartyId":"26067118","url":"https://news.ycombinator.com/item?id=26067118","originalUrl":"https://foundation.rust-lang.org/posts/2021-02-08-hello-world/","imageRemote":"https://foundation.rust-lang.org/img/rf-logo-transparent.png","video":null,"channel":null,"channelUrl":null,"author":"steveklabnik","authorUrl":"https://news.ycombinator.com/user?id=steveklabnik","authorImage":null,"authorSlug":null,"score":864,"views":null,"sharedCount":null,"likeCount":null,"sharedContent":null,"parent":{"__typename":"HnJson","localize":[{"title":"锈蚀基金会。你好，世界","locale":"zh"},{"title":"鏽蝕基金會。你好，世界","locale":"zh-Hant"}]}},{"__typename":"SocialMediaPost","id":"HnPost-26063239","excerpt":"","slug":"/hn/26063239","title":"Requests dropped when using Cloudflare’s free tier for a commercial project","date":"February 08, 2021","dateISO":"2021-02-08T17:11:49.216Z","datetime":"2021-02-08 17:11","tags":["story","Hacker News"],"image":null,"imageAlt":null,"provider":"Hacker News","thirdPartyId":"26063239","url":"https://news.ycombinator.com/item?id=26063239","originalUrl":"https://pawelurbanek.com/cloudflare-free-plan","imageRemote":"https://pawelurbanek.com/assets/cloudflare-blocking-requests-b6d1ac130e4de4e9b2076e9053fdbbc362efb6a3e8c10a1cbff130d20b3c38d3.jpg","video":null,"channel":null,"channelUrl":null,"author":"pawurb","authorUrl":"https://news.ycombinator.com/user?id=pawurb","authorImage":null,"authorSlug":null,"score":176,"views":null,"sharedCount":null,"likeCount":null,"sharedContent":null,"parent":{"__typename":"HnJson","localize":[{"title":"在商业项目中使用Cloudflare的免费层时，请求被删除。","locale":"zh"},{"title":"在商業項目中使用Cloudflare的免費層時，請求被刪除。","locale":"zh-Hant"}]}},{"__typename":"SocialMediaPost","id":"HnPost-26060690","excerpt":"","slug":"/hn/26060690","title":"Stop Swiss Cheesing your calendar","date":"February 08, 2021","dateISO":"2021-02-08T15:43:58.239Z","datetime":"2021-02-08 15:43","tags":["story","Hacker News"],"image":null,"imageAlt":null,"provider":"Hacker News","thirdPartyId":"26060690","url":"https://news.ycombinator.com/item?id=26060690","originalUrl":"https://thinkingthrough.substack.com/p/stop-swiss-cheesing-your-calendar","imageRemote":"https://cdn.substack.com/image/fetch/w_1200,c_limit,f_jpg,q_auto:good,fl_progressive:steep/https%3A%2F%2Fbucketeer-e05bbc84-baa3-437e-9518-adb32be77984.s3.amazonaws.com%2Fpublic%2Fimages%2Fff4cb66e-86ed-40aa-8786-047f18e1d9ca_590x443.jpeg","video":null,"channel":null,"channelUrl":null,"author":"maddynator","authorUrl":"https://news.ycombinator.com/user?id=maddynator","authorImage":null,"authorSlug":null,"score":223,"views":null,"sharedCount":null,"likeCount":null,"sharedContent":null,"parent":{"__typename":"HnJson","localize":[{"title":"停止瑞士奶酪你的日历","locale":"zh"},{"title":"停止瑞士奶酪你的日曆","locale":"zh-Hant"}]}},{"__typename":"SocialMediaPost","id":"HnPost-26053808","excerpt":"","slug":"/hn/26053808","title":"Accused murderer wins right to check source code of DNA testing kit","date":"February 08, 2021","dateISO":"2021-02-08T15:23:10.526Z","datetime":"2021-02-08 15:23","tags":["story","Hacker News"],"image":null,"imageAlt":null,"provider":"Hacker News","thirdPartyId":"26053808","url":"https://news.ycombinator.com/item?id=26053808","originalUrl":"https://www.theregister.com/2021/02/04/dna_testing_software/","imageRemote":"https://regmedia.co.uk/2019/05/29/dna.jpg","video":null,"channel":null,"channelUrl":null,"author":"anfilt","authorUrl":"https://news.ycombinator.com/user?id=anfilt","authorImage":null,"authorSlug":null,"score":978,"views":null,"sharedCount":null,"likeCount":null,"sharedContent":null,"parent":{"__typename":"HnJson","localize":[{"title":"被控杀人犯赢得检查DNA检测试剂盒源代码的权利。","locale":"zh"},{"title":"被控殺人犯贏得檢查DNA檢測試劑盒源代碼的權利。","locale":"zh-Hant"}]}},{"__typename":"SocialMediaPost","id":"HnPost-26060152","excerpt":"","slug":"/hn/26060152","title":"Change your MAC address with a shell script (2019)","date":"February 08, 2021","dateISO":"2021-02-08T14:43:24.386Z","datetime":"2021-02-08 14:43","tags":["story","Hacker News"],"image":null,"imageAlt":null,"provider":"Hacker News","thirdPartyId":"26060152","url":"https://news.ycombinator.com/item?id=26060152","originalUrl":"https://josh.works/shell-script-basics-change-mac-address","imageRemote":"https://josh.works/images/2019-12-17-bash-basics-twitter-card.jpg","video":null,"channel":null,"channelUrl":null,"author":"mooreds","authorUrl":"https://news.ycombinator.com/user?id=mooreds","authorImage":null,"authorSlug":null,"score":188,"views":null,"sharedCount":null,"likeCount":null,"sharedContent":null,"parent":{"__typename":"HnJson","localize":[{"title":"用shell脚本改变你的MAC地址(2019)","locale":"zh"},{"title":"用shell腳本改變你的MAC地址(2019)","locale":"zh-Hant"}]}},{"__typename":"SocialMediaPost","id":"HnPost-26063920","excerpt":"","slug":"/hn/26063920","title":"Tesla buys $1.5B in Bitcoin, may accept it as payment in the future","date":"February 08, 2021","dateISO":"2021-02-08T13:48:01.100Z","datetime":"2021-02-08 13:48","tags":["story","Hacker News"],"image":null,"imageAlt":null,"provider":"Hacker News","thirdPartyId":"26063920","url":"https://news.ycombinator.com/item?id=26063920","originalUrl":"https://techcrunch.com/2021/02/08/tesla-buys-1-5b-in-bitcoin-may-accept-the-cryptocurrency-as-payment-in-the-future/","imageRemote":"https://techcrunch.com/wp-content/uploads/2020/09/tesla-glitch1.jpg?w=712","video":null,"channel":null,"channelUrl":null,"author":"Cookingboy","authorUrl":"https://news.ycombinator.com/user?id=Cookingboy","authorImage":null,"authorSlug":null,"score":753,"views":null,"sharedCount":null,"likeCount":null,"sharedContent":null,"parent":{"__typename":"HnJson","localize":[{"title":"特斯拉购买15亿美元比特币，未来可能接受比特币作为支付方式。","locale":"zh"},{"title":"特斯拉購買15億美元比特幣，未來可能接受比特幣作爲支付方式。","locale":"zh-Hant"}]}},{"__typename":"SocialMediaPost","id":"HnPost-26056588","excerpt":"","slug":"/hn/26056588","title":"Making Sense of the Audio Stack on Unix","date":"February 08, 2021","dateISO":"2021-02-08T13:21:24.505Z","datetime":"2021-02-08 13:21","tags":["story","Hacker News"],"image":null,"imageAlt":null,"provider":"Hacker News","thirdPartyId":"26056588","url":"https://news.ycombinator.com/item?id=26056588","originalUrl":"https://venam.nixers.net/blog/unix/2021/02/07/audio-stack.html","imageRemote":"https://venam.nixers.net/blog/assets/audio_unix/gramophone_player.jpg","video":null,"channel":null,"channelUrl":null,"author":"zdw","authorUrl":"https://news.ycombinator.com/user?id=zdw","authorImage":null,"authorSlug":null,"score":179,"views":null,"sharedCount":null,"likeCount":null,"sharedContent":null,"parent":{"__typename":"HnJson","localize":[{"title":"在Unix上理解音频堆栈","locale":"zh"},{"title":"在Unix上理解音頻堆棧","locale":"zh-Hant"}]}},{"__typename":"SocialMediaPost","id":"HnPost-26060038","excerpt":"","slug":"/hn/26060038","title":"Do Offer a Free Plan","date":"February 08, 2021","dateISO":"2021-02-08T12:17:55.122Z","datetime":"2021-02-08 12:17","tags":["story","Hacker News"],"image":null,"imageAlt":null,"provider":"Hacker News","thirdPartyId":"26060038","url":"https://news.ycombinator.com/item?id=26060038","originalUrl":"https://www.chrisfrantz.com/how-to-kill-a-unicorn/","imageRemote":"https://www.chrisfrantz.com/wp-content/uploads/2021/01/Untitled1-1024x570.png","video":null,"channel":null,"channelUrl":null,"author":"chrisfrantz","authorUrl":"https://news.ycombinator.com/user?id=chrisfrantz","authorImage":null,"authorSlug":null,"score":270,"views":null,"sharedCount":null,"likeCount":null,"sharedContent":null,"parent":{"__typename":"HnJson","localize":[{"title":"提供免费计划","locale":"zh"},{"title":"提供免費計劃","locale":"zh-Hant"}]}},{"__typename":"SocialMediaPost","id":"HnPost-26054460","excerpt":"","slug":"/hn/26054460","title":"Performance Impact of Ad Blockers (2020)","date":"February 08, 2021","dateISO":"2021-02-08T10:49:12.482Z","datetime":"2021-02-08 10:49","tags":["story","Hacker News"],"image":null,"imageAlt":null,"provider":"Hacker News","thirdPartyId":"26054460","url":"https://news.ycombinator.com/item?id=26054460","originalUrl":"https://www.debugbear.com/blog/2020-chrome-extension-performance-report#performance-impact-of-ad-blockers","imageRemote":"https://www.debugbear.com/public/blog/2020-chrome-extension-performance-report/chrome-extension-page-cpu-time.png","video":null,"channel":null,"channelUrl":null,"author":"DyslexicAtheist","authorUrl":"https://news.ycombinator.com/user?id=DyslexicAtheist","authorImage":null,"authorSlug":null,"score":168,"views":null,"sharedCount":null,"likeCount":null,"sharedContent":null,"parent":{"__typename":"HnJson","localize":[{"title":"广告拦截器的性能影响（2020年","locale":"zh"},{"title":"廣告攔截器的性能影響（2020年","locale":"zh-Hant"}]}},{"__typename":"SocialMediaPost","id":"HnPost-26060517","excerpt":"","slug":"/hn/26060517","title":"South Africa suspends rollout of Oxford-AstraZeneca coronavirus vaccine","date":"February 08, 2021","dateISO":"2021-02-08T09:42:18.808Z","datetime":"2021-02-08 09:42","tags":["story","Hacker News"],"image":null,"imageAlt":null,"provider":"Hacker News","thirdPartyId":"26060517","url":"https://news.ycombinator.com/item?id=26060517","originalUrl":"https://www.dw.com/en/south-africa-suspends-rollout-of-oxford-astrazeneca-coronavirus-vaccine/a-56491411","imageRemote":"https://static.dw.com/image/56491366_6.jpg","video":null,"channel":null,"channelUrl":null,"author":"samizdis","authorUrl":"https://news.ycombinator.com/user?id=samizdis","authorImage":null,"authorSlug":null,"score":293,"views":null,"sharedCount":null,"likeCount":null,"sharedContent":null,"parent":{"__typename":"HnJson","localize":[{"title":"南非暂停推广牛津-阿斯利康冠状病毒疫苗。","locale":"zh"},{"title":"南非暫停推廣牛津-阿斯利康冠狀病毒疫苗。","locale":"zh-Hant"}]}},{"__typename":"SocialMediaPost","id":"HnPost-26061935","excerpt":"","slug":"/hn/26061935","title":"Terraria on Stadia cancelled after developer's Google account gets locked","date":"February 08, 2021","dateISO":"2021-02-08T09:13:08.241Z","datetime":"2021-02-08 09:13","tags":["story","Hacker News"],"image":null,"imageAlt":null,"provider":"Hacker News","thirdPartyId":"26061935","url":"https://news.ycombinator.com/item?id=26061935","originalUrl":"https://twitter.com/Demilogic/status/1358661842147692549","imageRemote":null,"video":null,"channel":null,"channelUrl":null,"author":"benhurmarcel","authorUrl":"https://news.ycombinator.com/user?id=benhurmarcel","authorImage":null,"authorSlug":null,"score":2013,"views":null,"sharedCount":null,"likeCount":null,"sharedContent":null,"parent":{"__typename":"HnJson","localize":[{"title":"开发者的谷歌账户被锁定后，Terraria on Stadia被取消了。","locale":"zh"},{"title":"開發者的谷歌賬戶被鎖定後，Terraria on Stadia被取消了。","locale":"zh-Hant"}]}},{"__typename":"SocialMediaPost","id":"HnPost-26060839","excerpt":"","slug":"/hn/26060839","title":"Barcode scanner app on Google Play infects 10m users with one update","date":"February 08, 2021","dateISO":"2021-02-08T07:47:32.719Z","datetime":"2021-02-08 07:47","tags":["story","Hacker News"],"image":null,"imageAlt":null,"provider":"Hacker News","thirdPartyId":"26060839","url":"https://news.ycombinator.com/item?id=26060839","originalUrl":"https://blog.malwarebytes.com/android/2021/02/barcode-scanner-app-on-google-play-infects-10-million-users-with-one-update/","imageRemote":"https://blog.malwarebytes.com/wp-content/uploads/2021/02/shutterstock_Featured_Image-scaled.jpg","video":null,"channel":null,"channelUrl":null,"author":"decrypt","authorUrl":"https://news.ycombinator.com/user?id=decrypt","authorImage":null,"authorSlug":null,"score":817,"views":null,"sharedCount":null,"likeCount":null,"sharedContent":null,"parent":{"__typename":"HnJson","localize":[{"title":"Google Play上的条码扫描器应用一次更新就感染了1000万用户。","locale":"zh"},{"title":"Google Play上的條碼掃描器應用一次更新就感染了1000萬用戶。","locale":"zh-Hant"}]}},{"__typename":"SocialMediaPost","id":"HnPost-26060748","excerpt":"","slug":"/hn/26060748","title":"If any Ubuntu maintainers are listening: PLEASE STOP DOING THIS","date":"February 08, 2021","dateISO":"2021-02-08T05:43:18.177Z","datetime":"2021-02-08 05:43","tags":["story","Hacker News"],"image":null,"imageAlt":null,"provider":"Hacker News","thirdPartyId":"26060748","url":"https://news.ycombinator.com/item?id=26060748","originalUrl":"https://github.com/ipxe/ipxe/commit/e8393c372","imageRemote":"https://repository-images.githubusercontent.com/1532184/55a35700-e08d-11ea-994b-238ea702190e","video":null,"channel":null,"channelUrl":null,"author":"zdw","authorUrl":"https://news.ycombinator.com/user?id=zdw","authorImage":null,"authorSlug":null,"score":226,"views":null,"sharedCount":null,"likeCount":null,"sharedContent":null,"parent":{"__typename":"HnJson","localize":[{"title":"如果有Ubuntu的维护者在听，请不要再这样做了。请停止这样做","locale":"zh"},{"title":"如果有Ubuntu的維護者在聽，請不要再這樣做了。請停止這樣做","locale":"zh-Hant"}]}},{"__typename":"SocialMediaPost","id":"HnPost-26060414","excerpt":"","slug":"/hn/26060414","title":"TurboTax’s 20-Year Fight to Stop Americans from Filing Their Taxes for Free","date":"February 08, 2021","dateISO":"2021-02-08T04:54:17.388Z","datetime":"2021-02-08 04:54","tags":["story","Hacker News"],"image":null,"imageAlt":null,"provider":"Hacker News","thirdPartyId":"26060414","url":"https://news.ycombinator.com/item?id=26060414","originalUrl":"https://www.propublica.org/article/inside-turbotax-20-year-fight-to-stop-americans-from-filing-their-taxes-for-free","imageRemote":"https://assets-c3.propublica.org/images/articles/_1200x630_crop_center-center_82_none/20191015-intuit-irs-1200x630.jpg?mtime=1571340579","video":null,"channel":null,"channelUrl":null,"author":"anigbrowl","authorUrl":"https://news.ycombinator.com/user?id=anigbrowl","authorImage":null,"authorSlug":null,"score":804,"views":null,"sharedCount":null,"likeCount":null,"sharedContent":null,"parent":{"__typename":"HnJson","localize":[{"title":"TurboTax为阻止美国人免费报税而进行的20年斗争。","locale":"zh"},{"title":"TurboTax爲阻止美國人免費報稅而進行的20年鬥爭。","locale":"zh-Hant"}]}},{"__typename":"SocialMediaPost","id":"HnPost-26059766","excerpt":"","slug":"/hn/26059766","title":"What happens when the NYT and New Yorker make mistakes","date":"February 08, 2021","dateISO":"2021-02-08T03:43:13.692Z","datetime":"2021-02-08 03:43","tags":["story","Hacker News"],"image":null,"imageAlt":null,"provider":"Hacker News","thirdPartyId":"26059766","url":"https://news.ycombinator.com/item?id=26059766","originalUrl":"https://savingjournalism.substack.com/p/how-newspapers-handle-corrections","imageRemote":"https://cdn.substack.com/image/fetch/w_1200,c_limit,f_jpg,q_auto:good,fl_progressive:steep/https%3A%2F%2Fbucketeer-e05bbc84-baa3-437e-9518-adb32be77984.s3.amazonaws.com%2Fpublic%2Fimages%2Fe8782904-9764-483d-9975-737ffb78d2a0_786x300.png","video":null,"channel":null,"channelUrl":null,"author":"apsec112","authorUrl":"https://news.ycombinator.com/user?id=apsec112","authorImage":null,"authorSlug":null,"score":332,"views":null,"sharedCount":null,"likeCount":null,"sharedContent":null,"parent":{"__typename":"HnJson","localize":[{"title":"当《纽约时报》和《纽约客》犯错时会发生什么？","locale":"zh"},{"title":"當《紐約時報》和《紐約客》犯錯時會發生什麼？","locale":"zh-Hant"}]}},{"__typename":"SocialMediaPost","id":"HnPost-26056052","excerpt":"","slug":"/hn/26056052","title":"Show HN: Stamp turns a folder into a plain text file and a file into a folder","date":"February 08, 2021","dateISO":"2021-02-08T03:23:01.741Z","datetime":"2021-02-08 03:23","tags":["story","Show HN","Hacker News"],"image":null,"imageAlt":null,"provider":"Hacker News","thirdPartyId":"26056052","url":"https://news.ycombinator.com/item?id=26056052","originalUrl":"https://github.com/treenotation/jtree/tree/master/langs/stamp","imageRemote":"https://avatars.githubusercontent.com/u/51207659?s=400&v=4","video":null,"channel":"Show HN","channelUrl":"https://news.ycombinator.com/show","author":"breck","authorUrl":"https://news.ycombinator.com/user?id=breck","authorImage":null,"authorSlug":null,"score":195,"views":null,"sharedCount":null,"likeCount":null,"sharedContent":null,"parent":{"__typename":"HnJson","localize":[{"title":"出示HN：印章把文件夹变成纯文本文件，把文件变成文件夹。","locale":"zh"},{"title":"出示HN：印章把文件夾變成純文本文件，把文件變成文件夾。","locale":"zh-Hant"}]}},{"__typename":"SocialMediaPost","id":"HnPost-26058312","excerpt":"","slug":"/hn/26058312","title":"Soldat: a 2D (side-view) multiplayer action game","date":"February 08, 2021","dateISO":"2021-02-08T02:43:53.790Z","datetime":"2021-02-08 02:43","tags":["story","Hacker News"],"image":null,"imageAlt":null,"provider":"Hacker News","thirdPartyId":"26058312","url":"https://news.ycombinator.com/item?id=26058312","originalUrl":"https://github.com/Soldat/soldat","imageRemote":"https://repository-images.githubusercontent.com/137280801/e6345600-0309-11ea-8a18-0c4d92efda9c","video":null,"channel":null,"channelUrl":null,"author":"albertzeyer","authorUrl":"https://news.ycombinator.com/user?id=albertzeyer","authorImage":null,"authorSlug":null,"score":409,"views":null,"sharedCount":null,"likeCount":null,"sharedContent":null,"parent":{"__typename":"HnJson","localize":[{"title":"索达：一款2D（侧视）多人动作游戏。","locale":"zh"},{"title":"索達：一款2D（側視）多人動作遊戲。","locale":"zh-Hant"}]}},{"__typename":"SocialMediaPost","id":"HnPost-26059517","excerpt":"","slug":"/hn/26059517","title":"Don't Offer a Free Plan","date":"February 08, 2021","dateISO":"2021-02-08T02:18:38.607Z","datetime":"2021-02-08 02:18","tags":["story","Hacker News"],"image":null,"imageAlt":null,"provider":"Hacker News","thirdPartyId":"26059517","url":"https://news.ycombinator.com/item?id=26059517","originalUrl":"https://nofreeplan.com","imageRemote":null,"video":null,"channel":null,"channelUrl":null,"author":"protoduction","authorUrl":"https://news.ycombinator.com/user?id=protoduction","authorImage":null,"authorSlug":null,"score":538,"views":null,"sharedCount":null,"likeCount":null,"sharedContent":null,"parent":{"__typename":"HnJson","localize":[{"title":"不要提供免费计划","locale":"zh"},{"title":"不要提供免費計劃","locale":"zh-Hant"}]}},{"__typename":"SocialMediaPost","id":"HnPost-26057155","excerpt":"","slug":"/hn/26057155","title":"An F-117 pilot and the officer who shot him down meet, 15 years later  (2013)","date":"February 07, 2021","dateISO":"2021-02-07T23:24:16.861Z","datetime":"2021-02-07 23:24","tags":["story","Hacker News"],"image":null,"imageAlt":null,"provider":"Hacker News","thirdPartyId":"26057155","url":"https://news.ycombinator.com/item?id=26057155","originalUrl":"https://www.rd.com/article/the-stranger-who-changed-my-life-my-enemy-my-friend/","imageRemote":"https://www.rd.com/wp-content/uploads/2013/10/21-DEC-tswcml-pilot-flag-pa.jpg","video":null,"channel":null,"channelUrl":null,"author":"yutyut","authorUrl":"https://news.ycombinator.com/user?id=yutyut","authorImage":null,"authorSlug":null,"score":324,"views":null,"sharedCount":null,"likeCount":null,"sharedContent":null,"parent":{"__typename":"HnJson","localize":[{"title":"一名F-117飞行员和击落他的军官在15年后见面 (2013)","locale":"zh"},{"title":"一名F-117飛行員和擊落他的軍官在15年後見面 (2013)","locale":"zh-Hant"}]}},{"__typename":"SocialMediaPost","id":"HnPost-26055440","excerpt":"","slug":"/hn/26055440","title":"Frontex Files","date":"February 07, 2021","dateISO":"2021-02-07T21:19:43.197Z","datetime":"2021-02-07 21:19","tags":["story","Hacker News"],"image":null,"imageAlt":null,"provider":"Hacker News","thirdPartyId":"26055440","url":"https://news.ycombinator.com/item?id=26055440","originalUrl":"https://frontexfiles.eu/en.html","imageRemote":"https://frontexfiles.eu/assets/images/bka.jpeg","video":null,"channel":null,"channelUrl":null,"author":"ruph123","authorUrl":"https://news.ycombinator.com/user?id=ruph123","authorImage":null,"authorSlug":null,"score":207,"views":null,"sharedCount":null,"likeCount":null,"sharedContent":null,"parent":{"__typename":"HnJson","localize":[{"title":"Frontex文件","locale":"zh"},{"title":"Frontex文件","locale":"zh-Hant"}]}},{"__typename":"SocialMediaPost","id":"HnPost-26055777","excerpt":"","slug":"/hn/26055777","title":"NRA bankruptcy lets critics peer into gun lobby’s inner workings","date":"February 07, 2021","dateISO":"2021-02-07T20:59:56.931Z","datetime":"2021-02-07 20:59","tags":["story","Hacker News"],"image":null,"imageAlt":null,"provider":"Hacker News","thirdPartyId":"26055777","url":"https://news.ycombinator.com/item?id=26055777","originalUrl":"https://www.bloombergquint.com/onweb/nra-bankruptcy-lets-critics-peer-into-gun-lobby-s-inner-workings","imageRemote":"https://gumlet.assettype.com/bloombergquint%2F2018-08%2F3a8e2237-2edb-4494-bcf2-231993fb6108%2FBLOOMBERG_LOGO.png?rect=0%2C56%2C1920%2C1008&w=1200&auto=format%2Ccompress&ogImage=true","video":null,"channel":null,"channelUrl":null,"author":"sahin","authorUrl":"https://news.ycombinator.com/user?id=sahin","authorImage":null,"authorSlug":null,"score":179,"views":null,"sharedCount":null,"likeCount":null,"sharedContent":null,"parent":{"__typename":"HnJson","localize":[{"title":"NRA破产让批评者窥视枪支游说团体的内部运作。","locale":"zh"},{"title":"NRA破產讓批評者窺視槍支遊說團體的內部運作。","locale":"zh-Hant"}]}}]}},"pageContext":{"basePath":"/","pageType":"tag","tag":"Hacker News","tagsFilter":{"id":{"glob":"!*Post-1"}},"filter":{"id":{"glob":"!*Post-1"},"tags":{"eq":"Hacker News"}},"limit":25,"skip":825,"total":2407,"totalPages":97,"currentPage":34,"maxWidth":1024,"maxHeight":512,"locale":"zh-Hant","hrefLang":"zh-Hant","originalPath":"/tags/hacker-news/page/34","dateFormat":"YYYY-MM-DD"}},"staticQueryHashes":["1239077767","2506312863","2744905544","3025052997","3493603132","3493603132","3513215887","386998304"]}