{"componentChunkName":"component---gatsby-theme-buzzing-src-gatsby-theme-timeline-templates-posts-query-js","path":"/en/tags/story/page/3","result":{"data":{"site":{"siteMetadata":{"title":"Reddit 热门","description":"用中文浏览Reddit热门内容","social":[{"name":"Twitter","url":"https://twitter.com/gatsbyjs","external":null,"prefetch":null},{"name":"GitHub","url":"https://github.com/gatsbyjs","external":null,"prefetch":null}],"menuLinks":[],"localize":[{"locale":"en","title":"Buzzing on Reddit","description":"See what's buzzing on Reddit in your native language","social":[{"name":"Reddit","url":"https://www.reddit.com/","external":true,"prefetch":null}],"menuLinks":[{"name":"Weekly Selection","url":"/issues","external":null,"prefetch":null},{"name":"RSS","url":"/rss.xml","external":null,"prefetch":false}]},{"locale":"zh-Hant","title":"Reddit 熱門","description":"用中文瀏覽Reddit熱門內容","social":null,"menuLinks":null}]}},"tagsGroup":{"group":[{"fieldValue":"ASK HN","totalCount":23},{"fieldValue":"Bitcoin","totalCount":3},{"fieldValue":"Hacker News","totalCount":974},{"fieldValue":"Poll","totalCount":1},{"fieldValue":"Show HN","totalCount":35},{"fieldValue":"investing","totalCount":209},{"fieldValue":"poll","totalCount":1},{"fieldValue":"reddit","totalCount":891},{"fieldValue":"science","totalCount":1},{"fieldValue":"stocks","totalCount":370},{"fieldValue":"story","totalCount":973},{"fieldValue":"tweet","totalCount":285},{"fieldValue":"wallstreetbets","totalCount":312}]},"allBlogPost":{"nodes":[{"__typename":"SocialMediaPost","id":"HnPost-25785191","excerpt":"","slug":"/hn/25785191","title":"Political Detox Week – No politics on HN for one week (2016)","date":"January 15, 2021","dateISO":"2021-01-15T08:02:41.622Z","datetime":"2021-01-15 08:02","tags":["story","Hacker News"],"image":null,"imageAlt":null,"provider":"Hacker News","thirdPartyId":"25785191","url":"https://news.ycombinator.com/item?id=25785191","originalUrl":"https://news.ycombinator.com/item?id=13108404","imageRemote":"https://news.ycombinator.com/y18.gif","video":null,"channel":null,"channelUrl":null,"author":"notional","authorUrl":"https://news.ycombinator.com/user?id=notional","authorImage":null,"authorSlug":null,"score":201,"views":null,"sharedCount":null,"likeCount":null,"sharedContent":null,"parent":{"__typename":"HnJson","localize":[{"title":"政治排毒周--HN一周不讲政治（2016年","locale":"zh"},{"title":"政治排毒周--HN一週不講政治（2016年","locale":"zh-Hant"}]}},{"__typename":"SocialMediaPost","id":"HnPost-25777580","excerpt":"","slug":"/hn/25777580","title":"A Week with Plan 9","date":"January 15, 2021","dateISO":"2021-01-15T03:31:07.189Z","datetime":"2021-01-15 03:31","tags":["story","Hacker News"],"image":null,"imageAlt":null,"provider":"Hacker News","thirdPartyId":"25777580","url":"https://news.ycombinator.com/item?id=25777580","originalUrl":"https://thedorkweb.substack.com/p/a-week-with-plan-9","imageRemote":"https://cdn.substack.com/image/fetch/h_600,c_limit,f_auto,q_auto:good,fl_progressive:steep/https%3A%2F%2Fbucketeer-e05bbc84-baa3-437e-9518-adb32be77984.s3.amazonaws.com%2Fpublic%2Fimages%2F0c171bf8-c87f-4442-a890-647ce49c3576_1424x720.png","video":null,"channel":null,"channelUrl":null,"author":"simonpure","authorUrl":"https://news.ycombinator.com/user?id=simonpure","authorImage":null,"authorSlug":null,"score":216,"views":null,"sharedCount":null,"likeCount":null,"sharedContent":null,"parent":{"__typename":"HnJson","localize":[{"title":"计划9的一周","locale":"zh"},{"title":"計劃9的一週","locale":"zh-Hant"}]}},{"__typename":"SocialMediaPost","id":"HnPost-25783017","excerpt":"","slug":"/hn/25783017","title":"Open Letter from Laura Poitras","date":"January 15, 2021","dateISO":"2021-01-15T03:31:07.189Z","datetime":"2021-01-15 03:31","tags":["story","Hacker News"],"image":null,"imageAlt":null,"provider":"Hacker News","thirdPartyId":"25783017","url":"https://news.ycombinator.com/item?id=25783017","originalUrl":"https://www.praxisfilms.org/open-letter-from-laura-poitras/","imageRemote":null,"video":null,"channel":null,"channelUrl":null,"author":"jashkenas","authorUrl":"https://news.ycombinator.com/user?id=jashkenas","authorImage":null,"authorSlug":null,"score":238,"views":null,"sharedCount":null,"likeCount":null,"sharedContent":null,"parent":{"__typename":"HnJson","localize":[{"title":"Laura Poitras的公开信","locale":"zh"},{"title":"Laura Poitras的公開信","locale":"zh-Hant"}]}},{"__typename":"SocialMediaPost","id":"HnPost-25782861","excerpt":"","slug":"/hn/25782861","title":"Aquafaba","date":"January 14, 2021","dateISO":"2021-01-14T23:53:00.129Z","datetime":"2021-01-14 23:53","tags":["story","Hacker News"],"image":null,"imageAlt":null,"provider":"Hacker News","thirdPartyId":"25782861","url":"https://news.ycombinator.com/item?id=25782861","originalUrl":"http://aquafaba.com/index.html","imageRemote":"http://aquafaba.com/aquafaba.jpg","video":null,"channel":null,"channelUrl":null,"author":"david-given","authorUrl":"https://news.ycombinator.com/user?id=david-given","authorImage":null,"authorSlug":null,"score":503,"views":null,"sharedCount":null,"likeCount":null,"sharedContent":null,"parent":{"__typename":"HnJson","localize":[{"title":"Aquafaba","locale":"zh"},{"title":"Aquafaba","locale":"zh-Hant"}]}},{"__typename":"SocialMediaPost","id":"HnPost-25780013","excerpt":"","slug":"/hn/25780013","title":"Testosterone levels show steady decrease among young US men","date":"January 14, 2021","dateISO":"2021-01-14T22:10:04.322Z","datetime":"2021-01-14 22:10","tags":["story","Hacker News"],"image":null,"imageAlt":null,"provider":"Hacker News","thirdPartyId":"25780013","url":"https://news.ycombinator.com/item?id=25780013","originalUrl":"https://www.urologytimes.com/view/testosterone-levels-show-steady-decrease-among-young-us-men","imageRemote":"https://cdn.sanity.io/images/0vv8moc6/urologytimes/dab769cef030100153165fd49ba29743ed8a1d3b-1000x667.jpg?auto=format","video":null,"channel":null,"channelUrl":null,"author":"rasengan","authorUrl":"https://news.ycombinator.com/user?id=rasengan","authorImage":null,"authorSlug":null,"score":469,"views":null,"sharedCount":null,"likeCount":null,"sharedContent":null,"parent":{"__typename":"HnJson","localize":[{"title":"美国年轻男性睾丸激素水平呈现稳步下降趋势","locale":"zh"},{"title":"美國年輕男性睾丸激素水平呈現穩步下降趨勢","locale":"zh-Hant"}]}},{"__typename":"SocialMediaPost","id":"HnPost-25775786","excerpt":"","slug":"/hn/25775786","title":"Dungeon Magazine","date":"January 14, 2021","dateISO":"2021-01-14T20:17:40.056Z","datetime":"2021-01-14 20:17","tags":["story","Hacker News"],"image":null,"imageAlt":null,"provider":"Hacker News","thirdPartyId":"25775786","url":"https://news.ycombinator.com/item?id=25775786","originalUrl":"https://archive.org/details/dungeonmagazine?sort=titleSorter","imageRemote":"https://ia800206.us.archive.org/2/items/dungeonmagazine/dungeonmagazine_itemimage.jpg","video":null,"channel":null,"channelUrl":null,"author":"kleiba","authorUrl":"https://news.ycombinator.com/user?id=kleiba","authorImage":null,"authorSlug":null,"score":297,"views":null,"sharedCount":null,"likeCount":null,"sharedContent":null,"parent":{"__typename":"HnJson","localize":[{"title":"地下城杂志","locale":"zh"},{"title":"地下城雜誌","locale":"zh-Hant"}]}},{"__typename":"SocialMediaPost","id":"HnPost-25779367","excerpt":"","slug":"/hn/25779367","title":"Twitter shuts down account of Sci-Hub","date":"January 14, 2021","dateISO":"2021-01-14T20:17:40.056Z","datetime":"2021-01-14 20:17","tags":["story","Hacker News"],"image":null,"imageAlt":null,"provider":"Hacker News","thirdPartyId":"25779367","url":"https://news.ycombinator.com/item?id=25779367","originalUrl":"https://www.sciencemag.org/news/2021/01/twitter-shuts-down-account-sci-hub-pirated-papers-website","imageRemote":"https://www.sciencemag.org/sites/default/files/styles/article_main_large/public/twitter_1280p.jpg?itok=L2fnZPhJ","video":null,"channel":null,"channelUrl":null,"author":"amrrs","authorUrl":"https://news.ycombinator.com/user?id=amrrs","authorImage":null,"authorSlug":null,"score":510,"views":null,"sharedCount":null,"likeCount":null,"sharedContent":null,"parent":{"__typename":"HnJson","localize":[{"title":"Twitter关闭了Sci-Hub的账户","locale":"zh"},{"title":"Twitter關閉了Sci-Hub的賬戶","locale":"zh-Hant"}]}},{"__typename":"SocialMediaPost","id":"HnPost-25780334","excerpt":"","slug":"/hn/25780334","title":"U.S. insurrectionists received $500k in bitcoins from French donor","date":"January 14, 2021","dateISO":"2021-01-14T20:17:40.056Z","datetime":"2021-01-14 20:17","tags":["story","Hacker News"],"image":null,"imageAlt":null,"provider":"Hacker News","thirdPartyId":"25780334","url":"https://news.ycombinator.com/item?id=25780334","originalUrl":"https://blog.chainalysis.com/reports/capitol-riot-bitcoin-donation-alt-right-domestic-extremism","imageRemote":"https://assets.website-files.com/5a95e929b010650001bae4c6/60006d956c193058eee27988_capitol%20riot%202-min.jpg","video":null,"channel":null,"channelUrl":null,"author":"jeffbee","authorUrl":"https://news.ycombinator.com/user?id=jeffbee","authorImage":null,"authorSlug":null,"score":246,"views":null,"sharedCount":null,"likeCount":null,"sharedContent":null,"parent":{"__typename":"HnJson","localize":[{"title":"美国叛乱分子从法国捐助者那里获得50万美元的比特币。","locale":"zh"},{"title":"美國叛亂分子從法國捐助者那裏獲得50萬美元的比特幣。","locale":"zh-Hant"}]}},{"__typename":"SocialMediaPost","id":"HnPost-25773109","excerpt":"","slug":"/hn/25773109","title":"Can Apple's M1 help you train models faster and cheaper than Nvidia's V100?","date":"January 14, 2021","dateISO":"2021-01-14T19:36:03.482Z","datetime":"2021-01-14 19:36","tags":["story","Hacker News"],"image":null,"imageAlt":null,"provider":"Hacker News","thirdPartyId":"25773109","url":"https://news.ycombinator.com/item?id=25773109","originalUrl":"https://wandb.ai/vanpelt/m1-benchmark/reports/Can-Apple-s-M1-help-you-train-models-faster-cheaper-than-NVIDIA-s-V100---VmlldzozNTkyMzg","imageRemote":"https://wandb.ai/logo.png","video":null,"channel":null,"channelUrl":null,"author":"briggers","authorUrl":"https://news.ycombinator.com/user?id=briggers","authorImage":null,"authorSlug":null,"score":222,"views":null,"sharedCount":null,"likeCount":null,"sharedContent":null,"parent":{"__typename":"HnJson","localize":[{"title":"苹果的M1能帮你比Nvidia的V100更快更便宜地训练模型吗？","locale":"zh"},{"title":"蘋果的M1能幫你比Nvidia的V100更快更便宜地訓練模型嗎？","locale":"zh-Hant"}]}},{"__typename":"SocialMediaPost","id":"HnPost-25778088","excerpt":"","slug":"/hn/25778088","title":"Wine 6.0","date":"January 14, 2021","dateISO":"2021-01-14T19:36:03.482Z","datetime":"2021-01-14 19:36","tags":["story","Hacker News"],"image":null,"imageAlt":null,"provider":"Hacker News","thirdPartyId":"25778088","url":"https://news.ycombinator.com/item?id=25778088","originalUrl":"https://source.winehq.org/git/wine.git/blob/wine-6.0:/ANNOUNCE","imageRemote":"https://source.winehq.org/git/git-logo.png","video":null,"channel":null,"channelUrl":null,"author":"coldpie","authorUrl":"https://news.ycombinator.com/user?id=coldpie","authorImage":null,"authorSlug":null,"score":416,"views":null,"sharedCount":null,"likeCount":null,"sharedContent":null,"parent":{"__typename":"HnJson","localize":[{"title":"葡萄酒6.0","locale":"zh"},{"title":"葡萄酒6.0","locale":"zh-Hant"}]}},{"__typename":"SocialMediaPost","id":"HnPost-25779681","excerpt":"","slug":"/hn/25779681","title":"Bill and Melinda Gates revealed as largest private farmland owners in US","date":"January 14, 2021","dateISO":"2021-01-14T19:36:03.482Z","datetime":"2021-01-14 19:36","tags":["story","Hacker News"],"image":null,"imageAlt":null,"provider":"Hacker News","thirdPartyId":"25779681","url":"https://news.ycombinator.com/item?id=25779681","originalUrl":"https://landreport.com/2021/01/bill-gates-americas-top-farmland-owner/","imageRemote":"https://landreport.com/wp-content/uploads/2021/01/Gates_lg.jpg","video":null,"channel":null,"channelUrl":null,"author":"jelliclesfarm","authorUrl":"https://news.ycombinator.com/user?id=jelliclesfarm","authorImage":null,"authorSlug":null,"score":525,"views":null,"sharedCount":null,"likeCount":null,"sharedContent":null,"parent":{"__typename":"HnJson","localize":[{"title":"比尔和梅琳达-盖茨被曝为美国最大私人农田所有者","locale":"zh"},{"title":"比爾和梅琳達-蓋茨被曝爲美國最大私人農田所有者","locale":"zh-Hant"}]}},{"__typename":"SocialMediaPost","id":"HnPost-25778135","excerpt":"","slug":"/hn/25778135","title":"'Rent-a-person who does nothing' in Tokyo receives endless requests, gratitude","date":"January 14, 2021","dateISO":"2021-01-14T18:36:30.013Z","datetime":"2021-01-14 18:36","tags":["story","Hacker News"],"image":null,"imageAlt":null,"provider":"Hacker News","thirdPartyId":"25778135","url":"https://news.ycombinator.com/item?id=25778135","originalUrl":"https://mainichi.jp/english/articles/20210111/p2a/00m/0dm/016000c","imageRemote":"https://cdn.mainichi.jp/vol1/2021/01/11/20210111p2a00m0dm015000p/0c10.jpg?2","video":null,"channel":null,"channelUrl":null,"author":"gmays","authorUrl":"https://news.ycombinator.com/user?id=gmays","authorImage":null,"authorSlug":null,"score":478,"views":null,"sharedCount":null,"likeCount":null,"sharedContent":null,"parent":{"__typename":"HnJson","localize":[{"title":"东京的 \"无所事事的出租人 \"收到了无尽的请求和感谢。","locale":"zh"},{"title":"東京的 \"無所事事的出租人 \"收到了無盡的請求和感謝。","locale":"zh-Hant"}]}},{"__typename":"SocialMediaPost","id":"HnPost-25779323","excerpt":"","slug":"/hn/25779323","title":"DuckDuckGo Reaches 100M Daily Search Queries","date":"January 14, 2021","dateISO":"2021-01-14T18:36:30.013Z","datetime":"2021-01-14 18:36","tags":["story","Hacker News"],"image":null,"imageAlt":null,"provider":"Hacker News","thirdPartyId":"25779323","url":"https://news.ycombinator.com/item?id=25779323","originalUrl":"https://duckduckgo.com/traffic?lang=en","imageRemote":"https://duckduckgo.com/assets/logo_social-media.png","video":null,"channel":null,"channelUrl":null,"author":"Aaronmacaron","authorUrl":"https://news.ycombinator.com/user?id=Aaronmacaron","authorImage":null,"authorSlug":null,"score":415,"views":null,"sharedCount":null,"likeCount":null,"sharedContent":null,"parent":{"__typename":"HnJson","localize":[{"title":"鸭子围棋日搜索量达到1亿次。","locale":"zh"},{"title":"鴨子圍棋日搜索量達到1億次。","locale":"zh-Hant"}]}},{"__typename":"SocialMediaPost","id":"HnPost-25776525","excerpt":"","slug":"/hn/25776525","title":"10 years-ish of Elixir","date":"January 14, 2021","dateISO":"2021-01-14T17:19:51.946Z","datetime":"2021-01-14 17:19","tags":["story","Hacker News"],"image":null,"imageAlt":null,"provider":"Hacker News","thirdPartyId":"25776525","url":"https://news.ycombinator.com/item?id=25776525","originalUrl":"https://dashbit.co/blog/ten-years-ish-of-elixir","imageRemote":"https://dashbit.co/images/logo-166c057038a97186c76e9f48807c096e.png?vsn=d","video":null,"channel":null,"channelUrl":null,"author":"1_player","authorUrl":"https://news.ycombinator.com/user?id=1_player","authorImage":null,"authorSlug":null,"score":394,"views":null,"sharedCount":null,"likeCount":null,"sharedContent":null,"parent":{"__typename":"HnJson","localize":[{"title":"Etwa 10 Jahre Elixier","locale":"zh"},{"title":"Etwa 10 Jahre Elixier","locale":"zh-Hant"}]}},{"__typename":"SocialMediaPost","id":"HnPost-25776590","excerpt":"","slug":"/hn/25776590","title":"Facebook Has Been Showing Military Gear Ads Next to “Insurrection” Posts","date":"January 14, 2021","dateISO":"2021-01-14T17:19:51.946Z","datetime":"2021-01-14 17:19","tags":["story","Hacker News"],"image":null,"imageAlt":null,"provider":"Hacker News","thirdPartyId":"25776590","url":"https://news.ycombinator.com/item?id=25776590","originalUrl":"https://www.buzzfeednews.com/article/ryanmac/facebook-profits-military-gear-ads-capitol-riot","imageRemote":"https://img.buzzfeed.com/buzzfeed-static/static/2021-01/14/16/campaign_images/0308066dc00f/facebook-has-been-showing-military-gear-ads-next--2-9863-1610640219-8_dblbig.jpg?resize=1200:*","video":null,"channel":null,"channelUrl":null,"author":"nojito","authorUrl":"https://news.ycombinator.com/user?id=nojito","authorImage":null,"authorSlug":null,"score":317,"views":null,"sharedCount":null,"likeCount":null,"sharedContent":null,"parent":{"__typename":"HnJson","localize":[{"title":"Facebook hat gezeigt, militärische Ausrüstung Anzeigen neben \"Aufruhr\" Beiträge","locale":"zh"},{"title":"Facebook hat gezeigt, militärische Ausrüstung Anzeigen neben \"Aufruhr\" Beiträge","locale":"zh-Hant"}]}},{"__typename":"SocialMediaPost","id":"HnPost-25777207","excerpt":"","slug":"/hn/25777207","title":"Apple reportedly dropped plan for encrypting backups after FBI complained (2020)","date":"January 14, 2021","dateISO":"2021-01-14T17:19:51.946Z","datetime":"2021-01-14 17:19","tags":["story","Hacker News"],"image":null,"imageAlt":null,"provider":"Hacker News","thirdPartyId":"25777207","url":"https://news.ycombinator.com/item?id=25777207","originalUrl":"https://www.theverge.com/2020/1/21/21075033/apple-icloud-end-to-end-encryption-scrapped-fbi-reuters-report","imageRemote":"https://cdn.vox-cdn.com/thumbor/IaZPWxbQ8dpYBCC_soci1LjCIEY=/0x146:2040x1214/fit-in/1200x630/cdn.vox-cdn.com/uploads/chorus_asset/file/8964117/acastro_170731_1777_0005_v2.jpg","video":null,"channel":null,"channelUrl":null,"author":"samename","authorUrl":"https://news.ycombinator.com/user?id=samename","authorImage":null,"authorSlug":null,"score":403,"views":null,"sharedCount":null,"likeCount":null,"sharedContent":null,"parent":{"__typename":"HnJson","localize":[{"title":"Apple lässt angeblich Plan zur Verschlüsselung von Backups nach FBI-Beschwerde fallen (2020)","locale":"zh"},{"title":"Apple lässt angeblich Plan zur Verschlüsselung von Backups nach FBI-Beschwerde fallen (2020)","locale":"zh-Hant"}]}},{"__typename":"SocialMediaPost","id":"HnPost-25775091","excerpt":"","slug":"/hn/25775091","title":"Parisian Accent in 1912","date":"January 14, 2021","dateISO":"2021-01-14T16:07:36.024Z","datetime":"2021-01-14 16:07","tags":["story","Hacker News"],"image":null,"imageAlt":null,"provider":"Hacker News","thirdPartyId":"25775091","url":"https://news.ycombinator.com/item?id=25775091","originalUrl":"https://www.franceculture.fr/sciences-du-langage/archive-exceptionnelle-ecoutez-laccent-parisien-en-1912","imageRemote":"https://cdn.radiofrance.fr/s3/cruiser-production/2021/01/cf1afa27-9792-4138-b34f-104d10688696/838_brunot_son.jpg","video":null,"channel":null,"channelUrl":null,"author":"paganel","authorUrl":"https://news.ycombinator.com/user?id=paganel","authorImage":null,"authorSlug":null,"score":297,"views":null,"sharedCount":null,"likeCount":null,"sharedContent":null,"parent":{"__typename":"HnJson","localize":[{"title":"1912年的巴黎风情","locale":"zh"},{"title":"1912年的巴黎風情","locale":"zh-Hant"}]}},{"__typename":"SocialMediaPost","id":"HnPost-25775740","excerpt":"","slug":"/hn/25775740","title":"Machine Learning: The Great Stagnation","date":"January 14, 2021","dateISO":"2021-01-14T16:07:36.024Z","datetime":"2021-01-14 16:07","tags":["story","Hacker News"],"image":null,"imageAlt":null,"provider":"Hacker News","thirdPartyId":"25775740","url":"https://news.ycombinator.com/item?id=25775740","originalUrl":"https://marksaroufim.substack.com/p/machine-learning-the-great-stagnation","imageRemote":"https://cdn.substack.com/image/fetch/h_600,c_limit,f_auto,q_auto:good,fl_progressive:steep/https%3A%2F%2Fbucketeer-e05bbc84-baa3-437e-9518-adb32be77984.s3.amazonaws.com%2Fpublic%2Fimages%2F66eac0af-f29e-4914-9223-f129bc460ac4_682x519.jpeg","video":null,"channel":null,"channelUrl":null,"author":"puttycat","authorUrl":"https://news.ycombinator.com/user?id=puttycat","authorImage":null,"authorSlug":null,"score":455,"views":null,"sharedCount":null,"likeCount":null,"sharedContent":null,"parent":{"__typename":"HnJson","localize":[{"title":"机器学习。大停滞","locale":"zh"},{"title":"機器學習。大停滯","locale":"zh-Hant"}]}},{"__typename":"SocialMediaPost","id":"HnPost-25760381","excerpt":"","slug":"/hn/25760381","title":"A rabbit hole full of Lisp","date":"January 14, 2021","dateISO":"2021-01-14T09:16:52.858Z","datetime":"2021-01-14 09:16","tags":["story","Hacker News"],"image":null,"imageAlt":null,"provider":"Hacker News","thirdPartyId":"25760381","url":"https://news.ycombinator.com/item?id=25760381","originalUrl":"https://www.murilopereira.com/a-rabbit-hole-full-of-lisp/","imageRemote":"https://www.murilopereira.com/my_project_find_file_linux_tcp.png","video":null,"channel":null,"channelUrl":null,"author":"mpereira","authorUrl":"https://news.ycombinator.com/user?id=mpereira","authorImage":null,"authorSlug":null,"score":213,"views":null,"sharedCount":null,"likeCount":null,"sharedContent":null,"parent":{"__typename":"HnJson","localize":[{"title":"一个充满Lisp的兔子洞","locale":"zh"},{"title":"一個充滿Lisp的兔子洞","locale":"zh-Hant"}]}},{"__typename":"SocialMediaPost","id":"HnPost-25766884","excerpt":"","slug":"/hn/25766884","title":"Ask HN: How to increase SWE salaries in Europe?","date":"January 14, 2021","dateISO":"2021-01-14T07:41:00.674Z","datetime":"2021-01-14 07:41","tags":["story","ASK HN","Hacker News"],"image":null,"imageAlt":null,"provider":"Hacker News","thirdPartyId":"25766884","url":"https://news.ycombinator.com/item?id=25766884","originalUrl":"https://news.ycombinator.com/item?id=25766884","imageRemote":null,"video":null,"channel":"ASK HN","channelUrl":"https://news.ycombinator.com/ask","author":"euengthrowaway","authorUrl":"https://news.ycombinator.com/user?id=euengthrowaway","authorImage":null,"authorSlug":null,"score":383,"views":null,"sharedCount":null,"likeCount":null,"sharedContent":null,"parent":{"__typename":"HnJson","localize":[{"title":"HN提问：如何提高欧洲SWE的工资？","locale":"zh"},{"title":"HN提問：如何提高歐洲SWE的工資？","locale":"zh-Hant"}]}},{"__typename":"SocialMediaPost","id":"HnPost-25760066","excerpt":"","slug":"/hn/25760066","title":"Foam: A personal knowledge management and sharing system for VSCode","date":"January 14, 2021","dateISO":"2021-01-14T06:55:12.371Z","datetime":"2021-01-14 06:55","tags":["story","Hacker News"],"image":null,"imageAlt":null,"provider":"Hacker News","thirdPartyId":"25760066","url":"https://news.ycombinator.com/item?id=25760066","originalUrl":"https://foambubble.github.io/foam/","imageRemote":"https://foambubble.github.io/foam/assets/images/foam-features-dark-mode-demo.png","video":null,"channel":null,"channelUrl":null,"author":"lelf","authorUrl":"https://news.ycombinator.com/user?id=lelf","authorImage":null,"authorSlug":null,"score":388,"views":null,"sharedCount":null,"likeCount":null,"sharedContent":null,"parent":{"__typename":"HnJson","localize":[{"title":"泡沫。VSCode个人知识管理和共享系统","locale":"zh"},{"title":"泡沫。VSCode個人知識管理和共享系統","locale":"zh-Hant"}]}},{"__typename":"SocialMediaPost","id":"HnPost-25767627","excerpt":"","slug":"/hn/25767627","title":"McDonald’s Theory on How Best to Rescue Conversations","date":"January 14, 2021","dateISO":"2021-01-14T06:55:12.371Z","datetime":"2021-01-14 06:55","tags":["story","Hacker News"],"image":null,"imageAlt":null,"provider":"Hacker News","thirdPartyId":"25767627","url":"https://news.ycombinator.com/item?id=25767627","originalUrl":"https://karthrajan.medium.com/mcdonalds-theory-on-how-best-to-rescue-conversations-e65c23ad41b9","imageRemote":"https://miro.medium.com/max/1200/1*Ss5mkm7cirn80IbWpq0HeA.jpeg","video":null,"channel":null,"channelUrl":null,"author":"omalya890","authorUrl":"https://news.ycombinator.com/user?id=omalya890","authorImage":null,"authorSlug":null,"score":297,"views":null,"sharedCount":null,"likeCount":null,"sharedContent":null,"parent":{"__typename":"HnJson","localize":[{"title":"麦当劳关于如何最好地拯救对话的理论","locale":"zh"},{"title":"麥當勞關於如何最好地拯救對話的理論","locale":"zh-Hant"}]}},{"__typename":"SocialMediaPost","id":"HnPost-25771022","excerpt":"","slug":"/hn/25771022","title":"Apple removes first-party firewall exemption in macOS 11.2 beta 2","date":"January 14, 2021","dateISO":"2021-01-14T05:02:50.394Z","datetime":"2021-01-14 05:02","tags":["story","Hacker News"],"image":null,"imageAlt":null,"provider":"Hacker News","thirdPartyId":"25771022","url":"https://news.ycombinator.com/item?id=25771022","originalUrl":"https://twitter.com/patrickwardle/status/1349488392732491776","imageRemote":null,"video":null,"channel":null,"channelUrl":null,"author":"mortenjorck","authorUrl":"https://news.ycombinator.com/user?id=mortenjorck","authorImage":null,"authorSlug":null,"score":781,"views":null,"sharedCount":null,"likeCount":null,"sharedContent":null,"parent":{"__typename":"HnJson","localize":[{"title":"苹果在macOS 11.2 beta 2中取消了第一方防火墙的豁免。","locale":"zh"},{"title":"蘋果在macOS 11.2 beta 2中取消了第一方防火牆的豁免。","locale":"zh-Hant"}]}},{"__typename":"SocialMediaPost","id":"HnPost-25769730","excerpt":"","slug":"/hn/25769730","title":"Pirate Bay Founder Thinks Parler’s Inability to Stay Online Is 'Embarrassing'","date":"January 14, 2021","dateISO":"2021-01-14T04:07:41.587Z","datetime":"2021-01-14 04:07","tags":["story","Hacker News"],"image":null,"imageAlt":null,"provider":"Hacker News","thirdPartyId":"25769730","url":"https://news.ycombinator.com/item?id=25769730","originalUrl":"https://www.vice.com/en/article/3an7pn/pirate-bay-founder-thinks-parlers-inability-to-stay-online-is-embarrassing","imageRemote":"https://video-images.vice.com/articles/5ffefc67abd6330096bfad55/lede/1610546280194-gettyimages-495014911.jpeg?image-resize-opts=Y3JvcD0xeHc6MC44NDUzMzg5ODMwNTA4NDc0eGg7Y2VudGVyLGNlbnRlciZyZXNpemU9MTIwMDoqJnJlc2l6ZT0xMjAwOio","video":null,"channel":null,"channelUrl":null,"author":"weare138","authorUrl":"https://news.ycombinator.com/user?id=weare138","authorImage":null,"authorSlug":null,"score":600,"views":null,"sharedCount":null,"likeCount":null,"sharedContent":null,"parent":{"__typename":"HnJson","localize":[{"title":"海盗湾创始人认为PARLER无法保持在线是 \"尴尬的\"。","locale":"zh"},{"title":"海盜灣創始人認爲PARLER無法保持在線是 \"尷尬的\"。","locale":"zh-Hant"}]}},{"__typename":"SocialMediaPost","id":"HnPost-25764142","excerpt":"","slug":"/hn/25764142","title":"Ask HN: How do we know Signal or Telegram don't store our data on their servers?","date":"January 14, 2021","dateISO":"2021-01-14T01:50:48.476Z","datetime":"2021-01-14 01:50","tags":["story","ASK HN","Hacker News"],"image":null,"imageAlt":null,"provider":"Hacker News","thirdPartyId":"25764142","url":"https://news.ycombinator.com/item?id=25764142","originalUrl":"https://news.ycombinator.com/item?id=25764142","imageRemote":null,"video":null,"channel":"ASK HN","channelUrl":"https://news.ycombinator.com/ask","author":"smoqadam","authorUrl":"https://news.ycombinator.com/user?id=smoqadam","authorImage":null,"authorSlug":null,"score":257,"views":null,"sharedCount":null,"likeCount":null,"sharedContent":null,"parent":{"__typename":"HnJson","localize":[{"title":"HN提问：我们怎么知道Signal或Telegram不在他们的服务器上存储我们的数据？","locale":"zh"},{"title":"HN提問：我們怎麼知道Signal或Telegram不在他們的服務器上存儲我們的數據？","locale":"zh-Hant"}]}}]}},"pageContext":{"basePath":"/","pageType":"tag","tag":"story","tagsFilter":{"id":{"glob":"!*Post-1"}},"filter":{"id":{"glob":"!*Post-1"},"tags":{"eq":"story"}},"limit":25,"skip":50,"total":973,"totalPages":39,"currentPage":3,"maxWidth":1024,"maxHeight":512,"locale":"en","hrefLang":"en-US","originalPath":"/tags/story/page/3","dateFormat":"MM/DD/YYYY"}},"staticQueryHashes":["1239077767","2506312863","2744905544","3025052997","3493603132","3493603132","3513215887","386998304"]}