{"componentChunkName":"component---gatsby-theme-buzzing-src-gatsby-theme-timeline-templates-posts-query-js","path":"/tags/story/page/24","result":{"data":{"site":{"siteMetadata":{"title":"Reddit 热门","description":"用中文浏览Reddit热门内容","social":[{"name":"Reddit","url":"https://www.reddit.com/","external":true,"prefetch":null},{"name":"GitHub","url":"https://github.com/gatsbyjs","external":null,"prefetch":null}],"menuLinks":[{"name":"每周精选","url":"/issues","external":null,"prefetch":null},{"name":"RSS","url":"/rss.xml","external":null,"prefetch":false}],"localize":[{"locale":"en","title":"Buzzing on Reddit","description":"See what's buzzing on Reddit in your native language","social":[{"name":"Reddit","url":"https://www.reddit.com/","external":true,"prefetch":null}],"menuLinks":[{"name":"Weekly Selection","url":"/issues","external":null,"prefetch":null},{"name":"RSS","url":"/rss.xml","external":null,"prefetch":false}]},{"locale":"zh-Hant","title":"Reddit 熱門","description":"用中文瀏覽Reddit熱門內容","social":null,"menuLinks":null}]}},"tagsGroup":{"group":[{"fieldValue":"ASK HN","totalCount":18},{"fieldValue":"Bitcoin","totalCount":3},{"fieldValue":"Hacker News","totalCount":797},{"fieldValue":"Poll","totalCount":1},{"fieldValue":"Show HN","totalCount":31},{"fieldValue":"investing","totalCount":166},{"fieldValue":"poll","totalCount":1},{"fieldValue":"reddit","totalCount":591},{"fieldValue":"science","totalCount":1},{"fieldValue":"stocks","totalCount":275},{"fieldValue":"story","totalCount":796},{"fieldValue":"tweet","totalCount":242},{"fieldValue":"wallstreetbets","totalCount":150}]},"allBlogPost":{"nodes":[{"__typename":"SocialMediaPost","id":"HnPost-25493692","excerpt":"","slug":"/hn/25493692","title":"GameLisp: Scripting language for Rust game development","date":"December 21, 2020","dateISO":"2020-12-21T15:20:04.039Z","datetime":"2020-12-21 15:20","tags":["story","Hacker News"],"image":null,"imageAlt":null,"provider":"Hacker News","thirdPartyId":"25493692","url":"https://news.ycombinator.com/item?id=25493692","originalUrl":"https://gamelisp.rs/","imageRemote":"https://gamelisp.rs/logo-light.png","video":null,"channel":null,"channelUrl":null,"author":"sundarurfriend","authorUrl":"https://news.ycombinator.com/user?id=sundarurfriend","authorImage":null,"authorSlug":null,"score":231,"views":null,"sharedCount":null,"likeCount":null,"sharedContent":null,"parent":{"__typename":"HnJson","localize":[{"title":"GameLisp：Rust游戏开发的脚本语言","locale":"zh"},{"title":"GameLisp：Rust遊戲開發的腳本語言","locale":"zh-Hant"}]}},{"__typename":"SocialMediaPost","id":"HnPost-25494109","excerpt":"","slug":"/hn/25494109","title":"Facebook's attempt to vilify Apple looks like sour grapes","date":"December 21, 2020","dateISO":"2020-12-21T15:20:04.039Z","datetime":"2020-12-21 15:20","tags":["story","Hacker News"],"image":null,"imageAlt":null,"provider":"Hacker News","thirdPartyId":"25494109","url":"https://news.ycombinator.com/item?id=25494109","originalUrl":"https://www.theguardian.com/technology/2020/dec/16/facebooks-attempt-to-vilify-apple-tastes-like-sour-grapes","imageRemote":"https://i.guim.co.uk/img/media/80520fdb1a7f101fd59cafa4b5de1002e10901d5/0_98_3312_1987/master/3312.jpg?width=1200&height=630&quality=85&auto=format&fit=crop&overlay-align=bottom%2Cleft&overlay-width=100p&overlay-base64=L2ltZy9zdGF0aWMvb3ZlcmxheXMvdGctZGVmYXVsdC5wbmc&enable=upscale&s=32b6e325c62661da8cd10b40ea1d5493","video":null,"channel":null,"channelUrl":null,"author":"ystad","authorUrl":"https://news.ycombinator.com/user?id=ystad","authorImage":null,"authorSlug":null,"score":323,"views":null,"sharedCount":null,"likeCount":null,"sharedContent":null,"parent":{"__typename":"HnJson","localize":[{"title":"Facebook试图诋毁苹果看起来像是酸葡萄","locale":"zh"},{"title":"Facebook試圖詆譭蘋果看起來像是酸葡萄","locale":"zh-Hant"}]}},{"__typename":"SocialMediaPost","id":"HnPost-25494205","excerpt":"","slug":"/hn/25494205","title":"“I took FSFE to court. This is my story”","date":"December 21, 2020","dateISO":"2020-12-21T15:20:04.039Z","datetime":"2020-12-21 15:20","tags":["story","Hacker News"],"image":null,"imageAlt":null,"provider":"Hacker News","thirdPartyId":"25494205","url":"https://news.ycombinator.com/item?id=25494205","originalUrl":"https://write.as/malinagalina/i-took-fsfe-to-court","imageRemote":"https://write.as/img/w-sq-light.png","video":null,"channel":null,"channelUrl":null,"author":"yannovitch","authorUrl":"https://news.ycombinator.com/user?id=yannovitch","authorImage":null,"authorSlug":null,"score":114,"views":null,"sharedCount":null,"likeCount":null,"sharedContent":null,"parent":{"__typename":"HnJson","localize":[{"title":"“我把FSFE告上了法庭。这是我的故事“","locale":"zh"},{"title":"“我把FSFE告上了法庭。這是我的故事“","locale":"zh-Hant"}]}},{"__typename":"SocialMediaPost","id":"HnPost-25492456","excerpt":"","slug":"/hn/25492456","title":"World’s biggest iceberg heads for disaster","date":"December 21, 2020","dateISO":"2020-12-21T14:56:38.143Z","datetime":"2020-12-21 14:56","tags":["story","Hacker News"],"image":null,"imageAlt":null,"provider":"Hacker News","thirdPartyId":"25492456","url":"https://news.ycombinator.com/item?id=25492456","originalUrl":"https://graphics.reuters.com/CLIMATE-CHANGE/ICEBERG/yzdvxjrbzvx/","imageRemote":"https://graphics.reuters.com/CLIMATE-CHANGE/ICEBERG/yzdvxjrbzvx/img/share-card.jpg","video":null,"channel":null,"channelUrl":null,"author":"wglb","authorUrl":"https://news.ycombinator.com/user?id=wglb","authorImage":null,"authorSlug":null,"score":120,"views":null,"sharedCount":null,"likeCount":null,"sharedContent":null,"parent":{"__typename":"HnJson","localize":[{"title":"世界上最大的冰山走向灾难","locale":"zh"},{"title":"世界上最大的冰山走向災難","locale":"zh-Hant"}]}},{"__typename":"SocialMediaPost","id":"HnPost-25486017","excerpt":"","slug":"/hn/25486017","title":"Understanding how AES encryption works","date":"December 21, 2020","dateISO":"2020-12-21T14:47:18.036Z","datetime":"2020-12-21 14:47","tags":["story","Hacker News"],"image":null,"imageAlt":null,"provider":"Hacker News","thirdPartyId":"25486017","url":"https://news.ycombinator.com/item?id=25486017","originalUrl":"https://nakabonne.dev/posts/understanding-how-aes-encryption-works/","imageRemote":"https://nakabonne.dev/img/aes-add-round-key.jpg","video":null,"channel":null,"channelUrl":null,"author":"nakabonne","authorUrl":"https://news.ycombinator.com/user?id=nakabonne","authorImage":null,"authorSlug":null,"score":129,"views":null,"sharedCount":null,"likeCount":null,"sharedContent":null,"parent":{"__typename":"HnJson","localize":[{"title":"了解AES加密的工作原理","locale":"zh"},{"title":"瞭解AES加密的工作原理","locale":"zh-Hant"}]}},{"__typename":"SocialMediaPost","id":"HnPost-25493087","excerpt":"","slug":"/hn/25493087","title":"Threema apps are Open Source","date":"December 21, 2020","dateISO":"2020-12-21T14:35:34.836Z","datetime":"2020-12-21 14:35","tags":["story","Hacker News"],"image":null,"imageAlt":null,"provider":"Hacker News","thirdPartyId":"25493087","url":"https://news.ycombinator.com/item?id=25493087","originalUrl":"https://threema.ch/en/blog/posts/open-source-discount","imageRemote":"https://threema.ch/images/logo-big.png","video":null,"channel":null,"channelUrl":null,"author":"nickexyz","authorUrl":"https://news.ycombinator.com/user?id=nickexyz","authorImage":null,"authorSlug":null,"score":157,"views":null,"sharedCount":null,"likeCount":null,"sharedContent":null,"parent":{"__typename":"HnJson","localize":[{"title":"Threema应用程序是开源的","locale":"zh"},{"title":"Threema應用程序是開源的","locale":"zh-Hant"}]}},{"__typename":"SocialMediaPost","id":"HnPost-25493646","excerpt":"","slug":"/hn/25493646","title":"Startup Stock Options – Why A Good Deal Has Gone Bad (2019)","date":"December 21, 2020","dateISO":"2020-12-21T14:35:34.836Z","datetime":"2020-12-21 14:35","tags":["story","Hacker News"],"image":null,"imageAlt":null,"provider":"Hacker News","thirdPartyId":"25493646","url":"https://news.ycombinator.com/item?id=25493646","originalUrl":"https://steveblank.com/2019/04/10/startup-stock-options-why-a-good-deal-has-gone-bad/","imageRemote":"https://steveblank.com/wp-content/uploads/2019/04/growth-appreciation.jpg","video":null,"channel":null,"channelUrl":null,"author":"simonebrunozzi","authorUrl":"https://news.ycombinator.com/user?id=simonebrunozzi","authorImage":null,"authorSlug":null,"score":361,"views":null,"sharedCount":null,"likeCount":null,"sharedContent":null,"parent":{"__typename":"HnJson","localize":[{"title":"创业公司股票期权-为什么一笔划算的交易变得糟糕(2019年)","locale":"zh"},{"title":"創業公司股票期權-爲什麼一筆劃算的交易變得糟糕(2019年)","locale":"zh-Hant"}]}},{"__typename":"SocialMediaPost","id":"HnPost-25494789","excerpt":"","slug":"/hn/25494789","title":"Ruby 3.0.0 RC1 Released","date":"December 21, 2020","dateISO":"2020-12-21T14:35:34.836Z","datetime":"2020-12-21 14:35","tags":["story","Hacker News"],"image":null,"imageAlt":null,"provider":"Hacker News","thirdPartyId":"25494789","url":"https://news.ycombinator.com/item?id=25494789","originalUrl":"https://www.ruby-lang.org/en/news/2020/12/20/ruby-3-0-0-rc1-released/","imageRemote":"https://www.ruby-lang.org/images/header-ruby-logo@2x.png","video":null,"channel":null,"channelUrl":null,"author":"chenzhekl","authorUrl":"https://news.ycombinator.com/user?id=chenzhekl","authorImage":null,"authorSlug":null,"score":326,"views":null,"sharedCount":null,"likeCount":null,"sharedContent":null,"parent":{"__typename":"HnJson","localize":[{"title":"Ruby 3.0.0 RC1发布","locale":"zh"},{"title":"Ruby 3.0.0 RC1發佈","locale":"zh-Hant"}]}},{"__typename":"SocialMediaPost","id":"HnPost-25493804","excerpt":"","slug":"/hn/25493804","title":"Nikon Is ending 70 years of camera production in Japan","date":"December 21, 2020","dateISO":"2020-12-21T13:39:04.592Z","datetime":"2020-12-21 13:39","tags":["story","Hacker News"],"image":null,"imageAlt":null,"provider":"Hacker News","thirdPartyId":"25493804","url":"https://news.ycombinator.com/item?id=25493804","originalUrl":"https://www.mirrorlessrumors.com/nikon-is-ending-70-years-of-camera-production-in-japan/","imageRemote":"https://www.mirrorlessrumors.com/wp-content/uploads/2020/12/Bildschirmfoto-2020-12-21-um-08.41.07.png","video":null,"channel":null,"channelUrl":null,"author":"giuliomagnifico","authorUrl":"https://news.ycombinator.com/user?id=giuliomagnifico","authorImage":null,"authorSlug":null,"score":607,"views":null,"sharedCount":null,"likeCount":null,"sharedContent":null,"parent":{"__typename":"HnJson","localize":[{"title":"尼康将结束在日本长达70年的相机生产","locale":"zh"},{"title":"尼康將結束在日本長達70年的相機生產","locale":"zh-Hant"}]}},{"__typename":"SocialMediaPost","id":"HnPost-25492880","excerpt":"","slug":"/hn/25492880","title":"Joining Apple 40 years ago","date":"December 21, 2020","dateISO":"2020-12-21T13:07:59.427Z","datetime":"2020-12-21 13:07","tags":["story","Hacker News"],"image":null,"imageAlt":null,"provider":"Hacker News","thirdPartyId":"25492880","url":"https://news.ycombinator.com/item?id=25492880","originalUrl":"https://mondaynote.com/joining-apple-40-years-ago-805114536a2","imageRemote":"https://miro.medium.com/max/500/1*S9WhriAn5D_hZ-qI9pPTnw.jpeg","video":null,"channel":null,"channelUrl":null,"author":"tardyp","authorUrl":"https://news.ycombinator.com/user?id=tardyp","authorImage":null,"authorSlug":null,"score":233,"views":null,"sharedCount":null,"likeCount":null,"sharedContent":null,"parent":{"__typename":"HnJson","localize":[{"title":"40年前加入苹果","locale":"zh"},{"title":"40年前加入蘋果","locale":"zh-Hant"}]}},{"__typename":"SocialMediaPost","id":"HnPost-25493553","excerpt":"","slug":"/hn/25493553","title":"$7/month wages paid to iPhone factory workers despite being hired for $100+/mo","date":"December 21, 2020","dateISO":"2020-12-21T12:42:27.713Z","datetime":"2020-12-21 12:42","tags":["story","Hacker News"],"image":null,"imageAlt":null,"provider":"Hacker News","thirdPartyId":"25493553","url":"https://news.ycombinator.com/item?id=25493553","originalUrl":"https://arstechnica.com/gadgets/2020/12/worker-protests-at-indian-iphone-factory-causes-up-to-7-million-in-damages/","imageRemote":"https://cdn.arstechnica.net/wp-content/uploads/2020/12/GettyImages-1230098368-760x380.jpg","video":null,"channel":null,"channelUrl":null,"author":"mehrdadn","authorUrl":"https://news.ycombinator.com/user?id=mehrdadn","authorImage":null,"authorSlug":null,"score":458,"views":null,"sharedCount":null,"likeCount":null,"sharedContent":null,"parent":{"__typename":"HnJson","localize":[{"title":"支付给iPhone工厂工人的工资为7美元/月，尽管受雇时的月薪为100美元以上","locale":"zh"},{"title":"支付給iPhone工廠工人的工資爲7美元/月，儘管受僱時的月薪爲100美元以上","locale":"zh-Hant"}]}},{"__typename":"SocialMediaPost","id":"HnPost-25492406","excerpt":"","slug":"/hn/25492406","title":"3D printing boats is becoming standard practice","date":"December 21, 2020","dateISO":"2020-12-21T11:46:22.308Z","datetime":"2020-12-21 11:46","tags":["story","Hacker News"],"image":null,"imageAlt":null,"provider":"Hacker News","thirdPartyId":"25492406","url":"https://news.ycombinator.com/item?id=25492406","originalUrl":"https://www.3dprintingmedia.network/3d-printing-boats-is-becoming-standard-practice/","imageRemote":"https://www.3dprintingmedia.network/wp-content/uploads/2020/12/3D-printing-boats.jpg","video":null,"channel":null,"channelUrl":null,"author":"fortran77","authorUrl":"https://news.ycombinator.com/user?id=fortran77","authorImage":null,"authorSlug":null,"score":185,"views":null,"sharedCount":null,"likeCount":null,"sharedContent":null,"parent":{"__typename":"HnJson","localize":[{"title":"3D打印船正在成为标准做法","locale":"zh"},{"title":"3D打印船正在成爲標準做法","locale":"zh-Hant"}]}},{"__typename":"SocialMediaPost","id":"HnPost-25492551","excerpt":"","slug":"/hn/25492551","title":"Bash 5.1","date":"December 21, 2020","dateISO":"2020-12-21T09:53:34.392Z","datetime":"2020-12-21 09:53","tags":["story","Hacker News"],"image":null,"imageAlt":null,"provider":"Hacker News","thirdPartyId":"25492551","url":"https://news.ycombinator.com/item?id=25492551","originalUrl":"https://lists.gnu.org/archive/html/info-gnu/2020-12/msg00003.html","imageRemote":null,"video":null,"channel":null,"channelUrl":null,"author":"aleclm","authorUrl":"https://news.ycombinator.com/user?id=aleclm","authorImage":null,"authorSlug":null,"score":198,"views":null,"sharedCount":null,"likeCount":null,"sharedContent":null,"parent":{"__typename":"HnJson","localize":[{"title":"Bash 5.1","locale":"zh"},{"title":"Bash 5.1","locale":"zh-Hant"}]}},{"__typename":"SocialMediaPost","id":"HnPost-25491568","excerpt":"","slug":"/hn/25491568","title":"Cakelisp: A Programming Language for Games","date":"December 21, 2020","dateISO":"2020-12-21T09:32:46.093Z","datetime":"2020-12-21 09:32","tags":["story","Hacker News"],"image":null,"imageAlt":null,"provider":"Hacker News","thirdPartyId":"25491568","url":"https://news.ycombinator.com/item?id=25491568","originalUrl":"https://macoy.me/blog/programming/CakelispIntro","imageRemote":null,"video":null,"channel":null,"channelUrl":null,"author":"makuto","authorUrl":"https://news.ycombinator.com/user?id=makuto","authorImage":null,"authorSlug":null,"score":178,"views":null,"sharedCount":null,"likeCount":null,"sharedContent":null,"parent":{"__typename":"HnJson","localize":[{"title":"Cakelisp：一种游戏编程语言","locale":"zh"},{"title":"Cakelisp：一種遊戲編程語言","locale":"zh-Hant"}]}},{"__typename":"SocialMediaPost","id":"HnPost-25491790","excerpt":"","slug":"/hn/25491790","title":"Unix Recovery Legend (1986)","date":"December 21, 2020","dateISO":"2020-12-21T08:32:22.500Z","datetime":"2020-12-21 08:32","tags":["story","Hacker News"],"image":null,"imageAlt":null,"provider":"Hacker News","thirdPartyId":"25491790","url":"https://news.ycombinator.com/item?id=25491790","originalUrl":"https://www.ee.ryerson.ca/~elf/hack/recovery.html","imageRemote":null,"video":null,"channel":null,"channelUrl":null,"author":"signa11","authorUrl":"https://news.ycombinator.com/user?id=signa11","authorImage":null,"authorSlug":null,"score":168,"views":null,"sharedCount":null,"likeCount":null,"sharedContent":null,"parent":{"__typename":"HnJson","localize":[{"title":"UNIX恢复传奇(1986)","locale":"zh"},{"title":"UNIX恢復傳奇(1986)","locale":"zh-Hant"}]}},{"__typename":"SocialMediaPost","id":"HnPost-25488887","excerpt":"","slug":"/hn/25488887","title":"On the Graying of Gnome","date":"December 21, 2020","dateISO":"2020-12-21T07:48:10.681Z","datetime":"2020-12-21 07:48","tags":["story","Hacker News"],"image":null,"imageAlt":null,"provider":"Hacker News","thirdPartyId":"25488887","url":"https://news.ycombinator.com/item?id=25488887","originalUrl":"https://hpjansson.org/blag/2020/12/16/on-the-graying-of-gnome/","imageRemote":"https://hpjansson.org/blag/wp-content/uploads/2020/12/gnome-authors-firstyear-year-2020.png","video":null,"channel":null,"channelUrl":null,"author":"yankcrime","authorUrl":"https://news.ycombinator.com/user?id=yankcrime","authorImage":null,"authorSlug":null,"score":138,"views":null,"sharedCount":null,"likeCount":null,"sharedContent":null,"parent":{"__typename":"HnJson","localize":[{"title":"论侏儒的灰色化","locale":"zh"},{"title":"論侏儒的灰色化","locale":"zh-Hant"}]}},{"__typename":"SocialMediaPost","id":"HnPost-25489140","excerpt":"","slug":"/hn/25489140","title":"Dozens of Al Jazeera journalists allegedly hacked using NSO Group spyware","date":"December 21, 2020","dateISO":"2020-12-21T07:02:35.707Z","datetime":"2020-12-21 07:02","tags":["story","Hacker News"],"image":null,"imageAlt":null,"provider":"Hacker News","thirdPartyId":"25489140","url":"https://news.ycombinator.com/item?id=25489140","originalUrl":"https://www.theguardian.com/media/2020/dec/20/citizen-lab-nso-dozens-of-aljazeera-journalists-allegedly-hacked-using-israeli-firm-spyware","imageRemote":"https://i.guim.co.uk/img/media/7c09b66f8c90054c2d5a8e962665572fa195c998/0_232_3500_2101/master/3500.jpg?width=1200&height=630&quality=85&auto=format&fit=crop&overlay-align=bottom%2Cleft&overlay-width=100p&overlay-base64=L2ltZy9zdGF0aWMvb3ZlcmxheXMvdGctZGVmYXVsdC5wbmc&enable=upscale&s=ea50247b22ccf51782077e6a70a3108b","video":null,"channel":null,"channelUrl":null,"author":"aleksei","authorUrl":"https://news.ycombinator.com/user?id=aleksei","authorImage":null,"authorSlug":null,"score":111,"views":null,"sharedCount":null,"likeCount":null,"sharedContent":null,"parent":{"__typename":"HnJson","localize":[{"title":"数十名半岛电视台记者涉嫌使用NSO集团间谍软件进行黑客攻击","locale":"zh"},{"title":"數十名半島電視臺記者涉嫌使用NSO集團間諜軟件進行黑客攻擊","locale":"zh-Hant"}]}},{"__typename":"SocialMediaPost","id":"HnPost-25492038","excerpt":"","slug":"/hn/25492038","title":"Paper about Herbalife-related patient death removed after legal threats","date":"December 21, 2020","dateISO":"2020-12-21T06:38:32.337Z","datetime":"2020-12-21 06:38","tags":["story","Hacker News"],"image":null,"imageAlt":null,"provider":"Hacker News","thirdPartyId":"25492038","url":"https://news.ycombinator.com/item?id=25492038","originalUrl":"https://scienceintegritydigest.com/2020/12/20/paper-about-herbalife-related-patient-death-removed-after-company-threatens-to-sue-the-journal/","imageRemote":"https://scienceintegritydigest.files.wordpress.com/2020/12/screen-shot-2020-12-20-at-2.14.35-pm.png","video":null,"channel":null,"channelUrl":null,"author":"computer23","authorUrl":"https://news.ycombinator.com/user?id=computer23","authorImage":null,"authorSlug":null,"score":444,"views":null,"sharedCount":null,"likeCount":null,"sharedContent":null,"parent":{"__typename":"HnJson","localize":[{"title":"关于康宝莱相关患者死亡的文件在受到法律威胁后被删除","locale":"zh"},{"title":"關於康寶萊相關患者死亡的文件在受到法律威脅後被刪除","locale":"zh-Hant"}]}},{"__typename":"SocialMediaPost","id":"HnPost-25485679","excerpt":"","slug":"/hn/25485679","title":"An Introduction to Lock-Free Programming","date":"December 21, 2020","dateISO":"2020-12-21T05:46:38.828Z","datetime":"2020-12-21 05:46","tags":["story","Hacker News"],"image":null,"imageAlt":null,"provider":"Hacker News","thirdPartyId":"25485679","url":"https://news.ycombinator.com/item?id=25485679","originalUrl":"https://preshing.com/20120612/an-introduction-to-lock-free-programming/","imageRemote":"https://preshing.com/images/its-lock-free.png","video":null,"channel":null,"channelUrl":null,"author":"wheresvic4","authorUrl":"https://news.ycombinator.com/user?id=wheresvic4","authorImage":null,"authorSlug":null,"score":149,"views":null,"sharedCount":null,"likeCount":null,"sharedContent":null,"parent":{"__typename":"HnJson","localize":[{"title":"无锁编程导论","locale":"zh"},{"title":"無鎖編程導論","locale":"zh-Hant"}]}},{"__typename":"SocialMediaPost","id":"HnPost-25490138","excerpt":"","slug":"/hn/25490138","title":"eBPF Is Awesome","date":"December 21, 2020","dateISO":"2020-12-21T03:56:24.970Z","datetime":"2020-12-21 03:56","tags":["story","Hacker News"],"image":null,"imageAlt":null,"provider":"Hacker News","thirdPartyId":"25490138","url":"https://news.ycombinator.com/item?id=25490138","originalUrl":"https://filipnikolovski.com/posts/ebpf/","imageRemote":"https://d33wubrfki0l68.cloudfront.net/b19abde4b1ccfe4ce140969c8bf44f39d1c2fe70/f9ed3/images/ebpf/bcc_tracing_tools_early2019.png","video":null,"channel":null,"channelUrl":null,"author":"filipn","authorUrl":"https://news.ycombinator.com/user?id=filipn","authorImage":null,"authorSlug":null,"score":268,"views":null,"sharedCount":null,"likeCount":null,"sharedContent":null,"parent":{"__typename":"HnJson","localize":[{"title":"eBPF是令人敬畏的","locale":"zh"},{"title":"eBPF是令人敬畏的","locale":"zh-Hant"}]}},{"__typename":"SocialMediaPost","id":"HnPost-25484451","excerpt":"","slug":"/hn/25484451","title":"Kivy: Cross-Platform Python Framework for UI Development","date":"December 21, 2020","dateISO":"2020-12-21T03:35:33.339Z","datetime":"2020-12-21 03:35","tags":["story","Hacker News"],"image":null,"imageAlt":null,"provider":"Hacker News","thirdPartyId":"25484451","url":"https://news.ycombinator.com/item?id=25484451","originalUrl":"https://kivy.org/","imageRemote":"http://kivy.org/logos/kivy-logo-black-256.png","video":null,"channel":null,"channelUrl":null,"author":"ve55","authorUrl":"https://news.ycombinator.com/user?id=ve55","authorImage":null,"authorSlug":null,"score":177,"views":null,"sharedCount":null,"likeCount":null,"sharedContent":null,"parent":{"__typename":"HnJson","localize":[{"title":"Kivy：跨平台的用户界面开发Python框架","locale":"zh"},{"title":"Kivy：跨平臺的用戶界面開發Python框架","locale":"zh-Hant"}]}},{"__typename":"SocialMediaPost","id":"HnPost-25489650","excerpt":"","slug":"/hn/25489650","title":"Mile-Long Wooden Xylophone Plays Bach in Japanese Forest","date":"December 21, 2020","dateISO":"2020-12-21T03:35:33.339Z","datetime":"2020-12-21 03:35","tags":["story","Hacker News"],"image":null,"imageAlt":null,"provider":"Hacker News","thirdPartyId":"25489650","url":"https://news.ycombinator.com/item?id=25489650","originalUrl":"https://dornob.com/mile-long-wooden-xylophone-plays-bach-in-japanese-forest/","imageRemote":"https://cimg1.ibsrv.net/cimg/www.dornob.com/750x421_85-1/777/Screen-Shot-2020-09-04-at-7-59-10-AM-605777.png","video":null,"channel":null,"channelUrl":null,"author":"akeck","authorUrl":"https://news.ycombinator.com/user?id=akeck","authorImage":null,"authorSlug":null,"score":299,"views":null,"sharedCount":null,"likeCount":null,"sharedContent":null,"parent":{"__typename":"HnJson","localize":[{"title":"一英里长的木质木琴在日本森林里演奏巴赫","locale":"zh"},{"title":"一英里長的木質木琴在日本森林裏演奏巴赫","locale":"zh-Hant"}]}},{"__typename":"SocialMediaPost","id":"HnPost-25484160","excerpt":"","slug":"/hn/25484160","title":"Autism and Invention Are Connected","date":"December 21, 2020","dateISO":"2020-12-21T02:14:57.853Z","datetime":"2020-12-21 02:14","tags":["story","Hacker News"],"image":null,"imageAlt":null,"provider":"Hacker News","thirdPartyId":"25484160","url":"https://news.ycombinator.com/item?id=25484160","originalUrl":"https://www.wsj.com/articles/how-autism-and-invention-are-connected-11607749260","imageRemote":"https://images.wsj.net/im-271037/social","video":null,"channel":null,"channelUrl":null,"author":"jkuria","authorUrl":"https://news.ycombinator.com/user?id=jkuria","authorImage":null,"authorSlug":null,"score":183,"views":null,"sharedCount":null,"likeCount":null,"sharedContent":null,"parent":{"__typename":"HnJson","localize":[{"title":"自闭症与发明密不可分","locale":"zh"},{"title":"自閉症與發明密不可分","locale":"zh-Hant"}]}},{"__typename":"SocialMediaPost","id":"HnPost-25484227","excerpt":"","slug":"/hn/25484227","title":"Operation Elop: The final years of Nokia’s mobile phones (2017)","date":"December 21, 2020","dateISO":"2020-12-21T02:14:57.853Z","datetime":"2020-12-21 02:14","tags":["story","Hacker News"],"image":null,"imageAlt":null,"provider":"Hacker News","thirdPartyId":"25484227","url":"https://news.ycombinator.com/item?id=25484227","originalUrl":"https://medium.com/@harrikiljander/operation-elop-6f2b043f52c5","imageRemote":"https://miro.medium.com/max/1200/1*av5Tn7-KXqzgMgdK_plTng.jpeg","video":null,"channel":null,"channelUrl":null,"author":"partingshots","authorUrl":"https://news.ycombinator.com/user?id=partingshots","authorImage":null,"authorSlug":null,"score":129,"views":null,"sharedCount":null,"likeCount":null,"sharedContent":null,"parent":{"__typename":"HnJson","localize":[{"title":"《埃洛普行动：诺基亚手机的最后几年》(2017)","locale":"zh"},{"title":"《埃洛普行動：諾基亞手機的最後幾年》(2017)","locale":"zh-Hant"}]}},{"__typename":"SocialMediaPost","id":"HnPost-25481758","excerpt":"","slug":"/hn/25481758","title":"Nature invented play long before it invented us","date":"December 21, 2020","dateISO":"2020-12-21T01:35:00.077Z","datetime":"2020-12-21 01:35","tags":["story","Hacker News"],"image":null,"imageAlt":null,"provider":"Hacker News","thirdPartyId":"25481758","url":"https://news.ycombinator.com/item?id=25481758","originalUrl":"http://nautil.us/issue/94/evolving/why-it-pays-to-play-around-rp","imageRemote":"http://static.nautil.us/16090_3ac88c103b945977e9085785158dac19.png","video":null,"channel":null,"channelUrl":null,"author":"dnetesn","authorUrl":"https://news.ycombinator.com/user?id=dnetesn","authorImage":null,"authorSlug":null,"score":171,"views":null,"sharedCount":null,"likeCount":null,"sharedContent":null,"parent":{"__typename":"HnJson","localize":[{"title":"早在大自然发明我们之前，它就已经发明了游戏。","locale":"zh"},{"title":"早在大自然發明我們之前，它就已經發明瞭遊戲。","locale":"zh-Hant"}]}}]}},"pageContext":{"basePath":"/","pageType":"tag","tag":"story","tagsFilter":{"id":{"glob":"!*Post-1"}},"filter":{"id":{"glob":"!*Post-1"},"tags":{"eq":"story"}},"limit":25,"skip":575,"total":796,"totalPages":32,"currentPage":24,"maxWidth":1024,"maxHeight":512,"locale":"zh","hrefLang":"zh-Hans","originalPath":"/tags/story/page/24","dateFormat":"YYYY-MM-DD"}},"staticQueryHashes":["1239077767","2506312863","2744905544","3493603132","3493603132","386998304","4203388852"]}