{"componentChunkName":"component---gatsby-theme-buzzing-src-gatsby-theme-timeline-templates-posts-query-js","path":"/en/tags/story/page/94","result":{"data":{"site":{"siteMetadata":{"title":"Reddit 热门","description":"用中文浏览Reddit热门内容","social":[{"name":"Twitter","url":"https://twitter.com/gatsbyjs","external":null,"prefetch":null},{"name":"GitHub","url":"https://github.com/gatsbyjs","external":null,"prefetch":null}],"menuLinks":[],"localize":[{"locale":"en","title":"Buzzing on Reddit","description":"See what's buzzing on Reddit in your native language","social":[{"name":"Reddit","url":"https://www.reddit.com/","external":true,"prefetch":null}],"menuLinks":[{"name":"Weekly Selection","url":"/issues","external":null,"prefetch":null},{"name":"RSS","url":"/rss.xml","external":null,"prefetch":false}]},{"locale":"zh-Hant","title":"Reddit 熱門","description":"用中文瀏覽Reddit熱門內容","social":null,"menuLinks":null}]}},"tagsGroup":{"group":[{"fieldValue":"ASK HN","totalCount":54},{"fieldValue":"Hacker News","totalCount":3105},{"fieldValue":"Poll","totalCount":1},{"fieldValue":"Show HN","totalCount":100},{"fieldValue":"poll","totalCount":1},{"fieldValue":"story","totalCount":3104}]},"allBlogPost":{"nodes":[{"__typename":"SocialMediaPost","id":"HnPost-25683615","excerpt":"","slug":"/hn/25683615","title":"Apple's privacy labels show WhatsApp and Facebook Messenger hunger for user data","date":"January 08, 2021","dateISO":"2021-01-08T15:39:15.889Z","datetime":"2021-01-08 15:39","tags":["story","Hacker News"],"image":null,"imageAlt":null,"provider":"Hacker News","thirdPartyId":"25683615","url":"https://news.ycombinator.com/item?id=25683615","originalUrl":"https://www.techradar.com/news/apples-privacy-labels-reveals-whatsapp-and-facebook-messengers-hunger-for-user-data","imageRemote":"https://cdn.mos.cms.futurecdn.net/TDBmksgrF4PKKnb5XxpQBU-1200-80.jpg","video":null,"channel":null,"channelUrl":null,"author":"ColinWright","authorUrl":"https://news.ycombinator.com/user?id=ColinWright","authorImage":null,"authorSlug":null,"score":489,"views":null,"sharedCount":null,"likeCount":null,"sharedContent":null,"parent":{"__typename":"HnJson","localize":[{"title":"苹果的隐私标签显示WhatsApp和Facebook Messenger对用户数据的渴求","locale":"zh"},{"title":"蘋果的隱私標籤顯示WhatsApp和Facebook Messenger對用戶數據的渴求","locale":"zh-Hant"}]}},{"__typename":"SocialMediaPost","id":"HnPost-25682785","excerpt":"","slug":"/hn/25682785","title":"Texas Instruments sent a DMCA takedown to a site archiving data sheets","date":"January 08, 2021","dateISO":"2021-01-08T14:24:38.209Z","datetime":"2021-01-08 14:24","tags":["story","Hacker News"],"image":null,"imageAlt":null,"provider":"Hacker News","thirdPartyId":"25682785","url":"https://news.ycombinator.com/item?id=25682785","originalUrl":"https://twitter.com/marcan42/status/1347403996332376065","imageRemote":null,"video":null,"channel":null,"channelUrl":null,"author":"DyslexicAtheist","authorUrl":"https://news.ycombinator.com/user?id=DyslexicAtheist","authorImage":null,"authorSlug":null,"score":353,"views":null,"sharedCount":null,"likeCount":null,"sharedContent":null,"parent":{"__typename":"HnJson","localize":[{"title":"德州仪器向存档数据表的站点发送了DMCA拆卸","locale":"zh"},{"title":"德州儀器向存檔數據表的站點發送了DMCA拆卸","locale":"zh-Hant"}]}},{"__typename":"SocialMediaPost","id":"HnPost-25671452","excerpt":"","slug":"/hn/25671452","title":"How Boston Dynamics Taught Its Robots to Dance","date":"January 08, 2021","dateISO":"2021-01-08T12:53:29.419Z","datetime":"2021-01-08 12:53","tags":["story","Hacker News"],"image":null,"imageAlt":null,"provider":"Hacker News","thirdPartyId":"25671452","url":"https://news.ycombinator.com/item?id=25671452","originalUrl":"https://spectrum.ieee.org/automaton/robotics/humanoids/how-boston-dynamics-taught-its-robots-to-dance","imageRemote":null,"video":null,"channel":null,"channelUrl":null,"author":"samizdis","authorUrl":"https://news.ycombinator.com/user?id=samizdis","authorImage":null,"authorSlug":null,"score":368,"views":null,"sharedCount":null,"likeCount":null,"sharedContent":null,"parent":{"__typename":"HnJson","localize":[{"title":"波士顿动力公司是如何教机器人跳舞的","locale":"zh"},{"title":"波士頓動力公司是如何教機器人跳舞的","locale":"zh-Hant"}]}},{"__typename":"SocialMediaPost","id":"HnPost-25654955","excerpt":"","slug":"/hn/25654955","title":"Peter Norvig's “pytudes” for Advent of Code 2020","date":"January 08, 2021","dateISO":"2021-01-08T10:13:30.153Z","datetime":"2021-01-08 10:13","tags":["story","Hacker News"],"image":null,"imageAlt":null,"provider":"Hacker News","thirdPartyId":"25654955","url":"https://news.ycombinator.com/item?id=25654955","originalUrl":"https://github.com/norvig/pytudes/blob/master/ipynb/Advent-2020.ipynb","imageRemote":"https://avatars2.githubusercontent.com/u/4370220?s=400&v=4","video":null,"channel":null,"channelUrl":null,"author":"ff7f00","authorUrl":"https://news.ycombinator.com/user?id=ff7f00","authorImage":null,"authorSlug":null,"score":306,"views":null,"sharedCount":null,"likeCount":null,"sharedContent":null,"parent":{"__typename":"HnJson","localize":[{"title":"彼得·诺维格(Peter Norvig)为代码2020的到来而作的“侏儒”","locale":"zh"},{"title":"彼得·諾維格(Peter Norvig)爲代碼2020的到來而作的“侏儒”","locale":"zh-Hant"}]}},{"__typename":"SocialMediaPost","id":"HnPost-25677272","excerpt":"","slug":"/hn/25677272","title":"Show HN: I built a 4kb alternative to React, Vue, etc for building web UIs.","date":"January 08, 2021","dateISO":"2021-01-08T07:14:36.254Z","datetime":"2021-01-08 07:14","tags":["story","Show HN","Hacker News"],"image":null,"imageAlt":null,"provider":"Hacker News","thirdPartyId":"25677272","url":"https://news.ycombinator.com/item?id=25677272","originalUrl":"https://synergyjs.org","imageRemote":null,"video":null,"channel":"Show HN","channelUrl":"https://news.ycombinator.com/show","author":"defx","authorUrl":"https://news.ycombinator.com/user?id=defx","authorImage":null,"authorSlug":null,"score":341,"views":null,"sharedCount":null,"likeCount":null,"sharedContent":null,"parent":{"__typename":"HnJson","localize":[{"title":"HN新产品：我构建了一个4KB的替代方案来构建WebUI，用于Reaction、Vue等。","locale":"zh"},{"title":"HN新產品：我構建了一個4KB的替代方案來構建WebUI，用於Reaction、Vue等。","locale":"zh-Hant"}]}},{"__typename":"SocialMediaPost","id":"HnPost-25675556","excerpt":"","slug":"/hn/25675556","title":"CVE-2021-3011: Key recovery on Google Titan Key","date":"January 08, 2021","dateISO":"2021-01-08T06:00:42.247Z","datetime":"2021-01-08 06:00","tags":["story","Hacker News"],"image":null,"imageAlt":null,"provider":"Hacker News","thirdPartyId":"25675556","url":"https://news.ycombinator.com/item?id=25675556","originalUrl":"https://ninjalab.io/a-side-journey-to-titan/","imageRemote":"https://ninjalab.io/wp-content/uploads/2021/01/Titan_Bluetooth_EM_probe.png","video":null,"channel":null,"channelUrl":null,"author":"hexa-","authorUrl":"https://news.ycombinator.com/user?id=hexa-","authorImage":null,"authorSlug":null,"score":236,"views":null,"sharedCount":null,"likeCount":null,"sharedContent":null,"parent":{"__typename":"HnJson","localize":[{"title":"CVE-2021-3011：Google Titan Key上的密钥恢复","locale":"zh"},{"title":"CVE-2021-3011：Google Titan Key上的密鑰恢復","locale":"zh-Hant"}]}},{"__typename":"SocialMediaPost","id":"HnPost-25675763","excerpt":"","slug":"/hn/25675763","title":"Apple relases open source modules of Big Sur","date":"January 08, 2021","dateISO":"2021-01-08T06:00:42.247Z","datetime":"2021-01-08 06:00","tags":["story","Hacker News"],"image":null,"imageAlt":null,"provider":"Hacker News","thirdPartyId":"25675763","url":"https://news.ycombinator.com/item?id=25675763","originalUrl":"https://opensource.apple.com/release/macos-1101.html","imageRemote":"https://opensource.apple.com/static/images/icon_downloads.png","video":null,"channel":null,"channelUrl":null,"author":"giuliomagnifico","authorUrl":"https://news.ycombinator.com/user?id=giuliomagnifico","authorImage":null,"authorSlug":null,"score":220,"views":null,"sharedCount":null,"likeCount":null,"sharedContent":null,"parent":{"__typename":"HnJson","localize":[{"title":"苹果转售Big Sur的开源模块","locale":"zh"},{"title":"蘋果轉售Big Sur的開源模塊","locale":"zh-Hant"}]}},{"__typename":"SocialMediaPost","id":"HnPost-25675249","excerpt":"","slug":"/hn/25675249","title":"Epic acquires RAD Game Tools","date":"January 08, 2021","dateISO":"2021-01-08T05:20:41.123Z","datetime":"2021-01-08 05:20","tags":["story","Hacker News"],"image":null,"imageAlt":null,"provider":"Hacker News","thirdPartyId":"25675249","url":"https://news.ycombinator.com/item?id=25675249","originalUrl":"https://www.epicgames.com/site/en-US/news/epic-acquires-rad-game-tools","imageRemote":"https://cdn2.unrealengine.com/555x500-555x500-6a965e5b97f2.png","video":null,"channel":null,"channelUrl":null,"author":"jsheard","authorUrl":"https://news.ycombinator.com/user?id=jsheard","authorImage":null,"authorSlug":null,"score":262,"views":null,"sharedCount":null,"likeCount":null,"sharedContent":null,"parent":{"__typename":"HnJson","localize":[{"title":"EPIC收购RAD游戏工具","locale":"zh"},{"title":"EPIC收購RAD遊戲工具","locale":"zh-Hant"}]}},{"__typename":"SocialMediaPost","id":"HnPost-25673495","excerpt":"","slug":"/hn/25673495","title":"My stack is HTML+CSS","date":"January 08, 2021","dateISO":"2021-01-08T04:50:45.633Z","datetime":"2021-01-08 04:50","tags":["story","Hacker News"],"image":null,"imageAlt":null,"provider":"Hacker News","thirdPartyId":"25673495","url":"https://news.ycombinator.com/item?id=25673495","originalUrl":"https://blog.steren.fr/2020/my-stack-will-outlive-yours/","imageRemote":"https://blog.steren.fr/2020/my-stack-will-outlive-yours/lighthouse-score-improve.png","video":null,"channel":null,"channelUrl":null,"author":"zdw","authorUrl":"https://news.ycombinator.com/user?id=zdw","authorImage":null,"authorSlug":null,"score":221,"views":null,"sharedCount":null,"likeCount":null,"sharedContent":null,"parent":{"__typename":"HnJson","localize":[{"title":"我的堆栈是HTML+CSS","locale":"zh"},{"title":"我的堆棧是HTML+CSS","locale":"zh-Hant"}]}},{"__typename":"SocialMediaPost","id":"HnPost-25679388","excerpt":"","slug":"/hn/25679388","title":"Sealed U.S. Court Records Exposed in SolarWinds Breach","date":"January 08, 2021","dateISO":"2021-01-08T04:50:45.633Z","datetime":"2021-01-08 04:50","tags":["story","Hacker News"],"image":null,"imageAlt":null,"provider":"Hacker News","thirdPartyId":"25679388","url":"https://news.ycombinator.com/item?id=25679388","originalUrl":"https://krebsonsecurity.com/2021/01/sealed-u-s-court-records-exposed-in-solarwinds-breach/","imageRemote":"https://krebsonsecurity.com/wp-content/uploads/2021/01/uscourts.png","video":null,"channel":null,"channelUrl":null,"author":"parsecs","authorUrl":"https://news.ycombinator.com/user?id=parsecs","authorImage":null,"authorSlug":null,"score":389,"views":null,"sharedCount":null,"likeCount":null,"sharedContent":null,"parent":{"__typename":"HnJson","localize":[{"title":"SolarWinds泄密事件曝光密封的美国法院记录","locale":"zh"},{"title":"SolarWinds泄密事件曝光密封的美國法院記錄","locale":"zh-Hant"}]}},{"__typename":"SocialMediaPost","id":"HnPost-25674134","excerpt":"","slug":"/hn/25674134","title":"Thonny: A hassle-free Python micro-IDE","date":"January 08, 2021","dateISO":"2021-01-08T02:32:32.117Z","datetime":"2021-01-08 02:32","tags":["story","Hacker News"],"image":null,"imageAlt":null,"provider":"Hacker News","thirdPartyId":"25674134","url":"https://news.ycombinator.com/item?id=25674134","originalUrl":"https://thonny.org/","imageRemote":"https://thonny.org/img/download.png","video":null,"channel":null,"channelUrl":null,"author":"nine_k","authorUrl":"https://news.ycombinator.com/user?id=nine_k","authorImage":null,"authorSlug":null,"score":311,"views":null,"sharedCount":null,"likeCount":null,"sharedContent":null,"parent":{"__typename":"HnJson","localize":[{"title":"Thonny：一种无麻烦的Python微IDE","locale":"zh"},{"title":"Thonny：一種無麻煩的Python微IDE","locale":"zh-Hant"}]}},{"__typename":"SocialMediaPost","id":"HnPost-25675787","excerpt":"","slug":"/hn/25675787","title":"A physical breach is a nightmare scenario for Capitol IT","date":"January 08, 2021","dateISO":"2021-01-08T02:32:32.117Z","datetime":"2021-01-08 02:32","tags":["story","Hacker News"],"image":null,"imageAlt":null,"provider":"Hacker News","thirdPartyId":"25675787","url":"https://news.ycombinator.com/item?id=25675787","originalUrl":"https://twitter.com/jacobian/status/1347000969435860993","imageRemote":null,"video":null,"channel":null,"channelUrl":null,"author":"rmason","authorUrl":"https://news.ycombinator.com/user?id=rmason","authorImage":null,"authorSlug":null,"score":316,"views":null,"sharedCount":null,"likeCount":null,"sharedContent":null,"parent":{"__typename":"HnJson","localize":[{"title":"物理漏洞对Capitol IT来说是一场噩梦","locale":"zh"},{"title":"物理漏洞對Capitol IT來說是一場噩夢","locale":"zh-Hant"}]}},{"__typename":"SocialMediaPost","id":"HnPost-25677556","excerpt":"","slug":"/hn/25677556","title":"DOJ fines Boeing over $2.5B, charges it with fraud conspiracy","date":"January 08, 2021","dateISO":"2021-01-08T02:32:32.117Z","datetime":"2021-01-08 02:32","tags":["story","Hacker News"],"image":null,"imageAlt":null,"provider":"Hacker News","thirdPartyId":"25677556","url":"https://news.ycombinator.com/item?id=25677556","originalUrl":"https://www.cnbc.com/2021/01/07/doj-fines-boeing-over-2point5-billion-charges-it-with-fraud-conspiracy-over-737-max-crashes.html","imageRemote":"https://image.cnbcfm.com/api/v1/image/106346772-15796283718262020-01-20t125547z_1926596068_rc2oje9pnbqv_rtrmadp_3_boeing-737max-brand.jpg?v=1610053920","video":null,"channel":null,"channelUrl":null,"author":"Lapz","authorUrl":"https://news.ycombinator.com/user?id=Lapz","authorImage":null,"authorSlug":null,"score":305,"views":null,"sharedCount":null,"likeCount":null,"sharedContent":null,"parent":{"__typename":"HnJson","localize":[{"title":"美国司法部对波音罚款超过25亿美元，指控其共谋欺诈","locale":"zh"},{"title":"美國司法部對波音罰款超過25億美元，指控其共謀欺詐","locale":"zh-Hant"}]}},{"__typename":"SocialMediaPost","id":"HnPost-25679618","excerpt":"","slug":"/hn/25679618","title":"CO2 already emitted will warm Earth beyond climate targets","date":"January 08, 2021","dateISO":"2021-01-08T02:32:32.117Z","datetime":"2021-01-08 02:32","tags":["story","Hacker News"],"image":null,"imageAlt":null,"provider":"Hacker News","thirdPartyId":"25679618","url":"https://news.ycombinator.com/item?id=25679618","originalUrl":"https://www.cbc.ca/news/technology/climate-targets-1.5861537","imageRemote":"https://i.cbc.ca/1.4922800.1543350548!/cpImage/httpImage/image.jpg_gen/derivatives/16x9_620/us-coal-s-decline.jpg","video":null,"channel":null,"channelUrl":null,"author":"colinprince","authorUrl":"https://news.ycombinator.com/user?id=colinprince","authorImage":null,"authorSlug":null,"score":341,"views":null,"sharedCount":null,"likeCount":null,"sharedContent":null,"parent":{"__typename":"HnJson","localize":[{"title":"已经排放的二氧化碳将使地球变暖，超过气候目标","locale":"zh"},{"title":"已經排放的二氧化碳將使地球變暖，超過氣候目標","locale":"zh-Hant"}]}},{"__typename":"SocialMediaPost","id":"HnPost-25677144","excerpt":"","slug":"/hn/25677144","title":"Nuclear lighthouses built by the Soviets in the Arctic [video]","date":"January 07, 2021","dateISO":"2021-01-07T23:57:37.059Z","datetime":"2021-01-07 23:57","tags":["story","Hacker News"],"image":null,"imageAlt":null,"provider":"Hacker News","thirdPartyId":"25677144","url":"https://news.ycombinator.com/item?id=25677144","originalUrl":"https://www.bbc.com/reel/video/p0931jtk/the-nuclear-lighthouses-built-by-the-soviets-in-the-arctic","imageRemote":"https://ychef.files.bbci.co.uk/1376x774/p0931lk9.jpg","video":null,"channel":null,"channelUrl":null,"author":"etimberg","authorUrl":"https://news.ycombinator.com/user?id=etimberg","authorImage":null,"authorSlug":null,"score":476,"views":null,"sharedCount":null,"likeCount":null,"sharedContent":null,"parent":{"__typename":"HnJson","localize":[{"title":"苏联在北极建造的核灯塔[视频]","locale":"zh"},{"title":"蘇聯在北極建造的核燈塔[視頻]","locale":"zh-Hant"}]}},{"__typename":"SocialMediaPost","id":"HnPost-25674964","excerpt":"","slug":"/hn/25674964","title":"Simple Bank Is Closing","date":"January 07, 2021","dateISO":"2021-01-07T23:20:11.979Z","datetime":"2021-01-07 23:20","tags":["story","Hacker News"],"image":null,"imageAlt":null,"provider":"Hacker News","thirdPartyId":"25674964","url":"https://news.ycombinator.com/item?id=25674964","originalUrl":"https://www.oregonlive.com/silicon-forest/2021/01/simple-portland-online-banker-is-shutting-down.html","imageRemote":"https://www.oregonlive.com/resizer/OPUA_JVudGNJzDChLy2PP7_CJr8=/1280x0/smart/cloudfront-us-east-1.images.arcpublishing.com/advancelocal/YTPDPPH7GRDAJFUEDDFVJTOZ2Q.jpeg","video":null,"channel":null,"channelUrl":null,"author":"roberto8647","authorUrl":"https://news.ycombinator.com/user?id=roberto8647","authorImage":null,"authorSlug":null,"score":512,"views":null,"sharedCount":null,"likeCount":null,"sharedContent":null,"parent":{"__typename":"HnJson","localize":[{"title":"简单银行正在倒闭","locale":"zh"},{"title":"簡單銀行正在倒閉","locale":"zh-Hant"}]}},{"__typename":"SocialMediaPost","id":"HnPost-25677573","excerpt":"","slug":"/hn/25677573","title":"Boeing charged with 737 Max fraud conspiracy and agrees to pay over $2.5B","date":"January 07, 2021","dateISO":"2021-01-07T22:57:36.981Z","datetime":"2021-01-07 22:57","tags":["story","Hacker News"],"image":null,"imageAlt":null,"provider":"Hacker News","thirdPartyId":"25677573","url":"https://news.ycombinator.com/item?id=25677573","originalUrl":"https://www.justice.gov/opa/pr/boeing-charged-737-max-fraud-conspiracy-and-agrees-pay-over-25-billion","imageRemote":"https://www.justice.gov/sites/all/modules/features/doj_sharing/images/doj-seal-fb.jpg","video":null,"channel":null,"channelUrl":null,"author":"edward","authorUrl":"https://news.ycombinator.com/user?id=edward","authorImage":null,"authorSlug":null,"score":407,"views":null,"sharedCount":null,"likeCount":null,"sharedContent":null,"parent":{"__typename":"HnJson","localize":[{"title":"波音被控737 MAX欺诈共谋并同意支付超过25亿美元","locale":"zh"},{"title":"波音被控737 MAX欺詐共謀並同意支付超過25億美元","locale":"zh-Hant"}]}},{"__typename":"SocialMediaPost","id":"HnPost-25673441","excerpt":"","slug":"/hn/25673441","title":"Ask HN: How would you convince your friends and family to switch from WhatsApp?","date":"January 07, 2021","dateISO":"2021-01-07T21:28:39.285Z","datetime":"2021-01-07 21:28","tags":["story","ASK HN","Hacker News"],"image":null,"imageAlt":null,"provider":"Hacker News","thirdPartyId":"25673441","url":"https://news.ycombinator.com/item?id=25673441","originalUrl":"https://news.ycombinator.com/item?id=25673441","imageRemote":null,"video":null,"channel":"ASK HN","channelUrl":"https://news.ycombinator.com/ask","author":"millibar","authorUrl":"https://news.ycombinator.com/user?id=millibar","authorImage":null,"authorSlug":null,"score":250,"views":null,"sharedCount":null,"likeCount":null,"sharedContent":null,"parent":{"__typename":"HnJson","localize":[{"title":"HN提问：你如何说服你的朋友和家人改用WhatsApp？","locale":"zh"},{"title":"HN提問：你如何說服你的朋友和家人改用WhatsApp？","locale":"zh-Hant"}]}},{"__typename":"SocialMediaPost","id":"HnPost-25673631","excerpt":"","slug":"/hn/25673631","title":"Dissecting the Apple M1 GPU, part I","date":"January 07, 2021","dateISO":"2021-01-07T20:26:50.580Z","datetime":"2021-01-07 20:26","tags":["story","Hacker News"],"image":null,"imageAlt":null,"provider":"Hacker News","thirdPartyId":"25673631","url":"https://news.ycombinator.com/item?id=25673631","originalUrl":"https://rosenzweig.io/blog/asahi-gpu-part-1.html","imageRemote":null,"video":null,"channel":null,"channelUrl":null,"author":"caution","authorUrl":"https://news.ycombinator.com/user?id=caution","authorImage":null,"authorSlug":null,"score":546,"views":null,"sharedCount":null,"likeCount":null,"sharedContent":null,"parent":{"__typename":"HnJson","localize":[{"title":"剖析Apple M1 GPU，第一部分","locale":"zh"},{"title":"剖析Apple M1 GPU，第一部分","locale":"zh-Hant"}]}},{"__typename":"SocialMediaPost","id":"HnPost-25673275","excerpt":"","slug":"/hn/25673275","title":"No Meetings, No Deadlines, No Full-Time Employees","date":"January 07, 2021","dateISO":"2021-01-07T18:57:28.731Z","datetime":"2021-01-07 18:57","tags":["story","Hacker News"],"image":null,"imageAlt":null,"provider":"Hacker News","thirdPartyId":"25673275","url":"https://news.ycombinator.com/item?id=25673275","originalUrl":"https://sahillavingia.com/work","imageRemote":"https://sahillavingia.com/gumroadians.png","video":null,"channel":null,"channelUrl":null,"author":"sahillavingia","authorUrl":"https://news.ycombinator.com/user?id=sahillavingia","authorImage":null,"authorSlug":null,"score":1326,"views":null,"sharedCount":null,"likeCount":null,"sharedContent":null,"parent":{"__typename":"HnJson","localize":[{"title":"没有会议，没有最后期限，没有全职员工","locale":"zh"},{"title":"沒有會議，沒有最後期限，沒有全職員工","locale":"zh-Hant"}]}},{"__typename":"SocialMediaPost","id":"HnPost-25666929","excerpt":"","slug":"/hn/25666929","title":"M1 Macs cannot support dual Extended displays through their Thunderbolt 3 ports","date":"January 07, 2021","dateISO":"2021-01-07T18:17:01.261Z","datetime":"2021-01-07 18:17","tags":["story","Hacker News"],"image":null,"imageAlt":null,"provider":"Hacker News","thirdPartyId":"25666929","url":"https://news.ycombinator.com/item?id=25666929","originalUrl":"https://www.caldigit.com/apple-silicon-mac-and-caldigit-dock-compatibility/","imageRemote":null,"video":null,"channel":null,"channelUrl":null,"author":"juliangamble","authorUrl":"https://news.ycombinator.com/user?id=juliangamble","authorImage":null,"authorSlug":null,"score":218,"views":null,"sharedCount":null,"likeCount":null,"sharedContent":null,"parent":{"__typename":"HnJson","localize":[{"title":"M1 Mac无法通过其十万伏特3端口支持双扩展显示器","locale":"zh"},{"title":"M1 Mac無法通過其十萬伏特3端口支持雙擴展顯示器","locale":"zh-Hant"}]}},{"__typename":"SocialMediaPost","id":"HnPost-25669840","excerpt":"","slug":"/hn/25669840","title":"Donate to Signal","date":"January 07, 2021","dateISO":"2021-01-07T18:17:01.260Z","datetime":"2021-01-07 18:17","tags":["story","Hacker News"],"image":null,"imageAlt":null,"provider":"Hacker News","thirdPartyId":"25669840","url":"https://news.ycombinator.com/item?id=25669840","originalUrl":"https://signal.org/donate/","imageRemote":"https://signal.org/assets/og/og-image-ff2096df535eee499356de64b19fa8cebb9681ab1e78cca7330e7f8b8d5ec6d5.png","video":null,"channel":null,"channelUrl":null,"author":"nanna","authorUrl":"https://news.ycombinator.com/user?id=nanna","authorImage":null,"authorSlug":null,"score":458,"views":null,"sharedCount":null,"likeCount":null,"sharedContent":null,"parent":{"__typename":"HnJson","localize":[{"title":"捐赠给Signal","locale":"zh"},{"title":"捐贈給Signal","locale":"zh-Hant"}]}},{"__typename":"SocialMediaPost","id":"HnPost-25669316","excerpt":"","slug":"/hn/25669316","title":"Traffic Simulator","date":"January 07, 2021","dateISO":"2021-01-07T17:07:06.534Z","datetime":"2021-01-07 17:07","tags":["story","Hacker News"],"image":null,"imageAlt":null,"provider":"Hacker News","thirdPartyId":"25669316","url":"https://news.ycombinator.com/item?id=25669316","originalUrl":"https://traffic-simulation.de/","imageRemote":"https://traffic-simulation.de/figs/buttonStop3_small.png","video":null,"channel":null,"channelUrl":null,"author":"eecc","authorUrl":"https://news.ycombinator.com/user?id=eecc","authorImage":null,"authorSlug":null,"score":542,"views":null,"sharedCount":null,"likeCount":null,"sharedContent":null,"parent":{"__typename":"HnJson","localize":[{"title":"交通模拟器","locale":"zh"},{"title":"交通模擬器","locale":"zh-Hant"}]}},{"__typename":"SocialMediaPost","id":"HnPost-25672461","excerpt":"","slug":"/hn/25672461","title":"Facebook Indefinitely Suspends Trump","date":"January 07, 2021","dateISO":"2021-01-07T17:07:06.534Z","datetime":"2021-01-07 17:07","tags":["story","Hacker News"],"image":null,"imageAlt":null,"provider":"Hacker News","thirdPartyId":"25672461","url":"https://news.ycombinator.com/item?id=25672461","originalUrl":"https://www.facebook.com/4/posts/10112681480907401/","imageRemote":"https://scontent-sjc3-1.xx.fbcdn.net/v/t1.0-1/s200x200/79515135_10111007623880301_5111576226921709568_o.jpg?_nc_cat=1&ccb=2&_nc_sid=bbed71&_nc_ohc=4skTL-E2FcwAX-PzxJN&_nc_ht=scontent-sjc3-1.xx&tp=7&oh=8253bce638352035d2d49ed2c1e4cd48&oe=601BDA37","video":null,"channel":null,"channelUrl":null,"author":"jaredwiener","authorUrl":"https://news.ycombinator.com/user?id=jaredwiener","authorImage":null,"authorSlug":null,"score":952,"views":null,"sharedCount":null,"likeCount":null,"sharedContent":null,"parent":{"__typename":"HnJson","localize":[{"title":"Facebook无限期暂停特朗普","locale":"zh"},{"title":"Facebook無限期暫停特朗普","locale":"zh-Hant"}]}},{"__typename":"SocialMediaPost","id":"HnPost-25667251","excerpt":"","slug":"/hn/25667251","title":"Infosec implications of the US Capitol physical breach","date":"January 07, 2021","dateISO":"2021-01-07T11:38:30.707Z","datetime":"2021-01-07 11:38","tags":["story","Hacker News"],"image":null,"imageAlt":null,"provider":"Hacker News","thirdPartyId":"25667251","url":"https://news.ycombinator.com/item?id=25667251","originalUrl":"https://twitter.com/neurovagrant/status/1346964347684179970","imageRemote":null,"video":null,"channel":null,"channelUrl":null,"author":"ytpete","authorUrl":"https://news.ycombinator.com/user?id=ytpete","authorImage":null,"authorSlug":null,"score":378,"views":null,"sharedCount":null,"likeCount":null,"sharedContent":null,"parent":{"__typename":"HnJson","localize":[{"title":"美国国会大厦物理入侵事件的信息安全含义","locale":"zh"},{"title":"美國國會大廈物理入侵事件的信息安全含義","locale":"zh-Hant"}]}}]}},"pageContext":{"basePath":"/","pageType":"tag","tag":"story","tagsFilter":{"id":{"glob":"!*Post-1"}},"filter":{"id":{"glob":"!*Post-1"},"tags":{"eq":"story"}},"limit":25,"skip":2325,"total":3104,"totalPages":125,"currentPage":94,"maxWidth":1024,"maxHeight":512,"locale":"en","hrefLang":"en-US","originalPath":"/tags/story/page/94","dateFormat":"MM/DD/YYYY"}},"staticQueryHashes":["1239077767","2506312863","2744905544","3025052997","3493603132","3493603132","3513215887","386998304"]}