{"componentChunkName":"component---gatsby-theme-buzzing-src-gatsby-theme-timeline-templates-posts-query-js","path":"/en/tags/hacker-news/page/22","result":{"data":{"site":{"siteMetadata":{"title":"Reddit 热门","description":"用中文浏览Reddit热门内容","social":[{"name":"Twitter","url":"https://twitter.com/gatsbyjs","external":null,"prefetch":null},{"name":"GitHub","url":"https://github.com/gatsbyjs","external":null,"prefetch":null}],"menuLinks":[],"localize":[{"locale":"en","title":"Buzzing on Reddit","description":"See what's buzzing on Reddit in your native language","social":[{"name":"Reddit","url":"https://www.reddit.com/","external":true,"prefetch":null}],"menuLinks":[{"name":"Weekly Selection","url":"/issues","external":null,"prefetch":null},{"name":"RSS","url":"/rss.xml","external":null,"prefetch":false}]},{"locale":"zh-Hant","title":"Reddit 熱門","description":"用中文瀏覽Reddit熱門內容","social":null,"menuLinks":null}]}},"tagsGroup":{"group":[{"fieldValue":"ASK HN","totalCount":36},{"fieldValue":"Bitcoin","totalCount":4},{"fieldValue":"Hacker News","totalCount":2185},{"fieldValue":"Poll","totalCount":1},{"fieldValue":"SaveAMC","totalCount":1},{"fieldValue":"Show HN","totalCount":76},{"fieldValue":"bitcoin","totalCount":3},{"fieldValue":"investing","totalCount":686},{"fieldValue":"poll","totalCount":1},{"fieldValue":"reddit","totalCount":4012},{"fieldValue":"science","totalCount":1},{"fieldValue":"stocks","totalCount":1322},{"fieldValue":"story","totalCount":2184},{"fieldValue":"tweet","totalCount":697},{"fieldValue":"wallstreetbets","totalCount":2004}]},"allBlogPost":{"nodes":[{"__typename":"SocialMediaPost","id":"HnPost-26097732","excerpt":"","slug":"/hn/26097732","title":"WTF Python: Exploring and understanding Python through surprising snippets","date":"February 11, 2021","dateISO":"2021-02-11T09:40:08.996Z","datetime":"2021-02-11 09:40","tags":["story","Hacker News"],"image":null,"imageAlt":null,"provider":"Hacker News","thirdPartyId":"26097732","url":"https://news.ycombinator.com/item?id=26097732","originalUrl":"https://github.com/satwikkansal/wtfpython","imageRemote":"https://avatars.githubusercontent.com/u/10217535?s=400&v=4","video":null,"channel":null,"channelUrl":null,"author":"srathi","authorUrl":"https://news.ycombinator.com/user?id=srathi","authorImage":null,"authorSlug":null,"score":345,"views":null,"sharedCount":null,"likeCount":null,"sharedContent":null,"parent":{"__typename":"HnJson","localize":[{"title":"WTF Python。通过令人惊讶的片段探索和理解Python。","locale":"zh"},{"title":"WTF Python。通過令人驚訝的片段探索和理解Python。","locale":"zh-Hant"}]}},{"__typename":"SocialMediaPost","id":"HnPost-26096320","excerpt":"","slug":"/hn/26096320","title":"Google is now telling users its apps are out of date. No updates are available","date":"February 11, 2021","dateISO":"2021-02-11T08:58:11.571Z","datetime":"2021-02-11 08:58","tags":["story","Hacker News"],"image":null,"imageAlt":null,"provider":"Hacker News","thirdPartyId":"26096320","url":"https://news.ycombinator.com/item?id=26096320","originalUrl":"https://spencerdailey.com/2021/02/10/google-itself-is-now-telling-users-their-apps-are-out-of-date-despite-no-updates-being-available/","imageRemote":"https://spencerdailey.com/wp-content/uploads/2021/02/IMG_4434.jpeg","video":null,"channel":null,"channelUrl":null,"author":"spenvo","authorUrl":"https://news.ycombinator.com/user?id=spenvo","authorImage":null,"authorSlug":null,"score":304,"views":null,"sharedCount":null,"likeCount":null,"sharedContent":null,"parent":{"__typename":"HnJson","localize":[{"title":"谷歌现在告诉用户，它的应用已经过时了。没有更新","locale":"zh"},{"title":"谷歌現在告訴用戶，它的應用已經過時了。沒有更新","locale":"zh-Hant"}]}},{"__typename":"SocialMediaPost","id":"HnPost-26098010","excerpt":"","slug":"/hn/26098010","title":"System76 Launch Configurable Keyboard with Open Source Code","date":"February 11, 2021","dateISO":"2021-02-11T07:49:43.002Z","datetime":"2021-02-11 07:49","tags":["story","Hacker News"],"image":null,"imageAlt":null,"provider":"Hacker News","thirdPartyId":"26098010","url":"https://news.ycombinator.com/item?id=26098010","originalUrl":"https://github.com/system76/launch","imageRemote":"https://avatars.githubusercontent.com/u/2448433?s=400&v=4","video":null,"channel":null,"channelUrl":null,"author":"nitinreddy88","authorUrl":"https://news.ycombinator.com/user?id=nitinreddy88","authorImage":null,"authorSlug":null,"score":512,"views":null,"sharedCount":null,"likeCount":null,"sharedContent":null,"parent":{"__typename":"HnJson","localize":[{"title":"System76推出可配置的键盘，采用开源代码。","locale":"zh"},{"title":"System76推出可配置的鍵盤，採用開源代碼。","locale":"zh-Hant"}]}},{"__typename":"SocialMediaPost","id":"HnPost-26091956","excerpt":"","slug":"/hn/26091956","title":"Launch HN: Wasp (YC W21) – DSL for building full-stack web apps","date":"February 11, 2021","dateISO":"2021-02-11T07:24:46.209Z","datetime":"2021-02-11 07:24","tags":["story","Hacker News"],"image":null,"imageAlt":null,"provider":"Hacker News","thirdPartyId":"26091956","url":"https://news.ycombinator.com/item?id=26091956","originalUrl":"https://news.ycombinator.com/item?id=26091956","imageRemote":null,"video":null,"channel":null,"channelUrl":null,"author":"matijash","authorUrl":"https://news.ycombinator.com/user?id=matijash","authorImage":null,"authorSlug":null,"score":209,"views":null,"sharedCount":null,"likeCount":null,"sharedContent":null,"parent":{"__typename":"HnJson","localize":[{"title":"发布HN：黄蜂（YC W21）--用于构建全栈网络应用的DSL。","locale":"zh"},{"title":"發佈HN：黃蜂（YC W21）--用於構建全棧網絡應用的DSL。","locale":"zh-Hant"}]}},{"__typename":"SocialMediaPost","id":"HnPost-26097013","excerpt":"","slug":"/hn/26097013","title":"Larry Flynt has died","date":"February 11, 2021","dateISO":"2021-02-11T05:55:34.137Z","datetime":"2021-02-11 05:55","tags":["story","Hacker News"],"image":null,"imageAlt":null,"provider":"Hacker News","thirdPartyId":"26097013","url":"https://news.ycombinator.com/item?id=26097013","originalUrl":"https://www.bbc.com/news/world-us-canada-56019589","imageRemote":"https://ichef.bbci.co.uk/news/1024/branded_news/8A48/production/_116900453_gettyimages-520119480.jpg","video":null,"channel":null,"channelUrl":null,"author":"SirLJ","authorUrl":"https://news.ycombinator.com/user?id=SirLJ","authorImage":null,"authorSlug":null,"score":230,"views":null,"sharedCount":null,"likeCount":null,"sharedContent":null,"parent":{"__typename":"HnJson","localize":[{"title":"拉里-弗林特去世了","locale":"zh"},{"title":"拉里-弗林特去世了","locale":"zh-Hant"}]}},{"__typename":"SocialMediaPost","id":"HnPost-26085373","excerpt":"","slug":"/hn/26085373","title":"Posix Threads Programming","date":"February 11, 2021","dateISO":"2021-02-11T05:49:22.846Z","datetime":"2021-02-11 05:49","tags":["story","Hacker News"],"image":null,"imageAlt":null,"provider":"Hacker News","thirdPartyId":"26085373","url":"https://news.ycombinator.com/item?id=26085373","originalUrl":"https://computing.llnl.gov/tutorials/pthreads/","imageRemote":"https://computing.llnl.gov/tutorials/pthreads/images/process.gif","video":null,"channel":null,"channelUrl":null,"author":"dvaun","authorUrl":"https://news.ycombinator.com/user?id=dvaun","authorImage":null,"authorSlug":null,"score":161,"views":null,"sharedCount":null,"likeCount":null,"sharedContent":null,"parent":{"__typename":"HnJson","localize":[{"title":"Posix线程编程","locale":"zh"},{"title":"Posix線程編程","locale":"zh-Hant"}]}},{"__typename":"SocialMediaPost","id":"HnPost-26087892","excerpt":"","slug":"/hn/26087892","title":"Show HN: I wrote an entire book to build a mouseless dev environment","date":"February 11, 2021","dateISO":"2021-02-11T05:49:22.846Z","datetime":"2021-02-11 05:49","tags":["story","Show HN","Hacker News"],"image":null,"imageAlt":null,"provider":"Hacker News","thirdPartyId":"26087892","url":"https://news.ycombinator.com/item?id=26087892","originalUrl":"https://themouseless.dev/","imageRemote":"https://themouseless.dev/images/book_cover_mouseless_2_300.jpg","video":null,"channel":"Show HN","channelUrl":"https://news.ycombinator.com/show","author":"thanato0s","authorUrl":"https://news.ycombinator.com/user?id=thanato0s","authorImage":null,"authorSlug":null,"score":337,"views":null,"sharedCount":null,"likeCount":null,"sharedContent":null,"parent":{"__typename":"HnJson","localize":[{"title":"显示HN：我写了整整一本书来构建一个无鼠标的开发环境。","locale":"zh"},{"title":"顯示HN：我寫了整整一本書來構建一個無鼠標的開發環境。","locale":"zh-Hant"}]}},{"__typename":"SocialMediaPost","id":"HnPost-26086056","excerpt":"","slug":"/hn/26086056","title":"Google could have killed Facebook with the flick of a switch","date":"February 11, 2021","dateISO":"2021-02-11T05:27:55.139Z","datetime":"2021-02-11 05:27","tags":["story","Hacker News"],"image":null,"imageAlt":null,"provider":"Hacker News","thirdPartyId":"26086056","url":"https://news.ycombinator.com/item?id=26086056","originalUrl":"https://shaneosullivan.wordpress.com/2020/12/02/the-story-of-how-google-could-have-killed-facebook-with-the-flick-of-a-switch/","imageRemote":"https://shaneosullivan.files.wordpress.com/2020/12/powereditor_hat.jpg","video":null,"channel":null,"channelUrl":null,"author":"msh","authorUrl":"https://news.ycombinator.com/user?id=msh","authorImage":null,"authorSlug":null,"score":185,"views":null,"sharedCount":null,"likeCount":null,"sharedContent":null,"parent":{"__typename":"HnJson","localize":[{"title":"谷歌可以通过轻轻的开关杀死Facebook","locale":"zh"},{"title":"谷歌可以通過輕輕的開關殺死Facebook","locale":"zh-Hant"}]}},{"__typename":"SocialMediaPost","id":"HnPost-26092913","excerpt":"","slug":"/hn/26092913","title":"State of Independent SaaS 2021","date":"February 11, 2021","dateISO":"2021-02-11T03:57:03.189Z","datetime":"2021-02-11 03:57","tags":["story","Hacker News"],"image":null,"imageAlt":null,"provider":"Hacker News","thirdPartyId":"26092913","url":"https://news.ycombinator.com/item?id=26092913","originalUrl":"https://microconf.com/sois-report-2021","imageRemote":"http://static1.squarespace.com/static/5d6fd1b92a7aeb00017966dd/t/6022cf5512db1911bce1eff6/1612911895180/MicroConf-2021-Report-Cover-2to1.png?format=1500w","video":null,"channel":null,"channelUrl":null,"author":"einarvollset","authorUrl":"https://news.ycombinator.com/user?id=einarvollset","authorImage":null,"authorSlug":null,"score":214,"views":null,"sharedCount":null,"likeCount":null,"sharedContent":null,"parent":{"__typename":"HnJson","localize":[{"title":"2021年独立SaaS现状","locale":"zh"},{"title":"2021年獨立SaaS現狀","locale":"zh-Hant"}]}},{"__typename":"SocialMediaPost","id":"HnPost-26093710","excerpt":"","slug":"/hn/26093710","title":"Pattern Generator – Create Seamless, Royalty-Free Patterns","date":"February 11, 2021","dateISO":"2021-02-11T03:28:54.561Z","datetime":"2021-02-11 03:28","tags":["story","Hacker News"],"image":null,"imageAlt":null,"provider":"Hacker News","thirdPartyId":"26093710","url":"https://news.ycombinator.com/item?id=26093710","originalUrl":"https://doodad.dev/pattern-generator/","imageRemote":null,"video":null,"channel":null,"channelUrl":null,"author":"nkjoep","authorUrl":"https://news.ycombinator.com/user?id=nkjoep","authorImage":null,"authorSlug":null,"score":276,"views":null,"sharedCount":null,"likeCount":null,"sharedContent":null,"parent":{"__typename":"HnJson","localize":[{"title":"图案生成器--创建无缝的、免版税的图案。","locale":"zh"},{"title":"圖案生成器--創建無縫的、免版稅的圖案。","locale":"zh-Hant"}]}},{"__typename":"SocialMediaPost","id":"HnPost-26087344","excerpt":"","slug":"/hn/26087344","title":"EPA Takes Action to Protect Scientific Integrity","date":"February 11, 2021","dateISO":"2021-02-11T02:47:06.232Z","datetime":"2021-02-11 02:47","tags":["story","Hacker News"],"image":null,"imageAlt":null,"provider":"Hacker News","thirdPartyId":"26087344","url":"https://news.ycombinator.com/item?id=26087344","originalUrl":"https://www.epa.gov/newsreleases/epa-takes-action-protect-scientific-integrity","imageRemote":"https://www.epa.gov/sites/all/themes/epa/img/epa-seal-large.png","video":null,"channel":null,"channelUrl":null,"author":"samizdis","authorUrl":"https://news.ycombinator.com/user?id=samizdis","authorImage":null,"authorSlug":null,"score":163,"views":null,"sharedCount":null,"likeCount":null,"sharedContent":null,"parent":{"__typename":"HnJson","localize":[{"title":"环保局采取行动保护科学的完整性","locale":"zh"},{"title":"環保局採取行動保護科學的完整性","locale":"zh-Hant"}]}},{"__typename":"SocialMediaPost","id":"HnPost-26095834","excerpt":"","slug":"/hn/26095834","title":"Yuzu (Nintendo Switch Emulator) Progress Report January 2021","date":"February 11, 2021","dateISO":"2021-02-11T02:30:45.020Z","datetime":"2021-02-11 02:30","tags":["story","Hacker News"],"image":null,"imageAlt":null,"provider":"Hacker News","thirdPartyId":"26095834","url":"https://news.ycombinator.com/item?id=26095834","originalUrl":"https://yuzu-emu.org/entry/yuzu-progress-report-jan-2021/","imageRemote":"https://yuzu-emu.org/entry/yuzu-progress-report-jan-2021/banner.png","video":null,"channel":null,"channelUrl":null,"author":"Parseus","authorUrl":"https://news.ycombinator.com/user?id=Parseus","authorImage":null,"authorSlug":null,"score":364,"views":null,"sharedCount":null,"likeCount":null,"sharedContent":null,"parent":{"__typename":"HnJson","localize":[{"title":"柚子（任天堂Switch模拟器）2021年1月进展报告","locale":"zh"},{"title":"柚子（任天堂Switch模擬器）2021年1月進展報告","locale":"zh-Hant"}]}},{"__typename":"SocialMediaPost","id":"HnPost-26095057","excerpt":"","slug":"/hn/26095057","title":"8-Year-Old Calls Out NPR for Lack of Dinosaur Stories","date":"February 11, 2021","dateISO":"2021-02-11T01:58:05.499Z","datetime":"2021-02-11 01:58","tags":["story","Hacker News"],"image":null,"imageAlt":null,"provider":"Hacker News","thirdPartyId":"26095057","url":"https://news.ycombinator.com/item?id=26095057","originalUrl":"https://www.npr.org/2021/02/09/965953078/8-year-old-calls-out-npr-for-lack-of-dinosaur-stories","imageRemote":"https://media.npr.org/assets/img/2021/02/09/gettyimages-1128763089_wide-70eff5765b9412003931f5bc608a7430f82f2a2d.jpg?s=1400","video":null,"channel":null,"channelUrl":null,"author":"sharkweek","authorUrl":"https://news.ycombinator.com/user?id=sharkweek","authorImage":null,"authorSlug":null,"score":413,"views":null,"sharedCount":null,"likeCount":null,"sharedContent":null,"parent":{"__typename":"HnJson","localize":[{"title":"8岁的孩子呼吁NPR缺乏恐龙的故事。","locale":"zh"},{"title":"8歲的孩子呼籲NPR缺乏恐龍的故事。","locale":"zh-Hant"}]}},{"__typename":"SocialMediaPost","id":"HnPost-26095598","excerpt":"","slug":"/hn/26095598","title":"What’s interesting about the Florida water system hack is that we heard about it","date":"February 11, 2021","dateISO":"2021-02-11T01:58:05.499Z","datetime":"2021-02-11 01:58","tags":["story","Hacker News"],"image":null,"imageAlt":null,"provider":"Hacker News","thirdPartyId":"26095598","url":"https://news.ycombinator.com/item?id=26095598","originalUrl":"https://krebsonsecurity.com/2021/02/whats-most-interesting-about-the-florida-water-system-hack-that-we-heard-about-it-at-all/","imageRemote":"https://krebsonsecurity.com/wp-content/uploads/2021/02/drinkwatersupply.jpg","video":null,"channel":null,"channelUrl":null,"author":"todsacerdoti","authorUrl":"https://news.ycombinator.com/user?id=todsacerdoti","authorImage":null,"authorSlug":null,"score":428,"views":null,"sharedCount":null,"likeCount":null,"sharedContent":null,"parent":{"__typename":"HnJson","localize":[{"title":"佛罗里达州供水系统被黑事件的有趣之处在于，我们听说过它","locale":"zh"},{"title":"佛羅里達州供水系統被黑事件的有趣之處在於，我們聽說過它","locale":"zh-Hant"}]}},{"__typename":"SocialMediaPost","id":"HnPost-26089770","excerpt":"","slug":"/hn/26089770","title":"Preparing to Issue 200M Certificates in 24 Hours","date":"February 11, 2021","dateISO":"2021-02-11T01:07:06.136Z","datetime":"2021-02-11 01:07","tags":["story","Hacker News"],"image":null,"imageAlt":null,"provider":"Hacker News","thirdPartyId":"26089770","url":"https://news.ycombinator.com/item?id=26089770","originalUrl":"https://letsencrypt.org/2021/02/10/200m-certs-24hrs.html","imageRemote":"https://letsencrypt.org/images/le-logo-twitter-noalpha.png","video":null,"channel":null,"channelUrl":null,"author":"jaas","authorUrl":"https://news.ycombinator.com/user?id=jaas","authorImage":null,"authorSlug":null,"score":210,"views":null,"sharedCount":null,"likeCount":null,"sharedContent":null,"parent":{"__typename":"HnJson","localize":[{"title":"准备在24小时内发行200M证书。","locale":"zh"},{"title":"準備在24小時內發行200M證書。","locale":"zh-Hant"}]}},{"__typename":"SocialMediaPost","id":"HnPost-26081919","excerpt":"","slug":"/hn/26081919","title":"Python behind the scenes #8: how Python integers work","date":"February 10, 2021","dateISO":"2021-02-10T22:57:13.418Z","datetime":"2021-02-10 22:57","tags":["story","Hacker News"],"image":null,"imageAlt":null,"provider":"Hacker News","thirdPartyId":"26081919","url":"https://news.ycombinator.com/item?id=26081919","originalUrl":"https://tenthousandmeters.com/blog/python-behind-the-scenes-8-how-python-integers-work/","imageRemote":"https://tenthousandmeters.com/blog/python_bts_08/mult.gif","video":null,"channel":null,"channelUrl":null,"author":"rbanffy","authorUrl":"https://news.ycombinator.com/user?id=rbanffy","authorImage":null,"authorSlug":null,"score":163,"views":null,"sharedCount":null,"likeCount":null,"sharedContent":null,"parent":{"__typename":"HnJson","localize":[{"title":"Python幕后花絮#8：Python整数是如何工作的？","locale":"zh"},{"title":"Python幕後花絮#8：Python整數是如何工作的？","locale":"zh-Hant"}]}},{"__typename":"SocialMediaPost","id":"HnPost-26094524","excerpt":"","slug":"/hn/26094524","title":"Samsung Foundry: New $17B Fab in the USA by Late 2023","date":"February 10, 2021","dateISO":"2021-02-10T22:57:13.418Z","datetime":"2021-02-10 22:57","tags":["story","Hacker News"],"image":null,"imageAlt":null,"provider":"Hacker News","thirdPartyId":"26094524","url":"https://news.ycombinator.com/item?id=26094524","originalUrl":"https://www.anandtech.com/show/16483/samsung-in-the-usa-a-17-billion-usd-fab-by-late-2023","imageRemote":"https://images.anandtech.com/doci/16483/samsung-foundry-hero_678x452.jpg","video":null,"channel":null,"channelUrl":null,"author":"manojkr","authorUrl":"https://news.ycombinator.com/user?id=manojkr","authorImage":null,"authorSlug":null,"score":617,"views":null,"sharedCount":null,"likeCount":null,"sharedContent":null,"parent":{"__typename":"HnJson","localize":[{"title":"三星代工厂。2023年底前在美国新建170亿美元的工厂","locale":"zh"},{"title":"三星代工廠。2023年底前在美國新建170億美元的工廠","locale":"zh-Hant"}]}},{"__typename":"SocialMediaPost","id":"HnPost-26085515","excerpt":"","slug":"/hn/26085515","title":"Evidence that the FBI can hack into private Signal messages on a locked iPhone","date":"February 10, 2021","dateISO":"2021-02-10T22:28:12.112Z","datetime":"2021-02-10 22:28","tags":["story","Hacker News"],"image":null,"imageAlt":null,"provider":"Hacker News","thirdPartyId":"26085515","url":"https://news.ycombinator.com/item?id=26085515","originalUrl":"https://www.forbes.com/sites/thomasbrewster/2021/02/08/can-the-fbi-can-hack-into-private-signal-messages-on-a-locked-iphone-evidence-indicates-yes/","imageRemote":"https://thumbor.forbes.com/thumbor/fit-in/1200x0/filters%3Aformat(jpg)/https%3A%2F%2Fspecials-images.forbesimg.com%2Fimageserve%2F602187aad2fe29fe86540f39%2F0x0.jpg%3FcropX1%3D0%26cropX2%3D5000%26cropY1%3D254%26cropY2%3D3067","video":null,"channel":null,"channelUrl":null,"author":"foolinaround","authorUrl":"https://news.ycombinator.com/user?id=foolinaround","authorImage":null,"authorSlug":null,"score":348,"views":null,"sharedCount":null,"likeCount":null,"sharedContent":null,"parent":{"__typename":"HnJson","localize":[{"title":"有证据表明，FBI可以黑进锁定的iPhone上的Signal私人信息。","locale":"zh"},{"title":"有證據表明，FBI可以黑進鎖定的iPhone上的Signal私人信息。","locale":"zh-Hant"}]}},{"__typename":"SocialMediaPost","id":"HnPost-26093535","excerpt":"","slug":"/hn/26093535","title":"Kenyan recycles plastic waste into bricks stronger than concrete","date":"February 10, 2021","dateISO":"2021-02-10T22:28:12.112Z","datetime":"2021-02-10 22:28","tags":["story","Hacker News"],"image":null,"imageAlt":null,"provider":"Hacker News","thirdPartyId":"26093535","url":"https://news.ycombinator.com/item?id=26093535","originalUrl":"https://www.reuters.com/article/us-kenya-environment-recycling-idUSKBN2A211N","imageRemote":"https://static.reuters.com/resources/r/?m=02&d=20210202&t=2&i=1549970897&r=LYNXMPEH110LD&w=800","video":null,"channel":null,"channelUrl":null,"author":"elorant","authorUrl":"https://news.ycombinator.com/user?id=elorant","authorImage":null,"authorSlug":null,"score":476,"views":null,"sharedCount":null,"likeCount":null,"sharedContent":null,"parent":{"__typename":"HnJson","localize":[{"title":"肯尼亚回收塑料垃圾制成比混凝土还坚固的砖块","locale":"zh"},{"title":"肯尼亞回收塑料垃圾製成比混凝土還堅固的磚塊","locale":"zh-Hant"}]}},{"__typename":"SocialMediaPost","id":"HnPost-26092040","excerpt":"","slug":"/hn/26092040","title":"Hello system, a FreeBSD-based OS designed to resemble Mac","date":"February 10, 2021","dateISO":"2021-02-10T21:28:05.446Z","datetime":"2021-02-10 21:28","tags":["story","Hacker News"],"image":null,"imageAlt":null,"provider":"Hacker News","thirdPartyId":"26092040","url":"https://news.ycombinator.com/item?id=26092040","originalUrl":"https://hellosystem.github.io/docs/","imageRemote":"https://hellosystem.github.io/docs/_static/hello_logo.png","video":null,"channel":null,"channelUrl":null,"author":"gautamcgoel","authorUrl":"https://news.ycombinator.com/user?id=gautamcgoel","authorImage":null,"authorSlug":null,"score":314,"views":null,"sharedCount":null,"likeCount":null,"sharedContent":null,"parent":{"__typename":"HnJson","localize":[{"title":"哈啰系统","locale":"zh"},{"title":"哈囉系統","locale":"zh-Hant"}]}},{"__typename":"SocialMediaPost","id":"HnPost-26092868","excerpt":"","slug":"/hn/26092868","title":"Block Facebook Servers","date":"February 10, 2021","dateISO":"2021-02-10T21:00:57.045Z","datetime":"2021-02-10 21:00","tags":["story","Hacker News"],"image":null,"imageAlt":null,"provider":"Hacker News","thirdPartyId":"26092868","url":"https://news.ycombinator.com/item?id=26092868","originalUrl":"https://github.com/jmdugan/blocklists/tree/master/corporations/facebook","imageRemote":"https://avatars.githubusercontent.com/u/25763?s=400&v=4","video":null,"channel":null,"channelUrl":null,"author":"prakhargurunani","authorUrl":"https://news.ycombinator.com/user?id=prakhargurunani","authorImage":null,"authorSlug":null,"score":232,"views":null,"sharedCount":null,"likeCount":null,"sharedContent":null,"parent":{"__typename":"HnJson","localize":[{"title":"屏蔽Facebook服务器","locale":"zh"},{"title":"屏蔽Facebook服務器","locale":"zh-Hant"}]}},{"__typename":"SocialMediaPost","id":"HnPost-26093778","excerpt":"","slug":"/hn/26093778","title":"Golang generics proposal has been accepted","date":"February 10, 2021","dateISO":"2021-02-10T20:55:56.358Z","datetime":"2021-02-10 20:55","tags":["story","Hacker News"],"image":null,"imageAlt":null,"provider":"Hacker News","thirdPartyId":"26093778","url":"https://news.ycombinator.com/item?id=26093778","originalUrl":"https://github.com/golang/go/issues/43651#issuecomment-776944155","imageRemote":"https://avatars.githubusercontent.com/u/4314092?s=400&v=4","video":null,"channel":null,"channelUrl":null,"author":"komuW","authorUrl":"https://news.ycombinator.com/user?id=komuW","authorImage":null,"authorSlug":null,"score":269,"views":null,"sharedCount":null,"likeCount":null,"sharedContent":null,"parent":{"__typename":"HnJson","localize":[{"title":"高朗仿制药提案已被接受","locale":"zh"},{"title":"高朗仿製藥提案已被接受","locale":"zh-Hant"}]}},{"__typename":"SocialMediaPost","id":"HnPost-26093070","excerpt":"","slug":"/hn/26093070","title":"Viral 'I'm not a cat' filter is decades-old software","date":"February 10, 2021","dateISO":"2021-02-10T20:46:49.826Z","datetime":"2021-02-10 20:46","tags":["story","Hacker News"],"image":null,"imageAlt":null,"provider":"Hacker News","thirdPartyId":"26093070","url":"https://news.ycombinator.com/item?id=26093070","originalUrl":"https://www.bbc.co.uk/news/technology-56010156","imageRemote":"https://ichef.bbci.co.uk/news/1024/branded_news/5149/production/_116890802_p096j77c.jpg","video":null,"channel":null,"channelUrl":null,"author":"beermonster","authorUrl":"https://news.ycombinator.com/user?id=beermonster","authorImage":null,"authorSlug":null,"score":532,"views":null,"sharedCount":null,"likeCount":null,"sharedContent":null,"parent":{"__typename":"HnJson","localize":[{"title":"病毒式 \"我不是猫 \"滤镜是几十年前的软件。","locale":"zh"},{"title":"病毒式 \"我不是貓 \"濾鏡是幾十年前的軟件。","locale":"zh-Hant"}]}},{"__typename":"SocialMediaPost","id":"HnPost-26089321","excerpt":"","slug":"/hn/26089321","title":"Apple Watch Identifies SARS-CoV2 Infection and Predicts Diagnosis","date":"February 10, 2021","dateISO":"2021-02-10T20:29:12.474Z","datetime":"2021-02-10 20:29","tags":["story","Hacker News"],"image":null,"imageAlt":null,"provider":"Hacker News","thirdPartyId":"26089321","url":"https://news.ycombinator.com/item?id=26089321","originalUrl":"https://preprints.jmir.org/preprint/26107","imageRemote":"https://preprints.jmir.org/article/viewFile/26107/1/464672","video":null,"channel":null,"channelUrl":null,"author":"giuliomagnifico","authorUrl":"https://news.ycombinator.com/user?id=giuliomagnifico","authorImage":null,"authorSlug":null,"score":191,"views":null,"sharedCount":null,"likeCount":null,"sharedContent":null,"parent":{"__typename":"HnJson","localize":[{"title":"Apple Watch可识别SARS-CoV2感染并预测诊断结果","locale":"zh"},{"title":"Apple Watch可識別SARS-CoV2感染並預測診斷結果","locale":"zh-Hant"}]}},{"__typename":"SocialMediaPost","id":"HnPost-26091410","excerpt":"","slug":"/hn/26091410","title":"Illegal CFC emissions have stopped since scientists raised alarm","date":"February 10, 2021","dateISO":"2021-02-10T19:56:44.321Z","datetime":"2021-02-10 19:56","tags":["story","Hacker News"],"image":null,"imageAlt":null,"provider":"Hacker News","thirdPartyId":"26091410","url":"https://news.ycombinator.com/item?id=26091410","originalUrl":"https://www.nature.com/articles/d41586-021-00360-0","imageRemote":"https://media.nature.com/lw1024/magazine-assets/d41586-021-00360-0/d41586-021-00360-0_18848484.jpg","video":null,"channel":null,"channelUrl":null,"author":"samizdis","authorUrl":"https://news.ycombinator.com/user?id=samizdis","authorImage":null,"authorSlug":null,"score":331,"views":null,"sharedCount":null,"likeCount":null,"sharedContent":null,"parent":{"__typename":"HnJson","localize":[{"title":"自科学家发出警报以来，氟氯化碳的非法排放已经停止。","locale":"zh"},{"title":"自科學家發出警報以來，氟氯化碳的非法排放已經停止。","locale":"zh-Hant"}]}}]}},"pageContext":{"basePath":"/","pageType":"tag","tag":"Hacker News","tagsFilter":{"id":{"glob":"!*Post-1"}},"filter":{"id":{"glob":"!*Post-1"},"tags":{"eq":"Hacker News"}},"limit":25,"skip":525,"total":2185,"totalPages":88,"currentPage":22,"maxWidth":1024,"maxHeight":512,"locale":"en","hrefLang":"en-US","originalPath":"/tags/hacker-news/page/22","dateFormat":"MM/DD/YYYY"}},"staticQueryHashes":["1239077767","2506312863","2744905544","3025052997","3493603132","3493603132","3513215887","386998304"]}