{"componentChunkName":"component---gatsby-theme-buzzing-src-gatsby-theme-timeline-templates-posts-query-js","path":"/ja/page/5","result":{"data":{"site":{"siteMetadata":{"title":"Reddit 热门","description":"用中文浏览Reddit热门内容","social":[{"name":"Twitter","url":"https://twitter.com/gatsbyjs","external":null,"prefetch":null},{"name":"GitHub","url":"https://github.com/gatsbyjs","external":null,"prefetch":null}],"menuLinks":[],"localize":[{"locale":"en","title":"Buzzing on Reddit","description":"See what's buzzing on Reddit in your native language","social":[{"name":"Reddit","url":"https://www.reddit.com/","external":true,"prefetch":null}],"menuLinks":[{"name":"Weekly Selection","url":"/issues","external":null,"prefetch":null},{"name":"RSS","url":"/rss.xml","external":null,"prefetch":false}]},{"locale":"zh-Hant","title":"Reddit 熱門","description":"用中文瀏覽Reddit熱門內容","social":null,"menuLinks":null}]}},"tagsGroup":{"group":[{"fieldValue":"ASK HN","totalCount":54},{"fieldValue":"Hacker News","totalCount":3107},{"fieldValue":"Poll","totalCount":1},{"fieldValue":"Show HN","totalCount":100},{"fieldValue":"poll","totalCount":1},{"fieldValue":"story","totalCount":3106}]},"allBlogPost":{"nodes":[{"__typename":"SocialMediaPost","id":"HnPost-26677112","excerpt":"","slug":"/hn/26677112","title":"Man who thought opening a TXT file is fine thought wrong","date":"April 03, 2021","dateISO":"2021-04-03T02:17:44.956Z","datetime":"2021-04-03 02:17","tags":["story","Hacker News"],"image":null,"imageAlt":null,"provider":"Hacker News","thirdPartyId":"26677112","url":"https://news.ycombinator.com/item?id=26677112","originalUrl":"https://www.paulosyibelo.com/2021/04/this-man-thought-opening-txt-file-is.html","imageRemote":"https://lh3.googleusercontent.com/l538XoHJMB_K-duDSBAjXmNvl2VH3orNOQbm--nvmf_AXK3NIYBTTlPf0NKoNG8vZ2xaRi7QYY0HGUzjLNbCynmc5ZBcR349mAZcf8B1g2hyFGPYrS2n7XBQHg6TR-ANFw_Dyc7B","video":null,"channel":null,"channelUrl":null,"author":"hyperpape","authorUrl":"https://news.ycombinator.com/user?id=hyperpape","authorImage":null,"authorSlug":null,"score":160,"views":null,"sharedCount":null,"likeCount":null,"sharedContent":null,"parent":{"__typename":"HnJson","localize":[{"title":"以为打开TXT文件就可以的人想错了。","locale":"zh"},{"title":"以爲打開TXT文件就可以的人想錯了。","locale":"zh-Hant"},{"title":"TXTファイルを開くのはいいことだと思っていた男が間違っていた","locale":"ja-JA"},{"title":"TXTファイルを開くのはいいことだと思っていた男が間違っていた","locale":"ja"}]}},{"__typename":"SocialMediaPost","id":"HnPost-26670312","excerpt":"","slug":"/hn/26670312","title":"Why machine learning struggles with causality","date":"April 03, 2021","dateISO":"2021-04-03T01:12:11.899Z","datetime":"2021-04-03 01:12","tags":["story","Hacker News"],"image":null,"imageAlt":null,"provider":"Hacker News","thirdPartyId":"26670312","url":"https://news.ycombinator.com/item?id=26670312","originalUrl":"https://bdtechtalks.com/2021/03/15/machine-learning-causality/","imageRemote":"https://i0.wp.com/bdtechtalks.com/wp-content/uploads/2021/03/machine-learning-causality.jpg?fit=2560%2C1440&ssl=1","video":null,"channel":null,"channelUrl":null,"author":"bschne","authorUrl":"https://news.ycombinator.com/user?id=bschne","authorImage":null,"authorSlug":null,"score":143,"views":null,"sharedCount":null,"likeCount":null,"sharedContent":null,"parent":{"__typename":"HnJson","localize":[{"title":"为什么机器学习要与因果关系作斗争？","locale":"zh"},{"title":"爲什麼機器學習要與因果關係作鬥爭？","locale":"zh-Hant"},{"title":"機械学習が因果関係に悩む理由","locale":"ja-JA"},{"title":"機械学習が因果関係に悩む理由","locale":"ja"}]}},{"__typename":"SocialMediaPost","id":"HnPost-26674756","excerpt":"","slug":"/hn/26674756","title":"Securing a Postgres Database","date":"April 02, 2021","dateISO":"2021-04-02T23:41:06.435Z","datetime":"2021-04-02 23:41","tags":["story","Hacker News"],"image":null,"imageAlt":null,"provider":"Hacker News","thirdPartyId":"26674756","url":"https://news.ycombinator.com/item?id=26674756","originalUrl":"https://goteleport.com/blog/securing-postgres-postgresql/","imageRemote":"https://goteleport.com/gravitational/images/backgrounds/og-image.png","video":null,"channel":null,"channelUrl":null,"author":"bryanmikaelian","authorUrl":"https://news.ycombinator.com/user?id=bryanmikaelian","authorImage":null,"authorSlug":null,"score":147,"views":null,"sharedCount":null,"likeCount":null,"sharedContent":null,"parent":{"__typename":"HnJson","localize":[{"title":"确保Postgres数据库的安全","locale":"zh"},{"title":"確保Postgres數據庫的安全","locale":"zh-Hant"},{"title":"Postgresデータベースのセキュリティ","locale":"ja-JA"},{"title":"Postgresデータベースのセキュリティ","locale":"ja"}]}},{"__typename":"SocialMediaPost","id":"HnPost-26659860","excerpt":"","slug":"/hn/26659860","title":"Show HN: This website moves your mouse cursor","date":"April 02, 2021","dateISO":"2021-04-02T23:14:28.761Z","datetime":"2021-04-02 23:14","tags":["story","Show HN","Hacker News"],"image":null,"imageAlt":null,"provider":"Hacker News","thirdPartyId":"26659860","url":"https://news.ycombinator.com/item?id=26659860","originalUrl":"https://www.attejuvonen.fi/mouse/","imageRemote":"https://www.attejuvonen.fi/mouse/arrow_m.png","video":null,"channel":"Show HN","channelUrl":"https://news.ycombinator.com/show","author":"baobabKoodaa","authorUrl":"https://news.ycombinator.com/user?id=baobabKoodaa","authorImage":null,"authorSlug":null,"score":142,"views":null,"sharedCount":null,"likeCount":null,"sharedContent":null,"parent":{"__typename":"HnJson","localize":[{"title":"显示HN：本网站移动你的鼠标指针。","locale":"zh"},{"title":"顯示HN：本網站移動你的鼠標指針。","locale":"zh-Hant"},{"title":"Show HN: このサイトはマウスカーソルを動かします。","locale":"ja-JA"},{"title":"Show HN: このサイトはマウスカーソルを動かします。","locale":"ja"}]}},{"__typename":"SocialMediaPost","id":"HnPost-26674244","excerpt":"","slug":"/hn/26674244","title":"Isamu Akasaki, inventor of first efficient blue LED, has died","date":"April 02, 2021","dateISO":"2021-04-02T21:25:08.945Z","datetime":"2021-04-02 21:25","tags":["story","Hacker News"],"image":null,"imageAlt":null,"provider":"Hacker News","thirdPartyId":"26674244","url":"https://news.ycombinator.com/item?id=26674244","originalUrl":"https://www.japantimes.co.jp/news/2021/04/02/national/isamu-akasaki-dies/","imageRemote":"https://cdn-japantimes.com/wp-content/uploads/2017/04/jt-sns.png","video":null,"channel":null,"channelUrl":null,"author":"_Microft","authorUrl":"https://news.ycombinator.com/user?id=_Microft","authorImage":null,"authorSlug":null,"score":158,"views":null,"sharedCount":null,"likeCount":null,"sharedContent":null,"parent":{"__typename":"HnJson","localize":[{"title":"第一颗高效蓝色LED的发明者赤崎勇去世了","locale":"zh"},{"title":"第一顆高效藍色LED的發明者赤崎勇去世了","locale":"zh-Hant"},{"title":"世界初の高効率青色LEDを開発した赤﨑勇氏が死去","locale":"ja-JA"},{"title":"世界初の高効率青色LEDを開発した赤﨑勇氏が死去","locale":"ja"}]}},{"__typename":"SocialMediaPost","id":"HnPost-26674279","excerpt":"","slug":"/hn/26674279","title":"IRS guidance for thieves, drug dealers, and corrupt officials","date":"April 02, 2021","dateISO":"2021-04-02T20:52:00.340Z","datetime":"2021-04-02 20:52","tags":["story","Hacker News"],"image":null,"imageAlt":null,"provider":"Hacker News","thirdPartyId":"26674279","url":"https://news.ycombinator.com/item?id=26674279","originalUrl":"https://taxfoundation.org/irs-guidance-thieves-drug-dealers-and-corrupt-officials/","imageRemote":"https://files.taxfoundation.org/20210319100421/IRS_extends_tax_filing_DC_50.jpeg","video":null,"channel":null,"channelUrl":null,"author":"reese_john","authorUrl":"https://news.ycombinator.com/user?id=reese_john","authorImage":null,"authorSlug":null,"score":142,"views":null,"sharedCount":null,"likeCount":null,"sharedContent":null,"parent":{"__typename":"HnJson","localize":[{"title":"国税局对小偷、毒贩、贪官的指导意见","locale":"zh"},{"title":"國稅局對小偷、毒販、貪官的指導意見","locale":"zh-Hant"},{"title":"窃盗犯、麻薬売人、汚職官僚のためのIRSガイダンス","locale":"ja-JA"},{"title":"窃盗犯、麻薬売人、汚職官僚のためのIRSガイダンス","locale":"ja"}]}},{"__typename":"SocialMediaPost","id":"HnPost-26671851","excerpt":"","slug":"/hn/26671851","title":"An HTTP server in a single .c file","date":"April 02, 2021","dateISO":"2021-04-02T19:32:24.512Z","datetime":"2021-04-02 19:32","tags":["story","Hacker News"],"image":null,"imageAlt":null,"provider":"Hacker News","thirdPartyId":"26671851","url":"https://news.ycombinator.com/item?id=26671851","originalUrl":"https://unix4lyfe.org/darkhttpd/","imageRemote":null,"video":null,"channel":null,"channelUrl":null,"author":"egorfine","authorUrl":"https://news.ycombinator.com/user?id=egorfine","authorImage":null,"authorSlug":null,"score":141,"views":null,"sharedCount":null,"likeCount":null,"sharedContent":null,"parent":{"__typename":"HnJson","localize":[{"title":"在单个.c文件中的HTTP服务器","locale":"zh"},{"title":"在單個.c文件中的HTTP服務器","locale":"zh-Hant"},{"title":"1つの.cファイルでHTTPサーバーを実現","locale":"ja-JA"},{"title":"1つの.cファイルでHTTPサーバーを実現","locale":"ja"}]}},{"__typename":"SocialMediaPost","id":"HnPost-26673987","excerpt":"","slug":"/hn/26673987","title":"Nuclear should be considered part of clean energy standard, White House says","date":"April 02, 2021","dateISO":"2021-04-02T19:32:24.512Z","datetime":"2021-04-02 19:32","tags":["story","Hacker News"],"image":null,"imageAlt":null,"provider":"Hacker News","thirdPartyId":"26673987","url":"https://news.ycombinator.com/item?id=26673987","originalUrl":"https://arstechnica.com/tech-policy/2021/04/nuclear-should-be-considered-part-of-clean-energy-standard-white-house-says/","imageRemote":"https://cdn.arstechnica.net/wp-content/uploads/2020/11/Nuclear-power-plant-760x380.jpg","video":null,"channel":null,"channelUrl":null,"author":"nixass","authorUrl":"https://news.ycombinator.com/user?id=nixass","authorImage":null,"authorSlug":null,"score":152,"views":null,"sharedCount":null,"likeCount":null,"sharedContent":null,"parent":{"__typename":"HnJson","localize":[{"title":"白宫称核电应被视为清洁能源标准的一部分","locale":"zh"},{"title":"白宮稱核電應被視爲清潔能源標準的一部分","locale":"zh-Hant"},{"title":"クリーンエネルギー基準の一部として原子力を考慮すべきとホワイトハウスが発表","locale":"ja-JA"},{"title":"クリーンエネルギー基準の一部として原子力を考慮すべきとホワイトハウスが発表","locale":"ja"}]}},{"__typename":"SocialMediaPost","id":"HnPost-26671748","excerpt":"","slug":"/hn/26671748","title":"Almost third of UK Covid hospital patients readmitted within four months","date":"April 02, 2021","dateISO":"2021-04-02T19:11:48.817Z","datetime":"2021-04-02 19:11","tags":["story","Hacker News"],"image":null,"imageAlt":null,"provider":"Hacker News","thirdPartyId":"26671748","url":"https://news.ycombinator.com/item?id=26671748","originalUrl":"https://www.theguardian.com/world/2021/apr/01/almost-third-of-uk-covid-hospital-patients-readmitted-within-four-months","imageRemote":"https://i.guim.co.uk/img/media/4b856d8550a540a37b8f1b3063a16f25da961f07/0_109_2700_1620/master/2700.jpg?width=1200&height=630&quality=85&auto=format&fit=crop&overlay-align=bottom%2Cleft&overlay-width=100p&overlay-base64=L2ltZy9zdGF0aWMvb3ZlcmxheXMvdGctZGVmYXVsdC5wbmc&enable=upscale&s=77efcc424d1cfc4ea419016fce2c53fe","video":null,"channel":null,"channelUrl":null,"author":"curmudgeon22","authorUrl":"https://news.ycombinator.com/user?id=curmudgeon22","authorImage":null,"authorSlug":null,"score":147,"views":null,"sharedCount":null,"likeCount":null,"sharedContent":null,"parent":{"__typename":"HnJson","localize":[{"title":"英国科维德医院近三分之一的患者在4个月内重新入院治疗。","locale":"zh"},{"title":"英國科維德醫院近三分之一的患者在4個月內重新入院治療。","locale":"zh-Hant"},{"title":"英国Covid病院の患者の約3分の1が4ヶ月以内に再入院","locale":"ja-JA"},{"title":"英国Covid病院の患者の約3分の1が4ヶ月以内に再入院","locale":"ja"}]}},{"__typename":"SocialMediaPost","id":"HnPost-26658539","excerpt":"","slug":"/hn/26658539","title":"On the Decline of Perl – external factors","date":"April 02, 2021","dateISO":"2021-04-02T16:11:13.828Z","datetime":"2021-04-02 16:11","tags":["story","Hacker News"],"image":null,"imageAlt":null,"provider":"Hacker News","thirdPartyId":"26658539","url":"https://news.ycombinator.com/item?id=26658539","originalUrl":"https://www.nntp.perl.org/group/perl.perl5.porters/2021/03/msg259484.html","imageRemote":"https://st.pimg.net/devcom/images/develooperbutton.v1.gif","video":null,"channel":null,"channelUrl":null,"author":"pabs3","authorUrl":"https://news.ycombinator.com/user?id=pabs3","authorImage":null,"authorSlug":null,"score":140,"views":null,"sharedCount":null,"likeCount":null,"sharedContent":null,"parent":{"__typename":"HnJson","localize":[{"title":"论Perl的衰落--外部因素","locale":"zh"},{"title":"論Perl的衰落--外部因素","locale":"zh-Hant"},{"title":"Perlの衰退について-外的要因","locale":"ja-JA"},{"title":"Perlの衰退について-外的要因","locale":"ja"}]}},{"__typename":"SocialMediaPost","id":"HnPost-26671914","excerpt":"","slug":"/hn/26671914","title":"Microsoft Coffee","date":"April 02, 2021","dateISO":"2021-04-02T15:54:02.819Z","datetime":"2021-04-02 15:54","tags":["story","Hacker News"],"image":null,"imageAlt":null,"provider":"Hacker News","thirdPartyId":"26671914","url":"https://news.ycombinator.com/item?id=26671914","originalUrl":"https://www.microsoftcoffee.org/","imageRemote":"https://lh3.googleusercontent.com/MlgBoHCLq86b6Ucx0vNYmnrKMfld60Ch2uCWBaVyUyreBNjS_P8YrGTf0jaGd_7cgvkMQippx8B6Fxk4gJ5JPw=w16383","video":null,"channel":null,"channelUrl":null,"author":"todsacerdoti","authorUrl":"https://news.ycombinator.com/user?id=todsacerdoti","authorImage":null,"authorSlug":null,"score":211,"views":null,"sharedCount":null,"likeCount":null,"sharedContent":null,"parent":{"__typename":"HnJson","localize":[{"title":"微软咖啡","locale":"zh"},{"title":"微軟咖啡","locale":"zh-Hant"},{"title":"マイクロソフトコーヒー","locale":"ja-JA"},{"title":"マイクロソフトコーヒー","locale":"ja"}]}},{"__typename":"SocialMediaPost","id":"HnPost-26665523","excerpt":"","slug":"/hn/26665523","title":"OpenBSD adds support for Coordinated Mars Time","date":"April 02, 2021","dateISO":"2021-04-02T10:34:40.444Z","datetime":"2021-04-02 10:34","tags":["story","Hacker News"],"image":null,"imageAlt":null,"provider":"Hacker News","thirdPartyId":"26665523","url":"https://news.ycombinator.com/item?id=26665523","originalUrl":"https://marc.info/?l=openbsd-cvs&m=161730046519995&w=2","imageRemote":null,"video":null,"channel":null,"channelUrl":null,"author":"gautamcgoel","authorUrl":"https://news.ycombinator.com/user?id=gautamcgoel","authorImage":null,"authorSlug":null,"score":142,"views":null,"sharedCount":null,"likeCount":null,"sharedContent":null,"parent":{"__typename":"HnJson","localize":[{"title":"OpenBSD 增加了对协调火星时间的支持","locale":"zh"},{"title":"OpenBSD 增加了對協調火星時間的支持","locale":"zh-Hant"},{"title":"OpenBSD が協定火星時間のサポートを追加","locale":"ja-JA"},{"title":"OpenBSD が協定火星時間のサポートを追加","locale":"ja"}]}},{"__typename":"SocialMediaPost","id":"HnPost-26668806","excerpt":"","slug":"/hn/26668806","title":"Move Slow and Make Things","date":"April 02, 2021","dateISO":"2021-04-02T10:34:40.444Z","datetime":"2021-04-02 10:34","tags":["story","Hacker News"],"image":null,"imageAlt":null,"provider":"Hacker News","thirdPartyId":"26668806","url":"https://news.ycombinator.com/item?id=26668806","originalUrl":"https://multithreaded.stitchfix.com/blog/2021/04/01/move-slow-make-things/","imageRemote":"https://multithreaded.stitchfix.com/assets/images/logomark-linkedin.jpg","video":null,"channel":null,"channelUrl":null,"author":"mkrazzledazzle","authorUrl":"https://news.ycombinator.com/user?id=mkrazzledazzle","authorImage":null,"authorSlug":null,"score":148,"views":null,"sharedCount":null,"likeCount":null,"sharedContent":null,"parent":{"__typename":"HnJson","localize":[{"title":"慢慢来，把事情做好","locale":"zh"},{"title":"慢慢來，把事情做好","locale":"zh-Hant"},{"title":"ゆっくりとした動きで物を作る","locale":"ja-JA"},{"title":"ゆっくりとした動きで物を作る","locale":"ja"}]}},{"__typename":"SocialMediaPost","id":"HnPost-26669749","excerpt":"","slug":"/hn/26669749","title":"This Blog is now hosted on a GPS/LTE modem","date":"April 02, 2021","dateISO":"2021-04-02T10:34:40.444Z","datetime":"2021-04-02 10:34","tags":["story","Hacker News"],"image":null,"imageAlt":null,"provider":"Hacker News","thirdPartyId":"26669749","url":"https://news.ycombinator.com/item?id=26669749","originalUrl":"https://nns.ee/blog/2021/04/01/modem-blog.html","imageRemote":"https://nns.ee/twitter.png","video":null,"channel":null,"channelUrl":null,"author":"dtx1","authorUrl":"https://news.ycombinator.com/user?id=dtx1","authorImage":null,"authorSlug":null,"score":162,"views":null,"sharedCount":null,"likeCount":null,"sharedContent":null,"parent":{"__typename":"HnJson","localize":[{"title":"本博客现在使用GPS/LTE调制解调器托管。","locale":"zh"},{"title":"本博客現在使用GPS/LTE調制解調器託管。","locale":"zh-Hant"},{"title":"このブログはGPS/LTEモデムで運用されています。","locale":"ja-JA"},{"title":"このブログはGPS/LTEモデムで運用されています。","locale":"ja"}]}},{"__typename":"SocialMediaPost","id":"HnPost-26668426","excerpt":"","slug":"/hn/26668426","title":"Every Noise at Once","date":"April 02, 2021","dateISO":"2021-04-02T08:23:07.447Z","datetime":"2021-04-02 08:23","tags":["story","Hacker News"],"image":null,"imageAlt":null,"provider":"Hacker News","thirdPartyId":"26668426","url":"https://news.ycombinator.com/item?id=26668426","originalUrl":"https://everynoise.com/","imageRemote":"https://everynoise.com/enaohoodie2.png","video":null,"channel":null,"channelUrl":null,"author":"hwayne","authorUrl":"https://news.ycombinator.com/user?id=hwayne","authorImage":null,"authorSlug":null,"score":150,"views":null,"sharedCount":null,"likeCount":null,"sharedContent":null,"parent":{"__typename":"HnJson","localize":[{"title":"一次性的噪音","locale":"zh"},{"title":"一次性的噪音","locale":"zh-Hant"},{"title":"あらゆるノイズを一度に","locale":"ja-JA"},{"title":"あらゆるノイズを一度に","locale":"ja"}]}},{"__typename":"SocialMediaPost","id":"HnPost-26668408","excerpt":"","slug":"/hn/26668408","title":"Tmux lets you select and copy text with your keyboard","date":"April 02, 2021","dateISO":"2021-04-02T07:34:21.561Z","datetime":"2021-04-02 07:34","tags":["story","Hacker News"],"image":null,"imageAlt":null,"provider":"Hacker News","thirdPartyId":"26668408","url":"https://news.ycombinator.com/item?id=26668408","originalUrl":"https://ianthehenry.com/posts/tmux-psa/","imageRemote":"https://ianthehenry.com/checkerboard.png","video":null,"channel":null,"channelUrl":null,"author":"ianthehenry","authorUrl":"https://news.ycombinator.com/user?id=ianthehenry","authorImage":null,"authorSlug":null,"score":140,"views":null,"sharedCount":null,"likeCount":null,"sharedContent":null,"parent":{"__typename":"HnJson","localize":[{"title":"Tmux可以让你用键盘选择和复制文本。","locale":"zh"},{"title":"Tmux可以讓你用鍵盤選擇和複製文本。","locale":"zh-Hant"},{"title":"Tmuxでは、キーボードでテキストを選択してコピーすることができます。","locale":"ja-JA"},{"title":"Tmuxでは、キーボードでテキストを選択してコピーすることができます。","locale":"ja"}]}},{"__typename":"SocialMediaPost","id":"HnPost-26661279","excerpt":"","slug":"/hn/26661279","title":"Ask HN: Who wants to be hired? (April 2021)","date":"April 02, 2021","dateISO":"2021-04-02T06:18:24.023Z","datetime":"2021-04-02 06:18","tags":["story","ASK HN","Hacker News"],"image":null,"imageAlt":null,"provider":"Hacker News","thirdPartyId":"26661279","url":"https://news.ycombinator.com/item?id=26661279","originalUrl":"https://news.ycombinator.com/item?id=26661279","imageRemote":null,"video":null,"channel":"ASK HN","channelUrl":"https://news.ycombinator.com/ask","author":"whoishiring","authorUrl":"https://news.ycombinator.com/user?id=whoishiring","authorImage":null,"authorSlug":null,"score":141,"views":null,"sharedCount":null,"likeCount":null,"sharedContent":null,"parent":{"__typename":"HnJson","localize":[{"title":"问HN：谁想被录用？(2021年4月)","locale":"zh"},{"title":"問HN：誰想被錄用？(2021年4月)","locale":"zh-Hant"},{"title":"Ask HN: 採用されたい人は？(2021年4月)","locale":"ja-JA"},{"title":"Ask HN: 採用されたい人は？(2021年4月)","locale":"ja"}]}},{"__typename":"SocialMediaPost","id":"HnPost-26667852","excerpt":"","slug":"/hn/26667852","title":"Uppestcase and Lowestcase Letters","date":"April 02, 2021","dateISO":"2021-04-02T03:15:33.053Z","datetime":"2021-04-02 03:15","tags":["story","Hacker News"],"image":null,"imageAlt":null,"provider":"Hacker News","thirdPartyId":"26667852","url":"https://news.ycombinator.com/item?id=26667852","originalUrl":"http://tom7.org/lowercase/","imageRemote":"http://tom7.org/lowercase/lowercase1080.png","video":null,"channel":null,"channelUrl":null,"author":"zdw","authorUrl":"https://news.ycombinator.com/user?id=zdw","authorImage":null,"authorSlug":null,"score":488,"views":null,"sharedCount":null,"likeCount":null,"sharedContent":null,"parent":{"__typename":"HnJson","localize":[{"title":"大写字母和小写字母。","locale":"zh"},{"title":"大寫字母和小寫字母。","locale":"zh-Hant"},{"title":"大文字と小文字の区別","locale":"ja-JA"},{"title":"大文字と小文字の区別","locale":"ja"}]}},{"__typename":"SocialMediaPost","id":"HnPost-26662985","excerpt":"","slug":"/hn/26662985","title":"100M Posts Analyzed: What You Need to Write the Best Headlines","date":"April 02, 2021","dateISO":"2021-04-02T02:50:47.843Z","datetime":"2021-04-02 02:50","tags":["story","Hacker News"],"image":null,"imageAlt":null,"provider":"Hacker News","thirdPartyId":"26662985","url":"https://news.ycombinator.com/item?id=26662985","originalUrl":"https://buzzsumo.com/resources/hundred-million-best-headlines-study/","imageRemote":"https://s31735.pcdn.co/wp-content/uploads/2021/03/Social_generic-1.png","video":null,"channel":null,"channelUrl":null,"author":"vitabenes","authorUrl":"https://news.ycombinator.com/user?id=vitabenes","authorImage":null,"authorSlug":null,"score":190,"views":null,"sharedCount":null,"likeCount":null,"sharedContent":null,"parent":{"__typename":"HnJson","localize":[{"title":"1亿帖子分析。你需要什么才能写出最好的标题","locale":"zh"},{"title":"1億帖子分析。你需要什麼才能寫出最好的標題","locale":"zh-Hant"},{"title":"100Mの投稿を分析。最高のヘッドラインを書くために必要なこと","locale":"ja-JA"},{"title":"100Mの投稿を分析。最高のヘッドラインを書くために必要なこと","locale":"ja"}]}},{"__typename":"SocialMediaPost","id":"HnPost-26664525","excerpt":"","slug":"/hn/26664525","title":"Myanmar orders wireless internet shutdown until further notice: telecoms sources","date":"April 02, 2021","dateISO":"2021-04-02T00:33:20.508Z","datetime":"2021-04-02 00:33","tags":["story","Hacker News"],"image":null,"imageAlt":null,"provider":"Hacker News","thirdPartyId":"26664525","url":"https://news.ycombinator.com/item?id=26664525","originalUrl":"https://www.reuters.com/article/us-myanmar-politics-internet/myanmar-orders-wireless-internet-shutdown-until-further-notice-telecoms-sources-idUSKBN2BO5H2","imageRemote":"https://s1.reutersmedia.net/resources_v2/images/rcom-default.png?w=800","video":null,"channel":null,"channelUrl":null,"author":"lawrenceyan","authorUrl":"https://news.ycombinator.com/user?id=lawrenceyan","authorImage":null,"authorSlug":null,"score":175,"views":null,"sharedCount":null,"likeCount":null,"sharedContent":null,"parent":{"__typename":"HnJson","localize":[{"title":"缅甸下令关闭无线互联网，直到进一步通知：电信人士","locale":"zh"},{"title":"緬甸下令關閉無線互聯網，直到進一步通知：電信人士","locale":"zh-Hant"},{"title":"ミャンマー、追って通知があるまで無線インターネットの停止を命令：通信関係者","locale":"ja-JA"},{"title":"ミャンマー、追って通知があるまで無線インターネットの停止を命令：通信関係者","locale":"ja"}]}},{"__typename":"SocialMediaPost","id":"HnPost-26664361","excerpt":"","slug":"/hn/26664361","title":"OpenBSD Adds Support for Coordinated Mars Time (MTC)","date":"April 01, 2021","dateISO":"2021-04-01T23:52:47.918Z","datetime":"2021-04-01 23:52","tags":["story","Hacker News"],"image":null,"imageAlt":null,"provider":"Hacker News","thirdPartyId":"26664361","url":"https://news.ycombinator.com/item?id=26664361","originalUrl":"https://marc.info/?l=openbsd-cvs&m=161730046519995","imageRemote":null,"video":null,"channel":null,"channelUrl":null,"author":"dbolgheroni","authorUrl":"https://news.ycombinator.com/user?id=dbolgheroni","authorImage":null,"authorSlug":null,"score":185,"views":null,"sharedCount":null,"likeCount":null,"sharedContent":null,"parent":{"__typename":"HnJson","localize":[{"title":"OpenBSD 增加对协调火星时间 (MTC) 的支持。","locale":"zh"},{"title":"OpenBSD 增加對協調火星時間 (MTC) 的支持。","locale":"zh-Hant"},{"title":"OpenBSD、調整された火星時間 (MTC) のサポートを追加","locale":"ja-JA"},{"title":"OpenBSD、調整された火星時間 (MTC) のサポートを追加","locale":"ja"}]}},{"__typename":"SocialMediaPost","id":"HnPost-26666585","excerpt":"","slug":"/hn/26666585","title":"MS Azure down: An emerging issue is being investigated","date":"April 01, 2021","dateISO":"2021-04-01T23:52:47.917Z","datetime":"2021-04-01 23:52","tags":["story","Hacker News"],"image":null,"imageAlt":null,"provider":"Hacker News","thirdPartyId":"26666585","url":"https://news.ycombinator.com/item?id=26666585","originalUrl":"https://status2.azure.com/","imageRemote":null,"video":null,"channel":null,"channelUrl":null,"author":"williamscales","authorUrl":"https://news.ycombinator.com/user?id=williamscales","authorImage":null,"authorSlug":null,"score":220,"views":null,"sharedCount":null,"likeCount":null,"sharedContent":null,"parent":{"__typename":"HnJson","localize":[{"title":"MS Azure 宕机。正在调查一个新出现的问题","locale":"zh"},{"title":"MS Azure 宕機。正在調查一個新出現的問題","locale":"zh-Hant"},{"title":"MS Azureのダウン。新たに発生した問題が調査されている","locale":"ja-JA"},{"title":"MS Azureのダウン。新たに発生した問題が調査されている","locale":"ja"}]}},{"__typename":"SocialMediaPost","id":"HnPost-26664714","excerpt":"","slug":"/hn/26664714","title":"Zero click vulnerability in Apple’s macOS Mail","date":"April 01, 2021","dateISO":"2021-04-01T23:18:13.586Z","datetime":"2021-04-01 23:18","tags":["story","Hacker News"],"image":null,"imageAlt":null,"provider":"Hacker News","thirdPartyId":"26664714","url":"https://news.ycombinator.com/item?id=26664714","originalUrl":"https://mikko-kenttala.medium.com/zero-click-vulnerability-in-apples-macos-mail-59e0c14b106c","imageRemote":"https://miro.medium.com/max/1200/1*ThJdi57qqdr-5_9BjHsQJg.png","video":null,"channel":null,"channelUrl":null,"author":"jviide","authorUrl":"https://news.ycombinator.com/user?id=jviide","authorImage":null,"authorSlug":null,"score":360,"views":null,"sharedCount":null,"likeCount":null,"sharedContent":null,"parent":{"__typename":"HnJson","localize":[{"title":"苹果macOS邮件存在零点击漏洞","locale":"zh"},{"title":"蘋果macOS郵件存在零點擊漏洞","locale":"zh-Hant"},{"title":"Apple社のmacOS Mailにゼロクリック脆弱性","locale":"ja-JA"},{"title":"Apple社のmacOS Mailにゼロクリック脆弱性","locale":"ja"}]}},{"__typename":"SocialMediaPost","id":"HnPost-26665097","excerpt":"","slug":"/hn/26665097","title":"54% of San Francisco homes are in buildings that would be illegal to build today","date":"April 01, 2021","dateISO":"2021-04-01T23:18:13.586Z","datetime":"2021-04-01 23:18","tags":["story","Hacker News"],"image":null,"imageAlt":null,"provider":"Hacker News","thirdPartyId":"26665097","url":"https://news.ycombinator.com/item?id=26665097","originalUrl":"https://sfzoning.deapthoughts.com/illegal_homes.html","imageRemote":"https://sfzoning.deapthoughts.com/img/sf_illegal_homes.jpg","video":null,"channel":null,"channelUrl":null,"author":"undefined1","authorUrl":"https://news.ycombinator.com/user?id=undefined1","authorImage":null,"authorSlug":null,"score":187,"views":null,"sharedCount":null,"likeCount":null,"sharedContent":null,"parent":{"__typename":"HnJson","localize":[{"title":"54%的旧金山住宅位于今天不合法的建筑中","locale":"zh"},{"title":"54%的舊金山住宅位於今天不合法的建築中","locale":"zh-Hant"},{"title":"サンフランシスコの住宅の54％は、現在では建設が違法となる建物の中にあります。","locale":"ja-JA"},{"title":"サンフランシスコの住宅の54％は、現在では建設が違法となる建物の中にあります。","locale":"ja"}]}},{"__typename":"SocialMediaPost","id":"HnPost-26660154","excerpt":"","slug":"/hn/26660154","title":"OpenTTD 1.11.0","date":"April 01, 2021","dateISO":"2021-04-01T20:53:51.814Z","datetime":"2021-04-01 20:53","tags":["story","Hacker News"],"image":null,"imageAlt":null,"provider":"Hacker News","thirdPartyId":"26660154","url":"https://news.ycombinator.com/item?id=26660154","originalUrl":"https://www.openttd.org/news/2021/04/01/openttd-1-11-0.html","imageRemote":"https://www.openttd.org/static/img/layout/openttd-logo.png","video":null,"channel":null,"channelUrl":null,"author":"app4soft","authorUrl":"https://news.ycombinator.com/user?id=app4soft","authorImage":null,"authorSlug":null,"score":253,"views":null,"sharedCount":null,"likeCount":null,"sharedContent":null,"parent":{"__typename":"HnJson","localize":[{"title":"OpenTTD 1.11.0","locale":"zh"},{"title":"OpenTTD 1.11.0","locale":"zh-Hant"},{"title":"OpenTTD 1.11.0","locale":"ja-JA"},{"title":"OpenTTD 1.11.0","locale":"ja"}]}}]}},"pageContext":{"basePath":"/","pageType":"home","tagsFilter":{"id":{"glob":"!*Post-1"}},"filter":{"id":{"glob":"!*Post-1"}},"limit":25,"skip":100,"totalPages":125,"total":3107,"currentPage":5,"maxWidth":1024,"maxHeight":512,"locale":"ja","hrefLang":"ja-JA","originalPath":"/page/5","dateFormat":"YYYY-MM-DD"}},"staticQueryHashes":["1239077767","2506312863","2744905544","3025052997","3493603132","3493603132","3513215887","386998304"]}