{"componentChunkName":"component---gatsby-theme-buzzing-src-gatsby-theme-timeline-templates-posts-query-js","path":"/zh-Hant/tags/hacker-news/page/18","result":{"data":{"site":{"siteMetadata":{"title":"Reddit 热门","description":"用中文浏览Reddit热门内容","social":[{"name":"Twitter","url":"https://twitter.com/gatsbyjs","external":null,"prefetch":null},{"name":"GitHub","url":"https://github.com/gatsbyjs","external":null,"prefetch":null}],"menuLinks":[],"localize":[{"locale":"en","title":"Buzzing on Reddit","description":"See what's buzzing on Reddit in your native language","social":[{"name":"Reddit","url":"https://www.reddit.com/","external":true,"prefetch":null}],"menuLinks":[{"name":"Weekly Selection","url":"/issues","external":null,"prefetch":null},{"name":"RSS","url":"/rss.xml","external":null,"prefetch":false}]},{"locale":"zh-Hant","title":"Reddit 熱門","description":"用中文瀏覽Reddit熱門內容","social":null,"menuLinks":null}]}},"tagsGroup":{"group":[{"fieldValue":"ASK HN","totalCount":22},{"fieldValue":"Bitcoin","totalCount":3},{"fieldValue":"Hacker News","totalCount":911},{"fieldValue":"Poll","totalCount":1},{"fieldValue":"Show HN","totalCount":34},{"fieldValue":"investing","totalCount":195},{"fieldValue":"poll","totalCount":1},{"fieldValue":"reddit","totalCount":759},{"fieldValue":"science","totalCount":1},{"fieldValue":"stocks","totalCount":333},{"fieldValue":"story","totalCount":910},{"fieldValue":"tweet","totalCount":274},{"fieldValue":"wallstreetbets","totalCount":231}]},"allBlogPost":{"nodes":[{"__typename":"SocialMediaPost","id":"HnPost-25566652","excerpt":"","slug":"/hn/25566652","title":"Why Is There a Bucatini Shortage in America?","date":"December 29, 2020","dateISO":"2020-12-29T07:01:23.764Z","datetime":"2020-12-29 07:01","tags":["story","Hacker News"],"image":null,"imageAlt":null,"provider":"Hacker News","thirdPartyId":"25566652","url":"https://news.ycombinator.com/item?id=25566652","originalUrl":"https://www.grubstreet.com/2020/12/2020-bucatini-shortage-investigation.html","imageRemote":"https://pyxis.nymag.com/v1/imgs/20b/5ff/78dda4d1bdf3f94804367e40bb9bed10c3-bucatini.1x.rsocial.w1200.jpg","video":null,"channel":null,"channelUrl":null,"author":"polm23","authorUrl":"https://news.ycombinator.com/user?id=polm23","authorImage":null,"authorSlug":null,"score":836,"views":null,"sharedCount":null,"likeCount":null,"sharedContent":null,"parent":{"__typename":"HnJson","localize":[{"title":"为什么美国会出现布卡蒂尼短缺的情况？","locale":"zh"},{"title":"爲什麼美國會出現布卡蒂尼短缺的情況？","locale":"zh-Hant"}]}},{"__typename":"SocialMediaPost","id":"HnPost-25566132","excerpt":"","slug":"/hn/25566132","title":"Show HN: Raspberry Pi 400 with a $2 IPS 240x240 micro display","date":"December 29, 2020","dateISO":"2020-12-29T06:32:04.312Z","datetime":"2020-12-29 06:32","tags":["story","Show HN","Hacker News"],"image":null,"imageAlt":null,"provider":"Hacker News","thirdPartyId":"25566132","url":"https://news.ycombinator.com/item?id=25566132","originalUrl":"https://github.com/igbit/micro-displays/blob/main/README.md","imageRemote":"https://avatars3.githubusercontent.com/u/75217607?s=400&v=4","video":null,"channel":"Show HN","channelUrl":"https://news.ycombinator.com/show","author":"sgroppino","authorUrl":"https://news.ycombinator.com/user?id=sgroppino","authorImage":null,"authorSlug":null,"score":355,"views":null,"sharedCount":null,"likeCount":null,"sharedContent":null,"parent":{"__typename":"HnJson","localize":[{"title":"HN新产品：覆盆子PI400，配有2美元的IPS 240x240微型显示屏","locale":"zh"},{"title":"HN新產品：覆盆子PI400，配有2美元的IPS 240x240微型顯示屏","locale":"zh-Hant"}]}},{"__typename":"SocialMediaPost","id":"HnPost-25564619","excerpt":"","slug":"/hn/25564619","title":"Architecture of the Game Boy Advance","date":"December 29, 2020","dateISO":"2020-12-29T04:41:12.454Z","datetime":"2020-12-29 04:41","tags":["story","Hacker News"],"image":null,"imageAlt":null,"provider":"Hacker News","thirdPartyId":"25564619","url":"https://news.ycombinator.com/item?id=25564619","originalUrl":"https://www.copetti.org/writings/consoles/game-boy-advance/","imageRemote":"https://www.copetti.org/images/consoles/gba/diagram.png","video":null,"channel":null,"channelUrl":null,"author":"biwasa","authorUrl":"https://news.ycombinator.com/user?id=biwasa","authorImage":null,"authorSlug":null,"score":259,"views":null,"sharedCount":null,"likeCount":null,"sharedContent":null,"parent":{"__typename":"HnJson","localize":[{"title":"“游戏机进军”的架构","locale":"zh"},{"title":"“遊戲機進軍”的架構","locale":"zh-Hant"}]}},{"__typename":"SocialMediaPost","id":"HnPost-25558891","excerpt":"","slug":"/hn/25558891","title":"Show HN: Recurring reviews to track the whole lifecycle of a product","date":"December 29, 2020","dateISO":"2020-12-29T04:00:45.970Z","datetime":"2020-12-29 04:00","tags":["story","Show HN","Hacker News"],"image":null,"imageAlt":null,"provider":"Hacker News","thirdPartyId":"25558891","url":"https://news.ycombinator.com/item?id=25558891","originalUrl":"https://www.buyforlife.com/blog/4kpaLtbnG6MkseMj44niVV/recurring-reviews-to-track-the-whole-lifecycle-of-a-product","imageRemote":"https://www.buyforlife.com/preview.png","video":null,"channel":"Show HN","channelUrl":"https://news.ycombinator.com/show","author":"hubraumhugo","authorUrl":"https://news.ycombinator.com/user?id=hubraumhugo","authorImage":null,"authorSlug":null,"score":175,"views":null,"sharedCount":null,"likeCount":null,"sharedContent":null,"parent":{"__typename":"HnJson","localize":[{"title":"HN新产品：重复评审以跟踪产品的整个生命周期","locale":"zh"},{"title":"HN新產品：重複評審以跟蹤產品的整個生命週期","locale":"zh-Hant"}]}},{"__typename":"SocialMediaPost","id":"HnPost-25559571","excerpt":"","slug":"/hn/25559571","title":"Ask HN: What are you surprised isn’t being worked on more?","date":"December 29, 2020","dateISO":"2020-12-29T02:22:35.531Z","datetime":"2020-12-29 02:22","tags":["story","ASK HN","Hacker News"],"image":null,"imageAlt":null,"provider":"Hacker News","thirdPartyId":"25559571","url":"https://news.ycombinator.com/item?id=25559571","originalUrl":"https://news.ycombinator.com/item?id=25559571","imageRemote":null,"video":null,"channel":"ASK HN","channelUrl":"https://news.ycombinator.com/ask","author":"orbOfOrthanc","authorUrl":"https://news.ycombinator.com/user?id=orbOfOrthanc","authorImage":null,"authorSlug":null,"score":456,"views":null,"sharedCount":null,"likeCount":null,"sharedContent":null,"parent":{"__typename":"HnJson","localize":[{"title":"HN提问：有什么让你惊讶的是没有更多的工作？","locale":"zh"},{"title":"HN提問：有什麼讓你驚訝的是沒有更多的工作？","locale":"zh-Hant"}]}},{"__typename":"SocialMediaPost","id":"HnPost-25562960","excerpt":"","slug":"/hn/25562960","title":"FAA issuing new rules to allow drones to fly over people and at night","date":"December 29, 2020","dateISO":"2020-12-29T01:17:26.426Z","datetime":"2020-12-29 01:17","tags":["story","Hacker News"],"image":null,"imageAlt":null,"provider":"Hacker News","thirdPartyId":"25562960","url":"https://news.ycombinator.com/item?id=25562960","originalUrl":"https://www.reuters.com/article/us-usa-drones-faa/u-s-to-allow-small-drones-to-fly-over-people-at-night-idUSKBN2921R8","imageRemote":"https://static.reuters.com/resources/r/?m=02&d=20201228&t=2&i=1545986075&r=LYNXMPEGBR0VV&w=800","video":null,"channel":null,"channelUrl":null,"author":"skanga","authorUrl":"https://news.ycombinator.com/user?id=skanga","authorImage":null,"authorSlug":null,"score":242,"views":null,"sharedCount":null,"likeCount":null,"sharedContent":null,"parent":{"__typename":"HnJson","localize":[{"title":"美国联邦航空局发布新规则，允许无人机在夜间和人员上空使用飞翔","locale":"zh"},{"title":"美國聯邦航空局發佈新規則，允許無人機在夜間和人員上空使用飛翔","locale":"zh-Hant"}]}},{"__typename":"SocialMediaPost","id":"HnPost-25563590","excerpt":"","slug":"/hn/25563590","title":"Fujifilm Created a Magnetic Tape That Can Store 580 Terabytes","date":"December 29, 2020","dateISO":"2020-12-29T01:17:26.426Z","datetime":"2020-12-29 01:17","tags":["story","Hacker News"],"image":null,"imageAlt":null,"provider":"Hacker News","thirdPartyId":"25563590","url":"https://news.ycombinator.com/item?id=25563590","originalUrl":"https://petapixel.com/2020/12/26/fujifilm-created-a-magnetic-tape-that-can-store-580-terabytes/","imageRemote":"https://petapixel.com/assets/uploads/2020/12/fujifilmtapefeat.jpg","video":null,"channel":null,"channelUrl":null,"author":"elorant","authorUrl":"https://news.ycombinator.com/user?id=elorant","authorImage":null,"authorSlug":null,"score":421,"views":null,"sharedCount":null,"likeCount":null,"sharedContent":null,"parent":{"__typename":"HnJson","localize":[{"title":"富士胶片公司发明了一种可以存储580TB的磁带","locale":"zh"},{"title":"富士膠片公司發明了一種可以存儲580TB的磁帶","locale":"zh-Hant"}]}},{"__typename":"SocialMediaPost","id":"HnPost-25563708","excerpt":"","slug":"/hn/25563708","title":"Why the iPhone Timer app displays a fake time","date":"December 29, 2020","dateISO":"2020-12-29T01:17:26.426Z","datetime":"2020-12-29 01:17","tags":["story","Hacker News"],"image":null,"imageAlt":null,"provider":"Hacker News","thirdPartyId":"25563708","url":"https://news.ycombinator.com/item?id=25563708","originalUrl":"https://lukashermann.dev/writing/why-the-iphone-timer-displays-fake-time/","imageRemote":"https://lukashermann.dev/img/writing/covers/why-the-iphone-timer-displays-fake-time.jpg","video":null,"channel":null,"channelUrl":null,"author":"_antix","authorUrl":"https://news.ycombinator.com/user?id=_antix","authorImage":null,"authorSlug":null,"score":221,"views":null,"sharedCount":null,"likeCount":null,"sharedContent":null,"parent":{"__typename":"HnJson","localize":[{"title":"为什么iPhone Timer应用程序显示假时间","locale":"zh"},{"title":"爲什麼iPhone Timer應用程序顯示假時間","locale":"zh-Hant"}]}},{"__typename":"SocialMediaPost","id":"HnPost-25562321","excerpt":"","slug":"/hn/25562321","title":"He spent 10 days in jail after facial recognition led to arrest of the wrong man","date":"December 28, 2020","dateISO":"2020-12-28T23:34:56.981Z","datetime":"2020-12-28 23:34","tags":["story","Hacker News"],"image":null,"imageAlt":null,"provider":"Hacker News","thirdPartyId":"25562321","url":"https://news.ycombinator.com/item?id=25562321","originalUrl":"https://www.nj.com/middlesex/2020/12/he-spent-10-days-in-jail-after-facial-recognition-software-led-to-the-arrest-of-the-wrong-man-lawsuit-says.html","imageRemote":"https://www.nj.com/resizer/nBCRYn_mym5-xIeBDzDyb2QguBI=/1280x0/smart/cloudfront-us-east-1.images.arcpublishing.com/advancelocal/FZM64WG4FNCWDOCRO7LS3WCW4U.jpg","video":null,"channel":null,"channelUrl":null,"author":"sharkweek","authorUrl":"https://news.ycombinator.com/user?id=sharkweek","authorImage":null,"authorSlug":null,"score":257,"views":null,"sharedCount":null,"likeCount":null,"sharedContent":null,"parent":{"__typename":"HnJson","localize":[{"title":"在面部识别导致逮捕了错误的人后，他在监狱里呆了10天","locale":"zh"},{"title":"在面部識別導致逮捕了錯誤的人後，他在監獄裏呆了10天","locale":"zh-Hant"}]}},{"__typename":"SocialMediaPost","id":"HnPost-25549811","excerpt":"","slug":"/hn/25549811","title":"New Haskell Foundation to Foster Haskell Adoption, Raises 200k USD","date":"December 28, 2020","dateISO":"2020-12-28T23:02:45.263Z","datetime":"2020-12-28 23:02","tags":["story","Hacker News"],"image":null,"imageAlt":null,"provider":"Hacker News","thirdPartyId":"25549811","url":"https://news.ycombinator.com/item?id=25549811","originalUrl":"https://www.infoq.com/news/2020/12/haskell-foundation-launched/","imageRemote":"https://res.infoq.com/news/2020/12/haskell-foundation-launched/en/headerimage/header-1608973825009.jpg","video":null,"channel":null,"channelUrl":null,"author":"antouank","authorUrl":"https://news.ycombinator.com/user?id=antouank","authorImage":null,"authorSlug":null,"score":160,"views":null,"sharedCount":null,"likeCount":null,"sharedContent":null,"parent":{"__typename":"HnJson","localize":[{"title":"新的哈斯克尔基金会将促进哈斯克尔的采用，筹集20万美元","locale":"zh"},{"title":"新的哈斯克爾基金會將促進哈斯克爾的採用，籌集20萬美元","locale":"zh-Hant"}]}},{"__typename":"SocialMediaPost","id":"HnPost-25559145","excerpt":"","slug":"/hn/25559145","title":"Undocumented arm64 ISA extension present on the Apple M1","date":"December 28, 2020","dateISO":"2020-12-28T22:35:43.285Z","datetime":"2020-12-28 22:35","tags":["story","Hacker News"],"image":null,"imageAlt":null,"provider":"Hacker News","thirdPartyId":"25559145","url":"https://news.ycombinator.com/item?id=25559145","originalUrl":"https://gist.github.com/dougallj/7a75a3be1ec69ca550e7c36dc75e0d6f","imageRemote":"https://github.githubassets.com/images/modules/gists/gist-og-image.png","video":null,"channel":null,"channelUrl":null,"author":"ytch","authorUrl":"https://news.ycombinator.com/user?id=ytch","authorImage":null,"authorSlug":null,"score":257,"views":null,"sharedCount":null,"likeCount":null,"sharedContent":null,"parent":{"__typename":"HnJson","localize":[{"title":"Apple M1上存在未经记录的arm64 ISA扩展","locale":"zh"},{"title":"Apple M1上存在未經記錄的arm64 ISA擴展","locale":"zh-Hant"}]}},{"__typename":"SocialMediaPost","id":"HnPost-25561392","excerpt":"","slug":"/hn/25561392","title":"Buttplug (Sex Toy Control Library) Hits v1 Milestone","date":"December 28, 2020","dateISO":"2020-12-28T22:35:43.285Z","datetime":"2020-12-28 22:35","tags":["story","Hacker News"],"image":null,"imageAlt":null,"provider":"Hacker News","thirdPartyId":"25561392","url":"https://news.ycombinator.com/item?id=25561392","originalUrl":"https://nonpolynomial.com/2020/12/28/buttplug-hits-v1-milestone/","imageRemote":"https://nonpolynomial.com/wp-content/uploads/2020/12/buttplug_rust_docs.png","video":null,"channel":null,"channelUrl":null,"author":"qdot76367","authorUrl":"https://news.ycombinator.com/user?id=qdot76367","authorImage":null,"authorSlug":null,"score":316,"views":null,"sharedCount":null,"likeCount":null,"sharedContent":null,"parent":{"__typename":"HnJson","localize":[{"title":"ButtPlug(性玩具控制库)达到v1里程碑","locale":"zh"},{"title":"ButtPlug(性玩具控制庫)達到v1里程碑","locale":"zh-Hant"}]}},{"__typename":"SocialMediaPost","id":"HnPost-25561127","excerpt":"","slug":"/hn/25561127","title":"How AWS Added Apple Mac Mini Nodes to EC2","date":"December 28, 2020","dateISO":"2020-12-28T21:59:57.596Z","datetime":"2020-12-28 21:59","tags":["story","Hacker News"],"image":null,"imageAlt":null,"provider":"Hacker News","thirdPartyId":"25561127","url":"https://news.ycombinator.com/item?id=25561127","originalUrl":"https://www.servethehome.com/how-aws-added-apple-mac-mini-nodes-to-ec2/","imageRemote":"https://www.servethehome.com/wp-content/uploads/2020/12/AWS-EC2-Apple-Mac-Mini-Node-in-Rack-Cover.jpg","video":null,"channel":null,"channelUrl":null,"author":"tambourine_man","authorUrl":"https://news.ycombinator.com/user?id=tambourine_man","authorImage":null,"authorSlug":null,"score":195,"views":null,"sharedCount":null,"likeCount":null,"sharedContent":null,"parent":{"__typename":"HnJson","localize":[{"title":"AWS如何将Apple Mac Mini节点添加到EC2","locale":"zh"},{"title":"AWS如何將Apple Mac Mini節點添加到EC2","locale":"zh-Hant"}]}},{"__typename":"SocialMediaPost","id":"HnPost-25562241","excerpt":"","slug":"/hn/25562241","title":"Anonymously call out the bad behavior of “ghosting” by recruiters","date":"December 28, 2020","dateISO":"2020-12-28T21:24:27.461Z","datetime":"2020-12-28 21:24","tags":["story","Hacker News"],"image":null,"imageAlt":null,"provider":"Hacker News","thirdPartyId":"25562241","url":"https://news.ycombinator.com/item?id=25562241","originalUrl":"http://ghostreply.com","imageRemote":"https://s3.amazonaws.com/appforest_uf/f1608920760120x448306660918405000/8-2-ghost-png-picture.png","video":null,"channel":null,"channelUrl":null,"author":"GeeRep","authorUrl":"https://news.ycombinator.com/user?id=GeeRep","authorImage":null,"authorSlug":null,"score":222,"views":null,"sharedCount":null,"likeCount":null,"sharedContent":null,"parent":{"__typename":"HnJson","localize":[{"title":"匿名揭发招聘人员的“幽灵”不良行为","locale":"zh"},{"title":"匿名揭發招聘人員的“幽靈”不良行爲","locale":"zh-Hant"}]}},{"__typename":"SocialMediaPost","id":"HnPost-25556650","excerpt":"","slug":"/hn/25556650","title":"Raspberry Pi PCIe Devices","date":"December 28, 2020","dateISO":"2020-12-28T20:26:31.361Z","datetime":"2020-12-28 20:26","tags":["story","Hacker News"],"image":null,"imageAlt":null,"provider":"Hacker News","thirdPartyId":"25556650","url":"https://news.ycombinator.com/item?id=25556650","originalUrl":"https://pipci.jeffgeerling.com","imageRemote":"https://pipci.jeffgeerling.com/images/cm4-io-board-pcie-slot.jpeg","video":null,"channel":null,"channelUrl":null,"author":"geerlingguy","authorUrl":"https://news.ycombinator.com/user?id=geerlingguy","authorImage":null,"authorSlug":null,"score":190,"views":null,"sharedCount":null,"likeCount":null,"sharedContent":null,"parent":{"__typename":"HnJson","localize":[{"title":"树莓派PCIe器件","locale":"zh"},{"title":"樹莓派PCIe器件","locale":"zh-Hant"}]}},{"__typename":"SocialMediaPost","id":"HnPost-25558587","excerpt":"","slug":"/hn/25558587","title":"Average Rent in San Francisco Has Dropped $1k This Year","date":"December 28, 2020","dateISO":"2020-12-28T20:26:31.361Z","datetime":"2020-12-28 20:26","tags":["story","Hacker News"],"image":null,"imageAlt":null,"provider":"Hacker News","thirdPartyId":"25558587","url":"https://news.ycombinator.com/item?id=25558587","originalUrl":"http://socketsite.com/archives/2020/12/average-rent-in-san-francisco-has-dropped-1000-this-year.html","imageRemote":"http://socketsite.com/wp-content/uploads/2020/10/For-Rent-2020.jpg","video":null,"channel":null,"channelUrl":null,"author":"elsewhen","authorUrl":"https://news.ycombinator.com/user?id=elsewhen","authorImage":null,"authorSlug":null,"score":377,"views":null,"sharedCount":null,"likeCount":null,"sharedContent":null,"parent":{"__typename":"HnJson","localize":[{"title":"旧金山的平均租金今年下降了1000美元。","locale":"zh"},{"title":"舊金山的平均租金今年下降了1000美元。","locale":"zh-Hant"}]}},{"__typename":"SocialMediaPost","id":"HnPost-25558874","excerpt":"","slug":"/hn/25558874","title":"Images of the the samples returned to earth from the asteroid Ryugu","date":"December 28, 2020","dateISO":"2020-12-28T20:26:31.361Z","datetime":"2020-12-28 20:26","tags":["story","Hacker News"],"image":null,"imageAlt":null,"provider":"Hacker News","thirdPartyId":"25558874","url":"https://news.ycombinator.com/item?id=25558874","originalUrl":"http://www.hayabusa2.jaxa.jp/en/topics/20201225_samples/","imageRemote":null,"video":null,"channel":null,"channelUrl":null,"author":"naetius","authorUrl":"https://news.ycombinator.com/user?id=naetius","authorImage":null,"authorSlug":null,"score":510,"views":null,"sharedCount":null,"likeCount":null,"sharedContent":null,"parent":{"__typename":"HnJson","localize":[{"title":"从小行星琉球返回地球的样本图像","locale":"zh"},{"title":"從小行星琉球返回地球的樣本圖像","locale":"zh-Hant"}]}},{"__typename":"SocialMediaPost","id":"HnPost-25549042","excerpt":"","slug":"/hn/25549042","title":"The Guy I Almost Was (1998)","date":"December 28, 2020","dateISO":"2020-12-28T18:26:47.972Z","datetime":"2020-12-28 18:26","tags":["story","Hacker News"],"image":null,"imageAlt":null,"provider":"Hacker News","thirdPartyId":"25549042","url":"https://news.ycombinator.com/item?id=25549042","originalUrl":"http://www.electricsheepcomix.com/almostguy/","imageRemote":"http://www.electricsheepcomix.com/almostguy/images/title.png","video":null,"channel":null,"channelUrl":null,"author":"wallflower","authorUrl":"https://news.ycombinator.com/user?id=wallflower","authorImage":null,"authorSlug":null,"score":303,"views":null,"sharedCount":null,"likeCount":null,"sharedContent":null,"parent":{"__typename":"HnJson","localize":[{"title":"“我差点就是男人”(1998)","locale":"zh"},{"title":"“我差點就是男人”(1998)","locale":"zh-Hant"}]}},{"__typename":"SocialMediaPost","id":"HnPost-25559063","excerpt":"","slug":"/hn/25559063","title":"Stealing private documents through a bug in Google Docs","date":"December 28, 2020","dateISO":"2020-12-28T18:26:47.972Z","datetime":"2020-12-28 18:26","tags":["story","Hacker News"],"image":null,"imageAlt":null,"provider":"Hacker News","thirdPartyId":"25559063","url":"https://news.ycombinator.com/item?id=25559063","originalUrl":"https://savebreach.com/stealing-private-documents-through-a-google-docs-bug/","imageRemote":"https://savebreach.com/content/images/2020/12/Stealing-your-Google-Docs-through-a-postMessage-Exploit.png","video":null,"channel":null,"channelUrl":null,"author":"hackerpain","authorUrl":"https://news.ycombinator.com/user?id=hackerpain","authorImage":null,"authorSlug":null,"score":317,"views":null,"sharedCount":null,"likeCount":null,"sharedContent":null,"parent":{"__typename":"HnJson","localize":[{"title":"通过Google Docs中的漏洞窃取私人文档","locale":"zh"},{"title":"通過Google Docs中的漏洞竊取私人文檔","locale":"zh-Hant"}]}},{"__typename":"SocialMediaPost","id":"HnPost-25550732","excerpt":"","slug":"/hn/25550732","title":"Bash HTTP Monitoring Dashboard","date":"December 28, 2020","dateISO":"2020-12-28T17:55:16.967Z","datetime":"2020-12-28 17:55","tags":["story","Hacker News"],"image":null,"imageAlt":null,"provider":"Hacker News","thirdPartyId":"25550732","url":"https://news.ycombinator.com/item?id=25550732","originalUrl":"https://raymii.org/s/software/Bash_HTTP_Monitoring_Dashboard.html","imageRemote":"data:image/png;base64,iVBORw0KGgoAAAANSUhEUgAAADIAAAAKCAYAAAD2Fg1xAAABgElEQVQ4jb3VP0iVYRTH8c9waXBokog7OYhTXChuF3GIi4hoiJA4REQIOTgGtoWTg6ODs0SYComIXCJEMhpKtD9guUU0ujRFS0PQ8DzC24v3Pq+3S9/pnMOP8/7Ocx6el/OziRN0JXTD+I2xhK4WdeNteGmbu8IgC3jQQlfCZ0zgINHzJabwoQP+ClHGV1zGJXwRDJ/FDJZi3MBQE10dL2K8gZFOGE3REDZyyjLunKG7KAzZHfMaXjXp+QbXYlzBfrvmSuhBNaHrxQU8zdQW8RhrOe0snuB7zA/jd6p4n9HV8QMfY/4JPzGAt7meFfS18LdXEk7uemIQuJ/Lj6PZQezFWhm3cTWnXcAj3MrU5oWh5WpzGM3UurGNZy28HSa8J7mB3Uy+4u/rl+UdrsT4Jraa6F6jP5M3MP0PHguzL9zzqmC2GRNYjXF2qDzDwgbgHp53wGMhJrEunGQ9oT3CQ+GFasWBsLVvwiv5XygJz/JOAe208POrJHST+CVspBB/AFY9Q3+QJqLxAAAAAElFTkSuQmCC","video":null,"channel":null,"channelUrl":null,"author":"todsacerdoti","authorUrl":"https://news.ycombinator.com/user?id=todsacerdoti","authorImage":null,"authorSlug":null,"score":161,"views":null,"sharedCount":null,"likeCount":null,"sharedContent":null,"parent":{"__typename":"HnJson","localize":[{"title":"Bash HTTP监视仪表板","locale":"zh"},{"title":"Bash HTTP監視儀表板","locale":"zh-Hant"}]}},{"__typename":"SocialMediaPost","id":"HnPost-25542963","excerpt":"","slug":"/hn/25542963","title":"The Genius of RISC-V Microprocessors","date":"December 28, 2020","dateISO":"2020-12-28T13:40:37.009Z","datetime":"2020-12-28 13:40","tags":["story","Hacker News"],"image":null,"imageAlt":null,"provider":"Hacker News","thirdPartyId":"25542963","url":"https://news.ycombinator.com/item?id=25542963","originalUrl":"https://erik-engheim.medium.com/the-genius-of-risc-v-microprocessors-b19d735abaa6","imageRemote":"https://miro.medium.com/max/1200/1*rFUFoBNK7GAEe4hGynLqbg.png","video":null,"channel":null,"channelUrl":null,"author":"socialdemocrat","authorUrl":"https://news.ycombinator.com/user?id=socialdemocrat","authorImage":null,"authorSlug":null,"score":159,"views":null,"sharedCount":null,"likeCount":null,"sharedContent":null,"parent":{"__typename":"HnJson","localize":[{"title":"RISC-V微处理器的天才","locale":"zh"},{"title":"RISC-V微處理器的天才","locale":"zh-Hant"}]}},{"__typename":"SocialMediaPost","id":"HnPost-25557627","excerpt":"","slug":"/hn/25557627","title":"Zoomquilt 2 (2007)","date":"December 28, 2020","dateISO":"2020-12-28T13:40:37.008Z","datetime":"2020-12-28 13:40","tags":["story","Hacker News"],"image":null,"imageAlt":null,"provider":"Hacker News","thirdPartyId":"25557627","url":"https://news.ycombinator.com/item?id=25557627","originalUrl":"http://zoomquilt2.com/","imageRemote":"http://zoomquilt2.com/images/z_3.jpg","video":null,"channel":null,"channelUrl":null,"author":"shlomir","authorUrl":"https://news.ycombinator.com/user?id=shlomir","authorImage":null,"authorSlug":null,"score":230,"views":null,"sharedCount":null,"likeCount":null,"sharedContent":null,"parent":{"__typename":"HnJson","localize":[{"title":"“疯狂动物被子2”(2007)","locale":"zh"},{"title":"“瘋狂動物被子2”(2007)","locale":"zh-Hant"}]}},{"__typename":"SocialMediaPost","id":"HnPost-25551950","excerpt":"","slug":"/hn/25551950","title":"APIs All the Way Down","date":"December 28, 2020","dateISO":"2020-12-28T12:38:25.646Z","datetime":"2020-12-28 12:38","tags":["story","Hacker News"],"image":null,"imageAlt":null,"provider":"Hacker News","thirdPartyId":"25551950","url":"https://news.ycombinator.com/item?id=25551950","originalUrl":"https://notboring.substack.com/p/apis-all-the-way-down","imageRemote":"https://cdn.substack.com/image/fetch/h_600,c_limit,f_auto,q_auto:good,fl_progressive:steep/https%3A%2F%2Fbucketeer-e05bbc84-baa3-437e-9518-adb32be77984.s3.amazonaws.com%2Fpublic%2Fimages%2Fbdb49076-dbf0-48cd-b1ba-a6431efb035b_1000x1000.png","video":null,"channel":null,"channelUrl":null,"author":"iamacyborg","authorUrl":"https://news.ycombinator.com/user?id=iamacyborg","authorImage":null,"authorSlug":null,"score":158,"views":null,"sharedCount":null,"likeCount":null,"sharedContent":null,"parent":{"__typename":"HnJson","localize":[{"title":"API一路向下","locale":"zh"},{"title":"API一路向下","locale":"zh-Hant"}]}},{"__typename":"SocialMediaPost","id":"HnPost-25557515","excerpt":"","slug":"/hn/25557515","title":"The Fight for WorldBox","date":"December 28, 2020","dateISO":"2020-12-28T11:51:54.195Z","datetime":"2020-12-28 11:51","tags":["story","Hacker News"],"image":null,"imageAlt":null,"provider":"Hacker News","thirdPartyId":"25557515","url":"https://news.ycombinator.com/item?id=25557515","originalUrl":"https://www.reddit.com/r/Worldbox/comments/jmplqw/the_fight_for_worldbox_or_how_a_game_you_worked/","imageRemote":"https://www.redditstatic.com/desktop2x/img/renderTimingPixel.png","video":null,"channel":null,"channelUrl":null,"author":"doppp","authorUrl":"https://news.ycombinator.com/user?id=doppp","authorImage":null,"authorSlug":null,"score":326,"views":null,"sharedCount":null,"likeCount":null,"sharedContent":null,"parent":{"__typename":"HnJson","localize":[{"title":"为WorldBox而战","locale":"zh"},{"title":"爲WorldBox而戰","locale":"zh-Hant"}]}},{"__typename":"SocialMediaPost","id":"HnPost-25557113","excerpt":"","slug":"/hn/25557113","title":"The poison found in everyone, even unborn babies – and who is responsible for it","date":"December 28, 2020","dateISO":"2020-12-28T10:33:34.352Z","datetime":"2020-12-28 10:33","tags":["story","Hacker News"],"image":null,"imageAlt":null,"provider":"Hacker News","thirdPartyId":"25557113","url":"https://news.ycombinator.com/item?id=25557113","originalUrl":"https://www.theguardian.com/commentisfree/2020/dec/17/dark-waters-pfas-ticking-chemical-time-bomb-in-your-blood","imageRemote":"https://i.guim.co.uk/img/media/ce2e0754c56399888d51fb5da4a86d971089b047/0_211_3500_2100/master/3500.jpg?width=1200&height=630&quality=85&auto=format&fit=crop&overlay-align=bottom%2Cleft&overlay-width=100p&overlay-base64=L2ltZy9zdGF0aWMvb3ZlcmxheXMvdGctb3BpbmlvbnMucG5n&enable=upscale&s=df41dade3a6324f86197f10875a319ad","video":null,"channel":null,"channelUrl":null,"author":"jelliclesfarm","authorUrl":"https://news.ycombinator.com/user?id=jelliclesfarm","authorImage":null,"authorSlug":null,"score":403,"views":null,"sharedCount":null,"likeCount":null,"sharedContent":null,"parent":{"__typename":"HnJson","localize":[{"title":"在每个人身上发现的毒药，甚至是未出生的婴儿-以及谁应该对此负责","locale":"zh"},{"title":"在每個人身上發現的毒藥，甚至是未出生的嬰兒-以及誰應該對此負責","locale":"zh-Hant"}]}}]}},"pageContext":{"basePath":"/","pageType":"tag","tag":"Hacker News","tagsFilter":{"id":{"glob":"!*Post-1"}},"filter":{"id":{"glob":"!*Post-1"},"tags":{"eq":"Hacker News"}},"limit":25,"skip":425,"total":911,"totalPages":37,"currentPage":18,"maxWidth":1024,"maxHeight":512,"locale":"zh-Hant","hrefLang":"zh-Hant","originalPath":"/tags/hacker-news/page/18","dateFormat":"YYYY-MM-DD"}},"staticQueryHashes":["1239077767","2506312863","2744905544","3025052997","3493603132","3493603132","3513215887","386998304"]}