{"componentChunkName":"component---gatsby-theme-buzzing-src-gatsby-theme-timeline-templates-posts-query-js","path":"/tags/story/page/3","result":{"data":{"site":{"siteMetadata":{"title":"Reddit 热门","description":"用中文浏览Reddit热门内容","social":[{"name":"Twitter","url":"https://twitter.com/gatsbyjs","external":null,"prefetch":null},{"name":"GitHub","url":"https://github.com/gatsbyjs","external":null,"prefetch":null}],"menuLinks":[],"localize":[{"locale":"en","title":"Buzzing on Reddit","description":"See what's buzzing on Reddit in your native language","social":[{"name":"Reddit","url":"https://www.reddit.com/","external":true,"prefetch":null}],"menuLinks":[{"name":"Weekly Selection","url":"/issues","external":null,"prefetch":null},{"name":"RSS","url":"/rss.xml","external":null,"prefetch":false}]},{"locale":"zh-Hant","title":"Reddit 熱門","description":"用中文瀏覽Reddit熱門內容","social":null,"menuLinks":null}]}},"tagsGroup":{"group":[{"fieldValue":"ASK HN","totalCount":22},{"fieldValue":"Bitcoin","totalCount":3},{"fieldValue":"Hacker News","totalCount":920},{"fieldValue":"Poll","totalCount":1},{"fieldValue":"Show HN","totalCount":34},{"fieldValue":"investing","totalCount":197},{"fieldValue":"poll","totalCount":1},{"fieldValue":"reddit","totalCount":777},{"fieldValue":"science","totalCount":1},{"fieldValue":"stocks","totalCount":336},{"fieldValue":"story","totalCount":919},{"fieldValue":"tweet","totalCount":275},{"fieldValue":"wallstreetbets","totalCount":244}]},"allBlogPost":{"nodes":[{"__typename":"SocialMediaPost","id":"HnPost-25751808","excerpt":"","slug":"/hn/25751808","title":"If it will matter after today, don't talk about it in a chat room","date":"January 12, 2021","dateISO":"2021-01-12T20:44:49.459Z","datetime":"2021-01-12 20:44","tags":["story","Hacker News"],"image":null,"imageAlt":null,"provider":"Hacker News","thirdPartyId":"25751808","url":"https://news.ycombinator.com/item?id=25751808","originalUrl":"https://critter.blog/2021/01/12/if-it-matters-after-today-stop-talking-about-it-in-a-chat-room/","imageRemote":"https://mikecrittendenhome.files.wordpress.com/2021/01/stephen-phillips-hostreviews-co-uk-ae0ix-blcjc-unsplash.jpg?w=1200","video":null,"channel":null,"channelUrl":null,"author":"mcrittenden","authorUrl":"https://news.ycombinator.com/user?id=mcrittenden","authorImage":null,"authorSlug":null,"score":227,"views":null,"sharedCount":null,"likeCount":null,"sharedContent":null,"parent":{"__typename":"HnJson","localize":[{"title":"如果过了今天就有关系了，就不要在聊天室里说了。","locale":"zh"},{"title":"如果過了今天就有關係了，就不要在聊天室裏說了。","locale":"zh-Hant"}]}},{"__typename":"SocialMediaPost","id":"HnPost-25744251","excerpt":"","slug":"/hn/25744251","title":"Signal Fork with WhatsApp Migration","date":"January 12, 2021","dateISO":"2021-01-12T17:42:57.735Z","datetime":"2021-01-12 17:42","tags":["story","Hacker News"],"image":null,"imageAlt":null,"provider":"Hacker News","thirdPartyId":"25744251","url":"https://news.ycombinator.com/item?id=25744251","originalUrl":"https://github.com/jukefoxer/Signal-Android/tree/feature/wa-db-import","imageRemote":"https://avatars3.githubusercontent.com/u/30292742?s=400&v=4","video":null,"channel":null,"channelUrl":null,"author":"lsblk","authorUrl":"https://news.ycombinator.com/user?id=lsblk","authorImage":null,"authorSlug":null,"score":212,"views":null,"sharedCount":null,"likeCount":null,"sharedContent":null,"parent":{"__typename":"HnJson","localize":[{"title":"WhatsApp迁移的信号分叉","locale":"zh"},{"title":"WhatsApp遷移的信號分叉","locale":"zh-Hant"}]}},{"__typename":"SocialMediaPost","id":"HnPost-25744661","excerpt":"","slug":"/hn/25744661","title":"I received my first donation on my open-source side project and it felt great","date":"January 12, 2021","dateISO":"2021-01-12T17:42:57.735Z","datetime":"2021-01-12 17:42","tags":["story","Hacker News"],"image":null,"imageAlt":null,"provider":"Hacker News","thirdPartyId":"25744661","url":"https://news.ycombinator.com/item?id=25744661","originalUrl":"https://gourav.io/blog/first-donation-on-open-source-side-project","imageRemote":"https://gourav.io/_next/static/media/pages/blog/first-donation-on-open-source-side-project/og.png","video":null,"channel":null,"channelUrl":null,"author":"jerrygoyal","authorUrl":"https://news.ycombinator.com/user?id=jerrygoyal","authorImage":null,"authorSlug":null,"score":229,"views":null,"sharedCount":null,"likeCount":null,"sharedContent":null,"parent":{"__typename":"HnJson","localize":[{"title":"我收到了我的开源项目的第一笔捐款，感觉很棒","locale":"zh"},{"title":"我收到了我的開源項目的第一筆捐款，感覺很棒","locale":"zh-Hant"}]}},{"__typename":"SocialMediaPost","id":"HnPost-25745615","excerpt":"","slug":"/hn/25745615","title":"Plain Text Accounting","date":"January 12, 2021","dateISO":"2021-01-12T17:42:57.735Z","datetime":"2021-01-12 17:42","tags":["story","Hacker News"],"image":null,"imageAlt":null,"provider":"Hacker News","thirdPartyId":"25745615","url":"https://news.ycombinator.com/item?id=25745615","originalUrl":"https://plaintextaccounting.org/","imageRemote":"https://img.shields.io/github/stars/plaintextaccounting/plaintextaccounting.github.io.svg?style=social&label=Github","video":null,"channel":null,"channelUrl":null,"author":"sundarurfriend","authorUrl":"https://news.ycombinator.com/user?id=sundarurfriend","authorImage":null,"authorSlug":null,"score":204,"views":null,"sharedCount":null,"likeCount":null,"sharedContent":null,"parent":{"__typename":"HnJson","localize":[{"title":"明文记帐","locale":"zh"},{"title":"明文記帳","locale":"zh-Hant"}]}},{"__typename":"SocialMediaPost","id":"HnPost-25747659","excerpt":"","slug":"/hn/25747659","title":"How Silicon Valley, in a Show of Monopolistic Force, Destroyed Parler","date":"January 12, 2021","dateISO":"2021-01-12T17:42:57.734Z","datetime":"2021-01-12 17:42","tags":["story","Hacker News"],"image":null,"imageAlt":null,"provider":"Hacker News","thirdPartyId":"25747659","url":"https://news.ycombinator.com/item?id=25747659","originalUrl":"https://greenwald.substack.com/p/how-silicon-valley-in-a-show-of-monopolistic","imageRemote":"https://cdn.substack.com/image/fetch/h_600,c_limit,f_auto,q_auto:good,fl_progressive:steep/https%3A%2F%2Fbucketeer-e05bbc84-baa3-437e-9518-adb32be77984.s3.amazonaws.com%2Fpublic%2Fimages%2F5bf83518-22df-4333-a423-63fbb59cb9a2_4032x3024.jpeg","video":null,"channel":null,"channelUrl":null,"author":"amadeuspagel","authorUrl":"https://news.ycombinator.com/user?id=amadeuspagel","authorImage":null,"authorSlug":null,"score":250,"views":null,"sharedCount":null,"likeCount":null,"sharedContent":null,"parent":{"__typename":"HnJson","localize":[{"title":"硅谷如何在一场垄断力量的展示中摧毁了帕勒","locale":"zh"},{"title":"硅谷如何在一場壟斷力量的展示中摧毀了帕勒","locale":"zh-Hant"}]}},{"__typename":"SocialMediaPost","id":"HnPost-25747284","excerpt":"","slug":"/hn/25747284","title":"Sci-Hub Is Now on the ‘Uncensorable Web’","date":"January 12, 2021","dateISO":"2021-01-12T15:47:14.563Z","datetime":"2021-01-12 15:47","tags":["story","Hacker News"],"image":null,"imageAlt":null,"provider":"Hacker News","thirdPartyId":"25747284","url":"https://news.ycombinator.com/item?id=25747284","originalUrl":"https://www.nasdaq.com/articles/pirated-academic-database-sci-hub-is-now-on-the-uncensorable-web-2021-01-11","imageRemote":null,"video":null,"channel":null,"channelUrl":null,"author":"rasengan","authorUrl":"https://news.ycombinator.com/user?id=rasengan","authorImage":null,"authorSlug":null,"score":259,"views":null,"sharedCount":null,"likeCount":null,"sharedContent":null,"parent":{"__typename":"HnJson","localize":[{"title":"SCI-Hub现在出现在“不受监控的网络”上","locale":"zh"},{"title":"SCI-Hub現在出現在“不受監控的網絡”上","locale":"zh-Hant"}]}},{"__typename":"SocialMediaPost","id":"HnPost-25743546","excerpt":"","slug":"/hn/25743546","title":"Lulu – Mac open-source firewall that aims to block unknown outgoing connections","date":"January 12, 2021","dateISO":"2021-01-12T15:15:23.411Z","datetime":"2021-01-12 15:15","tags":["story","Hacker News"],"image":null,"imageAlt":null,"provider":"Hacker News","thirdPartyId":"25743546","url":"https://news.ycombinator.com/item?id=25743546","originalUrl":"https://objective-see.com/products/lulu.html","imageRemote":"https://objective-see.com/images/LL/alert.png","video":null,"channel":null,"channelUrl":null,"author":"tambourine_man","authorUrl":"https://news.ycombinator.com/user?id=tambourine_man","authorImage":null,"authorSlug":null,"score":213,"views":null,"sharedCount":null,"likeCount":null,"sharedContent":null,"parent":{"__typename":"HnJson","localize":[{"title":"Lulu-Mac开源防火墙，针对挡路未知出站连接","locale":"zh"},{"title":"Lulu-Mac開源防火牆，針對擋路未知出站連接","locale":"zh-Hant"}]}},{"__typename":"SocialMediaPost","id":"HnPost-25741858","excerpt":"","slug":"/hn/25741858","title":"Two Worlds: So Much Prosperity, So Much Skepticism","date":"January 12, 2021","dateISO":"2021-01-12T14:48:05.158Z","datetime":"2021-01-12 14:48","tags":["story","Hacker News"],"image":null,"imageAlt":null,"provider":"Hacker News","thirdPartyId":"25741858","url":"https://news.ycombinator.com/item?id=25741858","originalUrl":"https://www.collaborativefund.com/blog/two-worlds/","imageRemote":"http://www.collaborativefund.com/uploads/ashkan-forouzani-VlBygHw4K3I-unsplash.jpg","video":null,"channel":null,"channelUrl":null,"author":"loosetypes","authorUrl":"https://news.ycombinator.com/user?id=loosetypes","authorImage":null,"authorSlug":null,"score":201,"views":null,"sharedCount":null,"likeCount":null,"sharedContent":null,"parent":{"__typename":"HnJson","localize":[{"title":"两个世界：如此繁荣，如此怀疑","locale":"zh"},{"title":"兩個世界：如此繁榮，如此懷疑","locale":"zh-Hant"}]}},{"__typename":"SocialMediaPost","id":"HnPost-25741972","excerpt":"","slug":"/hn/25741972","title":"Moderna is announcing three new vaccine programs","date":"January 12, 2021","dateISO":"2021-01-12T10:05:35.278Z","datetime":"2021-01-12 10:05","tags":["story","Hacker News"],"image":null,"imageAlt":null,"provider":"Hacker News","thirdPartyId":"25741972","url":"https://news.ycombinator.com/item?id=25741972","originalUrl":"https://investors.modernatx.com/news-releases/news-release-details/moderna-provides-business-update-and-announces-three-new","imageRemote":"https://cts.businesswire.com/ct/CT?id=bwnews&sty=20210111005580r1&sid=acqr8&distro=nx&lang=en","video":null,"channel":null,"channelUrl":null,"author":"Osiris30","authorUrl":"https://news.ycombinator.com/user?id=Osiris30","authorImage":null,"authorSlug":null,"score":202,"views":null,"sharedCount":null,"likeCount":null,"sharedContent":null,"parent":{"__typename":"HnJson","localize":[{"title":"莫德纳宣布了三个新的疫苗项目","locale":"zh"},{"title":"莫德納宣佈了三個新的疫苗項目","locale":"zh-Hant"}]}},{"__typename":"SocialMediaPost","id":"HnPost-25741729","excerpt":"","slug":"/hn/25741729","title":"Theseus: A modern experimental OS written from scratch in Rust","date":"January 12, 2021","dateISO":"2021-01-12T09:22:23.662Z","datetime":"2021-01-12 09:22","tags":["story","Hacker News"],"image":null,"imageAlt":null,"provider":"Hacker News","thirdPartyId":"25741729","url":"https://news.ycombinator.com/item?id=25741729","originalUrl":"https://github.com/theseus-os/Theseus","imageRemote":"https://avatars3.githubusercontent.com/u/42755277?s=400&v=4","video":null,"channel":null,"channelUrl":null,"author":"metalwhale","authorUrl":"https://news.ycombinator.com/user?id=metalwhale","authorImage":null,"authorSlug":null,"score":210,"views":null,"sharedCount":null,"likeCount":null,"sharedContent":null,"parent":{"__typename":"HnJson","localize":[{"title":"Teseus：一个用铁锈白手起家的现代实验操作系统","locale":"zh"},{"title":"Teseus：一個用鐵鏽白手起家的現代實驗操作系統","locale":"zh-Hant"}]}},{"__typename":"SocialMediaPost","id":"HnPost-25742276","excerpt":"","slug":"/hn/25742276","title":"Amazon Echo Flex Teardown: Microphone Mute, Real or Fake?","date":"January 12, 2021","dateISO":"2021-01-12T08:49:54.035Z","datetime":"2021-01-12 08:49","tags":["story","Hacker News"],"image":null,"imageAlt":null,"provider":"Hacker News","thirdPartyId":"25742276","url":"https://news.ycombinator.com/item?id=25742276","originalUrl":"https://electronupdate.blogspot.com/2021/01/amazon-echo-flex-microphone-mute-real.html","imageRemote":"https://1.bp.blogspot.com/-w-OdOP8R-XA/X_W4e3hgxWI/AAAAAAAABgY/_EmKhHLtksAoFbLJEjZmGVk-JZ9X-_kowCLcBGAsYHQ/w1200-h630-p-k-no-nu/mute1.png","video":null,"channel":null,"channelUrl":null,"author":"parsecs","authorUrl":"https://news.ycombinator.com/user?id=parsecs","authorImage":null,"authorSlug":null,"score":209,"views":null,"sharedCount":null,"likeCount":null,"sharedContent":null,"parent":{"__typename":"HnJson","localize":[{"title":"亚马逊Echo Flex Teardown：麦克风静音，真的还是假的？","locale":"zh"},{"title":"亞馬遜Echo Flex Teardown：麥克風靜音，真的還是假的？","locale":"zh-Hant"}]}},{"__typename":"SocialMediaPost","id":"HnPost-25730778","excerpt":"","slug":"/hn/25730778","title":"A bit on scaling chess.com's database","date":"January 12, 2021","dateISO":"2021-01-12T08:00:30.922Z","datetime":"2021-01-12 08:00","tags":["story","Hacker News"],"image":null,"imageAlt":null,"provider":"Hacker News","thirdPartyId":"25730778","url":"https://news.ycombinator.com/item?id=25730778","originalUrl":"https://unstructed.tech/2021/01/11/your-legacy-database-is-outgrowing-itself/","imageRemote":"https://unstructed.tech/wp-content/uploads/2021/01/server-2160321_1920.jpg","video":null,"channel":null,"channelUrl":null,"author":"ikonic89","authorUrl":"https://news.ycombinator.com/user?id=ikonic89","authorImage":null,"authorSlug":null,"score":200,"views":null,"sharedCount":null,"likeCount":null,"sharedContent":null,"parent":{"__typename":"HnJson","localize":[{"title":"略论扩展chess.com的数据库","locale":"zh"},{"title":"略論擴展chess.com的數據庫","locale":"zh-Hant"}]}},{"__typename":"SocialMediaPost","id":"HnPost-25733406","excerpt":"","slug":"/hn/25733406","title":"Intruder at the top of the 20 meter amateur band?","date":"January 12, 2021","dateISO":"2021-01-12T05:55:19.254Z","datetime":"2021-01-12 05:55","tags":["story","Hacker News"],"image":null,"imageAlt":null,"provider":"Hacker News","thirdPartyId":"25733406","url":"https://news.ycombinator.com/item?id=25733406","originalUrl":"http://ka7oei.blogspot.com/2020/12/intruder-at-top-of-20-meter-amateur-band.html","imageRemote":"https://1.bp.blogspot.com/-w2YHSwRm1rc/X9Y7-hLdioI/AAAAAAAAHks/woUvfkPtuM8_cy7D2cej26TsI3Zue1gSQCLcBGAsYHQ/w1200-h630-p-k-no-nu/wide_signal_20m_2a.jpg","video":null,"channel":null,"channelUrl":null,"author":"lmh","authorUrl":"https://news.ycombinator.com/user?id=lmh","authorImage":null,"authorSlug":null,"score":205,"views":null,"sharedCount":null,"likeCount":null,"sharedContent":null,"parent":{"__typename":"HnJson","localize":[{"title":"20米业余乐队顶端的入侵者？","locale":"zh"},{"title":"20米業餘樂隊頂端的入侵者？","locale":"zh-Hant"}]}},{"__typename":"SocialMediaPost","id":"HnPost-25737611","excerpt":"","slug":"/hn/25737611","title":"My ISP Is Killing My Idle SSH Sessions","date":"January 12, 2021","dateISO":"2021-01-12T05:55:19.254Z","datetime":"2021-01-12 05:55","tags":["story","Hacker News"],"image":null,"imageAlt":null,"provider":"Hacker News","thirdPartyId":"25737611","url":"https://news.ycombinator.com/item?id=25737611","originalUrl":"https://anderstrier.dk/2021/01/11/my-isp-is-killing-my-idle-ssh-sessions-yours-might-be-too/","imageRemote":"https://anderstrier.dk/wp-content/uploads/2020/12/ssh-session-clientside.png","video":null,"channel":null,"channelUrl":null,"author":"anderstrier","authorUrl":"https://news.ycombinator.com/user?id=anderstrier","authorImage":null,"authorSlug":null,"score":205,"views":null,"sharedCount":null,"likeCount":null,"sharedContent":null,"parent":{"__typename":"HnJson","localize":[{"title":"我的ISP正在扼杀我的空闲SSH会话","locale":"zh"},{"title":"我的ISP正在扼殺我的空閒SSH會話","locale":"zh-Hant"}]}},{"__typename":"SocialMediaPost","id":"HnPost-25728198","excerpt":"","slug":"/hn/25728198","title":"How to Become a Data Engineer in 2021","date":"January 12, 2021","dateISO":"2021-01-12T02:48:05.600Z","datetime":"2021-01-12 02:48","tags":["story","Hacker News"],"image":null,"imageAlt":null,"provider":"Hacker News","thirdPartyId":"25728198","url":"https://news.ycombinator.com/item?id=25728198","originalUrl":"https://khashtamov.com/en/how-to-become-a-data-engineer/","imageRemote":"https://khashtamov.com/uploads/redactor/1_7IMev5xslc9FLxr9hHhpFw.png","video":null,"channel":null,"channelUrl":null,"author":"adilkhash","authorUrl":"https://news.ycombinator.com/user?id=adilkhash","authorImage":null,"authorSlug":null,"score":212,"views":null,"sharedCount":null,"likeCount":null,"sharedContent":null,"parent":{"__typename":"HnJson","localize":[{"title":"如何在2021年成为一名数据工程师","locale":"zh"},{"title":"如何在2021年成爲一名數據工程師","locale":"zh-Hant"}]}},{"__typename":"SocialMediaPost","id":"HnPost-25735451","excerpt":"","slug":"/hn/25735451","title":"We Need a New Media System","date":"January 12, 2021","dateISO":"2021-01-12T01:31:40.444Z","datetime":"2021-01-12 01:31","tags":["story","Hacker News"],"image":null,"imageAlt":null,"provider":"Hacker News","thirdPartyId":"25735451","url":"https://news.ycombinator.com/item?id=25735451","originalUrl":"https://taibbi.substack.com/p/we-need-a-new-media-system","imageRemote":"https://cdn.substack.com/image/fetch/h_600,c_limit,f_auto,q_auto:good,fl_progressive:steep/https%3A%2F%2Fbucketeer-e05bbc84-baa3-437e-9518-adb32be77984.s3.amazonaws.com%2Fpublic%2Fimages%2F77b4d018-c8a6-4c32-8cc7-98d786a2281f_2219x1201.png","video":null,"channel":null,"channelUrl":null,"author":"Reedx","authorUrl":"https://news.ycombinator.com/user?id=Reedx","authorImage":null,"authorSlug":null,"score":204,"views":null,"sharedCount":null,"likeCount":null,"sharedContent":null,"parent":{"__typename":"HnJson","localize":[{"title":"我们需要一个新的媒体系统","locale":"zh"},{"title":"我們需要一個新的媒體系統","locale":"zh-Hant"}]}},{"__typename":"SocialMediaPost","id":"HnPost-25736155","excerpt":"","slug":"/hn/25736155","title":"Poland Justice Minister announces online freedom of speech bill","date":"January 12, 2021","dateISO":"2021-01-12T01:31:40.444Z","datetime":"2021-01-12 01:31","tags":["story","Hacker News"],"image":null,"imageAlt":null,"provider":"Hacker News","thirdPartyId":"25736155","url":"https://news.ycombinator.com/item?id=25736155","originalUrl":"https://polandin.com/51388314/justice-minister-announces-online-freedom-of-speech-bill","imageRemote":"http://s10.tvp.pl/images2/0/6/e/uid_06e8435fb29de0d047b646ea085c0a061608275303404_width_960_play_0_pos_0_gs_0_height_540.jpg","video":null,"channel":null,"channelUrl":null,"author":"andrenth","authorUrl":"https://news.ycombinator.com/user?id=andrenth","authorImage":null,"authorSlug":null,"score":204,"views":null,"sharedCount":null,"likeCount":null,"sharedContent":null,"parent":{"__typename":"HnJson","localize":[{"title":"波兰司法部长宣布网上言论自由法案","locale":"zh"},{"title":"波蘭司法部長宣佈網上言論自由法案","locale":"zh-Hant"}]}},{"__typename":"SocialMediaPost","id":"HnPost-25731699","excerpt":"","slug":"/hn/25731699","title":"Simple Anomaly Detection Using Plain SQL","date":"January 11, 2021","dateISO":"2021-01-11T23:58:58.936Z","datetime":"2021-01-11 23:58","tags":["story","Hacker News"],"image":null,"imageAlt":null,"provider":"Hacker News","thirdPartyId":"25731699","url":"https://news.ycombinator.com/item?id=25731699","originalUrl":"https://hakibenita.com/sql-anomaly-detection","imageRemote":"https://hakibenita.com/images/00-sql-anomaly-detection-backtest-30-3-360.png","video":null,"channel":null,"channelUrl":null,"author":"harporoeder","authorUrl":"https://news.ycombinator.com/user?id=harporoeder","authorImage":null,"authorSlug":null,"score":201,"views":null,"sharedCount":null,"likeCount":null,"sharedContent":null,"parent":{"__typename":"HnJson","localize":[{"title":"基于纯SQL的简单异常检测","locale":"zh"},{"title":"基於純SQL的簡單異常檢測","locale":"zh-Hant"}]}},{"__typename":"SocialMediaPost","id":"HnPost-25737811","excerpt":"","slug":"/hn/25737811","title":"Facebook Says It Is Removing All Content Mentioning 'Stop the Steal'","date":"January 11, 2021","dateISO":"2021-01-11T23:58:58.936Z","datetime":"2021-01-11 23:58","tags":["story","Hacker News"],"image":null,"imageAlt":null,"provider":"Hacker News","thirdPartyId":"25737811","url":"https://news.ycombinator.com/item?id=25737811","originalUrl":"https://www.wsj.com/articles/facebook-says-it-is-removing-all-content-mentioning-stop-the-steal-11610401305","imageRemote":"https://images.wsj.net/im-283758/social","video":null,"channel":null,"channelUrl":null,"author":"admiralspoo","authorUrl":"https://news.ycombinator.com/user?id=admiralspoo","authorImage":null,"authorSlug":null,"score":235,"views":null,"sharedCount":null,"likeCount":null,"sharedContent":null,"parent":{"__typename":"HnJson","localize":[{"title":"Facebook称将删除所有提及“停止偷窃”的内容","locale":"zh"},{"title":"Facebook稱將刪除所有提及“停止偷竊”的內容","locale":"zh-Hant"}]}},{"__typename":"SocialMediaPost","id":"HnPost-25738457","excerpt":"","slug":"/hn/25738457","title":"Citing 'Censorship' Concerns, North Idaho ISP Blocks Facebook, Twitter","date":"January 11, 2021","dateISO":"2021-01-11T23:58:58.936Z","datetime":"2021-01-11 23:58","tags":["story","Hacker News"],"image":null,"imageAlt":null,"provider":"Hacker News","thirdPartyId":"25738457","url":"https://news.ycombinator.com/item?id=25738457","originalUrl":"https://www.kgw.com/article/news/local/idaho-internet-provider-blocks-facebook-and-twitter/293-867cc22b-fb90-4142-a296-8d800d2a03fb","imageRemote":"https://media.kgw.com/assets/KARE/images/352373316/352373316_1140x641.jpg","video":null,"channel":null,"channelUrl":null,"author":"thereare5lights","authorUrl":"https://news.ycombinator.com/user?id=thereare5lights","authorImage":null,"authorSlug":null,"score":270,"views":null,"sharedCount":null,"likeCount":null,"sharedContent":null,"parent":{"__typename":"HnJson","localize":[{"title":"北爱达荷州ISP以“审查”担忧为由屏蔽Facebook和Twitter","locale":"zh"},{"title":"北愛達荷州ISP以“審查”擔憂爲由屏蔽Facebook和Twitter","locale":"zh-Hant"}]}},{"__typename":"SocialMediaPost","id":"HnPost-25737011","excerpt":"","slug":"/hn/25737011","title":"FBI warns of plans for nationwide armed protests next week","date":"January 11, 2021","dateISO":"2021-01-11T23:16:10.668Z","datetime":"2021-01-11 23:16","tags":["story","Hacker News"],"image":null,"imageAlt":null,"provider":"Hacker News","thirdPartyId":"25737011","url":"https://news.ycombinator.com/item?id=25737011","originalUrl":"https://www.seattletimes.com/nation-world/nation/fbi-warns-of-plans-for-nationwide-armed-protests-next-week/","imageRemote":"https://static.seattletimes.com/wp-content/uploads/2021/01/01112021_FBI-warn2_tzr_120540-375x241.jpg","video":null,"channel":null,"channelUrl":null,"author":"ali92hm","authorUrl":"https://news.ycombinator.com/user?id=ali92hm","authorImage":null,"authorSlug":null,"score":240,"views":null,"sharedCount":null,"likeCount":null,"sharedContent":null,"parent":{"__typename":"HnJson","localize":[{"title":"FBI警告下周全国范围内的武装抗议计划","locale":"zh"},{"title":"FBI警告下週全國範圍內的武裝抗議計劃","locale":"zh-Hant"}]}},{"__typename":"SocialMediaPost","id":"HnPost-25728504","excerpt":"","slug":"/hn/25728504","title":"Tim Berners-Lee wants to put people in control of their personal data","date":"January 11, 2021","dateISO":"2021-01-11T21:36:52.119Z","datetime":"2021-01-11 21:36","tags":["story","Hacker News"],"image":null,"imageAlt":null,"provider":"Hacker News","thirdPartyId":"25728504","url":"https://news.ycombinator.com/item?id=25728504","originalUrl":"https://www.nytimes.com/2021/01/10/technology/tim-berners-lee-privacy-internet.html","imageRemote":"https://static01.nyt.com/images/2021/01/11/business/10BERNERS-LEE1-print/10BERNERS-LEE1-facebookJumbo.jpg","video":null,"channel":null,"channelUrl":null,"author":"IvanSologub","authorUrl":"https://news.ycombinator.com/user?id=IvanSologub","authorImage":null,"authorSlug":null,"score":203,"views":null,"sharedCount":null,"likeCount":null,"sharedContent":null,"parent":{"__typename":"HnJson","localize":[{"title":"蒂姆·伯纳斯-李希望让人们控制他们的个人数据","locale":"zh"},{"title":"蒂姆·伯納斯-李希望讓人們控制他們的個人數據","locale":"zh-Hant"}]}},{"__typename":"SocialMediaPost","id":"HnPost-25735032","excerpt":"","slug":"/hn/25735032","title":"Ubiquiti Networks Breach","date":"January 11, 2021","dateISO":"2021-01-11T21:36:52.119Z","datetime":"2021-01-11 21:36","tags":["story","Hacker News"],"image":null,"imageAlt":null,"provider":"Hacker News","thirdPartyId":"25735032","url":"https://news.ycombinator.com/item?id=25735032","originalUrl":"https://mailchi.mp/ubnt/account-notification?e=30527b2904","imageRemote":"https://gallery.mailchimp.com/bc856e62a9254399365d0277b/images/d44e0555-392a-4231-8dad-e1af7ed089d2.png","video":null,"channel":null,"channelUrl":null,"author":"ShaneCurran","authorUrl":"https://news.ycombinator.com/user?id=ShaneCurran","authorImage":null,"authorSlug":null,"score":231,"views":null,"sharedCount":null,"likeCount":null,"sharedContent":null,"parent":{"__typename":"HnJson","localize":[{"title":"Ubiquiti网络漏洞","locale":"zh"},{"title":"Ubiquiti網絡漏洞","locale":"zh-Hant"}]}},{"__typename":"SocialMediaPost","id":"HnPost-25731419","excerpt":"","slug":"/hn/25731419","title":"My personal wishlist for a decentralized social network","date":"January 11, 2021","dateISO":"2021-01-11T21:05:31.621Z","datetime":"2021-01-11 21:05","tags":["story","Hacker News"],"image":null,"imageAlt":null,"provider":"Hacker News","thirdPartyId":"25731419","url":"https://news.ycombinator.com/item?id=25731419","originalUrl":"https://carter.sande.duodecima.technology/decentralized-wishlist/","imageRemote":null,"video":null,"channel":null,"channelUrl":null,"author":"csande17","authorUrl":"https://news.ycombinator.com/user?id=csande17","authorImage":null,"authorSlug":null,"score":201,"views":null,"sharedCount":null,"likeCount":null,"sharedContent":null,"parent":{"__typename":"HnJson","localize":[{"title":"我个人对去中心化社交网络的愿望清单","locale":"zh"},{"title":"我個人對去中心化社交網絡的願望清單","locale":"zh-Hant"}]}},{"__typename":"SocialMediaPost","id":"HnPost-25726453","excerpt":"","slug":"/hn/25726453","title":"Parler drops offline after Amazon pulls support","date":"January 11, 2021","dateISO":"2021-01-11T18:23:16.059Z","datetime":"2021-01-11 18:23","tags":["story","Hacker News"],"image":null,"imageAlt":null,"provider":"Hacker News","thirdPartyId":"25726453","url":"https://news.ycombinator.com/item?id=25726453","originalUrl":"https://www.bbc.co.uk/news/technology-55615214","imageRemote":"https://ichef.bbci.co.uk/news/1024/branded_news/135BB/production/_116419297_mediaitem116419296.jpg","video":null,"channel":null,"channelUrl":null,"author":"brobdingnagians","authorUrl":"https://news.ycombinator.com/user?id=brobdingnagians","authorImage":null,"authorSlug":null,"score":261,"views":null,"sharedCount":null,"likeCount":null,"sharedContent":null,"parent":{"__typename":"HnJson","localize":[{"title":"在亚马逊取消支持后，Parler下线","locale":"zh"},{"title":"在亞馬遜取消支持後，Parler下線","locale":"zh-Hant"}]}}]}},"pageContext":{"basePath":"/","pageType":"tag","tag":"story","tagsFilter":{"id":{"glob":"!*Post-1"}},"filter":{"id":{"glob":"!*Post-1"},"tags":{"eq":"story"}},"limit":25,"skip":50,"total":919,"totalPages":37,"currentPage":3,"maxWidth":1024,"maxHeight":512,"locale":"zh","hrefLang":"zh-Hans","originalPath":"/tags/story/page/3","dateFormat":"YYYY-MM-DD"}},"staticQueryHashes":["1239077767","2506312863","2744905544","3025052997","3493603132","3493603132","3513215887","386998304"]}