{"componentChunkName":"component---gatsby-theme-buzzing-src-gatsby-theme-timeline-templates-posts-query-js","path":"/en/tags/story/page/30","result":{"data":{"site":{"siteMetadata":{"title":"Reddit 热门","description":"用中文浏览Reddit热门内容","social":[{"name":"Twitter","url":"https://twitter.com/gatsbyjs","external":null,"prefetch":null},{"name":"GitHub","url":"https://github.com/gatsbyjs","external":null,"prefetch":null}],"menuLinks":[],"localize":[{"locale":"en","title":"Buzzing on Reddit","description":"See what's buzzing on Reddit in your native language","social":[{"name":"Reddit","url":"https://www.reddit.com/","external":true,"prefetch":null}],"menuLinks":[{"name":"Weekly Selection","url":"/issues","external":null,"prefetch":null},{"name":"RSS","url":"/rss.xml","external":null,"prefetch":false}]},{"locale":"zh-Hant","title":"Reddit 熱門","description":"用中文瀏覽Reddit熱門內容","social":null,"menuLinks":null}]}},"tagsGroup":{"group":[{"fieldValue":"ASK HN","totalCount":36},{"fieldValue":"Bitcoin","totalCount":4},{"fieldValue":"Hacker News","totalCount":2185},{"fieldValue":"Poll","totalCount":1},{"fieldValue":"SaveAMC","totalCount":1},{"fieldValue":"Show HN","totalCount":76},{"fieldValue":"bitcoin","totalCount":3},{"fieldValue":"investing","totalCount":686},{"fieldValue":"poll","totalCount":1},{"fieldValue":"reddit","totalCount":4012},{"fieldValue":"science","totalCount":1},{"fieldValue":"stocks","totalCount":1322},{"fieldValue":"story","totalCount":2184},{"fieldValue":"tweet","totalCount":697},{"fieldValue":"wallstreetbets","totalCount":2004}]},"allBlogPost":{"nodes":[{"__typename":"SocialMediaPost","id":"HnPost-26011025","excerpt":"","slug":"/hn/26011025","title":"What Is Applied Category Theory? (2018)","date":"February 03, 2021","dateISO":"2021-02-03T16:47:25.900Z","datetime":"2021-02-03 16:47","tags":["story","Hacker News"],"image":null,"imageAlt":null,"provider":"Hacker News","thirdPartyId":"26011025","url":"https://news.ycombinator.com/item?id=26011025","originalUrl":"https://arxiv.org/abs/1809.05923","imageRemote":"https://static.arxiv.org/static/browse/0.3.2.6/images/icons/social/bibsonomy.png","video":null,"channel":null,"channelUrl":null,"author":"behnamoh","authorUrl":"https://news.ycombinator.com/user?id=behnamoh","authorImage":null,"authorSlug":null,"score":197,"views":null,"sharedCount":null,"likeCount":null,"sharedContent":null,"parent":{"__typename":"HnJson","localize":[{"title":"什么是应用范畴理论？(2018)","locale":"zh"},{"title":"什麼是應用範疇理論？(2018)","locale":"zh-Hant"}]}},{"__typename":"SocialMediaPost","id":"HnPost-26013715","excerpt":"","slug":"/hn/26013715","title":"Show HN: Haven – Run a private website to share with only the people you choose","date":"February 03, 2021","dateISO":"2021-02-03T16:47:25.900Z","datetime":"2021-02-03 16:47","tags":["story","Show HN","Hacker News"],"image":null,"imageAlt":null,"provider":"Hacker News","thirdPartyId":"26013715","url":"https://news.ycombinator.com/item?id=26013715","originalUrl":"https://havenweb.org/","imageRemote":"https://havenweb.org/undraw_content_creator_xeju.svg","video":null,"channel":"Show HN","channelUrl":"https://news.ycombinator.com/show","author":"mawise","authorUrl":"https://news.ycombinator.com/user?id=mawise","authorImage":null,"authorSlug":null,"score":534,"views":null,"sharedCount":null,"likeCount":null,"sharedContent":null,"parent":{"__typename":"HnJson","localize":[{"title":"显示HN：Haven - 运行一个私人网站，只与您选择的人分享。","locale":"zh"},{"title":"顯示HN：Haven - 運行一個私人網站，只與您選擇的人分享。","locale":"zh-Hant"}]}},{"__typename":"SocialMediaPost","id":"HnPost-26014921","excerpt":"","slug":"/hn/26014921","title":"Yellen Accepted $700K Speaking Fees from Citadel; Will Not Recuse from Hearing","date":"February 03, 2021","dateISO":"2021-02-03T16:47:25.899Z","datetime":"2021-02-03 16:47","tags":["story","Hacker News"],"image":null,"imageAlt":null,"provider":"Hacker News","thirdPartyId":"26014921","url":"https://news.ycombinator.com/item?id=26014921","originalUrl":"https://www.bloomberg.com/news/articles/2021-02-03/yellen-summons-regulators-to-discuss-financial-market-volatility","imageRemote":null,"video":null,"channel":null,"channelUrl":null,"author":"disgrunt","authorUrl":"https://news.ycombinator.com/user?id=disgrunt","authorImage":null,"authorSlug":null,"score":384,"views":null,"sharedCount":null,"likeCount":null,"sharedContent":null,"parent":{"__typename":"HnJson","localize":[{"title":"耶伦接受花旗银行70万美元演讲费；不会回避听证会。","locale":"zh"},{"title":"耶倫接受花旗銀行70萬美元演講費；不會迴避聽證會。","locale":"zh-Hant"}]}},{"__typename":"SocialMediaPost","id":"HnPost-26010782","excerpt":"","slug":"/hn/26010782","title":"UCSF team has engineered a tiny antibody capable of neutralizing the coronavirus","date":"February 03, 2021","dateISO":"2021-02-03T14:34:13.769Z","datetime":"2021-02-03 14:34","tags":["story","Hacker News"],"image":null,"imageAlt":null,"provider":"Hacker News","thirdPartyId":"26010782","url":"https://news.ycombinator.com/item?id=26010782","originalUrl":"https://www.ucsf.edu/magazine/covid-aeronabs","imageRemote":"https://www.ucsf.edu/sites/default/files/2021-01/aeronabs-inhaler-kouzou-sakai-featured.jpg","video":null,"channel":null,"channelUrl":null,"author":"pfd1986","authorUrl":"https://news.ycombinator.com/user?id=pfd1986","authorImage":null,"authorSlug":null,"score":212,"views":null,"sharedCount":null,"likeCount":null,"sharedContent":null,"parent":{"__typename":"HnJson","localize":[{"title":"美国加州大学旧金山分校团队设计了一种能够中和冠状病毒的微小抗体。","locale":"zh"},{"title":"美國加州大學舊金山分校團隊設計了一種能夠中和冠狀病毒的微小抗體。","locale":"zh-Hant"}]}},{"__typename":"SocialMediaPost","id":"HnPost-26012405","excerpt":"","slug":"/hn/26012405","title":"A terminal stock watcher and stock position tracker","date":"February 03, 2021","dateISO":"2021-02-03T14:34:13.769Z","datetime":"2021-02-03 14:34","tags":["story","Hacker News"],"image":null,"imageAlt":null,"provider":"Hacker News","thirdPartyId":"26012405","url":"https://news.ycombinator.com/item?id=26012405","originalUrl":"https://github.com/achannarasappa/ticker","imageRemote":"https://avatars.githubusercontent.com/u/1489983?s=400&v=4","video":null,"channel":null,"channelUrl":null,"author":"maydemir","authorUrl":"https://news.ycombinator.com/user?id=maydemir","authorImage":null,"authorSlug":null,"score":389,"views":null,"sharedCount":null,"likeCount":null,"sharedContent":null,"parent":{"__typename":"HnJson","localize":[{"title":"终端股票观察器和股票仓位跟踪器。","locale":"zh"},{"title":"終端股票觀察器和股票倉位跟蹤器。","locale":"zh-Hant"}]}},{"__typename":"SocialMediaPost","id":"HnPost-26010237","excerpt":"","slug":"/hn/26010237","title":"Bluetooth Trackball Mark II","date":"February 03, 2021","dateISO":"2021-02-03T08:53:07.841Z","datetime":"2021-02-03 08:53","tags":["story","Hacker News"],"image":null,"imageAlt":null,"provider":"Hacker News","thirdPartyId":"26010237","url":"https://news.ycombinator.com/item?id=26010237","originalUrl":"https://blog.jfedor.org/2021/01/bluetooth-trackball-mark-ii.html","imageRemote":"https://lh5.googleusercontent.com/proxy/rDasMn8rZr8ZVHhqAMuN4IJRbMQBG6oIkKQDvKgCN2EhUpQ5g15wdbq42VaxWVLg3jq413ede1UrGd_w94QgfjPaRMg=w1200-h630-n-k-no-nu","video":null,"channel":null,"channelUrl":null,"author":"mbreese","authorUrl":"https://news.ycombinator.com/user?id=mbreese","authorImage":null,"authorSlug":null,"score":403,"views":null,"sharedCount":null,"likeCount":null,"sharedContent":null,"parent":{"__typename":"HnJson","localize":[{"title":"蓝牙轨迹球Mark II","locale":"zh"},{"title":"藍牙軌跡球Mark II","locale":"zh-Hant"}]}},{"__typename":"SocialMediaPost","id":"HnPost-26005330","excerpt":"","slug":"/hn/26005330","title":"Bad TypeScript Habits","date":"February 03, 2021","dateISO":"2021-02-03T05:29:01.182Z","datetime":"2021-02-03 05:29","tags":["story","Hacker News"],"image":null,"imageAlt":null,"provider":"Hacker News","thirdPartyId":"26005330","url":"https://news.ycombinator.com/item?id=26005330","originalUrl":"https://startup-cto.net/10-bad-typescript-habits-to-break-this-year/","imageRemote":"http://startup-cto.net/content/images/2021/01/cigarette-butts-5056961_1280.jpg","video":null,"channel":null,"channelUrl":null,"author":"jgwil2","authorUrl":"https://news.ycombinator.com/user?id=jgwil2","authorImage":null,"authorSlug":null,"score":245,"views":null,"sharedCount":null,"likeCount":null,"sharedContent":null,"parent":{"__typename":"HnJson","localize":[{"title":"TypeScript的坏习惯","locale":"zh"},{"title":"TypeScript的壞習慣","locale":"zh-Hant"}]}},{"__typename":"SocialMediaPost","id":"HnPost-26009586","excerpt":"","slug":"/hn/26009586","title":"Uighur camp detainees allege systematic rape","date":"February 03, 2021","dateISO":"2021-02-03T05:04:19.818Z","datetime":"2021-02-03 05:04","tags":["story","Hacker News"],"image":null,"imageAlt":null,"provider":"Hacker News","thirdPartyId":"26009586","url":"https://news.ycombinator.com/item?id=26009586","originalUrl":"https://www.bbc.com/news/world-asia-china-55794071","imageRemote":"https://ichef.bbci.co.uk/news/1024/branded_news/18247/production/_116778889_tursunay_bbc_26jan21_11-2.jpg","video":null,"channel":null,"channelUrl":null,"author":"exolymph","authorUrl":"https://news.ycombinator.com/user?id=exolymph","authorImage":null,"authorSlug":null,"score":317,"views":null,"sharedCount":null,"likeCount":null,"sharedContent":null,"parent":{"__typename":"HnJson","localize":[{"title":"维吾尔营被拘留者指称遭蓄意强奸","locale":"zh"},{"title":"維吾爾營被拘留者指稱遭蓄意強姦","locale":"zh-Hant"}]}},{"__typename":"SocialMediaPost","id":"HnPost-26008217","excerpt":"","slug":"/hn/26008217","title":"Academic media censorship conference censored by YouTube?","date":"February 03, 2021","dateISO":"2021-02-03T03:59:34.995Z","datetime":"2021-02-03 03:59","tags":["story","Hacker News"],"image":null,"imageAlt":null,"provider":"Hacker News","thirdPartyId":"26008217","url":"https://news.ycombinator.com/item?id=26008217","originalUrl":"https://www.mintpressnews.com/media-censorship-conference-censored-youtube/274918/","imageRemote":"https://www.mintpressnews.com/wp-content/uploads/2021/02/29-01-2021_edited.jpg","video":null,"channel":null,"channelUrl":null,"author":"killittosaveit","authorUrl":"https://news.ycombinator.com/user?id=killittosaveit","authorImage":null,"authorSlug":null,"score":215,"views":null,"sharedCount":null,"likeCount":null,"sharedContent":null,"parent":{"__typename":"HnJson","localize":[{"title":"学术媒体审查会议被YouTube查封？","locale":"zh"},{"title":"學術媒體審查會議被YouTube查封？","locale":"zh-Hant"}]}},{"__typename":"SocialMediaPost","id":"HnPost-26005008","excerpt":"","slug":"/hn/26005008","title":"Oxford vaccine shows sustained protection of 76% in 3-month gap til second dose","date":"February 03, 2021","dateISO":"2021-02-03T03:51:15.300Z","datetime":"2021-02-03 03:51","tags":["story","Hacker News"],"image":null,"imageAlt":null,"provider":"Hacker News","thirdPartyId":"26005008","url":"https://news.ycombinator.com/item?id=26005008","originalUrl":"https://www.ox.ac.uk/news/2021-02-02-oxford-coronavirus-vaccine-shows-sustained-protection-76-during-3-month-interval","imageRemote":"https://www.ox.ac.uk/sites/files/oxford/field/field_image_main/Oxford_University_Covid_Vaccine_by_John_Cairns_25.6.20-296%20(1).jpg","video":null,"channel":null,"channelUrl":null,"author":"timthorn","authorUrl":"https://news.ycombinator.com/user?id=timthorn","authorImage":null,"authorSlug":null,"score":175,"views":null,"sharedCount":null,"likeCount":null,"sharedContent":null,"parent":{"__typename":"HnJson","localize":[{"title":"牛津疫苗显示，在第二次接种前的3个月时间里，76%的人得到持续保护。","locale":"zh"},{"title":"牛津疫苗顯示，在第二次接種前的3個月時間裏，76%的人得到持續保護。","locale":"zh-Hant"}]}},{"__typename":"SocialMediaPost","id":"HnPost-26002543","excerpt":"","slug":"/hn/26002543","title":"Behaviours to avoid in a software architecture role","date":"February 03, 2021","dateISO":"2021-02-03T02:47:21.581Z","datetime":"2021-02-03 02:47","tags":["story","Hacker News"],"image":null,"imageAlt":null,"provider":"Hacker News","thirdPartyId":"26002543","url":"https://news.ycombinator.com/item?id=26002543","originalUrl":"https://www.danielwatts.info/post/7-behaviours-to-avoid-software-architect/","imageRemote":null,"video":null,"channel":null,"channelUrl":null,"author":"geidies","authorUrl":"https://news.ycombinator.com/user?id=geidies","authorImage":null,"authorSlug":null,"score":222,"views":null,"sharedCount":null,"likeCount":null,"sharedContent":null,"parent":{"__typename":"HnJson","localize":[{"title":"在软件架构角色中应避免的行为","locale":"zh"},{"title":"在軟件架構角色中應避免的行爲","locale":"zh-Hant"}]}},{"__typename":"SocialMediaPost","id":"HnPost-26005457","excerpt":"","slug":"/hn/26005457","title":"It’s Time for Real Time Settlement","date":"February 03, 2021","dateISO":"2021-02-03T00:39:46.242Z","datetime":"2021-02-03 00:39","tags":["story","Hacker News"],"image":null,"imageAlt":null,"provider":"Hacker News","thirdPartyId":"26005457","url":"https://news.ycombinator.com/item?id=26005457","originalUrl":"https://blog.robinhood.com/news/2021/2/2/its-time-for-real-time-settlement","imageRemote":"http://static1.squarespace.com/static/53fe4a70e4b0a2293ab0e42a/t/6019a60fa906ed11f2fde67e/1612293655012/blog_01.png?format=1500w","video":null,"channel":null,"channelUrl":null,"author":"marc__1","authorUrl":"https://news.ycombinator.com/user?id=marc__1","authorImage":null,"authorSlug":null,"score":254,"views":null,"sharedCount":null,"likeCount":null,"sharedContent":null,"parent":{"__typename":"HnJson","localize":[{"title":"是时候进行实时结算了","locale":"zh"},{"title":"是時候進行實時結算了","locale":"zh-Hant"}]}},{"__typename":"SocialMediaPost","id":"HnPost-26006271","excerpt":"","slug":"/hn/26006271","title":"SpaceX SN9 Explodes on Landing","date":"February 02, 2021","dateISO":"2021-02-02T22:51:23.459Z","datetime":"2021-02-02 22:51","tags":["story","Hacker News"],"image":null,"imageAlt":null,"provider":"Hacker News","thirdPartyId":"26006271","url":"https://news.ycombinator.com/item?id=26006271","originalUrl":"https://twitter.com/SpaceX/status/1356699321840721920","imageRemote":null,"video":null,"channel":null,"channelUrl":null,"author":"beervirus","authorUrl":"https://news.ycombinator.com/user?id=beervirus","authorImage":null,"authorSlug":null,"score":325,"views":null,"sharedCount":null,"likeCount":null,"sharedContent":null,"parent":{"__typename":"HnJson","localize":[{"title":"SpaceX SN9在降落时发生爆炸","locale":"zh"},{"title":"SpaceX SN9在降落時發生爆炸","locale":"zh-Hant"}]}},{"__typename":"SocialMediaPost","id":"HnPost-25985311","excerpt":"","slug":"/hn/25985311","title":"It Feels Like the Game Is Rigged","date":"February 02, 2021","dateISO":"2021-02-02T21:31:51.374Z","datetime":"2021-02-02 21:31","tags":["story","Hacker News"],"image":null,"imageAlt":null,"provider":"Hacker News","thirdPartyId":"25985311","url":"https://news.ycombinator.com/item?id=25985311","originalUrl":"https://theirrelevantinvestor.com/2021/02/01/it-feels-like-the-game-is-rigged/","imageRemote":"https://theirrelevantinvestor.com/wp-content/uploads/2021/02/cant-lsoe.jpg","video":null,"channel":null,"channelUrl":null,"author":"aloukissas","authorUrl":"https://news.ycombinator.com/user?id=aloukissas","authorImage":null,"authorSlug":null,"score":161,"views":null,"sharedCount":null,"likeCount":null,"sharedContent":null,"parent":{"__typename":"HnJson","localize":[{"title":"感觉游戏是被操纵的","locale":"zh"},{"title":"感覺遊戲是被操縱的","locale":"zh-Hant"}]}},{"__typename":"SocialMediaPost","id":"HnPost-26006656","excerpt":"","slug":"/hn/26006656","title":"Jeff Bezos to retire as CEO; AWS head to become CEO","date":"February 02, 2021","dateISO":"2021-02-02T21:31:51.374Z","datetime":"2021-02-02 21:31","tags":["story","Hacker News"],"image":null,"imageAlt":null,"provider":"Hacker News","thirdPartyId":"26006656","url":"https://news.ycombinator.com/item?id=26006656","originalUrl":"https://ir.aboutamazon.com/news-release/news-release-details/2021/Amazon.com-Announces-Fourth-Quarter-Results/default.aspx","imageRemote":"https://s2.q4cdn.com/299287126/files/design/amazon-logo-white.svg","video":null,"channel":null,"channelUrl":null,"author":"marc__1","authorUrl":"https://news.ycombinator.com/user?id=marc__1","authorImage":null,"authorSlug":null,"score":1926,"views":null,"sharedCount":null,"likeCount":null,"sharedContent":null,"parent":{"__typename":"HnJson","localize":[{"title":"杰夫-贝佐斯将退休，担任CEO；AWS负责人将出任CEO。","locale":"zh"},{"title":"傑夫-貝佐斯將退休，擔任CEO；AWS負責人將出任CEO。","locale":"zh-Hant"}]}},{"__typename":"SocialMediaPost","id":"HnPost-26002251","excerpt":"","slug":"/hn/26002251","title":"GoboLinux","date":"February 02, 2021","dateISO":"2021-02-02T20:33:28.604Z","datetime":"2021-02-02 20:33","tags":["story","Hacker News"],"image":null,"imageAlt":null,"provider":"Hacker News","thirdPartyId":"26002251","url":"https://news.ycombinator.com/item?id=26002251","originalUrl":"https://www.gobolinux.org/","imageRemote":"https://gobolinux.org/images/gobolinux_frontpage.png","video":null,"channel":null,"channelUrl":null,"author":"frabert","authorUrl":"https://news.ycombinator.com/user?id=frabert","authorImage":null,"authorSlug":null,"score":313,"views":null,"sharedCount":null,"likeCount":null,"sharedContent":null,"parent":{"__typename":"HnJson","localize":[{"title":"GoboLinux","locale":"zh"},{"title":"GoboLinux","locale":"zh-Hant"}]}},{"__typename":"SocialMediaPost","id":"HnPost-26002734","excerpt":"","slug":"/hn/26002734","title":"Accounts with GAN Faces Attack Belgium over 5G Restrictions","date":"February 02, 2021","dateISO":"2021-02-02T20:33:28.603Z","datetime":"2021-02-02 20:33","tags":["story","Hacker News"],"image":null,"imageAlt":null,"provider":"Hacker News","thirdPartyId":"26002734","url":"https://news.ycombinator.com/item?id=26002734","originalUrl":"https://public-assets.graphika.com/reports/graphika_report_fake_cluster_boosts_huawei.pdf","imageRemote":null,"video":null,"channel":null,"channelUrl":null,"author":"kbumsik","authorUrl":"https://news.ycombinator.com/user?id=kbumsik","authorImage":null,"authorSlug":null,"score":212,"views":null,"sharedCount":null,"likeCount":null,"sharedContent":null,"parent":{"__typename":"HnJson","localize":[{"title":"有GAN的账户因5G限制而面临攻击比利时。","locale":"zh"},{"title":"有GAN的賬戶因5G限制而面臨攻擊比利時。","locale":"zh-Hant"}]}},{"__typename":"SocialMediaPost","id":"HnPost-26002688","excerpt":"","slug":"/hn/26002688","title":"“WSB veterans know that they're making a suicide charge for the memes”","date":"February 02, 2021","dateISO":"2021-02-02T20:02:03.766Z","datetime":"2021-02-02 20:02","tags":["story","Hacker News"],"image":null,"imageAlt":null,"provider":"Hacker News","thirdPartyId":"26002688","url":"https://news.ycombinator.com/item?id=26002688","originalUrl":"https://www.reddit.com/r/AskReddit/comments/l7bl3z/brokers_of_reddit_how_crazy_is_it_where_you_work/gl64yau/","imageRemote":"https://www.redditstatic.com/desktop2x/img/renderTimingPixel.png","video":null,"channel":null,"channelUrl":null,"author":"throwaway5752","authorUrl":"https://news.ycombinator.com/user?id=throwaway5752","authorImage":null,"authorSlug":null,"score":219,"views":null,"sharedCount":null,"likeCount":null,"sharedContent":null,"parent":{"__typename":"HnJson","localize":[{"title":"\"WSB老兵知道他们是在为备忘录自杀收费\"","locale":"zh"},{"title":"\"WSB老兵知道他們是在爲備忘錄自殺收費\"","locale":"zh-Hant"}]}},{"__typename":"SocialMediaPost","id":"HnPost-26002656","excerpt":"","slug":"/hn/26002656","title":"A Framework for Writing Better Documentation","date":"February 02, 2021","dateISO":"2021-02-02T19:33:32.375Z","datetime":"2021-02-02 19:33","tags":["story","Hacker News"],"image":null,"imageAlt":null,"provider":"Hacker News","thirdPartyId":"26002656","url":"https://news.ycombinator.com/item?id=26002656","originalUrl":"https://documentation.divio.com/","imageRemote":"https://documentation.divio.com/_static/logo-divio-black.svg","video":null,"channel":null,"channelUrl":null,"author":"omginternets","authorUrl":"https://news.ycombinator.com/user?id=omginternets","authorImage":null,"authorSlug":null,"score":631,"views":null,"sharedCount":null,"likeCount":null,"sharedContent":null,"parent":{"__typename":"HnJson","localize":[{"title":"编写更好的文件的框架","locale":"zh"},{"title":"編寫更好的文件的框架","locale":"zh-Hant"}]}},{"__typename":"SocialMediaPost","id":"HnPost-26000698","excerpt":"","slug":"/hn/26000698","title":"AirPods Max: An Audiophile Review","date":"February 02, 2021","dateISO":"2021-02-02T18:40:38.967Z","datetime":"2021-02-02 18:40","tags":["story","Hacker News"],"image":null,"imageAlt":null,"provider":"Hacker News","thirdPartyId":"26000698","url":"https://news.ycombinator.com/item?id=26000698","originalUrl":"https://mariusmasalar.me/airpods-max","imageRemote":"https://blot.im/cdn/blog_3ba4e1dfed36497a98e7466a9c6b5a18/_thumbnails/0a86f7dc-e691-479e-b7e1-903a842791fc/large.jpg","video":null,"channel":null,"channelUrl":null,"author":"drclau","authorUrl":"https://news.ycombinator.com/user?id=drclau","authorImage":null,"authorSlug":null,"score":316,"views":null,"sharedCount":null,"likeCount":null,"sharedContent":null,"parent":{"__typename":"HnJson","localize":[{"title":"AirPods Max: 发烧友评测","locale":"zh"},{"title":"AirPods Max: 發燒友評測","locale":"zh-Hant"}]}},{"__typename":"SocialMediaPost","id":"HnPost-26001630","excerpt":"","slug":"/hn/26001630","title":"20k honey bees took over a tech company’s empty office during lockdown","date":"February 02, 2021","dateISO":"2021-02-02T18:40:38.967Z","datetime":"2021-02-02 18:40","tags":["story","Hacker News"],"image":null,"imageAlt":null,"provider":"Hacker News","thirdPartyId":"26001630","url":"https://news.ycombinator.com/item?id=26001630","originalUrl":"https://qz.com/work/1965925/20000-honey-bees-took-over-a-tech-office-during-covid-19/","imageRemote":"https://cms.qz.com/wp-content/uploads/2021/01/beeandhoneycomb.jpg?quality=75&strip=all&w=1200&h=630&crop=1","video":null,"channel":null,"channelUrl":null,"author":"codev","authorUrl":"https://news.ycombinator.com/user?id=codev","authorImage":null,"authorSlug":null,"score":282,"views":null,"sharedCount":null,"likeCount":null,"sharedContent":null,"parent":{"__typename":"HnJson","localize":[{"title":"2万只蜜蜂在封锁期间占领了一家科技公司的空办公室。","locale":"zh"},{"title":"2萬隻蜜蜂在封鎖期間佔領了一家科技公司的空辦公室。","locale":"zh-Hant"}]}},{"__typename":"SocialMediaPost","id":"HnPost-26002335","excerpt":"","slug":"/hn/26002335","title":"Getting better at Linux with mini-projects","date":"February 02, 2021","dateISO":"2021-02-02T18:03:19.212Z","datetime":"2021-02-02 18:03","tags":["story","Hacker News"],"image":null,"imageAlt":null,"provider":"Hacker News","thirdPartyId":"26002335","url":"https://news.ycombinator.com/item?id=26002335","originalUrl":"https://carltheperson.com/posts/10-things-linux","imageRemote":"https://carltheperson.com/media/10-things-linux/1_UNIX__Recat/screenshot.png","video":null,"channel":null,"channelUrl":null,"author":"carltheperson","authorUrl":"https://news.ycombinator.com/user?id=carltheperson","authorImage":null,"authorSlug":null,"score":997,"views":null,"sharedCount":null,"likeCount":null,"sharedContent":null,"parent":{"__typename":"HnJson","localize":[{"title":"通过小型项目更好地掌握Linux","locale":"zh"},{"title":"通過小型項目更好地掌握Linux","locale":"zh-Hant"}]}},{"__typename":"SocialMediaPost","id":"HnPost-25997619","excerpt":"","slug":"/hn/25997619","title":"Investigation Xoth: Smartphone location tracking","date":"February 02, 2021","dateISO":"2021-02-02T16:32:21.109Z","datetime":"2021-02-02 16:32","tags":["story","Hacker News"],"image":null,"imageAlt":null,"provider":"Hacker News","thirdPartyId":"25997619","url":"https://news.ycombinator.com/item?id=25997619","originalUrl":"https://www.expressvpn.com/digital-security-lab/investigation-xoth","imageRemote":"https://xvdrop.imgix.net/ff-fb-badge-e0c00340498c9742be8948c3f6f7f2156a0b6c76.png","video":null,"channel":null,"channelUrl":null,"author":"gilad","authorUrl":"https://news.ycombinator.com/user?id=gilad","authorImage":null,"authorSlug":null,"score":170,"views":null,"sharedCount":null,"likeCount":null,"sharedContent":null,"parent":{"__typename":"HnJson","localize":[{"title":"调查Xoth。智能手机定位追踪","locale":"zh"},{"title":"調查Xoth。智能手機定位追蹤","locale":"zh-Hant"}]}},{"__typename":"SocialMediaPost","id":"HnPost-26001179","excerpt":"","slug":"/hn/26001179","title":"I'm tired of this anti-Wayland horseshit","date":"February 02, 2021","dateISO":"2021-02-02T16:03:02.665Z","datetime":"2021-02-02 16:03","tags":["story","Hacker News"],"image":null,"imageAlt":null,"provider":"Hacker News","thirdPartyId":"26001179","url":"https://news.ycombinator.com/item?id=26001179","originalUrl":"https://drewdevault.com/2021/02/02/Anti-Wayland-horseshit.html","imageRemote":null,"video":null,"channel":null,"channelUrl":null,"author":"emersion","authorUrl":"https://news.ycombinator.com/user?id=emersion","authorImage":null,"authorSlug":null,"score":544,"views":null,"sharedCount":null,"likeCount":null,"sharedContent":null,"parent":{"__typename":"HnJson","localize":[{"title":"我厌倦了这种反韦兰的胡言乱语","locale":"zh"},{"title":"我厭倦了這種反韋蘭的胡言亂語","locale":"zh-Hant"}]}},{"__typename":"SocialMediaPost","id":"HnPost-26000405","excerpt":"","slug":"/hn/26000405","title":"Just because I have a vertical screen, doesn’t mean I’m on a phone","date":"February 02, 2021","dateISO":"2021-02-02T15:36:07.037Z","datetime":"2021-02-02 15:36","tags":["story","Hacker News"],"image":null,"imageAlt":null,"provider":"Hacker News","thirdPartyId":"26000405","url":"https://news.ycombinator.com/item?id=26000405","originalUrl":"https://shkspr.mobi/blog/2021/02/just-because-i-have-a-vertical-screen-doesnt-mean-im-on-a-phone/","imageRemote":"https://shkspr.mobi/blog/wp-content/uploads/2021/02/montje50.jpg","video":null,"channel":null,"channelUrl":null,"author":"edent","authorUrl":"https://news.ycombinator.com/user?id=edent","authorImage":null,"authorSlug":null,"score":545,"views":null,"sharedCount":null,"likeCount":null,"sharedContent":null,"parent":{"__typename":"HnJson","localize":[{"title":"我有一个垂直的屏幕，并不意味着我在手机上。","locale":"zh"},{"title":"我有一個垂直的屏幕，並不意味着我在手機上。","locale":"zh-Hant"}]}}]}},"pageContext":{"basePath":"/","pageType":"tag","tag":"story","tagsFilter":{"id":{"glob":"!*Post-1"}},"filter":{"id":{"glob":"!*Post-1"},"tags":{"eq":"story"}},"limit":25,"skip":725,"total":2184,"totalPages":88,"currentPage":30,"maxWidth":1024,"maxHeight":512,"locale":"en","hrefLang":"en-US","originalPath":"/tags/story/page/30","dateFormat":"MM/DD/YYYY"}},"staticQueryHashes":["1239077767","2506312863","2744905544","3025052997","3493603132","3493603132","3513215887","386998304"]}