{"componentChunkName":"component---gatsby-theme-buzzing-src-gatsby-theme-timeline-templates-posts-query-js","path":"/zh-Hant/tags/hacker-news/page/41","result":{"data":{"site":{"siteMetadata":{"title":"Reddit 热门","description":"用中文浏览Reddit热门内容","social":[{"name":"Twitter","url":"https://twitter.com/gatsbyjs","external":null,"prefetch":null},{"name":"GitHub","url":"https://github.com/gatsbyjs","external":null,"prefetch":null}],"menuLinks":[],"localize":[{"locale":"en","title":"Buzzing on Reddit","description":"See what's buzzing on Reddit in your native language","social":[{"name":"Reddit","url":"https://www.reddit.com/","external":true,"prefetch":null}],"menuLinks":[{"name":"Weekly Selection","url":"/issues","external":null,"prefetch":null},{"name":"RSS","url":"/rss.xml","external":null,"prefetch":false}]},{"locale":"zh-Hant","title":"Reddit 熱門","description":"用中文瀏覽Reddit熱門內容","social":null,"menuLinks":null}]}},"tagsGroup":{"group":[{"fieldValue":"ASK HN","totalCount":42},{"fieldValue":"Bitcoin","totalCount":4},{"fieldValue":"Hacker News","totalCount":2407},{"fieldValue":"Poll","totalCount":1},{"fieldValue":"SaveAMC","totalCount":1},{"fieldValue":"Show HN","totalCount":81},{"fieldValue":"bitcoin","totalCount":3},{"fieldValue":"investing","totalCount":753},{"fieldValue":"poll","totalCount":1},{"fieldValue":"reddit","totalCount":4523},{"fieldValue":"science","totalCount":1},{"fieldValue":"stocks","totalCount":1482},{"fieldValue":"story","totalCount":2406},{"fieldValue":"tweet","totalCount":767},{"fieldValue":"wallstreetbets","totalCount":2288}]},"allBlogPost":{"nodes":[{"__typename":"SocialMediaPost","id":"HnPost-25986316","excerpt":"","slug":"/hn/25986316","title":"F# is gaining independence from .NET","date":"February 01, 2021","dateISO":"2021-02-01T15:15:59.286Z","datetime":"2021-02-01 15:15","tags":["story","Hacker News"],"image":null,"imageAlt":null,"provider":"Hacker News","thirdPartyId":"25986316","url":"https://news.ycombinator.com/item?id=25986316","originalUrl":"https://onurgumus.github.io/2021/01/31/What-the-F.html","imageRemote":"https://onurgumus.github.io/assets/posts/2021-01-31-What-the-F/wheel.png","video":null,"channel":null,"channelUrl":null,"author":"sidcool","authorUrl":"https://news.ycombinator.com/user?id=sidcool","authorImage":null,"authorSlug":null,"score":210,"views":null,"sharedCount":null,"likeCount":null,"sharedContent":null,"parent":{"__typename":"HnJson","localize":[{"title":"F#正在从.NET中获得独立","locale":"zh"},{"title":"F#正在從.NET中獲得獨立","locale":"zh-Hant"}]}},{"__typename":"SocialMediaPost","id":"HnPost-25987314","excerpt":"","slug":"/hn/25987314","title":"Internet disrupted in Myanmar amid military coup","date":"February 01, 2021","dateISO":"2021-02-01T14:42:57.004Z","datetime":"2021-02-01 14:42","tags":["story","Hacker News"],"image":null,"imageAlt":null,"provider":"Hacker News","thirdPartyId":"25987314","url":"https://news.ycombinator.com/item?id=25987314","originalUrl":"https://netblocks.org/reports/internet-disrupted-in-myanmar-amid-apparent-military-uprising-JBZrmlB6","imageRemote":"https://netblocks.org/wp-content/uploads/sites/8/2021/01/myanmar-uprising-internet-blackout-2021-01-31.png","video":null,"channel":null,"channelUrl":null,"author":"giuliomagnifico","authorUrl":"https://news.ycombinator.com/user?id=giuliomagnifico","authorImage":null,"authorSlug":null,"score":201,"views":null,"sharedCount":null,"likeCount":null,"sharedContent":null,"parent":{"__typename":"HnJson","localize":[{"title":"缅甸发生军事政变，互联网中断。","locale":"zh"},{"title":"緬甸發生軍事政變，互聯網中斷。","locale":"zh-Hant"}]}},{"__typename":"SocialMediaPost","id":"HnPost-25982860","excerpt":"","slug":"/hn/25982860","title":"WhatsApp and the Domestication of Users","date":"February 01, 2021","dateISO":"2021-02-01T14:33:53.727Z","datetime":"2021-02-01 14:33","tags":["story","Hacker News"],"image":null,"imageAlt":null,"provider":"Hacker News","thirdPartyId":"25982860","url":"https://news.ycombinator.com/item?id=25982860","originalUrl":"https://seirdy.one/2021/01/27/whatsapp-and-the-domestication-of-users.html","imageRemote":"https://seirdy.one/open_graph.42bd16c0c4d0bffd6b521a72ee60d618.png","video":null,"channel":null,"channelUrl":null,"author":"upofadown","authorUrl":"https://news.ycombinator.com/user?id=upofadown","authorImage":null,"authorSlug":null,"score":167,"views":null,"sharedCount":null,"likeCount":null,"sharedContent":null,"parent":{"__typename":"HnJson","localize":[{"title":"WhatsApp与用户的驯化问题","locale":"zh"},{"title":"WhatsApp與用戶的馴化問題","locale":"zh-Hant"}]}},{"__typename":"SocialMediaPost","id":"HnPost-25986378","excerpt":"","slug":"/hn/25986378","title":"gemini:// space","date":"February 01, 2021","dateISO":"2021-02-01T14:33:53.727Z","datetime":"2021-02-01 14:33","tags":["story","Hacker News"],"image":null,"imageAlt":null,"provider":"Hacker News","thirdPartyId":"25986378","url":"https://news.ycombinator.com/item?id=25986378","originalUrl":"https://spwhitton.name//blog/entry/geminispace/","imageRemote":null,"video":null,"channel":null,"channelUrl":null,"author":"pabs3","authorUrl":"https://news.ycombinator.com/user?id=pabs3","authorImage":null,"authorSlug":null,"score":276,"views":null,"sharedCount":null,"likeCount":null,"sharedContent":null,"parent":{"__typename":"HnJson","localize":[{"title":"双子座://空间","locale":"zh"},{"title":"雙子座://空間","locale":"zh-Hant"}]}},{"__typename":"SocialMediaPost","id":"HnPost-25978962","excerpt":"","slug":"/hn/25978962","title":"Math Inspector: A Visual Programming Environment for Scientific Computing","date":"February 01, 2021","dateISO":"2021-02-01T13:57:33.936Z","datetime":"2021-02-01 13:57","tags":["story","Hacker News"],"image":null,"imageAlt":null,"provider":"Hacker News","thirdPartyId":"25978962","url":"https://news.ycombinator.com/item?id=25978962","originalUrl":"https://mathinspector.com/","imageRemote":"https://mathinspector.com/img/share.jpg","video":null,"channel":null,"channelUrl":null,"author":"jarmitage","authorUrl":"https://news.ycombinator.com/user?id=jarmitage","authorImage":null,"authorSlug":null,"score":173,"views":null,"sharedCount":null,"likeCount":null,"sharedContent":null,"parent":{"__typename":"HnJson","localize":[{"title":"Math Inspector: 科学计算的可视化编程环境","locale":"zh"},{"title":"Math Inspector: 科學計算的可視化編程環境","locale":"zh-Hant"}]}},{"__typename":"SocialMediaPost","id":"HnPost-25978000","excerpt":"","slug":"/hn/25978000","title":"Building a personal data warehouse in Snowflake for fun and no profit","date":"February 01, 2021","dateISO":"2021-02-01T11:56:36.166Z","datetime":"2021-02-01 11:56","tags":["story","Hacker News"],"image":null,"imageAlt":null,"provider":"Hacker News","thirdPartyId":"25978000","url":"https://news.ycombinator.com/item?id=25978000","originalUrl":"https://www.thomasdziedzic0.com/blog/building-a-personal-data-warehouse-in-snowflake-for-fun-and-no-profit","imageRemote":"http://static1.squarespace.com/static/5ff677a2eaa9b578ef9d00ba/t/60132c9c31da361bcbfe9917/1611883584161/Screenshot-from-2021-01-24-17-14-08.png?format=1500w","video":null,"channel":null,"channelUrl":null,"author":"thomasdziedzic","authorUrl":"https://news.ycombinator.com/user?id=thomasdziedzic","authorImage":null,"authorSlug":null,"score":166,"views":null,"sharedCount":null,"likeCount":null,"sharedContent":null,"parent":{"__typename":"HnJson","localize":[{"title":"在雪绒花中建立个人数据仓库，好玩又不赚钱。","locale":"zh"},{"title":"在雪絨花中建立個人數據倉庫，好玩又不賺錢。","locale":"zh-Hant"}]}},{"__typename":"SocialMediaPost","id":"HnPost-25976855","excerpt":"","slug":"/hn/25976855","title":"How does Clang 2.7 hold up in 2021?","date":"February 01, 2021","dateISO":"2021-02-01T11:32:18.577Z","datetime":"2021-02-01 11:32","tags":["story","Hacker News"],"image":null,"imageAlt":null,"provider":"Hacker News","thirdPartyId":"25976855","url":"https://news.ycombinator.com/item?id=25976855","originalUrl":"https://gist.github.com/zeux/3ce4fcc3a43072b4315abde95319ecb6","imageRemote":"https://github.githubassets.com/images/modules/gists/gist-og-image.png","video":null,"channel":null,"channelUrl":null,"author":"tbodt","authorUrl":"https://news.ycombinator.com/user?id=tbodt","authorImage":null,"authorSlug":null,"score":163,"views":null,"sharedCount":null,"likeCount":null,"sharedContent":null,"parent":{"__typename":"HnJson","localize":[{"title":"Clang 2.7在2021年如何保持？","locale":"zh"},{"title":"Clang 2.7在2021年如何保持？","locale":"zh-Hant"}]}},{"__typename":"SocialMediaPost","id":"HnPost-25984328","excerpt":"","slug":"/hn/25984328","title":"AMD vs. Intel vs. Nvidia: How Users Are Switching","date":"February 01, 2021","dateISO":"2021-02-01T10:58:31.895Z","datetime":"2021-02-01 10:58","tags":["story","Hacker News"],"image":null,"imageAlt":null,"provider":"Hacker News","thirdPartyId":"25984328","url":"https://news.ycombinator.com/item?id=25984328","originalUrl":"https://boilingsteam.com/amd-vs-nvidia-are-linux-gamers-switching-yet/","imageRemote":"https://boilingsteam.com/wp-content/uploads/amd-vs-nvidia-top.jpg","video":null,"channel":null,"channelUrl":null,"author":"ekianjo","authorUrl":"https://news.ycombinator.com/user?id=ekianjo","authorImage":null,"authorSlug":null,"score":224,"views":null,"sharedCount":null,"likeCount":null,"sharedContent":null,"parent":{"__typename":"HnJson","localize":[{"title":"AMD vs. 英特尔 vs. Nvidia：用户如何转换","locale":"zh"},{"title":"AMD vs. 英特爾 vs. Nvidia：用戶如何轉換","locale":"zh-Hant"}]}},{"__typename":"SocialMediaPost","id":"HnPost-25983759","excerpt":"","slug":"/hn/25983759","title":"Bedrock Linux – a meta Linux distribution","date":"February 01, 2021","dateISO":"2021-02-01T10:34:30.650Z","datetime":"2021-02-01 10:34","tags":["story","Hacker News"],"image":null,"imageAlt":null,"provider":"Hacker News","thirdPartyId":"25983759","url":"https://news.ycombinator.com/item?id=25983759","originalUrl":"https://bedrocklinux.org/","imageRemote":null,"video":null,"channel":null,"channelUrl":null,"author":"rhencke","authorUrl":"https://news.ycombinator.com/user?id=rhencke","authorImage":null,"authorSlug":null,"score":203,"views":null,"sharedCount":null,"likeCount":null,"sharedContent":null,"parent":{"__typename":"HnJson","localize":[{"title":"Bedrock Linux - 一个元Linux发行版","locale":"zh"},{"title":"Bedrock Linux - 一個元Linux發行版","locale":"zh-Hant"}]}},{"__typename":"SocialMediaPost","id":"HnPost-25986320","excerpt":"","slug":"/hn/25986320","title":"Counterfeiting Stock – Explaining illegal naked shorting and stock manipulation","date":"February 01, 2021","dateISO":"2021-02-01T10:34:30.650Z","datetime":"2021-02-01 10:34","tags":["story","Hacker News"],"image":null,"imageAlt":null,"provider":"Hacker News","thirdPartyId":"25986320","url":"https://news.ycombinator.com/item?id=25986320","originalUrl":"http://counterfeitingstock.com/CS2.0/CounterfeitingStock.html","imageRemote":"http://counterfeitingstock.com/CS2.0/diagram.png","video":null,"channel":null,"channelUrl":null,"author":"lelf","authorUrl":"https://news.ycombinator.com/user?id=lelf","authorImage":null,"authorSlug":null,"score":336,"views":null,"sharedCount":null,"likeCount":null,"sharedContent":null,"parent":{"__typename":"HnJson","localize":[{"title":"","locale":"zh"},{"title":"","locale":"zh-Hant"}]}},{"__typename":"SocialMediaPost","id":"HnPost-25986515","excerpt":"","slug":"/hn/25986515","title":"Apple watch keyboard developer put off by app store scammers","date":"February 01, 2021","dateISO":"2021-02-01T10:34:30.650Z","datetime":"2021-02-01 10:34","tags":["story","Hacker News"],"image":null,"imageAlt":null,"provider":"Hacker News","thirdPartyId":"25986515","url":"https://news.ycombinator.com/item?id=25986515","originalUrl":"https://twitter.com/keleftheriou/status/1356011069395755009","imageRemote":null,"video":null,"channel":null,"channelUrl":null,"author":"masalah","authorUrl":"https://news.ycombinator.com/user?id=masalah","authorImage":null,"authorSlug":null,"score":759,"views":null,"sharedCount":null,"likeCount":null,"sharedContent":null,"parent":{"__typename":"HnJson","localize":[{"title":"苹果手表键盘开发者被应用商店的骗子吓跑了","locale":"zh"},{"title":"蘋果手錶鍵盤開發者被應用商店的騙子嚇跑了","locale":"zh-Hant"}]}},{"__typename":"SocialMediaPost","id":"HnPost-25980901","excerpt":"","slug":"/hn/25980901","title":"A Collector of Math and Physics Surprises","date":"February 01, 2021","dateISO":"2021-02-01T08:57:19.878Z","datetime":"2021-02-01 08:57","tags":["story","Hacker News"],"image":null,"imageAlt":null,"provider":"Hacker News","thirdPartyId":"25980901","url":"https://news.ycombinator.com/item?id=25980901","originalUrl":"https://www.quantamagazine.org/tadashi-tokieda-collects-math-and-physics-surprises-20181127/","imageRemote":"https://d2r55xnwy6nx47.cloudfront.net/uploads/2018/11/Tokieda_1200x630_social.jpg","video":null,"channel":null,"channelUrl":null,"author":"haltingproblem","authorUrl":"https://news.ycombinator.com/user?id=haltingproblem","authorImage":null,"authorSlug":null,"score":179,"views":null,"sharedCount":null,"likeCount":null,"sharedContent":null,"parent":{"__typename":"HnJson","localize":[{"title":"数学和物理学惊喜的收藏家","locale":"zh"},{"title":"數學和物理學驚喜的收藏家","locale":"zh-Hant"}]}},{"__typename":"SocialMediaPost","id":"HnPost-25984998","excerpt":"","slug":"/hn/25984998","title":"Military seizes control in Myanmar","date":"February 01, 2021","dateISO":"2021-02-01T06:58:47.238Z","datetime":"2021-02-01 06:58","tags":["story","Hacker News"],"image":null,"imageAlt":null,"provider":"Hacker News","thirdPartyId":"25984998","url":"https://news.ycombinator.com/item?id=25984998","originalUrl":"https://www.bbc.com/news/world-asia-55882489","imageRemote":"https://ichef.bbci.co.uk/news/1024/branded_news/4E06/production/_116747991_hi065463059.jpg","video":null,"channel":null,"channelUrl":null,"author":"7d7n","authorUrl":"https://news.ycombinator.com/user?id=7d7n","authorImage":null,"authorSlug":null,"score":301,"views":null,"sharedCount":null,"likeCount":null,"sharedContent":null,"parent":{"__typename":"HnJson","localize":[{"title":"军方在缅甸夺取控制权","locale":"zh"},{"title":"軍方在緬甸奪取控制權","locale":"zh-Hant"}]}},{"__typename":"SocialMediaPost","id":"HnPost-25982302","excerpt":"","slug":"/hn/25982302","title":"Naked shorting: The curious incident of the shares that didn't exist (2005)","date":"January 31, 2021","dateISO":"2021-01-31T23:41:55.911Z","datetime":"2021-01-31 23:41","tags":["story","Hacker News"],"image":null,"imageAlt":null,"provider":"Hacker News","thirdPartyId":"25982302","url":"https://news.ycombinator.com/item?id=25982302","originalUrl":"https://web.archive.org/web/20160215135645/https://www.euromoney.com/Article/1001047/Naked-shorting-The-curious-incident-of-the-shares-that-didnt-.html","imageRemote":"https://web.archive.org/web/20160215135645im_/https://www.euromoney.com/App_Themes/em_com_2015/_app/img/euromoney_logo.png","video":null,"channel":null,"channelUrl":null,"author":"anaphor","authorUrl":"https://news.ycombinator.com/user?id=anaphor","authorImage":null,"authorSlug":null,"score":359,"views":null,"sharedCount":null,"likeCount":null,"sharedContent":null,"parent":{"__typename":"HnJson","localize":[{"title":"赤裸裸的做空。不存在的股票的奇怪事件(2005年)","locale":"zh"},{"title":"赤裸裸的做空。不存在的股票的奇怪事件(2005年)","locale":"zh-Hant"}]}},{"__typename":"SocialMediaPost","id":"HnPost-25978053","excerpt":"","slug":"/hn/25978053","title":"TeaVM: Build Fast, Modern Web Apps in Java","date":"January 31, 2021","dateISO":"2021-01-31T22:54:52.008Z","datetime":"2021-01-31 22:54","tags":["story","Hacker News"],"image":null,"imageAlt":null,"provider":"Hacker News","thirdPartyId":"25978053","url":"https://news.ycombinator.com/item?id=25978053","originalUrl":"http://teavm.org/","imageRemote":null,"video":null,"channel":null,"channelUrl":null,"author":"homarp","authorUrl":"https://news.ycombinator.com/user?id=homarp","authorImage":null,"authorSlug":null,"score":202,"views":null,"sharedCount":null,"likeCount":null,"sharedContent":null,"parent":{"__typename":"HnJson","localize":[{"title":"TeaVM。用Java构建快速、现代的Web应用","locale":"zh"},{"title":"TeaVM。用Java構建快速、現代的Web應用","locale":"zh-Hant"}]}},{"__typename":"SocialMediaPost","id":"HnPost-25976439","excerpt":"","slug":"/hn/25976439","title":"Drawbacks of P2P and a defense of Signal","date":"January 31, 2021","dateISO":"2021-01-31T21:33:29.642Z","datetime":"2021-01-31 21:33","tags":["story","Hacker News"],"image":null,"imageAlt":null,"provider":"Hacker News","thirdPartyId":"25976439","url":"https://news.ycombinator.com/item?id=25976439","originalUrl":"https://changelog.complete.org/archives/10216-the-hidden-drawbacks-of-p2p-and-a-defense-of-signal","imageRemote":"https://s0.wp.com/i/blank.jpg","video":null,"channel":null,"channelUrl":null,"author":"pabs3","authorUrl":"https://news.ycombinator.com/user?id=pabs3","authorImage":null,"authorSlug":null,"score":179,"views":null,"sharedCount":null,"likeCount":null,"sharedContent":null,"parent":{"__typename":"HnJson","localize":[{"title":"P2P的弊端与Signal的辩解","locale":"zh"},{"title":"P2P的弊端與Signal的辯解","locale":"zh-Hant"}]}},{"__typename":"SocialMediaPost","id":"HnPost-25971963","excerpt":"","slug":"/hn/25971963","title":"Why it’s usually crazier than you expect","date":"January 31, 2021","dateISO":"2021-01-31T21:18:12.896Z","datetime":"2021-01-31 21:18","tags":["story","Hacker News"],"image":null,"imageAlt":null,"provider":"Hacker News","thirdPartyId":"25971963","url":"https://news.ycombinator.com/item?id=25971963","originalUrl":"https://www.collaborativefund.com/blog/crazy/","imageRemote":"http://www.collaborativefund.com/uploads/lubo-minar-qRGuuVOzsTc-unsplash.jpg","video":null,"channel":null,"channelUrl":null,"author":"antdke","authorUrl":"https://news.ycombinator.com/user?id=antdke","authorImage":null,"authorSlug":null,"score":165,"views":null,"sharedCount":null,"likeCount":null,"sharedContent":null,"parent":{"__typename":"HnJson","localize":[{"title":"为什么它通常比你想象的更疯狂？","locale":"zh"},{"title":"爲什麼它通常比你想象的更瘋狂？","locale":"zh-Hant"}]}},{"__typename":"SocialMediaPost","id":"HnPost-25979584","excerpt":"","slug":"/hn/25979584","title":"The MIT License, Line by Line","date":"January 31, 2021","dateISO":"2021-01-31T19:51:31.541Z","datetime":"2021-01-31 19:51","tags":["story","Hacker News"],"image":null,"imageAlt":null,"provider":"Hacker News","thirdPartyId":"25979584","url":"https://news.ycombinator.com/item?id=25979584","originalUrl":"https://writing.kemitchell.com/2016/09/21/MIT-License-Line-by-Line.html","imageRemote":"https://writing.kemitchell.com/placeholder-on-white.png","video":null,"channel":null,"channelUrl":null,"author":"known","authorUrl":"https://news.ycombinator.com/user?id=known","authorImage":null,"authorSlug":null,"score":370,"views":null,"sharedCount":null,"likeCount":null,"sharedContent":null,"parent":{"__typename":"HnJson","localize":[{"title":"麻省理工学院的许可证，逐字逐句","locale":"zh"},{"title":"麻省理工學院的許可證，逐字逐句","locale":"zh-Hant"}]}},{"__typename":"SocialMediaPost","id":"HnPost-25968751","excerpt":"","slug":"/hn/25968751","title":"How to Increase Your Luck Surface Area (2010)","date":"January 31, 2021","dateISO":"2021-01-31T19:09:27.406Z","datetime":"2021-01-31 19:09","tags":["story","Hacker News"],"image":null,"imageAlt":null,"provider":"Hacker News","thirdPartyId":"25968751","url":"https://news.ycombinator.com/item?id=25968751","originalUrl":"https://www.codusoperandi.com/posts/increasing-your-luck-surface-area","imageRemote":"https://www.codusoperandi.com/posts/images/luck-surface-area.png","video":null,"channel":null,"channelUrl":null,"author":"deadcoder0904","authorUrl":"https://news.ycombinator.com/user?id=deadcoder0904","authorImage":null,"authorSlug":null,"score":352,"views":null,"sharedCount":null,"likeCount":null,"sharedContent":null,"parent":{"__typename":"HnJson","localize":[{"title":"如何增加你的运气表面积(2010)","locale":"zh"},{"title":"如何增加你的運氣表面積(2010)","locale":"zh-Hant"}]}},{"__typename":"SocialMediaPost","id":"HnPost-25978190","excerpt":"","slug":"/hn/25978190","title":"Why I still Lisp","date":"January 31, 2021","dateISO":"2021-01-31T18:43:58.228Z","datetime":"2021-01-31 18:43","tags":["story","Hacker News"],"image":null,"imageAlt":null,"provider":"Hacker News","thirdPartyId":"25978190","url":"https://news.ycombinator.com/item?id=25978190","originalUrl":"https://mendhekar.medium.com/why-i-still-lisp-and-you-should-too-18a2ae36bd8","imageRemote":"https://miro.medium.com/max/811/1*BBzSK02LI9pvIGtiT_1IbA.png","video":null,"channel":null,"channelUrl":null,"author":"lycopodiopsida","authorUrl":"https://news.ycombinator.com/user?id=lycopodiopsida","authorImage":null,"authorSlug":null,"score":282,"views":null,"sharedCount":null,"likeCount":null,"sharedContent":null,"parent":{"__typename":"HnJson","localize":[{"title":"为什么我还在说Lisp","locale":"zh"},{"title":"爲什麼我還在說Lisp","locale":"zh-Hant"}]}},{"__typename":"SocialMediaPost","id":"HnPost-25979673","excerpt":"","slug":"/hn/25979673","title":"Why Robinhood Disabled Buys but Not Sells","date":"January 31, 2021","dateISO":"2021-01-31T18:07:53.120Z","datetime":"2021-01-31 18:07","tags":["story","Hacker News"],"image":null,"imageAlt":null,"provider":"Hacker News","thirdPartyId":"25979673","url":"https://news.ycombinator.com/item?id=25979673","originalUrl":"https://stu2b50.dev/posts/why-robinhood-d3580b","imageRemote":"https://stu2b50.dev/public/logov1.svg","video":null,"channel":null,"channelUrl":null,"author":"stu2b50","authorUrl":"https://news.ycombinator.com/user?id=stu2b50","authorImage":null,"authorSlug":null,"score":704,"views":null,"sharedCount":null,"likeCount":null,"sharedContent":null,"parent":{"__typename":"HnJson","localize":[{"title":"为什么罗宾汉伤残买而不卖？","locale":"zh"},{"title":"爲什麼羅賓漢傷殘買而不賣？","locale":"zh-Hant"}]}},{"__typename":"SocialMediaPost","id":"HnPost-25979774","excerpt":"","slug":"/hn/25979774","title":"GitHub Should Start an App Store","date":"January 31, 2021","dateISO":"2021-01-31T17:30:29.589Z","datetime":"2021-01-31 17:30","tags":["story","Hacker News"],"image":null,"imageAlt":null,"provider":"Hacker News","thirdPartyId":"25979774","url":"https://news.ycombinator.com/item?id=25979774","originalUrl":"https://www.ankshilp.com/time_for_github_app_store/","imageRemote":"https://www.ankshilp.com/images/avatar.png","video":null,"channel":null,"channelUrl":null,"author":"quaintdev","authorUrl":"https://news.ycombinator.com/user?id=quaintdev","authorImage":null,"authorSlug":null,"score":814,"views":null,"sharedCount":null,"likeCount":null,"sharedContent":null,"parent":{"__typename":"HnJson","localize":[{"title":"GitHub应该建立一个应用商店","locale":"zh"},{"title":"GitHub應該建立一個應用商店","locale":"zh-Hant"}]}},{"__typename":"SocialMediaPost","id":"HnPost-25974757","excerpt":"","slug":"/hn/25974757","title":"RV64X: A Free, open-source GPU for RISC-V","date":"January 31, 2021","dateISO":"2021-01-31T15:17:25.559Z","datetime":"2021-01-31 15:17","tags":["story","Hacker News"],"image":null,"imageAlt":null,"provider":"Hacker News","thirdPartyId":"25974757","url":"https://news.ycombinator.com/item?id=25974757","originalUrl":"https://www.eetimes.com/rv64x-a-free-open-source-gpu-for-risc-v/","imageRemote":"https://www.eetimes.com/wp-content/uploads/GPU-2.png?fit=914%2C620","video":null,"channel":null,"channelUrl":null,"author":"mardiyah","authorUrl":"https://news.ycombinator.com/user?id=mardiyah","authorImage":null,"authorSlug":null,"score":188,"views":null,"sharedCount":null,"likeCount":null,"sharedContent":null,"parent":{"__typename":"HnJson","localize":[{"title":"RV64X：一个免费的、开源的RISC-V的GPU。","locale":"zh"},{"title":"RV64X：一個免費的、開源的RISC-V的GPU。","locale":"zh-Hant"}]}},{"__typename":"SocialMediaPost","id":"HnPost-25978013","excerpt":"","slug":"/hn/25978013","title":"How to Turn an IKEA Coffee Table into a DIY Server Rack","date":"January 31, 2021","dateISO":"2021-01-31T14:46:57.352Z","datetime":"2021-01-31 14:46","tags":["story","Hacker News"],"image":null,"imageAlt":null,"provider":"Hacker News","thirdPartyId":"25978013","url":"https://news.ycombinator.com/item?id=25978013","originalUrl":"https://wiki.eth0.nl/index.php/LackRack","imageRemote":"https://wiki.eth0.nl/images/3/33/Lackrack_manual_page_1_400x566.png","video":null,"channel":null,"channelUrl":null,"author":"thejokersthief","authorUrl":"https://news.ycombinator.com/user?id=thejokersthief","authorImage":null,"authorSlug":null,"score":414,"views":null,"sharedCount":null,"likeCount":null,"sharedContent":null,"parent":{"__typename":"HnJson","localize":[{"title":"如何把宜家的茶几变成DIY服务器支架","locale":"zh"},{"title":"如何把宜家的茶几變成DIY服務器支架","locale":"zh-Hant"}]}},{"__typename":"SocialMediaPost","id":"HnPost-25973242","excerpt":"","slug":"/hn/25973242","title":"Docker, Django, Traefik, and IntercoolerJS: My go-to stack for building a SaaS","date":"January 31, 2021","dateISO":"2021-01-31T08:34:20.168Z","datetime":"2021-01-31 08:34","tags":["story","Hacker News"],"image":null,"imageAlt":null,"provider":"Hacker News","thirdPartyId":"25973242","url":"https://news.ycombinator.com/item?id=25973242","originalUrl":"https://www.simplecto.com/docker-django-traefik-intercoolerjs-is-my-stack-for-2021/","imageRemote":"https://www.simplecto.com/content/images/2021/01/docker-django2021.jpg","video":null,"channel":null,"channelUrl":null,"author":"simplecto","authorUrl":"https://news.ycombinator.com/user?id=simplecto","authorImage":null,"authorSlug":null,"score":289,"views":null,"sharedCount":null,"likeCount":null,"sharedContent":null,"parent":{"__typename":"HnJson","localize":[{"title":"Docker、Django、Traefik和IntercoolerJS：我构建SaaS的首选栈。","locale":"zh"},{"title":"Docker、Django、Traefik和IntercoolerJS：我構建SaaS的首選棧。","locale":"zh-Hant"}]}}]}},"pageContext":{"basePath":"/","pageType":"tag","tag":"Hacker News","tagsFilter":{"id":{"glob":"!*Post-1"}},"filter":{"id":{"glob":"!*Post-1"},"tags":{"eq":"Hacker News"}},"limit":25,"skip":1000,"total":2407,"totalPages":97,"currentPage":41,"maxWidth":1024,"maxHeight":512,"locale":"zh-Hant","hrefLang":"zh-Hant","originalPath":"/tags/hacker-news/page/41","dateFormat":"YYYY-MM-DD"}},"staticQueryHashes":["1239077767","2506312863","2744905544","3025052997","3493603132","3493603132","3513215887","386998304"]}