{"componentChunkName":"component---gatsby-theme-buzzing-src-gatsby-theme-timeline-templates-posts-query-js","path":"/ja/tags/hacker-news/page/17","result":{"data":{"site":{"siteMetadata":{"title":"Reddit 热门","description":"用中文浏览Reddit热门内容","social":[{"name":"Twitter","url":"https://twitter.com/gatsbyjs","external":null,"prefetch":null},{"name":"GitHub","url":"https://github.com/gatsbyjs","external":null,"prefetch":null}],"menuLinks":[],"localize":[{"locale":"en","title":"Buzzing on Reddit","description":"See what's buzzing on Reddit in your native language","social":[{"name":"Reddit","url":"https://www.reddit.com/","external":true,"prefetch":null}],"menuLinks":[{"name":"Weekly Selection","url":"/issues","external":null,"prefetch":null},{"name":"RSS","url":"/rss.xml","external":null,"prefetch":false}]},{"locale":"zh-Hant","title":"Reddit 熱門","description":"用中文瀏覽Reddit熱門內容","social":null,"menuLinks":null}]}},"tagsGroup":{"group":[{"fieldValue":"ASK HN","totalCount":54},{"fieldValue":"Hacker News","totalCount":3105},{"fieldValue":"Poll","totalCount":1},{"fieldValue":"Show HN","totalCount":100},{"fieldValue":"poll","totalCount":1},{"fieldValue":"story","totalCount":3104}]},"allBlogPost":{"nodes":[{"__typename":"SocialMediaPost","id":"HnPost-26550429","excerpt":"","slug":"/hn/26550429","title":"Microsoft in talks to buy Discord for more than $10B","date":"March 23, 2021","dateISO":"2021-03-23T06:52:17.823Z","datetime":"2021-03-23 06:52","tags":["story","Hacker News"],"image":null,"imageAlt":null,"provider":"Hacker News","thirdPartyId":"26550429","url":"https://news.ycombinator.com/item?id=26550429","originalUrl":"https://www.bloomberg.com/news/articles/2021-03-23/microsoft-said-to-be-in-talks-to-buy-discord-for-more-than-10b","imageRemote":null,"video":null,"channel":null,"channelUrl":null,"author":"meibo","authorUrl":"https://news.ycombinator.com/user?id=meibo","authorImage":null,"authorSlug":null,"score":407,"views":null,"sharedCount":null,"likeCount":null,"sharedContent":null,"parent":{"__typename":"HnJson","localize":[{"title":"微软洽谈以超过100亿美元的价格收购Discord。","locale":"zh"},{"title":"微軟洽談以超過100億美元的價格收購Discord。","locale":"zh-Hant"}]}},{"__typename":"SocialMediaPost","id":"HnPost-26544739","excerpt":"","slug":"/hn/26544739","title":"All my career rejections","date":"March 23, 2021","dateISO":"2021-03-23T06:28:01.155Z","datetime":"2021-03-23 06:28","tags":["story","Hacker News"],"image":null,"imageAlt":null,"provider":"Hacker News","thirdPartyId":"26544739","url":"https://news.ycombinator.com/item?id=26544739","originalUrl":"https://web.eecs.utk.edu/~azh/blog/allmyrejections.html","imageRemote":"https://web.eecs.utk.edu/~azh/blog/images/rejection.jpg","video":null,"channel":null,"channelUrl":null,"author":"azhenley","authorUrl":"https://news.ycombinator.com/user?id=azhenley","authorImage":null,"authorSlug":null,"score":225,"views":null,"sharedCount":null,"likeCount":null,"sharedContent":null,"parent":{"__typename":"HnJson","localize":[{"title":"我所有的职业生涯被拒绝","locale":"zh"},{"title":"我所有的職業生涯被拒絕","locale":"zh-Hant"}]}},{"__typename":"SocialMediaPost","id":"HnPost-26548291","excerpt":"","slug":"/hn/26548291","title":"MacBook Owners' Butterfly Keyboard Lawsuit Gets Class Action Certification","date":"March 23, 2021","dateISO":"2021-03-23T06:28:01.155Z","datetime":"2021-03-23 06:28","tags":["story","Hacker News"],"image":null,"imageAlt":null,"provider":"Hacker News","thirdPartyId":"26548291","url":"https://news.ycombinator.com/item?id=26548291","originalUrl":"https://www.macrumors.com/2021/03/22/apple-butterfly-keyboard-lawsuit-class-action/","imageRemote":"https://images.macrumors.com/t/1ltrDVmImwsuK8pBNoeww1wV2zw=/1955x/https://images.macrumors.com/article-new/2021/03/macbook-pro-butterfly-keyboard.jpg","video":null,"channel":null,"channelUrl":null,"author":"ek750","authorUrl":"https://news.ycombinator.com/user?id=ek750","authorImage":null,"authorSlug":null,"score":204,"views":null,"sharedCount":null,"likeCount":null,"sharedContent":null,"parent":{"__typename":"HnJson","localize":[{"title":"MacBook用户的蝴蝶键盘诉讼获得集体诉讼认证","locale":"zh"},{"title":"MacBook用戶的蝴蝶鍵盤訴訟獲得集體訴訟認證","locale":"zh-Hant"}]}},{"__typename":"SocialMediaPost","id":"HnPost-26545162","excerpt":"","slug":"/hn/26545162","title":"Rents for the rich are going down, rents for the poor are going up. Why?","date":"March 23, 2021","dateISO":"2021-03-23T05:19:35.453Z","datetime":"2021-03-23 05:19","tags":["story","Hacker News"],"image":null,"imageAlt":null,"provider":"Hacker News","thirdPartyId":"26545162","url":"https://news.ycombinator.com/item?id=26545162","originalUrl":"https://www.washingtonpost.com/opinions/2021/03/22/rents-rich-are-plummeting-rents-poor-are-rising-why/","imageRemote":"https://www.washingtonpost.com/resizer/Vv7EbW6BM7FltMWoODCH79nB158=/1484x0/arc-anglerfish-washpost-prod-washpost.s3.amazonaws.com/public/ZZSTOFUHMQI6XPSKES4J6YLPFQ.jpg","video":null,"channel":null,"channelUrl":null,"author":"ece","authorUrl":"https://news.ycombinator.com/user?id=ece","authorImage":null,"authorSlug":null,"score":187,"views":null,"sharedCount":null,"likeCount":null,"sharedContent":null,"parent":{"__typename":"HnJson","localize":[{"title":"富人的租金在下降，穷人的租金在上升。为什么？","locale":"zh"},{"title":"富人的租金在下降，窮人的租金在上升。爲什麼？","locale":"zh-Hant"}]}},{"__typename":"SocialMediaPost","id":"HnPost-26543495","excerpt":"","slug":"/hn/26543495","title":"Thunderbird 2020 Financial Report","date":"March 23, 2021","dateISO":"2021-03-23T02:52:54.836Z","datetime":"2021-03-23 02:52","tags":["story","Hacker News"],"image":null,"imageAlt":null,"provider":"Hacker News","thirdPartyId":"26543495","url":"https://news.ycombinator.com/item?id=26543495","originalUrl":"https://groups.google.com/g/tb-planning/c/-jbmYvYdX1g","imageRemote":"https://lh3.googleusercontent.com/a-/AOh14Ggck-Zt11L9ZrgStkG7SxUQciTzEHx9DxonXBnM=s40-c","video":null,"channel":null,"channelUrl":null,"author":"joeyespo","authorUrl":"https://news.ycombinator.com/user?id=joeyespo","authorImage":null,"authorSlug":null,"score":194,"views":null,"sharedCount":null,"likeCount":null,"sharedContent":null,"parent":{"__typename":"HnJson","localize":[{"title":"雷鸟2020年财务报告","locale":"zh"},{"title":"雷鳥2020年財務報告","locale":"zh-Hant"}]}},{"__typename":"SocialMediaPost","id":"HnPost-26547172","excerpt":"","slug":"/hn/26547172","title":"The price students pay for a prized IIT seat","date":"March 23, 2021","dateISO":"2021-03-23T02:52:54.836Z","datetime":"2021-03-23 02:52","tags":["story","Hacker News"],"image":null,"imageAlt":null,"provider":"Hacker News","thirdPartyId":"26547172","url":"https://news.ycombinator.com/item?id=26547172","originalUrl":"https://theprint.in/india/education/no-life-no-hobbies-burnout-lost-childhood-the-price-students-pay-for-a-prized-iit-seat/625040/","imageRemote":"https://theprint.in/wp-content/uploads/2020/11/JEE-Mains.jpg","video":null,"channel":null,"channelUrl":null,"author":"rustoo","authorUrl":"https://news.ycombinator.com/user?id=rustoo","authorImage":null,"authorSlug":null,"score":166,"views":null,"sharedCount":null,"likeCount":null,"sharedContent":null,"parent":{"__typename":"HnJson","localize":[{"title":"学生们为获得一个珍贵的工学院席位所付出的代价。","locale":"zh"},{"title":"學生們爲獲得一個珍貴的工學院席位所付出的代價。","locale":"zh-Hant"}]}},{"__typename":"SocialMediaPost","id":"HnPost-26549307","excerpt":"","slug":"/hn/26549307","title":"Substack's UI and 1Password temporarily cost me $2k","date":"March 23, 2021","dateISO":"2021-03-23T02:52:54.836Z","datetime":"2021-03-23 02:52","tags":["story","Hacker News"],"image":null,"imageAlt":null,"provider":"Hacker News","thirdPartyId":"26549307","url":"https://news.ycombinator.com/item?id=26549307","originalUrl":"https://timmyomahony.com/blog/substacks-ui-just-cost-me-2-023","imageRemote":"https://cdn.timmyomahony.com/assets/_1200x630_crop_center-center_82_none/placeholder.f1595721752.png?mtime=20200726010153&focal=none&tmtime=20210322235421","video":null,"channel":null,"channelUrl":null,"author":"tomahony","authorUrl":"https://news.ycombinator.com/user?id=tomahony","authorImage":null,"authorSlug":null,"score":513,"views":null,"sharedCount":null,"likeCount":null,"sharedContent":null,"parent":{"__typename":"HnJson","localize":[{"title":"Substack的UI和1Password暂时让我损失了2千块钱。","locale":"zh"},{"title":"Substack的UI和1Password暫時讓我損失了2千塊錢。","locale":"zh-Hant"}]}},{"__typename":"SocialMediaPost","id":"HnPost-26547268","excerpt":"","slug":"/hn/26547268","title":"Please don't upgrade Docker without asking first","date":"March 22, 2021","dateISO":"2021-03-22T23:26:10.138Z","datetime":"2021-03-22 23:26","tags":["story","Hacker News"],"image":null,"imageAlt":null,"provider":"Hacker News","thirdPartyId":"26547268","url":"https://news.ycombinator.com/item?id=26547268","originalUrl":"https://github.com/docker/roadmap/issues/183","imageRemote":"https://avatars.githubusercontent.com/u/5429470?s=400&v=4","video":null,"channel":null,"channelUrl":null,"author":"timmytokyo","authorUrl":"https://news.ycombinator.com/user?id=timmytokyo","authorImage":null,"authorSlug":null,"score":279,"views":null,"sharedCount":null,"likeCount":null,"sharedContent":null,"parent":{"__typename":"HnJson","localize":[{"title":"请不要在没有事先询问的情况下升级Docker。","locale":"zh"},{"title":"請不要在沒有事先詢問的情況下升級Docker。","locale":"zh-Hant"}]}},{"__typename":"SocialMediaPost","id":"HnPost-26543259","excerpt":"","slug":"/hn/26543259","title":"EU vaccine rollout severely lags behind","date":"March 22, 2021","dateISO":"2021-03-22T22:51:21.140Z","datetime":"2021-03-22 22:51","tags":["story","Hacker News"],"image":null,"imageAlt":null,"provider":"Hacker News","thirdPartyId":"26543259","url":"https://news.ycombinator.com/item?id=26543259","originalUrl":"https://www.statista.com/chart/24471/covid-19-vaccine-doses-per-100-people/","imageRemote":"https://cdn.statcdn.com/Infographic/images/normal/24471.jpeg","video":null,"channel":null,"channelUrl":null,"author":"undefined1","authorUrl":"https://news.ycombinator.com/user?id=undefined1","authorImage":null,"authorSlug":null,"score":238,"views":null,"sharedCount":null,"likeCount":null,"sharedContent":null,"parent":{"__typename":"HnJson","localize":[{"title":"欧盟疫苗的推广严重滞后。","locale":"zh"},{"title":"歐盟疫苗的推廣嚴重滯後。","locale":"zh-Hant"}]}},{"__typename":"SocialMediaPost","id":"HnPost-26546376","excerpt":"","slug":"/hn/26546376","title":"OpenSSL will release a HIGH severity issue fix on 25th","date":"March 22, 2021","dateISO":"2021-03-22T21:39:45.437Z","datetime":"2021-03-22 21:39","tags":["story","Hacker News"],"image":null,"imageAlt":null,"provider":"Hacker News","thirdPartyId":"26546376","url":"https://news.ycombinator.com/item?id=26546376","originalUrl":"https://mta.openssl.org/pipermail/openssl-announce/2021-March/000196.html","imageRemote":null,"video":null,"channel":null,"channelUrl":null,"author":"yread","authorUrl":"https://news.ycombinator.com/user?id=yread","authorImage":null,"authorSlug":null,"score":280,"views":null,"sharedCount":null,"likeCount":null,"sharedContent":null,"parent":{"__typename":"HnJson","localize":[{"title":"OpenSSL将在25日发布一个高严重性问题修复程序","locale":"zh"},{"title":"OpenSSL將在25日發佈一個高嚴重性問題修復程序","locale":"zh-Hant"}]}},{"__typename":"SocialMediaPost","id":"HnPost-26529073","excerpt":"","slug":"/hn/26529073","title":"Stanford Encyclopedia of Philosophy","date":"March 22, 2021","dateISO":"2021-03-22T20:47:28.047Z","datetime":"2021-03-22 20:47","tags":["story","Hacker News"],"image":null,"imageAlt":null,"provider":"Hacker News","thirdPartyId":"26529073","url":"https://news.ycombinator.com/item?id=26529073","originalUrl":"https://plato.stanford.edu/","imageRemote":"https://plato.stanford.edu/symbols/sep-man-red.png","video":null,"channel":null,"channelUrl":null,"author":"Tomte","authorUrl":"https://news.ycombinator.com/user?id=Tomte","authorImage":null,"authorSlug":null,"score":141,"views":null,"sharedCount":null,"likeCount":null,"sharedContent":null,"parent":{"__typename":"HnJson","localize":[{"title":"斯坦福哲学百科全书","locale":"zh"},{"title":"斯坦福哲學百科全書","locale":"zh-Hant"}]}},{"__typename":"SocialMediaPost","id":"HnPost-26544492","excerpt":"","slug":"/hn/26544492","title":"U.S. Supreme Court rebuffs Facebook appeal in user tracking lawsuit","date":"March 22, 2021","dateISO":"2021-03-22T20:47:28.046Z","datetime":"2021-03-22 20:47","tags":["story","Hacker News"],"image":null,"imageAlt":null,"provider":"Hacker News","thirdPartyId":"26544492","url":"https://news.ycombinator.com/item?id=26544492","originalUrl":"https://www.reuters.com/article/us-usa-court-facebook/u-s-supreme-court-rebuffs-facebook-appeal-in-user-tracking-lawsuit-idUSKBN2BE1TX","imageRemote":"https://static.reuters.com/resources/r/?m=02&d=20210322&t=2&i=1555752043&r=LYNXMPEH2L15G&w=800","video":null,"channel":null,"channelUrl":null,"author":"LinuxBender","authorUrl":"https://news.ycombinator.com/user?id=LinuxBender","authorImage":null,"authorSlug":null,"score":350,"views":null,"sharedCount":null,"likeCount":null,"sharedContent":null,"parent":{"__typename":"HnJson","localize":[{"title":"美国最高法院驳回Facebook在用户追踪诉讼中的上诉。","locale":"zh"},{"title":"美國最高法院駁回Facebook在用戶追蹤訴訟中的上訴。","locale":"zh-Hant"}]}},{"__typename":"SocialMediaPost","id":"HnPost-26538150","excerpt":"","slug":"/hn/26538150","title":"Opticsim.jl: Optical Simulation Software","date":"March 22, 2021","dateISO":"2021-03-22T20:33:15.425Z","datetime":"2021-03-22 20:33","tags":["story","Hacker News"],"image":null,"imageAlt":null,"provider":"Hacker News","thirdPartyId":"26538150","url":"https://news.ycombinator.com/item?id=26538150","originalUrl":"https://github.com/microsoft/OpticSim.jl","imageRemote":"https://avatars.githubusercontent.com/u/6154722?s=400&v=4","video":null,"channel":null,"channelUrl":null,"author":"newswasboring","authorUrl":"https://news.ycombinator.com/user?id=newswasboring","authorImage":null,"authorSlug":null,"score":156,"views":null,"sharedCount":null,"likeCount":null,"sharedContent":null,"parent":{"__typename":"HnJson","localize":[{"title":"Opticsim.jl: 光学模拟软件","locale":"zh"},{"title":"Opticsim.jl: 光學模擬軟件","locale":"zh-Hant"}]}},{"__typename":"SocialMediaPost","id":"HnPost-26539508","excerpt":"","slug":"/hn/26539508","title":"Scala projects are difficult to maintain","date":"March 22, 2021","dateISO":"2021-03-22T20:33:15.425Z","datetime":"2021-03-22 20:33","tags":["story","Hacker News"],"image":null,"imageAlt":null,"provider":"Hacker News","thirdPartyId":"26539508","url":"https://news.ycombinator.com/item?id=26539508","originalUrl":"https://mungingdata.com/scala/maintenance-nightmare-upgrade/","imageRemote":"https://mungingdata.com/wp-content/uploads/2021/03/Screen-Shot-2021-03-21-at-6.40.24-PM-1024x224.png","video":null,"channel":null,"channelUrl":null,"author":"MrPowers","authorUrl":"https://news.ycombinator.com/user?id=MrPowers","authorImage":null,"authorSlug":null,"score":165,"views":null,"sharedCount":null,"likeCount":null,"sharedContent":null,"parent":{"__typename":"HnJson","localize":[{"title":"Scala项目难以维护","locale":"zh"},{"title":"Scala項目難以維護","locale":"zh-Hant"}]}},{"__typename":"SocialMediaPost","id":"HnPost-26543533","excerpt":"","slug":"/hn/26543533","title":"I captured the Iceland volcano eruption from up close","date":"March 22, 2021","dateISO":"2021-03-22T20:33:15.425Z","datetime":"2021-03-22 20:33","tags":["story","Hacker News"],"image":null,"imageAlt":null,"provider":"Hacker News","thirdPartyId":"26543533","url":"https://news.ycombinator.com/item?id=26543533","originalUrl":"https://petapixel.com/2021/03/22/i-captured-the-iceland-volcano-eruption-from-up-close/","imageRemote":"https://petapixel.com/assets/uploads/2021/03/volcanoupclosefeat.jpg","video":null,"channel":null,"channelUrl":null,"author":"giuliomagnifico","authorUrl":"https://news.ycombinator.com/user?id=giuliomagnifico","authorImage":null,"authorSlug":null,"score":145,"views":null,"sharedCount":null,"likeCount":null,"sharedContent":null,"parent":{"__typename":"HnJson","localize":[{"title":"我近距离拍摄了冰岛火山喷发的场景。","locale":"zh"},{"title":"我近距離拍攝了冰島火山噴發的場景。","locale":"zh-Hant"}]}},{"__typename":"SocialMediaPost","id":"HnPost-26540458","excerpt":"","slug":"/hn/26540458","title":"Why the Wuhan lab leak theory shouldn't be dismissed","date":"March 22, 2021","dateISO":"2021-03-22T20:10:17.153Z","datetime":"2021-03-22 20:10","tags":["story","Hacker News"],"image":null,"imageAlt":null,"provider":"Hacker News","thirdPartyId":"26540458","url":"https://news.ycombinator.com/item?id=26540458","originalUrl":"https://eu.usatoday.com/in-depth/opinion/2021/03/22/why-covid-lab-leak-theory-wuhan-shouldnt-dismissed-column/4765985001/","imageRemote":"https://www.gannett-cdn.com/-mm-/2231b5d0dbeca9ca5d6eb55557eaa9023098649e/c=0-158-2464-1550/local/-/media/2016/05/27/USATODAY/USATODAY/635999728581573719-CDC-Building-18.jpg?width=1200","video":null,"channel":null,"channelUrl":null,"author":"ruaraidh","authorUrl":"https://news.ycombinator.com/user?id=ruaraidh","authorImage":null,"authorSlug":null,"score":1152,"views":null,"sharedCount":null,"likeCount":null,"sharedContent":null,"parent":{"__typename":"HnJson","localize":[{"title":"为什么不应该否定武汉实验室泄密论？","locale":"zh"},{"title":"爲什麼不應該否定武漢實驗室泄密論？","locale":"zh-Hant"}]}},{"__typename":"SocialMediaPost","id":"HnPost-26543347","excerpt":"","slug":"/hn/26543347","title":"In January, there were more real-estate agents than homes for sale in the U.S.","date":"March 22, 2021","dateISO":"2021-03-22T20:10:17.153Z","datetime":"2021-03-22 20:10","tags":["story","Hacker News"],"image":null,"imageAlt":null,"provider":"Hacker News","thirdPartyId":"26543347","url":"https://news.ycombinator.com/item?id=26543347","originalUrl":"https://www.wsj.com/articles/new-realtors-pile-into-hot-housing-market-most-find-it-tough-going-11616328002","imageRemote":"https://images.wsj.net/im-314195/social","video":null,"channel":null,"channelUrl":null,"author":"undefined1","authorUrl":"https://news.ycombinator.com/user?id=undefined1","authorImage":null,"authorSlug":null,"score":266,"views":null,"sharedCount":null,"likeCount":null,"sharedContent":null,"parent":{"__typename":"HnJson","localize":[{"title":"1月份，美国的房地产经纪人比待售房屋多。","locale":"zh"},{"title":"1月份，美國的房地產經紀人比待售房屋多。","locale":"zh-Hant"}]}},{"__typename":"SocialMediaPost","id":"HnPost-26545082","excerpt":"","slug":"/hn/26545082","title":"Crystal 1.0 – What to expect","date":"March 22, 2021","dateISO":"2021-03-22T20:10:17.153Z","datetime":"2021-03-22 20:10","tags":["story","Hacker News"],"image":null,"imageAlt":null,"provider":"Hacker News","thirdPartyId":"26545082","url":"https://news.ycombinator.com/item?id=26545082","originalUrl":"https://crystal-lang.org/2021/03/22/crystal-1.0-what-to-expect.html","imageRemote":null,"video":null,"channel":null,"channelUrl":null,"author":"mfkp","authorUrl":"https://news.ycombinator.com/user?id=mfkp","authorImage":null,"authorSlug":null,"score":730,"views":null,"sharedCount":null,"likeCount":null,"sharedContent":null,"parent":{"__typename":"HnJson","localize":[{"title":"Crystal 1.0 - 期待什么","locale":"zh"},{"title":"Crystal 1.0 - 期待什麼","locale":"zh-Hant"}]}},{"__typename":"SocialMediaPost","id":"HnPost-26537693","excerpt":"","slug":"/hn/26537693","title":"How Safe Is Zig?","date":"March 22, 2021","dateISO":"2021-03-22T19:19:51.672Z","datetime":"2021-03-22 19:19","tags":["story","Hacker News"],"image":null,"imageAlt":null,"provider":"Hacker News","thirdPartyId":"26537693","url":"https://news.ycombinator.com/item?id=26537693","originalUrl":"https://scattered-thoughts.net/writing/how-safe-is-zig/","imageRemote":null,"video":null,"channel":null,"channelUrl":null,"author":"bshanks","authorUrl":"https://news.ycombinator.com/user?id=bshanks","authorImage":null,"authorSlug":null,"score":190,"views":null,"sharedCount":null,"likeCount":null,"sharedContent":null,"parent":{"__typename":"HnJson","localize":[{"title":"Zig的安全性如何？","locale":"zh"},{"title":"Zig的安全性如何？","locale":"zh-Hant"}]}},{"__typename":"SocialMediaPost","id":"HnPost-26543527","excerpt":"","slug":"/hn/26543527","title":"6 years after FI and early retirement","date":"March 22, 2021","dateISO":"2021-03-22T19:19:51.672Z","datetime":"2021-03-22 19:19","tags":["story","Hacker News"],"image":null,"imageAlt":null,"provider":"Hacker News","thirdPartyId":"26543527","url":"https://news.ycombinator.com/item?id=26543527","originalUrl":"https://livingafi.com/2021/03/17/the-2021-early-retirement-update/","imageRemote":"https://livingafi.files.wordpress.com/2021/03/fantastic.png","video":null,"channel":null,"channelUrl":null,"author":"dkarp","authorUrl":"https://news.ycombinator.com/user?id=dkarp","authorImage":null,"authorSlug":null,"score":444,"views":null,"sharedCount":null,"likeCount":null,"sharedContent":null,"parent":{"__typename":"HnJson","localize":[{"title":"FI和提前退休后6年","locale":"zh"},{"title":"FI和提前退休後6年","locale":"zh-Hant"}]}},{"__typename":"SocialMediaPost","id":"HnPost-26539103","excerpt":"","slug":"/hn/26539103","title":"YouTube and Patreon Still Aren’t Paying the Rent for Most Creatives","date":"March 22, 2021","dateISO":"2021-03-22T18:57:58.954Z","datetime":"2021-03-22 18:57","tags":["story","Hacker News"],"image":null,"imageAlt":null,"provider":"Hacker News","thirdPartyId":"26539103","url":"https://news.ycombinator.com/item?id=26539103","originalUrl":"https://marker.medium.com/if-you-cant-afford-to-do-it-for-free-don-t-be-a-creator-569488f3ef72","imageRemote":"https://miro.medium.com/focal/1200/632/43/43/1*nClVhwzM2yDM8kmPtKT1rQ.jpeg","video":null,"channel":null,"channelUrl":null,"author":"herbertl","authorUrl":"https://news.ycombinator.com/user?id=herbertl","authorImage":null,"authorSlug":null,"score":164,"views":null,"sharedCount":null,"likeCount":null,"sharedContent":null,"parent":{"__typename":"HnJson","localize":[{"title":"YouTube和Patreon仍然没有为大多数创意人支付租金。","locale":"zh"},{"title":"YouTube和Patreon仍然沒有爲大多數創意人支付租金。","locale":"zh-Hant"}]}},{"__typename":"SocialMediaPost","id":"HnPost-26543731","excerpt":"","slug":"/hn/26543731","title":"2/3rds of Google Searches Now End Without a Click","date":"March 22, 2021","dateISO":"2021-03-22T18:57:58.954Z","datetime":"2021-03-22 18:57","tags":["story","Hacker News"],"image":null,"imageAlt":null,"provider":"Hacker News","thirdPartyId":"26543731","url":"https://news.ycombinator.com/item?id=26543731","originalUrl":"https://sparktoro.com/blog/in-2020-two-thirds-of-google-searches-ended-without-a-click/","imageRemote":"https://sparktoro.com/blog/wp-content/uploads/2021/03/2020-google-zero-click-similarweb-1.png","video":null,"channel":null,"channelUrl":null,"author":"randfish","authorUrl":"https://news.ycombinator.com/user?id=randfish","authorImage":null,"authorSlug":null,"score":404,"views":null,"sharedCount":null,"likeCount":null,"sharedContent":null,"parent":{"__typename":"HnJson","localize":[{"title":"2/3的谷歌搜索现在没有点击就结束了。","locale":"zh"},{"title":"2/3的谷歌搜索現在沒有點擊就結束了。","locale":"zh-Hant"}]}},{"__typename":"SocialMediaPost","id":"HnPost-26540084","excerpt":"","slug":"/hn/26540084","title":"VW brand joins Audi in ending combustion engine development","date":"March 22, 2021","dateISO":"2021-03-22T18:36:01.841Z","datetime":"2021-03-22 18:36","tags":["story","Hacker News"],"image":null,"imageAlt":null,"provider":"Hacker News","thirdPartyId":"26540084","url":"https://news.ycombinator.com/item?id=26540084","originalUrl":"https://www.electrive.com/2021/03/22/vw-brand-joins-audi-in-ending-combustion-engine-development/","imageRemote":"https://www.electrive.com/wp-content/uploads/2020/06/vw-ralf-brandstaetter-marke-ceo.jpg","video":null,"channel":null,"channelUrl":null,"author":"reddotX","authorUrl":"https://news.ycombinator.com/user?id=reddotX","authorImage":null,"authorSlug":null,"score":144,"views":null,"sharedCount":null,"likeCount":null,"sharedContent":null,"parent":{"__typename":"HnJson","localize":[{"title":"大众品牌携手奥迪终止内燃机研发","locale":"zh"},{"title":"大衆品牌攜手奧迪終止內燃機研發","locale":"zh-Hant"}]}},{"__typename":"SocialMediaPost","id":"HnPost-26540121","excerpt":"","slug":"/hn/26540121","title":"The ecosystem of the Go programming language","date":"March 22, 2021","dateISO":"2021-03-22T18:36:01.841Z","datetime":"2021-03-22 18:36","tags":["story","Hacker News"],"image":null,"imageAlt":null,"provider":"Hacker News","thirdPartyId":"26540121","url":"https://news.ycombinator.com/item?id=26540121","originalUrl":"https://henvic.dev/posts/go/","imageRemote":"https://henvic.dev/img/posts/go/go-logo-blue.png","video":null,"channel":null,"channelUrl":null,"author":"henvic","authorUrl":"https://news.ycombinator.com/user?id=henvic","authorImage":null,"authorSlug":null,"score":204,"views":null,"sharedCount":null,"likeCount":null,"sharedContent":null,"parent":{"__typename":"HnJson","localize":[{"title":"围棋编程语言的生态系统","locale":"zh"},{"title":"圍棋編程語言的生態系統","locale":"zh-Hant"}]}},{"__typename":"SocialMediaPost","id":"HnPost-26540692","excerpt":"","slug":"/hn/26540692","title":"Launch HN: Kitemaker (YC W21) – Fast alternative to Jira, built for remote teams","date":"March 22, 2021","dateISO":"2021-03-22T18:36:01.841Z","datetime":"2021-03-22 18:36","tags":["story","Hacker News"],"image":null,"imageAlt":null,"provider":"Hacker News","thirdPartyId":"26540692","url":"https://news.ycombinator.com/item?id=26540692","originalUrl":"https://news.ycombinator.com/item?id=26540692","imageRemote":null,"video":null,"channel":null,"channelUrl":null,"author":"kevsim","authorUrl":"https://news.ycombinator.com/user?id=kevsim","authorImage":null,"authorSlug":null,"score":266,"views":null,"sharedCount":null,"likeCount":null,"sharedContent":null,"parent":{"__typename":"HnJson","localize":[{"title":"启动HN：Kitemaker（YC W21）--Jira的快速替代方案，专为远程团队而建。","locale":"zh"},{"title":"啓動HN：Kitemaker（YC W21）--Jira的快速替代方案，專爲遠程團隊而建。","locale":"zh-Hant"}]}}]}},"pageContext":{"basePath":"/","pageType":"tag","tag":"Hacker News","tagsFilter":{"id":{"glob":"!*Post-1"}},"filter":{"id":{"glob":"!*Post-1"},"tags":{"eq":"Hacker News"}},"limit":25,"skip":400,"total":3105,"totalPages":125,"currentPage":17,"maxWidth":1024,"maxHeight":512,"locale":"ja","hrefLang":"ja-JA","originalPath":"/tags/hacker-news/page/17","dateFormat":"YYYY-MM-DD"}},"staticQueryHashes":["1239077767","2506312863","2744905544","3025052997","3493603132","3493603132","3513215887","386998304"]}