{"componentChunkName":"component---gatsby-theme-buzzing-src-gatsby-theme-timeline-templates-posts-query-js","path":"/zh-Hant/tags/story/page/57","result":{"data":{"site":{"siteMetadata":{"title":"Reddit 热门","description":"用中文浏览Reddit热门内容","social":[{"name":"Twitter","url":"https://twitter.com/gatsbyjs","external":null,"prefetch":null},{"name":"GitHub","url":"https://github.com/gatsbyjs","external":null,"prefetch":null}],"menuLinks":[],"localize":[{"locale":"en","title":"Buzzing on Reddit","description":"See what's buzzing on Reddit in your native language","social":[{"name":"Reddit","url":"https://www.reddit.com/","external":true,"prefetch":null}],"menuLinks":[{"name":"Weekly Selection","url":"/issues","external":null,"prefetch":null},{"name":"RSS","url":"/rss.xml","external":null,"prefetch":false}]},{"locale":"zh-Hant","title":"Reddit 熱門","description":"用中文瀏覽Reddit熱門內容","social":null,"menuLinks":null}]}},"tagsGroup":{"group":[{"fieldValue":"ASK HN","totalCount":44},{"fieldValue":"Bitcoin","totalCount":4},{"fieldValue":"Hacker News","totalCount":2600},{"fieldValue":"Poll","totalCount":1},{"fieldValue":"SaveAMC","totalCount":1},{"fieldValue":"Show HN","totalCount":89},{"fieldValue":"bitcoin","totalCount":3},{"fieldValue":"investing","totalCount":797},{"fieldValue":"poll","totalCount":1},{"fieldValue":"reddit","totalCount":4938},{"fieldValue":"science","totalCount":1},{"fieldValue":"stocks","totalCount":1592},{"fieldValue":"story","totalCount":2599},{"fieldValue":"tweet","totalCount":814},{"fieldValue":"wallstreetbets","totalCount":2549}]},"allBlogPost":{"nodes":[{"__typename":"SocialMediaPost","id":"HnPost-25900898","excerpt":"","slug":"/hn/25900898","title":"Boeing 737 Max cleared to fly again 'too early'","date":"January 25, 2021","dateISO":"2021-01-25T12:58:32.676Z","datetime":"2021-01-25 12:58","tags":["story","Hacker News"],"image":null,"imageAlt":null,"provider":"Hacker News","thirdPartyId":"25900898","url":"https://news.ycombinator.com/item?id=25900898","originalUrl":"https://www.bbc.co.uk/news/business-55751150","imageRemote":"https://ichef.bbci.co.uk/news/1024/branded_news/181CF/production/_116576789_boeing737max_reuters.jpg","video":null,"channel":null,"channelUrl":null,"author":"dustinmoris","authorUrl":"https://news.ycombinator.com/user?id=dustinmoris","authorImage":null,"authorSlug":null,"score":164,"views":null,"sharedCount":null,"likeCount":null,"sharedContent":null,"parent":{"__typename":"HnJson","localize":[{"title":"波音737 Max获准再飞 \"太早","locale":"zh"},{"title":"波音737 Max獲准再飛 \"太早","locale":"zh-Hant"}]}},{"__typename":"SocialMediaPost","id":"HnPost-25895996","excerpt":"","slug":"/hn/25895996","title":"Proof of X","date":"January 25, 2021","dateISO":"2021-01-25T12:00:17.463Z","datetime":"2021-01-25 12:00","tags":["story","Hacker News"],"image":null,"imageAlt":null,"provider":"Hacker News","thirdPartyId":"25895996","url":"https://news.ycombinator.com/item?id=25895996","originalUrl":"https://julian.digital/2020/08/06/proof-of-x/","imageRemote":"https://julian.digital/wp-content/uploads/2020/08/proofofxprev.png","video":null,"channel":null,"channelUrl":null,"author":"dguo","authorUrl":"https://news.ycombinator.com/user?id=dguo","authorImage":null,"authorSlug":null,"score":165,"views":null,"sharedCount":null,"likeCount":null,"sharedContent":null,"parent":{"__typename":"HnJson","localize":[{"title":"X的证明","locale":"zh"},{"title":"X的證明","locale":"zh-Hant"}]}},{"__typename":"SocialMediaPost","id":"HnPost-25898391","excerpt":"","slug":"/hn/25898391","title":"Sales of electric cars up by 43% in 2020","date":"January 25, 2021","dateISO":"2021-01-25T11:09:37.630Z","datetime":"2021-01-25 11:09","tags":["story","Hacker News"],"image":null,"imageAlt":null,"provider":"Hacker News","thirdPartyId":"25898391","url":"https://news.ycombinator.com/item?id=25898391","originalUrl":"https://www.theguardian.com/environment/2021/jan/19/global-sales-of-electric-cars-accelerate-fast-in-2020-despite-covid-pandemic","imageRemote":"https://i.guim.co.uk/img/media/f8ece723868f0738a242276a377291ecd4fb65ca/0_0_3500_2101/master/3500.jpg?width=1200&height=630&quality=85&auto=format&fit=crop&overlay-align=bottom%2Cleft&overlay-width=100p&overlay-base64=L2ltZy9zdGF0aWMvb3ZlcmxheXMvdGctZGVmYXVsdC5wbmc&enable=upscale&s=d73ad85fd75348f79ff63f83e34a8d91","video":null,"channel":null,"channelUrl":null,"author":"apsec112","authorUrl":"https://news.ycombinator.com/user?id=apsec112","authorImage":null,"authorSlug":null,"score":192,"views":null,"sharedCount":null,"likeCount":null,"sharedContent":null,"parent":{"__typename":"HnJson","localize":[{"title":"2020年电动汽车销量增长43%。","locale":"zh"},{"title":"2020年電動汽車銷量增長43%。","locale":"zh-Hant"}]}},{"__typename":"SocialMediaPost","id":"HnPost-25898443","excerpt":"","slug":"/hn/25898443","title":"18.7 Million Americans Vaccinated","date":"January 25, 2021","dateISO":"2021-01-25T11:09:37.630Z","datetime":"2021-01-25 11:09","tags":["story","Hacker News"],"image":null,"imageAlt":null,"provider":"Hacker News","thirdPartyId":"25898443","url":"https://news.ycombinator.com/item?id=25898443","originalUrl":"https://covidvaxcount.live/","imageRemote":null,"video":null,"channel":null,"channelUrl":null,"author":"codeconut","authorUrl":"https://news.ycombinator.com/user?id=codeconut","authorImage":null,"authorSlug":null,"score":166,"views":null,"sharedCount":null,"likeCount":null,"sharedContent":null,"parent":{"__typename":"HnJson","localize":[{"title":"1870万美国人接种了疫苗","locale":"zh"},{"title":"1870萬美國人接種了疫苗","locale":"zh-Hant"}]}},{"__typename":"SocialMediaPost","id":"HnPost-25899031","excerpt":"","slug":"/hn/25899031","title":"Peering agreements between Backblaze and Cloudflare","date":"January 25, 2021","dateISO":"2021-01-25T11:09:37.630Z","datetime":"2021-01-25 11:09","tags":["story","Hacker News"],"image":null,"imageAlt":null,"provider":"Hacker News","thirdPartyId":"25899031","url":"https://news.ycombinator.com/item?id=25899031","originalUrl":"https://www.reddit.com/r/backblaze/comments/l2lq42/how_long_will_cloudflare_peering_stay_for/gk6qie0/","imageRemote":"https://www.redditstatic.com/desktop2x/img/renderTimingPixel.png","video":null,"channel":null,"channelUrl":null,"author":"decrypt","authorUrl":"https://news.ycombinator.com/user?id=decrypt","authorImage":null,"authorSlug":null,"score":160,"views":null,"sharedCount":null,"likeCount":null,"sharedContent":null,"parent":{"__typename":"HnJson","localize":[{"title":"Backblaze和Cloudflare之间的对等协议。","locale":"zh"},{"title":"Backblaze和Cloudflare之間的對等協議。","locale":"zh-Hant"}]}},{"__typename":"SocialMediaPost","id":"HnPost-25899416","excerpt":"","slug":"/hn/25899416","title":"5nm in the USA: TSMC's Board Approves $3.5B Fab in Arizona","date":"January 25, 2021","dateISO":"2021-01-25T11:09:37.630Z","datetime":"2021-01-25 11:09","tags":["story","Hacker News"],"image":null,"imageAlt":null,"provider":"Hacker News","thirdPartyId":"25899416","url":"https://news.ycombinator.com/item?id=25899416","originalUrl":"https://www.tomshardware.com/news/tsmc-arizona-fab-investment","imageRemote":"https://cdn.mos.cms.futurecdn.net/ab7BGsYK2pbLRAmfxJ9NjL-1200-80.jpg","video":null,"channel":null,"channelUrl":null,"author":"mardiyah","authorUrl":"https://news.ycombinator.com/user?id=mardiyah","authorImage":null,"authorSlug":null,"score":167,"views":null,"sharedCount":null,"likeCount":null,"sharedContent":null,"parent":{"__typename":"HnJson","localize":[{"title":"美国5纳米技术：台积电董事会批准在亚利桑那州建立35亿美元的工厂。","locale":"zh"},{"title":"美國5納米技術：臺積電董事會批准在亞利桑那州建立35億美元的工廠。","locale":"zh-Hant"}]}},{"__typename":"SocialMediaPost","id":"HnPost-25895391","excerpt":"","slug":"/hn/25895391","title":"Waymo CEO dismisses Tesla self-driving plan: “This is not how it works”","date":"January 25, 2021","dateISO":"2021-01-25T10:09:55.878Z","datetime":"2021-01-25 10:09","tags":["story","Hacker News"],"image":null,"imageAlt":null,"provider":"Hacker News","thirdPartyId":"25895391","url":"https://news.ycombinator.com/item?id=25895391","originalUrl":"https://arstechnica.com/cars/2021/01/waymo-ceo-tesla-is-not-a-competitor-at-all/","imageRemote":"https://cdn.arstechnica.net/wp-content/uploads/2021/01/GettyImages-956121586-760x380.jpg","video":null,"channel":null,"channelUrl":null,"author":"sytelus","authorUrl":"https://news.ycombinator.com/user?id=sytelus","authorImage":null,"authorSlug":null,"score":207,"views":null,"sharedCount":null,"likeCount":null,"sharedContent":null,"parent":{"__typename":"HnJson","localize":[{"title":"Waymo CEO否定了特斯拉的自动驾驶计划。\"这不是它的工作方式\"","locale":"zh"},{"title":"Waymo CEO否定了特斯拉的自動駕駛計劃。\"這不是它的工作方式\"","locale":"zh-Hant"}]}},{"__typename":"SocialMediaPost","id":"HnPost-25898063","excerpt":"","slug":"/hn/25898063","title":"Papercraft Models of Computers","date":"January 25, 2021","dateISO":"2021-01-25T10:09:55.878Z","datetime":"2021-01-25 10:09","tags":["story","Hacker News"],"image":null,"imageAlt":null,"provider":"Hacker News","thirdPartyId":"25898063","url":"https://news.ycombinator.com/item?id=25898063","originalUrl":"http://rockybergen.com/papercraft","imageRemote":null,"video":null,"channel":null,"channelUrl":null,"author":"laurex","authorUrl":"https://news.ycombinator.com/user?id=laurex","authorImage":null,"authorSlug":null,"score":164,"views":null,"sharedCount":null,"likeCount":null,"sharedContent":null,"parent":{"__typename":"HnJson","localize":[{"title":"计算机的纸艺模型","locale":"zh"},{"title":"計算機的紙藝模型","locale":"zh-Hant"}]}},{"__typename":"SocialMediaPost","id":"HnPost-25898447","excerpt":"","slug":"/hn/25898447","title":"Need advice or assistance for son who is in prison","date":"January 25, 2021","dateISO":"2021-01-25T10:09:55.878Z","datetime":"2021-01-25 10:09","tags":["story","Hacker News"],"image":null,"imageAlt":null,"provider":"Hacker News","thirdPartyId":"25898447","url":"https://news.ycombinator.com/item?id=25898447","originalUrl":"https://mathoverflow.net/questions/382003/need-advice-or-assistance-for-son-who-is-in-prison-his-interest-is-scattering-t","imageRemote":"https://cdn.sstatic.net/Sites/mathoverflow/Img/apple-touch-icon@2.png?v=f1c9606b77ff","video":null,"channel":null,"channelUrl":null,"author":"mathgenius","authorUrl":"https://news.ycombinator.com/user?id=mathgenius","authorImage":null,"authorSlug":null,"score":160,"views":null,"sharedCount":null,"likeCount":null,"sharedContent":null,"parent":{"__typename":"HnJson","localize":[{"title":"监狱中的儿子需要建议或援助。","locale":"zh"},{"title":"監獄中的兒子需要建議或援助。","locale":"zh-Hant"}]}},{"__typename":"SocialMediaPost","id":"HnPost-25899286","excerpt":"","slug":"/hn/25899286","title":"PGM Indexes: Learned indexes that match B-tree performance with 83x less space","date":"January 25, 2021","dateISO":"2021-01-25T10:09:55.878Z","datetime":"2021-01-25 10:09","tags":["story","Hacker News"],"image":null,"imageAlt":null,"provider":"Hacker News","thirdPartyId":"25899286","url":"https://news.ycombinator.com/item?id=25899286","originalUrl":"https://pgm.di.unipi.it/","imageRemote":"https://pgm.di.unipi.it/images/logo_raster.png","video":null,"channel":null,"channelUrl":null,"author":"hbrundage","authorUrl":"https://news.ycombinator.com/user?id=hbrundage","authorImage":null,"authorSlug":null,"score":219,"views":null,"sharedCount":null,"likeCount":null,"sharedContent":null,"parent":{"__typename":"HnJson","localize":[{"title":"PGM索引。学习型索引，与B树性能相匹配，但空间却减少了83倍。","locale":"zh"},{"title":"PGM索引。學習型索引，與B樹性能相匹配，但空間卻減少了83倍。","locale":"zh-Hant"}]}},{"__typename":"SocialMediaPost","id":"HnPost-25899814","excerpt":"","slug":"/hn/25899814","title":"My Entire company Gsuite access has been banned","date":"January 25, 2021","dateISO":"2021-01-25T10:09:55.878Z","datetime":"2021-01-25 10:09","tags":["story","Hacker News"],"image":null,"imageAlt":null,"provider":"Hacker News","thirdPartyId":"25899814","url":"https://news.ycombinator.com/item?id=25899814","originalUrl":"https://news.ycombinator.com/item?id=25899814","imageRemote":null,"video":null,"channel":null,"channelUrl":null,"author":"ameyv","authorUrl":"https://news.ycombinator.com/user?id=ameyv","authorImage":null,"authorSlug":null,"score":193,"views":null,"sharedCount":null,"likeCount":null,"sharedContent":null,"parent":{"__typename":"HnJson","localize":[{"title":"我整个公司的Gsuite访问被禁止了。","locale":"zh"},{"title":"我整個公司的Gsuite訪問被禁止了。","locale":"zh-Hant"}]}},{"__typename":"SocialMediaPost","id":"HnPost-25897208","excerpt":"","slug":"/hn/25897208","title":"The computer revolution hasn’t happened yet (1997)","date":"January 25, 2021","dateISO":"2021-01-25T07:16:54.957Z","datetime":"2021-01-25 07:16","tags":["story","Hacker News"],"image":null,"imageAlt":null,"provider":"Hacker News","thirdPartyId":"25897208","url":"https://news.ycombinator.com/item?id=25897208","originalUrl":"https://catonmat.net/videos/the-computer-revolution-hasnt-happened-yet","imageRemote":"https://catonmat.net/images/catonmat-preview-image.png","video":null,"channel":null,"channelUrl":null,"author":"tosh","authorUrl":"https://news.ycombinator.com/user?id=tosh","authorImage":null,"authorSlug":null,"score":164,"views":null,"sharedCount":null,"likeCount":null,"sharedContent":null,"parent":{"__typename":"HnJson","localize":[{"title":"计算机革命还没有发生（1997年）。","locale":"zh"},{"title":"計算機革命還沒有發生（1997年）。","locale":"zh-Hant"}]}},{"__typename":"SocialMediaPost","id":"HnPost-25897535","excerpt":"","slug":"/hn/25897535","title":"Ordering burritos from my SPARC (1992)","date":"January 25, 2021","dateISO":"2021-01-25T07:16:54.957Z","datetime":"2021-01-25 07:16","tags":["story","Hacker News"],"image":null,"imageAlt":null,"provider":"Hacker News","thirdPartyId":"25897535","url":"https://news.ycombinator.com/item?id=25897535","originalUrl":"http://www.mit.edu/afs.new/sipb/user/marthag/postscript/burritos","imageRemote":null,"video":null,"channel":null,"channelUrl":null,"author":"dhotson","authorUrl":"https://news.ycombinator.com/user?id=dhotson","authorImage":null,"authorSlug":null,"score":171,"views":null,"sharedCount":null,"likeCount":null,"sharedContent":null,"parent":{"__typename":"HnJson","localize":[{"title":"用我的SPARC(1992)订购卷饼。","locale":"zh"},{"title":"用我的SPARC(1992)訂購捲餅。","locale":"zh-Hant"}]}},{"__typename":"SocialMediaPost","id":"HnPost-25897736","excerpt":"","slug":"/hn/25897736","title":"WhatsApp loses millions of users after terms update","date":"January 25, 2021","dateISO":"2021-01-25T04:26:40.415Z","datetime":"2021-01-25 04:26","tags":["story","Hacker News"],"image":null,"imageAlt":null,"provider":"Hacker News","thirdPartyId":"25897736","url":"https://news.ycombinator.com/item?id=25897736","originalUrl":"https://www.theguardian.com/technology/2021/jan/24/whatsapp-loses-millions-of-users-after-terms-update","imageRemote":"https://i.guim.co.uk/img/media/724dcdf3476aeacffafb9c3a2441e19fe75d58af/0_182_3500_2100/master/3500.jpg?width=1200&height=630&quality=85&auto=format&fit=crop&overlay-align=bottom%2Cleft&overlay-width=100p&overlay-base64=L2ltZy9zdGF0aWMvb3ZlcmxheXMvdGctZGVmYXVsdC5wbmc&enable=upscale&s=020ad5b765b50f2e2c5c4ff4bc0eb440","video":null,"channel":null,"channelUrl":null,"author":"pseudolus","authorUrl":"https://news.ycombinator.com/user?id=pseudolus","authorImage":null,"authorSlug":null,"score":206,"views":null,"sharedCount":null,"likeCount":null,"sharedContent":null,"parent":{"__typename":"HnJson","localize":[{"title":"WhatsApp在条款更新后损失数百万用户","locale":"zh"},{"title":"WhatsApp在條款更新後損失數百萬用戶","locale":"zh-Hant"}]}},{"__typename":"SocialMediaPost","id":"HnPost-25892588","excerpt":"","slug":"/hn/25892588","title":"Hush: Noiseless Browsing for Safari","date":"January 25, 2021","dateISO":"2021-01-25T02:34:29.288Z","datetime":"2021-01-25 02:34","tags":["story","Hacker News"],"image":null,"imageAlt":null,"provider":"Hacker News","thirdPartyId":"25892588","url":"https://news.ycombinator.com/item?id=25892588","originalUrl":"https://daringfireball.net/linked/2021/01/23/hush","imageRemote":"https://daringfireball.net/graphics/df-square-1024.png","video":null,"channel":null,"channelUrl":null,"author":"ggoo","authorUrl":"https://news.ycombinator.com/user?id=ggoo","authorImage":null,"authorSlug":null,"score":161,"views":null,"sharedCount":null,"likeCount":null,"sharedContent":null,"parent":{"__typename":"HnJson","localize":[{"title":"嘘。Safari的无声浏览","locale":"zh"},{"title":"噓。Safari的無聲瀏覽","locale":"zh-Hant"}]}},{"__typename":"SocialMediaPost","id":"HnPost-25896626","excerpt":"","slug":"/hn/25896626","title":"Military intelligence buys location data instead of getting warrants","date":"January 25, 2021","dateISO":"2021-01-25T02:34:29.288Z","datetime":"2021-01-25 02:34","tags":["story","Hacker News"],"image":null,"imageAlt":null,"provider":"Hacker News","thirdPartyId":"25896626","url":"https://news.ycombinator.com/item?id=25896626","originalUrl":"https://arstechnica.com/tech-policy/2021/01/military-intelligence-buys-location-data-instead-of-getting-warrants-memo-shows/","imageRemote":"https://cdn.arstechnica.net/wp-content/uploads/2021/01/GettyImages-1180189782-760x380.jpg","video":null,"channel":null,"channelUrl":null,"author":"lazycrazyowl","authorUrl":"https://news.ycombinator.com/user?id=lazycrazyowl","authorImage":null,"authorSlug":null,"score":177,"views":null,"sharedCount":null,"likeCount":null,"sharedContent":null,"parent":{"__typename":"HnJson","localize":[{"title":"军事情报购买位置数据，而不是获得搜查令。","locale":"zh"},{"title":"軍事情報購買位置數據，而不是獲得搜查令。","locale":"zh-Hant"}]}},{"__typename":"SocialMediaPost","id":"HnPost-25892897","excerpt":"","slug":"/hn/25892897","title":"The Michael Scott Theory of Social Class","date":"January 25, 2021","dateISO":"2021-01-25T00:53:12.920Z","datetime":"2021-01-25 00:53","tags":["story","Hacker News"],"image":null,"imageAlt":null,"provider":"Hacker News","thirdPartyId":"25892897","url":"https://news.ycombinator.com/item?id=25892897","originalUrl":"https://danco.substack.com/p/the-michael-scott-theory-of-social","imageRemote":"https://cdn.substack.com/image/fetch/h_600,c_limit,f_auto,q_auto:good,fl_progressive:steep/https%3A%2F%2Fbucketeer-e05bbc84-baa3-437e-9518-adb32be77984.s3.amazonaws.com%2Fpublic%2Fimages%2Fa627f1cf-3ac3-440d-860d-92b924f8fd74_1024x640.png","video":null,"channel":null,"channelUrl":null,"author":"jger15","authorUrl":"https://news.ycombinator.com/user?id=jger15","authorImage":null,"authorSlug":null,"score":188,"views":null,"sharedCount":null,"likeCount":null,"sharedContent":null,"parent":{"__typename":"HnJson","localize":[{"title":"迈克尔-斯科特的社会阶层理论","locale":"zh"},{"title":"邁克爾-斯科特的社會階層理論","locale":"zh-Hant"}]}},{"__typename":"SocialMediaPost","id":"HnPost-25894414","excerpt":"","slug":"/hn/25894414","title":"Our experience with the Fediverse, and why we left","date":"January 25, 2021","dateISO":"2021-01-25T00:53:12.920Z","datetime":"2021-01-25 00:53","tags":["story","Hacker News"],"image":null,"imageAlt":null,"provider":"Hacker News","thirdPartyId":"25894414","url":"https://news.ycombinator.com/item?id=25894414","originalUrl":"https://infosec-handbook.eu/news/2020-12-05-leaving-the-fediverse/","imageRemote":"https://infosec-handbook.eu/banners/ish-news-b.jpg","video":null,"channel":null,"channelUrl":null,"author":"dsego","authorUrl":"https://news.ycombinator.com/user?id=dsego","authorImage":null,"authorSlug":null,"score":163,"views":null,"sharedCount":null,"likeCount":null,"sharedContent":null,"parent":{"__typename":"HnJson","localize":[{"title":"我们在Fediverse的经历，以及我们离开的原因。","locale":"zh"},{"title":"我們在Fediverse的經歷，以及我們離開的原因。","locale":"zh-Hant"}]}},{"__typename":"SocialMediaPost","id":"HnPost-25893171","excerpt":"","slug":"/hn/25893171","title":"All 104 amendments to the Constitution of India as Git commits","date":"January 24, 2021","dateISO":"2021-01-24T21:41:15.588Z","datetime":"2021-01-24 21:41","tags":["story","Hacker News"],"image":null,"imageAlt":null,"provider":"Hacker News","thirdPartyId":"25893171","url":"https://news.ycombinator.com/item?id=25893171","originalUrl":"https://github.com/prince-mishra/the-constitution-of-india","imageRemote":"https://avatars.githubusercontent.com/u/222814?s=400&v=4","video":null,"channel":null,"channelUrl":null,"author":"mishraprince","authorUrl":"https://news.ycombinator.com/user?id=mishraprince","authorImage":null,"authorSlug":null,"score":164,"views":null,"sharedCount":null,"likeCount":null,"sharedContent":null,"parent":{"__typename":"HnJson","localize":[{"title":"印度《宪法》的所有104项修正案，因为Git犯了。","locale":"zh"},{"title":"印度《憲法》的所有104項修正案，因爲Git犯了。","locale":"zh-Hant"}]}},{"__typename":"SocialMediaPost","id":"HnPost-25894245","excerpt":"","slug":"/hn/25894245","title":"Solar is now ‘cheapest electricity in history’, confirms IEA","date":"January 24, 2021","dateISO":"2021-01-24T21:01:55.891Z","datetime":"2021-01-24 21:01","tags":["story","Hacker News"],"image":null,"imageAlt":null,"provider":"Hacker News","thirdPartyId":"25894245","url":"https://news.ycombinator.com/item?id=25894245","originalUrl":"https://www.weforum.org/agenda/2020/10/solar-cheap-energy-coal-gas-renewables-climate-change-environment-sustainability","imageRemote":"https://assets.weforum.org/editor/3WlJUVJM_h_aPM6PPENLZhMMbNYqw7tgTGvViEwqbjA.png","video":null,"channel":null,"channelUrl":null,"author":"yk","authorUrl":"https://news.ycombinator.com/user?id=yk","authorImage":null,"authorSlug":null,"score":177,"views":null,"sharedCount":null,"likeCount":null,"sharedContent":null,"parent":{"__typename":"HnJson","localize":[{"title":"IEA证实，太阳能现在是 \"历史上最便宜的电力\"。","locale":"zh"},{"title":"IEA證實，太陽能現在是 \"歷史上最便宜的電力\"。","locale":"zh-Hant"}]}},{"__typename":"SocialMediaPost","id":"HnPost-25889420","excerpt":"","slug":"/hn/25889420","title":"Show HN: Full text search Project Gutenberg (60m paragraphs)","date":"January 24, 2021","dateISO":"2021-01-24T19:30:30.343Z","datetime":"2021-01-24 19:30","tags":["story","Show HN","Hacker News"],"image":null,"imageAlt":null,"provider":"Hacker News","thirdPartyId":"25889420","url":"https://news.ycombinator.com/item?id=25889420","originalUrl":"https://gutensearch.com/","imageRemote":null,"video":null,"channel":"Show HN","channelUrl":"https://news.ycombinator.com/show","author":"gutensearch","authorUrl":"https://news.ycombinator.com/user?id=gutensearch","authorImage":null,"authorSlug":null,"score":173,"views":null,"sharedCount":null,"likeCount":null,"sharedContent":null,"parent":{"__typename":"HnJson","localize":[{"title":"显示HN：全文检索Project Gutenberg(60m段)","locale":"zh"},{"title":"顯示HN：全文檢索Project Gutenberg(60m段)","locale":"zh-Hant"}]}},{"__typename":"SocialMediaPost","id":"HnPost-25890653","excerpt":"","slug":"/hn/25890653","title":"SoftBank’s plan to sell Arm to NVIDIA is hitting antitrust wall around the world","date":"January 24, 2021","dateISO":"2021-01-24T17:20:00.934Z","datetime":"2021-01-24 17:20","tags":["story","Hacker News"],"image":null,"imageAlt":null,"provider":"Hacker News","thirdPartyId":"25890653","url":"https://news.ycombinator.com/item?id=25890653","originalUrl":"https://asia.nikkei.com/Business/Technology/SoftBank-s-plan-to-sell-Arm-to-NVIDIA-is-hitting-antitrust-wall-around-the-world","imageRemote":"https://www.ft.com/__origami/service/image/v2/images/raw/https%3A%2F%2Fs3-ap-northeast-1.amazonaws.com%2Fpsh-ex-ftnikkei-3937bb4%2Fimages%2F1%2F3%2F5%2F5%2F31785531-10-eng-GB%2FCropped-1610687483A99I0002.JPG?width=1024&height=512&fit=cover&gravity=faces&source=nar-cms","video":null,"channel":null,"channelUrl":null,"author":"lawrenceyan","authorUrl":"https://news.ycombinator.com/user?id=lawrenceyan","authorImage":null,"authorSlug":null,"score":227,"views":null,"sharedCount":null,"likeCount":null,"sharedContent":null,"parent":{"__typename":"HnJson","localize":[{"title":"软银向英伟达出售Arm的计划在全球范围内遭遇反垄断墙。","locale":"zh"},{"title":"軟銀向英偉達出售Arm的計劃在全球範圍內遭遇反壟斷牆。","locale":"zh-Hant"}]}},{"__typename":"SocialMediaPost","id":"HnPost-25891464","excerpt":"","slug":"/hn/25891464","title":"Deskreen – Turn any device with a web browser to a second computer screen","date":"January 24, 2021","dateISO":"2021-01-24T17:20:00.933Z","datetime":"2021-01-24 17:20","tags":["story","Hacker News"],"image":null,"imageAlt":null,"provider":"Hacker News","thirdPartyId":"25891464","url":"https://news.ycombinator.com/item?id=25891464","originalUrl":"https://github.com/pavlobu/deskreen","imageRemote":"https://repository-images.githubusercontent.com/286047827/32761f80-592b-11eb-813c-65c4f8b2e6cc","video":null,"channel":null,"channelUrl":null,"author":"maydemir","authorUrl":"https://news.ycombinator.com/user?id=maydemir","authorImage":null,"authorSlug":null,"score":284,"views":null,"sharedCount":null,"likeCount":null,"sharedContent":null,"parent":{"__typename":"HnJson","localize":[{"title":"Deskreen - 将任何带有网络浏览器的设备变成第二个电脑屏幕。","locale":"zh"},{"title":"Deskreen - 將任何帶有網絡瀏覽器的設備變成第二個電腦屏幕。","locale":"zh-Hant"}]}},{"__typename":"SocialMediaPost","id":"HnPost-25891678","excerpt":"","slug":"/hn/25891678","title":"Lack of sleep, stress can lead to symptoms resembling concussion","date":"January 24, 2021","dateISO":"2021-01-24T17:20:00.933Z","datetime":"2021-01-24 17:20","tags":["story","Hacker News"],"image":null,"imageAlt":null,"provider":"Hacker News","thirdPartyId":"25891678","url":"https://news.ycombinator.com/item?id=25891678","originalUrl":"https://news.osu.edu/lack-of-sleep-stress-can-lead-to-symptoms-resembling-concussion/","imageRemote":"https://content.presspage.com/uploads/2170/1920_gettyimages-1201462136.jpg?10000","video":null,"channel":null,"channelUrl":null,"author":"rustoo","authorUrl":"https://news.ycombinator.com/user?id=rustoo","authorImage":null,"authorSlug":null,"score":169,"views":null,"sharedCount":null,"likeCount":null,"sharedContent":null,"parent":{"__typename":"HnJson","localize":[{"title":"睡眠不足、压力过大会导致类似脑震荡的症状。","locale":"zh"},{"title":"睡眠不足、壓力過大會導致類似腦震盪的症狀。","locale":"zh-Hant"}]}},{"__typename":"SocialMediaPost","id":"HnPost-25886066","excerpt":"","slug":"/hn/25886066","title":"Malware found on laptops given out by government","date":"January 24, 2021","dateISO":"2021-01-24T16:37:44.020Z","datetime":"2021-01-24 16:37","tags":["story","Hacker News"],"image":null,"imageAlt":null,"provider":"Hacker News","thirdPartyId":"25886066","url":"https://news.ycombinator.com/item?id=25886066","originalUrl":"https://www.bbc.com/news/technology-55749959","imageRemote":"https://ichef.bbci.co.uk/news/1024/branded_news/157D5/production/_116612088_homeschooling.jpg","video":null,"channel":null,"channelUrl":null,"author":"elorant","authorUrl":"https://news.ycombinator.com/user?id=elorant","authorImage":null,"authorSlug":null,"score":160,"views":null,"sharedCount":null,"likeCount":null,"sharedContent":null,"parent":{"__typename":"HnJson","localize":[{"title":"政府发放的笔记本电脑上发现恶意软件","locale":"zh"},{"title":"政府發放的筆記本電腦上發現惡意軟件","locale":"zh-Hant"}]}}]}},"pageContext":{"basePath":"/","pageType":"tag","tag":"story","tagsFilter":{"id":{"glob":"!*Post-1"}},"filter":{"id":{"glob":"!*Post-1"},"tags":{"eq":"story"}},"limit":25,"skip":1400,"total":2599,"totalPages":104,"currentPage":57,"maxWidth":1024,"maxHeight":512,"locale":"zh-Hant","hrefLang":"zh-Hant","originalPath":"/tags/story/page/57","dateFormat":"YYYY-MM-DD"}},"staticQueryHashes":["1239077767","2506312863","2744905544","3025052997","3493603132","3493603132","3513215887","386998304"]}