{"componentChunkName":"component---gatsby-theme-buzzing-src-gatsby-theme-timeline-templates-posts-query-js","path":"/tags/hacker-news/page/14","result":{"data":{"site":{"siteMetadata":{"title":"Reddit 热门","description":"用中文浏览Reddit热门内容","social":[{"name":"Twitter","url":"https://twitter.com/gatsbyjs","external":null,"prefetch":null},{"name":"GitHub","url":"https://github.com/gatsbyjs","external":null,"prefetch":null}],"menuLinks":[],"localize":[{"locale":"en","title":"Buzzing on Reddit","description":"See what's buzzing on Reddit in your native language","social":[{"name":"Reddit","url":"https://www.reddit.com/","external":true,"prefetch":null}],"menuLinks":[{"name":"Weekly Selection","url":"/issues","external":null,"prefetch":null},{"name":"RSS","url":"/rss.xml","external":null,"prefetch":false}]},{"locale":"zh-Hant","title":"Reddit 熱門","description":"用中文瀏覽Reddit熱門內容","social":null,"menuLinks":null}]}},"tagsGroup":{"group":[{"fieldValue":"ASK HN","totalCount":42},{"fieldValue":"Bitcoin","totalCount":4},{"fieldValue":"Hacker News","totalCount":2407},{"fieldValue":"Poll","totalCount":1},{"fieldValue":"SaveAMC","totalCount":1},{"fieldValue":"Show HN","totalCount":81},{"fieldValue":"bitcoin","totalCount":3},{"fieldValue":"investing","totalCount":753},{"fieldValue":"poll","totalCount":1},{"fieldValue":"reddit","totalCount":4523},{"fieldValue":"science","totalCount":1},{"fieldValue":"stocks","totalCount":1482},{"fieldValue":"story","totalCount":2406},{"fieldValue":"tweet","totalCount":767},{"fieldValue":"wallstreetbets","totalCount":2288}]},"allBlogPost":{"nodes":[{"__typename":"SocialMediaPost","id":"HnPost-26284158","excerpt":"","slug":"/hn/26284158","title":"Why isn't Godot an ECS-based game engine?","date":"February 27, 2021","dateISO":"2021-02-27T19:46:47.591Z","datetime":"2021-02-27 19:46","tags":["story","Hacker News"],"image":null,"imageAlt":null,"provider":"Hacker News","thirdPartyId":"26284158","url":"https://news.ycombinator.com/item?id=26284158","originalUrl":"https://godotengine.org/article/why-isnt-godot-ecs-based-game-engine","imageRemote":"https://godotengine.org/storage/app/uploads/public/603/926/d51/603926d51ea4c913888481.png","video":null,"channel":null,"channelUrl":null,"author":"nafey","authorUrl":"https://news.ycombinator.com/user?id=nafey","authorImage":null,"authorSlug":null,"score":270,"views":null,"sharedCount":null,"likeCount":null,"sharedContent":null,"parent":{"__typename":"HnJson","localize":[{"title":"为什么Godot不是基于ECS的游戏引擎？","locale":"zh"},{"title":"爲什麼Godot不是基於ECS的遊戲引擎？","locale":"zh-Hant"}]}},{"__typename":"SocialMediaPost","id":"HnPost-26286194","excerpt":"","slug":"/hn/26286194","title":"Create fake phone contacts, to do data-poisoning","date":"February 27, 2021","dateISO":"2021-02-27T19:03:33.027Z","datetime":"2021-02-27 19:03","tags":["story","Hacker News"],"image":null,"imageAlt":null,"provider":"Hacker News","thirdPartyId":"26286194","url":"https://news.ycombinator.com/item?id=26286194","originalUrl":"https://github.com/BillDietrich/fake_contacts","imageRemote":"https://avatars.githubusercontent.com/u/36999178?s=400&v=4","video":null,"channel":null,"channelUrl":null,"author":"karlzt","authorUrl":"https://news.ycombinator.com/user?id=karlzt","authorImage":null,"authorSlug":null,"score":499,"views":null,"sharedCount":null,"likeCount":null,"sharedContent":null,"parent":{"__typename":"HnJson","localize":[{"title":"建立假的手机通讯录，做数据中毒处理","locale":"zh"},{"title":"建立假的手機通訊錄，做數據中毒處理","locale":"zh-Hant"}]}},{"__typename":"SocialMediaPost","id":"HnPost-26271851","excerpt":"","slug":"/hn/26271851","title":"PureScript and Haskell","date":"February 27, 2021","dateISO":"2021-02-27T18:54:31.568Z","datetime":"2021-02-27 18:54","tags":["story","Hacker News"],"image":null,"imageAlt":null,"provider":"Hacker News","thirdPartyId":"26271851","url":"https://news.ycombinator.com/item?id=26271851","originalUrl":"https://blog.drewolson.org/purescript-and-haskell","imageRemote":null,"video":null,"channel":null,"channelUrl":null,"author":"allenleein","authorUrl":"https://news.ycombinator.com/user?id=allenleein","authorImage":null,"authorSlug":null,"score":167,"views":null,"sharedCount":null,"likeCount":null,"sharedContent":null,"parent":{"__typename":"HnJson","localize":[{"title":"PureScript和Haskell","locale":"zh"},{"title":"PureScript和Haskell","locale":"zh-Hant"}]}},{"__typename":"SocialMediaPost","id":"HnPost-26284782","excerpt":"","slug":"/hn/26284782","title":"SolarWinds CEO blames intern for password leak","date":"February 27, 2021","dateISO":"2021-02-27T18:54:31.567Z","datetime":"2021-02-27 18:54","tags":["story","Hacker News"],"image":null,"imageAlt":null,"provider":"Hacker News","thirdPartyId":"26284782","url":"https://news.ycombinator.com/item?id=26284782","originalUrl":"https://edition.cnn.com/2021/02/26/politics/solarwinds123-password-intern/index.html","imageRemote":"https://cdn.cnn.com/cnnnext/dam/assets/201218161649-solarwinds-headquarters---stock-super-tease.jpg","video":null,"channel":null,"channelUrl":null,"author":"tnolet","authorUrl":"https://news.ycombinator.com/user?id=tnolet","authorImage":null,"authorSlug":null,"score":305,"views":null,"sharedCount":null,"likeCount":null,"sharedContent":null,"parent":{"__typename":"HnJson","localize":[{"title":"SolarWinds CEO将密码泄露归咎于实习生","locale":"zh"},{"title":"SolarWinds CEO將密碼泄露歸咎於實習生","locale":"zh-Hant"}]}},{"__typename":"SocialMediaPost","id":"HnPost-26282213","excerpt":"","slug":"/hn/26282213","title":"Bit (1.0) – a modern Git CLI in Go","date":"February 27, 2021","dateISO":"2021-02-27T17:14:36.914Z","datetime":"2021-02-27 17:14","tags":["story","Hacker News"],"image":null,"imageAlt":null,"provider":"Hacker News","thirdPartyId":"26282213","url":"https://news.ycombinator.com/item?id=26282213","originalUrl":"https://github.com/chriswalz/bit/blob/master/README.md","imageRemote":"https://avatars.githubusercontent.com/u/6971318?s=400&v=4","video":null,"channel":null,"channelUrl":null,"author":"chriswalz","authorUrl":"https://news.ycombinator.com/user?id=chriswalz","authorImage":null,"authorSlug":null,"score":191,"views":null,"sharedCount":null,"likeCount":null,"sharedContent":null,"parent":{"__typename":"HnJson","localize":[{"title":"Bit (1.0) - Go中的现代Git CLI。","locale":"zh"},{"title":"Bit (1.0) - Go中的現代Git CLI。","locale":"zh-Hant"}]}},{"__typename":"SocialMediaPost","id":"HnPost-26284618","excerpt":"","slug":"/hn/26284618","title":"A Vim Guide for Advanced Users","date":"February 27, 2021","dateISO":"2021-02-27T17:14:36.914Z","datetime":"2021-02-27 17:14","tags":["story","Hacker News"],"image":null,"imageAlt":null,"provider":"Hacker News","thirdPartyId":"26284618","url":"https://news.ycombinator.com/item?id=26284618","originalUrl":"https://thevaluable.dev/vim-advanced/","imageRemote":"https://thevaluable.dev/images/2021/02_vim_advanced/vim-advanced.jpg","video":null,"channel":null,"channelUrl":null,"author":"asicsp","authorUrl":"https://news.ycombinator.com/user?id=asicsp","authorImage":null,"authorSlug":null,"score":595,"views":null,"sharedCount":null,"likeCount":null,"sharedContent":null,"parent":{"__typename":"HnJson","localize":[{"title":"高级用户的Vim指南","locale":"zh"},{"title":"高級用戶的Vim指南","locale":"zh-Hant"}]}},{"__typename":"SocialMediaPost","id":"HnPost-26284378","excerpt":"","slug":"/hn/26284378","title":"Silicon Valley Runs on Saudi","date":"February 27, 2021","dateISO":"2021-02-27T16:37:22.017Z","datetime":"2021-02-27 16:37","tags":["story","Hacker News"],"image":null,"imageAlt":null,"provider":"Hacker News","thirdPartyId":"26284378","url":"https://news.ycombinator.com/item?id=26284378","originalUrl":"https://vicki.substack.com/p/silicon-valley-runs-on-saudi","imageRemote":"https://cdn.substack.com/image/fetch/w_1200,c_limit,f_jpg,q_auto:good,fl_progressive:steep/https%3A%2F%2Fbucketeer-e05bbc84-baa3-437e-9518-adb32be77984.s3.amazonaws.com%2Fpublic%2Fimages%2F0775f6e5-742a-4e08-976d-2a2c2d0351b4_1550x1240.png","video":null,"channel":null,"channelUrl":null,"author":"thunderbong","authorUrl":"https://news.ycombinator.com/user?id=thunderbong","authorImage":null,"authorSlug":null,"score":198,"views":null,"sharedCount":null,"likeCount":null,"sharedContent":null,"parent":{"__typename":"HnJson","localize":[{"title":"硅谷靠沙特跑","locale":"zh"},{"title":"硅谷靠沙特跑","locale":"zh-Hant"}]}},{"__typename":"SocialMediaPost","id":"HnPost-26284750","excerpt":"","slug":"/hn/26284750","title":"Awesome CTO","date":"February 27, 2021","dateISO":"2021-02-27T16:37:22.016Z","datetime":"2021-02-27 16:37","tags":["story","Hacker News"],"image":null,"imageAlt":null,"provider":"Hacker News","thirdPartyId":"26284750","url":"https://news.ycombinator.com/item?id=26284750","originalUrl":"https://github.com/kuchin/awesome-cto","imageRemote":"https://avatars.githubusercontent.com/u/87963?s=400&v=4","video":null,"channel":null,"channelUrl":null,"author":"szimpl","authorUrl":"https://news.ycombinator.com/user?id=szimpl","authorImage":null,"authorSlug":null,"score":444,"views":null,"sharedCount":null,"likeCount":null,"sharedContent":null,"parent":{"__typename":"HnJson","localize":[{"title":"厉害的CTO","locale":"zh"},{"title":"厲害的CTO","locale":"zh-Hant"}]}},{"__typename":"SocialMediaPost","id":"HnPost-26262038","excerpt":"","slug":"/hn/26262038","title":"Zluda: CUDA on Intel GPUs","date":"February 27, 2021","dateISO":"2021-02-27T15:51:10.793Z","datetime":"2021-02-27 15:51","tags":["story","Hacker News"],"image":null,"imageAlt":null,"provider":"Hacker News","thirdPartyId":"26262038","url":"https://news.ycombinator.com/item?id=26262038","originalUrl":"https://github.com/vosen/ZLUDA","imageRemote":"https://avatars.githubusercontent.com/u/1206376?s=400&v=4","video":null,"channel":null,"channelUrl":null,"author":"fho","authorUrl":"https://news.ycombinator.com/user?id=fho","authorImage":null,"authorSlug":null,"score":261,"views":null,"sharedCount":null,"likeCount":null,"sharedContent":null,"parent":{"__typename":"HnJson","localize":[{"title":"Zluda: 英特尔GPU上的CUDA","locale":"zh"},{"title":"Zluda: 英特爾GPU上的CUDA","locale":"zh-Hant"}]}},{"__typename":"SocialMediaPost","id":"HnPost-26283650","excerpt":"","slug":"/hn/26283650","title":"Are You Trading or Gambling?","date":"February 27, 2021","dateISO":"2021-02-27T14:33:47.181Z","datetime":"2021-02-27 14:33","tags":["story","Hacker News"],"image":null,"imageAlt":null,"provider":"Hacker News","thirdPartyId":"26283650","url":"https://news.ycombinator.com/item?id=26283650","originalUrl":"https://investinglessons.substack.com/p/are-you-trading-or-gambling","imageRemote":"https://cdn.substack.com/image/fetch/w_1200,c_limit,f_jpg,q_auto:good,fl_progressive:steep/https%3A%2F%2Fbucketeer-e05bbc84-baa3-437e-9518-adb32be77984.s3.amazonaws.com%2Fpublic%2Fimages%2F8dde0ee2-e7d2-4e58-97ee-0388f9d1a9de_5760x3840.jpeg","video":null,"channel":null,"channelUrl":null,"author":"christopherjgan","authorUrl":"https://news.ycombinator.com/user?id=christopherjgan","authorImage":null,"authorSlug":null,"score":370,"views":null,"sharedCount":null,"likeCount":null,"sharedContent":null,"parent":{"__typename":"HnJson","localize":[{"title":"你是交易还是赌博？","locale":"zh"},{"title":"你是交易還是賭博？","locale":"zh-Hant"}]}},{"__typename":"SocialMediaPost","id":"HnPost-26282742","excerpt":"","slug":"/hn/26282742","title":"Arrow v1.0: After 8 years, even better dates and times for Python","date":"February 27, 2021","dateISO":"2021-02-27T14:22:23.475Z","datetime":"2021-02-27 14:22","tags":["story","Hacker News"],"image":null,"imageAlt":null,"provider":"Hacker News","thirdPartyId":"26282742","url":"https://news.ycombinator.com/item?id=26282742","originalUrl":"https://github.com/arrow-py/arrow","imageRemote":"https://repository-images.githubusercontent.com/6750871/2d2ca080-cec5-11ea-9ec9-a472dcd7be5e","video":null,"channel":null,"channelUrl":null,"author":"krisfremen","authorUrl":"https://news.ycombinator.com/user?id=krisfremen","authorImage":null,"authorSlug":null,"score":216,"views":null,"sharedCount":null,"likeCount":null,"sharedContent":null,"parent":{"__typename":"HnJson","localize":[{"title":"Arrow v1.0。8年后，Python的日期和时间变得更好了。","locale":"zh"},{"title":"Arrow v1.0。8年後，Python的日期和時間變得更好了。","locale":"zh-Hant"}]}},{"__typename":"SocialMediaPost","id":"HnPost-26280727","excerpt":"","slug":"/hn/26280727","title":"Medical chatbot using OpenAI’s GPT-3 told a fake patient to kill themselves","date":"February 27, 2021","dateISO":"2021-02-27T10:00:19.356Z","datetime":"2021-02-27 10:00","tags":["story","Hacker News"],"image":null,"imageAlt":null,"provider":"Hacker News","thirdPartyId":"26280727","url":"https://news.ycombinator.com/item?id=26280727","originalUrl":"https://artificialintelligence-news.com/2020/10/28/medical-chatbot-openai-gpt3-patient-kill-themselves/","imageRemote":"https://artificialintelligence-news.com/wp-content/uploads/sites/9/2020/10/openai-gpt-3-medical-healthcare-health-bot-chatbot-ai-artifical-intelligence.jpg","video":null,"channel":null,"channelUrl":null,"author":"weare138","authorUrl":"https://news.ycombinator.com/user?id=weare138","authorImage":null,"authorSlug":null,"score":180,"views":null,"sharedCount":null,"likeCount":null,"sharedContent":null,"parent":{"__typename":"HnJson","localize":[{"title":"使用OpenAI的GPT-3的医疗聊天机器人告诉了一个假病人自杀的事实","locale":"zh"},{"title":"使用OpenAI的GPT-3的醫療聊天機器人告訴了一個假病人自殺的事實","locale":"zh-Hant"}]}},{"__typename":"SocialMediaPost","id":"HnPost-26281103","excerpt":"","slug":"/hn/26281103","title":"Free Land – Living Off Grid With No Money","date":"February 27, 2021","dateISO":"2021-02-27T09:02:27.021Z","datetime":"2021-02-27 09:02","tags":["story","Hacker News"],"image":null,"imageAlt":null,"provider":"Hacker News","thirdPartyId":"26281103","url":"https://news.ycombinator.com/item?id=26281103","originalUrl":"https://offgridpermaculture.com/Finding_Land/Free_Land___Living_Off_Grid_With_No_Money.html","imageRemote":"https://offgridpermaculture.com/img/free_land_off_grid_cabin_with_no_money.jpg","video":null,"channel":null,"channelUrl":null,"author":"SQL2219","authorUrl":"https://news.ycombinator.com/user?id=SQL2219","authorImage":null,"authorSlug":null,"score":388,"views":null,"sharedCount":null,"likeCount":null,"sharedContent":null,"parent":{"__typename":"HnJson","localize":[{"title":"","locale":"zh"},{"title":"","locale":"zh-Hant"}]}},{"__typename":"SocialMediaPost","id":"HnPost-26274698","excerpt":"","slug":"/hn/26274698","title":"How prepared are we for the next giant solar flare?","date":"February 27, 2021","dateISO":"2021-02-27T07:50:18.705Z","datetime":"2021-02-27 07:50","tags":["story","Hacker News"],"image":null,"imageAlt":null,"provider":"Hacker News","thirdPartyId":"26274698","url":"https://news.ycombinator.com/item?id=26274698","originalUrl":"https://www.forbes.com/sites/startswithabang/2021/02/26/ask-ethan-how-prepared-are-we-for-the-next-giant-solar-flare/","imageRemote":"https://thumbor.forbes.com/thumbor/fit-in/1200x0/filters%3Aformat(jpg)/https%3A%2F%2Fspecials-images.forbesimg.com%2Fimageserve%2F584833e14bbe6f1f20e88918%2F0x0.jpg","video":null,"channel":null,"channelUrl":null,"author":"firebaze","authorUrl":"https://news.ycombinator.com/user?id=firebaze","authorImage":null,"authorSlug":null,"score":180,"views":null,"sharedCount":null,"likeCount":null,"sharedContent":null,"parent":{"__typename":"HnJson","localize":[{"title":"对于下一次巨大的太阳耀斑，我们准备得如何？","locale":"zh"},{"title":"對於下一次巨大的太陽耀斑，我們準備得如何？","locale":"zh-Hant"}]}},{"__typename":"SocialMediaPost","id":"HnPost-26274466","excerpt":"","slug":"/hn/26274466","title":"GNU poke 1.0","date":"February 27, 2021","dateISO":"2021-02-27T03:25:12.265Z","datetime":"2021-02-27 03:25","tags":["story","Hacker News"],"image":null,"imageAlt":null,"provider":"Hacker News","thirdPartyId":"26274466","url":"https://news.ycombinator.com/item?id=26274466","originalUrl":"http://www.jemarch.net/poke-1.0-relnotes.html","imageRemote":null,"video":null,"channel":null,"channelUrl":null,"author":"todsacerdoti","authorUrl":"https://news.ycombinator.com/user?id=todsacerdoti","authorImage":null,"authorSlug":null,"score":196,"views":null,"sharedCount":null,"likeCount":null,"sharedContent":null,"parent":{"__typename":"HnJson","localize":[{"title":"GNU poke 1.0","locale":"zh"},{"title":"GNU poke 1.0","locale":"zh-Hant"}]}},{"__typename":"SocialMediaPost","id":"HnPost-26280130","excerpt":"","slug":"/hn/26280130","title":"SEC suspends trading in 15 securities due to questionable social media activity","date":"February 27, 2021","dateISO":"2021-02-27T02:10:33.957Z","datetime":"2021-02-27 02:10","tags":["story","Hacker News"],"image":null,"imageAlt":null,"provider":"Hacker News","thirdPartyId":"26280130","url":"https://news.ycombinator.com/item?id=26280130","originalUrl":"https://www.sec.gov/news/press-release/2021-35","imageRemote":"https://www.sec.gov/files/sec-logo.png","video":null,"channel":null,"channelUrl":null,"author":"minkeymaniac","authorUrl":"https://news.ycombinator.com/user?id=minkeymaniac","authorImage":null,"authorSlug":null,"score":324,"views":null,"sharedCount":null,"likeCount":null,"sharedContent":null,"parent":{"__typename":"HnJson","localize":[{"title":"因社交媒体活动有问题，证监会暂停15只证券交易。","locale":"zh"},{"title":"因社交媒體活動有問題，證監會暫停15只證券交易。","locale":"zh-Hant"}]}},{"__typename":"SocialMediaPost","id":"HnPost-26280266","excerpt":"","slug":"/hn/26280266","title":"Graphtage: A semantic diff utility for JSON, HTML, YAML, CSV, etc","date":"February 27, 2021","dateISO":"2021-02-27T01:53:47.873Z","datetime":"2021-02-27 01:53","tags":["story","Hacker News"],"image":null,"imageAlt":null,"provider":"Hacker News","thirdPartyId":"26280266","url":"https://news.ycombinator.com/item?id=26280266","originalUrl":"https://github.com/trailofbits/graphtage","imageRemote":"https://avatars.githubusercontent.com/u/2314423?s=400&v=4","video":null,"channel":null,"channelUrl":null,"author":"autoditype","authorUrl":"https://news.ycombinator.com/user?id=autoditype","authorImage":null,"authorSlug":null,"score":404,"views":null,"sharedCount":null,"likeCount":null,"sharedContent":null,"parent":{"__typename":"HnJson","localize":[{"title":"Graphtage: 一个用于JSON、HTML、YAML、CSV等的语义差异工具。","locale":"zh"},{"title":"Graphtage: 一個用於JSON、HTML、YAML、CSV等的語義差異工具。","locale":"zh-Hant"}]}},{"__typename":"SocialMediaPost","id":"HnPost-26280808","excerpt":"","slug":"/hn/26280808","title":"Firefox replaces Google Analytics with fake no-op in strict tracking protection","date":"February 27, 2021","dateISO":"2021-02-27T01:53:47.873Z","datetime":"2021-02-27 01:53","tags":["story","Hacker News"],"image":null,"imageAlt":null,"provider":"Hacker News","thirdPartyId":"26280808","url":"https://news.ycombinator.com/item?id=26280808","originalUrl":"https://twitter.com/__jakub_g/status/1365400306767581185","imageRemote":null,"video":null,"channel":null,"channelUrl":null,"author":"crazypython","authorUrl":"https://news.ycombinator.com/user?id=crazypython","authorImage":null,"authorSlug":null,"score":648,"views":null,"sharedCount":null,"likeCount":null,"sharedContent":null,"parent":{"__typename":"HnJson","localize":[{"title":"火狐浏览器以假乱真取代谷歌分析，严格追踪保护。","locale":"zh"},{"title":"火狐瀏覽器以假亂真取代谷歌分析，嚴格追蹤保護。","locale":"zh-Hant"}]}},{"__typename":"SocialMediaPost","id":"HnPost-26277501","excerpt":"","slug":"/hn/26277501","title":"How Uber Deals with Large iOS App Size","date":"February 27, 2021","dateISO":"2021-02-27T01:05:39.262Z","datetime":"2021-02-27 01:05","tags":["story","Hacker News"],"image":null,"imageAlt":null,"provider":"Hacker News","thirdPartyId":"26277501","url":"https://news.ycombinator.com/item?id=26277501","originalUrl":"https://eng.uber.com/how-uber-deals-with-large-ios-app-size/","imageRemote":"https://eng.uber.com/wp-content/uploads/2021/02/6792412657_367fd41fc7_b-1-e1614357444449.jpg","video":null,"channel":null,"channelUrl":null,"author":"rakingleaves","authorUrl":"https://news.ycombinator.com/user?id=rakingleaves","authorImage":null,"authorSlug":null,"score":256,"views":null,"sharedCount":null,"likeCount":null,"sharedContent":null,"parent":{"__typename":"HnJson","localize":[{"title":"Uber如何处理iOS应用规模大的问题？","locale":"zh"},{"title":"Uber如何處理iOS應用規模大的問題？","locale":"zh-Hant"}]}},{"__typename":"SocialMediaPost","id":"HnPost-26279372","excerpt":"","slug":"/hn/26279372","title":"‘Deep Nostalgia’ can turn old photos of your relatives into moving videos","date":"February 27, 2021","dateISO":"2021-02-27T01:05:39.261Z","datetime":"2021-02-27 01:05","tags":["story","Hacker News"],"image":null,"imageAlt":null,"provider":"Hacker News","thirdPartyId":"26279372","url":"https://news.ycombinator.com/item?id=26279372","originalUrl":"https://gizmodo.com/deep-nostalgia-can-turn-old-photos-of-your-relatives-1846363190","imageRemote":"https://i.kinja-img.com/gawker-media/image/upload/c_fill,f_auto,fl_progressive,g_center,h_675,pg_1,q_80,w_1200/m6tbhmlecfbsf5ovycwk.gif","video":null,"channel":null,"channelUrl":null,"author":"DamnInteresting","authorUrl":"https://news.ycombinator.com/user?id=DamnInteresting","authorImage":null,"authorSlug":null,"score":326,"views":null,"sharedCount":null,"likeCount":null,"sharedContent":null,"parent":{"__typename":"HnJson","localize":[{"title":"深度怀旧》可以把亲人的老照片变成动人的视频。","locale":"zh"},{"title":"深度懷舊》可以把親人的老照片變成動人的視頻。","locale":"zh-Hant"}]}},{"__typename":"SocialMediaPost","id":"HnPost-26275091","excerpt":"","slug":"/hn/26275091","title":"The Cuboid: A DIY air purifier that's better than a box fan","date":"February 27, 2021","dateISO":"2021-02-27T00:07:41.149Z","datetime":"2021-02-27 00:07","tags":["story","Hacker News"],"image":null,"imageAlt":null,"provider":"Hacker News","thirdPartyId":"26275091","url":"https://news.ycombinator.com/item?id=26275091","originalUrl":"https://dynomight.net/better-DIY-air-purifier.html","imageRemote":"https://dynomight.net/img/cuboid_purifier/smoke3b.jpg","video":null,"channel":null,"channelUrl":null,"author":"dynm","authorUrl":"https://news.ycombinator.com/user?id=dynm","authorImage":null,"authorSlug":null,"score":243,"views":null,"sharedCount":null,"likeCount":null,"sharedContent":null,"parent":{"__typename":"HnJson","localize":[{"title":"The Cuboid。一个比风扇更好的DIY空气净化器。","locale":"zh"},{"title":"The Cuboid。一個比風扇更好的DIY空氣淨化器。","locale":"zh-Hant"}]}},{"__typename":"SocialMediaPost","id":"HnPost-26277965","excerpt":"","slug":"/hn/26277965","title":"Why I'm Done Pretending Touchscreen Infotainment Isn't a Stupid, Hazardous Fad","date":"February 26, 2021","dateISO":"2021-02-26T23:54:17.738Z","datetime":"2021-02-26 23:54","tags":["story","Hacker News"],"image":null,"imageAlt":null,"provider":"Hacker News","thirdPartyId":"26277965","url":"https://news.ycombinator.com/item?id=26277965","originalUrl":"https://www.thedrive.com/news/39304/why-im-done-pretending-touchscreen-infotainment-isnt-a-stupid-hazardous-fad","imageRemote":"https://api.thedrive.com/wp-content/uploads/2021/02/ADHD-and-touchscreen-infotainment-dont-mix-hero.jpg?quality=85","video":null,"channel":null,"channelUrl":null,"author":"sharkweek","authorUrl":"https://news.ycombinator.com/user?id=sharkweek","authorImage":null,"authorSlug":null,"score":249,"views":null,"sharedCount":null,"likeCount":null,"sharedContent":null,"parent":{"__typename":"HnJson","localize":[{"title":"为什么我不再假装触摸屏信息娱乐系统不是一个愚蠢的、危险的时尚？","locale":"zh"},{"title":"爲什麼我不再假裝觸摸屏信息娛樂系統不是一個愚蠢的、危險的時尚？","locale":"zh-Hant"}]}},{"__typename":"SocialMediaPost","id":"HnPost-26273925","excerpt":"","slug":"/hn/26273925","title":"The Covid Zoom Boom Is Reshaping Sign Language","date":"February 26, 2021","dateISO":"2021-02-26T23:44:36.958Z","datetime":"2021-02-26 23:44","tags":["story","Hacker News"],"image":null,"imageAlt":null,"provider":"Hacker News","thirdPartyId":"26273925","url":"https://news.ycombinator.com/item?id=26273925","originalUrl":"https://www.scientificamerican.com/article/the-covid-zoom-boom-is-reshaping-sign-language/","imageRemote":"https://static.scientificamerican.com/sciam/cache/file/CD561473-7164-438C-828595F128A1E86B.gif","video":null,"channel":null,"channelUrl":null,"author":"bbirnbaum","authorUrl":"https://news.ycombinator.com/user?id=bbirnbaum","authorImage":null,"authorSlug":null,"score":187,"views":null,"sharedCount":null,"likeCount":null,"sharedContent":null,"parent":{"__typename":"HnJson","localize":[{"title":"Covid Zoom Boom正在重塑手语形象","locale":"zh"},{"title":"Covid Zoom Boom正在重塑手語形象","locale":"zh-Hant"}]}},{"__typename":"SocialMediaPost","id":"HnPost-26274516","excerpt":"","slug":"/hn/26274516","title":"An interactive guide to CSS transitions","date":"February 26, 2021","dateISO":"2021-02-26T22:26:01.459Z","datetime":"2021-02-26 22:26","tags":["story","Hacker News"],"image":null,"imageAlt":null,"provider":"Hacker News","thirdPartyId":"26274516","url":"https://news.ycombinator.com/item?id=26274516","originalUrl":"https://www.joshwcomeau.com/animation/css-transitions/","imageRemote":"https://www.joshwcomeau.com/images/og-css-transitions.png","video":null,"channel":null,"channelUrl":null,"author":"tomaszs","authorUrl":"https://news.ycombinator.com/user?id=tomaszs","authorImage":null,"authorSlug":null,"score":309,"views":null,"sharedCount":null,"likeCount":null,"sharedContent":null,"parent":{"__typename":"HnJson","localize":[{"title":"CSS过渡的交互式指南","locale":"zh"},{"title":"CSS過渡的交互式指南","locale":"zh-Hant"}]}},{"__typename":"SocialMediaPost","id":"HnPost-26277602","excerpt":"","slug":"/hn/26277602","title":"Show HN: Hummingbard – decentralized communities built on Matrix","date":"February 26, 2021","dateISO":"2021-02-26T22:26:01.459Z","datetime":"2021-02-26 22:26","tags":["story","Show HN","Hacker News"],"image":null,"imageAlt":null,"provider":"Hacker News","thirdPartyId":"26277602","url":"https://news.ycombinator.com/item?id=26277602","originalUrl":"https://hummingbard.com/hummingbard/introducing-hummingbard","imageRemote":"https://matrix.hummingbard.com/_matrix/media/r0/thumbnail/hummingbard.com/9e74f23dde4b76f9b832db34ee5a51e6624e2efe68784edc6d25d365c3ea1443?width=800&height=600&method=scale","video":null,"channel":"Show HN","channelUrl":"https://news.ycombinator.com/show","author":"SubGenius","authorUrl":"https://news.ycombinator.com/user?id=SubGenius","authorImage":null,"authorSlug":null,"score":411,"views":null,"sharedCount":null,"likeCount":null,"sharedContent":null,"parent":{"__typename":"HnJson","localize":[{"title":"展示HN：Hummingbard--建立在Matrix上的去中心化社区。","locale":"zh"},{"title":"展示HN：Hummingbard--建立在Matrix上的去中心化社區。","locale":"zh-Hant"}]}}]}},"pageContext":{"basePath":"/","pageType":"tag","tag":"Hacker News","tagsFilter":{"id":{"glob":"!*Post-1"}},"filter":{"id":{"glob":"!*Post-1"},"tags":{"eq":"Hacker News"}},"limit":25,"skip":325,"total":2407,"totalPages":97,"currentPage":14,"maxWidth":1024,"maxHeight":512,"locale":"zh","hrefLang":"zh-Hans","originalPath":"/tags/hacker-news/page/14","dateFormat":"YYYY-MM-DD"}},"staticQueryHashes":["1239077767","2506312863","2744905544","3025052997","3493603132","3493603132","3513215887","386998304"]}