{"componentChunkName":"component---gatsby-theme-buzzing-src-gatsby-theme-timeline-templates-posts-query-js","path":"/tags/hacker-news/","result":{"data":{"site":{"siteMetadata":{"title":"Reddit 热门","description":"用中文浏览Reddit热门内容","social":[{"name":"Twitter","url":"https://twitter.com/gatsbyjs","external":null,"prefetch":null},{"name":"GitHub","url":"https://github.com/gatsbyjs","external":null,"prefetch":null}],"menuLinks":[],"localize":[{"locale":"en","title":"Buzzing on Reddit","description":"See what's buzzing on Reddit in your native language","social":[{"name":"Reddit","url":"https://www.reddit.com/","external":true,"prefetch":null}],"menuLinks":[{"name":"Weekly Selection","url":"/issues","external":null,"prefetch":null},{"name":"RSS","url":"/rss.xml","external":null,"prefetch":false}]},{"locale":"zh-Hant","title":"Reddit 熱門","description":"用中文瀏覽Reddit熱門內容","social":null,"menuLinks":null}]}},"tagsGroup":{"group":[{"fieldValue":"ASK HN","totalCount":23},{"fieldValue":"Bitcoin","totalCount":3},{"fieldValue":"Hacker News","totalCount":974},{"fieldValue":"Poll","totalCount":1},{"fieldValue":"Show HN","totalCount":35},{"fieldValue":"investing","totalCount":209},{"fieldValue":"poll","totalCount":1},{"fieldValue":"reddit","totalCount":891},{"fieldValue":"science","totalCount":1},{"fieldValue":"stocks","totalCount":370},{"fieldValue":"story","totalCount":973},{"fieldValue":"tweet","totalCount":285},{"fieldValue":"wallstreetbets","totalCount":312}]},"allBlogPost":{"nodes":[{"__typename":"SocialMediaPost","id":"HnPost-25778185","excerpt":"","slug":"/hn/25778185","title":"Mysterious helicopters have been circling Los Angeles","date":"January 17, 2021","dateISO":"2021-01-17T05:14:39.170Z","datetime":"2021-01-17 05:14","tags":["story","Hacker News"],"image":null,"imageAlt":null,"provider":"Hacker News","thirdPartyId":"25778185","url":"https://news.ycombinator.com/item?id=25778185","originalUrl":"https://www.thedrive.com/the-war-zone/38686/everything-we-know-about-the-mysterious-dark-helicopters-that-have-been-circling-los-angeles","imageRemote":"https://api.thedrive.com/wp-content/uploads/2021/01/mystery-407-1.jpg?quality=85","video":null,"channel":null,"channelUrl":null,"author":"josephjrobison","authorUrl":"https://news.ycombinator.com/user?id=josephjrobison","authorImage":null,"authorSlug":null,"score":189,"views":null,"sharedCount":null,"likeCount":null,"sharedContent":null,"parent":{"__typename":"HnJson","localize":null}},{"__typename":"SocialMediaPost","id":"HnPost-25780961","excerpt":"","slug":"/hn/25780961","title":"The richer you are, the more likely you’ll social distance, study finds","date":"January 17, 2021","dateISO":"2021-01-17T05:14:39.170Z","datetime":"2021-01-17 05:14","tags":["story","Hacker News"],"image":null,"imageAlt":null,"provider":"Hacker News","thirdPartyId":"25780961","url":"https://news.ycombinator.com/item?id=25780961","originalUrl":"https://releases.jhu.edu/2021/01/14/the-richer-you-are-the-more-likely-youll-social-distance-study-finds/","imageRemote":"https://releases.jhu.edu/wp-content/themes/hopkins2/graphics/interior/header_logo.gif","video":null,"channel":null,"channelUrl":null,"author":"rustoo","authorUrl":"https://news.ycombinator.com/user?id=rustoo","authorImage":null,"authorSlug":null,"score":191,"views":null,"sharedCount":null,"likeCount":null,"sharedContent":null,"parent":{"__typename":"HnJson","localize":null}},{"__typename":"SocialMediaPost","id":"HnPost-25786640","excerpt":"","slug":"/hn/25786640","title":"Show HN: Vmctl/Vmcli – Easily Run Linux VMs on M1 Macs","date":"January 17, 2021","dateISO":"2021-01-17T05:14:39.170Z","datetime":"2021-01-17 05:14","tags":["story","Show HN","Hacker News"],"image":null,"imageAlt":null,"provider":"Hacker News","thirdPartyId":"25786640","url":"https://news.ycombinator.com/item?id=25786640","originalUrl":"https://github.com/gyf304/vmcli","imageRemote":"https://avatars0.githubusercontent.com/u/7296537?s=400&v=4","video":null,"channel":"Show HN","channelUrl":"https://news.ycombinator.com/show","author":"gyf304","authorUrl":"https://news.ycombinator.com/user?id=gyf304","authorImage":null,"authorSlug":null,"score":196,"views":null,"sharedCount":null,"likeCount":null,"sharedContent":null,"parent":{"__typename":"HnJson","localize":null}},{"__typename":"SocialMediaPost","id":"HnPost-25789703","excerpt":"","slug":"/hn/25789703","title":"StimulusReflex, or LiveView for Rails","date":"January 17, 2021","dateISO":"2021-01-17T05:14:39.170Z","datetime":"2021-01-17 05:14","tags":["story","Hacker News"],"image":null,"imageAlt":null,"provider":"Hacker News","thirdPartyId":"25789703","url":"https://news.ycombinator.com/item?id=25789703","originalUrl":"https://docs.stimulusreflex.com/","imageRemote":"https://app.gitbook.com/share/space/thumbnail/-Lpnm81iPOBUa9lAmLxg.png","video":null,"channel":null,"channelUrl":null,"author":"nanna","authorUrl":"https://news.ycombinator.com/user?id=nanna","authorImage":null,"authorSlug":null,"score":196,"views":null,"sharedCount":null,"likeCount":null,"sharedContent":null,"parent":{"__typename":"HnJson","localize":null}},{"__typename":"SocialMediaPost","id":"HnPost-25790323","excerpt":"","slug":"/hn/25790323","title":"AMD Launches Ryzen 5000 Mobile: Zen 3 and Cezanne for Notebooks","date":"January 17, 2021","dateISO":"2021-01-17T05:14:39.170Z","datetime":"2021-01-17 05:14","tags":["story","Hacker News"],"image":null,"imageAlt":null,"provider":"Hacker News","thirdPartyId":"25790323","url":"https://news.ycombinator.com/item?id=25790323","originalUrl":"https://www.anandtech.com/show/16405/amd-launches-ryzen-5000-mobile-zen-3-and-cezanne-for-notebooks","imageRemote":"https://images.anandtech.com/doci/16405/Carou_678x452.png","video":null,"channel":null,"channelUrl":null,"author":"adwn","authorUrl":"https://news.ycombinator.com/user?id=adwn","authorImage":null,"authorSlug":null,"score":193,"views":null,"sharedCount":null,"likeCount":null,"sharedContent":null,"parent":{"__typename":"HnJson","localize":null}},{"__typename":"SocialMediaPost","id":"HnPost-25792422","excerpt":"","slug":"/hn/25792422","title":"My preferred .NET console stack","date":"January 17, 2021","dateISO":"2021-01-17T05:14:39.170Z","datetime":"2021-01-17 05:14","tags":["story","Hacker News"],"image":null,"imageAlt":null,"provider":"Hacker News","thirdPartyId":"25792422","url":"https://news.ycombinator.com/item?id=25792422","originalUrl":"https://www.devlead.se/posts/2021/2021-01-15-my-preferred-console-stack","imageRemote":"https://cdn.devlead.se/clipimg-vscode/2021/01/14/e02ce155-5ff2-8a7b-e306-8c486f23f864.png?sv=2019-12-12&st=2021-01-13T20%3A33%3A10Z&se=2031-01-14T20%3A33%3A10Z&sr=b&sp=r&sig=fdANWdytZGRdgDMxN%2B%2BTNSCAbz%2Bzg6R0iAvtvYWYoKw%3D","video":null,"channel":null,"channelUrl":null,"author":"devlead","authorUrl":"https://news.ycombinator.com/user?id=devlead","authorImage":null,"authorSlug":null,"score":194,"views":null,"sharedCount":null,"likeCount":null,"sharedContent":null,"parent":{"__typename":"HnJson","localize":null}},{"__typename":"SocialMediaPost","id":"HnPost-25802160","excerpt":"","slug":"/hn/25802160","title":"“Appointment” as professor at Harvard was an elaborate phishing attack","date":"January 17, 2021","dateISO":"2021-01-17T05:14:39.170Z","datetime":"2021-01-17 05:14","tags":["story","Hacker News"],"image":null,"imageAlt":null,"provider":"Hacker News","thirdPartyId":"25802160","url":"https://news.ycombinator.com/item?id=25802160","originalUrl":"https://www.ndtv.com/blog/how-i-fell-for-a-phishing-attack-my-story-by-nidhi-razdan-2353395","imageRemote":"https://c.ndtvimg.com/2021-01/0r7oq1c4_nidhi-razdan-650_625x300_16_January_21.jpg","video":null,"channel":null,"channelUrl":null,"author":"LordAtlas","authorUrl":"https://news.ycombinator.com/user?id=LordAtlas","authorImage":null,"authorSlug":null,"score":196,"views":null,"sharedCount":null,"likeCount":null,"sharedContent":null,"parent":{"__typename":"HnJson","localize":null}},{"__typename":"SocialMediaPost","id":"HnPost-25802714","excerpt":"","slug":"/hn/25802714","title":"Every day at the same time, my internet dies for 1 minute. How do I investigate?","date":"January 17, 2021","dateISO":"2021-01-17T05:14:39.170Z","datetime":"2021-01-17 05:14","tags":["story","Hacker News"],"image":null,"imageAlt":null,"provider":"Hacker News","thirdPartyId":"25802714","url":"https://news.ycombinator.com/item?id=25802714","originalUrl":"https://news.ycombinator.com/item?id=25802714","imageRemote":null,"video":null,"channel":null,"channelUrl":null,"author":"overallorder","authorUrl":"https://news.ycombinator.com/user?id=overallorder","authorImage":null,"authorSlug":null,"score":287,"views":null,"sharedCount":null,"likeCount":null,"sharedContent":null,"parent":{"__typename":"HnJson","localize":null}},{"__typename":"SocialMediaPost","id":"HnPost-25803010","excerpt":"","slug":"/hn/25803010","title":"Signal apps DDoS'ed their own server","date":"January 17, 2021","dateISO":"2021-01-17T05:14:39.170Z","datetime":"2021-01-17 05:14","tags":["story","Hacker News"],"image":null,"imageAlt":null,"provider":"Hacker News","thirdPartyId":"25803010","url":"https://news.ycombinator.com/item?id=25803010","originalUrl":"https://twitter.com/NovakDaniel/status/1350471722034745348","imageRemote":null,"video":null,"channel":null,"channelUrl":null,"author":"Daniel_sk","authorUrl":"https://news.ycombinator.com/user?id=Daniel_sk","authorImage":null,"authorSlug":null,"score":196,"views":null,"sharedCount":null,"likeCount":null,"sharedContent":null,"parent":{"__typename":"HnJson","localize":null}},{"__typename":"SocialMediaPost","id":"HnPost-25803568","excerpt":"","slug":"/hn/25803568","title":"Toxic positivity does more harm than good","date":"January 17, 2021","dateISO":"2021-01-17T05:14:39.170Z","datetime":"2021-01-17 05:14","tags":["story","Hacker News"],"image":null,"imageAlt":null,"provider":"Hacker News","thirdPartyId":"25803568","url":"https://news.ycombinator.com/item?id=25803568","originalUrl":"https://www.bloomberg.com/news/articles/2021-01-14/what-is-fono-toxic-positivity-is-doing-more-harm-than-good","imageRemote":null,"video":null,"channel":null,"channelUrl":null,"author":"prostoalex","authorUrl":"https://news.ycombinator.com/user?id=prostoalex","authorImage":null,"authorSlug":null,"score":368,"views":null,"sharedCount":null,"likeCount":null,"sharedContent":null,"parent":{"__typename":"HnJson","localize":null}},{"__typename":"SocialMediaPost","id":"HnPost-25804183","excerpt":"","slug":"/hn/25804183","title":"A Nepali team has made the first winter ascent of K2","date":"January 17, 2021","dateISO":"2021-01-17T05:14:39.170Z","datetime":"2021-01-17 05:14","tags":["story","Hacker News"],"image":null,"imageAlt":null,"provider":"Hacker News","thirdPartyId":"25804183","url":"https://news.ycombinator.com/item?id=25804183","originalUrl":"http://www.alpinist.com/doc/web21w/newswire-k2-first-winter-ascent","imageRemote":"http://www.alpinist.com/img/search_arrow.png","video":null,"channel":null,"channelUrl":null,"author":"eigenvector","authorUrl":"https://news.ycombinator.com/user?id=eigenvector","authorImage":null,"authorSlug":null,"score":195,"views":null,"sharedCount":null,"likeCount":null,"sharedContent":null,"parent":{"__typename":"HnJson","localize":null}},{"__typename":"SocialMediaPost","id":"HnPost-25804597","excerpt":"","slug":"/hn/25804597","title":"Google Images Restored","date":"January 17, 2021","dateISO":"2021-01-17T05:14:39.170Z","datetime":"2021-01-17 05:14","tags":["story","Hacker News"],"image":null,"imageAlt":null,"provider":"Hacker News","thirdPartyId":"25804597","url":"https://news.ycombinator.com/item?id=25804597","originalUrl":"https://github.com/fanfare/googleimagesrestored","imageRemote":"https://repository-images.githubusercontent.com/202856776/811fc300-525d-11ea-9798-f6e074032eac","video":null,"channel":null,"channelUrl":null,"author":"alphabet9000","authorUrl":"https://news.ycombinator.com/user?id=alphabet9000","authorImage":null,"authorSlug":null,"score":182,"views":null,"sharedCount":null,"likeCount":null,"sharedContent":null,"parent":{"__typename":"HnJson","localize":null}},{"__typename":"SocialMediaPost","id":"HnPost-25804869","excerpt":"","slug":"/hn/25804869","title":"Mnm – an open source project to replace email and SMTP","date":"January 17, 2021","dateISO":"2021-01-17T04:16:56.074Z","datetime":"2021-01-17 04:16","tags":["story","Hacker News"],"image":null,"imageAlt":null,"provider":"Hacker News","thirdPartyId":"25804869","url":"https://news.ycombinator.com/item?id=25804869","originalUrl":"https://mnmnotmail.org/","imageRemote":"https://mnmnotmail.org/icon-dev-gray.svg","video":null,"channel":null,"channelUrl":null,"author":"skinkestek","authorUrl":"https://news.ycombinator.com/user?id=skinkestek","authorImage":null,"authorSlug":null,"score":208,"views":null,"sharedCount":null,"likeCount":null,"sharedContent":null,"parent":{"__typename":"HnJson","localize":[{"title":"Mnm - 一个取代电子邮件和SMTP的开源项目。","locale":"zh"},{"title":"Mnm - 一個取代電子郵件和SMTP的開源項目。","locale":"zh-Hant"}]}},{"__typename":"SocialMediaPost","id":"HnPost-25801986","excerpt":"","slug":"/hn/25801986","title":"The Problem with Gradle","date":"January 17, 2021","dateISO":"2021-01-17T02:13:01.478Z","datetime":"2021-01-17 02:13","tags":["story","Hacker News"],"image":null,"imageAlt":null,"provider":"Hacker News","thirdPartyId":"25801986","url":"https://news.ycombinator.com/item?id=25801986","originalUrl":"https://www.bruceeckel.com/2021/01/02/the-problem-with-gradle/","imageRemote":null,"video":null,"channel":null,"channelUrl":null,"author":"wheresvic4","authorUrl":"https://news.ycombinator.com/user?id=wheresvic4","authorImage":null,"authorSlug":null,"score":204,"views":null,"sharedCount":null,"likeCount":null,"sharedContent":null,"parent":{"__typename":"HnJson","localize":[{"title":"与Gradle的问题","locale":"zh"},{"title":"與Gradle的問題","locale":"zh-Hant"}]}},{"__typename":"SocialMediaPost","id":"HnPost-25803288","excerpt":"","slug":"/hn/25803288","title":"Big O Notation – Explained as Easily as Possible","date":"January 16, 2021","dateISO":"2021-01-16T21:35:34.695Z","datetime":"2021-01-16 21:35","tags":["story","Hacker News"],"image":null,"imageAlt":null,"provider":"Hacker News","thirdPartyId":"25803288","url":"https://news.ycombinator.com/item?id=25803288","originalUrl":"https://thatcomputerscientist.com/big-o-notation-explained-as-easily-as-possible","imageRemote":"https://hashnode.com/utility/r?url=https%3A%2F%2Fcdn.hashnode.com%2Fres%2Fhashnode%2Fimage%2Fupload%2Fv1610789606012%2FMGgIIOjkr.jpeg%3Fw%3D1200%26h%3D630%26fit%3Dcrop%26crop%3Dentropy%26auto%3Dcompress","video":null,"channel":null,"channelUrl":null,"author":"optimalsolver","authorUrl":"https://news.ycombinator.com/user?id=optimalsolver","authorImage":null,"authorSlug":null,"score":203,"views":null,"sharedCount":null,"likeCount":null,"sharedContent":null,"parent":{"__typename":"HnJson","localize":[{"title":"大O记事法--尽可能简单的解释。","locale":"zh"},{"title":"大O記事法--儘可能簡單的解釋。","locale":"zh-Hant"}]}},{"__typename":"SocialMediaPost","id":"HnPost-25789336","excerpt":"","slug":"/hn/25789336","title":"How to join a team and learn a codebase (2020)","date":"January 16, 2021","dateISO":"2021-01-16T17:30:12.160Z","datetime":"2021-01-16 17:30","tags":["story","Hacker News"],"image":null,"imageAlt":null,"provider":"Hacker News","thirdPartyId":"25789336","url":"https://news.ycombinator.com/item?id=25789336","originalUrl":"https://www.samueltaylor.org/articles/how-to-learn-a-codebase.html","imageRemote":null,"video":null,"channel":null,"channelUrl":null,"author":"minicaionut","authorUrl":"https://news.ycombinator.com/user?id=minicaionut","authorImage":null,"authorSlug":null,"score":203,"views":null,"sharedCount":null,"likeCount":null,"sharedContent":null,"parent":{"__typename":"HnJson","localize":[{"title":"如何加入一个团队，学习一个代码库（2020年","locale":"zh"},{"title":"如何加入一個團隊，學習一個代碼庫（2020年","locale":"zh-Hant"}]}},{"__typename":"SocialMediaPost","id":"HnPost-25800858","excerpt":"","slug":"/hn/25800858","title":"Computer System Engineering","date":"January 16, 2021","dateISO":"2021-01-16T17:30:12.160Z","datetime":"2021-01-16 17:30","tags":["story","Hacker News"],"image":null,"imageAlt":null,"provider":"Hacker News","thirdPartyId":"25800858","url":"https://news.ycombinator.com/item?id=25800858","originalUrl":"https://ocw.mit.edu/courses/electrical-engineering-and-computer-science/6-033-computer-system-engineering-spring-2018/","imageRemote":"https://ocw.mit.edu/courses/electrical-engineering-and-computer-science/6-033-computer-system-engineering-spring-2018/6-033s18.png","video":null,"channel":null,"channelUrl":null,"author":"hackitup7","authorUrl":"https://news.ycombinator.com/user?id=hackitup7","authorImage":null,"authorSlug":null,"score":216,"views":null,"sharedCount":null,"likeCount":null,"sharedContent":null,"parent":{"__typename":"HnJson","localize":[{"title":"计算机系统工程","locale":"zh"},{"title":"計算機系統工程","locale":"zh-Hant"}]}},{"__typename":"SocialMediaPost","id":"HnPost-25802366","excerpt":"","slug":"/hn/25802366","title":"Google Safe Browsing can kill a startup","date":"January 16, 2021","dateISO":"2021-01-16T16:09:26.880Z","datetime":"2021-01-16 16:09","tags":["story","Hacker News"],"image":null,"imageAlt":null,"provider":"Hacker News","thirdPartyId":"25802366","url":"https://news.ycombinator.com/item?id=25802366","originalUrl":"https://gomox.medium.com/google-safe-browsing-can-kill-your-startup-7d73c474b98d","imageRemote":"https://miro.medium.com/max/1200/1*5mudWNIzqA8WptZxwZxpOQ.png","video":null,"channel":null,"channelUrl":null,"author":"gomox","authorUrl":"https://news.ycombinator.com/user?id=gomox","authorImage":null,"authorSlug":null,"score":251,"views":null,"sharedCount":null,"likeCount":null,"sharedContent":null,"parent":{"__typename":"HnJson","localize":[{"title":"谷歌安全浏览可以杀死一家创业公司。","locale":"zh"},{"title":"谷歌安全瀏覽可以殺死一家創業公司。","locale":"zh-Hant"}]}},{"__typename":"SocialMediaPost","id":"HnPost-25801426","excerpt":"","slug":"/hn/25801426","title":"Running a fake power plant on the internet for a month","date":"January 16, 2021","dateISO":"2021-01-16T15:28:36.370Z","datetime":"2021-01-16 15:28","tags":["story","Hacker News"],"image":null,"imageAlt":null,"provider":"Hacker News","thirdPartyId":"25801426","url":"https://news.ycombinator.com/item?id=25801426","originalUrl":"https://grimminck.medium.com/running-a-fake-power-plant-on-the-internet-for-a-month-4a624f685aaa","imageRemote":"https://miro.medium.com/max/1024/1*fe1jmBrEL0AsXcJNfcuNlg.jpeg","video":null,"channel":null,"channelUrl":null,"author":"tutfbhuf","authorUrl":"https://news.ycombinator.com/user?id=tutfbhuf","authorImage":null,"authorSlug":null,"score":209,"views":null,"sharedCount":null,"likeCount":null,"sharedContent":null,"parent":{"__typename":"HnJson","localize":[{"title":"在互联网上经营假电厂一个月。","locale":"zh"},{"title":"在互聯網上經營假電廠一個月。","locale":"zh-Hant"}]}},{"__typename":"SocialMediaPost","id":"HnPost-25784683","excerpt":"","slug":"/hn/25784683","title":"English as She Is Spoke","date":"January 16, 2021","dateISO":"2021-01-16T12:25:14.748Z","datetime":"2021-01-16 12:25","tags":["story","Hacker News"],"image":null,"imageAlt":null,"provider":"Hacker News","thirdPartyId":"25784683","url":"https://news.ycombinator.com/item?id=25784683","originalUrl":"https://en.wikipedia.org/wiki/English_as_She_Is_Spoke","imageRemote":"https://upload.wikimedia.org/wikipedia/commons/thumb/1/1c/O_novo_guia_da_conversa%C3%A7ao_en_portuguez_e_inglez_1ere_edition.jpg/1200px-O_novo_guia_da_conversa%C3%A7ao_en_portuguez_e_inglez_1ere_edition.jpg","video":null,"channel":null,"channelUrl":null,"author":"benbreen","authorUrl":"https://news.ycombinator.com/user?id=benbreen","authorImage":null,"authorSlug":null,"score":202,"views":null,"sharedCount":null,"likeCount":null,"sharedContent":null,"parent":{"__typename":"HnJson","localize":[{"title":"她说的英语","locale":"zh"},{"title":"她說的英語","locale":"zh-Hant"}]}},{"__typename":"SocialMediaPost","id":"HnPost-25771953","excerpt":"","slug":"/hn/25771953","title":"Null","date":"January 16, 2021","dateISO":"2021-01-16T11:49:51.818Z","datetime":"2021-01-16 11:49","tags":["story","Hacker News"],"image":null,"imageAlt":null,"provider":"Hacker News","thirdPartyId":"25771953","url":"https://news.ycombinator.com/item?id=25771953","originalUrl":"https://popey.com/blog/2021/01/null/","imageRemote":"https://popey.com/blog/images/2021-01-13/launchpad.png","video":null,"channel":null,"channelUrl":null,"author":"JNRowe","authorUrl":"https://news.ycombinator.com/user?id=JNRowe","authorImage":null,"authorSlug":null,"score":700,"views":null,"sharedCount":null,"likeCount":null,"sharedContent":null,"parent":{"__typename":"HnJson","localize":[{"title":"虚无","locale":"zh"},{"title":"虛無","locale":"zh-Hant"}]}},{"__typename":"SocialMediaPost","id":"HnPost-25774546","excerpt":"","slug":"/hn/25774546","title":"Idris 2 version 0.3.0","date":"January 16, 2021","dateISO":"2021-01-16T11:49:51.818Z","datetime":"2021-01-16 11:49","tags":["story","Hacker News"],"image":null,"imageAlt":null,"provider":"Hacker News","thirdPartyId":"25774546","url":"https://news.ycombinator.com/item?id=25774546","originalUrl":"https://www.idris-lang.org/idris-2-version-030-released.html","imageRemote":"https://www.idris-lang.org/images/logo-small.png","video":null,"channel":null,"channelUrl":null,"author":"insulanian","authorUrl":"https://news.ycombinator.com/user?id=insulanian","authorImage":null,"authorSlug":null,"score":245,"views":null,"sharedCount":null,"likeCount":null,"sharedContent":null,"parent":{"__typename":"HnJson","localize":[{"title":"Idris 2 0.3.0版","locale":"zh"},{"title":"Idris 2 0.3.0版","locale":"zh-Hant"}]}},{"__typename":"SocialMediaPost","id":"HnPost-25775872","excerpt":"","slug":"/hn/25775872","title":"We don't need data scientists, we need data engineers","date":"January 16, 2021","dateISO":"2021-01-16T11:49:51.818Z","datetime":"2021-01-16 11:49","tags":["story","Hacker News"],"image":null,"imageAlt":null,"provider":"Hacker News","thirdPartyId":"25775872","url":"https://news.ycombinator.com/item?id=25775872","originalUrl":"https://www.mihaileric.com/posts/we-need-data-engineers-not-data-scientists/","imageRemote":"https://www.mihaileric.com/static/nasa-Q1p7bh3SHj8-unsplash-1d801dd5a6a5e44b7503e433b3a540b5-c6823.jpg","video":null,"channel":null,"channelUrl":null,"author":"winkywooster","authorUrl":"https://news.ycombinator.com/user?id=winkywooster","authorImage":null,"authorSlug":null,"score":693,"views":null,"sharedCount":null,"likeCount":null,"sharedContent":null,"parent":{"__typename":"HnJson","localize":[{"title":"我们不需要数据科学家，我们需要数据工程师。","locale":"zh"},{"title":"我們不需要數據科學家，我們需要數據工程師。","locale":"zh-Hant"}]}},{"__typename":"SocialMediaPost","id":"HnPost-25776225","excerpt":"","slug":"/hn/25776225","title":"Facebook Incubated the Insurrection","date":"January 16, 2021","dateISO":"2021-01-16T11:49:51.818Z","datetime":"2021-01-16 11:49","tags":["story","Hacker News"],"image":null,"imageAlt":null,"provider":"Hacker News","thirdPartyId":"25776225","url":"https://news.ycombinator.com/item?id=25776225","originalUrl":"https://www.nytimes.com/2021/01/14/opinion/facebook-far-right.html","imageRemote":"https://static01.nyt.com/images/2021/01/14/opinion/14tracked-warzel/14tracked-warzel-facebookJumbo-v2.jpg","video":null,"channel":null,"channelUrl":null,"author":"tysone","authorUrl":"https://news.ycombinator.com/user?id=tysone","authorImage":null,"authorSlug":null,"score":443,"views":null,"sharedCount":null,"likeCount":null,"sharedContent":null,"parent":{"__typename":"HnJson","localize":[{"title":"脸书孵化起义","locale":"zh"},{"title":"臉書孵化起義","locale":"zh-Hant"}]}},{"__typename":"SocialMediaPost","id":"HnPost-25776450","excerpt":"","slug":"/hn/25776450","title":"Fitbit is now officially part of Google","date":"January 16, 2021","dateISO":"2021-01-16T11:49:51.818Z","datetime":"2021-01-16 11:49","tags":["story","Hacker News"],"image":null,"imageAlt":null,"provider":"Hacker News","thirdPartyId":"25776450","url":"https://news.ycombinator.com/item?id=25776450","originalUrl":"https://blog.fitbit.com/2021-update/","imageRemote":"https://43nnuk1fz4a72826eo14gwfb-wpengine.netdna-ssl.com/wp-content/uploads/2017/03/Fitbit_Headshot_James.jpg","video":null,"channel":null,"channelUrl":null,"author":"blinky88","authorUrl":"https://news.ycombinator.com/user?id=blinky88","authorImage":null,"authorSlug":null,"score":287,"views":null,"sharedCount":null,"likeCount":null,"sharedContent":null,"parent":{"__typename":"HnJson","localize":[{"title":"Fitbit现在正式成为谷歌的一部分","locale":"zh"},{"title":"Fitbit現在正式成爲谷歌的一部分","locale":"zh-Hant"}]}}]}},"pageContext":{"basePath":"/","pageType":"tag","tag":"Hacker News","tagsFilter":{"id":{"glob":"!*Post-1"}},"filter":{"id":{"glob":"!*Post-1"},"tags":{"eq":"Hacker News"}},"limit":25,"skip":0,"total":974,"totalPages":39,"currentPage":1,"maxWidth":1024,"maxHeight":512,"locale":"zh","hrefLang":"zh-Hans","originalPath":"/tags/hacker-news/","dateFormat":"YYYY-MM-DD"}},"staticQueryHashes":["1239077767","2506312863","2744905544","3025052997","3493603132","3493603132","3513215887","386998304"]}