{"componentChunkName":"component---gatsby-theme-buzzing-src-gatsby-theme-timeline-templates-posts-query-js","path":"/en/tags/hacker-news/page/85","result":{"data":{"site":{"siteMetadata":{"title":"Reddit 热门","description":"用中文浏览Reddit热门内容","social":[{"name":"Twitter","url":"https://twitter.com/gatsbyjs","external":null,"prefetch":null},{"name":"GitHub","url":"https://github.com/gatsbyjs","external":null,"prefetch":null}],"menuLinks":[],"localize":[{"locale":"en","title":"Buzzing on Reddit","description":"See what's buzzing on Reddit in your native language","social":[{"name":"Reddit","url":"https://www.reddit.com/","external":true,"prefetch":null}],"menuLinks":[{"name":"Weekly Selection","url":"/issues","external":null,"prefetch":null},{"name":"RSS","url":"/rss.xml","external":null,"prefetch":false}]},{"locale":"zh-Hant","title":"Reddit 熱門","description":"用中文瀏覽Reddit熱門內容","social":null,"menuLinks":null}]}},"tagsGroup":{"group":[{"fieldValue":"ASK HN","totalCount":54},{"fieldValue":"Hacker News","totalCount":3105},{"fieldValue":"Poll","totalCount":1},{"fieldValue":"Show HN","totalCount":100},{"fieldValue":"poll","totalCount":1},{"fieldValue":"story","totalCount":3104}]},"allBlogPost":{"nodes":[{"__typename":"SocialMediaPost","id":"HnPost-25801500","excerpt":"","slug":"/hn/25801500","title":"The Secret Apple M1 Coprocessor","date":"January 18, 2021","dateISO":"2021-01-18T11:00:58.494Z","datetime":"2021-01-18 11:00","tags":["story","Hacker News"],"image":null,"imageAlt":null,"provider":"Hacker News","thirdPartyId":"25801500","url":"https://news.ycombinator.com/item?id=25801500","originalUrl":"https://medium.com/swlh/apples-m1-secret-coprocessor-6599492fc1e1","imageRemote":"https://miro.medium.com/max/1000/1*VlTqk3Wqux8dx7MOdxhiCQ.png","video":null,"channel":null,"channelUrl":null,"author":"socialdemocrat","authorUrl":"https://news.ycombinator.com/user?id=socialdemocrat","authorImage":null,"authorSlug":null,"score":161,"views":null,"sharedCount":null,"likeCount":null,"sharedContent":null,"parent":{"__typename":"HnJson","localize":[{"title":"揭秘苹果M1协处理器","locale":"zh"},{"title":"揭祕蘋果M1協處理器","locale":"zh-Hant"}]}},{"__typename":"SocialMediaPost","id":"HnPost-25804194","excerpt":"","slug":"/hn/25804194","title":"The Cabal: Valve’s Design Process for Creating Half-Life (1999)","date":"January 18, 2021","dateISO":"2021-01-18T11:00:58.494Z","datetime":"2021-01-18 11:00","tags":["story","Hacker News"],"image":null,"imageAlt":null,"provider":"Hacker News","thirdPartyId":"25804194","url":"https://news.ycombinator.com/item?id=25804194","originalUrl":"https://www.gamasutra.com/view/feature/131815/the_cabal_valves_design_process_.php","imageRemote":"https://twimgs.com/gamasutra/images/gamasutra_logo.png","video":null,"channel":null,"channelUrl":null,"author":"thisismyswamp","authorUrl":"https://news.ycombinator.com/user?id=thisismyswamp","authorImage":null,"authorSlug":null,"score":187,"views":null,"sharedCount":null,"likeCount":null,"sharedContent":null,"parent":{"__typename":"HnJson","localize":[{"title":"阴谋。Valve公司创造《半条命》的设计过程(1999)","locale":"zh"},{"title":"陰謀。Valve公司創造《半條命》的設計過程(1999)","locale":"zh-Hant"}]}},{"__typename":"SocialMediaPost","id":"HnPost-25810675","excerpt":"","slug":"/hn/25810675","title":"Downpour: DRM Free Audiobooks","date":"January 18, 2021","dateISO":"2021-01-18T11:00:58.494Z","datetime":"2021-01-18 11:00","tags":["story","Hacker News"],"image":null,"imageAlt":null,"provider":"Hacker News","thirdPartyId":"25810675","url":"https://news.ycombinator.com/item?id=25810675","originalUrl":"https://www.downpour.com/","imageRemote":"https://www.downpour.com/media/logo/default/downpour-logo.png","video":null,"channel":null,"channelUrl":null,"author":"cheph","authorUrl":"https://news.ycombinator.com/user?id=cheph","authorImage":null,"authorSlug":null,"score":179,"views":null,"sharedCount":null,"likeCount":null,"sharedContent":null,"parent":{"__typename":"HnJson","localize":[{"title":"倾盆大雨 DRM免费有声读物","locale":"zh"},{"title":"傾盆大雨 DRM免費有聲讀物","locale":"zh-Hant"}]}},{"__typename":"SocialMediaPost","id":"HnPost-25810708","excerpt":"","slug":"/hn/25810708","title":"Review broken products instead of new ones","date":"January 18, 2021","dateISO":"2021-01-18T11:00:58.494Z","datetime":"2021-01-18 11:00","tags":["story","Hacker News"],"image":null,"imageAlt":null,"provider":"Hacker News","thirdPartyId":"25810708","url":"https://news.ycombinator.com/item?id=25810708","originalUrl":"https://www.buyforlife.com/blog/6CNqJGMKraaQhfivS0EH6L/why-we-should-review-broken-products-instead-of-new-ones","imageRemote":"https://www.buyforlife.com/preview.png","video":null,"channel":null,"channelUrl":null,"author":"hubraumhugo","authorUrl":"https://news.ycombinator.com/user?id=hubraumhugo","authorImage":null,"authorSlug":null,"score":244,"views":null,"sharedCount":null,"likeCount":null,"sharedContent":null,"parent":{"__typename":"HnJson","localize":[{"title":"检讨破损产品而不是新产品","locale":"zh"},{"title":"檢討破損產品而不是新產品","locale":"zh-Hant"}]}},{"__typename":"SocialMediaPost","id":"HnPost-25810942","excerpt":"","slug":"/hn/25810942","title":"Arrest warrant issued for ex-Florida data scientist Rebekah Jones","date":"January 18, 2021","dateISO":"2021-01-18T11:00:58.494Z","datetime":"2021-01-18 11:00","tags":["story","Hacker News"],"image":null,"imageAlt":null,"provider":"Hacker News","thirdPartyId":"25810942","url":"https://news.ycombinator.com/item?id=25810942","originalUrl":"https://www.tampabay.com/news/florida/2021/01/16/arrest-warrant-issued-for-ex-florida-data-scientist-rebekah-jones/","imageRemote":"https://www.tampabay.com/resizer/to62xB_ketFISWg7YTtKFcmRLy8=/800x450/smart/cloudfront-us-east-1.images.arcpublishing.com/tbt/3M4MBVZDZ5CO5JXLM5HNBRAMJA.JPG","video":null,"channel":null,"channelUrl":null,"author":"chha","authorUrl":"https://news.ycombinator.com/user?id=chha","authorImage":null,"authorSlug":null,"score":269,"views":null,"sharedCount":null,"likeCount":null,"sharedContent":null,"parent":{"__typename":"HnJson","localize":[{"title":"对前佛罗里达州数据科学家Rebekah Jones发出逮捕令","locale":"zh"},{"title":"對前佛羅里達州數據科學家Rebekah Jones發出逮捕令","locale":"zh-Hant"}]}},{"__typename":"SocialMediaPost","id":"HnPost-25811220","excerpt":"","slug":"/hn/25811220","title":"IEEE Medal of Honor Goes to Data Compression Pioneer Jacob Ziv","date":"January 18, 2021","dateISO":"2021-01-18T11:00:58.494Z","datetime":"2021-01-18 11:00","tags":["story","Hacker News"],"image":null,"imageAlt":null,"provider":"Hacker News","thirdPartyId":"25811220","url":"https://news.ycombinator.com/item?id=25811220","originalUrl":"https://spectrum.ieee.org/the-institute/ieee-member-news/ieee-medal-of-honor-goes-to-data-compression-pioneer-jacob-ziv","imageRemote":null,"video":null,"channel":null,"channelUrl":null,"author":"tosh","authorUrl":"https://news.ycombinator.com/user?id=tosh","authorImage":null,"authorSlug":null,"score":201,"views":null,"sharedCount":null,"likeCount":null,"sharedContent":null,"parent":{"__typename":"HnJson","localize":[{"title":"IEEE荣誉奖章授予数据压缩先驱Jacob Ziv先生","locale":"zh"},{"title":"IEEE榮譽獎章授予數據壓縮先驅Jacob Ziv先生","locale":"zh-Hant"}]}},{"__typename":"SocialMediaPost","id":"HnPost-25811696","excerpt":"","slug":"/hn/25811696","title":"We can do better than Signal","date":"January 18, 2021","dateISO":"2021-01-18T11:00:58.494Z","datetime":"2021-01-18 11:00","tags":["story","Hacker News"],"image":null,"imageAlt":null,"provider":"Hacker News","thirdPartyId":"25811696","url":"https://news.ycombinator.com/item?id=25811696","originalUrl":"https://icyphox.sh/blog/signal/","imageRemote":"https://icyphox.sh/static/icyphox.png","video":null,"channel":null,"channelUrl":null,"author":"icy","authorUrl":"https://news.ycombinator.com/user?id=icy","authorImage":null,"authorSlug":null,"score":175,"views":null,"sharedCount":null,"likeCount":null,"sharedContent":null,"parent":{"__typename":"HnJson","localize":[{"title":"我们可以做得比Signal更好","locale":"zh"},{"title":"我們可以做得比Signal更好","locale":"zh-Hant"}]}},{"__typename":"SocialMediaPost","id":"HnPost-25813760","excerpt":"","slug":"/hn/25813760","title":"E Ink has developed a 2nd generation Advanced Color E-Paper","date":"January 18, 2021","dateISO":"2021-01-18T11:00:58.494Z","datetime":"2021-01-18 11:00","tags":["story","Hacker News"],"image":null,"imageAlt":null,"provider":"Hacker News","thirdPartyId":"25813760","url":"https://news.ycombinator.com/item?id=25813760","originalUrl":"https://goodereader.com/blog/e-paper/e-ink-has-developed-acep-gallery-4100-color-e-paper","imageRemote":"https://goodereader.com/blog/uploads/images/2021/01/AC133UT1.jpg","video":null,"channel":null,"channelUrl":null,"author":"miles","authorUrl":"https://news.ycombinator.com/user?id=miles","authorImage":null,"authorSlug":null,"score":339,"views":null,"sharedCount":null,"likeCount":null,"sharedContent":null,"parent":{"__typename":"HnJson","localize":[{"title":"E Ink 开发了第二代高级彩色电子纸。","locale":"zh"},{"title":"E Ink 開發了第二代高級彩色電子紙。","locale":"zh-Hant"}]}},{"__typename":"SocialMediaPost","id":"HnPost-25815091","excerpt":"","slug":"/hn/25815091","title":"The Buy Nothing Project","date":"January 18, 2021","dateISO":"2021-01-18T11:00:58.494Z","datetime":"2021-01-18 11:00","tags":["story","Hacker News"],"image":null,"imageAlt":null,"provider":"Hacker News","thirdPartyId":"25815091","url":"https://news.ycombinator.com/item?id=25815091","originalUrl":"https://buynothingproject.org/about/","imageRemote":"https://buynothingproject.files.wordpress.com/2013/10/img_7377.jpg","video":null,"channel":null,"channelUrl":null,"author":"simonebrunozzi","authorUrl":"https://news.ycombinator.com/user?id=simonebrunozzi","authorImage":null,"authorSlug":null,"score":424,"views":null,"sharedCount":null,"likeCount":null,"sharedContent":null,"parent":{"__typename":"HnJson","localize":[{"title":"什么都不买项目","locale":"zh"},{"title":"什麼都不買項目","locale":"zh-Hant"}]}},{"__typename":"SocialMediaPost","id":"HnPost-25815167","excerpt":"","slug":"/hn/25815167","title":"Bitcoin emissions alone could push global warming above 2°C (2018)","date":"January 18, 2021","dateISO":"2021-01-18T11:00:58.494Z","datetime":"2021-01-18 11:00","tags":["story","Hacker News"],"image":null,"imageAlt":null,"provider":"Hacker News","thirdPartyId":"25815167","url":"https://news.ycombinator.com/item?id=25815167","originalUrl":"https://www.nature.com/articles/s41558-018-0321-8","imageRemote":"https://media.springernature.com/m685/springer-static/image/art%3A10.1038%2Fs41558-018-0321-8/MediaObjects/41558_2018_321_Fig1_HTML.png","video":null,"channel":null,"channelUrl":null,"author":"aburan28","authorUrl":"https://news.ycombinator.com/user?id=aburan28","authorImage":null,"authorSlug":null,"score":279,"views":null,"sharedCount":null,"likeCount":null,"sharedContent":null,"parent":{"__typename":"HnJson","localize":[{"title":"仅仅是比特币的排放就能把全球变暖推到2℃以上(2018)","locale":"zh"},{"title":"僅僅是比特幣的排放就能把全球變暖推到2℃以上(2018)","locale":"zh-Hant"}]}},{"__typename":"SocialMediaPost","id":"HnPost-25815566","excerpt":"","slug":"/hn/25815566","title":"Safari 14 added WebExtensions support, so where are the extensions?","date":"January 18, 2021","dateISO":"2021-01-18T11:00:58.494Z","datetime":"2021-01-18 11:00","tags":["story","Hacker News"],"image":null,"imageAlt":null,"provider":"Hacker News","thirdPartyId":"25815566","url":"https://news.ycombinator.com/item?id=25815566","originalUrl":"https://sixcolors.com/post/2021/01/safari-14-added-webextensions-support-so-where-are-the-extensions/","imageRemote":"https://149426355.v2.pressablecdn.com/wp-content/uploads/2021/01/extensions-library-extension.png?w=640","video":null,"channel":null,"channelUrl":null,"author":"1cvmask","authorUrl":"https://news.ycombinator.com/user?id=1cvmask","authorImage":null,"authorSlug":null,"score":199,"views":null,"sharedCount":null,"likeCount":null,"sharedContent":null,"parent":{"__typename":"HnJson","localize":[{"title":"Safari 14新增了WebExtensions支持，那么扩展功能在哪里呢？","locale":"zh"},{"title":"Safari 14新增了WebExtensions支持，那麼擴展功能在哪裏呢？","locale":"zh-Hant"}]}},{"__typename":"SocialMediaPost","id":"HnPost-25816297","excerpt":"","slug":"/hn/25816297","title":"I looked at all the ways Microsoft Teams tracks users","date":"January 18, 2021","dateISO":"2021-01-18T11:00:58.494Z","datetime":"2021-01-18 11:00","tags":["story","Hacker News"],"image":null,"imageAlt":null,"provider":"Hacker News","thirdPartyId":"25816297","url":"https://news.ycombinator.com/item?id=25816297","originalUrl":"https://www.zdnet.com/article/i-looked-at-all-the-ways-microsoft-teams-tracks-users-and-my-head-is-spinning/","imageRemote":"https://zdnet3.cbsistatic.com/hub/i/r/2020/05/20/96f0d97b-40cb-4907-bd1e-8220d7f831ee/thumbnail/770x578/a94b212299ab55842b23476999ce4f13/teams1.jpg","video":null,"channel":null,"channelUrl":null,"author":"GordonS","authorUrl":"https://news.ycombinator.com/user?id=GordonS","authorImage":null,"authorSlug":null,"score":249,"views":null,"sharedCount":null,"likeCount":null,"sharedContent":null,"parent":{"__typename":"HnJson","localize":[{"title":"我看了一下微软团队跟踪用户的所有方式。","locale":"zh"},{"title":"我看了一下微軟團隊跟蹤用戶的所有方式。","locale":"zh-Hant"}]}},{"__typename":"SocialMediaPost","id":"HnPost-25812021","excerpt":"","slug":"/hn/25812021","title":"Ask HN: Which are the best Go repositories to read to learn the language?","date":"January 18, 2021","dateISO":"2021-01-18T09:00:58.729Z","datetime":"2021-01-18 09:00","tags":["story","ASK HN","Hacker News"],"image":null,"imageAlt":null,"provider":"Hacker News","thirdPartyId":"25812021","url":"https://news.ycombinator.com/item?id=25812021","originalUrl":"https://news.ycombinator.com/item?id=25812021","imageRemote":null,"video":null,"channel":"ASK HN","channelUrl":"https://news.ycombinator.com/ask","author":"Kreotiko","authorUrl":"https://news.ycombinator.com/user?id=Kreotiko","authorImage":null,"authorSlug":null,"score":197,"views":null,"sharedCount":null,"likeCount":null,"sharedContent":null,"parent":{"__typename":"HnJson","localize":[{"title":"HN提问：学习语言的围棋资源库哪家好读？","locale":"zh"},{"title":"HN提問：學習語言的圍棋資源庫哪家好讀？","locale":"zh-Hant"}]}},{"__typename":"SocialMediaPost","id":"HnPost-25813559","excerpt":"","slug":"/hn/25813559","title":"German laptop retailer fined $12.7M under GDPR for employee surveillance","date":"January 18, 2021","dateISO":"2021-01-18T05:18:01.046Z","datetime":"2021-01-18 05:18","tags":["story","Hacker News"],"image":null,"imageAlt":null,"provider":"Hacker News","thirdPartyId":"25813559","url":"https://news.ycombinator.com/item?id=25813559","originalUrl":"https://www.complianceweek.com/regulatory-enforcement/german-laptop-retailer-fined-127m-under-gdpr-for-employee-surveillance/29911.article","imageRemote":"https://d6jxgaftxvagq.cloudfront.net/Pictures/1024x536/9/5/7/12957_employeemonitoring_781111.jpg","video":null,"channel":null,"channelUrl":null,"author":"giuliomagnifico","authorUrl":"https://news.ycombinator.com/user?id=giuliomagnifico","authorImage":null,"authorSlug":null,"score":272,"views":null,"sharedCount":null,"likeCount":null,"sharedContent":null,"parent":{"__typename":"HnJson","localize":[{"title":"德国笔记本电脑零售商因监控员工被罚1270万美元，根据GDPR的规定。","locale":"zh"},{"title":"德國筆記本電腦零售商因監控員工被罰1270萬美元，根據GDPR的規定。","locale":"zh-Hant"}]}},{"__typename":"SocialMediaPost","id":"HnPost-25817395","excerpt":"","slug":"/hn/25817395","title":"Context switching costs more than we give it credit for","date":"January 18, 2021","dateISO":"2021-01-18T05:18:01.046Z","datetime":"2021-01-18 05:18","tags":["story","Hacker News"],"image":null,"imageAlt":null,"provider":"Hacker News","thirdPartyId":"25817395","url":"https://news.ycombinator.com/item?id=25817395","originalUrl":"https://thinkingthrough.substack.com/p/context-switching-cost-more-than","imageRemote":"https://cdn.substack.com/image/fetch/h_600,c_limit,f_auto,q_auto:good,fl_progressive:steep/https%3A%2F%2Fbucketeer-e05bbc84-baa3-437e-9518-adb32be77984.s3.amazonaws.com%2Fpublic%2Fimages%2F0ec6b78e-161f-4923-95be-3e8f0c699e7e_6752x4506.jpeg","video":null,"channel":null,"channelUrl":null,"author":"maddynator","authorUrl":"https://news.ycombinator.com/user?id=maddynator","authorImage":null,"authorSlug":null,"score":587,"views":null,"sharedCount":null,"likeCount":null,"sharedContent":null,"parent":{"__typename":"HnJson","localize":[{"title":"语境切换的成本比我们想象的要高得多","locale":"zh"},{"title":"語境切換的成本比我們想象的要高得多","locale":"zh-Hant"}]}},{"__typename":"SocialMediaPost","id":"HnPost-25817795","excerpt":"","slug":"/hn/25817795","title":"HR is not your friend, and other things I think you should know","date":"January 18, 2021","dateISO":"2021-01-18T05:18:01.045Z","datetime":"2021-01-18 05:18","tags":["story","Hacker News"],"image":null,"imageAlt":null,"provider":"Hacker News","thirdPartyId":"25817795","url":"https://news.ycombinator.com/item?id=25817795","originalUrl":"http://rachelbythebay.com/w/2021/01/17/woe/","imageRemote":"http://rachelbythebay.com/w/feed.png","video":null,"channel":null,"channelUrl":null,"author":"atg_abhishek","authorUrl":"https://news.ycombinator.com/user?id=atg_abhishek","authorImage":null,"authorSlug":null,"score":720,"views":null,"sharedCount":null,"likeCount":null,"sharedContent":null,"parent":{"__typename":"HnJson","localize":[{"title":"HR不是你的朋友，还有其他我认为你应该知道的事情。","locale":"zh"},{"title":"HR不是你的朋友，還有其他我認爲你應該知道的事情。","locale":"zh-Hant"}]}},{"__typename":"SocialMediaPost","id":"HnPost-25814237","excerpt":"","slug":"/hn/25814237","title":"BladeRF-wiphy: Open-source, software defined radio modem","date":"January 18, 2021","dateISO":"2021-01-18T03:30:35.260Z","datetime":"2021-01-18 03:30","tags":["story","Hacker News"],"image":null,"imageAlt":null,"provider":"Hacker News","thirdPartyId":"25814237","url":"https://news.ycombinator.com/item?id=25814237","originalUrl":"https://www.nuand.com/bladeRF-wiphy/","imageRemote":"https://www.nuand.com/wp-content/uploads/2021/01/band-1.png","video":null,"channel":null,"channelUrl":null,"author":"nuand","authorUrl":"https://news.ycombinator.com/user?id=nuand","authorImage":null,"authorSlug":null,"score":292,"views":null,"sharedCount":null,"likeCount":null,"sharedContent":null,"parent":{"__typename":"HnJson","localize":[{"title":"BladeRF-wiphy。开放源码、软件定义的无线电调制解调器","locale":"zh"},{"title":"BladeRF-wiphy。開放源碼、軟件定義的無線電調制解調器","locale":"zh-Hant"}]}},{"__typename":"SocialMediaPost","id":"HnPost-25812655","excerpt":"","slug":"/hn/25812655","title":"Update on an Employee Matter","date":"January 17, 2021","dateISO":"2021-01-17T23:47:09.439Z","datetime":"2021-01-17 23:47","tags":["story","Hacker News"],"image":null,"imageAlt":null,"provider":"Hacker News","thirdPartyId":"25812655","url":"https://news.ycombinator.com/item?id=25812655","originalUrl":"https://github.blog/2021-01-17-update-on-an-employee-matter/","imageRemote":"https://github.blog/wp-content/uploads/2019/03/company-twitter.png?fit=1201%2C630","video":null,"channel":null,"channelUrl":null,"author":"todsacerdoti","authorUrl":"https://news.ycombinator.com/user?id=todsacerdoti","authorImage":null,"authorSlug":null,"score":208,"views":null,"sharedCount":null,"likeCount":null,"sharedContent":null,"parent":{"__typename":"HnJson","localize":[{"title":"雇员事项的最新情况","locale":"zh"},{"title":"僱員事項的最新情況","locale":"zh-Hant"}]}},{"__typename":"SocialMediaPost","id":"HnPost-25813836","excerpt":"","slug":"/hn/25813836","title":"js;dr = JavaScript required; Didn’t Read.","date":"January 17, 2021","dateISO":"2021-01-17T21:37:50.962Z","datetime":"2021-01-17 21:37","tags":["story","Hacker News"],"image":null,"imageAlt":null,"provider":"Hacker News","thirdPartyId":"25813836","url":"https://news.ycombinator.com/item?id=25813836","originalUrl":"https://tantek.com/2015/069/t1/js-dr-javascript-required-dead","imageRemote":null,"video":null,"channel":null,"channelUrl":null,"author":"ezist","authorUrl":"https://news.ycombinator.com/user?id=ezist","authorImage":null,"authorSlug":null,"score":228,"views":null,"sharedCount":null,"likeCount":null,"sharedContent":null,"parent":{"__typename":"HnJson","localize":[{"title":"js;dr = 需要JavaScript；没看懂。","locale":"zh"},{"title":"js;dr = 需要JavaScript；沒看懂。","locale":"zh-Hant"}]}},{"__typename":"SocialMediaPost","id":"HnPost-25810245","excerpt":"","slug":"/hn/25810245","title":"That's not how 2FA works","date":"January 17, 2021","dateISO":"2021-01-17T20:59:53.510Z","datetime":"2021-01-17 20:59","tags":["story","Hacker News"],"image":null,"imageAlt":null,"provider":"Hacker News","thirdPartyId":"25810245","url":"https://news.ycombinator.com/item?id=25810245","originalUrl":"https://shkspr.mobi/blog/2021/01/thats-not-how-2fa-works/","imageRemote":"https://shkspr.mobi/blog/wp-content/uploads/2021/01/2FA-people.png","video":null,"channel":null,"channelUrl":null,"author":"edent","authorUrl":"https://news.ycombinator.com/user?id=edent","authorImage":null,"authorSlug":null,"score":319,"views":null,"sharedCount":null,"likeCount":null,"sharedContent":null,"parent":{"__typename":"HnJson","localize":[{"title":"2FA不是这样工作的","locale":"zh"},{"title":"2FA不是這樣工作的","locale":"zh-Hant"}]}},{"__typename":"SocialMediaPost","id":"HnPost-25807656","excerpt":"","slug":"/hn/25807656","title":"When parties reverse their stance, supporters immediately switch their opinions","date":"January 17, 2021","dateISO":"2021-01-17T19:34:15.269Z","datetime":"2021-01-17 19:34","tags":["story","Hacker News"],"image":null,"imageAlt":null,"provider":"Hacker News","thirdPartyId":"25807656","url":"https://news.ycombinator.com/item?id=25807656","originalUrl":"https://thespeakernewsjournal.com/science/when-political-parties-reverse-their-policy-stance-their-supporters-immediately-switch-their-opinions-too/","imageRemote":"https://thespeakernewsjournal.com/wp-content/uploads/2021/01/vote-e1610238775992.png","video":null,"channel":null,"channelUrl":null,"author":"nabla9","authorUrl":"https://news.ycombinator.com/user?id=nabla9","authorImage":null,"authorSlug":null,"score":190,"views":null,"sharedCount":null,"likeCount":null,"sharedContent":null,"parent":{"__typename":"HnJson","localize":[{"title":"党派一反常态，支持者立即转变观点。","locale":"zh"},{"title":"黨派一反常態，支持者立即轉變觀點。","locale":"zh-Hant"}]}},{"__typename":"SocialMediaPost","id":"HnPost-25811532","excerpt":"","slug":"/hn/25811532","title":"GCP Outpaces Azure, AWS in the 2021 Cloud Report","date":"January 17, 2021","dateISO":"2021-01-17T19:34:15.269Z","datetime":"2021-01-17 19:34","tags":["story","Hacker News"],"image":null,"imageAlt":null,"provider":"Hacker News","thirdPartyId":"25811532","url":"https://news.ycombinator.com/item?id=25811532","originalUrl":"https://www.cockroachlabs.com/blog/2021-cloud-report/","imageRemote":"https://www.cockroachlabs.com/img/cloudreport2021-blog-1158x404-1-.png","video":null,"channel":null,"channelUrl":null,"author":"mohangk","authorUrl":"https://news.ycombinator.com/user?id=mohangk","authorImage":null,"authorSlug":null,"score":265,"views":null,"sharedCount":null,"likeCount":null,"sharedContent":null,"parent":{"__typename":"HnJson","localize":[{"title":"GCP在2021年云计算报告中超越Azure、AWS的速度","locale":"zh"},{"title":"GCP在2021年雲計算報告中超越Azure、AWS的速度","locale":"zh-Hant"}]}},{"__typename":"SocialMediaPost","id":"HnPost-25810427","excerpt":"","slug":"/hn/25810427","title":"The values of Emacs, the Neovim revolution, and the VSCode gorilla","date":"January 17, 2021","dateISO":"2021-01-17T17:41:56.010Z","datetime":"2021-01-17 17:41","tags":["story","Hacker News"],"image":null,"imageAlt":null,"provider":"Hacker News","thirdPartyId":"25810427","url":"https://news.ycombinator.com/item?id=25810427","originalUrl":"https://www.murilopereira.com/the-values-of-emacs-the-neovim-revolution-and-the-vscode-gorilla/","imageRemote":"https://www.murilopereira.com/text_editors_core_values.png","video":null,"channel":null,"channelUrl":null,"author":"mpereira","authorUrl":"https://news.ycombinator.com/user?id=mpereira","authorImage":null,"authorSlug":null,"score":425,"views":null,"sharedCount":null,"likeCount":null,"sharedContent":null,"parent":{"__typename":"HnJson","localize":[{"title":"Emacs的价值、Neovim革命和VSCode大猩猩。","locale":"zh"},{"title":"Emacs的價值、Neovim革命和VSCode大猩猩。","locale":"zh-Hant"}]}},{"__typename":"SocialMediaPost","id":"HnPost-25808413","excerpt":"","slug":"/hn/25808413","title":"Apple's MacBook revival plan is stupid smart: Bring back old features","date":"January 17, 2021","dateISO":"2021-01-17T16:15:54.109Z","datetime":"2021-01-17 16:15","tags":["story","Hacker News"],"image":null,"imageAlt":null,"provider":"Hacker News","thirdPartyId":"25808413","url":"https://news.ycombinator.com/item?id=25808413","originalUrl":"https://www.inputmag.com/design/apple-macbook-revival-plan-is-stupid-smart-bring-back-old-features","imageRemote":"https://imgix.bustle.com/uploads/image/2021/1/15/ac047ca5-2bfe-468e-bcce-073d7783cc28-d0c109f0-99b9-419c-9145-34a6ecbe41d8-getty-618599880.jpg?w=1200&h=630&fit=crop&crop=faces&fm=jpg","video":null,"channel":null,"channelUrl":null,"author":"metahost","authorUrl":"https://news.ycombinator.com/user?id=metahost","authorImage":null,"authorSlug":null,"score":358,"views":null,"sharedCount":null,"likeCount":null,"sharedContent":null,"parent":{"__typename":"HnJson","localize":[{"title":"苹果的MacBook复兴计划是愚蠢的聪明：把老功能带回来。","locale":"zh"},{"title":"蘋果的MacBook復興計劃是愚蠢的聰明：把老功能帶回來。","locale":"zh-Hant"}]}},{"__typename":"SocialMediaPost","id":"HnPost-25810250","excerpt":"","slug":"/hn/25810250","title":"BitLocker Lockscreen Bypass","date":"January 17, 2021","dateISO":"2021-01-17T16:15:54.109Z","datetime":"2021-01-17 16:15","tags":["story","Hacker News"],"image":null,"imageAlt":null,"provider":"Hacker News","thirdPartyId":"25810250","url":"https://news.ycombinator.com/item?id=25810250","originalUrl":"https://secret.club/2021/01/15/bitlocker-bypass.html","imageRemote":"https://secret.club/assets/twitter.png","video":null,"channel":null,"channelUrl":null,"author":"rdpintqogeogsaa","authorUrl":"https://news.ycombinator.com/user?id=rdpintqogeogsaa","authorImage":null,"authorSlug":null,"score":570,"views":null,"sharedCount":null,"likeCount":null,"sharedContent":null,"parent":{"__typename":"HnJson","localize":[{"title":"BitLocker锁屏绕过","locale":"zh"},{"title":"BitLocker鎖屏繞過","locale":"zh-Hant"}]}}]}},"pageContext":{"basePath":"/","pageType":"tag","tag":"Hacker News","tagsFilter":{"id":{"glob":"!*Post-1"}},"filter":{"id":{"glob":"!*Post-1"},"tags":{"eq":"Hacker News"}},"limit":25,"skip":2100,"total":3105,"totalPages":125,"currentPage":85,"maxWidth":1024,"maxHeight":512,"locale":"en","hrefLang":"en-US","originalPath":"/tags/hacker-news/page/85","dateFormat":"MM/DD/YYYY"}},"staticQueryHashes":["1239077767","2506312863","2744905544","3025052997","3493603132","3493603132","3513215887","386998304"]}