{"componentChunkName":"component---gatsby-theme-buzzing-src-gatsby-theme-timeline-templates-posts-query-js","path":"/zh-Hant/page/34","result":{"data":{"site":{"siteMetadata":{"title":"Reddit 热门","description":"用中文浏览Reddit热门内容","social":[{"name":"Twitter","url":"https://twitter.com/gatsbyjs","external":null,"prefetch":null},{"name":"GitHub","url":"https://github.com/gatsbyjs","external":null,"prefetch":null}],"menuLinks":[],"localize":[{"locale":"en","title":"Buzzing on Reddit","description":"See what's buzzing on Reddit in your native language","social":[{"name":"Reddit","url":"https://www.reddit.com/","external":true,"prefetch":null}],"menuLinks":[{"name":"Weekly Selection","url":"/issues","external":null,"prefetch":null},{"name":"RSS","url":"/rss.xml","external":null,"prefetch":false}]},{"locale":"zh-Hant","title":"Reddit 熱門","description":"用中文瀏覽Reddit熱門內容","social":null,"menuLinks":null}]}},"tagsGroup":{"group":[{"fieldValue":"ASK HN","totalCount":54},{"fieldValue":"Hacker News","totalCount":3107},{"fieldValue":"Poll","totalCount":1},{"fieldValue":"Show HN","totalCount":100},{"fieldValue":"poll","totalCount":1},{"fieldValue":"story","totalCount":3106}]},"allBlogPost":{"nodes":[{"__typename":"SocialMediaPost","id":"HnPost-26371902","excerpt":"","slug":"/hn/26371902","title":"Californians aren’t leaving the state en masse but are leaving San Francisco","date":"March 07, 2021","dateISO":"2021-03-07T03:24:51.828Z","datetime":"2021-03-07 03:24","tags":["story","Hacker News"],"image":null,"imageAlt":null,"provider":"Hacker News","thirdPartyId":"26371902","url":"https://news.ycombinator.com/item?id=26371902","originalUrl":"https://www.latimes.com/california/story/2021-03-04/california-exodus-san-francisco-migration","imageRemote":"https://ca-times.brightspotcdn.com/dims4/default/353a6ec/2147483647/strip/true/crop/840x441+0+43/resize/1200x630!/quality/90/?url=https%3A%2F%2Fcalifornia-times-brightspot.s3.amazonaws.com%2Fd6%2F00%2F19acb8b144eca33e4cbdd334cb3a%2Fgolden-gate.jpg","video":null,"channel":null,"channelUrl":null,"author":"undefined1","authorUrl":"https://news.ycombinator.com/user?id=undefined1","authorImage":null,"authorSlug":null,"score":231,"views":null,"sharedCount":null,"likeCount":null,"sharedContent":null,"parent":{"__typename":"HnJson","localize":[{"title":"加州人不是集体离开加州，而是离开旧金山。","locale":"zh"},{"title":"加州人不是集體離開加州，而是離開舊金山。","locale":"zh-Hant"}]}},{"__typename":"SocialMediaPost","id":"HnPost-26370704","excerpt":"","slug":"/hn/26370704","title":"FFMPEG from Zero to Hero","date":"March 07, 2021","dateISO":"2021-03-07T02:14:25.515Z","datetime":"2021-03-07 02:14","tags":["story","Hacker News"],"image":null,"imageAlt":null,"provider":"Hacker News","thirdPartyId":"26370704","url":"https://news.ycombinator.com/item?id=26370704","originalUrl":"https://ffmpegfromzerotohero.com/","imageRemote":"https://ffmpegfromzerotohero.com/images/logo-dark.png","video":null,"channel":null,"channelUrl":null,"author":"wilsonfiifi","authorUrl":"https://news.ycombinator.com/user?id=wilsonfiifi","authorImage":null,"authorSlug":null,"score":409,"views":null,"sharedCount":null,"likeCount":null,"sharedContent":null,"parent":{"__typename":"HnJson","localize":[{"title":"FFMPEG从无到有","locale":"zh"},{"title":"FFMPEG從無到有","locale":"zh-Hant"}]}},{"__typename":"SocialMediaPost","id":"HnPost-26369305","excerpt":"","slug":"/hn/26369305","title":"Citus 10 brings columnar compression to Postgres","date":"March 07, 2021","dateISO":"2021-03-07T01:32:37.384Z","datetime":"2021-03-07 01:32","tags":["story","Hacker News"],"image":null,"imageAlt":null,"provider":"Hacker News","thirdPartyId":"26369305","url":"https://news.ycombinator.com/item?id=26369305","originalUrl":"https://www.citusdata.com/blog/2021/03/06/citus-10-columnar-compression-for-postgres/","imageRemote":"https://www.citusdata.com/assets/images/twitter/jeff-columnar-blog-1200x630.jpg","video":null,"channel":null,"channelUrl":null,"author":"whitepoplar","authorUrl":"https://news.ycombinator.com/user?id=whitepoplar","authorImage":null,"authorSlug":null,"score":219,"views":null,"sharedCount":null,"likeCount":null,"sharedContent":null,"parent":{"__typename":"HnJson","localize":[{"title":"Citus 10为Postgres带来了列式压缩功能","locale":"zh"},{"title":"Citus 10爲Postgres帶來了列式壓縮功能","locale":"zh-Hant"}]}},{"__typename":"SocialMediaPost","id":"HnPost-26370572","excerpt":"","slug":"/hn/26370572","title":"Dolt is Git for Data: a SQL database that you can fork, clone, branch, merge","date":"March 06, 2021","dateISO":"2021-03-06T23:30:15.430Z","datetime":"2021-03-06 23:30","tags":["story","Hacker News"],"image":null,"imageAlt":null,"provider":"Hacker News","thirdPartyId":"26370572","url":"https://news.ycombinator.com/item?id=26370572","originalUrl":"https://github.com/dolthub/dolt#dolt","imageRemote":"https://avatars.githubusercontent.com/u/42156961?s=400&v=4","video":null,"channel":null,"channelUrl":null,"author":"crazypython","authorUrl":"https://news.ycombinator.com/user?id=crazypython","authorImage":null,"authorSlug":null,"score":749,"views":null,"sharedCount":null,"likeCount":null,"sharedContent":null,"parent":{"__typename":"HnJson","localize":[{"title":"Dolt是Git for Data：一个可以fork、克隆、分支、合并的SQL数据库。","locale":"zh"},{"title":"Dolt是Git for Data：一個可以fork、克隆、分支、合併的SQL數據庫。","locale":"zh-Hant"}]}},{"__typename":"SocialMediaPost","id":"HnPost-26366538","excerpt":"","slug":"/hn/26366538","title":"Ask HN: What tangible benefits did you get from spending time on HN?","date":"March 06, 2021","dateISO":"2021-03-06T21:28:34.787Z","datetime":"2021-03-06 21:28","tags":["story","ASK HN","Hacker News"],"image":null,"imageAlt":null,"provider":"Hacker News","thirdPartyId":"26366538","url":"https://news.ycombinator.com/item?id=26366538","originalUrl":"https://news.ycombinator.com/item?id=26366538","imageRemote":null,"video":null,"channel":"ASK HN","channelUrl":"https://news.ycombinator.com/ask","author":"ElectricMind","authorUrl":"https://news.ycombinator.com/user?id=ElectricMind","authorImage":null,"authorSlug":null,"score":218,"views":null,"sharedCount":null,"likeCount":null,"sharedContent":null,"parent":{"__typename":"HnJson","localize":[{"title":"问HN：在HN上呆久了，你得到了哪些实实在在的好处？","locale":"zh"},{"title":"問HN：在HN上呆久了，你得到了哪些實實在在的好處？","locale":"zh-Hant"}]}},{"__typename":"SocialMediaPost","id":"HnPost-26368939","excerpt":"","slug":"/hn/26368939","title":"Animated Engines","date":"March 06, 2021","dateISO":"2021-03-06T19:47:09.288Z","datetime":"2021-03-06 19:47","tags":["story","Hacker News"],"image":null,"imageAlt":null,"provider":"Hacker News","thirdPartyId":"26368939","url":"https://news.ycombinator.com/item?id=26368939","originalUrl":"http://animatedengines.com/","imageRemote":"http://animatedengines.com/img/507movementsad.png","video":null,"channel":null,"channelUrl":null,"author":"marcodiego","authorUrl":"https://news.ycombinator.com/user?id=marcodiego","authorImage":null,"authorSlug":null,"score":696,"views":null,"sharedCount":null,"likeCount":null,"sharedContent":null,"parent":{"__typename":"HnJson","localize":[{"title":"动画引擎","locale":"zh"},{"title":"動畫引擎","locale":"zh-Hant"}]}},{"__typename":"SocialMediaPost","id":"HnPost-26357033","excerpt":"","slug":"/hn/26357033","title":"Thanks HN: Lessons learned after Google nearly killed my site","date":"March 06, 2021","dateISO":"2021-03-06T19:29:47.549Z","datetime":"2021-03-06 19:29","tags":["story","Hacker News"],"image":null,"imageAlt":null,"provider":"Hacker News","thirdPartyId":"26357033","url":"https://news.ycombinator.com/item?id=26357033","originalUrl":"https://www.uploader.win/blog/","imageRemote":"https://www.uploader.win/assets/img/logo.b80d7a39.svg","video":null,"channel":null,"channelUrl":null,"author":"uploaderwin","authorUrl":"https://news.ycombinator.com/user?id=uploaderwin","authorImage":null,"authorSlug":null,"score":533,"views":null,"sharedCount":null,"likeCount":null,"sharedContent":null,"parent":{"__typename":"HnJson","localize":[{"title":"谢谢HN：谷歌差点杀了我的网站后的教训。","locale":"zh"},{"title":"謝謝HN：谷歌差點殺了我的網站後的教訓。","locale":"zh-Hant"}]}},{"__typename":"SocialMediaPost","id":"HnPost-26367410","excerpt":"","slug":"/hn/26367410","title":"Reflections on IDEA vs VS Code","date":"March 06, 2021","dateISO":"2021-03-06T19:18:57.222Z","datetime":"2021-03-06 19:18","tags":["story","Hacker News"],"image":null,"imageAlt":null,"provider":"Hacker News","thirdPartyId":"26367410","url":"https://news.ycombinator.com/item?id=26367410","originalUrl":"https://archive.vn/nNdT1","imageRemote":null,"video":null,"channel":null,"channelUrl":null,"author":"regexrex","authorUrl":"https://news.ycombinator.com/user?id=regexrex","authorImage":null,"authorSlug":null,"score":305,"views":null,"sharedCount":null,"likeCount":null,"sharedContent":null,"parent":{"__typename":"HnJson","localize":[{"title":"关于IDEA与VS Code的思考","locale":"zh"},{"title":"關於IDEA與VS Code的思考","locale":"zh-Hant"}]}},{"__typename":"SocialMediaPost","id":"HnPost-26367099","excerpt":"","slug":"/hn/26367099","title":"Ask HN: Is abuse from supervisors as common in industry as in academia?","date":"March 06, 2021","dateISO":"2021-03-06T18:49:50.104Z","datetime":"2021-03-06 18:49","tags":["story","ASK HN","Hacker News"],"image":null,"imageAlt":null,"provider":"Hacker News","thirdPartyId":"26367099","url":"https://news.ycombinator.com/item?id=26367099","originalUrl":"https://news.ycombinator.com/item?id=26367099","imageRemote":null,"video":null,"channel":"ASK HN","channelUrl":"https://news.ycombinator.com/ask","author":"phdonewiththis","authorUrl":"https://news.ycombinator.com/user?id=phdonewiththis","authorImage":null,"authorSlug":null,"score":270,"views":null,"sharedCount":null,"likeCount":null,"sharedContent":null,"parent":{"__typename":"HnJson","localize":[{"title":"问HN：主管的虐待行为在工业界和学术界一样普遍吗？","locale":"zh"},{"title":"問HN：主管的虐待行爲在工業界和學術界一樣普遍嗎？","locale":"zh-Hant"}]}},{"__typename":"SocialMediaPost","id":"HnPost-26347501","excerpt":"","slug":"/hn/26347501","title":"Turntable.fm is back from the dead – and now there are two","date":"March 06, 2021","dateISO":"2021-03-06T18:27:29.754Z","datetime":"2021-03-06 18:27","tags":["story","Hacker News"],"image":null,"imageAlt":null,"provider":"Hacker News","thirdPartyId":"26347501","url":"https://news.ycombinator.com/item?id=26347501","originalUrl":"https://www.theverge.com/2021/3/4/22313793/turntable-fm-return-two-versions-original","imageRemote":"https://cdn.vox-cdn.com/thumbor/C4uwdYCi2Okhu8ysMT5Jgq81hEQ=/0x29:2026x1090/fit-in/1200x630/cdn.vox-cdn.com/uploads/chorus_asset/file/22345792/Screen_Shot_2021_03_04_at_10.41.48_AM.png","video":null,"channel":null,"channelUrl":null,"author":"jbredeche","authorUrl":"https://news.ycombinator.com/user?id=jbredeche","authorImage":null,"authorSlug":null,"score":162,"views":null,"sharedCount":null,"likeCount":null,"sharedContent":null,"parent":{"__typename":"HnJson","localize":[{"title":"Turntable.fm从死神那里回来了--现在有两个","locale":"zh"},{"title":"Turntable.fm從死神那裏回來了--現在有兩個","locale":"zh-Hant"}]}},{"__typename":"SocialMediaPost","id":"HnPost-26355175","excerpt":"","slug":"/hn/26355175","title":"Simulating CRT Monitors with FFmpeg (Pt. 1: Color CRTs)","date":"March 06, 2021","dateISO":"2021-03-06T18:27:29.754Z","datetime":"2021-03-06 18:27","tags":["story","Hacker News"],"image":null,"imageAlt":null,"provider":"Hacker News","thirdPartyId":"26355175","url":"https://news.ycombinator.com/item?id=26355175","originalUrl":"https://int10h.org/blog/2021/01/simulating-crt-monitors-ffmpeg-pt-1-color/","imageRemote":"https://int10h.org/blog/img/ffmpeg-crt/color01_ntsctv8088.tn.jpg","video":null,"channel":null,"channelUrl":null,"author":"sep","authorUrl":"https://news.ycombinator.com/user?id=sep","authorImage":null,"authorSlug":null,"score":173,"views":null,"sharedCount":null,"likeCount":null,"sharedContent":null,"parent":{"__typename":"HnJson","localize":[{"title":"用FFmpeg模拟CRT显示器(第一部分：彩色CRT)","locale":"zh"},{"title":"用FFmpeg模擬CRT顯示器(第一部分：彩色CRT)","locale":"zh-Hant"}]}},{"__typename":"SocialMediaPost","id":"HnPost-26354990","excerpt":"","slug":"/hn/26354990","title":"L.A. startup is building tiny injectable robots to attack tumors","date":"March 06, 2021","dateISO":"2021-03-06T17:48:16.309Z","datetime":"2021-03-06 17:48","tags":["story","Hacker News"],"image":null,"imageAlt":null,"provider":"Hacker News","thirdPartyId":"26354990","url":"https://news.ycombinator.com/item?id=26354990","originalUrl":"https://www.latimes.com/business/technology/story/2021-03-04/this-la-company-is-building-tiny-medical-robots-to-inject-into-your-body","imageRemote":"https://ca-times.brightspotcdn.com/dims4/default/ab5786f/2147483647/strip/true/crop/1500x788+0+21/resize/1200x630!/quality/90/?url=https%3A%2F%2Fcalifornia-times-brightspot.s3.amazonaws.com%2Fe8%2F62%2F20a293a1488fbf337f76f8851aff%2Ffi-tn-bionaut-medical-magnet-robot-glioma-3.jpg","video":null,"channel":null,"channelUrl":null,"author":"thereare5lights","authorUrl":"https://news.ycombinator.com/user?id=thereare5lights","authorImage":null,"authorSlug":null,"score":166,"views":null,"sharedCount":null,"likeCount":null,"sharedContent":null,"parent":{"__typename":"HnJson","localize":[{"title":"洛杉矶初创公司正在制造微小的可注射机器人来攻击肿瘤。","locale":"zh"},{"title":"洛杉磯初創公司正在製造微小的可注射機器人來攻擊腫瘤。","locale":"zh-Hant"}]}},{"__typename":"SocialMediaPost","id":"HnPost-26364993","excerpt":"","slug":"/hn/26364993","title":"Can’t use iCloud with “true” as the last name","date":"March 06, 2021","dateISO":"2021-03-06T12:57:22.171Z","datetime":"2021-03-06 12:57","tags":["story","Hacker News"],"image":null,"imageAlt":null,"provider":"Hacker News","thirdPartyId":"26364993","url":"https://news.ycombinator.com/item?id=26364993","originalUrl":"https://twitter.com/racheltrue/status/1368004197166108676","imageRemote":null,"video":null,"channel":null,"channelUrl":null,"author":"appwiz","authorUrl":"https://news.ycombinator.com/user?id=appwiz","authorImage":null,"authorSlug":null,"score":236,"views":null,"sharedCount":null,"likeCount":null,"sharedContent":null,"parent":{"__typename":"HnJson","localize":[{"title":"不能使用以 \"true \"为姓的iCloud。","locale":"zh"},{"title":"不能使用以 \"true \"爲姓的iCloud。","locale":"zh-Hant"}]}},{"__typename":"SocialMediaPost","id":"HnPost-26364285","excerpt":"","slug":"/hn/26364285","title":"Burned House Horizon","date":"March 06, 2021","dateISO":"2021-03-06T07:42:37.276Z","datetime":"2021-03-06 07:42","tags":["story","Hacker News"],"image":null,"imageAlt":null,"provider":"Hacker News","thirdPartyId":"26364285","url":"https://news.ycombinator.com/item?id=26364285","originalUrl":"https://en.wikipedia.org/wiki/Burned_house_horizon","imageRemote":"https://upload.wikimedia.org/wikipedia/commons/3/37/Burned_House_Horizon_Map.PNG","video":null,"channel":null,"channelUrl":null,"author":"diodorus","authorUrl":"https://news.ycombinator.com/user?id=diodorus","authorImage":null,"authorSlug":null,"score":331,"views":null,"sharedCount":null,"likeCount":null,"sharedContent":null,"parent":{"__typename":"HnJson","localize":[{"title":"燃烧的房子地平线","locale":"zh"},{"title":"燃燒的房子地平線","locale":"zh-Hant"}]}},{"__typename":"SocialMediaPost","id":"HnPost-26360779","excerpt":"","slug":"/hn/26360779","title":"Show HN: Relocate.me – get your next tech job abroad","date":"March 06, 2021","dateISO":"2021-03-06T06:15:40.937Z","datetime":"2021-03-06 06:15","tags":["story","Show HN","Hacker News"],"image":null,"imageAlt":null,"provider":"Hacker News","thirdPartyId":"26360779","url":"https://news.ycombinator.com/item?id=26360779","originalUrl":"https://relocate.me","imageRemote":"https://relocate.me/images/open_graph/link_image.0f3fc501.png","video":null,"channel":"Show HN","channelUrl":"https://news.ycombinator.com/show","author":"andrewstetsenko","authorUrl":"https://news.ycombinator.com/user?id=andrewstetsenko","authorImage":null,"authorSlug":null,"score":221,"views":null,"sharedCount":null,"likeCount":null,"sharedContent":null,"parent":{"__typename":"HnJson","localize":[{"title":"显示HN：Relocate.me--在国外找到下一份技术工作。","locale":"zh"},{"title":"顯示HN：Relocate.me--在國外找到下一份技術工作。","locale":"zh-Hant"}]}},{"__typename":"SocialMediaPost","id":"HnPost-26360349","excerpt":"","slug":"/hn/26360349","title":"Ask HN: How do I learn drawing?","date":"March 06, 2021","dateISO":"2021-03-06T05:49:04.818Z","datetime":"2021-03-06 05:49","tags":["story","ASK HN","Hacker News"],"image":null,"imageAlt":null,"provider":"Hacker News","thirdPartyId":"26360349","url":"https://news.ycombinator.com/item?id=26360349","originalUrl":"https://news.ycombinator.com/item?id=26360349","imageRemote":null,"video":null,"channel":"ASK HN","channelUrl":"https://news.ycombinator.com/ask","author":"f311a","authorUrl":"https://news.ycombinator.com/user?id=f311a","authorImage":null,"authorSlug":null,"score":215,"views":null,"sharedCount":null,"likeCount":null,"sharedContent":null,"parent":{"__typename":"HnJson","localize":[{"title":"问HN：如何学习绘画？","locale":"zh"},{"title":"問HN：如何學習繪畫？","locale":"zh-Hant"}]}},{"__typename":"SocialMediaPost","id":"HnPost-26354017","excerpt":"","slug":"/hn/26354017","title":"Caramel: An OCaml for the Erlang VM","date":"March 06, 2021","dateISO":"2021-03-06T05:38:54.372Z","datetime":"2021-03-06 05:38","tags":["story","Hacker News"],"image":null,"imageAlt":null,"provider":"Hacker News","thirdPartyId":"26354017","url":"https://news.ycombinator.com/item?id=26354017","originalUrl":"https://caramel.run","imageRemote":"https://caramel.run/assets/logo.png","video":null,"channel":null,"channelUrl":null,"author":"alokrai","authorUrl":"https://news.ycombinator.com/user?id=alokrai","authorImage":null,"authorSlug":null,"score":201,"views":null,"sharedCount":null,"likeCount":null,"sharedContent":null,"parent":{"__typename":"HnJson","localize":[{"title":"焦糖。一个适用于Erlang虚拟机的OCaml","locale":"zh"},{"title":"焦糖。一個適用於Erlang虛擬機的OCaml","locale":"zh-Hant"}]}},{"__typename":"SocialMediaPost","id":"HnPost-26358882","excerpt":"","slug":"/hn/26358882","title":"Dark patterns after the GDPR: consent pop-ups and their influence","date":"March 06, 2021","dateISO":"2021-03-06T05:38:54.372Z","datetime":"2021-03-06 05:38","tags":["story","Hacker News"],"image":null,"imageAlt":null,"provider":"Hacker News","thirdPartyId":"26358882","url":"https://news.ycombinator.com/item?id=26358882","originalUrl":"https://dl.acm.org/doi/10.1145/3313831.3376321","imageRemote":"https://dl.acm.org/specs/products/acm/releasedAssets/images/acm-dl-logo-white.png","video":null,"channel":null,"channelUrl":null,"author":"DyslexicAtheist","authorUrl":"https://news.ycombinator.com/user?id=DyslexicAtheist","authorImage":null,"authorSlug":null,"score":251,"views":null,"sharedCount":null,"likeCount":null,"sharedContent":null,"parent":{"__typename":"HnJson","localize":[{"title":"GDPR后的黑暗模式：同意弹窗及其影响","locale":"zh"},{"title":"GDPR後的黑暗模式：同意彈窗及其影響","locale":"zh-Hant"}]}},{"__typename":"SocialMediaPost","id":"HnPost-26361191","excerpt":"","slug":"/hn/26361191","title":"An update on Android's audio latency","date":"March 06, 2021","dateISO":"2021-03-06T04:29:54.672Z","datetime":"2021-03-06 04:29","tags":["story","Hacker News"],"image":null,"imageAlt":null,"provider":"Hacker News","thirdPartyId":"26361191","url":"https://news.ycombinator.com/item?id=26361191","originalUrl":"https://android-developers.googleblog.com/2021/03/an-update-on-androids-audio-latency.html","imageRemote":"https://1.bp.blogspot.com/-SoP_7OT6zGo/YEJnBCQPS1I/AAAAAAAAQN8/pRLz9614wPQRykezF7cjncWvvpFTFFiFwCLcBGAsYHQ/w1200-h630-p-k-no-nu/Android-update-on-audio-latency.png","video":null,"channel":null,"channelUrl":null,"author":"ingve","authorUrl":"https://news.ycombinator.com/user?id=ingve","authorImage":null,"authorSlug":null,"score":237,"views":null,"sharedCount":null,"likeCount":null,"sharedContent":null,"parent":{"__typename":"HnJson","localize":[{"title":"关于安卓系统音频延迟的更新","locale":"zh"},{"title":"關於安卓系統音頻延遲的更新","locale":"zh-Hant"}]}},{"__typename":"SocialMediaPost","id":"HnPost-26360101","excerpt":"","slug":"/hn/26360101","title":"Data Transfer Project by Apple, Facebook, Google, Microsoft, etc.","date":"March 06, 2021","dateISO":"2021-03-06T02:43:11.365Z","datetime":"2021-03-06 02:43","tags":["story","Hacker News"],"image":null,"imageAlt":null,"provider":"Hacker News","thirdPartyId":"26360101","url":"https://news.ycombinator.com/item?id=26360101","originalUrl":"https://datatransferproject.dev/","imageRemote":"https://datatransferproject.dev/images/logo-dtp.png","video":null,"channel":null,"channelUrl":null,"author":"aleyan","authorUrl":"https://news.ycombinator.com/user?id=aleyan","authorImage":null,"authorSlug":null,"score":249,"views":null,"sharedCount":null,"likeCount":null,"sharedContent":null,"parent":{"__typename":"HnJson","localize":[{"title":"苹果、Facebook、谷歌、微软等公司的数据传输项目。","locale":"zh"},{"title":"蘋果、Facebook、谷歌、微軟等公司的數據傳輸項目。","locale":"zh-Hant"}]}},{"__typename":"SocialMediaPost","id":"HnPost-26361352","excerpt":"","slug":"/hn/26361352","title":"Student passes 3 classes in 4 years, ranks near top half of class with 0.13 GPA","date":"March 06, 2021","dateISO":"2021-03-06T02:43:11.365Z","datetime":"2021-03-06 02:43","tags":["story","Hacker News"],"image":null,"imageAlt":null,"provider":"Hacker News","thirdPartyId":"26361352","url":"https://news.ycombinator.com/item?id=26361352","originalUrl":"https://foxbaltimore.com/news/project-baltimore/city-student-passes-3-classes-in-four-years-ranks-near-top-half-of-class-with-013-gpa","imageRemote":"https://static-36.sinclairstoryline.com/resources/media/64362e24-1ff5-49af-b42b-4de29658e95f-large16x9_3_1_5.PNG?1614641553677","video":null,"channel":null,"channelUrl":null,"author":"jdkee","authorUrl":"https://news.ycombinator.com/user?id=jdkee","authorImage":null,"authorSlug":null,"score":201,"views":null,"sharedCount":null,"likeCount":null,"sharedContent":null,"parent":{"__typename":"HnJson","localize":[{"title":"学生4年内通过3门课，GPA0.13，排名接近班级前半部分。","locale":"zh"},{"title":"學生4年內通過3門課，GPA0.13，排名接近班級前半部分。","locale":"zh-Hant"}]}},{"__typename":"SocialMediaPost","id":"HnPost-26362443","excerpt":"","slug":"/hn/26362443","title":"Coursera S-1 IPO","date":"March 06, 2021","dateISO":"2021-03-06T02:14:03.411Z","datetime":"2021-03-06 02:14","tags":["story","Hacker News"],"image":null,"imageAlt":null,"provider":"Hacker News","thirdPartyId":"26362443","url":"https://news.ycombinator.com/item?id=26362443","originalUrl":"https://www.sec.gov/Archives/edgar/data/1651562/000119312521071525/d65490ds1.htm","imageRemote":"https://www.sec.gov/Archives/edgar/data/1651562/000119312521071525/g65490g53v02.jpg","video":null,"channel":null,"channelUrl":null,"author":"marc__1","authorUrl":"https://news.ycombinator.com/user?id=marc__1","authorImage":null,"authorSlug":null,"score":330,"views":null,"sharedCount":null,"likeCount":null,"sharedContent":null,"parent":{"__typename":"HnJson","localize":[{"title":"Coursera S-1 IPO","locale":"zh"},{"title":"Coursera S-1 IPO","locale":"zh-Hant"}]}},{"__typename":"SocialMediaPost","id":"HnPost-26358309","excerpt":"","slug":"/hn/26358309","title":"The reason Okta spent $6.5B on Auth0","date":"March 05, 2021","dateISO":"2021-03-05T23:59:47.432Z","datetime":"2021-03-05 23:59","tags":["story","Hacker News"],"image":null,"imageAlt":null,"provider":"Hacker News","thirdPartyId":"26358309","url":"https://news.ycombinator.com/item?id=26358309","originalUrl":"https://supertokens.io/blog/the-real-reason-okta-spent-on-auth0","imageRemote":"https://supertokens.io/static/webflow/blog/auth0-acquisition/images/okta_merged-14-p-1600.png","video":null,"channel":null,"channelUrl":null,"author":"advaitruia","authorUrl":"https://news.ycombinator.com/user?id=advaitruia","authorImage":null,"authorSlug":null,"score":217,"views":null,"sharedCount":null,"likeCount":null,"sharedContent":null,"parent":{"__typename":"HnJson","localize":[{"title":"Okta在Auth0上花了65亿美金的原因。","locale":"zh"},{"title":"Okta在Auth0上花了65億美金的原因。","locale":"zh-Hant"}]}},{"__typename":"SocialMediaPost","id":"HnPost-26362178","excerpt":"","slug":"/hn/26362178","title":"30k U.S. organizations newly hacked via holes in Microsoft Exchange Server","date":"March 05, 2021","dateISO":"2021-03-05T23:37:46.083Z","datetime":"2021-03-05 23:37","tags":["story","Hacker News"],"image":null,"imageAlt":null,"provider":"Hacker News","thirdPartyId":"26362178","url":"https://news.ycombinator.com/item?id=26362178","originalUrl":"https://krebsonsecurity.com/2021/03/at-least-30000-u-s-organizations-newly-hacked-via-holes-in-microsofts-email-software/","imageRemote":"https://krebsonsecurity.com/wp-content/uploads/2021/03/chriskrebstweet.png","video":null,"channel":null,"channelUrl":null,"author":"parsecs","authorUrl":"https://news.ycombinator.com/user?id=parsecs","authorImage":null,"authorSlug":null,"score":1037,"views":null,"sharedCount":null,"likeCount":null,"sharedContent":null,"parent":{"__typename":"HnJson","localize":[{"title":"美国3万家机构新近通过微软Exchange服务器的漏洞被黑客攻击","locale":"zh"},{"title":"美國3萬家機構新近通過微軟Exchange服務器的漏洞被黑客攻擊","locale":"zh-Hant"}]}},{"__typename":"SocialMediaPost","id":"HnPost-26359431","excerpt":"","slug":"/hn/26359431","title":"Wing Commander III","date":"March 05, 2021","dateISO":"2021-03-05T23:18:05.807Z","datetime":"2021-03-05 23:18","tags":["story","Hacker News"],"image":null,"imageAlt":null,"provider":"Hacker News","thirdPartyId":"26359431","url":"https://news.ycombinator.com/item?id=26359431","originalUrl":"https://www.filfre.net/2021/03/wing-commander-iii/","imageRemote":"https://www.filfre.net/wp-content/uploads/2021/01/384521-wing-commander-iii-heart-of-the-tiger-dos-front-cover-214x300.jpg","video":null,"channel":null,"channelUrl":null,"author":"doppp","authorUrl":"https://news.ycombinator.com/user?id=doppp","authorImage":null,"authorSlug":null,"score":264,"views":null,"sharedCount":null,"likeCount":null,"sharedContent":null,"parent":{"__typename":"HnJson","localize":[{"title":"Wing Commander III","locale":"zh"},{"title":"Wing Commander III","locale":"zh-Hant"}]}}]}},"pageContext":{"basePath":"/","pageType":"home","tagsFilter":{"id":{"glob":"!*Post-1"}},"filter":{"id":{"glob":"!*Post-1"}},"limit":25,"skip":825,"totalPages":125,"total":3107,"currentPage":34,"maxWidth":1024,"maxHeight":512,"locale":"zh-Hant","hrefLang":"zh-Hant","originalPath":"/page/34","dateFormat":"YYYY-MM-DD"}},"staticQueryHashes":["1239077767","2506312863","2744905544","3025052997","3493603132","3493603132","3513215887","386998304"]}