{"componentChunkName":"component---gatsby-theme-buzzing-src-gatsby-theme-timeline-templates-posts-query-js","path":"/zh-Hant/tags/stocks/page/12","result":{"data":{"site":{"siteMetadata":{"title":"Reddit 热门","description":"用中文浏览Reddit热门内容","social":[{"name":"Reddit","url":"https://www.reddit.com/","external":true,"prefetch":null},{"name":"GitHub","url":"https://github.com/gatsbyjs","external":null,"prefetch":null}],"menuLinks":[{"name":"每周精选","url":"/issues","external":null,"prefetch":null},{"name":"RSS","url":"/rss.xml","external":null,"prefetch":false}],"localize":[{"locale":"en","title":"Buzzing on Reddit","description":"See what's buzzing on Reddit in your native language","social":[{"name":"Reddit","url":"https://www.reddit.com/","external":true,"prefetch":null}],"menuLinks":[{"name":"Weekly Selection","url":"/issues","external":null,"prefetch":null},{"name":"RSS","url":"/rss.xml","external":null,"prefetch":false}]},{"locale":"zh-Hant","title":"Reddit 熱門","description":"用中文瀏覽Reddit熱門內容","social":null,"menuLinks":null}]}},"tagsGroup":{"group":[{"fieldValue":"ASK HN","totalCount":19},{"fieldValue":"Bitcoin","totalCount":3},{"fieldValue":"Hacker News","totalCount":800},{"fieldValue":"Poll","totalCount":1},{"fieldValue":"Show HN","totalCount":31},{"fieldValue":"investing","totalCount":166},{"fieldValue":"poll","totalCount":1},{"fieldValue":"reddit","totalCount":592},{"fieldValue":"science","totalCount":1},{"fieldValue":"stocks","totalCount":276},{"fieldValue":"story","totalCount":799},{"fieldValue":"tweet","totalCount":242},{"fieldValue":"wallstreetbets","totalCount":150}]},"allBlogPost":{"nodes":[{"__typename":"SocialMediaPost","id":"RedditPost-kagdre","excerpt":"You're a complete and utter fool. Let's take a look at the issues:\n\n1) No moat at all. Sure they have 50% market share but there are competitors.\nThey're a delivery service - anyone can do what they do. Not only does this pose\na risk to market share, but it poses a huge risk to the already thin…","slug":"/reddit/r/stocks/comments/kagdre/if_you_bought_doordash_at_180/","title":"If you bought DoorDash at $180...","date":"December 14, 2020","dateISO":"2020-12-14T11:28:17.000Z","datetime":"2020-12-14 11:28","tags":["stocks","reddit"],"image":null,"imageAlt":null,"provider":"Reddit","thirdPartyId":"kagdre","url":"https://www.reddit.com/r/stocks/comments/kagdre/if_you_bought_doordash_at_180/","originalUrl":"https://www.reddit.com/r/stocks/comments/kagdre/if_you_bought_doordash_at_180/","imageRemote":null,"video":null,"channel":"stocks","channelUrl":"https://www.reddit.com/r/stocks","author":"SirGasleak","authorUrl":"https://www.reddit.com/user/SirGasleak","authorImage":null,"authorSlug":"SirGasleak","score":4034,"views":null,"sharedCount":null,"likeCount":null,"sharedContent":null,"parent":{"__typename":"RedditJson","localize":[{"title":"如果你花180美元买了DoorDash.","the_new_excerpt":"你是个彻头彻尾的傻瓜。让我们来看看这些问题：\n\n1)没有护城河。当然，他们有50%的市场份额，但也有竞争对手。\n他们是送货服务-任何人都可以做他们做的事情。这个姿势不仅是\n这是对市场份额的风险，但对已经很薄的…构成了巨大的风险","locale":"zh"},{"title":"如果你花180美元買了DoorDash.","the_new_excerpt":"你是個徹頭徹尾的傻瓜。讓我們來看看這些問題：\n\n1)沒有護城河。當然，他們有50%的市場份額，但也有競爭對手。\n他們是送貨服務-任何人都可以做他們做的事情。這個姿勢不僅是\n這是對市場份額的風險，但對已經很薄的…構成了巨大的風險","locale":"zh-Hant"}]}}]}},"pageContext":{"basePath":"/","pageType":"tag","tag":"stocks","tagsFilter":{"id":{"glob":"!*Post-1"}},"filter":{"id":{"glob":"!*Post-1"},"tags":{"eq":"stocks"}},"limit":25,"skip":275,"total":276,"totalPages":12,"currentPage":12,"maxWidth":1024,"maxHeight":512,"locale":"zh-Hant","hrefLang":"zh-Hant","originalPath":"/tags/stocks/page/12","dateFormat":"YYYY-MM-DD"}},"staticQueryHashes":["1239077767","1684688348","2506312863","2744905544","3493603132","3493603132","386998304"]}