{"componentChunkName":"component---gatsby-theme-buzzing-src-gatsby-theme-timeline-templates-posts-query-js","path":"/tags/hacker-news/page/38","result":{"data":{"site":{"siteMetadata":{"title":"Reddit 热门","description":"用中文浏览Reddit热门内容","social":[{"name":"Twitter","url":"https://twitter.com/gatsbyjs","external":null,"prefetch":null},{"name":"GitHub","url":"https://github.com/gatsbyjs","external":null,"prefetch":null}],"menuLinks":[],"localize":[{"locale":"en","title":"Buzzing on Reddit","description":"See what's buzzing on Reddit in your native language","social":[{"name":"Reddit","url":"https://www.reddit.com/","external":true,"prefetch":null}],"menuLinks":[{"name":"Weekly Selection","url":"/issues","external":null,"prefetch":null},{"name":"RSS","url":"/rss.xml","external":null,"prefetch":false}]},{"locale":"zh-Hant","title":"Reddit 熱門","description":"用中文瀏覽Reddit熱門內容","social":null,"menuLinks":null}]}},"tagsGroup":{"group":[{"fieldValue":"ASK HN","totalCount":44},{"fieldValue":"Bitcoin","totalCount":4},{"fieldValue":"Hacker News","totalCount":2600},{"fieldValue":"Poll","totalCount":1},{"fieldValue":"SaveAMC","totalCount":1},{"fieldValue":"Show HN","totalCount":89},{"fieldValue":"bitcoin","totalCount":3},{"fieldValue":"investing","totalCount":797},{"fieldValue":"poll","totalCount":1},{"fieldValue":"reddit","totalCount":4938},{"fieldValue":"science","totalCount":1},{"fieldValue":"stocks","totalCount":1592},{"fieldValue":"story","totalCount":2599},{"fieldValue":"tweet","totalCount":814},{"fieldValue":"wallstreetbets","totalCount":2549}]},"allBlogPost":{"nodes":[{"__typename":"SocialMediaPost","id":"HnPost-26102709","excerpt":"","slug":"/hn/26102709","title":"America's 1% Has Taken $50T From the Bottom 90%","date":"February 11, 2021","dateISO":"2021-02-11T20:47:34.845Z","datetime":"2021-02-11 20:47","tags":["story","Hacker News"],"image":null,"imageAlt":null,"provider":"Hacker News","thirdPartyId":"26102709","url":"https://news.ycombinator.com/item?id=26102709","originalUrl":"https://time.com/5888024/50-trillion-income-inequality-america/","imageRemote":"https://api.time.com/wp-content/uploads/2020/09/5-trillion-income-inequality-usa-01.jpg?quality=85&crop=0px%2C347px%2C2400px%2C1256px&resize=1200%2C628&strip","video":null,"channel":null,"channelUrl":null,"author":"paulpauper","authorUrl":"https://news.ycombinator.com/user?id=paulpauper","authorImage":null,"authorSlug":null,"score":869,"views":null,"sharedCount":null,"likeCount":null,"sharedContent":null,"parent":{"__typename":"HnJson","localize":[{"title":"美国1%的人从底层90%的人那里拿走了50万美金","locale":"zh"},{"title":"美國1%的人從底層90%的人那裏拿走了50萬美金","locale":"zh-Hant"}]}},{"__typename":"SocialMediaPost","id":"HnPost-26103776","excerpt":"","slug":"/hn/26103776","title":"Why I Built Litestream","date":"February 11, 2021","dateISO":"2021-02-11T20:25:31.532Z","datetime":"2021-02-11 20:25","tags":["story","Hacker News"],"image":null,"imageAlt":null,"provider":"Hacker News","thirdPartyId":"26103776","url":"https://news.ycombinator.com/item?id=26103776","originalUrl":"https://litestream.io/blog/why-i-built-litestream/","imageRemote":null,"video":null,"channel":null,"channelUrl":null,"author":"benbjohnson","authorUrl":"https://news.ycombinator.com/user?id=benbjohnson","authorImage":null,"authorSlug":null,"score":699,"views":null,"sharedCount":null,"likeCount":null,"sharedContent":null,"parent":{"__typename":"HnJson","localize":[{"title":"我为什么要建立Litestream？","locale":"zh"},{"title":"我爲什麼要建立Litestream？","locale":"zh-Hant"}]}},{"__typename":"SocialMediaPost","id":"HnPost-26101092","excerpt":"","slug":"/hn/26101092","title":"What Do You Agree to When You Accept All Cookies","date":"February 11, 2021","dateISO":"2021-02-11T19:08:57.996Z","datetime":"2021-02-11 19:08","tags":["story","Hacker News"],"image":null,"imageAlt":null,"provider":"Hacker News","thirdPartyId":"26101092","url":"https://news.ycombinator.com/item?id=26101092","originalUrl":"http://www.conradakunga.com/blog/what-do-you-actually-agree-to-when-you-accept-all-cookies/","imageRemote":"http://www.conradakunga.com/blog/images/2020/12/Banner1.png","video":null,"channel":null,"channelUrl":null,"author":"kaboro","authorUrl":"https://news.ycombinator.com/user?id=kaboro","authorImage":null,"authorSlug":null,"score":329,"views":null,"sharedCount":null,"likeCount":null,"sharedContent":null,"parent":{"__typename":"HnJson","localize":[{"title":"当您接受所有Cookies时，您同意什么？","locale":"zh"},{"title":"當您接受所有Cookies時，您同意什麼？","locale":"zh-Hant"}]}},{"__typename":"SocialMediaPost","id":"HnPost-26101608","excerpt":"","slug":"/hn/26101608","title":"Podman: A Daemonless Container Engine","date":"February 11, 2021","dateISO":"2021-02-11T18:39:54.923Z","datetime":"2021-02-11 18:39","tags":["story","Hacker News"],"image":null,"imageAlt":null,"provider":"Hacker News","thirdPartyId":"26101608","url":"https://news.ycombinator.com/item?id=26101608","originalUrl":"https://podman.io/","imageRemote":"https://podman.io/images/podman.svg","video":null,"channel":null,"channelUrl":null,"author":"lobo_tuerto","authorUrl":"https://news.ycombinator.com/user?id=lobo_tuerto","authorImage":null,"authorSlug":null,"score":321,"views":null,"sharedCount":null,"likeCount":null,"sharedContent":null,"parent":{"__typename":"HnJson","localize":[{"title":"Podman。一个无守护进程的容器引擎","locale":"zh"},{"title":"Podman。一個無守護進程的容器引擎","locale":"zh-Hant"}]}},{"__typename":"SocialMediaPost","id":"HnPost-26102076","excerpt":"","slug":"/hn/26102076","title":"AMD Is Currently Hiring More Linux Engineers","date":"February 11, 2021","dateISO":"2021-02-11T18:22:16.216Z","datetime":"2021-02-11 18:22","tags":["story","Hacker News"],"image":null,"imageAlt":null,"provider":"Hacker News","thirdPartyId":"26102076","url":"https://news.ycombinator.com/item?id=26102076","originalUrl":"https://www.phoronix.com/scan.php?page=news_item&px=AMD-Hiring-More-Linux-2021","imageRemote":"https://www.phoronix.com/assets/categories/amd.jpg","video":null,"channel":null,"channelUrl":null,"author":"thg","authorUrl":"https://news.ycombinator.com/user?id=thg","authorImage":null,"authorSlug":null,"score":265,"views":null,"sharedCount":null,"likeCount":null,"sharedContent":null,"parent":{"__typename":"HnJson","localize":[{"title":"AMD目前正在招聘更多的Linux工程师","locale":"zh"},{"title":"AMD目前正在招聘更多的Linux工程師","locale":"zh-Hant"}]}},{"__typename":"SocialMediaPost","id":"HnPost-26101435","excerpt":"","slug":"/hn/26101435","title":"From First Principles: Why Scala?","date":"February 11, 2021","dateISO":"2021-02-11T17:50:40.739Z","datetime":"2021-02-11 17:50","tags":["story","Hacker News"],"image":null,"imageAlt":null,"provider":"Hacker News","thirdPartyId":"26101435","url":"https://news.ycombinator.com/item?id=26101435","originalUrl":"https://www.lihaoyi.com/post/FromFirstPrinciplesWhyScala.html","imageRemote":"https://www.lihaoyi.com/handsonscala.png","video":null,"channel":null,"channelUrl":null,"author":"lihaoyi","authorUrl":"https://news.ycombinator.com/user?id=lihaoyi","authorImage":null,"authorSlug":null,"score":285,"views":null,"sharedCount":null,"likeCount":null,"sharedContent":null,"parent":{"__typename":"HnJson","localize":[{"title":"从第一原理开始。为什么是Scala?","locale":"zh"},{"title":"從第一原理開始。爲什麼是Scala?","locale":"zh-Hant"}]}},{"__typename":"SocialMediaPost","id":"HnPost-26101066","excerpt":"","slug":"/hn/26101066","title":"Rust Cookbook","date":"February 11, 2021","dateISO":"2021-02-11T17:39:50.380Z","datetime":"2021-02-11 17:39","tags":["story","Hacker News"],"image":null,"imageAlt":null,"provider":"Hacker News","thirdPartyId":"26101066","url":"https://news.ycombinator.com/item?id=26101066","originalUrl":"https://rust-lang-nursery.github.io/rust-cookbook/intro.html","imageRemote":"https://badge-cache.kominick.com/crates/v/rand.svg?label=rand","video":null,"channel":null,"channelUrl":null,"author":"smusamashah","authorUrl":"https://news.ycombinator.com/user?id=smusamashah","authorImage":null,"authorSlug":null,"score":239,"views":null,"sharedCount":null,"likeCount":null,"sharedContent":null,"parent":{"__typename":"HnJson","localize":[{"title":"Rust Cookbook","locale":"zh"},{"title":"Rust Cookbook","locale":"zh-Hant"}]}},{"__typename":"SocialMediaPost","id":"HnPost-26101153","excerpt":"","slug":"/hn/26101153","title":"Dyson air purifier outperformed by cheap DIY box fan filter in Marketplace test","date":"February 11, 2021","dateISO":"2021-02-11T17:39:50.380Z","datetime":"2021-02-11 17:39","tags":["story","Hacker News"],"image":null,"imageAlt":null,"provider":"Hacker News","thirdPartyId":"26101153","url":"https://news.ycombinator.com/item?id=26101153","originalUrl":"https://www.cbc.ca/1.5900782","imageRemote":"https://i.cbc.ca/1.5900799.1612453779!/fileImage/httpImage/image.jpeg_gen/derivatives/16x9_620/marketplace-purifier-test.jpeg","video":null,"channel":null,"channelUrl":null,"author":"walterbell","authorUrl":"https://news.ycombinator.com/user?id=walterbell","authorImage":null,"authorSlug":null,"score":792,"views":null,"sharedCount":null,"likeCount":null,"sharedContent":null,"parent":{"__typename":"HnJson","localize":[{"title":"戴森空气净化器在市场测试中表现优于廉价的DIY箱式风机滤网","locale":"zh"},{"title":"戴森空氣淨化器在市場測試中表現優於廉價的DIY箱式風機濾網","locale":"zh-Hant"}]}},{"__typename":"SocialMediaPost","id":"HnPost-26101922","excerpt":"","slug":"/hn/26101922","title":"Rust 1.50","date":"February 11, 2021","dateISO":"2021-02-11T17:39:50.380Z","datetime":"2021-02-11 17:39","tags":["story","Hacker News"],"image":null,"imageAlt":null,"provider":"Hacker News","thirdPartyId":"26101922","url":"https://news.ycombinator.com/item?id=26101922","originalUrl":"https://blog.rust-lang.org/2021/02/11/Rust-1.50.0.html","imageRemote":"https://www.rust-lang.org/static/images/rust-social-wide.jpg","video":null,"channel":null,"channelUrl":null,"author":"joseluisq","authorUrl":"https://news.ycombinator.com/user?id=joseluisq","authorImage":null,"authorSlug":null,"score":377,"views":null,"sharedCount":null,"likeCount":null,"sharedContent":null,"parent":{"__typename":"HnJson","localize":[{"title":"生锈 1.50","locale":"zh"},{"title":"生鏽 1.50","locale":"zh-Hant"}]}},{"__typename":"SocialMediaPost","id":"HnPost-26102695","excerpt":"","slug":"/hn/26102695","title":"TurboTax Just Tricked You into Paying to File Your Taxes","date":"February 11, 2021","dateISO":"2021-02-11T17:39:50.380Z","datetime":"2021-02-11 17:39","tags":["story","Hacker News"],"image":null,"imageAlt":null,"provider":"Hacker News","thirdPartyId":"26102695","url":"https://news.ycombinator.com/item?id=26102695","originalUrl":"https://www.propublica.org/article/turbotax-just-tricked-you-into-paying-to-file-your-taxes","imageRemote":"https://assets-c3.propublica.org/images/articles/_1200x630_crop_center-center_82_none/20190422-turbotax-ads-1200x630.jpg?mtime=1571340539","video":null,"channel":null,"channelUrl":null,"author":"paulpauper","authorUrl":"https://news.ycombinator.com/user?id=paulpauper","authorImage":null,"authorSlug":null,"score":410,"views":null,"sharedCount":null,"likeCount":null,"sharedContent":null,"parent":{"__typename":"HnJson","localize":[{"title":"TurboTax只是欺骗你，让你花钱报税","locale":"zh"},{"title":"TurboTax只是欺騙你，讓你花錢報稅","locale":"zh-Hant"}]}},{"__typename":"SocialMediaPost","id":"HnPost-26101929","excerpt":"","slug":"/hn/26101929","title":"The Vaccine Had to Be Used. He Used It. He Was Fired","date":"February 11, 2021","dateISO":"2021-02-11T16:36:54.838Z","datetime":"2021-02-11 16:36","tags":["story","Hacker News"],"image":null,"imageAlt":null,"provider":"Hacker News","thirdPartyId":"26101929","url":"https://news.ycombinator.com/item?id=26101929","originalUrl":"https://nyti.ms/3q5J38a","imageRemote":"https://static01.nyt.com/images/2021/02/09/multimedia/00covid-doctor-1/00covid-doctor-1-facebookJumbo.jpg","video":null,"channel":null,"channelUrl":null,"author":"Clewza313","authorUrl":"https://news.ycombinator.com/user?id=Clewza313","authorImage":null,"authorSlug":null,"score":283,"views":null,"sharedCount":null,"likeCount":null,"sharedContent":null,"parent":{"__typename":"HnJson","localize":[{"title":"疫苗不得不用。他用了 他被解雇了","locale":"zh"},{"title":"疫苗不得不用。他用了 他被解僱了","locale":"zh-Hant"}]}},{"__typename":"SocialMediaPost","id":"HnPost-26102030","excerpt":"","slug":"/hn/26102030","title":"MasterCard to open up network to cryptocurrencies","date":"February 11, 2021","dateISO":"2021-02-11T16:36:54.838Z","datetime":"2021-02-11 16:36","tags":["story","Hacker News"],"image":null,"imageAlt":null,"provider":"Hacker News","thirdPartyId":"26102030","url":"https://news.ycombinator.com/item?id=26102030","originalUrl":"https://www.reuters.com/article/us-crypto-currency-mastercard/mastercard-to-open-up-network-to-select-cryptocurrencies-idUSKBN2AA2WF","imageRemote":"https://static.reuters.com/resources/r/?m=02&d=20210211&t=2&i=1551122467&r=LYNXMPEH19204&w=800","video":null,"channel":null,"channelUrl":null,"author":"ArtTimeInvestor","authorUrl":"https://news.ycombinator.com/user?id=ArtTimeInvestor","authorImage":null,"authorSlug":null,"score":974,"views":null,"sharedCount":null,"likeCount":null,"sharedContent":null,"parent":{"__typename":"HnJson","localize":[{"title":"万事达卡将向加密货币开放网络","locale":"zh"},{"title":"萬事達卡將向加密貨幣開放網絡","locale":"zh-Hant"}]}},{"__typename":"SocialMediaPost","id":"HnPost-26080798","excerpt":"","slug":"/hn/26080798","title":"Migrating a JavaScript Library from JavaScript to WebAssembly","date":"February 11, 2021","dateISO":"2021-02-11T13:33:27.995Z","datetime":"2021-02-11 13:33","tags":["story","Hacker News"],"image":null,"imageAlt":null,"provider":"Hacker News","thirdPartyId":"26080798","url":"https://news.ycombinator.com/item?id=26080798","originalUrl":"https://engineering.q42.nl/webassembly/","imageRemote":"https://engineering.q42.nl/content/images/2020/09/Going-From-JavaScript-to-WebAssembly-in-Three-Steps-1.jpg","video":null,"channel":null,"channelUrl":null,"author":"jasperk","authorUrl":"https://news.ycombinator.com/user?id=jasperk","authorImage":null,"authorSlug":null,"score":210,"views":null,"sharedCount":null,"likeCount":null,"sharedContent":null,"parent":{"__typename":"HnJson","localize":[{"title":"将JavaScript库从JavaScript迁移到WebAssembly上","locale":"zh"},{"title":"將JavaScript庫從JavaScript遷移到WebAssembly上","locale":"zh-Hant"}]}},{"__typename":"SocialMediaPost","id":"HnPost-26100075","excerpt":"","slug":"/hn/26100075","title":"Beej's Guide to Network Programming","date":"February 11, 2021","dateISO":"2021-02-11T13:23:33.960Z","datetime":"2021-02-11 13:23","tags":["story","Hacker News"],"image":null,"imageAlt":null,"provider":"Hacker News","thirdPartyId":"26100075","url":"https://news.ycombinator.com/item?id=26100075","originalUrl":"https://beej.us/guide/bgnet/html/","imageRemote":null,"video":null,"channel":null,"channelUrl":null,"author":"ColinWright","authorUrl":"https://news.ycombinator.com/user?id=ColinWright","authorImage":null,"authorSlug":null,"score":992,"views":null,"sharedCount":null,"likeCount":null,"sharedContent":null,"parent":{"__typename":"HnJson","localize":[{"title":"Beej的网络编程指南","locale":"zh"},{"title":"Beej的網絡編程指南","locale":"zh-Hant"}]}},{"__typename":"SocialMediaPost","id":"HnPost-26096340","excerpt":"","slug":"/hn/26096340","title":"Why Wasn't Ruby 3 Faster?","date":"February 11, 2021","dateISO":"2021-02-11T10:25:17.561Z","datetime":"2021-02-11 10:25","tags":["story","Hacker News"],"image":null,"imageAlt":null,"provider":"Hacker News","thirdPartyId":"26096340","url":"https://news.ycombinator.com/item?id=26096340","originalUrl":"https://www.fastruby.io/blog/ruby/performance/why-wasnt-ruby-3-faster.html","imageRemote":"https://fastruby.io/blog/assets/images/profile.png","video":null,"channel":null,"channelUrl":null,"author":"stanislavb","authorUrl":"https://news.ycombinator.com/user?id=stanislavb","authorImage":null,"authorSlug":null,"score":216,"views":null,"sharedCount":null,"likeCount":null,"sharedContent":null,"parent":{"__typename":"HnJson","localize":[{"title":"为什么Ruby 3的速度不快？","locale":"zh"},{"title":"爲什麼Ruby 3的速度不快？","locale":"zh-Hant"}]}},{"__typename":"SocialMediaPost","id":"HnPost-26097732","excerpt":"","slug":"/hn/26097732","title":"WTF Python: Exploring and understanding Python through surprising snippets","date":"February 11, 2021","dateISO":"2021-02-11T09:40:08.996Z","datetime":"2021-02-11 09:40","tags":["story","Hacker News"],"image":null,"imageAlt":null,"provider":"Hacker News","thirdPartyId":"26097732","url":"https://news.ycombinator.com/item?id=26097732","originalUrl":"https://github.com/satwikkansal/wtfpython","imageRemote":"https://avatars.githubusercontent.com/u/10217535?s=400&v=4","video":null,"channel":null,"channelUrl":null,"author":"srathi","authorUrl":"https://news.ycombinator.com/user?id=srathi","authorImage":null,"authorSlug":null,"score":345,"views":null,"sharedCount":null,"likeCount":null,"sharedContent":null,"parent":{"__typename":"HnJson","localize":[{"title":"WTF Python。通过令人惊讶的片段探索和理解Python。","locale":"zh"},{"title":"WTF Python。通過令人驚訝的片段探索和理解Python。","locale":"zh-Hant"}]}},{"__typename":"SocialMediaPost","id":"HnPost-26096320","excerpt":"","slug":"/hn/26096320","title":"Google is now telling users its apps are out of date. No updates are available","date":"February 11, 2021","dateISO":"2021-02-11T08:58:11.571Z","datetime":"2021-02-11 08:58","tags":["story","Hacker News"],"image":null,"imageAlt":null,"provider":"Hacker News","thirdPartyId":"26096320","url":"https://news.ycombinator.com/item?id=26096320","originalUrl":"https://spencerdailey.com/2021/02/10/google-itself-is-now-telling-users-their-apps-are-out-of-date-despite-no-updates-being-available/","imageRemote":"https://spencerdailey.com/wp-content/uploads/2021/02/IMG_4434.jpeg","video":null,"channel":null,"channelUrl":null,"author":"spenvo","authorUrl":"https://news.ycombinator.com/user?id=spenvo","authorImage":null,"authorSlug":null,"score":304,"views":null,"sharedCount":null,"likeCount":null,"sharedContent":null,"parent":{"__typename":"HnJson","localize":[{"title":"谷歌现在告诉用户，它的应用已经过时了。没有更新","locale":"zh"},{"title":"谷歌現在告訴用戶，它的應用已經過時了。沒有更新","locale":"zh-Hant"}]}},{"__typename":"SocialMediaPost","id":"HnPost-26098010","excerpt":"","slug":"/hn/26098010","title":"System76 Launch Configurable Keyboard with Open Source Code","date":"February 11, 2021","dateISO":"2021-02-11T07:49:43.002Z","datetime":"2021-02-11 07:49","tags":["story","Hacker News"],"image":null,"imageAlt":null,"provider":"Hacker News","thirdPartyId":"26098010","url":"https://news.ycombinator.com/item?id=26098010","originalUrl":"https://github.com/system76/launch","imageRemote":"https://avatars.githubusercontent.com/u/2448433?s=400&v=4","video":null,"channel":null,"channelUrl":null,"author":"nitinreddy88","authorUrl":"https://news.ycombinator.com/user?id=nitinreddy88","authorImage":null,"authorSlug":null,"score":512,"views":null,"sharedCount":null,"likeCount":null,"sharedContent":null,"parent":{"__typename":"HnJson","localize":[{"title":"System76推出可配置的键盘，采用开源代码。","locale":"zh"},{"title":"System76推出可配置的鍵盤，採用開源代碼。","locale":"zh-Hant"}]}},{"__typename":"SocialMediaPost","id":"HnPost-26091956","excerpt":"","slug":"/hn/26091956","title":"Launch HN: Wasp (YC W21) – DSL for building full-stack web apps","date":"February 11, 2021","dateISO":"2021-02-11T07:24:46.209Z","datetime":"2021-02-11 07:24","tags":["story","Hacker News"],"image":null,"imageAlt":null,"provider":"Hacker News","thirdPartyId":"26091956","url":"https://news.ycombinator.com/item?id=26091956","originalUrl":"https://news.ycombinator.com/item?id=26091956","imageRemote":null,"video":null,"channel":null,"channelUrl":null,"author":"matijash","authorUrl":"https://news.ycombinator.com/user?id=matijash","authorImage":null,"authorSlug":null,"score":209,"views":null,"sharedCount":null,"likeCount":null,"sharedContent":null,"parent":{"__typename":"HnJson","localize":[{"title":"发布HN：黄蜂（YC W21）--用于构建全栈网络应用的DSL。","locale":"zh"},{"title":"發佈HN：黃蜂（YC W21）--用於構建全棧網絡應用的DSL。","locale":"zh-Hant"}]}},{"__typename":"SocialMediaPost","id":"HnPost-26097013","excerpt":"","slug":"/hn/26097013","title":"Larry Flynt has died","date":"February 11, 2021","dateISO":"2021-02-11T05:55:34.137Z","datetime":"2021-02-11 05:55","tags":["story","Hacker News"],"image":null,"imageAlt":null,"provider":"Hacker News","thirdPartyId":"26097013","url":"https://news.ycombinator.com/item?id=26097013","originalUrl":"https://www.bbc.com/news/world-us-canada-56019589","imageRemote":"https://ichef.bbci.co.uk/news/1024/branded_news/8A48/production/_116900453_gettyimages-520119480.jpg","video":null,"channel":null,"channelUrl":null,"author":"SirLJ","authorUrl":"https://news.ycombinator.com/user?id=SirLJ","authorImage":null,"authorSlug":null,"score":230,"views":null,"sharedCount":null,"likeCount":null,"sharedContent":null,"parent":{"__typename":"HnJson","localize":[{"title":"拉里-弗林特去世了","locale":"zh"},{"title":"拉里-弗林特去世了","locale":"zh-Hant"}]}},{"__typename":"SocialMediaPost","id":"HnPost-26085373","excerpt":"","slug":"/hn/26085373","title":"Posix Threads Programming","date":"February 11, 2021","dateISO":"2021-02-11T05:49:22.846Z","datetime":"2021-02-11 05:49","tags":["story","Hacker News"],"image":null,"imageAlt":null,"provider":"Hacker News","thirdPartyId":"26085373","url":"https://news.ycombinator.com/item?id=26085373","originalUrl":"https://computing.llnl.gov/tutorials/pthreads/","imageRemote":"https://computing.llnl.gov/tutorials/pthreads/images/process.gif","video":null,"channel":null,"channelUrl":null,"author":"dvaun","authorUrl":"https://news.ycombinator.com/user?id=dvaun","authorImage":null,"authorSlug":null,"score":161,"views":null,"sharedCount":null,"likeCount":null,"sharedContent":null,"parent":{"__typename":"HnJson","localize":[{"title":"Posix线程编程","locale":"zh"},{"title":"Posix線程編程","locale":"zh-Hant"}]}},{"__typename":"SocialMediaPost","id":"HnPost-26087892","excerpt":"","slug":"/hn/26087892","title":"Show HN: I wrote an entire book to build a mouseless dev environment","date":"February 11, 2021","dateISO":"2021-02-11T05:49:22.846Z","datetime":"2021-02-11 05:49","tags":["story","Show HN","Hacker News"],"image":null,"imageAlt":null,"provider":"Hacker News","thirdPartyId":"26087892","url":"https://news.ycombinator.com/item?id=26087892","originalUrl":"https://themouseless.dev/","imageRemote":"https://themouseless.dev/images/book_cover_mouseless_2_300.jpg","video":null,"channel":"Show HN","channelUrl":"https://news.ycombinator.com/show","author":"thanato0s","authorUrl":"https://news.ycombinator.com/user?id=thanato0s","authorImage":null,"authorSlug":null,"score":337,"views":null,"sharedCount":null,"likeCount":null,"sharedContent":null,"parent":{"__typename":"HnJson","localize":[{"title":"显示HN：我写了整整一本书来构建一个无鼠标的开发环境。","locale":"zh"},{"title":"顯示HN：我寫了整整一本書來構建一個無鼠標的開發環境。","locale":"zh-Hant"}]}},{"__typename":"SocialMediaPost","id":"HnPost-26086056","excerpt":"","slug":"/hn/26086056","title":"Google could have killed Facebook with the flick of a switch","date":"February 11, 2021","dateISO":"2021-02-11T05:27:55.139Z","datetime":"2021-02-11 05:27","tags":["story","Hacker News"],"image":null,"imageAlt":null,"provider":"Hacker News","thirdPartyId":"26086056","url":"https://news.ycombinator.com/item?id=26086056","originalUrl":"https://shaneosullivan.wordpress.com/2020/12/02/the-story-of-how-google-could-have-killed-facebook-with-the-flick-of-a-switch/","imageRemote":"https://shaneosullivan.files.wordpress.com/2020/12/powereditor_hat.jpg","video":null,"channel":null,"channelUrl":null,"author":"msh","authorUrl":"https://news.ycombinator.com/user?id=msh","authorImage":null,"authorSlug":null,"score":185,"views":null,"sharedCount":null,"likeCount":null,"sharedContent":null,"parent":{"__typename":"HnJson","localize":[{"title":"谷歌可以通过轻轻的开关杀死Facebook","locale":"zh"},{"title":"谷歌可以通過輕輕的開關殺死Facebook","locale":"zh-Hant"}]}},{"__typename":"SocialMediaPost","id":"HnPost-26092913","excerpt":"","slug":"/hn/26092913","title":"State of Independent SaaS 2021","date":"February 11, 2021","dateISO":"2021-02-11T03:57:03.189Z","datetime":"2021-02-11 03:57","tags":["story","Hacker News"],"image":null,"imageAlt":null,"provider":"Hacker News","thirdPartyId":"26092913","url":"https://news.ycombinator.com/item?id=26092913","originalUrl":"https://microconf.com/sois-report-2021","imageRemote":"http://static1.squarespace.com/static/5d6fd1b92a7aeb00017966dd/t/6022cf5512db1911bce1eff6/1612911895180/MicroConf-2021-Report-Cover-2to1.png?format=1500w","video":null,"channel":null,"channelUrl":null,"author":"einarvollset","authorUrl":"https://news.ycombinator.com/user?id=einarvollset","authorImage":null,"authorSlug":null,"score":214,"views":null,"sharedCount":null,"likeCount":null,"sharedContent":null,"parent":{"__typename":"HnJson","localize":[{"title":"2021年独立SaaS现状","locale":"zh"},{"title":"2021年獨立SaaS現狀","locale":"zh-Hant"}]}},{"__typename":"SocialMediaPost","id":"HnPost-26093710","excerpt":"","slug":"/hn/26093710","title":"Pattern Generator – Create Seamless, Royalty-Free Patterns","date":"February 11, 2021","dateISO":"2021-02-11T03:28:54.561Z","datetime":"2021-02-11 03:28","tags":["story","Hacker News"],"image":null,"imageAlt":null,"provider":"Hacker News","thirdPartyId":"26093710","url":"https://news.ycombinator.com/item?id=26093710","originalUrl":"https://doodad.dev/pattern-generator/","imageRemote":null,"video":null,"channel":null,"channelUrl":null,"author":"nkjoep","authorUrl":"https://news.ycombinator.com/user?id=nkjoep","authorImage":null,"authorSlug":null,"score":276,"views":null,"sharedCount":null,"likeCount":null,"sharedContent":null,"parent":{"__typename":"HnJson","localize":[{"title":"图案生成器--创建无缝的、免版税的图案。","locale":"zh"},{"title":"圖案生成器--創建無縫的、免版稅的圖案。","locale":"zh-Hant"}]}}]}},"pageContext":{"basePath":"/","pageType":"tag","tag":"Hacker News","tagsFilter":{"id":{"glob":"!*Post-1"}},"filter":{"id":{"glob":"!*Post-1"},"tags":{"eq":"Hacker News"}},"limit":25,"skip":925,"total":2600,"totalPages":104,"currentPage":38,"maxWidth":1024,"maxHeight":512,"locale":"zh","hrefLang":"zh-Hans","originalPath":"/tags/hacker-news/page/38","dateFormat":"YYYY-MM-DD"}},"staticQueryHashes":["1239077767","2506312863","2744905544","3025052997","3493603132","3493603132","3513215887","386998304"]}