{"componentChunkName":"component---gatsby-theme-buzzing-src-gatsby-theme-timeline-templates-posts-query-js","path":"/tags/hacker-news/page/75","result":{"data":{"site":{"siteMetadata":{"title":"Reddit 热门","description":"用中文浏览Reddit热门内容","social":[{"name":"Twitter","url":"https://twitter.com/gatsbyjs","external":null,"prefetch":null},{"name":"GitHub","url":"https://github.com/gatsbyjs","external":null,"prefetch":null}],"menuLinks":[],"localize":[{"locale":"en","title":"Buzzing on Reddit","description":"See what's buzzing on Reddit in your native language","social":[{"name":"Reddit","url":"https://www.reddit.com/","external":true,"prefetch":null}],"menuLinks":[{"name":"Weekly Selection","url":"/issues","external":null,"prefetch":null},{"name":"RSS","url":"/rss.xml","external":null,"prefetch":false}]},{"locale":"zh-Hant","title":"Reddit 熱門","description":"用中文瀏覽Reddit熱門內容","social":null,"menuLinks":null}]}},"tagsGroup":{"group":[{"fieldValue":"ASK HN","totalCount":42},{"fieldValue":"Bitcoin","totalCount":4},{"fieldValue":"Hacker News","totalCount":2409},{"fieldValue":"Poll","totalCount":1},{"fieldValue":"SaveAMC","totalCount":1},{"fieldValue":"Show HN","totalCount":81},{"fieldValue":"bitcoin","totalCount":3},{"fieldValue":"investing","totalCount":755},{"fieldValue":"poll","totalCount":1},{"fieldValue":"reddit","totalCount":4525},{"fieldValue":"science","totalCount":1},{"fieldValue":"stocks","totalCount":1482},{"fieldValue":"story","totalCount":2408},{"fieldValue":"tweet","totalCount":767},{"fieldValue":"wallstreetbets","totalCount":2288}]},"allBlogPost":{"nodes":[{"__typename":"SocialMediaPost","id":"HnPost-25592152","excerpt":"","slug":"/hn/25592152","title":"The Elements of Statistical Learning [pdf]","date":"December 31, 2020","dateISO":"2020-12-31T17:17:12.465Z","datetime":"2020-12-31 17:17","tags":["story","Hacker News"],"image":null,"imageAlt":null,"provider":"Hacker News","thirdPartyId":"25592152","url":"https://news.ycombinator.com/item?id=25592152","originalUrl":"https://web.stanford.edu/~hastie/Papers/ESLII.pdf","imageRemote":null,"video":null,"channel":null,"channelUrl":null,"author":"happy-go-lucky","authorUrl":"https://news.ycombinator.com/user?id=happy-go-lucky","authorImage":null,"authorSlug":null,"score":281,"views":null,"sharedCount":null,"likeCount":null,"sharedContent":null,"parent":{"__typename":"HnJson","localize":[{"title":"统计学习要素[pdf]","locale":"zh"},{"title":"統計學習要素[pdf]","locale":"zh-Hant"}]}},{"__typename":"SocialMediaPost","id":"HnPost-25593031","excerpt":"","slug":"/hn/25593031","title":"Rust 1.49.0","date":"December 31, 2020","dateISO":"2020-12-31T17:17:12.465Z","datetime":"2020-12-31 17:17","tags":["story","Hacker News"],"image":null,"imageAlt":null,"provider":"Hacker News","thirdPartyId":"25593031","url":"https://news.ycombinator.com/item?id=25593031","originalUrl":"https://blog.rust-lang.org/2020/12/31/Rust-1.49.0.html","imageRemote":"https://www.rust-lang.org/static/images/rust-social-wide.jpg","video":null,"channel":null,"channelUrl":null,"author":"pietroalbini","authorUrl":"https://news.ycombinator.com/user?id=pietroalbini","authorImage":null,"authorSlug":null,"score":241,"views":null,"sharedCount":null,"likeCount":null,"sharedContent":null,"parent":{"__typename":"HnJson","localize":[{"title":"Rust 1.49.0","locale":"zh"},{"title":"Rust 1.49.0","locale":"zh-Hant"}]}},{"__typename":"SocialMediaPost","id":"HnPost-25589619","excerpt":"","slug":"/hn/25589619","title":"Interview Transcript – Donald Knuth [pdf]","date":"December 31, 2020","dateISO":"2020-12-31T16:11:53.929Z","datetime":"2020-12-31 16:11","tags":["story","Hacker News"],"image":null,"imageAlt":null,"provider":"Hacker News","thirdPartyId":"25589619","url":"https://news.ycombinator.com/item?id=25589619","originalUrl":"https://philipkiely.com/assets/files/WfSD_Bonus_Interview_-_Donald_Knuth.pdf","imageRemote":null,"video":null,"channel":null,"channelUrl":null,"author":"asicsp","authorUrl":"https://news.ycombinator.com/user?id=asicsp","authorImage":null,"authorSlug":null,"score":170,"views":null,"sharedCount":null,"likeCount":null,"sharedContent":null,"parent":{"__typename":"HnJson","localize":[{"title":"采访记录-Donald Knuth[pdf]","locale":"zh"},{"title":"採訪記錄-Donald Knuth[pdf]","locale":"zh-Hant"}]}},{"__typename":"SocialMediaPost","id":"HnPost-25589177","excerpt":"","slug":"/hn/25589177","title":"Firefox not planning on supporting PWA","date":"December 31, 2020","dateISO":"2020-12-31T15:47:56.711Z","datetime":"2020-12-31 15:47","tags":["story","Hacker News"],"image":null,"imageAlt":null,"provider":"Hacker News","thirdPartyId":"25589177","url":"https://news.ycombinator.com/item?id=25589177","originalUrl":"https://bugzilla.mozilla.org/show_bug.cgi?id=1682593","imageRemote":"https://bugzilla.mozilla.org/static/v20201215.1/extensions/BMO/web/images/moz-fav-one-color-white-rgb.svg","video":null,"channel":null,"channelUrl":null,"author":"thayne","authorUrl":"https://news.ycombinator.com/user?id=thayne","authorImage":null,"authorSlug":null,"score":226,"views":null,"sharedCount":null,"likeCount":null,"sharedContent":null,"parent":{"__typename":"HnJson","localize":[{"title":"Firefox不打算支持PWA","locale":"zh"},{"title":"Firefox不打算支持PWA","locale":"zh-Hant"}]}},{"__typename":"SocialMediaPost","id":"HnPost-25591060","excerpt":"","slug":"/hn/25591060","title":"Ticketmaster will pay $10M for hacking rival ticket seller","date":"December 31, 2020","dateISO":"2020-12-31T15:47:56.711Z","datetime":"2020-12-31 15:47","tags":["story","Hacker News"],"image":null,"imageAlt":null,"provider":"Hacker News","thirdPartyId":"25591060","url":"https://news.ycombinator.com/item?id=25591060","originalUrl":"https://www.theverge.com/2020/12/30/22206955/ticketmaster-songkick-crowdsurge-hacking-deferred-prosecution-fine","imageRemote":"https://cdn.vox-cdn.com/thumbor/y1rmGyLLC6NbpEcY6ywQaKUwDvg=/0x398:5325x3186/fit-in/1200x630/cdn.vox-cdn.com/uploads/chorus_asset/file/22205512/1290806319.jpg","video":null,"channel":null,"channelUrl":null,"author":"Gaishan","authorUrl":"https://news.ycombinator.com/user?id=Gaishan","authorImage":null,"authorSlug":null,"score":225,"views":null,"sharedCount":null,"likeCount":null,"sharedContent":null,"parent":{"__typename":"HnJson","localize":[{"title":"Ticketmaster将支付1000万美元黑客攻击竞争对手售票者","locale":"zh"},{"title":"Ticketmaster將支付1000萬美元黑客攻擊競爭對手售票者","locale":"zh-Hant"}]}},{"__typename":"SocialMediaPost","id":"HnPost-25580152","excerpt":"","slug":"/hn/25580152","title":"Thank HN: All of you, this place, gives me hope","date":"December 31, 2020","dateISO":"2020-12-31T13:45:58.683Z","datetime":"2020-12-31 13:45","tags":["story","Hacker News"],"image":null,"imageAlt":null,"provider":"Hacker News","thirdPartyId":"25580152","url":"https://news.ycombinator.com/item?id=25580152","originalUrl":"https://news.ycombinator.com/item?id=25580152","imageRemote":null,"video":null,"channel":null,"channelUrl":null,"author":"pugio","authorUrl":"https://news.ycombinator.com/user?id=pugio","authorImage":null,"authorSlug":null,"score":168,"views":null,"sharedCount":null,"likeCount":null,"sharedContent":null,"parent":{"__typename":"HnJson","localize":[{"title":"感谢HN：你们所有人，这个地方，给了我希望","locale":"zh"},{"title":"感謝HN：你們所有人，這個地方，給了我希望","locale":"zh-Hant"}]}},{"__typename":"SocialMediaPost","id":"HnPost-25573523","excerpt":"","slug":"/hn/25573523","title":"Show HN: The Agora – an experimental social network","date":"December 31, 2020","dateISO":"2020-12-31T11:07:27.942Z","datetime":"2020-12-31 11:07","tags":["story","Show HN","Hacker News"],"image":null,"imageAlt":null,"provider":"Hacker News","thirdPartyId":"25573523","url":"https://news.ycombinator.com/item?id=25573523","originalUrl":"http://anagora.org/node/agora","imageRemote":"https://anagora.org/static/img/agora.png","video":null,"channel":"Show HN","channelUrl":"https://news.ycombinator.com/show","author":"flancian","authorUrl":"https://news.ycombinator.com/user?id=flancian","authorImage":null,"authorSlug":null,"score":157,"views":null,"sharedCount":null,"likeCount":null,"sharedContent":null,"parent":{"__typename":"HnJson","localize":[{"title":"HN新产品：农庄-一个实验性的社交网络","locale":"zh"},{"title":"HN新產品：農莊-一個實驗性的社交網絡","locale":"zh-Hant"}]}},{"__typename":"SocialMediaPost","id":"HnPost-25588712","excerpt":"","slug":"/hn/25588712","title":"LibrePhotos: A Self-Hosted Google Photos Alternative","date":"December 31, 2020","dateISO":"2020-12-31T11:07:27.941Z","datetime":"2020-12-31 11:07","tags":["story","Hacker News"],"image":null,"imageAlt":null,"provider":"Hacker News","thirdPartyId":"25588712","url":"https://news.ycombinator.com/item?id=25588712","originalUrl":"https://github.com/LibrePhotos/librephotos","imageRemote":"https://avatars1.githubusercontent.com/u/75512318?s=400&v=4","video":null,"channel":null,"channelUrl":null,"author":"hanklazard","authorUrl":"https://news.ycombinator.com/user?id=hanklazard","authorImage":null,"authorSlug":null,"score":386,"views":null,"sharedCount":null,"likeCount":null,"sharedContent":null,"parent":{"__typename":"HnJson","localize":[{"title":"LibrePhotos：一个自我托管的Google Photos替代品","locale":"zh"},{"title":"LibrePhotos：一個自我託管的Google Photos替代品","locale":"zh-Hant"}]}},{"__typename":"SocialMediaPost","id":"HnPost-25586565","excerpt":"","slug":"/hn/25586565","title":"Learn Quantum Computation","date":"December 31, 2020","dateISO":"2020-12-31T10:45:45.987Z","datetime":"2020-12-31 10:45","tags":["story","Hacker News"],"image":null,"imageAlt":null,"provider":"Hacker News","thirdPartyId":"25586565","url":"https://news.ycombinator.com/item?id=25586565","originalUrl":"https://qiskit.org/textbook/preface.html","imageRemote":"https://community.qiskit.org/textbook/images/preface_illustration.svg","video":null,"channel":null,"channelUrl":null,"author":"headalgorithm","authorUrl":"https://news.ycombinator.com/user?id=headalgorithm","authorImage":null,"authorSlug":null,"score":177,"views":null,"sharedCount":null,"likeCount":null,"sharedContent":null,"parent":{"__typename":"HnJson","localize":[{"title":"学习量子计算","locale":"zh"},{"title":"學習量子計算","locale":"zh-Hant"}]}},{"__typename":"SocialMediaPost","id":"HnPost-25590079","excerpt":"","slug":"/hn/25590079","title":"Linux Hardening Guide","date":"December 31, 2020","dateISO":"2020-12-31T09:46:21.527Z","datetime":"2020-12-31 09:46","tags":["story","Hacker News"],"image":null,"imageAlt":null,"provider":"Hacker News","thirdPartyId":"25590079","url":"https://news.ycombinator.com/item?id=25590079","originalUrl":"https://madaidans-insecurities.github.io/guides/linux-hardening.html","imageRemote":null,"video":null,"channel":null,"channelUrl":null,"author":"FlyMoreRockets","authorUrl":"https://news.ycombinator.com/user?id=FlyMoreRockets","authorImage":null,"authorSlug":null,"score":440,"views":null,"sharedCount":null,"likeCount":null,"sharedContent":null,"parent":{"__typename":"HnJson","localize":[{"title":"Linux强化指南","locale":"zh"},{"title":"Linux強化指南","locale":"zh-Hant"}]}},{"__typename":"SocialMediaPost","id":"HnPost-25579236","excerpt":"","slug":"/hn/25579236","title":"SBCL: New in Version 2.1.0","date":"December 31, 2020","dateISO":"2020-12-31T09:08:55.902Z","datetime":"2020-12-31 09:08","tags":["story","Hacker News"],"image":null,"imageAlt":null,"provider":"Hacker News","thirdPartyId":"25579236","url":"https://news.ycombinator.com/item?id=25579236","originalUrl":"http://www.sbcl.org/all-news.html#2.1.0","imageRemote":"http://sourceforge.net/sflogo.php?group_id=1373","video":null,"channel":null,"channelUrl":null,"author":"susam","authorUrl":"https://news.ycombinator.com/user?id=susam","authorImage":null,"authorSlug":null,"score":169,"views":null,"sharedCount":null,"likeCount":null,"sharedContent":null,"parent":{"__typename":"HnJson","localize":[{"title":"SBCL：2.1.0版中的新功能","locale":"zh"},{"title":"SBCL：2.1.0版中的新功能","locale":"zh-Hant"}]}},{"__typename":"SocialMediaPost","id":"HnPost-25588898","excerpt":"","slug":"/hn/25588898","title":"AWS Lambda Terraform Cookbook with working examples","date":"December 31, 2020","dateISO":"2020-12-31T07:48:04.036Z","datetime":"2020-12-31 07:48","tags":["story","Hacker News"],"image":null,"imageAlt":null,"provider":"Hacker News","thirdPartyId":"25588898","url":"https://news.ycombinator.com/item?id=25588898","originalUrl":"https://github.com/nsriram/lambda-the-terraform-way","imageRemote":"https://avatars3.githubusercontent.com/u/319714?s=400&v=4","video":null,"channel":null,"channelUrl":null,"author":"sriram_iyengar","authorUrl":"https://news.ycombinator.com/user?id=sriram_iyengar","authorImage":null,"authorSlug":null,"score":294,"views":null,"sharedCount":null,"likeCount":null,"sharedContent":null,"parent":{"__typename":"HnJson","localize":[{"title":"AWS Lambda Terraform Cookbook(带工作示例)","locale":"zh"},{"title":"AWS Lambda Terraform Cookbook(帶工作示例)","locale":"zh-Hant"}]}},{"__typename":"SocialMediaPost","id":"HnPost-25582979","excerpt":"","slug":"/hn/25582979","title":"The Cruise Ship Suicides","date":"December 31, 2020","dateISO":"2020-12-31T06:42:56.530Z","datetime":"2020-12-31 06:42","tags":["story","Hacker News"],"image":null,"imageAlt":null,"provider":"Hacker News","thirdPartyId":"25582979","url":"https://news.ycombinator.com/item?id=25582979","originalUrl":"https://www.bloomberg.com/features/2020-cruise-ship-suicides/","imageRemote":null,"video":null,"channel":null,"channelUrl":null,"author":"danso","authorUrl":"https://news.ycombinator.com/user?id=danso","authorImage":null,"authorSlug":null,"score":177,"views":null,"sharedCount":null,"likeCount":null,"sharedContent":null,"parent":{"__typename":"HnJson","localize":[{"title":"邮轮自杀事件","locale":"zh"},{"title":"郵輪自殺事件","locale":"zh-Hant"}]}},{"__typename":"SocialMediaPost","id":"HnPost-25582269","excerpt":"","slug":"/hn/25582269","title":"Things I Learnt in 2020","date":"December 31, 2020","dateISO":"2020-12-31T06:06:16.504Z","datetime":"2020-12-31 06:06","tags":["story","Hacker News"],"image":null,"imageAlt":null,"provider":"Hacker News","thirdPartyId":"25582269","url":"https://news.ycombinator.com/item?id=25582269","originalUrl":"https://drobinin.com/posts/things-i-learnt-in-2020/","imageRemote":"https://drobinin.com/assets/previews/things-i-learnt-in-2020.png","video":null,"channel":null,"channelUrl":null,"author":"valzevul","authorUrl":"https://news.ycombinator.com/user?id=valzevul","authorImage":null,"authorSlug":null,"score":212,"views":null,"sharedCount":null,"likeCount":null,"sharedContent":null,"parent":{"__typename":"HnJson","localize":[{"title":"我在2020年学到的东西","locale":"zh"},{"title":"我在2020年學到的東西","locale":"zh-Hant"}]}},{"__typename":"SocialMediaPost","id":"HnPost-25587765","excerpt":"","slug":"/hn/25587765","title":"HTML5 still doesn't replicate what mattered about Flash","date":"December 31, 2020","dateISO":"2020-12-31T05:49:03.546Z","datetime":"2020-12-31 05:49","tags":["story","Hacker News"],"image":null,"imageAlt":null,"provider":"Hacker News","thirdPartyId":"25587765","url":"https://news.ycombinator.com/item?id=25587765","originalUrl":"https://twitter.com/larsiusprime/status/1344404336252768257","imageRemote":null,"video":null,"channel":null,"channelUrl":null,"author":"tosh","authorUrl":"https://news.ycombinator.com/user?id=tosh","authorImage":null,"authorSlug":null,"score":365,"views":null,"sharedCount":null,"likeCount":null,"sharedContent":null,"parent":{"__typename":"HnJson","localize":[{"title":"HTML5仍然不能复制Flash的重要功能","locale":"zh"},{"title":"HTML5仍然不能複製Flash的重要功能","locale":"zh-Hant"}]}},{"__typename":"SocialMediaPost","id":"HnPost-25586063","excerpt":"","slug":"/hn/25586063","title":"Ditching Excel for Python in a legacy industry","date":"December 31, 2020","dateISO":"2020-12-31T04:51:30.058Z","datetime":"2020-12-31 04:51","tags":["story","Hacker News"],"image":null,"imageAlt":null,"provider":"Hacker News","thirdPartyId":"25586063","url":"https://news.ycombinator.com/item?id=25586063","originalUrl":"https://amypeniston.com/ditching-excel-for-python/","imageRemote":"https://amypeniston.com/downloads/ditching-excel-social-share.jpg","video":null,"channel":null,"channelUrl":null,"author":"afkmango","authorUrl":"https://news.ycombinator.com/user?id=afkmango","authorImage":null,"authorSlug":null,"score":296,"views":null,"sharedCount":null,"likeCount":null,"sharedContent":null,"parent":{"__typename":"HnJson","localize":[{"title":"在遗留行业中抛弃Excel，转而使用Python","locale":"zh"},{"title":"在遺留行業中拋棄Excel，轉而使用Python","locale":"zh-Hant"}]}},{"__typename":"SocialMediaPost","id":"HnPost-25586220","excerpt":"","slug":"/hn/25586220","title":"Flash Player is about to stop working on Windows 10","date":"December 31, 2020","dateISO":"2020-12-31T03:06:56.876Z","datetime":"2020-12-31 03:06","tags":["story","Hacker News"],"image":null,"imageAlt":null,"provider":"Hacker News","thirdPartyId":"25586220","url":"https://news.ycombinator.com/item?id=25586220","originalUrl":"https://www.windowslatest.com/2020/12/27/adobe-flash-player-is-about-to-stop-working-on-windows-10/","imageRemote":"https://www.windowslatest.com/wp-content/uploads/2020/12/Windows-10-Flash-Player.jpg","video":null,"channel":null,"channelUrl":null,"author":"muhahue","authorUrl":"https://news.ycombinator.com/user?id=muhahue","authorImage":null,"authorSlug":null,"score":210,"views":null,"sharedCount":null,"likeCount":null,"sharedContent":null,"parent":{"__typename":"HnJson","localize":[{"title":"Flash Player即将停止在Windows 10上运行","locale":"zh"},{"title":"Flash Player即將停止在Windows 10上運行","locale":"zh-Hant"}]}},{"__typename":"SocialMediaPost","id":"HnPost-25582962","excerpt":"","slug":"/hn/25582962","title":"Don't Use Protobuf for Telemetry","date":"December 31, 2020","dateISO":"2020-12-31T02:30:46.552Z","datetime":"2020-12-31 02:30","tags":["story","Hacker News"],"image":null,"imageAlt":null,"provider":"Hacker News","thirdPartyId":"25582962","url":"https://news.ycombinator.com/item?id=25582962","originalUrl":"https://richardstartin.github.io/posts/dont-use-protobuf-for-telemetry","imageRemote":null,"video":null,"channel":null,"channelUrl":null,"author":"simonpure","authorUrl":"https://news.ycombinator.com/user?id=simonpure","authorImage":null,"authorSlug":null,"score":222,"views":null,"sharedCount":null,"likeCount":null,"sharedContent":null,"parent":{"__typename":"HnJson","localize":[{"title":"请勿将Protobuf用于遥测","locale":"zh"},{"title":"請勿將Protobuf用於遙測","locale":"zh-Hant"}]}},{"__typename":"SocialMediaPost","id":"HnPost-25586861","excerpt":"","slug":"/hn/25586861","title":"Clams filter the water and check whether the water is polluted or clean","date":"December 31, 2020","dateISO":"2020-12-31T02:30:46.551Z","datetime":"2020-12-31 02:30","tags":["story","Hacker News"],"image":null,"imageAlt":null,"provider":"Hacker News","thirdPartyId":"25586861","url":"https://news.ycombinator.com/item?id=25586861","originalUrl":"https://www.polishnews.co.uk/poznan-the-clams-filter-the-water-they-check-whether-the-water-is-polluted-or-clean/","imageRemote":"https://www.polishnews.co.uk/wp-content/uploads/2020/09/1599995893_LANDSCAPE_1280.jpeg","video":null,"channel":null,"channelUrl":null,"author":"ta988","authorUrl":"https://news.ycombinator.com/user?id=ta988","authorImage":null,"authorSlug":null,"score":311,"views":null,"sharedCount":null,"likeCount":null,"sharedContent":null,"parent":{"__typename":"HnJson","localize":[{"title":"用蛤蜊将过滤放入水中，并检查水是污染的还是干净的","locale":"zh"},{"title":"用蛤蜊將過濾放入水中，並檢查水是污染的還是乾淨的","locale":"zh-Hant"}]}},{"__typename":"SocialMediaPost","id":"HnPost-25581064","excerpt":"","slug":"/hn/25581064","title":"Emotional headlines have an impact regardless of the credibility of the source","date":"December 31, 2020","dateISO":"2020-12-31T01:29:42.614Z","datetime":"2020-12-31 01:29","tags":["story","Hacker News"],"image":null,"imageAlt":null,"provider":"Hacker News","thirdPartyId":"25581064","url":"https://news.ycombinator.com/item?id=25581064","originalUrl":"https://www.hu-berlin.de/en/press-portal/nachrichten-en/december-2020/nr-201221","imageRemote":"https://www.hu-berlin.de/++resource++humboldt.logo.Logo.png","video":null,"channel":null,"channelUrl":null,"author":"rustoo","authorUrl":"https://news.ycombinator.com/user?id=rustoo","authorImage":null,"authorSlug":null,"score":230,"views":null,"sharedCount":null,"likeCount":null,"sharedContent":null,"parent":{"__typename":"HnJson","localize":[{"title":"不管消息来源的可信度如何，情绪化的标题都会产生影响","locale":"zh"},{"title":"不管消息來源的可信度如何，情緒化的標題都會產生影響","locale":"zh-Hant"}]}},{"__typename":"SocialMediaPost","id":"HnPost-25585833","excerpt":"","slug":"/hn/25585833","title":"Israeli startup claims Covid-19 likely originated in a lab, willing to bet on it","date":"December 31, 2020","dateISO":"2020-12-31T00:06:13.186Z","datetime":"2020-12-31 00:06","tags":["story","Hacker News"],"image":null,"imageAlt":null,"provider":"Hacker News","thirdPartyId":"25585833","url":"https://news.ycombinator.com/item?id=25585833","originalUrl":"https://www.rootclaim.com/analysis/what-is-the-source-of-covid-19-sars-cov-2","imageRemote":null,"video":null,"channel":null,"channelUrl":null,"author":"delbarital","authorUrl":"https://news.ycombinator.com/user?id=delbarital","authorImage":null,"authorSlug":null,"score":347,"views":null,"sharedCount":null,"likeCount":null,"sharedContent":null,"parent":{"__typename":"HnJson","localize":[{"title":"以色列初创公司声称冠状病毒可能起源于实验室，愿意押注于此","locale":"zh"},{"title":"以色列初創公司聲稱冠狀病毒可能起源於實驗室，願意押注於此","locale":"zh-Hant"}]}},{"__typename":"SocialMediaPost","id":"HnPost-25584720","excerpt":"","slug":"/hn/25584720","title":"How We Built the GitHub Globe","date":"December 30, 2020","dateISO":"2020-12-30T23:06:49.046Z","datetime":"2020-12-30 23:06","tags":["story","Hacker News"],"image":null,"imageAlt":null,"provider":"Hacker News","thirdPartyId":"25584720","url":"https://news.ycombinator.com/item?id=25584720","originalUrl":"https://github.blog/2020-12-21-how-we-built-the-github-globe/","imageRemote":"https://github.blog/wp-content/uploads/2020/12/102393310-07478b80-3f8d-11eb-84eb-392d555ebd29.png?fit=1200%2C630","video":null,"channel":null,"channelUrl":null,"author":"scalableUnicon","authorUrl":"https://news.ycombinator.com/user?id=scalableUnicon","authorImage":null,"authorSlug":null,"score":360,"views":null,"sharedCount":null,"likeCount":null,"sharedContent":null,"parent":{"__typename":"HnJson","localize":[{"title":"我们是如何建设GitHub Globe的","locale":"zh"},{"title":"我們是如何建設GitHub Globe的","locale":"zh-Hant"}]}},{"__typename":"SocialMediaPost","id":"HnPost-25585624","excerpt":"","slug":"/hn/25585624","title":"Baltimore police lied about almost every aspect of its spy plane program","date":"December 30, 2020","dateISO":"2020-12-30T23:06:49.046Z","datetime":"2020-12-30 23:06","tags":["story","Hacker News"],"image":null,"imageAlt":null,"provider":"Hacker News","thirdPartyId":"25585624","url":"https://news.ycombinator.com/item?id=25585624","originalUrl":"https://www.vice.com/en/article/qjpjqd/baltimore-police-lied-about-almost-every-aspect-of-its-spy-plane-program","imageRemote":"https://video-images.vice.com/articles/5fd03eb33490fb009b570498/lede/1607533021588-gettyimages-628396218.jpeg?image-resize-opts=Y3JvcD0xeHc6MC44NDM2NDQ1NDQ0MzE5NDZ4aDtjZW50ZXIsY2VudGVyJnJlc2l6ZT0xMjAwOiomcmVzaXplPTEyMDA6Kg","video":null,"channel":null,"channelUrl":null,"author":"jbegley","authorUrl":"https://news.ycombinator.com/user?id=jbegley","authorImage":null,"authorSlug":null,"score":218,"views":null,"sharedCount":null,"likeCount":null,"sharedContent":null,"parent":{"__typename":"HnJson","localize":[{"title":"巴尔的摩警方几乎在间谍飞机计划的每一个方面都撒了谎","locale":"zh"},{"title":"巴爾的摩警方几乎在間諜飛機計劃的每一個方面都撒了謊","locale":"zh-Hant"}]}},{"__typename":"SocialMediaPost","id":"HnPost-25580637","excerpt":"","slug":"/hn/25580637","title":"Ask HN: What's a side project you built to make money that hasn't?","date":"December 30, 2020","dateISO":"2020-12-30T22:01:41.712Z","datetime":"2020-12-30 22:01","tags":["story","ASK HN","Hacker News"],"image":null,"imageAlt":null,"provider":"Hacker News","thirdPartyId":"25580637","url":"https://news.ycombinator.com/item?id=25580637","originalUrl":"https://news.ycombinator.com/item?id=25580637","imageRemote":null,"video":null,"channel":"ASK HN","channelUrl":"https://news.ycombinator.com/ask","author":"notoriousarun","authorUrl":"https://news.ycombinator.com/user?id=notoriousarun","authorImage":null,"authorSlug":null,"score":418,"views":null,"sharedCount":null,"likeCount":null,"sharedContent":null,"parent":{"__typename":"HnJson","localize":[{"title":"HN提问：你为了赚钱而建造的副业是什么？","locale":"zh"},{"title":"HN提問：你爲了賺錢而建造的副業是什麼？","locale":"zh-Hant"}]}},{"__typename":"SocialMediaPost","id":"HnPost-25582746","excerpt":"","slug":"/hn/25582746","title":"GHC 9.0, supporting linear types","date":"December 30, 2020","dateISO":"2020-12-30T22:01:41.712Z","datetime":"2020-12-30 22:01","tags":["story","Hacker News"],"image":null,"imageAlt":null,"provider":"Hacker News","thirdPartyId":"25582746","url":"https://news.ycombinator.com/item?id=25582746","originalUrl":"https://discourse.haskell.org/t/glasgow-haskell-compiler-9-0-1-rc1-now-available/1706","imageRemote":"https://discourse.haskell.org/uploads/default/original/1X/89166504e40f4869ea825dd70048017861ec8578.png","video":null,"channel":null,"channelUrl":null,"author":"cosmic_quanta","authorUrl":"https://news.ycombinator.com/user?id=cosmic_quanta","authorImage":null,"authorSlug":null,"score":299,"views":null,"sharedCount":null,"likeCount":null,"sharedContent":null,"parent":{"__typename":"HnJson","localize":[{"title":"GHC 9.0，支持线性类型","locale":"zh"},{"title":"GHC 9.0，支持線性類型","locale":"zh-Hant"}]}}]}},"pageContext":{"basePath":"/","pageType":"tag","tag":"Hacker News","tagsFilter":{"id":{"glob":"!*Post-1"}},"filter":{"id":{"glob":"!*Post-1"},"tags":{"eq":"Hacker News"}},"limit":25,"skip":1850,"total":2409,"totalPages":97,"currentPage":75,"maxWidth":1024,"maxHeight":512,"locale":"zh","hrefLang":"zh-Hans","originalPath":"/tags/hacker-news/page/75","dateFormat":"YYYY-MM-DD"}},"staticQueryHashes":["1239077767","2506312863","2744905544","3025052997","3493603132","3493603132","3513215887","386998304"]}