{"componentChunkName":"component---gatsby-theme-buzzing-src-gatsby-theme-timeline-templates-posts-query-js","path":"/zh-Hant/tags/hacker-news/page/62","result":{"data":{"site":{"siteMetadata":{"title":"Reddit 热门","description":"用中文浏览Reddit热门内容","social":[{"name":"Twitter","url":"https://twitter.com/gatsbyjs","external":null,"prefetch":null},{"name":"GitHub","url":"https://github.com/gatsbyjs","external":null,"prefetch":null}],"menuLinks":[],"localize":[{"locale":"en","title":"Buzzing on Reddit","description":"See what's buzzing on Reddit in your native language","social":[{"name":"Reddit","url":"https://www.reddit.com/","external":true,"prefetch":null}],"menuLinks":[{"name":"Weekly Selection","url":"/issues","external":null,"prefetch":null},{"name":"RSS","url":"/rss.xml","external":null,"prefetch":false}]},{"locale":"zh-Hant","title":"Reddit 熱門","description":"用中文瀏覽Reddit熱門內容","social":null,"menuLinks":null}]}},"tagsGroup":{"group":[{"fieldValue":"ASK HN","totalCount":44},{"fieldValue":"Bitcoin","totalCount":4},{"fieldValue":"Hacker News","totalCount":2600},{"fieldValue":"Poll","totalCount":1},{"fieldValue":"SaveAMC","totalCount":1},{"fieldValue":"Show HN","totalCount":89},{"fieldValue":"bitcoin","totalCount":3},{"fieldValue":"investing","totalCount":797},{"fieldValue":"poll","totalCount":1},{"fieldValue":"reddit","totalCount":4938},{"fieldValue":"science","totalCount":1},{"fieldValue":"stocks","totalCount":1592},{"fieldValue":"story","totalCount":2599},{"fieldValue":"tweet","totalCount":814},{"fieldValue":"wallstreetbets","totalCount":2549}]},"allBlogPost":{"nodes":[{"__typename":"SocialMediaPost","id":"HnPost-25849679","excerpt":"","slug":"/hn/25849679","title":"FedEx shipping damage creates fractured artworks","date":"January 20, 2021","dateISO":"2021-01-20T21:07:39.189Z","datetime":"2021-01-20 21:07","tags":["story","Hacker News"],"image":null,"imageAlt":null,"provider":"Hacker News","thirdPartyId":"25849679","url":"https://news.ycombinator.com/item?id=25849679","originalUrl":"https://kottke.org/21/01/fedex-shipping-damage-creates-fractured-artworks","imageRemote":"https://kottke.org/plus/misc/images/walead-beshty-fedex-01.jpg","video":null,"channel":null,"channelUrl":null,"author":"talonx","authorUrl":"https://news.ycombinator.com/user?id=talonx","authorImage":null,"authorSlug":null,"score":348,"views":null,"sharedCount":null,"likeCount":null,"sharedContent":null,"parent":{"__typename":"HnJson","localize":[{"title":"联邦快递运输损坏造成艺术作品断裂","locale":"zh"},{"title":"聯邦快遞運輸損壞造成藝術作品斷裂","locale":"zh-Hant"}]}},{"__typename":"SocialMediaPost","id":"HnPost-25849800","excerpt":"","slug":"/hn/25849800","title":"I tried creating a web browser and Google blocked me (2019)","date":"January 20, 2021","dateISO":"2021-01-20T21:07:39.189Z","datetime":"2021-01-20 21:07","tags":["story","Hacker News"],"image":null,"imageAlt":null,"provider":"Hacker News","thirdPartyId":"25849800","url":"https://news.ycombinator.com/item?id=25849800","originalUrl":"https://blog.samuelmaddock.com/posts/google-widevine-blocked-my-browser/","imageRemote":"https://blog.samuelmaddock.com/images/chromium-cover-social.png","video":null,"channel":null,"channelUrl":null,"author":"gu5","authorUrl":"https://news.ycombinator.com/user?id=gu5","authorImage":null,"authorSlug":null,"score":474,"views":null,"sharedCount":null,"likeCount":null,"sharedContent":null,"parent":{"__typename":"HnJson","localize":[{"title":"我试着创建了一个网络浏览器，谷歌却封杀了我(2019)","locale":"zh"},{"title":"我試着創建了一個網絡瀏覽器，谷歌卻封殺了我(2019)","locale":"zh-Hant"}]}},{"__typename":"SocialMediaPost","id":"HnPost-25846262","excerpt":"","slug":"/hn/25846262","title":"Update: YouTube-dl reinstantiated thanks to EFF (2020)","date":"January 20, 2021","dateISO":"2021-01-20T20:23:38.126Z","datetime":"2021-01-20 20:23","tags":["story","Hacker News"],"image":null,"imageAlt":null,"provider":"Hacker News","thirdPartyId":"25846262","url":"https://news.ycombinator.com/item?id=25846262","originalUrl":"https://assassinate-you.net/posts/2020/11/youtube-dl-update/","imageRemote":"https://assassinate-you.net","video":null,"channel":null,"channelUrl":null,"author":"ericdanielski","authorUrl":"https://news.ycombinator.com/user?id=ericdanielski","authorImage":null,"authorSlug":null,"score":426,"views":null,"sharedCount":null,"likeCount":null,"sharedContent":null,"parent":{"__typename":"HnJson","localize":[{"title":"更新：由于EFF(2020)，YouTube-dl重获新生。","locale":"zh"},{"title":"更新：由於EFF(2020)，YouTube-dl重獲新生。","locale":"zh-Hant"}]}},{"__typename":"SocialMediaPost","id":"HnPost-25833557","excerpt":"","slug":"/hn/25833557","title":"Again on 0-based vs. 1-based indexing","date":"January 20, 2021","dateISO":"2021-01-20T19:49:31.541Z","datetime":"2021-01-20 19:49","tags":["story","Hacker News"],"image":null,"imageAlt":null,"provider":"Hacker News","thirdPartyId":"25833557","url":"https://news.ycombinator.com/item?id=25833557","originalUrl":"https://hisham.hm/2021/01/18/again-on-0-based-vs-1-based-indexing/","imageRemote":"https://hisham.hm/postimg.php?entry=entry210118-152858&out=image.jpg","video":null,"channel":null,"channelUrl":null,"author":"Ivoah","authorUrl":"https://news.ycombinator.com/user?id=Ivoah","authorImage":null,"authorSlug":null,"score":183,"views":null,"sharedCount":null,"likeCount":null,"sharedContent":null,"parent":{"__typename":"HnJson","localize":[{"title":"再来说说基于0的索引与基于1的索引。","locale":"zh"},{"title":"再來說說基於0的索引與基於1的索引。","locale":"zh-Hant"}]}},{"__typename":"SocialMediaPost","id":"HnPost-25841263","excerpt":"","slug":"/hn/25841263","title":"The Unauthorized Story of Andreessen Horowitz","date":"January 20, 2021","dateISO":"2021-01-20T19:49:31.541Z","datetime":"2021-01-20 19:49","tags":["story","Hacker News"],"image":null,"imageAlt":null,"provider":"Hacker News","thirdPartyId":"25841263","url":"https://news.ycombinator.com/item?id=25841263","originalUrl":"https://www.newcomer.co/p/the-unauthorized-story-of-andreessen","imageRemote":"https://cdn.substack.com/image/fetch/h_600,c_limit,f_auto,q_auto:good,fl_progressive:steep/https%3A%2F%2Fbucketeer-e05bbc84-baa3-437e-9518-adb32be77984.s3.amazonaws.com%2Fpublic%2Fimages%2F808c0f60-f287-48aa-a1d2-8cac89b2d775_2925x2024.jpeg","video":null,"channel":null,"channelUrl":null,"author":"DLay","authorUrl":"https://news.ycombinator.com/user?id=DLay","authorImage":null,"authorSlug":null,"score":169,"views":null,"sharedCount":null,"likeCount":null,"sharedContent":null,"parent":{"__typename":"HnJson","localize":[{"title":"安德烈森-霍洛维茨未经授权的故事。","locale":"zh"},{"title":"安德烈森-霍洛維茨未經授權的故事。","locale":"zh-Hant"}]}},{"__typename":"SocialMediaPost","id":"HnPost-25846394","excerpt":"","slug":"/hn/25846394","title":"India asks WhatsApp to withdraw new privacy policy over ‘grave concerns’","date":"January 20, 2021","dateISO":"2021-01-20T19:49:31.541Z","datetime":"2021-01-20 19:49","tags":["story","Hacker News"],"image":null,"imageAlt":null,"provider":"Hacker News","thirdPartyId":"25846394","url":"https://news.ycombinator.com/item?id=25846394","originalUrl":"https://techcrunch.com/2021/01/19/india-asks-whatsapp-to-withdraw-new-privacy-policy-expresses-grave-concerns/","imageRemote":"https://techcrunch.com/wp-content/uploads/2021/01/GettyImages-1230551664.jpg?w=600","video":null,"channel":null,"channelUrl":null,"author":"totaldude87","authorUrl":"https://news.ycombinator.com/user?id=totaldude87","authorImage":null,"authorSlug":null,"score":192,"views":null,"sharedCount":null,"likeCount":null,"sharedContent":null,"parent":{"__typename":"HnJson","localize":[{"title":"印度要求WhatsApp撤回新的隐私政策，原因是 \"严重关切\"。","locale":"zh"},{"title":"印度要求WhatsApp撤回新的隱私政策，原因是 \"嚴重關切\"。","locale":"zh-Hant"}]}},{"__typename":"SocialMediaPost","id":"HnPost-25848278","excerpt":"","slug":"/hn/25848278","title":"Show HN: Beeper – All Your Chats in One App","date":"January 20, 2021","dateISO":"2021-01-20T19:49:31.541Z","datetime":"2021-01-20 19:49","tags":["story","Show HN","Hacker News"],"image":null,"imageAlt":null,"provider":"Hacker News","thirdPartyId":"25848278","url":"https://news.ycombinator.com/item?id=25848278","originalUrl":"https://www.beeperhq.com/?hn","imageRemote":"https://uploads-ssl.webflow.com/5ffc199ed786423eb2569667/60085426880a0ada43c6f2b7_opengraph.png","video":null,"channel":"Show HN","channelUrl":"https://news.ycombinator.com/show","author":"erohead","authorUrl":"https://news.ycombinator.com/user?id=erohead","authorImage":null,"authorSlug":null,"score":877,"views":null,"sharedCount":null,"likeCount":null,"sharedContent":null,"parent":{"__typename":"HnJson","localize":[{"title":"","locale":"zh"},{"title":"","locale":"zh-Hant"}]}},{"__typename":"SocialMediaPost","id":"HnPost-25848625","excerpt":"","slug":"/hn/25848625","title":"Porting Firefox to Apple Silicon","date":"January 20, 2021","dateISO":"2021-01-20T19:49:31.541Z","datetime":"2021-01-20 19:49","tags":["story","Hacker News"],"image":null,"imageAlt":null,"provider":"Hacker News","thirdPartyId":"25848625","url":"https://news.ycombinator.com/item?id=25848625","originalUrl":"https://hacks.mozilla.org/2021/01/porting-firefox-to-apple-silicon/","imageRemote":"https://hacks.mozilla.org/files/2021/01/screenshotm1bis.png","video":null,"channel":null,"channelUrl":null,"author":"sylvestre","authorUrl":"https://news.ycombinator.com/user?id=sylvestre","authorImage":null,"authorSlug":null,"score":632,"views":null,"sharedCount":null,"likeCount":null,"sharedContent":null,"parent":{"__typename":"HnJson","localize":[{"title":"移植Firefox到苹果硅","locale":"zh"},{"title":"移植Firefox到蘋果硅","locale":"zh-Hant"}]}},{"__typename":"SocialMediaPost","id":"HnPost-25835227","excerpt":"","slug":"/hn/25835227","title":"Radio users reminded not to use radios in crimes","date":"January 20, 2021","dateISO":"2021-01-20T16:32:56.458Z","datetime":"2021-01-20 16:32","tags":["story","Hacker News"],"image":null,"imageAlt":null,"provider":"Hacker News","thirdPartyId":"25835227","url":"https://news.ycombinator.com/item?id=25835227","originalUrl":"http://www.arrl.org/news/fcc-issues-enforcement-advisory-radio-users-reminded-not-to-use-radios-in-crimes","imageRemote":"http://www.arrl.org/files/image/About_ARRL/ARRL_logo_with_title.jpg","video":null,"channel":null,"channelUrl":null,"author":"aktive0","authorUrl":"https://news.ycombinator.com/user?id=aktive0","authorImage":null,"authorSlug":null,"score":165,"views":null,"sharedCount":null,"likeCount":null,"sharedContent":null,"parent":{"__typename":"HnJson","localize":[{"title":"提醒收音机用户不要用收音机作案","locale":"zh"},{"title":"提醒收音機用戶不要用收音機作案","locale":"zh-Hant"}]}},{"__typename":"SocialMediaPost","id":"HnPost-25846347","excerpt":"","slug":"/hn/25846347","title":"Show HN: I built an online interactive course that helps you learn vim faster","date":"January 20, 2021","dateISO":"2021-01-20T16:32:56.458Z","datetime":"2021-01-20 16:32","tags":["story","Show HN","Hacker News"],"image":null,"imageAlt":null,"provider":"Hacker News","thirdPartyId":"25846347","url":"https://news.ycombinator.com/item?id=25846347","originalUrl":"https://www.vim.so","imageRemote":"https://www.vim.so/meta_image.png","video":null,"channel":"Show HN","channelUrl":"https://news.ycombinator.com/show","author":"CoffeePython","authorUrl":"https://news.ycombinator.com/user?id=CoffeePython","authorImage":null,"authorSlug":null,"score":641,"views":null,"sharedCount":null,"likeCount":null,"sharedContent":null,"parent":{"__typename":"HnJson","localize":[{"title":"HN新产品：我建立了一个在线互动课程，帮助你更快地学习vim。","locale":"zh"},{"title":"HN新產品：我建立了一個在線互動課程，幫助你更快地學習vim。","locale":"zh-Hant"}]}},{"__typename":"SocialMediaPost","id":"HnPost-25844292","excerpt":"","slug":"/hn/25844292","title":"SpaceX acquires former oil rigs to serve as floating Starship spaceports","date":"January 20, 2021","dateISO":"2021-01-20T15:52:40.112Z","datetime":"2021-01-20 15:52","tags":["story","Hacker News"],"image":null,"imageAlt":null,"provider":"Hacker News","thirdPartyId":"25844292","url":"https://news.ycombinator.com/item?id=25844292","originalUrl":"https://www.nasaspaceflight.com/2021/01/spacex-rigs-starship-spaceports/","imageRemote":"https://www.nasaspaceflight.com/wp-content/uploads/2021/01/EsH_biVXMAMBv2i-min-525x350.jpg","video":null,"channel":null,"channelUrl":null,"author":"eddieoz","authorUrl":"https://news.ycombinator.com/user?id=eddieoz","authorImage":null,"authorSlug":null,"score":247,"views":null,"sharedCount":null,"likeCount":null,"sharedContent":null,"parent":{"__typename":"HnJson","localize":[{"title":"SpaceX收购前石油钻井平台，作为漂浮的星际飞船太空港。","locale":"zh"},{"title":"SpaceX收購前石油鑽井平臺，作爲漂浮的星際飛船太空港。","locale":"zh-Hant"}]}},{"__typename":"SocialMediaPost","id":"HnPost-25845201","excerpt":"","slug":"/hn/25845201","title":"Linux Running on Apple M1","date":"January 20, 2021","dateISO":"2021-01-20T15:52:40.112Z","datetime":"2021-01-20 15:52","tags":["story","Hacker News"],"image":null,"imageAlt":null,"provider":"Hacker News","thirdPartyId":"25845201","url":"https://news.ycombinator.com/item?id=25845201","originalUrl":"https://twitter.com/cmwdotme/status/1351838924621099008","imageRemote":null,"video":null,"channel":null,"channelUrl":null,"author":"ig0r0","authorUrl":"https://news.ycombinator.com/user?id=ig0r0","authorImage":null,"authorSlug":null,"score":375,"views":null,"sharedCount":null,"likeCount":null,"sharedContent":null,"parent":{"__typename":"HnJson","localize":[{"title":"在苹果M1上运行的Linux","locale":"zh"},{"title":"在蘋果M1上運行的Linux","locale":"zh-Hant"}]}},{"__typename":"SocialMediaPost","id":"HnPost-25846504","excerpt":"","slug":"/hn/25846504","title":"I no longer trust The Great Suspender","date":"January 20, 2021","dateISO":"2021-01-20T15:52:40.112Z","datetime":"2021-01-20 15:52","tags":["story","Hacker News"],"image":null,"imageAlt":null,"provider":"Hacker News","thirdPartyId":"25846504","url":"https://news.ycombinator.com/item?id=25846504","originalUrl":"https://dafoster.net/articles/2021/01/20/i-no-longer-trust-the-great-suspender/","imageRemote":"https://dafoster.net/assets/twitter-icon-16x16.png","video":null,"channel":null,"channelUrl":null,"author":"davidfstr","authorUrl":"https://news.ycombinator.com/user?id=davidfstr","authorImage":null,"authorSlug":null,"score":870,"views":null,"sharedCount":null,"likeCount":null,"sharedContent":null,"parent":{"__typename":"HnJson","localize":[{"title":"我不再相信 \"大吊带 \"了","locale":"zh"},{"title":"我不再相信 \"大吊帶 \"了","locale":"zh-Hant"}]}},{"__typename":"SocialMediaPost","id":"HnPost-25835280","excerpt":"","slug":"/hn/25835280","title":"Launch HN: Seed (YC W21) – A Fully-Managed CI/CD Pipeline for Serverless","date":"January 20, 2021","dateISO":"2021-01-20T15:14:32.188Z","datetime":"2021-01-20 15:14","tags":["story","Hacker News"],"image":null,"imageAlt":null,"provider":"Hacker News","thirdPartyId":"25835280","url":"https://news.ycombinator.com/item?id=25835280","originalUrl":"https://news.ycombinator.com/item?id=25835280","imageRemote":null,"video":null,"channel":null,"channelUrl":null,"author":"jayair","authorUrl":"https://news.ycombinator.com/user?id=jayair","authorImage":null,"authorSlug":null,"score":177,"views":null,"sharedCount":null,"likeCount":null,"sharedContent":null,"parent":{"__typename":"HnJson","localize":[{"title":"发布HN：Seed (YC W21)--面向无服务器的全面管理的CI/CD流水线","locale":"zh"},{"title":"發佈HN：Seed (YC W21)--面向無服務器的全面管理的CI/CD流水線","locale":"zh-Hant"}]}},{"__typename":"SocialMediaPost","id":"HnPost-25829763","excerpt":"","slug":"/hn/25829763","title":"When costs are nonlinear, keep it small","date":"January 20, 2021","dateISO":"2021-01-20T14:23:33.487Z","datetime":"2021-01-20 14:23","tags":["story","Hacker News"],"image":null,"imageAlt":null,"provider":"Hacker News","thirdPartyId":"25829763","url":"https://news.ycombinator.com/item?id=25829763","originalUrl":"https://jessitron.com/2021/01/18/when-costs-are-nonlinear-keep-it-small/","imageRemote":"https://i2.wp.com/jessitron.com/wp-content/uploads/2021/01/File-Jan-18-7-37-56-PM.png?fit=1200%2C906&ssl=1","video":null,"channel":null,"channelUrl":null,"author":"zdw","authorUrl":"https://news.ycombinator.com/user?id=zdw","authorImage":null,"authorSlug":null,"score":179,"views":null,"sharedCount":null,"likeCount":null,"sharedContent":null,"parent":{"__typename":"HnJson","localize":[{"title":"当成本是非线性的时候，要保持较小的成本。","locale":"zh"},{"title":"當成本是非線性的時候，要保持較小的成本。","locale":"zh-Hant"}]}},{"__typename":"SocialMediaPost","id":"HnPost-25842855","excerpt":"","slug":"/hn/25842855","title":"Jack Ma makes first live appearance in three months in online meet","date":"January 20, 2021","dateISO":"2021-01-20T11:04:44.704Z","datetime":"2021-01-20 11:04","tags":["story","Hacker News"],"image":null,"imageAlt":null,"provider":"Hacker News","thirdPartyId":"25842855","url":"https://news.ycombinator.com/item?id=25842855","originalUrl":"https://www.reuters.com/article/us-china-alibaba-jack-ma/alibabas-jack-ma-makes-first-public-appearance-since-oct-in-online-meeting-state-media-idUSKBN29P0CA","imageRemote":"https://static.reuters.com/resources/r/?m=02&d=20210120&t=2&i=1548399121&r=LYNXMPEH0J08A&w=800","video":null,"channel":null,"channelUrl":null,"author":"late","authorUrl":"https://news.ycombinator.com/user?id=late","authorImage":null,"authorSlug":null,"score":318,"views":null,"sharedCount":null,"likeCount":null,"sharedContent":null,"parent":{"__typename":"HnJson","localize":[{"title":"马云3个月来首次直播上线见面会","locale":"zh"},{"title":"馬雲3個月來首次直播上線見面會","locale":"zh-Hant"}]}},{"__typename":"SocialMediaPost","id":"HnPost-25842999","excerpt":"","slug":"/hn/25842999","title":"Serverless SQLite","date":"January 20, 2021","dateISO":"2021-01-20T11:04:44.704Z","datetime":"2021-01-20 11:04","tags":["story","Hacker News"],"image":null,"imageAlt":null,"provider":"Hacker News","thirdPartyId":"25842999","url":"https://news.ycombinator.com/item?id=25842999","originalUrl":"https://sql.lspgn.workers.dev/?hn","imageRemote":"https://raw.githubusercontent.com/lspgn/edge-sql/main/extra/img.png","video":null,"channel":null,"channelUrl":null,"author":"sfeng","authorUrl":"https://news.ycombinator.com/user?id=sfeng","authorImage":null,"authorSlug":null,"score":392,"views":null,"sharedCount":null,"likeCount":null,"sharedContent":null,"parent":{"__typename":"HnJson","localize":[{"title":"无服务器SQLite","locale":"zh"},{"title":"無服務器SQLite","locale":"zh-Hant"}]}},{"__typename":"SocialMediaPost","id":"HnPost-25843874","excerpt":"","slug":"/hn/25843874","title":"Kids Find a Security Flaw in Linux Mint by Mashing Keys","date":"January 20, 2021","dateISO":"2021-01-20T11:04:44.704Z","datetime":"2021-01-20 11:04","tags":["story","Hacker News"],"image":null,"imageAlt":null,"provider":"Hacker News","thirdPartyId":"25843874","url":"https://news.ycombinator.com/item?id=25843874","originalUrl":"https://github.com/linuxmint/cinnamon-screensaver/issues/354","imageRemote":"https://avatars0.githubusercontent.com/u/107184?s=400&v=4","video":null,"channel":null,"channelUrl":null,"author":"subins2000","authorUrl":"https://news.ycombinator.com/user?id=subins2000","authorImage":null,"authorSlug":null,"score":767,"views":null,"sharedCount":null,"likeCount":null,"sharedContent":null,"parent":{"__typename":"HnJson","localize":[{"title":"孩子们在Linux Mint中找到了一个安全漏洞，通过捣乱键的方式。","locale":"zh"},{"title":"孩子們在Linux Mint中找到了一個安全漏洞，通過搗亂鍵的方式。","locale":"zh-Hant"}]}},{"__typename":"SocialMediaPost","id":"HnPost-25843040","excerpt":"","slug":"/hn/25843040","title":"Anthony Levandowski Pardoned by Trump","date":"January 20, 2021","dateISO":"2021-01-20T09:11:37.128Z","datetime":"2021-01-20 09:11","tags":["story","Hacker News"],"image":null,"imageAlt":null,"provider":"Hacker News","thirdPartyId":"25843040","url":"https://news.ycombinator.com/item?id=25843040","originalUrl":"https://www.whitehouse.gov/briefings-statements/statement-press-secretary-regarding-executive-grants-clemency-012021/","imageRemote":"https://www.whitehouse.gov/wp-content/uploads/2017/12/wh.gov-share-img_03-1024x538.png","video":null,"channel":null,"channelUrl":null,"author":"aresant","authorUrl":"https://news.ycombinator.com/user?id=aresant","authorImage":null,"authorSlug":null,"score":573,"views":null,"sharedCount":null,"likeCount":null,"sharedContent":null,"parent":{"__typename":"HnJson","localize":[{"title":"安东尼-莱万多夫斯基被特朗普特赦","locale":"zh"},{"title":"安東尼-萊萬多夫斯基被特朗普特赦","locale":"zh-Hant"}]}},{"__typename":"SocialMediaPost","id":"HnPost-25836808","excerpt":"","slug":"/hn/25836808","title":"China wants to build an open source ecosystem to rival GitHub","date":"January 20, 2021","dateISO":"2021-01-20T08:01:41.922Z","datetime":"2021-01-20 08:01","tags":["story","Hacker News"],"image":null,"imageAlt":null,"provider":"Hacker News","thirdPartyId":"25836808","url":"https://news.ycombinator.com/item?id=25836808","originalUrl":"https://restofworld.org/2021/china-gitee-to-rival-github/","imageRemote":"https://149346090.v2.pressablecdn.com/wp-content/uploads/2021/01/GettyImages-1178238166-scaled.jpg","video":null,"channel":null,"channelUrl":null,"author":"donohoe","authorUrl":"https://news.ycombinator.com/user?id=donohoe","authorImage":null,"authorSlug":null,"score":197,"views":null,"sharedCount":null,"likeCount":null,"sharedContent":null,"parent":{"__typename":"HnJson","localize":[{"title":"中国欲打造可与GitHub媲美的开源生态圈","locale":"zh"},{"title":"中國欲打造可與GitHub媲美的開源生態圈","locale":"zh-Hant"}]}},{"__typename":"SocialMediaPost","id":"HnPost-25831481","excerpt":"","slug":"/hn/25831481","title":"Why do they still make car alarms?","date":"January 20, 2021","dateISO":"2021-01-20T07:00:12.027Z","datetime":"2021-01-20 07:00","tags":["story","Hacker News"],"image":null,"imageAlt":null,"provider":"Hacker News","thirdPartyId":"25831481","url":"https://news.ycombinator.com/item?id=25831481","originalUrl":"https://www.popularmechanics.com/cars/a17477/why-the-hell-do-they-still-make-car-alarms/","imageRemote":"https://hips.hearstapps.com/pop.h-cdn.co/assets/15/39/980x490/landscape-1443107372-kill-the-car-alarm.jpg?resize=1200:*","video":null,"channel":null,"channelUrl":null,"author":"apsec112","authorUrl":"https://news.ycombinator.com/user?id=apsec112","authorImage":null,"authorSlug":null,"score":193,"views":null,"sharedCount":null,"likeCount":null,"sharedContent":null,"parent":{"__typename":"HnJson","localize":[{"title":"为什么他们还在制造汽车报警器？","locale":"zh"},{"title":"爲什麼他們還在製造汽車報警器？","locale":"zh-Hant"}]}},{"__typename":"SocialMediaPost","id":"HnPost-25837899","excerpt":"","slug":"/hn/25837899","title":"Exploring the Supply Chain of the Pfizer/BioNTech and Moderna Covid-19 Vaccines","date":"January 20, 2021","dateISO":"2021-01-20T07:00:12.027Z","datetime":"2021-01-20 07:00","tags":["story","Hacker News"],"image":null,"imageAlt":null,"provider":"Hacker News","thirdPartyId":"25837899","url":"https://news.ycombinator.com/item?id=25837899","originalUrl":"https://blog.jonasneubert.com/2021/01/10/exploring-the-supply-chain-of-the-pfizer-biontech-and-moderna-covid-19-vaccines/","imageRemote":"https://blog.jonasneubert.com/assets/2021/2021-01-10-moderna-vaccine-in-fridge.jpg","video":null,"channel":null,"channelUrl":null,"author":"palcu","authorUrl":"https://news.ycombinator.com/user?id=palcu","authorImage":null,"authorSlug":null,"score":207,"views":null,"sharedCount":null,"likeCount":null,"sharedContent":null,"parent":{"__typename":"HnJson","localize":[{"title":"探讨辉瑞/生物技术公司和Moderna Covid-19疫苗的供应链问题","locale":"zh"},{"title":"探討輝瑞/生物技術公司和Moderna Covid-19疫苗的供應鏈問題","locale":"zh-Hant"}]}},{"__typename":"SocialMediaPost","id":"HnPost-25836264","excerpt":"","slug":"/hn/25836264","title":"Make Your Own Internet Archive with Archive Box","date":"January 20, 2021","dateISO":"2021-01-20T06:04:42.022Z","datetime":"2021-01-20 06:04","tags":["story","Hacker News"],"image":null,"imageAlt":null,"provider":"Hacker News","thirdPartyId":"25836264","url":"https://news.ycombinator.com/item?id=25836264","originalUrl":"https://nixintel.info/osint-tools/make-your-own-internet-archive-with-archive-box/","imageRemote":"https://nixintel.info/wp-content/uploads/2020/12/Selection_009.png","video":null,"channel":null,"channelUrl":null,"author":"adamhearn","authorUrl":"https://news.ycombinator.com/user?id=adamhearn","authorImage":null,"authorSlug":null,"score":255,"views":null,"sharedCount":null,"likeCount":null,"sharedContent":null,"parent":{"__typename":"HnJson","localize":[{"title":"使用Archive Box制作你自己的互联网档案","locale":"zh"},{"title":"使用Archive Box製作你自己的互聯網檔案","locale":"zh-Hant"}]}},{"__typename":"SocialMediaPost","id":"HnPost-25838034","excerpt":"","slug":"/hn/25838034","title":"Three Mathematicians We Lost in 2020","date":"January 20, 2021","dateISO":"2021-01-20T05:09:31.994Z","datetime":"2021-01-20 05:09","tags":["story","Hacker News"],"image":null,"imageAlt":null,"provider":"Hacker News","thirdPartyId":"25838034","url":"https://news.ycombinator.com/item?id=25838034","originalUrl":"https://www.newyorker.com/culture/annals-of-inquiry/three-mathematicians-we-lost-in-2020","imageRemote":"https://media.newyorker.com/photos/5fe3e1a0dadfe8fcc4727508/16:9/w_1280,c_limit/Rockmore-MathematiciansWeLost2020.jpg","video":null,"channel":null,"channelUrl":null,"author":"_pius","authorUrl":"https://news.ycombinator.com/user?id=_pius","authorImage":null,"authorSlug":null,"score":219,"views":null,"sharedCount":null,"likeCount":null,"sharedContent":null,"parent":{"__typename":"HnJson","localize":[{"title":"2020年我们失去的三位数学家","locale":"zh"},{"title":"2020年我們失去的三位數學家","locale":"zh-Hant"}]}},{"__typename":"SocialMediaPost","id":"HnPost-25836395","excerpt":"","slug":"/hn/25836395","title":"Show HN: Virtual breadboard in the browser, inspired by Ben Eater's 6502","date":"January 20, 2021","dateISO":"2021-01-20T01:52:29.536Z","datetime":"2021-01-20 01:52","tags":["story","Show HN","Hacker News"],"image":null,"imageAlt":null,"provider":"Hacker News","thirdPartyId":"25836395","url":"https://news.ycombinator.com/item?id=25836395","originalUrl":"https://www.tejotron.com/","imageRemote":null,"video":null,"channel":"Show HN","channelUrl":"https://news.ycombinator.com/show","author":"Tejotron","authorUrl":"https://news.ycombinator.com/user?id=Tejotron","authorImage":null,"authorSlug":null,"score":401,"views":null,"sharedCount":null,"likeCount":null,"sharedContent":null,"parent":{"__typename":"HnJson","localize":[{"title":"HN新产品：浏览器中的虚拟面包板，灵感来自Ben Eater的6502。","locale":"zh"},{"title":"HN新產品：瀏覽器中的虛擬麪包板，靈感來自Ben Eater的6502。","locale":"zh-Hant"}]}}]}},"pageContext":{"basePath":"/","pageType":"tag","tag":"Hacker News","tagsFilter":{"id":{"glob":"!*Post-1"}},"filter":{"id":{"glob":"!*Post-1"},"tags":{"eq":"Hacker News"}},"limit":25,"skip":1525,"total":2600,"totalPages":104,"currentPage":62,"maxWidth":1024,"maxHeight":512,"locale":"zh-Hant","hrefLang":"zh-Hant","originalPath":"/tags/hacker-news/page/62","dateFormat":"YYYY-MM-DD"}},"staticQueryHashes":["1239077767","2506312863","2744905544","3025052997","3493603132","3493603132","3513215887","386998304"]}