{"componentChunkName":"component---gatsby-theme-buzzing-src-gatsby-theme-timeline-templates-posts-query-js","path":"/tags/story/page/12","result":{"data":{"site":{"siteMetadata":{"title":"Reddit 热门","description":"用中文浏览Reddit热门内容","social":[{"name":"Twitter","url":"https://twitter.com/gatsbyjs","external":null,"prefetch":null},{"name":"GitHub","url":"https://github.com/gatsbyjs","external":null,"prefetch":null}],"menuLinks":[],"localize":[{"locale":"en","title":"Buzzing on Reddit","description":"See what's buzzing on Reddit in your native language","social":[{"name":"Reddit","url":"https://www.reddit.com/","external":true,"prefetch":null}],"menuLinks":[{"name":"Weekly Selection","url":"/issues","external":null,"prefetch":null},{"name":"RSS","url":"/rss.xml","external":null,"prefetch":false}]},{"locale":"zh-Hant","title":"Reddit 熱門","description":"用中文瀏覽Reddit熱門內容","social":null,"menuLinks":null}]}},"tagsGroup":{"group":[{"fieldValue":"ASK HN","totalCount":44},{"fieldValue":"Bitcoin","totalCount":4},{"fieldValue":"Hacker News","totalCount":2600},{"fieldValue":"Poll","totalCount":1},{"fieldValue":"SaveAMC","totalCount":1},{"fieldValue":"Show HN","totalCount":89},{"fieldValue":"bitcoin","totalCount":3},{"fieldValue":"investing","totalCount":797},{"fieldValue":"poll","totalCount":1},{"fieldValue":"reddit","totalCount":4938},{"fieldValue":"science","totalCount":1},{"fieldValue":"stocks","totalCount":1592},{"fieldValue":"story","totalCount":2599},{"fieldValue":"tweet","totalCount":814},{"fieldValue":"wallstreetbets","totalCount":2549}]},"allBlogPost":{"nodes":[{"__typename":"SocialMediaPost","id":"HnPost-26386419","excerpt":"","slug":"/hn/26386419","title":"Excel Never Dies","date":"March 08, 2021","dateISO":"2021-03-08T18:54:24.019Z","datetime":"2021-03-08 18:54","tags":["story","Hacker News"],"image":null,"imageAlt":null,"provider":"Hacker News","thirdPartyId":"26386419","url":"https://news.ycombinator.com/item?id=26386419","originalUrl":"https://www.notboring.co/p/excel-never-dies","imageRemote":"https://cdn.substack.com/image/fetch/w_1200,c_limit,f_jpg,q_auto:good,fl_progressive:steep/https%3A%2F%2Fbucketeer-e05bbc84-baa3-437e-9518-adb32be77984.s3.amazonaws.com%2Fpublic%2Fimages%2F39da542a-2fa0-4ea8-ae11-6d50d65f9d72_1600x800.png","video":null,"channel":null,"channelUrl":null,"author":"iamacyborg","authorUrl":"https://news.ycombinator.com/user?id=iamacyborg","authorImage":null,"authorSlug":null,"score":421,"views":null,"sharedCount":null,"likeCount":null,"sharedContent":null,"parent":{"__typename":"HnJson","localize":[{"title":"志在必得","locale":"zh"},{"title":"志在必得","locale":"zh-Hant"}]}},{"__typename":"SocialMediaPost","id":"HnPost-26387179","excerpt":"","slug":"/hn/26387179","title":"-2000 Lines of Code","date":"March 08, 2021","dateISO":"2021-03-08T18:54:24.019Z","datetime":"2021-03-08 18:54","tags":["story","Hacker News"],"image":null,"imageAlt":null,"provider":"Hacker News","thirdPartyId":"26387179","url":"https://news.ycombinator.com/item?id=26387179","originalUrl":"https://www.folklore.org/StoryView.py?story=Negative_2000_Lines_Of_Code.txt","imageRemote":"https://www.folklore.org/images/logo.gif","video":null,"channel":null,"channelUrl":null,"author":"pcr910303","authorUrl":"https://news.ycombinator.com/user?id=pcr910303","authorImage":null,"authorSlug":null,"score":645,"views":null,"sharedCount":null,"likeCount":null,"sharedContent":null,"parent":{"__typename":"HnJson","localize":[{"title":"-2000行代码","locale":"zh"},{"title":"-2000行代碼","locale":"zh-Hant"}]}},{"__typename":"SocialMediaPost","id":"HnPost-26382160","excerpt":"","slug":"/hn/26382160","title":"Lord of the Ring(s): Side Channel Attacks on the CPU On-Chip Ring Interconnect","date":"March 08, 2021","dateISO":"2021-03-08T17:53:38.264Z","datetime":"2021-03-08 17:53","tags":["story","Hacker News"],"image":null,"imageAlt":null,"provider":"Hacker News","thirdPartyId":"26382160","url":"https://news.ycombinator.com/item?id=26382160","originalUrl":"https://arxiv.org/abs/2103.03443","imageRemote":"https://static.arxiv.org/static/browse/0.3.2.6/images/icons/social/bibsonomy.png","video":null,"channel":null,"channelUrl":null,"author":"nixgeek","authorUrl":"https://news.ycombinator.com/user?id=nixgeek","authorImage":null,"authorSlug":null,"score":186,"views":null,"sharedCount":null,"likeCount":null,"sharedContent":null,"parent":{"__typename":"HnJson","localize":[{"title":"环网之王(S)。对CPU片上环形互连的侧通道攻击。","locale":"zh"},{"title":"環網之王(S)。對CPU片上環形互連的側通道攻擊。","locale":"zh-Hant"}]}},{"__typename":"SocialMediaPost","id":"HnPost-26386037","excerpt":"","slug":"/hn/26386037","title":"When did writing in major newspapers become so bad?","date":"March 08, 2021","dateISO":"2021-03-08T17:53:38.264Z","datetime":"2021-03-08 17:53","tags":["story","Hacker News"],"image":null,"imageAlt":null,"provider":"Hacker News","thirdPartyId":"26386037","url":"https://news.ycombinator.com/item?id=26386037","originalUrl":"https://mleverything.substack.com/p/when-did-writing-in-major-newspapers","imageRemote":"https://cdn.substack.com/image/fetch/w_1200,c_limit,f_jpg,q_auto:good,fl_progressive:steep/https%3A%2F%2Fbucketeer-e05bbc84-baa3-437e-9518-adb32be77984.s3.amazonaws.com%2Fpublic%2Fimages%2F62e18a6a-c2f6-43ac-be0f-c73d721b0d44_740x312.png","video":null,"channel":null,"channelUrl":null,"author":"bko","authorUrl":"https://news.ycombinator.com/user?id=bko","authorImage":null,"authorSlug":null,"score":327,"views":null,"sharedCount":null,"likeCount":null,"sharedContent":null,"parent":{"__typename":"HnJson","localize":[{"title":"什么时候各大报社的写作水平变得这么差了？","locale":"zh"},{"title":"什麼時候各大報社的寫作水平變得這麼差了？","locale":"zh-Hant"}]}},{"__typename":"SocialMediaPost","id":"HnPost-26385075","excerpt":"","slug":"/hn/26385075","title":"TLA+","date":"March 08, 2021","dateISO":"2021-03-08T17:21:39.325Z","datetime":"2021-03-08 17:21","tags":["story","Hacker News"],"image":null,"imageAlt":null,"provider":"Hacker News","thirdPartyId":"26385075","url":"https://news.ycombinator.com/item?id=26385075","originalUrl":"https://en.wikipedia.org/wiki/TLA%2B","imageRemote":"https://upload.wikimedia.org/wikipedia/en/6/63/TLA%2B_logo_splash_image.png","video":null,"channel":null,"channelUrl":null,"author":"kristianpaul","authorUrl":"https://news.ycombinator.com/user?id=kristianpaul","authorImage":null,"authorSlug":null,"score":230,"views":null,"sharedCount":null,"likeCount":null,"sharedContent":null,"parent":{"__typename":"HnJson","localize":[{"title":"TLA+","locale":"zh"},{"title":"TLA+","locale":"zh-Hant"}]}},{"__typename":"SocialMediaPost","id":"HnPost-26386741","excerpt":"","slug":"/hn/26386741","title":"Bill Gates Says that Bitcoin is bad For the Planet","date":"March 08, 2021","dateISO":"2021-03-08T17:21:39.325Z","datetime":"2021-03-08 17:21","tags":["story","Hacker News"],"image":null,"imageAlt":null,"provider":"Hacker News","thirdPartyId":"26386741","url":"https://news.ycombinator.com/item?id=26386741","originalUrl":"https://www.technologyelevation.com/2021/03/bill-gates-says-that-bitcoin-is-bad-for.html","imageRemote":"https://1.bp.blogspot.com/-IXHlEtaEzXE/YEYi9Pu3eJI/AAAAAAAAA30/bZaBF-jOyLwpcopAj54sUB9jpgvxvv2BgCLcBGAsYHQ/w1200-h630-p-k-no-nu/Bill-Gates-says-that-Bitcoin-is-bad-for-the-planet.jpg","video":null,"channel":null,"channelUrl":null,"author":"awb","authorUrl":"https://news.ycombinator.com/user?id=awb","authorImage":null,"authorSlug":null,"score":586,"views":null,"sharedCount":null,"likeCount":null,"sharedContent":null,"parent":{"__typename":"HnJson","localize":[{"title":"比尔-盖茨说，比特币对地球有害。","locale":"zh"},{"title":"比爾-蓋茨說，比特幣對地球有害。","locale":"zh-Hant"}]}},{"__typename":"SocialMediaPost","id":"HnPost-26382764","excerpt":"","slug":"/hn/26382764","title":"Best practices can slow your application down","date":"March 08, 2021","dateISO":"2021-03-08T16:39:59.426Z","datetime":"2021-03-08 16:39","tags":["story","Hacker News"],"image":null,"imageAlt":null,"provider":"Hacker News","thirdPartyId":"26382764","url":"https://news.ycombinator.com/item?id=26382764","originalUrl":"https://stackoverflow.blog/2021/03/03/best-practices-can-slow-your-application-down/?cb=1&_ga=2.145693744.523477250.1614802183-1247573525.1613934766","imageRemote":"https://149351115.v2.pressablecdn.com/wp-content/uploads/2021/03/121220-Stackoverflow-Motivation-Alex-Francis.jpg","video":null,"channel":null,"channelUrl":null,"author":"kettunen","authorUrl":"https://news.ycombinator.com/user?id=kettunen","authorImage":null,"authorSlug":null,"score":194,"views":null,"sharedCount":null,"likeCount":null,"sharedContent":null,"parent":{"__typename":"HnJson","localize":[{"title":"最佳实践会减慢你的应用速度","locale":"zh"},{"title":"最佳實踐會減慢你的應用速度","locale":"zh-Hant"}]}},{"__typename":"SocialMediaPost","id":"HnPost-26385317","excerpt":"","slug":"/hn/26385317","title":"Google suffers from a digital petro curse","date":"March 08, 2021","dateISO":"2021-03-08T16:39:59.426Z","datetime":"2021-03-08 16:39","tags":["story","Hacker News"],"image":null,"imageAlt":null,"provider":"Hacker News","thirdPartyId":"26385317","url":"https://news.ycombinator.com/item?id=26385317","originalUrl":"https://world.hey.com/dhh/google-suffers-from-a-digital-petro-curse-908e919a","imageRemote":"https://world.hey.com/dhh/avatar-20210222112907000000-293866624","video":null,"channel":null,"channelUrl":null,"author":"danso","authorUrl":"https://news.ycombinator.com/user?id=danso","authorImage":null,"authorSlug":null,"score":268,"views":null,"sharedCount":null,"likeCount":null,"sharedContent":null,"parent":{"__typename":"HnJson","localize":[{"title":"谷歌遭遇数字石油诅咒","locale":"zh"},{"title":"谷歌遭遇數字石油詛咒","locale":"zh-Hant"}]}},{"__typename":"SocialMediaPost","id":"HnPost-26384357","excerpt":"","slug":"/hn/26384357","title":"Medical researcher discovers integration, gets 75 citations (2007)","date":"March 08, 2021","dateISO":"2021-03-08T15:50:27.387Z","datetime":"2021-03-08 15:50","tags":["story","Hacker News"],"image":null,"imageAlt":null,"provider":"Hacker News","thirdPartyId":"26384357","url":"https://news.ycombinator.com/item?id=26384357","originalUrl":"https://fliptomato.wordpress.com/2007/03/19/medical-researcher-discovers-integration-gets-75-citations/","imageRemote":"https://s0.wp.com/i/blank.jpg","video":null,"channel":null,"channelUrl":null,"author":"ulucs","authorUrl":"https://news.ycombinator.com/user?id=ulucs","authorImage":null,"authorSlug":null,"score":175,"views":null,"sharedCount":null,"likeCount":null,"sharedContent":null,"parent":{"__typename":"HnJson","localize":[{"title":"医学研究者发现整合，获得75次引用 (2007)","locale":"zh"},{"title":"醫學研究者發現整合，獲得75次引用 (2007)","locale":"zh-Hant"}]}},{"__typename":"SocialMediaPost","id":"HnPost-26385374","excerpt":"","slug":"/hn/26385374","title":"Israel, Cyprus and Greece agree to link power grids via subsea cable","date":"March 08, 2021","dateISO":"2021-03-08T15:38:54.685Z","datetime":"2021-03-08 15:38","tags":["story","Hacker News"],"image":null,"imageAlt":null,"provider":"Hacker News","thirdPartyId":"26385374","url":"https://news.ycombinator.com/item?id=26385374","originalUrl":"https://www.reuters.com/article/idUSKBN2B015M","imageRemote":"https://s1.reutersmedia.net/resources_v2/images/rcom-default.png?w=800","video":null,"channel":null,"channelUrl":null,"author":"awiesenhofer","authorUrl":"https://news.ycombinator.com/user?id=awiesenhofer","authorImage":null,"authorSlug":null,"score":431,"views":null,"sharedCount":null,"likeCount":null,"sharedContent":null,"parent":{"__typename":"HnJson","localize":[{"title":"以色列、塞浦路斯和希腊同意通过海底电缆连接电网。","locale":"zh"},{"title":"以色列、塞浦路斯和希臘同意通過海底電纜連接電網。","locale":"zh-Hant"}]}},{"__typename":"SocialMediaPost","id":"HnPost-26384403","excerpt":"","slug":"/hn/26384403","title":"Finding Mona Lisa in the Game of Life","date":"March 08, 2021","dateISO":"2021-03-08T14:49:35.550Z","datetime":"2021-03-08 14:49","tags":["story","Hacker News"],"image":null,"imageAlt":null,"provider":"Hacker News","thirdPartyId":"26384403","url":"https://news.ycombinator.com/item?id=26384403","originalUrl":"http://avinayak.github.io/algorithms/programming/2021/02/19/finding-mona-lisa-in-the-game-of-life.html","imageRemote":"http://avinayak.github.io/favicons/favicon-96x96.png","video":null,"channel":null,"channelUrl":null,"author":"mseri","authorUrl":"https://news.ycombinator.com/user?id=mseri","authorImage":null,"authorSlug":null,"score":405,"views":null,"sharedCount":null,"likeCount":null,"sharedContent":null,"parent":{"__typename":"HnJson","localize":[{"title":"在生命的游戏中寻找蒙娜丽莎","locale":"zh"},{"title":"在生命的遊戲中尋找蒙娜麗莎","locale":"zh-Hant"}]}},{"__typename":"SocialMediaPost","id":"HnPost-26383419","excerpt":"","slug":"/hn/26383419","title":"Food Prices Soar Globally","date":"March 08, 2021","dateISO":"2021-03-08T12:58:43.394Z","datetime":"2021-03-08 12:58","tags":["story","Hacker News"],"image":null,"imageAlt":null,"provider":"Hacker News","thirdPartyId":"26383419","url":"https://news.ycombinator.com/item?id=26383419","originalUrl":"https://www.bloomberg.com/news/articles/2021-03-01/inflation-2021-malnutrition-and-hunger-fears-rise-as-food-prices-soar-globally","imageRemote":null,"video":null,"channel":null,"channelUrl":null,"author":"prostoalex","authorUrl":"https://news.ycombinator.com/user?id=prostoalex","authorImage":null,"authorSlug":null,"score":513,"views":null,"sharedCount":null,"likeCount":null,"sharedContent":null,"parent":{"__typename":"HnJson","localize":[{"title":"全球食品价格飙升","locale":"zh"},{"title":"全球食品價格飆升","locale":"zh-Hant"}]}},{"__typename":"SocialMediaPost","id":"HnPost-26381661","excerpt":"","slug":"/hn/26381661","title":"Game Theory – Open Yale Courses","date":"March 08, 2021","dateISO":"2021-03-08T09:56:26.098Z","datetime":"2021-03-08 09:56","tags":["story","Hacker News"],"image":null,"imageAlt":null,"provider":"Hacker News","thirdPartyId":"26381661","url":"https://news.ycombinator.com/item?id=26381661","originalUrl":"https://oyc.yale.edu/economics/econ-159","imageRemote":"https://oyc.yale.edu/sites/default/files/polak_1.jpg","video":null,"channel":null,"channelUrl":null,"author":"bezelbuttons","authorUrl":"https://news.ycombinator.com/user?id=bezelbuttons","authorImage":null,"authorSlug":null,"score":282,"views":null,"sharedCount":null,"likeCount":null,"sharedContent":null,"parent":{"__typename":"HnJson","localize":[{"title":"博弈论--耶鲁开放课程","locale":"zh"},{"title":"博弈論--耶魯開放課程","locale":"zh-Hant"}]}},{"__typename":"SocialMediaPost","id":"HnPost-26382633","excerpt":"","slug":"/hn/26382633","title":"The new Google Pay repeats all the same mistakes of Google Allo","date":"March 08, 2021","dateISO":"2021-03-08T09:30:39.812Z","datetime":"2021-03-08 09:30","tags":["story","Hacker News"],"image":null,"imageAlt":null,"provider":"Hacker News","thirdPartyId":"26382633","url":"https://news.ycombinator.com/item?id=26382633","originalUrl":"https://arstechnica.com/?p=1747061","imageRemote":"https://cdn.arstechnica.net/wp-content/uploads/2021/03/flushing-google-play-760x380.jpg","video":null,"channel":null,"channelUrl":null,"author":"feross","authorUrl":"https://news.ycombinator.com/user?id=feross","authorImage":null,"authorSlug":null,"score":360,"views":null,"sharedCount":null,"likeCount":null,"sharedContent":null,"parent":{"__typename":"HnJson","localize":[{"title":"新的Google Pay重蹈了Google Allo的覆辙。","locale":"zh"},{"title":"新的Google Pay重蹈了Google Allo的覆轍。","locale":"zh-Hant"}]}},{"__typename":"SocialMediaPost","id":"HnPost-26375857","excerpt":"","slug":"/hn/26375857","title":"Please support Web Monetization if you want less ads on the web","date":"March 08, 2021","dateISO":"2021-03-08T08:52:11.039Z","datetime":"2021-03-08 08:52","tags":["story","Hacker News"],"image":null,"imageAlt":null,"provider":"Hacker News","thirdPartyId":"26375857","url":"https://news.ycombinator.com/item?id=26375857","originalUrl":"https://atodorov.me/2021/03/07/please-support-web-monetization-if-you-want-less-ads-on-the-web/","imageRemote":null,"video":null,"channel":null,"channelUrl":null,"author":"sofixa","authorUrl":"https://news.ycombinator.com/user?id=sofixa","authorImage":null,"authorSlug":null,"score":164,"views":null,"sharedCount":null,"likeCount":null,"sharedContent":null,"parent":{"__typename":"HnJson","localize":[{"title":"如果你想减少网络上的广告，请支持网络货币化。","locale":"zh"},{"title":"如果你想減少網絡上的廣告，請支持網絡貨幣化。","locale":"zh-Hant"}]}},{"__typename":"SocialMediaPost","id":"HnPost-26379954","excerpt":"","slug":"/hn/26379954","title":"UC’s termination of Elsevier contract has had limited negative impact (2020)","date":"March 08, 2021","dateISO":"2021-03-08T05:37:07.343Z","datetime":"2021-03-08 05:37","tags":["story","Hacker News"],"image":null,"imageAlt":null,"provider":"Hacker News","thirdPartyId":"26379954","url":"https://news.ycombinator.com/item?id=26379954","originalUrl":"https://dailybruin.com/2020/02/27/ucs-termination-of-elsevier-contract-has-had-limited-negative-impact","imageRemote":"https://wp.dailybruin.com/images/2020/02/web.ns_.elseviersurvey.file_.jpg","video":null,"channel":null,"channelUrl":null,"author":"ColinWright","authorUrl":"https://news.ycombinator.com/user?id=ColinWright","authorImage":null,"authorSlug":null,"score":261,"views":null,"sharedCount":null,"likeCount":null,"sharedContent":null,"parent":{"__typename":"HnJson","localize":[{"title":"UC终止爱思唯尔合同负面影响有限(2020年)","locale":"zh"},{"title":"UC終止愛思唯爾合同負面影響有限(2020年)","locale":"zh-Hant"}]}},{"__typename":"SocialMediaPost","id":"HnPost-26371813","excerpt":"","slug":"/hn/26371813","title":"Cactus Comments: Federated web comments based on Matrix protocol","date":"March 08, 2021","dateISO":"2021-03-08T05:23:10.972Z","datetime":"2021-03-08 05:23","tags":["story","Hacker News"],"image":null,"imageAlt":null,"provider":"Hacker News","thirdPartyId":"26371813","url":"https://news.ycombinator.com/item?id=26371813","originalUrl":"https://cactus.chat/","imageRemote":"https://cactus.chat/doks.png","video":null,"channel":null,"channelUrl":null,"author":"decrypt","authorUrl":"https://news.ycombinator.com/user?id=decrypt","authorImage":null,"authorSlug":null,"score":164,"views":null,"sharedCount":null,"likeCount":null,"sharedContent":null,"parent":{"__typename":"HnJson","localize":[{"title":"仙人掌评论。基于矩阵协议的联合网络评论","locale":"zh"},{"title":"仙人掌評論。基於矩陣協議的聯合網絡評論","locale":"zh-Hant"}]}},{"__typename":"SocialMediaPost","id":"HnPost-26376423","excerpt":"","slug":"/hn/26376423","title":"Why winter exercise can be especially hard on the lungs","date":"March 08, 2021","dateISO":"2021-03-08T03:49:11.524Z","datetime":"2021-03-08 03:49","tags":["story","Hacker News"],"image":null,"imageAlt":null,"provider":"Hacker News","thirdPartyId":"26376423","url":"https://news.ycombinator.com/item?id=26376423","originalUrl":"https://www.cbc.ca/news/canada/winter-exercise-lungs-1.5936703","imageRemote":"https://i.cbc.ca/1.5938617.1614970532!/fileImage/httpImage/image.jpg_gen/derivatives/16x9_620/jogger.jpg","video":null,"channel":null,"channelUrl":null,"author":"curmudgeon22","authorUrl":"https://news.ycombinator.com/user?id=curmudgeon22","authorImage":null,"authorSlug":null,"score":204,"views":null,"sharedCount":null,"likeCount":null,"sharedContent":null,"parent":{"__typename":"HnJson","localize":[{"title":"为什么冬季运动对肺部的伤害特别大？","locale":"zh"},{"title":"爲什麼冬季運動對肺部的傷害特別大？","locale":"zh-Hant"}]}},{"__typename":"SocialMediaPost","id":"HnPost-26381377","excerpt":"","slug":"/hn/26381377","title":"Everyone Is Beautiful and No One Is Horny","date":"March 08, 2021","dateISO":"2021-03-08T03:07:14.643Z","datetime":"2021-03-08 03:07","tags":["story","Hacker News"],"image":null,"imageAlt":null,"provider":"Hacker News","thirdPartyId":"26381377","url":"https://news.ycombinator.com/item?id=26381377","originalUrl":"https://bloodknife.com/everyone-beautiful-no-one-horny/","imageRemote":"https://bloodknife.com/wp-content/uploads/2021/02/captamerica.jpg","video":null,"channel":null,"channelUrl":null,"author":"Avshalom","authorUrl":"https://news.ycombinator.com/user?id=Avshalom","authorImage":null,"authorSlug":null,"score":660,"views":null,"sharedCount":null,"likeCount":null,"sharedContent":null,"parent":{"__typename":"HnJson","localize":[{"title":"每个人都是美丽的，没有人是角质的","locale":"zh"},{"title":"每個人都是美麗的，沒有人是角質的","locale":"zh-Hant"}]}},{"__typename":"SocialMediaPost","id":"HnPost-26380822","excerpt":"","slug":"/hn/26380822","title":"Remembering Allan McDonald: He Refused Challenger Launch, Exposed Cover-Up","date":"March 08, 2021","dateISO":"2021-03-08T01:57:15.037Z","datetime":"2021-03-08 01:57","tags":["story","Hacker News"],"image":null,"imageAlt":null,"provider":"Hacker News","thirdPartyId":"26380822","url":"https://news.ycombinator.com/item?id=26380822","originalUrl":"https://text.npr.org/974534021","imageRemote":null,"video":null,"channel":null,"channelUrl":null,"author":"everybodyknows","authorUrl":"https://news.ycombinator.com/user?id=everybodyknows","authorImage":null,"authorSlug":null,"score":1457,"views":null,"sharedCount":null,"likeCount":null,"sharedContent":null,"parent":{"__typename":"HnJson","localize":[{"title":"缅怀阿伦-麦克唐纳：他拒绝挑战者发射，揭露掩盖事实的真相","locale":"zh"},{"title":"緬懷阿倫-麥克唐納：他拒絕挑戰者發射，揭露掩蓋事實的真相","locale":"zh-Hant"}]}},{"__typename":"SocialMediaPost","id":"HnPost-26374755","excerpt":"","slug":"/hn/26374755","title":"Simple and privacy-friendly alternative to Google Analytic","date":"March 08, 2021","dateISO":"2021-03-08T01:02:14.735Z","datetime":"2021-03-08 01:02","tags":["story","Hacker News"],"image":null,"imageAlt":null,"provider":"Hacker News","thirdPartyId":"26374755","url":"https://news.ycombinator.com/item?id=26374755","originalUrl":"https://github.com/plausible/analytics","imageRemote":"https://repository-images.githubusercontent.com/160427405/0b731800-3993-11eb-9f33-49141eaf7a8f","video":null,"channel":null,"channelUrl":null,"author":"rajeshrajappan","authorUrl":"https://news.ycombinator.com/user?id=rajeshrajappan","authorImage":null,"authorSlug":null,"score":175,"views":null,"sharedCount":null,"likeCount":null,"sharedContent":null,"parent":{"__typename":"HnJson","localize":[{"title":"简单且隐私友好的Google Analytic替代品","locale":"zh"},{"title":"簡單且隱私友好的Google Analytic替代品","locale":"zh-Hant"}]}},{"__typename":"SocialMediaPost","id":"HnPost-26375850","excerpt":"","slug":"/hn/26375850","title":"Show HN: Buy My Side Project","date":"March 08, 2021","dateISO":"2021-03-08T01:02:14.735Z","datetime":"2021-03-08 01:02","tags":["story","Show HN","Hacker News"],"image":null,"imageAlt":null,"provider":"Hacker News","thirdPartyId":"26375850","url":"https://news.ycombinator.com/item?id=26375850","originalUrl":"https://buymysideproject.com","imageRemote":"https://buymysideproject.com/images/social.png","video":null,"channel":"Show HN","channelUrl":"https://news.ycombinator.com/show","author":"raunometsa","authorUrl":"https://news.ycombinator.com/user?id=raunometsa","authorImage":null,"authorSlug":null,"score":190,"views":null,"sharedCount":null,"likeCount":null,"sharedContent":null,"parent":{"__typename":"HnJson","localize":[{"title":"显示HN：购买我的副业项目","locale":"zh"},{"title":"顯示HN：購買我的副業項目","locale":"zh-Hant"}]}},{"__typename":"SocialMediaPost","id":"HnPost-26380110","excerpt":"","slug":"/hn/26380110","title":"The Kilobyte’s Gambit","date":"March 08, 2021","dateISO":"2021-03-08T01:02:14.735Z","datetime":"2021-03-08 01:02","tags":["story","Hacker News"],"image":null,"imageAlt":null,"provider":"Hacker News","thirdPartyId":"26380110","url":"https://news.ycombinator.com/item?id=26380110","originalUrl":"https://vole.wtf/kilobytes-gambit/","imageRemote":"https://vole.wtf/kilobytes-gambit/social.jpg","video":null,"channel":null,"channelUrl":null,"author":"msszczep2","authorUrl":"https://news.ycombinator.com/user?id=msszczep2","authorImage":null,"authorSlug":null,"score":514,"views":null,"sharedCount":null,"likeCount":null,"sharedContent":null,"parent":{"__typename":"HnJson","localize":[{"title":"千字节的赌局","locale":"zh"},{"title":"千字節的賭局","locale":"zh-Hant"}]}},{"__typename":"SocialMediaPost","id":"HnPost-26375139","excerpt":"","slug":"/hn/26375139","title":"Apple M1 Microarchitecture Research","date":"March 07, 2021","dateISO":"2021-03-07T23:53:12.615Z","datetime":"2021-03-07 23:53","tags":["story","Hacker News"],"image":null,"imageAlt":null,"provider":"Hacker News","thirdPartyId":"26375139","url":"https://news.ycombinator.com/item?id=26375139","originalUrl":"https://dougallj.github.io/applecpu/firestorm.html","imageRemote":null,"video":null,"channel":null,"channelUrl":null,"author":"my123","authorUrl":"https://news.ycombinator.com/user?id=my123","authorImage":null,"authorSlug":null,"score":236,"views":null,"sharedCount":null,"likeCount":null,"sharedContent":null,"parent":{"__typename":"HnJson","localize":[{"title":"苹果M1微架构研究","locale":"zh"},{"title":"蘋果M1微架構研究","locale":"zh-Hant"}]}},{"__typename":"SocialMediaPost","id":"HnPost-26379548","excerpt":"","slug":"/hn/26379548","title":"Popular YouTubers who are building their own sites","date":"March 07, 2021","dateISO":"2021-03-07T23:20:09.896Z","datetime":"2021-03-07 23:20","tags":["story","Hacker News"],"image":null,"imageAlt":null,"provider":"Hacker News","thirdPartyId":"26379548","url":"https://news.ycombinator.com/item?id=26379548","originalUrl":"https://www.bbc.com/news/technology-55349255","imageRemote":"https://ichef.bbci.co.uk/news/1024/branded_news/297B/production/_117291601_thumbnail_corridor_linus_composite.jpg","video":null,"channel":null,"channelUrl":null,"author":"mikesabbagh","authorUrl":"https://news.ycombinator.com/user?id=mikesabbagh","authorImage":null,"authorSlug":null,"score":457,"views":null,"sharedCount":null,"likeCount":null,"sharedContent":null,"parent":{"__typename":"HnJson","localize":[{"title":"正在建设自己网站的热门优步。","locale":"zh"},{"title":"正在建設自己網站的熱門優步。","locale":"zh-Hant"}]}}]}},"pageContext":{"basePath":"/","pageType":"tag","tag":"story","tagsFilter":{"id":{"glob":"!*Post-1"}},"filter":{"id":{"glob":"!*Post-1"},"tags":{"eq":"story"}},"limit":25,"skip":275,"total":2599,"totalPages":104,"currentPage":12,"maxWidth":1024,"maxHeight":512,"locale":"zh","hrefLang":"zh-Hans","originalPath":"/tags/story/page/12","dateFormat":"YYYY-MM-DD"}},"staticQueryHashes":["1239077767","2506312863","2744905544","3025052997","3493603132","3493603132","3513215887","386998304"]}