{"componentChunkName":"component---gatsby-theme-buzzing-src-gatsby-theme-timeline-templates-posts-query-js","path":"/tags/hacker-news/page/51","result":{"data":{"site":{"siteMetadata":{"title":"Reddit 热门","description":"用中文浏览Reddit热门内容","social":[{"name":"Twitter","url":"https://twitter.com/gatsbyjs","external":null,"prefetch":null},{"name":"GitHub","url":"https://github.com/gatsbyjs","external":null,"prefetch":null}],"menuLinks":[],"localize":[{"locale":"en","title":"Buzzing on Reddit","description":"See what's buzzing on Reddit in your native language","social":[{"name":"Reddit","url":"https://www.reddit.com/","external":true,"prefetch":null}],"menuLinks":[{"name":"Weekly Selection","url":"/issues","external":null,"prefetch":null},{"name":"RSS","url":"/rss.xml","external":null,"prefetch":false}]},{"locale":"zh-Hant","title":"Reddit 熱門","description":"用中文瀏覽Reddit熱門內容","social":null,"menuLinks":null}]}},"tagsGroup":{"group":[{"fieldValue":"ASK HN","totalCount":54},{"fieldValue":"Hacker News","totalCount":3105},{"fieldValue":"Poll","totalCount":1},{"fieldValue":"Show HN","totalCount":100},{"fieldValue":"poll","totalCount":1},{"fieldValue":"story","totalCount":3104}]},"allBlogPost":{"nodes":[{"__typename":"SocialMediaPost","id":"HnPost-26178523","excerpt":"","slug":"/hn/26178523","title":"The Fantasy of Opting Out","date":"February 18, 2021","dateISO":"2021-02-18T18:29:38.207Z","datetime":"2021-02-18 18:29","tags":["story","Hacker News"],"image":null,"imageAlt":null,"provider":"Hacker News","thirdPartyId":"26178523","url":"https://news.ycombinator.com/item?id=26178523","originalUrl":"https://thereader.mitpress.mit.edu/the-fantasy-of-opting-out/","imageRemote":"https://thereader.mitpress.mit.edu/wp-content/uploads/2019/09/moshed-1.gif","video":null,"channel":null,"channelUrl":null,"author":"Fiveplus","authorUrl":"https://news.ycombinator.com/user?id=Fiveplus","authorImage":null,"authorSlug":null,"score":243,"views":null,"sharedCount":null,"likeCount":null,"sharedContent":null,"parent":{"__typename":"HnJson","localize":[{"title":"选择退出的幻想","locale":"zh"},{"title":"選擇退出的幻想","locale":"zh-Hant"}]}},{"__typename":"SocialMediaPost","id":"HnPost-26177619","excerpt":"","slug":"/hn/26177619","title":"How NASA Designed a Helicopter That Could Fly Autonomously on Mars","date":"February 18, 2021","dateISO":"2021-02-18T17:42:47.017Z","datetime":"2021-02-18 17:42","tags":["story","Hacker News"],"image":null,"imageAlt":null,"provider":"Hacker News","thirdPartyId":"26177619","url":"https://news.ycombinator.com/item?id=26177619","originalUrl":"https://spectrum.ieee.org/automaton/aerospace/robotic-exploration/nasa-designed-perseverance-helicopter-rover-fly-autonomously-mars","imageRemote":null,"video":null,"channel":null,"channelUrl":null,"author":"hacksilver","authorUrl":"https://news.ycombinator.com/user?id=hacksilver","authorImage":null,"authorSlug":null,"score":234,"views":null,"sharedCount":null,"likeCount":null,"sharedContent":null,"parent":{"__typename":"HnJson","localize":[{"title":"美国宇航局如何设计出能在火星上自主飞行的直升机？","locale":"zh"},{"title":"美國宇航局如何設計出能在火星上自主飛行的直升機？","locale":"zh-Hant"}]}},{"__typename":"SocialMediaPost","id":"HnPost-26179003","excerpt":"","slug":"/hn/26179003","title":"I Am a Heroin User. I Do Not Have a Drug Problem","date":"February 18, 2021","dateISO":"2021-02-18T17:42:47.017Z","datetime":"2021-02-18 17:42","tags":["story","Hacker News"],"image":null,"imageAlt":null,"provider":"Hacker News","thirdPartyId":"26179003","url":"https://news.ycombinator.com/item?id=26179003","originalUrl":"http://m.nautil.us/issue/96/rewired/i-am-a-heroin-user-i-do-not-have-a-drug-problem","imageRemote":"http://static.nautil.us/18175_ca5d2301e833bedfa62053bb8210da20.png","video":null,"channel":null,"channelUrl":null,"author":"CapitalistCartr","authorUrl":"https://news.ycombinator.com/user?id=CapitalistCartr","authorImage":null,"authorSlug":null,"score":282,"views":null,"sharedCount":null,"likeCount":null,"sharedContent":null,"parent":{"__typename":"HnJson","localize":[{"title":"我是一个海洛因使用者。我没有毒品问题","locale":"zh"},{"title":"我是一個海洛因使用者。我沒有毒品問題","locale":"zh-Hant"}]}},{"__typename":"SocialMediaPost","id":"HnPost-26180785","excerpt":"","slug":"/hn/26180785","title":"Citibank just got a $500M lesson in the importance of UI design","date":"February 18, 2021","dateISO":"2021-02-18T16:05:37.859Z","datetime":"2021-02-18 16:05","tags":["story","Hacker News"],"image":null,"imageAlt":null,"provider":"Hacker News","thirdPartyId":"26180785","url":"https://news.ycombinator.com/item?id=26180785","originalUrl":"https://arstechnica.com/tech-policy/2021/02/citibank-just-got-a-500-million-lesson-in-the-importance-of-ui-design/","imageRemote":"https://cdn.arstechnica.net/wp-content/uploads/2021/02/GettyImages-945363136-760x380.jpg","video":null,"channel":null,"channelUrl":null,"author":"danbr","authorUrl":"https://news.ycombinator.com/user?id=danbr","authorImage":null,"authorSlug":null,"score":1231,"views":null,"sharedCount":null,"likeCount":null,"sharedContent":null,"parent":{"__typename":"HnJson","localize":[{"title":"花旗银行刚刚上了一堂价值5亿美元的课，让我们知道了UI设计的重要性。","locale":"zh"},{"title":"花旗銀行剛剛上了一堂價值5億美元的課，讓我們知道了UI設計的重要性。","locale":"zh-Hant"}]}},{"__typename":"SocialMediaPost","id":"HnPost-26178518","excerpt":"","slug":"/hn/26178518","title":"Why There’s No Such Thing as “A Startup Within a Big Company”","date":"February 18, 2021","dateISO":"2021-02-18T15:06:41.850Z","datetime":"2021-02-18 15:06","tags":["story","Hacker News"],"image":null,"imageAlt":null,"provider":"Hacker News","thirdPartyId":"26178518","url":"https://news.ycombinator.com/item?id=26178518","originalUrl":"https://hunterwalk.medium.com/why-theres-no-such-thing-as-a-startup-within-a-big-company-c3003615f3bc","imageRemote":"https://miro.medium.com/max/1200/1*uy5xCkwK01xL_bNX8C6m5g.jpeg","video":null,"channel":null,"channelUrl":null,"author":"isolli","authorUrl":"https://news.ycombinator.com/user?id=isolli","authorImage":null,"authorSlug":null,"score":635,"views":null,"sharedCount":null,"likeCount":null,"sharedContent":null,"parent":{"__typename":"HnJson","localize":[{"title":"为什么没有 \"大公司里的创业者\"？","locale":"zh"},{"title":"爲什麼沒有 \"大公司裏的創業者\"？","locale":"zh-Hant"}]}},{"__typename":"SocialMediaPost","id":"HnPost-26174135","excerpt":"","slug":"/hn/26174135","title":"Functioning ‘mechanical gears’ seen in nature for the first time (2013)","date":"February 18, 2021","dateISO":"2021-02-18T14:24:39.266Z","datetime":"2021-02-18 14:24","tags":["story","Hacker News"],"image":null,"imageAlt":null,"provider":"Hacker News","thirdPartyId":"26174135","url":"https://news.ycombinator.com/item?id=26174135","originalUrl":"https://www.cam.ac.uk/research/news/functioning-mechanical-gears-seen-in-nature-for-the-first-time","imageRemote":"https://www.cam.ac.uk/sites/www.cam.ac.uk/files/news/research/news/gears-2.jpg","video":null,"channel":null,"channelUrl":null,"author":"freediver","authorUrl":"https://news.ycombinator.com/user?id=freediver","authorImage":null,"authorSlug":null,"score":189,"views":null,"sharedCount":null,"likeCount":null,"sharedContent":null,"parent":{"__typename":"HnJson","localize":[{"title":"首次在自然界中看到功能的 \"机械齿轮\"(2013)","locale":"zh"},{"title":"首次在自然界中看到功能的 \"機械齒輪\"(2013)","locale":"zh-Hant"}]}},{"__typename":"SocialMediaPost","id":"HnPost-26174480","excerpt":"","slug":"/hn/26174480","title":"Bitfinex, the Italian network behind the boss that makes Bitcoin tremble","date":"February 18, 2021","dateISO":"2021-02-18T13:34:42.182Z","datetime":"2021-02-18 13:34","tags":["story","Hacker News"],"image":null,"imageAlt":null,"provider":"Hacker News","thirdPartyId":"26174480","url":"https://news.ycombinator.com/item?id=26174480","originalUrl":"https://nicolaborzi.medium.com/the-lawless-rollercoaster-of-bitcoin-enriches-few-investors-while-many-often-lose-everything-f9b4789444c2","imageRemote":"https://miro.medium.com/max/850/1*CDRAj_ICfswFEX77ZpZl2w.jpeg","video":null,"channel":null,"channelUrl":null,"author":"graeme","authorUrl":"https://news.ycombinator.com/user?id=graeme","authorImage":null,"authorSlug":null,"score":208,"views":null,"sharedCount":null,"likeCount":null,"sharedContent":null,"parent":{"__typename":"HnJson","localize":[{"title":"让比特币颤抖的背后老板意大利网络Bitfinex","locale":"zh"},{"title":"讓比特幣顫抖的背後老闆意大利網絡Bitfinex","locale":"zh-Hant"}]}},{"__typename":"SocialMediaPost","id":"HnPost-26179032","excerpt":"","slug":"/hn/26179032","title":"Mitigating Memory Safety Issues in Open Source Software","date":"February 18, 2021","dateISO":"2021-02-18T13:34:42.182Z","datetime":"2021-02-18 13:34","tags":["story","Hacker News"],"image":null,"imageAlt":null,"provider":"Hacker News","thirdPartyId":"26179032","url":"https://news.ycombinator.com/item?id=26179032","originalUrl":"https://security.googleblog.com/2021/02/mitigating-memory-safety-issues-in-open.html","imageRemote":"http://2.bp.blogspot.com/-7bZ5EziliZQ/VynIS9F7OAI/AAAAAAAASQ0/BJFntXCAntstZe6hQuo5KTrhi5Dyz9yHgCK4B/s1600/googlelogo_color_200x200.png","video":null,"channel":null,"channelUrl":null,"author":"littlestymaar","authorUrl":"https://news.ycombinator.com/user?id=littlestymaar","authorImage":null,"authorSlug":null,"score":376,"views":null,"sharedCount":null,"likeCount":null,"sharedContent":null,"parent":{"__typename":"HnJson","localize":[{"title":"缓解开源软件中的内存安全问题","locale":"zh"},{"title":"緩解開源軟件中的內存安全問題","locale":"zh-Hant"}]}},{"__typename":"SocialMediaPost","id":"HnPost-26175894","excerpt":"","slug":"/hn/26175894","title":"Zsh Tricks to Blow Your Mind","date":"February 18, 2021","dateISO":"2021-02-18T11:09:30.593Z","datetime":"2021-02-18 11:09","tags":["story","Hacker News"],"image":null,"imageAlt":null,"provider":"Hacker News","thirdPartyId":"26175894","url":"https://news.ycombinator.com/item?id=26175894","originalUrl":"https://www.twilio.com/blog/zsh-tricks-to-blow-your-mind","imageRemote":"https://twilio-cms-prod.s3.amazonaws.com/original_images/Copy_of_Generic_Blog_Header_4_dfkSriJ.png","video":null,"channel":null,"channelUrl":null,"author":"2pEXgD0fZ5cF","authorUrl":"https://news.ycombinator.com/user?id=2pEXgD0fZ5cF","authorImage":null,"authorSlug":null,"score":346,"views":null,"sharedCount":null,"likeCount":null,"sharedContent":null,"parent":{"__typename":"HnJson","localize":[{"title":"Zsh技巧让你大开眼界","locale":"zh"},{"title":"Zsh技巧讓你大開眼界","locale":"zh-Hant"}]}},{"__typename":"SocialMediaPost","id":"HnPost-26174545","excerpt":"","slug":"/hn/26174545","title":"Electricity over $900/MWh in most of Western US now","date":"February 18, 2021","dateISO":"2021-02-18T07:03:25.986Z","datetime":"2021-02-18 07:03","tags":["story","Hacker News"],"image":null,"imageAlt":null,"provider":"Hacker News","thirdPartyId":"26174545","url":"https://news.ycombinator.com/item?id=26174545","originalUrl":"http://www.caiso.com/pricemap/Pages/default.aspx","imageRemote":"http://www.caiso.com/Style%20Library/caiso/images/favicon.ico?rev=41","video":null,"channel":null,"channelUrl":null,"author":"everybodyknows","authorUrl":"https://news.ycombinator.com/user?id=everybodyknows","authorImage":null,"authorSlug":null,"score":198,"views":null,"sharedCount":null,"likeCount":null,"sharedContent":null,"parent":{"__typename":"HnJson","localize":[{"title":"现在美国西部大部分地区的电费超过900美元/兆瓦时。","locale":"zh"},{"title":"現在美國西部大部分地區的電費超過900美元/兆瓦時。","locale":"zh-Hant"}]}},{"__typename":"SocialMediaPost","id":"HnPost-26160737","excerpt":"","slug":"/hn/26160737","title":"The Need to Remove Bad Management","date":"February 18, 2021","dateISO":"2021-02-18T05:24:11.698Z","datetime":"2021-02-18 05:24","tags":["story","Hacker News"],"image":null,"imageAlt":null,"provider":"Hacker News","thirdPartyId":"26160737","url":"https://news.ycombinator.com/item?id=26160737","originalUrl":"https://pedestrianobservations.com/2021/02/06/the-need-to-remove-bad-management/","imageRemote":"https://s0.wp.com/i/blank.jpg","video":null,"channel":null,"channelUrl":null,"author":"luu","authorUrl":"https://news.ycombinator.com/user?id=luu","authorImage":null,"authorSlug":null,"score":261,"views":null,"sharedCount":null,"likeCount":null,"sharedContent":null,"parent":{"__typename":"HnJson","localize":[{"title":"消除不良管理的必要性","locale":"zh"},{"title":"消除不良管理的必要性","locale":"zh-Hant"}]}},{"__typename":"SocialMediaPost","id":"HnPost-26171022","excerpt":"","slug":"/hn/26171022","title":"How this Ends","date":"February 18, 2021","dateISO":"2021-02-18T05:24:11.698Z","datetime":"2021-02-18 05:24","tags":["story","Hacker News"],"image":null,"imageAlt":null,"provider":"Hacker News","thirdPartyId":"26171022","url":"https://news.ycombinator.com/item?id=26171022","originalUrl":"https://avc.com/2021/02/how-this-ends/","imageRemote":"https://avc.com/content/uploads/2021/02/Screen-Shot-2021-02-16-at-6.11.06-AM.png","video":null,"channel":null,"channelUrl":null,"author":"simonebrunozzi","authorUrl":"https://news.ycombinator.com/user?id=simonebrunozzi","authorImage":null,"authorSlug":null,"score":298,"views":null,"sharedCount":null,"likeCount":null,"sharedContent":null,"parent":{"__typename":"HnJson","localize":[{"title":"如何结束","locale":"zh"},{"title":"如何結束","locale":"zh-Hant"}]}},{"__typename":"SocialMediaPost","id":"HnPost-26172758","excerpt":"","slug":"/hn/26172758","title":"Expanding our testing in San Francisco","date":"February 18, 2021","dateISO":"2021-02-18T04:52:33.371Z","datetime":"2021-02-18 04:52","tags":["story","Hacker News"],"image":null,"imageAlt":null,"provider":"Hacker News","thirdPartyId":"26172758","url":"https://news.ycombinator.com/item?id=26172758","originalUrl":"https://blog.waymo.com/2021/02/expanding-our-testing-in-san-francisco.html","imageRemote":"https://1.bp.blogspot.com/-3BJ9nJ5OUzw/YC1IhftVhzI/AAAAAAAAE6U/vUphOiGH0w8v3EOIcAR5Kumd7g_VFXkiACNcBGAsYHQ/s72-c/WaymoDriveratSFCrosswalk.jpg","video":null,"channel":null,"channelUrl":null,"author":"ra7","authorUrl":"https://news.ycombinator.com/user?id=ra7","authorImage":null,"authorSlug":null,"score":245,"views":null,"sharedCount":null,"likeCount":null,"sharedContent":null,"parent":{"__typename":"HnJson","localize":[{"title":"扩大我们在旧金山的测试","locale":"zh"},{"title":"擴大我們在舊金山的測試","locale":"zh-Hant"}]}},{"__typename":"SocialMediaPost","id":"HnPost-26174915","excerpt":"","slug":"/hn/26174915","title":"Starlink is now Accepting General Pre-orders","date":"February 18, 2021","dateISO":"2021-02-18T04:52:33.371Z","datetime":"2021-02-18 04:52","tags":["story","Hacker News"],"image":null,"imageAlt":null,"provider":"Hacker News","thirdPartyId":"26174915","url":"https://news.ycombinator.com/item?id=26174915","originalUrl":"https://www.starlink.com/","imageRemote":"https://www.starlink.com/assets/images/social/share.jpg","video":null,"channel":null,"channelUrl":null,"author":"sf_rob","authorUrl":"https://news.ycombinator.com/user?id=sf_rob","authorImage":null,"authorSlug":null,"score":739,"views":null,"sharedCount":null,"likeCount":null,"sharedContent":null,"parent":{"__typename":"HnJson","localize":[{"title":"星际链接》现已接受全面预购。","locale":"zh"},{"title":"星際鏈接》現已接受全面預購。","locale":"zh-Hant"}]}},{"__typename":"SocialMediaPost","id":"HnPost-26174269","excerpt":"","slug":"/hn/26174269","title":"Before buying a NYT subscription, see what it'll take to cancel it","date":"February 18, 2021","dateISO":"2021-02-18T03:40:00.771Z","datetime":"2021-02-18 03:40","tags":["story","Hacker News"],"image":null,"imageAlt":null,"provider":"Hacker News","thirdPartyId":"26174269","url":"https://news.ycombinator.com/item?id=26174269","originalUrl":"https://imgur.com/a/K8m7p2t","imageRemote":"https://i.imgur.com/aNTIRbd.png?fb","video":null,"channel":null,"channelUrl":null,"author":"jandll","authorUrl":"https://news.ycombinator.com/user?id=jandll","authorImage":null,"authorSlug":null,"score":1724,"views":null,"sharedCount":null,"likeCount":null,"sharedContent":null,"parent":{"__typename":"HnJson","localize":[{"title":"在购买《纽约时报》订阅版之前，先看看取消订阅需要什么条件","locale":"zh"},{"title":"在購買《紐約時報》訂閱版之前，先看看取消訂閱需要什麼條件","locale":"zh-Hant"}]}},{"__typename":"SocialMediaPost","id":"HnPost-26171008","excerpt":"","slug":"/hn/26171008","title":"Ask HN: Advice for finding an entry-level remote job?","date":"February 17, 2021","dateISO":"2021-02-17T23:57:07.860Z","datetime":"2021-02-17 23:57","tags":["story","ASK HN","Hacker News"],"image":null,"imageAlt":null,"provider":"Hacker News","thirdPartyId":"26171008","url":"https://news.ycombinator.com/item?id=26171008","originalUrl":"https://news.ycombinator.com/item?id=26171008","imageRemote":null,"video":null,"channel":"ASK HN","channelUrl":"https://news.ycombinator.com/ask","author":"AskHNremote2021","authorUrl":"https://news.ycombinator.com/user?id=AskHNremote2021","authorImage":null,"authorSlug":null,"score":719,"views":null,"sharedCount":null,"likeCount":null,"sharedContent":null,"parent":{"__typename":"HnJson","localize":[{"title":"问HN：找一份入门级远程工作的建议？","locale":"zh"},{"title":"問HN：找一份入門級遠程工作的建議？","locale":"zh-Hant"}]}},{"__typename":"SocialMediaPost","id":"HnPost-26166113","excerpt":"","slug":"/hn/26166113","title":"UK to launch taxpayer-funded high-risk tech research agency exempt from FOI","date":"February 17, 2021","dateISO":"2021-02-17T23:35:16.869Z","datetime":"2021-02-17 23:35","tags":["story","Hacker News"],"image":null,"imageAlt":null,"provider":"Hacker News","thirdPartyId":"26166113","url":"https://news.ycombinator.com/item?id=26166113","originalUrl":"https://www.thetimes.co.uk/article/secrecy-for-high-risk-tech-research-agency-aria-h72lql80k","imageRemote":"https://www.thetimes.co.uk/imageserver/image/%2Fmethode%2Ftimes%2Fprod%2Fweb%2Fbin%2F8db49ad2-7084-11eb-811f-f64a7b4cb430.jpg?crop=2748%2C1546%2C1005%2C16&resize=685","video":null,"channel":null,"channelUrl":null,"author":"cesarosum","authorUrl":"https://news.ycombinator.com/user?id=cesarosum","authorImage":null,"authorSlug":null,"score":191,"views":null,"sharedCount":null,"likeCount":null,"sharedContent":null,"parent":{"__typename":"HnJson","localize":[{"title":"英国将成立纳税人资助的高风险科技研究机构，豁免FOI。","locale":"zh"},{"title":"英國將成立納稅人資助的高風險科技研究機構，豁免FOI。","locale":"zh-Hant"}]}},{"__typename":"SocialMediaPost","id":"HnPost-26166716","excerpt":"","slug":"/hn/26166716","title":"Blitz.js Now in Beta (Batteries Included Framework Built on Next.js)","date":"February 17, 2021","dateISO":"2021-02-17T22:46:30.677Z","datetime":"2021-02-17 22:46","tags":["story","Hacker News"],"image":null,"imageAlt":null,"provider":"Hacker News","thirdPartyId":"26166716","url":"https://news.ycombinator.com/item?id=26166716","originalUrl":"https://blitzjs.com/","imageRemote":"https://blitzjs.com/social-homepage.png","video":null,"channel":null,"channelUrl":null,"author":"flybayer","authorUrl":"https://news.ycombinator.com/user?id=flybayer","authorImage":null,"authorSlug":null,"score":259,"views":null,"sharedCount":null,"likeCount":null,"sharedContent":null,"parent":{"__typename":"HnJson","localize":[{"title":"Blitz.js现已进入测试阶段（包含电池的框架建立在Next.js上）。","locale":"zh"},{"title":"Blitz.js現已進入測試階段（包含電池的框架建立在Next.js上）。","locale":"zh-Hant"}]}},{"__typename":"SocialMediaPost","id":"HnPost-26168304","excerpt":"","slug":"/hn/26168304","title":"Nx: Multi-dimensional tensors Elixir lib with multi-staged compilation (CPU/GPU)","date":"February 17, 2021","dateISO":"2021-02-17T22:46:30.677Z","datetime":"2021-02-17 22:46","tags":["story","Hacker News"],"image":null,"imageAlt":null,"provider":"Hacker News","thirdPartyId":"26168304","url":"https://news.ycombinator.com/item?id=26168304","originalUrl":"https://github.com/elixir-nx/nx/tree/main/nx","imageRemote":"https://avatars.githubusercontent.com/u/74903619?s=400&v=4","video":null,"channel":null,"channelUrl":null,"author":"thibaut_barrere","authorUrl":"https://news.ycombinator.com/user?id=thibaut_barrere","authorImage":null,"authorSlug":null,"score":270,"views":null,"sharedCount":null,"likeCount":null,"sharedContent":null,"parent":{"__typename":"HnJson","localize":[{"title":"Nx: 具有多阶段编译功能的多维时序Elixir库(CPU/GPU)","locale":"zh"},{"title":"Nx: 具有多階段編譯功能的多維時序Elixir庫(CPU/GPU)","locale":"zh-Hant"}]}},{"__typename":"SocialMediaPost","id":"HnPost-26165282","excerpt":"","slug":"/hn/26165282","title":"Soft Skills in Engineering Leadership","date":"February 17, 2021","dateISO":"2021-02-17T21:45:05.115Z","datetime":"2021-02-17 21:45","tags":["story","Hacker News"],"image":null,"imageAlt":null,"provider":"Hacker News","thirdPartyId":"26165282","url":"https://news.ycombinator.com/item?id=26165282","originalUrl":"https://codingsans.com/blog/leadership-soft-skills","imageRemote":"https://www.datocms-assets.com/33559/1613383191-csblogcover01gergely-hodicskanew.png?fit=max&fm=jpg&w=1000","video":null,"channel":null,"channelUrl":null,"author":"womitt","authorUrl":"https://news.ycombinator.com/user?id=womitt","authorImage":null,"authorSlug":null,"score":238,"views":null,"sharedCount":null,"likeCount":null,"sharedContent":null,"parent":{"__typename":"HnJson","localize":[{"title":"工程领导的软技能","locale":"zh"},{"title":"工程領導的軟技能","locale":"zh-Hant"}]}},{"__typename":"SocialMediaPost","id":"HnPost-26165800","excerpt":"","slug":"/hn/26165800","title":"'Sexual favours were the norm in music industry'","date":"February 17, 2021","dateISO":"2021-02-17T21:21:44.905Z","datetime":"2021-02-17 21:21","tags":["story","Hacker News"],"image":null,"imageAlt":null,"provider":"Hacker News","thirdPartyId":"26165800","url":"https://news.ycombinator.com/item?id=26165800","originalUrl":"https://www.bbc.com/news/entertainment-arts-56029660","imageRemote":"https://ichef.bbci.co.uk/news/1024/branded_news/17547/production/_116995559_gettyimages-84883712_cut.jpg","video":null,"channel":null,"channelUrl":null,"author":"RickJWagner","authorUrl":"https://news.ycombinator.com/user?id=RickJWagner","authorImage":null,"authorSlug":null,"score":356,"views":null,"sharedCount":null,"likeCount":null,"sharedContent":null,"parent":{"__typename":"HnJson","localize":[{"title":"\"性爱是音乐界的常态","locale":"zh"},{"title":"\"性愛是音樂界的常態","locale":"zh-Hant"}]}},{"__typename":"SocialMediaPost","id":"HnPost-26169747","excerpt":"","slug":"/hn/26169747","title":"Visualization of 40M Cell Towers","date":"February 17, 2021","dateISO":"2021-02-17T21:21:44.905Z","datetime":"2021-02-17 21:21","tags":["story","Hacker News"],"image":null,"imageAlt":null,"provider":"Hacker News","thirdPartyId":"26169747","url":"https://news.ycombinator.com/item?id=26169747","originalUrl":"https://alpercinar.com/open-cell-id/","imageRemote":"https://alpercinar.com/open-cell-id/summary.png","video":null,"channel":null,"channelUrl":null,"author":"alprc","authorUrl":"https://news.ycombinator.com/user?id=alprc","authorImage":null,"authorSlug":null,"score":481,"views":null,"sharedCount":null,"likeCount":null,"sharedContent":null,"parent":{"__typename":"HnJson","localize":[{"title":"40M电池塔的可视化","locale":"zh"},{"title":"40M電池塔的可視化","locale":"zh-Hant"}]}},{"__typename":"SocialMediaPost","id":"HnPost-26169886","excerpt":"","slug":"/hn/26169886","title":"Changes to sharing and viewing news on Facebook in Australia","date":"February 17, 2021","dateISO":"2021-02-17T21:21:44.905Z","datetime":"2021-02-17 21:21","tags":["story","Hacker News"],"image":null,"imageAlt":null,"provider":"Hacker News","thirdPartyId":"26169886","url":"https://news.ycombinator.com/item?id=26169886","originalUrl":"https://about.fb.com/news/2021/02/changes-to-sharing-and-viewing-news-on-facebook-in-australia/","imageRemote":"https://about.fb.com/wp-content/uploads/2019/11/FB_Newsroom_Social.png?w=1200","video":null,"channel":null,"channelUrl":null,"author":"justinv","authorUrl":"https://news.ycombinator.com/user?id=justinv","authorImage":null,"authorSlug":null,"score":361,"views":null,"sharedCount":null,"likeCount":null,"sharedContent":null,"parent":{"__typename":"HnJson","localize":[{"title":"澳大利亚Facebook上分享和查看新闻的变化","locale":"zh"},{"title":"澳大利亞Facebook上分享和查看新聞的變化","locale":"zh-Hant"}]}},{"__typename":"SocialMediaPost","id":"HnPost-26165390","excerpt":"","slug":"/hn/26165390","title":"Quad9 public DNS moves to Switzerland","date":"February 17, 2021","dateISO":"2021-02-17T21:01:02.979Z","datetime":"2021-02-17 21:01","tags":["story","Hacker News"],"image":null,"imageAlt":null,"provider":"Hacker News","thirdPartyId":"26165390","url":"https://news.ycombinator.com/item?id=26165390","originalUrl":"https://www.quad9.net/news/blog/quad9-public-domain-name-service-moves-to-switzerland-for-maximum-internet-privacy-protection/","imageRemote":"https://www.quad9.net/uploads/V10_2x_65239ac8db.jpg","video":null,"channel":null,"channelUrl":null,"author":"chronogram","authorUrl":"https://news.ycombinator.com/user?id=chronogram","authorImage":null,"authorSlug":null,"score":191,"views":null,"sharedCount":null,"likeCount":null,"sharedContent":null,"parent":{"__typename":"HnJson","localize":[{"title":"Quad9公共DNS移至瑞士","locale":"zh"},{"title":"Quad9公共DNS移至瑞士","locale":"zh-Hant"}]}},{"__typename":"SocialMediaPost","id":"HnPost-26165357","excerpt":"","slug":"/hn/26165357","title":"WebKit Quirks","date":"February 17, 2021","dateISO":"2021-02-17T20:24:40.291Z","datetime":"2021-02-17 20:24","tags":["story","Hacker News"],"image":null,"imageAlt":null,"provider":"Hacker News","thirdPartyId":"26165357","url":"https://news.ycombinator.com/item?id=26165357","originalUrl":"https://github.com/WebKit/WebKit/blob/main/Source/WebCore/page/Quirks.cpp","imageRemote":"https://avatars.githubusercontent.com/u/6458?s=400&v=4","video":null,"channel":null,"channelUrl":null,"author":"momonga","authorUrl":"https://news.ycombinator.com/user?id=momonga","authorImage":null,"authorSlug":null,"score":193,"views":null,"sharedCount":null,"likeCount":null,"sharedContent":null,"parent":{"__typename":"HnJson","localize":[{"title":"WebKit的怪癖","locale":"zh"},{"title":"WebKit的怪癖","locale":"zh-Hant"}]}}]}},"pageContext":{"basePath":"/","pageType":"tag","tag":"Hacker News","tagsFilter":{"id":{"glob":"!*Post-1"}},"filter":{"id":{"glob":"!*Post-1"},"tags":{"eq":"Hacker News"}},"limit":25,"skip":1250,"total":3105,"totalPages":125,"currentPage":51,"maxWidth":1024,"maxHeight":512,"locale":"zh","hrefLang":"zh-Hans","originalPath":"/tags/hacker-news/page/51","dateFormat":"YYYY-MM-DD"}},"staticQueryHashes":["1239077767","2506312863","2744905544","3025052997","3493603132","3493603132","3513215887","386998304"]}