{"componentChunkName":"component---gatsby-theme-buzzing-src-gatsby-theme-timeline-templates-posts-query-js","path":"/zh-Hant/page/66","result":{"data":{"site":{"siteMetadata":{"title":"Reddit 热门","description":"用中文浏览Reddit热门内容","social":[{"name":"Reddit","url":"https://www.reddit.com/","external":true,"prefetch":null},{"name":"GitHub","url":"https://github.com/gatsbyjs","external":null,"prefetch":null}],"menuLinks":[{"name":"每周精选","url":"/issues","external":null,"prefetch":null},{"name":"RSS","url":"/rss.xml","external":null,"prefetch":false}],"localize":[{"locale":"en","title":"Buzzing on Reddit","description":"See what's buzzing on Reddit in your native language","social":[{"name":"Reddit","url":"https://www.reddit.com/","external":true,"prefetch":null}],"menuLinks":[{"name":"Weekly Selection","url":"/issues","external":null,"prefetch":null},{"name":"RSS","url":"/rss.xml","external":null,"prefetch":false}]},{"locale":"zh-Hant","title":"Reddit 熱門","description":"用中文瀏覽Reddit熱門內容","social":null,"menuLinks":null}]}},"tagsGroup":{"group":[{"fieldValue":"ASK HN","totalCount":18},{"fieldValue":"Bitcoin","totalCount":3},{"fieldValue":"Hacker News","totalCount":796},{"fieldValue":"Poll","totalCount":1},{"fieldValue":"Show HN","totalCount":31},{"fieldValue":"investing","totalCount":166},{"fieldValue":"poll","totalCount":1},{"fieldValue":"reddit","totalCount":590},{"fieldValue":"science","totalCount":1},{"fieldValue":"stocks","totalCount":275},{"fieldValue":"story","totalCount":795},{"fieldValue":"tweet","totalCount":242},{"fieldValue":"wallstreetbets","totalCount":149}]},"allBlogPost":{"nodes":[{"__typename":"SocialMediaPost","id":"TweetPost-1328472534178738182","excerpt":"","slug":"/tweet/1328472534178738182","title":"Wut https://t.co/WSn3u179pS","date":"November 16, 2020","dateISO":"2020-11-16T22:58:28.000Z","datetime":"2020-11-16 22:58","tags":["tweet"],"image":null,"imageAlt":"Tweet Image","provider":"Twitter","thirdPartyId":"1328472534178738182","url":"https://twitter.com/michaelbatnick/statuses/1328472534178738182","originalUrl":null,"imageRemote":"https://pbs.twimg.com/media/Em-uWtoWMAIXCFz.jpg","video":null,"channel":null,"channelUrl":null,"author":"Michael Batnick","authorUrl":"https://twitter.com/michaelbatnick","authorImage":{"childImageSharp":{"fixed":{"base64":"data:image/jpeg;base64,/9j/2wBDABALDA4MChAODQ4SERATGCgaGBYWGDEjJR0oOjM9PDkzODdASFxOQERXRTc4UG1RV19iZ2hnPk1xeXBkeFxlZ2P/2wBDARESEhgVGC8aGi9jQjhCY2NjY2NjY2NjY2NjY2NjY2NjY2NjY2NjY2NjY2NjY2NjY2NjY2NjY2NjY2NjY2NjY2P/wgARCAAUABQDASIAAhEBAxEB/8QAGAABAAMBAAAAAAAAAAAAAAAAAAEDBAL/xAAUAQEAAAAAAAAAAAAAAAAAAAAA/9oADAMBAAIQAxAAAAGNuWoucjACsH//xAAbEAACAgMBAAAAAAAAAAAAAAABAgADEBEiEv/aAAgBAQABBQIxtYu8VBbVVQdxurrFUKh5/8QAFBEBAAAAAAAAAAAAAAAAAAAAIP/aAAgBAwEBPwEf/8QAFBEBAAAAAAAAAAAAAAAAAAAAIP/aAAgBAgEBPwEf/8QAHBAAAQQDAQAAAAAAAAAAAAAAAQACECERUXLh/9oACAEBAAY/AvFUC3ErqL2nYEf/xAAdEAEAAwABBQAAAAAAAAAAAAABABEhMRBBUXGB/9oACAEBAAE/Ia8RZqEM6O4Q2hJa1deYAsSYefH5FABGd8D7n//aAAwDAQACAAMAAAAQIw88/8QAFBEBAAAAAAAAAAAAAAAAAAAAIP/aAAgBAwEBPxAf/8QAFBEBAAAAAAAAAAAAAAAAAAAAIP/aAAgBAgEBPxAf/8QAHRABAQEAAgIDAAAAAAAAAAAAAREAIUExcVFhkf/aAAgBAQABPxAkKCk7YVQFJ06FfeGRWAofmQuAw5Q81PepmH7zk4UMfgyY2oAS8c5OgMo3/9k=","width":48,"height":48,"src":"/static/306bb4ace8827b52461381b81e1a5577/ffcc9/rNWwlpQL.jpg","srcSet":"/static/306bb4ace8827b52461381b81e1a5577/ffcc9/rNWwlpQL.jpg 1x,\n/static/306bb4ace8827b52461381b81e1a5577/3e51d/rNWwlpQL.jpg 1.5x,\n/static/306bb4ace8827b52461381b81e1a5577/eee8e/rNWwlpQL.jpg 2x"}}},"authorSlug":"michaelbatnick","score":581,"views":null,"sharedCount":15,"likeCount":551,"sharedContent":null,"parent":{"__typename":"TweetJson","localize":[{"locale":"zh","full_text":"WUT https://t.co/WSn3u179pS","quoted_status_full_text":null,"retweeted_status_full_text":null},{"locale":"zh-Hant","full_text":"WUT https://t.co/WSn3u179pS","quoted_status_full_text":null,"retweeted_status_full_text":null}]}},{"__typename":"SocialMediaPost","id":"TweetPost-1327597383472046081","excerpt":"","slug":"/tweet/1327597383472046081","title":"How I Invest My Money\n\nhttps://t.co/fVv7VyvMly","date":"November 14, 2020","dateISO":"2020-11-14T13:00:56.000Z","datetime":"2020-11-14 13:00","tags":["tweet"],"image":null,"imageAlt":null,"provider":"Twitter","thirdPartyId":"1327597383472046081","url":"https://twitter.com/michaelbatnick/statuses/1327597383472046081","originalUrl":null,"imageRemote":null,"video":null,"channel":null,"channelUrl":null,"author":"Michael Batnick","authorUrl":"https://twitter.com/michaelbatnick","authorImage":{"childImageSharp":{"fixed":{"base64":"data:image/jpeg;base64,/9j/2wBDABALDA4MChAODQ4SERATGCgaGBYWGDEjJR0oOjM9PDkzODdASFxOQERXRTc4UG1RV19iZ2hnPk1xeXBkeFxlZ2P/2wBDARESEhgVGC8aGi9jQjhCY2NjY2NjY2NjY2NjY2NjY2NjY2NjY2NjY2NjY2NjY2NjY2NjY2NjY2NjY2NjY2NjY2P/wgARCAAUABQDASIAAhEBAxEB/8QAGAABAAMBAAAAAAAAAAAAAAAAAAEDBAL/xAAUAQEAAAAAAAAAAAAAAAAAAAAA/9oADAMBAAIQAxAAAAGNuWoucjACsH//xAAbEAACAgMBAAAAAAAAAAAAAAABAgADEBEiEv/aAAgBAQABBQIxtYu8VBbVVQdxurrFUKh5/8QAFBEBAAAAAAAAAAAAAAAAAAAAIP/aAAgBAwEBPwEf/8QAFBEBAAAAAAAAAAAAAAAAAAAAIP/aAAgBAgEBPwEf/8QAHBAAAQQDAQAAAAAAAAAAAAAAAQACECERUXLh/9oACAEBAAY/AvFUC3ErqL2nYEf/xAAdEAEAAwABBQAAAAAAAAAAAAABABEhMRBBUXGB/9oACAEBAAE/Ia8RZqEM6O4Q2hJa1deYAsSYefH5FABGd8D7n//aAAwDAQACAAMAAAAQIw88/8QAFBEBAAAAAAAAAAAAAAAAAAAAIP/aAAgBAwEBPxAf/8QAFBEBAAAAAAAAAAAAAAAAAAAAIP/aAAgBAgEBPxAf/8QAHRABAQEAAgIDAAAAAAAAAAAAAREAIUExcVFhkf/aAAgBAQABPxAkKCk7YVQFJ06FfeGRWAofmQuAw5Q81PepmH7zk4UMfgyY2oAS8c5OgMo3/9k=","width":48,"height":48,"src":"/static/306bb4ace8827b52461381b81e1a5577/ffcc9/rNWwlpQL.jpg","srcSet":"/static/306bb4ace8827b52461381b81e1a5577/ffcc9/rNWwlpQL.jpg 1x,\n/static/306bb4ace8827b52461381b81e1a5577/3e51d/rNWwlpQL.jpg 1.5x,\n/static/306bb4ace8827b52461381b81e1a5577/eee8e/rNWwlpQL.jpg 2x"}}},"authorSlug":"michaelbatnick","score":438,"views":null,"sharedCount":26,"likeCount":386,"sharedContent":null,"parent":{"__typename":"TweetJson","localize":[{"locale":"zh","full_text":"我如何投资我的钱\n\nhttps://t.co/fVv7VyvMly","quoted_status_full_text":null,"retweeted_status_full_text":null},{"locale":"zh-Hant","full_text":"我如何投資我的錢\n\nhttps://t.co/fVv7VyvMly","quoted_status_full_text":null,"retweeted_status_full_text":null}]}},{"__typename":"SocialMediaPost","id":"TweetPost-1325792060566286337","excerpt":"","slug":"/tweet/1325792060566286337","title":"Leisure and hospitality stocks are gonna go nuts.\n\nFour seasons total landscaping  upgraded to five seasons. +15% pre market.","date":"November 09, 2020","dateISO":"2020-11-09T13:27:13.000Z","datetime":"2020-11-09 13:27","tags":["tweet"],"image":null,"imageAlt":null,"provider":"Twitter","thirdPartyId":"1325792060566286337","url":"https://twitter.com/michaelbatnick/statuses/1325792060566286337","originalUrl":null,"imageRemote":null,"video":null,"channel":null,"channelUrl":null,"author":"Michael Batnick","authorUrl":"https://twitter.com/michaelbatnick","authorImage":{"childImageSharp":{"fixed":{"base64":"data:image/jpeg;base64,/9j/2wBDABALDA4MChAODQ4SERATGCgaGBYWGDEjJR0oOjM9PDkzODdASFxOQERXRTc4UG1RV19iZ2hnPk1xeXBkeFxlZ2P/2wBDARESEhgVGC8aGi9jQjhCY2NjY2NjY2NjY2NjY2NjY2NjY2NjY2NjY2NjY2NjY2NjY2NjY2NjY2NjY2NjY2NjY2P/wgARCAAUABQDASIAAhEBAxEB/8QAGAABAAMBAAAAAAAAAAAAAAAAAAEDBAL/xAAUAQEAAAAAAAAAAAAAAAAAAAAA/9oADAMBAAIQAxAAAAGNuWoucjACsH//xAAbEAACAgMBAAAAAAAAAAAAAAABAgADEBEiEv/aAAgBAQABBQIxtYu8VBbVVQdxurrFUKh5/8QAFBEBAAAAAAAAAAAAAAAAAAAAIP/aAAgBAwEBPwEf/8QAFBEBAAAAAAAAAAAAAAAAAAAAIP/aAAgBAgEBPwEf/8QAHBAAAQQDAQAAAAAAAAAAAAAAAQACECERUXLh/9oACAEBAAY/AvFUC3ErqL2nYEf/xAAdEAEAAwABBQAAAAAAAAAAAAABABEhMRBBUXGB/9oACAEBAAE/Ia8RZqEM6O4Q2hJa1deYAsSYefH5FABGd8D7n//aAAwDAQACAAMAAAAQIw88/8QAFBEBAAAAAAAAAAAAAAAAAAAAIP/aAAgBAwEBPxAf/8QAFBEBAAAAAAAAAAAAAAAAAAAAIP/aAAgBAgEBPxAf/8QAHRABAQEAAgIDAAAAAAAAAAAAAREAIUExcVFhkf/aAAgBAQABPxAkKCk7YVQFJ06FfeGRWAofmQuAw5Q81PepmH7zk4UMfgyY2oAS8c5OgMo3/9k=","width":48,"height":48,"src":"/static/306bb4ace8827b52461381b81e1a5577/ffcc9/rNWwlpQL.jpg","srcSet":"/static/306bb4ace8827b52461381b81e1a5577/ffcc9/rNWwlpQL.jpg 1x,\n/static/306bb4ace8827b52461381b81e1a5577/3e51d/rNWwlpQL.jpg 1.5x,\n/static/306bb4ace8827b52461381b81e1a5577/eee8e/rNWwlpQL.jpg 2x"}}},"authorSlug":"michaelbatnick","score":1044,"views":null,"sharedCount":40,"likeCount":964,"sharedContent":null,"parent":{"__typename":"TweetJson","localize":[{"locale":"zh","full_text":"休闲和酒店类股要疯了。\n\n四季总园林绿化升级为五季。上市前+15%。","quoted_status_full_text":null,"retweeted_status_full_text":null},{"locale":"zh-Hant","full_text":"休閒和酒店類股要瘋了。\n\n四季總園林綠化升級爲五季。上市前+15%。","quoted_status_full_text":null,"retweeted_status_full_text":null}]}}]}},"pageContext":{"basePath":"/","pageType":"home","tagsFilter":{"id":{"glob":"!*Post-1"}},"filter":{"id":{"glob":"!*Post-1"}},"limit":25,"skip":1625,"totalPages":66,"total":1628,"currentPage":66,"maxWidth":1024,"maxHeight":512,"locale":"zh-Hant","hrefLang":"zh-Hant","originalPath":"/page/66","dateFormat":"YYYY-MM-DD"}},"staticQueryHashes":["1239077767","2506312863","2744905544","3493603132","3493603132","386998304","4203388852"]}