{"componentChunkName":"component---gatsby-theme-buzzing-src-gatsby-theme-timeline-templates-posts-query-js","path":"/en/tags/hacker-news/page/2","result":{"data":{"site":{"siteMetadata":{"title":"Reddit 热门","description":"用中文浏览Reddit热门内容","social":[{"name":"Twitter","url":"https://twitter.com/gatsbyjs","external":null,"prefetch":null},{"name":"GitHub","url":"https://github.com/gatsbyjs","external":null,"prefetch":null}],"menuLinks":[],"localize":[{"locale":"en","title":"Buzzing on Reddit","description":"See what's buzzing on Reddit in your native language","social":[{"name":"Reddit","url":"https://www.reddit.com/","external":true,"prefetch":null}],"menuLinks":[{"name":"Weekly Selection","url":"/issues","external":null,"prefetch":null},{"name":"RSS","url":"/rss.xml","external":null,"prefetch":false}]},{"locale":"zh-Hant","title":"Reddit 熱門","description":"用中文瀏覽Reddit熱門內容","social":null,"menuLinks":null}]}},"tagsGroup":{"group":[{"fieldValue":"ASK HN","totalCount":36},{"fieldValue":"Bitcoin","totalCount":4},{"fieldValue":"Hacker News","totalCount":2185},{"fieldValue":"Poll","totalCount":1},{"fieldValue":"SaveAMC","totalCount":1},{"fieldValue":"Show HN","totalCount":76},{"fieldValue":"bitcoin","totalCount":3},{"fieldValue":"investing","totalCount":686},{"fieldValue":"poll","totalCount":1},{"fieldValue":"reddit","totalCount":4012},{"fieldValue":"science","totalCount":1},{"fieldValue":"stocks","totalCount":1322},{"fieldValue":"story","totalCount":2184},{"fieldValue":"tweet","totalCount":697},{"fieldValue":"wallstreetbets","totalCount":2004}]},"allBlogPost":{"nodes":[{"__typename":"SocialMediaPost","id":"HnPost-26316793","excerpt":"","slug":"/hn/26316793","title":"Launch HN: Athens Research (YC W21) – Open-Source Roam Research","date":"March 02, 2021","dateISO":"2021-03-02T19:41:12.186Z","datetime":"2021-03-02 19:41","tags":["story","Hacker News"],"image":null,"imageAlt":null,"provider":"Hacker News","thirdPartyId":"26316793","url":"https://news.ycombinator.com/item?id=26316793","originalUrl":"https://news.ycombinator.com/item?id=26316793","imageRemote":null,"video":null,"channel":null,"channelUrl":null,"author":"tangjeff0","authorUrl":"https://news.ycombinator.com/user?id=tangjeff0","authorImage":null,"authorSlug":null,"score":161,"views":null,"sharedCount":null,"likeCount":null,"sharedContent":null,"parent":{"__typename":"HnJson","localize":[{"title":"启动HN：雅典研究（YC W21）----开源漫游研究。","locale":"zh"},{"title":"啓動HN：雅典研究（YC W21）----開源漫遊研究。","locale":"zh-Hant"}]}},{"__typename":"SocialMediaPost","id":"HnPost-26314610","excerpt":"","slug":"/hn/26314610","title":"Trust: The Need for Public Understanding of How Science Works","date":"March 02, 2021","dateISO":"2021-03-02T19:17:38.202Z","datetime":"2021-03-02 19:17","tags":["story","Hacker News"],"image":null,"imageAlt":null,"provider":"Hacker News","thirdPartyId":"26314610","url":"https://news.ycombinator.com/item?id=26314610","originalUrl":"https://onlinelibrary.wiley.com/doi/full/10.1002/hast.1227","imageRemote":"https://onlinelibrary.wiley.com/pb-assets/hub-assets/pericles/logo-header-1526603583437.png","video":null,"channel":null,"channelUrl":null,"author":"XzetaU8","authorUrl":"https://news.ycombinator.com/user?id=XzetaU8","authorImage":null,"authorSlug":null,"score":163,"views":null,"sharedCount":null,"likeCount":null,"sharedContent":null,"parent":{"__typename":"HnJson","localize":[{"title":"信任。需要让公众了解科学的运作方式","locale":"zh"},{"title":"信任。需要讓公衆瞭解科學的運作方式","locale":"zh-Hant"}]}},{"__typename":"SocialMediaPost","id":"HnPost-26315368","excerpt":"","slug":"/hn/26315368","title":"Using Ghidra to Reverse Engineer Super Monkey Ball for GameCube","date":"March 02, 2021","dateISO":"2021-03-02T18:42:44.771Z","datetime":"2021-03-02 18:42","tags":["story","Hacker News"],"image":null,"imageAlt":null,"provider":"Hacker News","thirdPartyId":"26315368","url":"https://news.ycombinator.com/item?id=26315368","originalUrl":"https://www.smokingonabike.com/2021/02/28/hacking-super-monkey-ball-part-2-decompilation-with-ghidra/","imageRemote":"https://www.smokingonabike.com/wp-content/uploads/2021/02/smb_blog2_7-300x145.png","video":null,"channel":null,"channelUrl":null,"author":"coldpie","authorUrl":"https://news.ycombinator.com/user?id=coldpie","authorImage":null,"authorSlug":null,"score":165,"views":null,"sharedCount":null,"likeCount":null,"sharedContent":null,"parent":{"__typename":"HnJson","localize":[{"title":"使用Ghidra对GameCube的超级猴球进行逆向工程。","locale":"zh"},{"title":"使用Ghidra對GameCube的超級猴球進行逆向工程。","locale":"zh-Hant"}]}},{"__typename":"SocialMediaPost","id":"HnPost-26315923","excerpt":"","slug":"/hn/26315923","title":"Bitcoin Is Time","date":"March 02, 2021","dateISO":"2021-03-02T18:28:30.023Z","datetime":"2021-03-02 18:28","tags":["story","Hacker News"],"image":null,"imageAlt":null,"provider":"Hacker News","thirdPartyId":"26315923","url":"https://news.ycombinator.com/item?id=26315923","originalUrl":"https://dergigi.com/2021/01/14/bitcoin-is-time/","imageRemote":"https://dergigi.com/assets/images/bitcoin-is-time.jpg","video":null,"channel":null,"channelUrl":null,"author":"taylorwc","authorUrl":"https://news.ycombinator.com/user?id=taylorwc","authorImage":null,"authorSlug":null,"score":169,"views":null,"sharedCount":null,"likeCount":null,"sharedContent":null,"parent":{"__typename":"HnJson","localize":[{"title":"比特币是时间","locale":"zh"},{"title":"比特幣是時間","locale":"zh-Hant"}]}},{"__typename":"SocialMediaPost","id":"HnPost-26316401","excerpt":"","slug":"/hn/26316401","title":"ClickHouse as an alternative to Elasticsearch for log storage and analysis","date":"March 02, 2021","dateISO":"2021-03-02T18:28:30.023Z","datetime":"2021-03-02 18:28","tags":["story","Hacker News"],"image":null,"imageAlt":null,"provider":"Hacker News","thirdPartyId":"26316401","url":"https://news.ycombinator.com/item?id=26316401","originalUrl":"https://pixeljets.com/blog/clickhouse-vs-elasticsearch/","imageRemote":"https://pixeljets.com/blog/content/images/2021/02/demo2--1-.gif","video":null,"channel":null,"channelUrl":null,"author":"jetter","authorUrl":"https://news.ycombinator.com/user?id=jetter","authorImage":null,"authorSlug":null,"score":160,"views":null,"sharedCount":null,"likeCount":null,"sharedContent":null,"parent":{"__typename":"HnJson","localize":[{"title":"ClickHouse作为替代Elasticsearch的日志存储和分析。","locale":"zh"},{"title":"ClickHouse作爲替代Elasticsearch的日誌存儲和分析。","locale":"zh-Hant"}]}},{"__typename":"SocialMediaPost","id":"HnPost-26315695","excerpt":"","slug":"/hn/26315695","title":"SSH and User-Mode IP WireGuard","date":"March 02, 2021","dateISO":"2021-03-02T17:49:36.407Z","datetime":"2021-03-02 17:49","tags":["story","Hacker News"],"image":null,"imageAlt":null,"provider":"Hacker News","thirdPartyId":"26315695","url":"https://news.ycombinator.com/item?id=26315695","originalUrl":"https://fly.io/blog/ssh-and-user-mode-ip-wireguard/","imageRemote":"https://fly.io/public/images/flyctl-preview.png","video":null,"channel":null,"channelUrl":null,"author":"BCM43","authorUrl":"https://news.ycombinator.com/user?id=BCM43","authorImage":null,"authorSlug":null,"score":165,"views":null,"sharedCount":null,"likeCount":null,"sharedContent":null,"parent":{"__typename":"HnJson","localize":[{"title":"SSH和用户模式IP WireGuard","locale":"zh"},{"title":"SSH和用戶模式IP WireGuard","locale":"zh-Hant"}]}},{"__typename":"SocialMediaPost","id":"HnPost-26311801","excerpt":"","slug":"/hn/26311801","title":"Element Matrix Services Announces Element Home","date":"March 02, 2021","dateISO":"2021-03-02T15:37:52.782Z","datetime":"2021-03-02 15:37","tags":["story","Hacker News"],"image":null,"imageAlt":null,"provider":"Hacker News","thirdPartyId":"26311801","url":"https://news.ycombinator.com/item?id=26311801","originalUrl":"https://element.io/blog/element-home/","imageRemote":"https://element.io/blog/content/images/2021/02/Element-Home.png","video":null,"channel":null,"channelUrl":null,"author":"decrypt","authorUrl":"https://news.ycombinator.com/user?id=decrypt","authorImage":null,"authorSlug":null,"score":160,"views":null,"sharedCount":null,"likeCount":null,"sharedContent":null,"parent":{"__typename":"HnJson","localize":[{"title":"元素矩阵服务发布Element Home","locale":"zh"},{"title":"元素矩陣服務發佈Element Home","locale":"zh-Hant"}]}},{"__typename":"SocialMediaPost","id":"HnPost-26311722","excerpt":"","slug":"/hn/26311722","title":"How to Read Assembly Language","date":"March 02, 2021","dateISO":"2021-03-02T12:55:05.296Z","datetime":"2021-03-02 12:55","tags":["story","Hacker News"],"image":null,"imageAlt":null,"provider":"Hacker News","thirdPartyId":"26311722","url":"https://news.ycombinator.com/item?id=26311722","originalUrl":"https://wolchok.org/posts/how-to-read-assembly-language/","imageRemote":null,"video":null,"channel":null,"channelUrl":null,"author":"sidcool","authorUrl":"https://news.ycombinator.com/user?id=sidcool","authorImage":null,"authorSlug":null,"score":161,"views":null,"sharedCount":null,"likeCount":null,"sharedContent":null,"parent":{"__typename":"HnJson","localize":[{"title":"如何阅读汇编语言","locale":"zh"},{"title":"如何閱讀彙編語言","locale":"zh-Hant"}]}},{"__typename":"SocialMediaPost","id":"HnPost-26313254","excerpt":"","slug":"/hn/26313254","title":"LastPass Android app has got 7 trackers in it","date":"March 02, 2021","dateISO":"2021-03-02T12:55:05.296Z","datetime":"2021-03-02 12:55","tags":["story","Hacker News"],"image":null,"imageAlt":null,"provider":"Hacker News","thirdPartyId":"26313254","url":"https://news.ycombinator.com/item?id=26313254","originalUrl":"https://reports.exodus-privacy.eu.org/en/reports/165465/","imageRemote":"https://reports.exodus-privacy.eu.org/static/img/logo_purple_small.png","video":null,"channel":null,"channelUrl":null,"author":"aquir","authorUrl":"https://news.ycombinator.com/user?id=aquir","authorImage":null,"authorSlug":null,"score":163,"views":null,"sharedCount":null,"likeCount":null,"sharedContent":null,"parent":{"__typename":"HnJson","localize":[{"title":"LastPass安卓应用有7个追踪器在里面","locale":"zh"},{"title":"LastPass安卓應用有7個追蹤器在裏面","locale":"zh-Hant"}]}},{"__typename":"SocialMediaPost","id":"HnPost-26312516","excerpt":"","slug":"/hn/26312516","title":"Speed Is the Killer Feature","date":"March 02, 2021","dateISO":"2021-03-02T11:58:49.172Z","datetime":"2021-03-02 11:58","tags":["story","Hacker News"],"image":null,"imageAlt":null,"provider":"Hacker News","thirdPartyId":"26312516","url":"https://news.ycombinator.com/item?id=26312516","originalUrl":"https://bdickason.com/posts/speed-is-the-killer-feature/","imageRemote":"http://bdickason.com/static/posts/speed-is-the-killer-feature/speed-keanu-sandra.png","video":null,"channel":null,"channelUrl":null,"author":"bdickason","authorUrl":"https://news.ycombinator.com/user?id=bdickason","authorImage":null,"authorSlug":null,"score":165,"views":null,"sharedCount":null,"likeCount":null,"sharedContent":null,"parent":{"__typename":"HnJson","localize":[{"title":"速度是杀手锏","locale":"zh"},{"title":"速度是殺手鐗","locale":"zh-Hant"}]}},{"__typename":"SocialMediaPost","id":"HnPost-26310461","excerpt":"","slug":"/hn/26310461","title":"WSL Hello Sudo: Face Recognition of Windows Hello on Windows Subsystem for Linux","date":"March 02, 2021","dateISO":"2021-03-02T11:08:12.787Z","datetime":"2021-03-02 11:08","tags":["story","Hacker News"],"image":null,"imageAlt":null,"provider":"Hacker News","thirdPartyId":"26310461","url":"https://news.ycombinator.com/item?id=26310461","originalUrl":"https://github.com/nullpo-head/WSL-Hello-sudo","imageRemote":"https://avatars.githubusercontent.com/u/2311662?s=400&v=4","video":null,"channel":null,"channelUrl":null,"author":"cglong","authorUrl":"https://news.ycombinator.com/user?id=cglong","authorImage":null,"authorSlug":null,"score":160,"views":null,"sharedCount":null,"likeCount":null,"sharedContent":null,"parent":{"__typename":"HnJson","localize":[{"title":"WSL Hello Sudo: 在Linux的Windows子系统上进行Windows Hello的人脸识别。","locale":"zh"},{"title":"WSL Hello Sudo: 在Linux的Windows子系統上進行Windows Hello的人臉識別。","locale":"zh-Hant"}]}},{"__typename":"SocialMediaPost","id":"HnPost-26309925","excerpt":"","slug":"/hn/26309925","title":"Gab has been hacked and 70GB of data leaked","date":"March 02, 2021","dateISO":"2021-03-02T10:20:17.238Z","datetime":"2021-03-02 10:20","tags":["story","Hacker News"],"image":null,"imageAlt":null,"provider":"Hacker News","thirdPartyId":"26309925","url":"https://news.ycombinator.com/item?id=26309925","originalUrl":"https://arstechnica.com/information-technology/2021/03/gab-the-far-right-website-has-been-hacked-and-70gb-of-data-leaked/","imageRemote":"https://cdn.arstechnica.net/wp-content/uploads/2021/03/gab-760x380.png","video":null,"channel":null,"channelUrl":null,"author":"daenney","authorUrl":"https://news.ycombinator.com/user?id=daenney","authorImage":null,"authorSlug":null,"score":164,"views":null,"sharedCount":null,"likeCount":null,"sharedContent":null,"parent":{"__typename":"HnJson","localize":[{"title":"Gab被黑客攻击，70GB数据泄露。","locale":"zh"},{"title":"Gab被黑客攻擊，70GB數據泄露。","locale":"zh-Hant"}]}},{"__typename":"SocialMediaPost","id":"HnPost-26300191","excerpt":"","slug":"/hn/26300191","title":"Internet Archive Infrastructure","date":"March 02, 2021","dateISO":"2021-03-02T09:13:38.557Z","datetime":"2021-03-02 09:13","tags":["story","Hacker News"],"image":null,"imageAlt":null,"provider":"Hacker News","thirdPartyId":"26300191","url":"https://news.ycombinator.com/item?id=26300191","originalUrl":"https://archive.org/details/jonah-edwards-presentation","imageRemote":"https://archive.org/download/jonah-edwards-presentation/jonah-edwards-presentation.thumbs/jonah-edwards-presentation_000100.jpg","video":null,"channel":null,"channelUrl":null,"author":"mynameisbort","authorUrl":"https://news.ycombinator.com/user?id=mynameisbort","authorImage":null,"authorSlug":null,"score":165,"views":null,"sharedCount":null,"likeCount":null,"sharedContent":null,"parent":{"__typename":"HnJson","localize":[{"title":"互联网档案基础设施","locale":"zh"},{"title":"互聯網檔案基礎設施","locale":"zh-Hant"}]}},{"__typename":"SocialMediaPost","id":"HnPost-26311522","excerpt":"","slug":"/hn/26311522","title":"Publisher Nacon Cracked and Pirated Our Game: The Sinking City","date":"March 02, 2021","dateISO":"2021-03-02T09:13:38.552Z","datetime":"2021-03-02 09:13","tags":["story","Hacker News"],"image":null,"imageAlt":null,"provider":"Hacker News","thirdPartyId":"26311522","url":"https://news.ycombinator.com/item?id=26311522","originalUrl":"https://frogwares.com/how-nacon-cracked-and-pirated-the-sinking-city/","imageRemote":"https://frogwares.com/wp-content/uploads/2021/03/WindowsEditor_OriginalVersionOfPKG-1024x485.jpg","video":null,"channel":null,"channelUrl":null,"author":"jccalhoun","authorUrl":"https://news.ycombinator.com/user?id=jccalhoun","authorImage":null,"authorSlug":null,"score":162,"views":null,"sharedCount":null,"likeCount":null,"sharedContent":null,"parent":{"__typename":"HnJson","localize":[{"title":"发行商Nacon破解并盗用了我们的游戏。沉沦之城","locale":"zh"},{"title":"發行商Nacon破解並盜用了我們的遊戲。沉淪之城","locale":"zh-Hant"}]}},{"__typename":"SocialMediaPost","id":"HnPost-26310292","excerpt":"","slug":"/hn/26310292","title":"U.S. asks Google for detailed search data in antitrust case","date":"March 02, 2021","dateISO":"2021-03-02T08:47:51.997Z","datetime":"2021-03-02 08:47","tags":["story","Hacker News"],"image":null,"imageAlt":null,"provider":"Hacker News","thirdPartyId":"26310292","url":"https://news.ycombinator.com/item?id=26310292","originalUrl":"https://www.bnnbloomberg.ca/u-s-asks-google-for-detailed-search-data-in-antitrust-case-1.1570497","imageRemote":"http://www.bnnbloomberg.ca/polopoly_fs/1.1570498!/fileimage/httpImage/image.jpg_gen/derivatives/landscape_620/the-google-logo-on-an-iphone-photographer-gabby-jones-bloomberg.jpg","video":null,"channel":null,"channelUrl":null,"author":"johncena33","authorUrl":"https://news.ycombinator.com/user?id=johncena33","authorImage":null,"authorSlug":null,"score":161,"views":null,"sharedCount":null,"likeCount":null,"sharedContent":null,"parent":{"__typename":"HnJson","localize":[{"title":"美国在反垄断案中要求谷歌提供详细的搜索数据。","locale":"zh"},{"title":"美國在反壟斷案中要求谷歌提供詳細的搜索數據。","locale":"zh-Hant"}]}},{"__typename":"SocialMediaPost","id":"HnPost-26308241","excerpt":"","slug":"/hn/26308241","title":"Why does an A note sound different across instruments?","date":"March 02, 2021","dateISO":"2021-03-02T08:27:47.845Z","datetime":"2021-03-02 08:27","tags":["story","Hacker News"],"image":null,"imageAlt":null,"provider":"Hacker News","thirdPartyId":"26308241","url":"https://news.ycombinator.com/item?id=26308241","originalUrl":"https://omarshehata.me/notebook/exploring_sound","imageRemote":null,"video":null,"channel":null,"channelUrl":null,"author":"OmarShehata","authorUrl":"https://news.ycombinator.com/user?id=OmarShehata","authorImage":null,"authorSlug":null,"score":160,"views":null,"sharedCount":null,"likeCount":null,"sharedContent":null,"parent":{"__typename":"HnJson","localize":[{"title":"为什么A音符在不同乐器中的声音不同？","locale":"zh"},{"title":"爲什麼A音符在不同樂器中的聲音不同？","locale":"zh-Hant"}]}},{"__typename":"SocialMediaPost","id":"HnPost-26310094","excerpt":"","slug":"/hn/26310094","title":"Peer-to-Peer Databases for the Decentralized Web","date":"March 02, 2021","dateISO":"2021-03-02T07:51:07.129Z","datetime":"2021-03-02 07:51","tags":["story","Hacker News"],"image":null,"imageAlt":null,"provider":"Hacker News","thirdPartyId":"26310094","url":"https://news.ycombinator.com/item?id=26310094","originalUrl":"https://orbitdb.org/","imageRemote":"https://orbitdb.org/images/orbit_db_logo_color.png","video":null,"channel":null,"channelUrl":null,"author":"fossislife","authorUrl":"https://news.ycombinator.com/user?id=fossislife","authorImage":null,"authorSlug":null,"score":160,"views":null,"sharedCount":null,"likeCount":null,"sharedContent":null,"parent":{"__typename":"HnJson","localize":[{"title":"分散式网络的点对点数据库。","locale":"zh"},{"title":"分散式網絡的點對點數據庫。","locale":"zh-Hant"}]}},{"__typename":"SocialMediaPost","id":"HnPost-26304568","excerpt":"","slug":"/hn/26304568","title":"Bastion – A Highly-Available Distributed Fault-Tolerant Runtime for Rust","date":"March 02, 2021","dateISO":"2021-03-02T07:44:11.820Z","datetime":"2021-03-02 07:44","tags":["story","Hacker News"],"image":null,"imageAlt":null,"provider":"Hacker News","thirdPartyId":"26304568","url":"https://news.ycombinator.com/item?id=26304568","originalUrl":"https://github.com/bastion-rs/bastion/blob/master/README.md","imageRemote":"https://avatars.githubusercontent.com/u/54285802?s=400&v=4","video":null,"channel":null,"channelUrl":null,"author":"ibraheemdev","authorUrl":"https://news.ycombinator.com/user?id=ibraheemdev","authorImage":null,"authorSlug":null,"score":161,"views":null,"sharedCount":null,"likeCount":null,"sharedContent":null,"parent":{"__typename":"HnJson","localize":[{"title":"堡垒 - Rust的高可用性分布式容错运行时","locale":"zh"},{"title":"堡壘 - Rust的高可用性分佈式容錯運行時","locale":"zh-Hant"}]}},{"__typename":"SocialMediaPost","id":"HnPost-26292627","excerpt":"","slug":"/hn/26292627","title":"Foundational Distributed Systems Papers","date":"March 02, 2021","dateISO":"2021-03-02T05:23:07.338Z","datetime":"2021-03-02 05:23","tags":["story","Hacker News"],"image":null,"imageAlt":null,"provider":"Hacker News","thirdPartyId":"26292627","url":"https://news.ycombinator.com/item?id=26292627","originalUrl":"http://muratbuffalo.blogspot.com/2021/02/foundational-distributed-systems-papers.html","imageRemote":"https://lh3.googleusercontent.com/ULB6iBuCeTVvSjjjU1A-O8e9ZpVba6uvyhtiWRti_rBAs9yMYOFBujxriJRZ-A=w1200","video":null,"channel":null,"channelUrl":null,"author":"mastabadtomm","authorUrl":"https://news.ycombinator.com/user?id=mastabadtomm","authorImage":null,"authorSlug":null,"score":164,"views":null,"sharedCount":null,"likeCount":null,"sharedContent":null,"parent":{"__typename":"HnJson","localize":[{"title":"基础分布式系统论文","locale":"zh"},{"title":"基礎分佈式系統論文","locale":"zh-Hant"}]}},{"__typename":"SocialMediaPost","id":"HnPost-26309367","excerpt":"","slug":"/hn/26309367","title":"Low Earth Orbit Visualization","date":"March 02, 2021","dateISO":"2021-03-02T05:23:07.338Z","datetime":"2021-03-02 05:23","tags":["story","Hacker News"],"image":null,"imageAlt":null,"provider":"Hacker News","thirdPartyId":"26309367","url":"https://news.ycombinator.com/item?id=26309367","originalUrl":"https://platform.leolabs.space/visualization","imageRemote":"https://platform-cdn.leolabs.space/static/images/leolabs-logo-transparent-black.png?7695d25588fc9609abbe4013a6aa41652e904c10","video":null,"channel":null,"channelUrl":null,"author":"vortex_ape","authorUrl":"https://news.ycombinator.com/user?id=vortex_ape","authorImage":null,"authorSlug":null,"score":163,"views":null,"sharedCount":null,"likeCount":null,"sharedContent":null,"parent":{"__typename":"HnJson","localize":[{"title":"低地球轨道可视化","locale":"zh"},{"title":"低地球軌道可視化","locale":"zh-Hant"}]}},{"__typename":"SocialMediaPost","id":"HnPost-26302455","excerpt":"","slug":"/hn/26302455","title":"Your Thinking Rate Is Fixed","date":"March 02, 2021","dateISO":"2021-03-02T04:28:49.021Z","datetime":"2021-03-02 04:28","tags":["story","Hacker News"],"image":null,"imageAlt":null,"provider":"Hacker News","thirdPartyId":"26302455","url":"https://news.ycombinator.com/item?id=26302455","originalUrl":"https://fs.blog/2021/03/thinking-rate-fixed/","imageRemote":"https://149366099.v2.pressablecdn.com/wp-content/uploads/2021/03/Your-Thinking-Rate-Is-Fixed.png","video":null,"channel":null,"channelUrl":null,"author":"feross","authorUrl":"https://news.ycombinator.com/user?id=feross","authorImage":null,"authorSlug":null,"score":160,"views":null,"sharedCount":null,"likeCount":null,"sharedContent":null,"parent":{"__typename":"HnJson","localize":[{"title":"你的思维速度是固定的","locale":"zh"},{"title":"你的思維速度是固定的","locale":"zh-Hant"}]}},{"__typename":"SocialMediaPost","id":"HnPost-26310817","excerpt":"","slug":"/hn/26310817","title":"Apple Card Disabled My iCloud, App Store, and Apple ID Accounts","date":"March 02, 2021","dateISO":"2021-03-02T02:58:19.449Z","datetime":"2021-03-02 02:58","tags":["story","Hacker News"],"image":null,"imageAlt":null,"provider":"Hacker News","thirdPartyId":"26310817","url":"https://news.ycombinator.com/item?id=26310817","originalUrl":"https://dcurt.is/apple-card-can-disable-your-icloud-account","imageRemote":"https://svbtleusercontent.com/qest5zgsbPZ36zkUp7CHo40xspap.png","video":null,"channel":null,"channelUrl":null,"author":"sp332","authorUrl":"https://news.ycombinator.com/user?id=sp332","authorImage":null,"authorSlug":null,"score":163,"views":null,"sharedCount":null,"likeCount":null,"sharedContent":null,"parent":{"__typename":"HnJson","localize":[{"title":"苹果卡禁用 我的iCloud、App Store和Apple ID账户。","locale":"zh"},{"title":"蘋果卡禁用 我的iCloud、App Store和Apple ID賬戶。","locale":"zh-Hant"}]}},{"__typename":"SocialMediaPost","id":"HnPost-26300229","excerpt":"","slug":"/hn/26300229","title":"Lyra audio codec enables high-quality voice calls at 3 kbps bitrate","date":"March 02, 2021","dateISO":"2021-03-02T00:50:08.149Z","datetime":"2021-03-02 00:50","tags":["story","Hacker News"],"image":null,"imageAlt":null,"provider":"Hacker News","thirdPartyId":"26300229","url":"https://news.ycombinator.com/item?id=26300229","originalUrl":"https://www.cnx-software.com/2021/02/28/lyra-audio-codec-enables-3-kbps-bitrate-for-high-quality-voice-calls/","imageRemote":"https://www.cnx-software.com/wp-content/uploads/2021/02/Lyra-vs-Opus-vs-Speex.jpg","video":null,"channel":null,"channelUrl":null,"author":"homarp","authorUrl":"https://news.ycombinator.com/user?id=homarp","authorImage":null,"authorSlug":null,"score":169,"views":null,"sharedCount":null,"likeCount":null,"sharedContent":null,"parent":{"__typename":"HnJson","localize":[{"title":"Lyra音频编解码器可实现3 kbps比特率的高质量语音通话。","locale":"zh"},{"title":"Lyra音頻編解碼器可實現3 kbps比特率的高質量語音通話。","locale":"zh-Hant"}]}},{"__typename":"SocialMediaPost","id":"HnPost-26298022","excerpt":"","slug":"/hn/26298022","title":"OMU – “One Man Unix”","date":"March 01, 2021","dateISO":"2021-03-01T22:28:39.536Z","datetime":"2021-03-01 22:28","tags":["story","Hacker News"],"image":null,"imageAlt":null,"provider":"Hacker News","thirdPartyId":"26298022","url":"https://news.ycombinator.com/item?id=26298022","originalUrl":"http://www.pix.net/mirrored/discordia.org.uk/~steve/omu.html","imageRemote":"http://www.pix.net/mirrored/discordia.org.uk/~steve/omu.jpg","video":null,"channel":null,"channelUrl":null,"author":"marcodiego","authorUrl":"https://news.ycombinator.com/user?id=marcodiego","authorImage":null,"authorSlug":null,"score":160,"views":null,"sharedCount":null,"likeCount":null,"sharedContent":null,"parent":{"__typename":"HnJson","localize":[{"title":"OMU--\"一个人的Unix\"","locale":"zh"},{"title":"OMU--\"一個人的Unix\"","locale":"zh-Hant"}]}},{"__typename":"SocialMediaPost","id":"HnPost-26301326","excerpt":"","slug":"/hn/26301326","title":"Spectre exploits in the \"wild\"","date":"March 01, 2021","dateISO":"2021-03-01T22:28:39.536Z","datetime":"2021-03-01 22:28","tags":["story","Hacker News"],"image":null,"imageAlt":null,"provider":"Hacker News","thirdPartyId":"26301326","url":"https://news.ycombinator.com/item?id=26301326","originalUrl":"https://dustri.org/b/spectre-exploits-in-the-wild.html","imageRemote":null,"video":null,"channel":null,"channelUrl":null,"author":"todsacerdoti","authorUrl":"https://news.ycombinator.com/user?id=todsacerdoti","authorImage":null,"authorSlug":null,"score":162,"views":null,"sharedCount":null,"likeCount":null,"sharedContent":null,"parent":{"__typename":"HnJson","localize":[{"title":"幽灵在 \"野外 \"的漏洞","locale":"zh"},{"title":"幽靈在 \"野外 \"的漏洞","locale":"zh-Hant"}]}}]}},"pageContext":{"basePath":"/","pageType":"tag","tag":"Hacker News","tagsFilter":{"id":{"glob":"!*Post-1"}},"filter":{"id":{"glob":"!*Post-1"},"tags":{"eq":"Hacker News"}},"limit":25,"skip":25,"total":2185,"totalPages":88,"currentPage":2,"maxWidth":1024,"maxHeight":512,"locale":"en","hrefLang":"en-US","originalPath":"/tags/hacker-news/page/2","dateFormat":"MM/DD/YYYY"}},"staticQueryHashes":["1239077767","2506312863","2744905544","3025052997","3493603132","3493603132","3513215887","386998304"]}