{"componentChunkName":"component---gatsby-theme-buzzing-src-gatsby-theme-timeline-templates-posts-query-js","path":"/en/tags/story/page/22","result":{"data":{"site":{"siteMetadata":{"title":"Reddit 热门","description":"用中文浏览Reddit热门内容","social":[{"name":"Reddit","url":"https://www.reddit.com/","external":true,"prefetch":null},{"name":"GitHub","url":"https://github.com/gatsbyjs","external":null,"prefetch":null}],"menuLinks":[{"name":"每周精选","url":"/issues","external":null,"prefetch":null},{"name":"RSS","url":"/rss.xml","external":null,"prefetch":false}],"localize":[{"locale":"en","title":"Buzzing on Reddit","description":"See what's buzzing on Reddit in your native language","social":[{"name":"Reddit","url":"https://www.reddit.com/","external":true,"prefetch":null}],"menuLinks":[{"name":"Weekly Selection","url":"/issues","external":null,"prefetch":null},{"name":"RSS","url":"/rss.xml","external":null,"prefetch":false}]},{"locale":"zh-Hant","title":"Reddit 熱門","description":"用中文瀏覽Reddit熱門內容","social":null,"menuLinks":null}]}},"tagsGroup":{"group":[{"fieldValue":"ASK HN","totalCount":19},{"fieldValue":"Bitcoin","totalCount":3},{"fieldValue":"Hacker News","totalCount":801},{"fieldValue":"Poll","totalCount":1},{"fieldValue":"Show HN","totalCount":31},{"fieldValue":"investing","totalCount":166},{"fieldValue":"poll","totalCount":1},{"fieldValue":"reddit","totalCount":594},{"fieldValue":"science","totalCount":1},{"fieldValue":"stocks","totalCount":277},{"fieldValue":"story","totalCount":800},{"fieldValue":"tweet","totalCount":243},{"fieldValue":"wallstreetbets","totalCount":151}]},"allBlogPost":{"nodes":[{"__typename":"SocialMediaPost","id":"HnPost-25509265","excerpt":"","slug":"/hn/25509265","title":"WiFi 6 gets 1.34 Gbps on the Raspberry Pi CM4","date":"December 22, 2020","dateISO":"2020-12-22T21:27:14.051Z","datetime":"2020-12-22 21:27","tags":["story","Hacker News"],"image":null,"imageAlt":null,"provider":"Hacker News","thirdPartyId":"25509265","url":"https://news.ycombinator.com/item?id=25509265","originalUrl":"https://www.jeffgeerling.com/blog/2020/wifi-6-gets-134-gbps-on-raspberry-pi-cm4","imageRemote":"https://www.jeffgeerling.com/sites/default/files/images/edup-in-raspberry-pi-wifi-6-compute-module-4-pcie-io-board.jpeg","video":null,"channel":null,"channelUrl":null,"author":"geerlingguy","authorUrl":"https://news.ycombinator.com/user?id=geerlingguy","authorImage":null,"authorSlug":null,"score":311,"views":null,"sharedCount":null,"likeCount":null,"sharedContent":null,"parent":{"__typename":"HnJson","localize":[{"title":"WiFi 6在Raspberry Pi CM4上获得1.34 Gbps","locale":"zh"},{"title":"WiFi 6在Raspberry Pi CM4上獲得1.34 Gbps","locale":"zh-Hant"}]}},{"__typename":"SocialMediaPost","id":"HnPost-25510351","excerpt":"","slug":"/hn/25510351","title":"A janitor making $4/hr walked into a Fortune 500 company boardroom","date":"December 22, 2020","dateISO":"2020-12-22T21:27:14.051Z","datetime":"2020-12-22 21:27","tags":["story","Hacker News"],"image":null,"imageAlt":null,"provider":"Hacker News","thirdPartyId":"25510351","url":"https://news.ycombinator.com/item?id=25510351","originalUrl":"https://twitter.com/ankithharathi/status/1341193051184611331","imageRemote":null,"video":null,"channel":null,"channelUrl":null,"author":"80mph","authorUrl":"https://news.ycombinator.com/user?id=80mph","authorImage":null,"authorSlug":null,"score":406,"views":null,"sharedCount":null,"likeCount":null,"sharedContent":null,"parent":{"__typename":"HnJson","localize":[{"title":"一名时薪4美元的看门人走进一家财富500强公司的董事会会议室。","locale":"zh"},{"title":"一名時薪4美元的看門人走進一家財富500強公司的董事會會議室。","locale":"zh-Hant"}]}},{"__typename":"SocialMediaPost","id":"HnPost-25510562","excerpt":"","slug":"/hn/25510562","title":"U.S. approves NYSE listing plan to cut out Wall Street middlemen","date":"December 22, 2020","dateISO":"2020-12-22T21:27:14.051Z","datetime":"2020-12-22 21:27","tags":["story","Hacker News"],"image":null,"imageAlt":null,"provider":"Hacker News","thirdPartyId":"25510562","url":"https://news.ycombinator.com/item?id=25510562","originalUrl":"https://www.reuters.com/article/us-usa-sec-nyse/u-s-approves-nyse-listing-plan-to-cut-out-wall-street-middlemen-idUSKBN28W2D4","imageRemote":"https://static.reuters.com/resources/r/?m=02&d=20201223&t=2&i=1545506016&r=LYNXMPEGBL1EK&w=800","video":null,"channel":null,"channelUrl":null,"author":"pseudolus","authorUrl":"https://news.ycombinator.com/user?id=pseudolus","authorImage":null,"authorSlug":null,"score":521,"views":null,"sharedCount":null,"likeCount":null,"sharedContent":null,"parent":{"__typename":"HnJson","localize":[{"title":"美国批准纽约证交所上市计划以剔除华尔街中间商","locale":"zh"},{"title":"美國批准紐約證交所上市計劃以剔除華爾街中間商","locale":"zh-Hant"}]}},{"__typename":"SocialMediaPost","id":"HnPost-25508777","excerpt":"","slug":"/hn/25508777","title":"What Does Privacy Mean Under Surveillance Capitalism?","date":"December 22, 2020","dateISO":"2020-12-22T20:49:44.232Z","datetime":"2020-12-22 20:49","tags":["story","Hacker News"],"image":null,"imageAlt":null,"provider":"Hacker News","thirdPartyId":"25508777","url":"https://news.ycombinator.com/item?id=25508777","originalUrl":"https://lithub.com/what-does-privacy-really-mean-under-surveillance-capitalism/","imageRemote":"https://lithub.com/wp-content/uploads/2020/09/surveillance.jpg","video":null,"channel":null,"channelUrl":null,"author":"freddyym","authorUrl":"https://news.ycombinator.com/user?id=freddyym","authorImage":null,"authorSlug":null,"score":242,"views":null,"sharedCount":null,"likeCount":null,"sharedContent":null,"parent":{"__typename":"HnJson","localize":[{"title":"在监视资本主义下，隐私意味着什么？","locale":"zh"},{"title":"在監視資本主義下，隱私意味着什麼？","locale":"zh-Hant"}]}},{"__typename":"SocialMediaPost","id":"HnPost-25506371","excerpt":"","slug":"/hn/25506371","title":"You Should Write a User Guide","date":"December 22, 2020","dateISO":"2020-12-22T20:29:45.063Z","datetime":"2020-12-22 20:29","tags":["story","Hacker News"],"image":null,"imageAlt":null,"provider":"Hacker News","thirdPartyId":"25506371","url":"https://news.ycombinator.com/item?id=25506371","originalUrl":"https://boringstartupstuff.com/newsletter/dec-22nd-2020-write-a-user-guide","imageRemote":"https://boringstartupstuff.comhttps://cdn.buttercms.com/aTVVdqU8Qm6LDym8h0q6","video":null,"channel":null,"channelUrl":null,"author":"opsgal","authorUrl":"https://news.ycombinator.com/user?id=opsgal","authorImage":null,"authorSlug":null,"score":143,"views":null,"sharedCount":null,"likeCount":null,"sharedContent":null,"parent":{"__typename":"HnJson","localize":[{"title":"你应该写一本用户指南","locale":"zh"},{"title":"你應該寫一本用戶指南","locale":"zh-Hant"}]}},{"__typename":"SocialMediaPost","id":"HnPost-25507413","excerpt":"","slug":"/hn/25507413","title":"Should you Work Hard? (2019)","date":"December 22, 2020","dateISO":"2020-12-22T20:29:45.063Z","datetime":"2020-12-22 20:29","tags":["story","Hacker News"],"image":null,"imageAlt":null,"provider":"Hacker News","thirdPartyId":"25507413","url":"https://news.ycombinator.com/item?id=25507413","originalUrl":"https://jacobobryant.com/post/2019/alignment/","imageRemote":"https://jacobobryant.com/img/main_square.jpg","video":null,"channel":null,"channelUrl":null,"author":"axiomdata316","authorUrl":"https://news.ycombinator.com/user?id=axiomdata316","authorImage":null,"authorSlug":null,"score":107,"views":null,"sharedCount":null,"likeCount":null,"sharedContent":null,"parent":{"__typename":"HnJson","localize":[{"title":"你应该努力工作吗？(2019年)","locale":"zh"},{"title":"你應該努力工作嗎？(2019年)","locale":"zh-Hant"}]}},{"__typename":"SocialMediaPost","id":"HnPost-25508394","excerpt":"","slug":"/hn/25508394","title":"Tibor Gánti may have found the key to the origins of life","date":"December 22, 2020","dateISO":"2020-12-22T20:29:45.063Z","datetime":"2020-12-22 20:29","tags":["story","Hacker News"],"image":null,"imageAlt":null,"provider":"Hacker News","thirdPartyId":"25508394","url":"https://news.ycombinator.com/item?id=25508394","originalUrl":"https://www.nationalgeographic.com/science/2020/12/he-may-have-found-the-key-to-origins-of-life-tibor-ganti-chemoton","imageRemote":"https://www.nationalgeographic.com/content/dam/science/2020/12/08/-Tibor-Ganti/og-gantitibor-gulyaslaszlo.ngsversion.1607628120228.adapt.1900.1.jpg","video":null,"channel":null,"channelUrl":null,"author":"BlanketLogic","authorUrl":"https://news.ycombinator.com/user?id=BlanketLogic","authorImage":null,"authorSlug":null,"score":205,"views":null,"sharedCount":null,"likeCount":null,"sharedContent":null,"parent":{"__typename":"HnJson","localize":[{"title":"Tibor GáNTi可能已经找到了生命起源的钥匙","locale":"zh"},{"title":"Tibor GáNTi可能已經找到了生命起源的鑰匙","locale":"zh-Hant"}]}},{"__typename":"SocialMediaPost","id":"HnPost-25502828","excerpt":"","slug":"/hn/25502828","title":"This Community is Available in the App","date":"December 22, 2020","dateISO":"2020-12-22T19:49:44.595Z","datetime":"2020-12-22 19:49","tags":["story","Hacker News"],"image":null,"imageAlt":null,"provider":"Hacker News","thirdPartyId":"25502828","url":"https://news.ycombinator.com/item?id=25502828","originalUrl":"https://ruky.me/2020/12/22/this-community-is-available-in-the-app/","imageRemote":"https://ruky.me/wp-content/uploads/2020/12/15A7DE22-2C11-4D5A-A2EE-9CCE51B929B5.jpeg","video":null,"channel":null,"channelUrl":null,"author":"rukshn","authorUrl":"https://news.ycombinator.com/user?id=rukshn","authorImage":null,"authorSlug":null,"score":111,"views":null,"sharedCount":null,"likeCount":null,"sharedContent":null,"parent":{"__typename":"HnJson","localize":[{"title":"此社区在应用程序中可用","locale":"zh"},{"title":"此社區在應用程序中可用","locale":"zh-Hant"}]}},{"__typename":"SocialMediaPost","id":"HnPost-25508782","excerpt":"","slug":"/hn/25508782","title":"Nintendo “stalked” hackers with private investigators, coercing into settlements","date":"December 22, 2020","dateISO":"2020-12-22T19:32:18.724Z","datetime":"2020-12-22 19:32","tags":["story","Hacker News"],"image":null,"imageAlt":null,"provider":"Hacker News","thirdPartyId":"25508782","url":"https://news.ycombinator.com/item?id=25508782","originalUrl":"https://twitter.com/forestillusion/status/1341222991619792897","imageRemote":null,"video":null,"channel":null,"channelUrl":null,"author":"meibo","authorUrl":"https://news.ycombinator.com/user?id=meibo","authorImage":null,"authorSlug":null,"score":274,"views":null,"sharedCount":null,"likeCount":null,"sharedContent":null,"parent":{"__typename":"HnJson","localize":[{"title":"任天堂带着私家侦探“跟踪”黑客，强行达成和解","locale":"zh"},{"title":"任天堂帶着私家偵探“跟蹤”黑客，強行達成和解","locale":"zh-Hant"}]}},{"__typename":"SocialMediaPost","id":"HnPost-25506593","excerpt":"","slug":"/hn/25506593","title":"Ask HN: Co-founder wants me to leave but won't entertain a buy out offer","date":"December 22, 2020","dateISO":"2020-12-22T19:06:11.852Z","datetime":"2020-12-22 19:06","tags":["story","ASK HN","Hacker News"],"image":null,"imageAlt":null,"provider":"Hacker News","thirdPartyId":"25506593","url":"https://news.ycombinator.com/item?id=25506593","originalUrl":"https://news.ycombinator.com/item?id=25506593","imageRemote":null,"video":null,"channel":"ASK HN","channelUrl":"https://news.ycombinator.com/ask","author":"fortydegrees","authorUrl":"https://news.ycombinator.com/user?id=fortydegrees","authorImage":null,"authorSlug":null,"score":399,"views":null,"sharedCount":null,"likeCount":null,"sharedContent":null,"parent":{"__typename":"HnJson","localize":[{"title":"HN提问：联合创始人希望我离开，但不会考虑收购要约","locale":"zh"},{"title":"HN提問：聯合創始人希望我離開，但不會考慮收購要約","locale":"zh-Hant"}]}},{"__typename":"SocialMediaPost","id":"HnPost-25494583","excerpt":"","slug":"/hn/25494583","title":"Underwater Roundabout in the Faroe Islands","date":"December 22, 2020","dateISO":"2020-12-22T18:13:08.961Z","datetime":"2020-12-22 18:13","tags":["story","Hacker News"],"image":null,"imageAlt":null,"provider":"Hacker News","thirdPartyId":"25494583","url":"https://news.ycombinator.com/item?id=25494583","originalUrl":"https://www.bbc.com/news/world-europe-55195390","imageRemote":"https://ichef.bbci.co.uk/news/1024/branded_news/13394/production/_115804787_30nov20_75a6676.jpg","video":null,"channel":null,"channelUrl":null,"author":"lqet","authorUrl":"https://news.ycombinator.com/user?id=lqet","authorImage":null,"authorSlug":null,"score":156,"views":null,"sharedCount":null,"likeCount":null,"sharedContent":null,"parent":{"__typename":"HnJson","localize":[{"title":"法罗群岛的水下环岛","locale":"zh"},{"title":"法羅羣島的水下環島","locale":"zh-Hant"}]}},{"__typename":"SocialMediaPost","id":"HnPost-25504641","excerpt":"","slug":"/hn/25504641","title":"Why FSF Endorsing PureOS Matters","date":"December 22, 2020","dateISO":"2020-12-22T18:13:08.961Z","datetime":"2020-12-22 18:13","tags":["story","Hacker News"],"image":null,"imageAlt":null,"provider":"Hacker News","thirdPartyId":"25504641","url":"https://news.ycombinator.com/item?id=25504641","originalUrl":"https://puri.sm/posts/why-fsf-endorsing-pureos-matters/","imageRemote":"https://puri.sm/wp-content/uploads/2019/01/es-graphic04.jpg","video":null,"channel":null,"channelUrl":null,"author":"fsflover","authorUrl":"https://news.ycombinator.com/user?id=fsflover","authorImage":null,"authorSlug":null,"score":161,"views":null,"sharedCount":null,"likeCount":null,"sharedContent":null,"parent":{"__typename":"HnJson","localize":[{"title":"为什么FSF认可PureOS很重要","locale":"zh"},{"title":"爲什麼FSF認可PureOS很重要","locale":"zh-Hant"}]}},{"__typename":"SocialMediaPost","id":"HnPost-25504819","excerpt":"","slug":"/hn/25504819","title":"Thai baby elephant hit by motorcycle survives after receiving CPR","date":"December 22, 2020","dateISO":"2020-12-22T16:50:15.788Z","datetime":"2020-12-22 16:50","tags":["story","Hacker News"],"image":null,"imageAlt":null,"provider":"Hacker News","thirdPartyId":"25504819","url":"https://news.ycombinator.com/item?id=25504819","originalUrl":"https://www.reuters.com/article/us-thailand-accident-baby-elephant/thai-baby-elephant-hit-by-motorcycle-survives-after-receiving-cpr-idUSKBN28V1J8","imageRemote":"https://s1.reutersmedia.net/resources_v2/images/rcom-default.png?w=800","video":null,"channel":null,"channelUrl":null,"author":"billyharris","authorUrl":"https://news.ycombinator.com/user?id=billyharris","authorImage":null,"authorSlug":null,"score":111,"views":null,"sharedCount":null,"likeCount":null,"sharedContent":null,"parent":{"__typename":"HnJson","localize":[{"title":"被摩托车撞到的泰国小象在接受心肺复苏术后幸存下来","locale":"zh"},{"title":"被摩托車撞到的泰國小象在接受心肺復甦術後倖存下來","locale":"zh-Hant"}]}},{"__typename":"SocialMediaPost","id":"HnPost-25505874","excerpt":"","slug":"/hn/25505874","title":"Microsoft and Google join Facebook’s legal battle against NSO","date":"December 22, 2020","dateISO":"2020-12-22T16:50:15.788Z","datetime":"2020-12-22 16:50","tags":["story","Hacker News"],"image":null,"imageAlt":null,"provider":"Hacker News","thirdPartyId":"25505874","url":"https://news.ycombinator.com/item?id=25505874","originalUrl":"https://venturebeat.com/2020/12/22/microsoft-and-google-join-facebooks-legal-battle-against-hacking-company-nso/","imageRemote":"https://venturebeat.com/wp-content/uploads/2019/11/microsoft-1-e1580261336710.jpg?w=1200&strip=all","video":null,"channel":null,"channelUrl":null,"author":"KoftaBob","authorUrl":"https://news.ycombinator.com/user?id=KoftaBob","authorImage":null,"authorSlug":null,"score":180,"views":null,"sharedCount":null,"likeCount":null,"sharedContent":null,"parent":{"__typename":"HnJson","localize":[{"title":"微软和谷歌加入Facebook对NSO的法律战","locale":"zh"},{"title":"微軟和谷歌加入Facebook對NSO的法律戰","locale":"zh-Hant"}]}},{"__typename":"SocialMediaPost","id":"HnPost-25506007","excerpt":"","slug":"/hn/25506007","title":"2k Parents Demand Major Academic Publisher Drop Proctorio Surveillance Tech","date":"December 22, 2020","dateISO":"2020-12-22T16:50:15.788Z","datetime":"2020-12-22 16:50","tags":["story","Hacker News"],"image":null,"imageAlt":null,"provider":"Hacker News","thirdPartyId":"25506007","url":"https://news.ycombinator.com/item?id=25506007","originalUrl":"https://www.vice.com/en/article/88am8k/2000-parents-demand-major-academic-publisher-drop-proctorio-surveillance-tech","imageRemote":"https://video-images.vice.com/articles/5fdd22976819ad009684c617/lede/1608328081225-gettyimages-1230151269.jpeg?image-resize-opts=Y3JvcD0xeHc6MC44NzV4aDsweHcsMC4wODR4aCZyZXNpemU9MTIwMDoqJnJlc2l6ZT0xMjAwOio","video":null,"channel":null,"channelUrl":null,"author":"elsewhen","authorUrl":"https://news.ycombinator.com/user?id=elsewhen","authorImage":null,"authorSlug":null,"score":258,"views":null,"sharedCount":null,"likeCount":null,"sharedContent":null,"parent":{"__typename":"HnJson","localize":[{"title":"2000名家长要求主要学术出版商Drop Proctorio监视技术","locale":"zh"},{"title":"2000名家長要求主要學術出版商Drop Proctorio監視技術","locale":"zh-Hant"}]}},{"__typename":"SocialMediaPost","id":"HnPost-25505735","excerpt":"","slug":"/hn/25505735","title":"Bare-Metal Kubernetes with K3s","date":"December 22, 2020","dateISO":"2020-12-22T15:59:02.492Z","datetime":"2020-12-22 15:59","tags":["story","Hacker News"],"image":null,"imageAlt":null,"provider":"Hacker News","thirdPartyId":"25505735","url":"https://news.ycombinator.com/item?id=25505735","originalUrl":"https://blog.alexellis.io/bare-metal-kubernetes-with-k3s/","imageRemote":"https://blog.alexellis.io/content/images/2020/12/bare-metal-background.jpg","video":null,"channel":null,"channelUrl":null,"author":"alexellisuk","authorUrl":"https://news.ycombinator.com/user?id=alexellisuk","authorImage":null,"authorSlug":null,"score":189,"views":null,"sharedCount":null,"likeCount":null,"sharedContent":null,"parent":{"__typename":"HnJson","localize":[{"title":"带K3的裸机Kubernetes","locale":"zh"},{"title":"帶K3的裸機Kubernetes","locale":"zh-Hant"}]}},{"__typename":"SocialMediaPost","id":"HnPost-25506998","excerpt":"","slug":"/hn/25506998","title":"Illegal Streaming to be a felony soon","date":"December 22, 2020","dateISO":"2020-12-22T15:59:02.492Z","datetime":"2020-12-22 15:59","tags":["story","Hacker News"],"image":null,"imageAlt":null,"provider":"Hacker News","thirdPartyId":"25506998","url":"https://news.ycombinator.com/item?id=25506998","originalUrl":"https://www.tillis.senate.gov/2020/12/tillis-releases-text-of-bipartisan-legislation-to-fight-illegal-streaming-by-criminal-organizations","imageRemote":"https://www.tillis.senate.gov/services/images/177AD974-2828-450B-A4E8-3C772246B3DB/social","video":null,"channel":null,"channelUrl":null,"author":"totaldude87","authorUrl":"https://news.ycombinator.com/user?id=totaldude87","authorImage":null,"authorSlug":null,"score":525,"views":null,"sharedCount":null,"likeCount":null,"sharedContent":null,"parent":{"__typename":"HnJson","localize":[{"title":"非法流媒体很快将成为重罪","locale":"zh"},{"title":"非法流媒體很快將成爲重罪","locale":"zh-Hant"}]}},{"__typename":"SocialMediaPost","id":"HnPost-25505108","excerpt":"","slug":"/hn/25505108","title":"Microplastics found in the placentas of human fetuses","date":"December 22, 2020","dateISO":"2020-12-22T15:36:12.091Z","datetime":"2020-12-22 15:36","tags":["story","Hacker News"],"image":null,"imageAlt":null,"provider":"Hacker News","thirdPartyId":"25505108","url":"https://news.ycombinator.com/item?id=25505108","originalUrl":"https://www.theguardian.com/environment/2020/dec/22/microplastics-revealed-in-placentas-unborn-babies","imageRemote":"https://i.guim.co.uk/img/media/294635653dcf9c2e923a9f7a8d2c9eedf0344587/0_220_4199_2519/master/4199.jpg?width=1200&height=630&quality=85&auto=format&fit=crop&overlay-align=bottom%2Cleft&overlay-width=100p&overlay-base64=L2ltZy9zdGF0aWMvb3ZlcmxheXMvdGctZGVmYXVsdC5wbmc&enable=upscale&s=6ce15dc3fc4d81eee304a8639d5cf5d8","video":null,"channel":null,"channelUrl":null,"author":"samizdis","authorUrl":"https://news.ycombinator.com/user?id=samizdis","authorImage":null,"authorSlug":null,"score":207,"views":null,"sharedCount":null,"likeCount":null,"sharedContent":null,"parent":{"__typename":"HnJson","localize":[{"title":"在人类胎儿胎盘中发现的微塑料","locale":"zh"},{"title":"在人類胎兒胎盤中發現的微塑料","locale":"zh-Hant"}]}},{"__typename":"SocialMediaPost","id":"HnPost-25503210","excerpt":"","slug":"/hn/25503210","title":"Google, Facebook Agreed to Team Up Against Possible Antitrust Action","date":"December 22, 2020","dateISO":"2020-12-22T11:58:25.596Z","datetime":"2020-12-22 11:58","tags":["story","Hacker News"],"image":null,"imageAlt":null,"provider":"Hacker News","thirdPartyId":"25503210","url":"https://news.ycombinator.com/item?id=25503210","originalUrl":"https://www.wsj.com/articles/google-facebook-agreed-to-team-up-against-possible-antitrust-action-draft-lawsuit-says-11608612219","imageRemote":"https://images.wsj.net/im-276581/social","video":null,"channel":null,"channelUrl":null,"author":"Despegar","authorUrl":"https://news.ycombinator.com/user?id=Despegar","authorImage":null,"authorSlug":null,"score":213,"views":null,"sharedCount":null,"likeCount":null,"sharedContent":null,"parent":{"__typename":"HnJson","localize":[{"title":"谷歌，Facebook同意联手对抗可能的反垄断行动","locale":"zh"},{"title":"谷歌，Facebook同意聯手對抗可能的反壟斷行動","locale":"zh-Hant"}]}},{"__typename":"SocialMediaPost","id":"HnPost-25504771","excerpt":"","slug":"/hn/25504771","title":"Why can’t you buy a good webcam?","date":"December 22, 2020","dateISO":"2020-12-22T11:32:38.824Z","datetime":"2020-12-22 11:32","tags":["story","Hacker News"],"image":null,"imageAlt":null,"provider":"Hacker News","thirdPartyId":"25504771","url":"https://news.ycombinator.com/item?id=25504771","originalUrl":"https://vsevolod.net/good-webcams/","imageRemote":null,"video":null,"channel":null,"channelUrl":null,"author":"murkt","authorUrl":"https://news.ycombinator.com/user?id=murkt","authorImage":null,"authorSlug":null,"score":783,"views":null,"sharedCount":null,"likeCount":null,"sharedContent":null,"parent":{"__typename":"HnJson","localize":[{"title":"你为什么不能买个好的网络摄像头呢？","locale":"zh"},{"title":"你爲什麼不能買個好的網絡攝像頭呢？","locale":"zh-Hant"}]}},{"__typename":"SocialMediaPost","id":"HnPost-25493367","excerpt":"","slug":"/hn/25493367","title":"How the New Yorker Fell into the “Weird Japan” Trap","date":"December 22, 2020","dateISO":"2020-12-22T08:39:47.028Z","datetime":"2020-12-22 08:39","tags":["story","Hacker News"],"image":null,"imageAlt":null,"provider":"Hacker News","thirdPartyId":"25493367","url":"https://news.ycombinator.com/item?id=25493367","originalUrl":"https://newrepublic.com/article/160595/new-yorker-japan-rent-family-fabricated","imageRemote":"https://images.newrepublic.com/b8b0066a23bddcd50ae24fe697e184fc67d9fb97.jpeg?w=1109&h=577&crop=faces&fit=crop&fm=jpg","video":null,"channel":null,"channelUrl":null,"author":"frxx","authorUrl":"https://news.ycombinator.com/user?id=frxx","authorImage":null,"authorSlug":null,"score":131,"views":null,"sharedCount":null,"likeCount":null,"sharedContent":null,"parent":{"__typename":"HnJson","localize":[{"title":"“纽约客”是如何落入“怪异日本”陷阱的","locale":"zh"},{"title":"“紐約客”是如何落入“怪異日本”陷阱的","locale":"zh-Hant"}]}},{"__typename":"SocialMediaPost","id":"HnPost-25500815","excerpt":"","slug":"/hn/25500815","title":"My Engineering Axioms","date":"December 22, 2020","dateISO":"2020-12-22T08:39:47.028Z","datetime":"2020-12-22 08:39","tags":["story","Hacker News"],"image":null,"imageAlt":null,"provider":"Hacker News","thirdPartyId":"25500815","url":"https://news.ycombinator.com/item?id=25500815","originalUrl":"https://martinrue.com/my-engineering-axioms/","imageRemote":"https://martinrue.com/assets/images/favicon/martin.png","video":null,"channel":null,"channelUrl":null,"author":"mnouquet","authorUrl":"https://news.ycombinator.com/user?id=mnouquet","authorImage":null,"authorSlug":null,"score":229,"views":null,"sharedCount":null,"likeCount":null,"sharedContent":null,"parent":{"__typename":"HnJson","localize":[{"title":"我的工程学公理","locale":"zh"},{"title":"我的工程學公理","locale":"zh-Hant"}]}},{"__typename":"SocialMediaPost","id":"HnPost-25502703","excerpt":"","slug":"/hn/25502703","title":"Double Blind Passwords a.k.a. Horcruxing","date":"December 22, 2020","dateISO":"2020-12-22T08:39:47.028Z","datetime":"2020-12-22 08:39","tags":["story","Hacker News"],"image":null,"imageAlt":null,"provider":"Hacker News","thirdPartyId":"25502703","url":"https://news.ycombinator.com/item?id=25502703","originalUrl":"https://kaizoku.dev/double-blind-passwords-aka-horcruxing","imageRemote":"https://hashnode.com/utility/r?url=https%3A%2F%2Fcdn.hashnode.com%2Fres%2Fhashnode%2Fimage%2Fupload%2Fv1607775961422%2FelXIChWIZ.png%3Fw%3D1200%26h%3D630%26fit%3Dcrop%26crop%3Dentropy%26auto%3Dcompress","video":null,"channel":null,"channelUrl":null,"author":"phantom_rehan","authorUrl":"https://news.ycombinator.com/user?id=phantom_rehan","authorImage":null,"authorSlug":null,"score":335,"views":null,"sharedCount":null,"likeCount":null,"sharedContent":null,"parent":{"__typename":"HnJson","localize":[{"title":"双盲密码又称双盲密码。魂器","locale":"zh"},{"title":"雙盲密碼又稱雙盲密碼。魂器","locale":"zh-Hant"}]}},{"__typename":"SocialMediaPost","id":"HnPost-25494048","excerpt":"","slug":"/hn/25494048","title":"Positioning Your Startup Is Vital","date":"December 22, 2020","dateISO":"2020-12-22T07:34:38.755Z","datetime":"2020-12-22 07:34","tags":["story","Hacker News"],"image":null,"imageAlt":null,"provider":"Hacker News","thirdPartyId":"25494048","url":"https://news.ycombinator.com/item?id=25494048","originalUrl":"https://firstround.com/review/Positioning-Your-Startup-is-Vital-Heres-How-to-Do-It-Right/","imageRemote":"https://s3.amazonaws.com/marquee-test-akiaisur2rgicbmpehea/nkGlAQhhTUSDp5kaYxxe_EG0A1611-.jpg","video":null,"channel":null,"channelUrl":null,"author":"ongwu","authorUrl":"https://news.ycombinator.com/user?id=ongwu","authorImage":null,"authorSlug":null,"score":148,"views":null,"sharedCount":null,"likeCount":null,"sharedContent":null,"parent":{"__typename":"HnJson","localize":[{"title":"定位您的初创企业至关重要","locale":"zh"},{"title":"定位您的初創企業至關重要","locale":"zh-Hant"}]}},{"__typename":"SocialMediaPost","id":"HnPost-25502764","excerpt":"","slug":"/hn/25502764","title":"Cryptocurrency company Ripple says SEC lawsuit is imminent","date":"December 22, 2020","dateISO":"2020-12-22T07:34:38.755Z","datetime":"2020-12-22 07:34","tags":["story","Hacker News"],"image":null,"imageAlt":null,"provider":"Hacker News","thirdPartyId":"25502764","url":"https://news.ycombinator.com/item?id=25502764","originalUrl":"https://www.axios.com/cryptocurrency-ripple-sec-lawsuit-imminent-94f946a5-cdc5-4c9c-89cc-65409a563e2c.html","imageRemote":"https://images.axios.com/QZhRhedqppzbxcg9a-1TpOZvThE=/0x0:1920x1080/1366x768/2020/12/22/1608602150973.jpg","video":null,"channel":null,"channelUrl":null,"author":"taytus","authorUrl":"https://news.ycombinator.com/user?id=taytus","authorImage":null,"authorSlug":null,"score":307,"views":null,"sharedCount":null,"likeCount":null,"sharedContent":null,"parent":{"__typename":"HnJson","localize":[{"title":"加密货币公司Ripple称SEC诉讼迫在眉睫","locale":"zh"},{"title":"加密貨幣公司Ripple稱SEC訴訟迫在眉睫","locale":"zh-Hant"}]}}]}},"pageContext":{"basePath":"/","pageType":"tag","tag":"story","tagsFilter":{"id":{"glob":"!*Post-1"}},"filter":{"id":{"glob":"!*Post-1"},"tags":{"eq":"story"}},"limit":25,"skip":525,"total":800,"totalPages":32,"currentPage":22,"maxWidth":1024,"maxHeight":512,"locale":"en","hrefLang":"en-US","originalPath":"/tags/story/page/22","dateFormat":"MM/DD/YYYY"}},"staticQueryHashes":["1239077767","2506312863","2744905544","3493603132","3493603132","3513215887","386998304"]}