{"componentChunkName":"component---gatsby-theme-buzzing-src-gatsby-theme-timeline-templates-posts-query-js","path":"/zh-Hant/page/59","result":{"data":{"site":{"siteMetadata":{"title":"Reddit 热门","description":"用中文浏览Reddit热门内容","social":[{"name":"Reddit","url":"https://www.reddit.com/","external":true,"prefetch":null},{"name":"GitHub","url":"https://github.com/gatsbyjs","external":null,"prefetch":null}],"menuLinks":[{"name":"每周精选","url":"/issues","external":null,"prefetch":null},{"name":"RSS","url":"/rss.xml","external":null,"prefetch":false}],"localize":[{"locale":"en","title":"Buzzing on Reddit","description":"See what's buzzing on Reddit in your native language","social":[{"name":"Reddit","url":"https://www.reddit.com/","external":true,"prefetch":null}],"menuLinks":[{"name":"Weekly Selection","url":"/issues","external":null,"prefetch":null},{"name":"RSS","url":"/rss.xml","external":null,"prefetch":false}]},{"locale":"zh-Hant","title":"Reddit 熱門","description":"用中文瀏覽Reddit熱門內容","social":null,"menuLinks":null}]}},"tagsGroup":{"group":[{"fieldValue":"ASK HN","totalCount":18},{"fieldValue":"Bitcoin","totalCount":3},{"fieldValue":"Hacker News","totalCount":796},{"fieldValue":"Poll","totalCount":1},{"fieldValue":"Show HN","totalCount":31},{"fieldValue":"investing","totalCount":166},{"fieldValue":"poll","totalCount":1},{"fieldValue":"reddit","totalCount":590},{"fieldValue":"science","totalCount":1},{"fieldValue":"stocks","totalCount":275},{"fieldValue":"story","totalCount":795},{"fieldValue":"tweet","totalCount":242},{"fieldValue":"wallstreetbets","totalCount":149}]},"allBlogPost":{"nodes":[{"__typename":"SocialMediaPost","id":"HnPost-25442510","excerpt":"","slug":"/hn/25442510","title":"Tig – Text-mode interface for Git","date":"December 17, 2020","dateISO":"2020-12-17T12:17:48.070Z","datetime":"2020-12-17 12:17","tags":["story","Hacker News"],"image":null,"imageAlt":null,"provider":"Hacker News","thirdPartyId":"25442510","url":"https://news.ycombinator.com/item?id=25442510","originalUrl":"https://jonas.github.io/tig/","imageRemote":"https://secure.travis-ci.org/jonas/tig.svg?branch=master","video":null,"channel":null,"channelUrl":null,"author":"lemonspat","authorUrl":"https://news.ycombinator.com/user?id=lemonspat","authorImage":null,"authorSlug":null,"score":301,"views":null,"sharedCount":null,"likeCount":null,"sharedContent":null,"parent":{"__typename":"HnJson","localize":[{"title":"Git的TIG文本模式界面","locale":"zh"},{"title":"Git的TIG文本模式界面","locale":"zh-Hant"}]}},{"__typename":"SocialMediaPost","id":"HnPost-25442734","excerpt":"","slug":"/hn/25442734","title":"SolarWinds leaked FTP credentials through a public GitHub repo since 2018","date":"December 17, 2020","dateISO":"2020-12-17T12:17:48.070Z","datetime":"2020-12-17 12:17","tags":["story","Hacker News"],"image":null,"imageAlt":null,"provider":"Hacker News","thirdPartyId":"25442734","url":"https://news.ycombinator.com/item?id=25442734","originalUrl":"https://www.savebreach.com/solarwinds-exposed-ftp-credentials-back-in-2018-says-security-researcher-vinoth/","imageRemote":"https://savebreach.com/content/images/2020/12/ss_solar.png","video":null,"channel":null,"channelUrl":null,"author":"hackerpain","authorUrl":"https://news.ycombinator.com/user?id=hackerpain","authorImage":null,"authorSlug":null,"score":183,"views":null,"sharedCount":null,"likeCount":null,"sharedContent":null,"parent":{"__typename":"HnJson","localize":[{"title":"自2018年以来，SolarWinds通过公开的GitHub回购泄露了FTP凭据","locale":"zh"},{"title":"自2018年以來，SolarWinds通過公開的GitHub回購泄露了FTP憑據","locale":"zh-Hant"}]}},{"__typename":"SocialMediaPost","id":"HnPost-25443152","excerpt":"","slug":"/hn/25443152","title":"Firefox Was Always Enough","date":"December 17, 2020","dateISO":"2020-12-17T12:17:48.070Z","datetime":"2020-12-17 12:17","tags":["story","Hacker News"],"image":null,"imageAlt":null,"provider":"Hacker News","thirdPartyId":"25443152","url":"https://news.ycombinator.com/item?id=25443152","originalUrl":"https://www.ianbicking.org/blog/2020/11/firefox-was-always-enough.html","imageRemote":null,"video":null,"channel":null,"channelUrl":null,"author":"adambyrtek","authorUrl":"https://news.ycombinator.com/user?id=adambyrtek","authorImage":null,"authorSlug":null,"score":1000,"views":null,"sharedCount":null,"likeCount":null,"sharedContent":null,"parent":{"__typename":"HnJson","localize":[{"title":"火狐总是足够的","locale":"zh"},{"title":"火狐總是足夠的","locale":"zh-Hant"}]}},{"__typename":"SocialMediaPost","id":"HnPost-25443489","excerpt":"","slug":"/hn/25443489","title":"Bitcoin breaks above $20k","date":"December 17, 2020","dateISO":"2020-12-17T12:17:48.070Z","datetime":"2020-12-17 12:17","tags":["story","Hacker News"],"image":null,"imageAlt":null,"provider":"Hacker News","thirdPartyId":"25443489","url":"https://news.ycombinator.com/item?id=25443489","originalUrl":"https://www.nasdaq.com/articles/bitcoin-hits-record-above-%2420k-as-analysts-remain-confident-of-future-2020-12-16","imageRemote":null,"video":null,"channel":null,"channelUrl":null,"author":"wsieroci","authorUrl":"https://news.ycombinator.com/user?id=wsieroci","authorImage":null,"authorSlug":null,"score":272,"views":null,"sharedCount":null,"likeCount":null,"sharedContent":null,"parent":{"__typename":"HnJson","localize":[{"title":"比特币突破20000美元大关","locale":"zh"},{"title":"比特幣突破20000美元大關","locale":"zh-Hant"}]}},{"__typename":"SocialMediaPost","id":"HnPost-25444069","excerpt":"","slug":"/hn/25444069","title":"I Regret Quitting Astrophysics","date":"December 17, 2020","dateISO":"2020-12-17T12:17:48.070Z","datetime":"2020-12-17 12:17","tags":["story","Hacker News"],"image":null,"imageAlt":null,"provider":"Hacker News","thirdPartyId":"25444069","url":"https://news.ycombinator.com/item?id=25444069","originalUrl":"http://www.marcelhaas.com/index.php/2020/12/16/i-regret-quitting-astrophysics/","imageRemote":"http://www.marcelhaas.com/wp-content/uploads/2020/12/academic_hat.png","video":null,"channel":null,"channelUrl":null,"author":"petschge","authorUrl":"https://news.ycombinator.com/user?id=petschge","authorImage":null,"authorSlug":null,"score":196,"views":null,"sharedCount":null,"likeCount":null,"sharedContent":null,"parent":{"__typename":"HnJson","localize":[{"title":"我后悔离开了天体物理学","locale":"zh"},{"title":"我後悔離開了天體物理學","locale":"zh-Hant"}]}},{"__typename":"SocialMediaPost","id":"HnPost-25444277","excerpt":"","slug":"/hn/25444277","title":"SaaSy Math: A Resource of SaaS Metrics for Your Startup","date":"December 17, 2020","dateISO":"2020-12-17T12:17:48.070Z","datetime":"2020-12-17 12:17","tags":["story","Hacker News"],"image":null,"imageAlt":null,"provider":"Hacker News","thirdPartyId":"25444277","url":"https://news.ycombinator.com/item?id=25444277","originalUrl":"https://www.talkinsaasy.com/saasy-math","imageRemote":"https://images.unsplash.com/photo-1453733190371-0a9bedd82893?ixid=MXwxMjA3fDB8MHxwaG90by1wYWdlfHx8fGVufDB8fHw%3D&ixlib=rb-1.2.1&auto=format&fit=crop&w=1567&q=80","video":null,"channel":null,"channelUrl":null,"author":"randrews543","authorUrl":"https://news.ycombinator.com/user?id=randrews543","authorImage":null,"authorSlug":null,"score":139,"views":null,"sharedCount":null,"likeCount":null,"sharedContent":null,"parent":{"__typename":"HnJson","localize":[{"title":"SaaSy Math：适用于您的启动的SaaS指标资源","locale":"zh"},{"title":"SaaSy Math：適用於您的啓動的SaaS指標資源","locale":"zh-Hant"}]}},{"__typename":"SocialMediaPost","id":"HnPost-25444294","excerpt":"","slug":"/hn/25444294","title":"Zero to Emacs and Org-roam: a step-by-step guide on Windows 10","date":"December 17, 2020","dateISO":"2020-12-17T12:17:48.070Z","datetime":"2020-12-17 12:17","tags":["story","Hacker News"],"image":null,"imageAlt":null,"provider":"Hacker News","thirdPartyId":"25444294","url":"https://news.ycombinator.com/item?id=25444294","originalUrl":"https://github.com/nobiot/Zero-to-Emacs-and-Org-roam","imageRemote":"https://avatars1.githubusercontent.com/u/12507865?s=400&v=4","video":null,"channel":null,"channelUrl":null,"author":"nanna","authorUrl":"https://news.ycombinator.com/user?id=nanna","authorImage":null,"authorSlug":null,"score":186,"views":null,"sharedCount":null,"likeCount":null,"sharedContent":null,"parent":{"__typename":"HnJson","localize":[{"title":"从零到Emacs和组织漫游：Windows 10上的分步指南","locale":"zh"},{"title":"從零到Emacs和組織漫遊：Windows 10上的分步指南","locale":"zh-Hant"}]}},{"__typename":"SocialMediaPost","id":"HnPost-25444303","excerpt":"","slug":"/hn/25444303","title":"FDA authorizes rapid, at-home coronavirus test","date":"December 17, 2020","dateISO":"2020-12-17T12:17:48.070Z","datetime":"2020-12-17 12:17","tags":["story","Hacker News"],"image":null,"imageAlt":null,"provider":"Hacker News","thirdPartyId":"25444303","url":"https://news.ycombinator.com/item?id=25444303","originalUrl":"https://www.axios.com/fda-authorizes-rapid-at-home-coronavirus-test-85012e02-6c4f-4d98-be7d-8334d85a6c4c.html","imageRemote":"https://images.axios.com/MJSu6QSEuNgzNNqMfNLzwKMFBGU=/0x0:1920x1080/1366x768/2020/12/15/1608071820981.jpg","video":null,"channel":null,"channelUrl":null,"author":"KoftaBob","authorUrl":"https://news.ycombinator.com/user?id=KoftaBob","authorImage":null,"authorSlug":null,"score":347,"views":null,"sharedCount":null,"likeCount":null,"sharedContent":null,"parent":{"__typename":"HnJson","localize":[{"title":"FDA授权在家进行快速冠状病毒检测","locale":"zh"},{"title":"FDA授權在家進行快速冠狀病毒檢測","locale":"zh-Hant"}]}},{"__typename":"SocialMediaPost","id":"HnPost-25444358","excerpt":"","slug":"/hn/25444358","title":"The first person in the UK to have air pollution listed as a cause of death","date":"December 17, 2020","dateISO":"2020-12-17T12:17:48.070Z","datetime":"2020-12-17 12:17","tags":["story","Hacker News"],"image":null,"imageAlt":null,"provider":"Hacker News","thirdPartyId":"25444358","url":"https://news.ycombinator.com/item?id=25444358","originalUrl":"https://www.bbc.com/news/uk-england-london-55330945","imageRemote":"https://ichef.bbci.co.uk/news/1024/branded_news/8C35/production/_102239853_ella.jpg","video":null,"channel":null,"channelUrl":null,"author":"umaar","authorUrl":"https://news.ycombinator.com/user?id=umaar","authorImage":null,"authorSlug":null,"score":276,"views":null,"sharedCount":null,"likeCount":null,"sharedContent":null,"parent":{"__typename":"HnJson","localize":[{"title":"英国第一个将空气污染列为死因的人","locale":"zh"},{"title":"英國第一個將空氣污染列爲死因的人","locale":"zh-Hant"}]}},{"__typename":"SocialMediaPost","id":"HnPost-25444615","excerpt":"","slug":"/hn/25444615","title":"Amazon Location Service","date":"December 17, 2020","dateISO":"2020-12-17T12:17:48.070Z","datetime":"2020-12-17 12:17","tags":["story","Hacker News"],"image":null,"imageAlt":null,"provider":"Hacker News","thirdPartyId":"25444615","url":"https://news.ycombinator.com/item?id=25444615","originalUrl":"https://aws.amazon.com/blogs/aws/amazon-location-add-maps-and-location-awareness-to-your-applications/","imageRemote":"https://d2908q01vomqb2.cloudfront.net/da4b9237bacccdf19c0760cab7aec4a8359010b0/2020/12/16/Amazon-Location-Services-1.jpg","video":null,"channel":null,"channelUrl":null,"author":"jeffbarr","authorUrl":"https://news.ycombinator.com/user?id=jeffbarr","authorImage":null,"authorSlug":null,"score":279,"views":null,"sharedCount":null,"likeCount":null,"sharedContent":null,"parent":{"__typename":"HnJson","localize":[{"title":"亚马逊位置服务","locale":"zh"},{"title":"亞馬遜位置服務","locale":"zh-Hant"}]}},{"__typename":"SocialMediaPost","id":"HnPost-25444959","excerpt":"","slug":"/hn/25444959","title":"Nearly 8M Americans have fallen into poverty since summer","date":"December 17, 2020","dateISO":"2020-12-17T12:17:48.070Z","datetime":"2020-12-17 12:17","tags":["story","Hacker News"],"image":null,"imageAlt":null,"provider":"Hacker News","thirdPartyId":"25444959","url":"https://news.ycombinator.com/item?id=25444959","originalUrl":"https://www.washingtonpost.com/business/2020/12/16/poverty-rising/","imageRemote":"https://www.washingtonpost.com/wp-apps/imrs.php?src=https://arc-anglerfish-washpost-prod-washpost.s3.amazonaws.com/public/P7EZ4PBMKQI6XHBBHTCQDUEYD4.jpg&w=1440","video":null,"channel":null,"channelUrl":null,"author":"tempsy","authorUrl":"https://news.ycombinator.com/user?id=tempsy","authorImage":null,"authorSlug":null,"score":125,"views":null,"sharedCount":null,"likeCount":null,"sharedContent":null,"parent":{"__typename":"HnJson","localize":[{"title":"自夏季以来，已有近800万美国人陷入贫困。","locale":"zh"},{"title":"自夏季以來，已有近800萬美國人陷入貧困。","locale":"zh-Hant"}]}},{"__typename":"SocialMediaPost","id":"HnPost-25445493","excerpt":"","slug":"/hn/25445493","title":"A computer science study plan to become a software engineer","date":"December 17, 2020","dateISO":"2020-12-17T12:17:48.070Z","datetime":"2020-12-17 12:17","tags":["story","Hacker News"],"image":null,"imageAlt":null,"provider":"Hacker News","thirdPartyId":"25445493","url":"https://news.ycombinator.com/item?id=25445493","originalUrl":"https://github.com/jwasham/coding-interview-university","imageRemote":"https://repository-images.githubusercontent.com/60493101/4ed59900-87ab-11ea-9e39-99741f040a83","video":null,"channel":null,"channelUrl":null,"author":"sturza","authorUrl":"https://news.ycombinator.com/user?id=sturza","authorImage":null,"authorSlug":null,"score":374,"views":null,"sharedCount":null,"likeCount":null,"sharedContent":null,"parent":{"__typename":"HnJson","localize":[{"title":"计算机科学学习计划成为一名软件工程师","locale":"zh"},{"title":"計算機科學學習計劃成爲一名軟件工程師","locale":"zh-Hant"}]}},{"__typename":"SocialMediaPost","id":"HnPost-25445643","excerpt":"","slug":"/hn/25445643","title":"Child-safety laws may reduce the birth rate","date":"December 17, 2020","dateISO":"2020-12-17T12:17:48.070Z","datetime":"2020-12-17 12:17","tags":["story","Hacker News"],"image":null,"imageAlt":null,"provider":"Hacker News","thirdPartyId":"25445643","url":"https://news.ycombinator.com/item?id=25445643","originalUrl":"https://www.economist.com/science-and-technology/2020/11/28/child-safety-laws-may-reduce-the-birth-rate","imageRemote":"https://www.economist.com/img/b/1280/720/90/sites/default/files/20201128_STP502.jpg","video":null,"channel":null,"channelUrl":null,"author":"prostoalex","authorUrl":"https://news.ycombinator.com/user?id=prostoalex","authorImage":null,"authorSlug":null,"score":158,"views":null,"sharedCount":null,"likeCount":null,"sharedContent":null,"parent":{"__typename":"HnJson","localize":[{"title":"儿童安全法可能会降低出生率","locale":"zh"},{"title":"兒童安全法可能會降低出生率","locale":"zh-Hant"}]}},{"__typename":"SocialMediaPost","id":"HnPost-25445669","excerpt":"","slug":"/hn/25445669","title":"Jet Powered Volkswagen Beetle – $550k (sunnyvale)","date":"December 17, 2020","dateISO":"2020-12-17T12:17:48.070Z","datetime":"2020-12-17 12:17","tags":["story","Hacker News"],"image":null,"imageAlt":null,"provider":"Hacker News","thirdPartyId":"25445669","url":"https://news.ycombinator.com/item?id=25445669","originalUrl":"https://sfbay.craigslist.org/sby/cto/d/mountain-view-jet-powered-volkswagen/7241823593.html","imageRemote":null,"video":null,"channel":null,"channelUrl":null,"author":"d136o","authorUrl":"https://news.ycombinator.com/user?id=d136o","authorImage":null,"authorSlug":null,"score":303,"views":null,"sharedCount":null,"likeCount":null,"sharedContent":null,"parent":{"__typename":"HnJson","localize":[{"title":"喷气动力大众甲壳虫-55万美元(桑尼维尔)","locale":"zh"},{"title":"噴氣動力大衆甲殼蟲-55萬美元(桑尼維爾)","locale":"zh-Hant"}]}},{"__typename":"SocialMediaPost","id":"HnPost-25445725","excerpt":"","slug":"/hn/25445725","title":"Rocky Linux: A CentOS replacement by the CentOS founder","date":"December 17, 2020","dateISO":"2020-12-17T12:17:48.070Z","datetime":"2020-12-17 12:17","tags":["story","Hacker News"],"image":null,"imageAlt":null,"provider":"Hacker News","thirdPartyId":"25445725","url":"https://news.ycombinator.com/item?id=25445725","originalUrl":"https://github.com/rocky-linux/rocky","imageRemote":"https://avatars1.githubusercontent.com/u/75713131?s=400&v=4","video":null,"channel":null,"channelUrl":null,"author":"andyjpb","authorUrl":"https://news.ycombinator.com/user?id=andyjpb","authorImage":null,"authorSlug":null,"score":833,"views":null,"sharedCount":null,"likeCount":null,"sharedContent":null,"parent":{"__typename":"HnJson","localize":[{"title":"Rocky Linux：CentOS创始人的CentOS替代品","locale":"zh"},{"title":"Rocky Linux：CentOS創始人的CentOS替代品","locale":"zh-Hant"}]}},{"__typename":"SocialMediaPost","id":"HnPost-25445925","excerpt":"","slug":"/hn/25445925","title":"GTK 4.0 Released","date":"December 17, 2020","dateISO":"2020-12-17T12:17:48.070Z","datetime":"2020-12-17 12:17","tags":["story","Hacker News"],"image":null,"imageAlt":null,"provider":"Hacker News","thirdPartyId":"25445925","url":"https://news.ycombinator.com/item?id=25445925","originalUrl":"https://blog.gtk.org/2020/12/16/gtk-4-0/","imageRemote":"https://blog.gtk.org/files/2020/12/photo_2020-12-15_15-36-29-1200x675.jpg","video":null,"channel":null,"channelUrl":null,"author":"hernantz","authorUrl":"https://news.ycombinator.com/user?id=hernantz","authorImage":null,"authorSlug":null,"score":265,"views":null,"sharedCount":null,"likeCount":null,"sharedContent":null,"parent":{"__typename":"HnJson","localize":[{"title":"GTK 4.0发布","locale":"zh"},{"title":"GTK 4.0發佈","locale":"zh-Hant"}]}},{"__typename":"SocialMediaPost","id":"HnPost-25446399","excerpt":"","slug":"/hn/25446399","title":"A Beginner's Garden of Chess Openings (2002)","date":"December 17, 2020","dateISO":"2020-12-17T12:17:48.070Z","datetime":"2020-12-17 12:17","tags":["story","Hacker News"],"image":null,"imageAlt":null,"provider":"Hacker News","thirdPartyId":"25446399","url":"https://news.ycombinator.com/item?id=25446399","originalUrl":"https://dwheeler.com/chess-openings/","imageRemote":"https://dwheeler.com/chess-openings/ruy.png","video":null,"channel":null,"channelUrl":null,"author":"elgfare","authorUrl":"https://news.ycombinator.com/user?id=elgfare","authorImage":null,"authorSlug":null,"score":304,"views":null,"sharedCount":null,"likeCount":null,"sharedContent":null,"parent":{"__typename":"HnJson","localize":[{"title":"初学者的国际象棋开局花园(2002)","locale":"zh"},{"title":"初學者的國際象棋開局花園(2002)","locale":"zh-Hant"}]}},{"__typename":"SocialMediaPost","id":"HnPost-25446608","excerpt":"","slug":"/hn/25446608","title":"State of Rust Survey 2020 results","date":"December 17, 2020","dateISO":"2020-12-17T12:17:48.070Z","datetime":"2020-12-17 12:17","tags":["story","Hacker News"],"image":null,"imageAlt":null,"provider":"Hacker News","thirdPartyId":"25446608","url":"https://news.ycombinator.com/item?id=25446608","originalUrl":"https://blog.rust-lang.org/2020/12/16/rust-survey-2020.html","imageRemote":"https://www.rust-lang.org/static/images/rust-social-wide.jpg","video":null,"channel":null,"channelUrl":null,"author":"steveklabnik","authorUrl":"https://news.ycombinator.com/user?id=steveklabnik","authorImage":null,"authorSlug":null,"score":191,"views":null,"sharedCount":null,"likeCount":null,"sharedContent":null,"parent":{"__typename":"HnJson","localize":[{"title":"2020年锈蚀状况调查结果","locale":"zh"},{"title":"2020年鏽蝕狀況調查結果","locale":"zh-Hant"}]}},{"__typename":"SocialMediaPost","id":"HnPost-25446689","excerpt":"","slug":"/hn/25446689","title":"January 1, 2021 is Public Domain Day: Works from 1925 are open to all","date":"December 17, 2020","dateISO":"2020-12-17T12:17:48.070Z","datetime":"2020-12-17 12:17","tags":["story","Hacker News"],"image":null,"imageAlt":null,"provider":"Hacker News","thirdPartyId":"25446689","url":"https://news.ycombinator.com/item?id=25446689","originalUrl":"https://web.law.duke.edu/cspd/publicdomainday/2021/","imageRemote":"https://law.duke.edu/sites/default/files/images/centers/cspd/pdd2019/1923_montage.jpg","video":null,"channel":null,"channelUrl":null,"author":"samizdis","authorUrl":"https://news.ycombinator.com/user?id=samizdis","authorImage":null,"authorSlug":null,"score":125,"views":null,"sharedCount":null,"likeCount":null,"sharedContent":null,"parent":{"__typename":"HnJson","localize":[{"title":"2021年1月1日是公共领域日：1925年的作品向所有人开放","locale":"zh"},{"title":"2021年1月1日是公共領域日：1925年的作品向所有人開放","locale":"zh-Hant"}]}},{"__typename":"SocialMediaPost","id":"HnPost-25447153","excerpt":"","slug":"/hn/25447153","title":"Tech Preview of Docker Desktop for M1","date":"December 17, 2020","dateISO":"2020-12-17T12:17:48.070Z","datetime":"2020-12-17 12:17","tags":["story","Hacker News"],"image":null,"imageAlt":null,"provider":"Hacker News","thirdPartyId":"25447153","url":"https://news.ycombinator.com/item?id=25447153","originalUrl":"https://www.docker.com/blog/download-and-try-the-tech-preview-of-docker-desktop-for-m1/","imageRemote":"https://lh4.googleusercontent.com/9_z8b72EjrIQlyFpSYM3lIZi7xgmIkMFeWMwtiP5p6XA0hf5JTP49SQGVeRq6YC7XEHeqVFG7UsMxAxGvsa6Cu8LEPxCRHP3wRR_nr0TFtrKqhWgEAhrz8UClk81TuTZ3C2zgihC","video":null,"channel":null,"channelUrl":null,"author":"jcollins","authorUrl":"https://news.ycombinator.com/user?id=jcollins","authorImage":null,"authorSlug":null,"score":274,"views":null,"sharedCount":null,"likeCount":null,"sharedContent":null,"parent":{"__typename":"HnJson","localize":[{"title":"Docker Desktop for M1技术预览","locale":"zh"},{"title":"Docker Desktop for M1技術預覽","locale":"zh-Hant"}]}},{"__typename":"SocialMediaPost","id":"HnPost-25447710","excerpt":"","slug":"/hn/25447710","title":"Building a $400 at-home DIY spin bike for Peloton and Apple Fitness+","date":"December 17, 2020","dateISO":"2020-12-17T12:17:48.070Z","datetime":"2020-12-17 12:17","tags":["story","Hacker News"],"image":null,"imageAlt":null,"provider":"Hacker News","thirdPartyId":"25447710","url":"https://news.ycombinator.com/item?id=25447710","originalUrl":"https://montemagno.com/building-an-at-home-diy-spin-bike-for-peloton-apple-fitness/","imageRemote":"https://montemagno.com/content/images/2020/12/IMG_1194---Copy.jpg","video":null,"channel":null,"channelUrl":null,"author":"rchaudhary","authorUrl":"https://news.ycombinator.com/user?id=rchaudhary","authorImage":null,"authorSlug":null,"score":122,"views":null,"sharedCount":null,"likeCount":null,"sharedContent":null,"parent":{"__typename":"HnJson","localize":[{"title":"为peloton和Apple Fitness+打造一辆价值400美元的家庭DIY旋转自行车","locale":"zh"},{"title":"爲peloton和Apple Fitness+打造一輛價值400美元的家庭DIY旋轉自行車","locale":"zh-Hant"}]}},{"__typename":"SocialMediaPost","id":"HnPost-25447805","excerpt":"","slug":"/hn/25447805","title":"WireGuard Bounce Server Setup","date":"December 17, 2020","dateISO":"2020-12-17T12:17:48.070Z","datetime":"2020-12-17 12:17","tags":["story","Hacker News"],"image":null,"imageAlt":null,"provider":"Hacker News","thirdPartyId":"25447805","url":"https://news.ycombinator.com/item?id=25447805","originalUrl":"https://gitlab.com/ncmncm/wireguard-bounce-server/-/blob/master/README.md","imageRemote":"https://assets.gitlab-static.net/assets/gitlab_logo-7ae504fe4f68fdebb3c2034e36621930cd36ea87924c11ff65dbcb8ed50dca58.png","video":null,"channel":null,"channelUrl":null,"author":"ncmncm","authorUrl":"https://news.ycombinator.com/user?id=ncmncm","authorImage":null,"authorSlug":null,"score":123,"views":null,"sharedCount":null,"likeCount":null,"sharedContent":null,"parent":{"__typename":"HnJson","localize":[{"title":"WireGuard退回服务器设置","locale":"zh"},{"title":"WireGuard退回服務器設置","locale":"zh-Hant"}]}},{"__typename":"SocialMediaPost","id":"HnPost-25447830","excerpt":"","slug":"/hn/25447830","title":"Preview in macOS Big Sur is destroying PDFs","date":"December 17, 2020","dateISO":"2020-12-17T12:17:48.070Z","datetime":"2020-12-17 12:17","tags":["story","Hacker News"],"image":null,"imageAlt":null,"provider":"Hacker News","thirdPartyId":"25447830","url":"https://news.ycombinator.com/item?id=25447830","originalUrl":"https://annoying.technology/posts/86f4ea27e4cd90d0/","imageRemote":"https://annoying.technology/media/previeweatingpdfs.png","video":null,"channel":null,"channelUrl":null,"author":"matrixagent","authorUrl":"https://news.ycombinator.com/user?id=matrixagent","authorImage":null,"authorSlug":null,"score":358,"views":null,"sharedCount":null,"likeCount":null,"sharedContent":null,"parent":{"__typename":"HnJson","localize":[{"title":"MacOS中的预览Big Sur正在破坏PDF","locale":"zh"},{"title":"MacOS中的預覽Big Sur正在破壞PDF","locale":"zh-Hant"}]}},{"__typename":"SocialMediaPost","id":"HnPost-25448425","excerpt":"","slug":"/hn/25448425","title":"Covid-19 is 10 times deadlier for people with Down syndrome","date":"December 17, 2020","dateISO":"2020-12-17T12:17:48.070Z","datetime":"2020-12-17 12:17","tags":["story","Hacker News"],"image":null,"imageAlt":null,"provider":"Hacker News","thirdPartyId":"25448425","url":"https://news.ycombinator.com/item?id=25448425","originalUrl":"https://www.sciencemag.org/news/2020/12/covid-19-10-times-deadlier-people-down-syndrome-raising-calls-early-vaccination","imageRemote":"https://www.sciencemag.org/sites/default/files/styles/article_main_large/public/AmandaRoss121520.jpg?itok=PqXE57Gv","video":null,"channel":null,"channelUrl":null,"author":"rbanffy","authorUrl":"https://news.ycombinator.com/user?id=rbanffy","authorImage":null,"authorSlug":null,"score":106,"views":null,"sharedCount":null,"likeCount":null,"sharedContent":null,"parent":{"__typename":"HnJson","localize":[{"title":"冠状病毒对唐氏综合征患者的致死率是后者的10倍","locale":"zh"},{"title":"冠狀病毒對唐氏綜合徵患者的致死率是後者的10倍","locale":"zh-Hant"}]}},{"__typename":"SocialMediaPost","id":"HnPost-25448533","excerpt":"","slug":"/hn/25448533","title":"Sequoia PGP 1.0 Released: The Seedling Is a Sapling","date":"December 17, 2020","dateISO":"2020-12-17T12:17:48.070Z","datetime":"2020-12-17 12:17","tags":["story","Hacker News"],"image":null,"imageAlt":null,"provider":"Hacker News","thirdPartyId":"25448533","url":"https://news.ycombinator.com/item?id=25448533","originalUrl":"https://sequoia-pgp.org/blog/2020/12/16/202012-1.0/","imageRemote":"https://sequoia-pgp.org/blog/2020/12/16/202012-1.0/img/navbar-logo.svg","video":null,"channel":null,"channelUrl":null,"author":"dannyobrien","authorUrl":"https://news.ycombinator.com/user?id=dannyobrien","authorImage":null,"authorSlug":null,"score":156,"views":null,"sharedCount":null,"likeCount":null,"sharedContent":null,"parent":{"__typename":"HnJson","localize":[{"title":"红杉PGP 1.0发布：幼苗是树苗","locale":"zh"},{"title":"紅杉PGP 1.0發佈：幼苗是樹苗","locale":"zh-Hant"}]}}]}},"pageContext":{"basePath":"/","pageType":"home","tagsFilter":{"id":{"glob":"!*Post-1"}},"filter":{"id":{"glob":"!*Post-1"}},"limit":25,"skip":1450,"totalPages":66,"total":1628,"currentPage":59,"maxWidth":1024,"maxHeight":512,"locale":"zh-Hant","hrefLang":"zh-Hant","originalPath":"/page/59","dateFormat":"YYYY-MM-DD"}},"staticQueryHashes":["1239077767","2506312863","2744905544","3493603132","3493603132","386998304","4203388852"]}