{"componentChunkName":"component---gatsby-theme-buzzing-src-gatsby-theme-timeline-templates-posts-query-js","path":"/en/page/23","result":{"data":{"site":{"siteMetadata":{"title":"Reddit 热门","description":"用中文浏览Reddit热门内容","social":[{"name":"Twitter","url":"https://twitter.com/gatsbyjs","external":null,"prefetch":null},{"name":"GitHub","url":"https://github.com/gatsbyjs","external":null,"prefetch":null}],"menuLinks":[],"localize":[{"locale":"en","title":"Buzzing on Reddit","description":"See what's buzzing on Reddit in your native language","social":[{"name":"Reddit","url":"https://www.reddit.com/","external":true,"prefetch":null}],"menuLinks":[{"name":"Weekly Selection","url":"/issues","external":null,"prefetch":null},{"name":"RSS","url":"/rss.xml","external":null,"prefetch":false}]},{"locale":"zh-Hant","title":"Reddit 熱門","description":"用中文瀏覽Reddit熱門內容","social":null,"menuLinks":null}]}},"tagsGroup":{"group":[{"fieldValue":"ASK HN","totalCount":54},{"fieldValue":"Hacker News","totalCount":3105},{"fieldValue":"Poll","totalCount":1},{"fieldValue":"Show HN","totalCount":100},{"fieldValue":"poll","totalCount":1},{"fieldValue":"story","totalCount":3104}]},"allBlogPost":{"nodes":[{"__typename":"SocialMediaPost","id":"HnPost-26490207","excerpt":"","slug":"/hn/26490207","title":"Claude Shannon: The Mathematical Theory of Cryptography","date":"March 17, 2021","dateISO":"2021-03-17T20:07:17.757Z","datetime":"2021-03-17 20:07","tags":["story","Hacker News"],"image":null,"imageAlt":null,"provider":"Hacker News","thirdPartyId":"26490207","url":"https://news.ycombinator.com/item?id=26490207","originalUrl":"https://evervault.com/papers/shannon","imageRemote":"https://evervault.com/social/papers.png","video":null,"channel":null,"channelUrl":null,"author":"declain","authorUrl":"https://news.ycombinator.com/user?id=declain","authorImage":null,"authorSlug":null,"score":223,"views":null,"sharedCount":null,"likeCount":null,"sharedContent":null,"parent":{"__typename":"HnJson","localize":[{"title":"克劳德-香农：密码学的数学理论。","locale":"zh"},{"title":"克勞德-香農：密碼學的數學理論。","locale":"zh-Hant"}]}},{"__typename":"SocialMediaPost","id":"HnPost-26493010","excerpt":"","slug":"/hn/26493010","title":"Let there be more biographies of failures","date":"March 17, 2021","dateISO":"2021-03-17T20:07:17.756Z","datetime":"2021-03-17 20:07","tags":["story","Hacker News"],"image":null,"imageAlt":null,"provider":"Hacker News","thirdPartyId":"26493010","url":"https://news.ycombinator.com/item?id=26493010","originalUrl":"https://commonreader.substack.com/p/let-there-be-more-biographies-of","imageRemote":"https://cdn.substack.com/image/fetch/w_1200,c_limit,f_jpg,q_auto:good,fl_progressive:steep/https%3A%2F%2Fbucketeer-e05bbc84-baa3-437e-9518-adb32be77984.s3.amazonaws.com%2Fpublic%2Fimages%2F4f9a3eba-977f-441d-bfe8-ee0752eba03f_1050x700.jpeg","video":null,"channel":null,"channelUrl":null,"author":"commons-tragedy","authorUrl":"https://news.ycombinator.com/user?id=commons-tragedy","authorImage":null,"authorSlug":null,"score":346,"views":null,"sharedCount":null,"likeCount":null,"sharedContent":null,"parent":{"__typename":"HnJson","localize":[{"title":"让失败者的传记多一些吧","locale":"zh"},{"title":"讓失敗者的傳記多一些吧","locale":"zh-Hant"}]}},{"__typename":"SocialMediaPost","id":"HnPost-26479515","excerpt":"","slug":"/hn/26479515","title":"Librem Tunnel Is Leaving iOS","date":"March 17, 2021","dateISO":"2021-03-17T19:31:00.820Z","datetime":"2021-03-17 19:31","tags":["story","Hacker News"],"image":null,"imageAlt":null,"provider":"Hacker News","thirdPartyId":"26479515","url":"https://news.ycombinator.com/item?id=26479515","originalUrl":"https://puri.sm/posts/why-librem-tunnel-is-leaving-ios/","imageRemote":"https://puri.sm/wp-content/uploads/2019/03/lockdown_mode_feat.jpg","video":null,"channel":null,"channelUrl":null,"author":"Stephen304","authorUrl":"https://news.ycombinator.com/user?id=Stephen304","authorImage":null,"authorSlug":null,"score":164,"views":null,"sharedCount":null,"likeCount":null,"sharedContent":null,"parent":{"__typename":"HnJson","localize":[{"title":"Librem Tunnel将离开iOS系统","locale":"zh"},{"title":"Librem Tunnel將離開iOS系統","locale":"zh-Hant"}]}},{"__typename":"SocialMediaPost","id":"HnPost-26491948","excerpt":"","slug":"/hn/26491948","title":"Irish webapp to recreate pub atmosphere at home today","date":"March 17, 2021","dateISO":"2021-03-17T17:48:10.063Z","datetime":"2021-03-17 17:48","tags":["story","Hacker News"],"image":null,"imageAlt":null,"provider":"Hacker News","thirdPartyId":"26491948","url":"https://news.ycombinator.com/item?id=26491948","originalUrl":"https://soundsofthepub.com/","imageRemote":"https://freight.cargo.site/i/de5755693ec381f3f21c7334dc3814349149fb8d3c2a449a947eebcdd430db31/SM_Artwork_Social-Share-Cargo-Img.jpg","video":null,"channel":null,"channelUrl":null,"author":"arazy","authorUrl":"https://news.ycombinator.com/user?id=arazy","authorImage":null,"authorSlug":null,"score":334,"views":null,"sharedCount":null,"likeCount":null,"sharedContent":null,"parent":{"__typename":"HnJson","localize":[{"title":"爱尔兰网络应用今日在家重现酒吧氛围","locale":"zh"},{"title":"愛爾蘭網絡應用今日在家重現酒吧氛圍","locale":"zh-Hant"}]}},{"__typename":"SocialMediaPost","id":"HnPost-26491974","excerpt":"","slug":"/hn/26491974","title":"FreeBSD 13.0 – Full Desktop Experience","date":"March 17, 2021","dateISO":"2021-03-17T17:48:10.063Z","datetime":"2021-03-17 17:48","tags":["story","Hacker News"],"image":null,"imageAlt":null,"provider":"Hacker News","thirdPartyId":"26491974","url":"https://news.ycombinator.com/item?id=26491974","originalUrl":"https://www.tubsta.com/2021/03/freebsd-13-0-full-desktop-experience/","imageRemote":"https://cdn.tubsta.com/wp-content/uploads/2021/03/XFCE4-Feature.jpg","video":null,"channel":null,"channelUrl":null,"author":"tate","authorUrl":"https://news.ycombinator.com/user?id=tate","authorImage":null,"authorSlug":null,"score":316,"views":null,"sharedCount":null,"likeCount":null,"sharedContent":null,"parent":{"__typename":"HnJson","localize":[{"title":"FreeBSD 13.0 - 完整的桌面体验","locale":"zh"},{"title":"FreeBSD 13.0 - 完整的桌面體驗","locale":"zh-Hant"}]}},{"__typename":"SocialMediaPost","id":"HnPost-26488960","excerpt":"","slug":"/hn/26488960","title":"Avoid Consumer Routers","date":"March 17, 2021","dateISO":"2021-03-17T16:35:08.049Z","datetime":"2021-03-17 16:35","tags":["story","Hacker News"],"image":null,"imageAlt":null,"provider":"Hacker News","thirdPartyId":"26488960","url":"https://news.ycombinator.com/item?id=26488960","originalUrl":"https://routersecurity.org/consumerrouters.php","imageRemote":null,"video":null,"channel":null,"channelUrl":null,"author":"cton","authorUrl":"https://news.ycombinator.com/user?id=cton","authorImage":null,"authorSlug":null,"score":226,"views":null,"sharedCount":null,"likeCount":null,"sharedContent":null,"parent":{"__typename":"HnJson","localize":[{"title":"避免消费类路由器","locale":"zh"},{"title":"避免消費類路由器","locale":"zh-Hant"}]}},{"__typename":"SocialMediaPost","id":"HnPost-26487993","excerpt":"","slug":"/hn/26487993","title":"Wikipedia Is Finally Asking Big Tech to Pay Up","date":"March 17, 2021","dateISO":"2021-03-17T15:47:32.526Z","datetime":"2021-03-17 15:47","tags":["story","Hacker News"],"image":null,"imageAlt":null,"provider":"Hacker News","thirdPartyId":"26487993","url":"https://news.ycombinator.com/item?id=26487993","originalUrl":"https://www.wired.com/story/wikipedia-finally-asking-big-tech-to-pay-up/","imageRemote":"https://media.wired.com/photos/604fcb6a4394e885e15be78c/191:100/w_1280,c_limit/Wikimedia-Enterprise.jpg","video":null,"channel":null,"channelUrl":null,"author":"btheshoe","authorUrl":"https://news.ycombinator.com/user?id=btheshoe","authorImage":null,"authorSlug":null,"score":199,"views":null,"sharedCount":null,"likeCount":null,"sharedContent":null,"parent":{"__typename":"HnJson","localize":[{"title":"维基百科终于要求大科技公司出钱了。","locale":"zh"},{"title":"維基百科終於要求大科技公司出錢了。","locale":"zh-Hant"}]}},{"__typename":"SocialMediaPost","id":"HnPost-26490579","excerpt":"","slug":"/hn/26490579","title":"Milky Way, 12 years, 1250 hours of exposures and 125 x 22 degrees of sky","date":"March 17, 2021","dateISO":"2021-03-17T15:47:32.526Z","datetime":"2021-03-17 15:47","tags":["story","Hacker News"],"image":null,"imageAlt":null,"provider":"Hacker News","thirdPartyId":"26490579","url":"https://news.ycombinator.com/item?id=26490579","originalUrl":"https://astroanarchy.blogspot.com/2021/03/gigapixel-mosaic-of-milky-way-1250.html","imageRemote":"https://1.bp.blogspot.com/-J8Fot06eadk/YFBnQZE_lxI/AAAAAAAAS9Q/ZhC6dEolmVUrsSLvAvl2d0d9MzPIQW8mQCLcBGAsYHQ/w1200-h630-p-k-no-nu/AB_MosaicPanels.jpg","video":null,"channel":null,"channelUrl":null,"author":"giuliomagnifico","authorUrl":"https://news.ycombinator.com/user?id=giuliomagnifico","authorImage":null,"authorSlug":null,"score":642,"views":null,"sharedCount":null,"likeCount":null,"sharedContent":null,"parent":{"__typename":"HnJson","localize":[{"title":"银河系，12年，1250小时的曝光，125×22度的天空。","locale":"zh"},{"title":"銀河系，12年，1250小時的曝光，125×22度的天空。","locale":"zh-Hant"}]}},{"__typename":"SocialMediaPost","id":"HnPost-26487959","excerpt":"","slug":"/hn/26487959","title":"SQLAlchemy 1.4","date":"March 17, 2021","dateISO":"2021-03-17T15:29:10.928Z","datetime":"2021-03-17 15:29","tags":["story","Hacker News"],"image":null,"imageAlt":null,"provider":"Hacker News","thirdPartyId":"26487959","url":"https://news.ycombinator.com/item?id=26487959","originalUrl":"https://www.sqlalchemy.org/blog/2021/03/15/sqlalchemy-1.4.0-released/","imageRemote":"https://www.sqlalchemy.org/img/sqla_logo.png","video":null,"channel":null,"channelUrl":null,"author":"mkl95","authorUrl":"https://news.ycombinator.com/user?id=mkl95","authorImage":null,"authorSlug":null,"score":231,"views":null,"sharedCount":null,"likeCount":null,"sharedContent":null,"parent":{"__typename":"HnJson","localize":[{"title":"SQLAlchemy 1.4","locale":"zh"},{"title":"SQLAlchemy 1.4","locale":"zh-Hant"}]}},{"__typename":"SocialMediaPost","id":"HnPost-26488655","excerpt":"","slug":"/hn/26488655","title":"Tusky has been removed from the Play Store","date":"March 17, 2021","dateISO":"2021-03-17T14:25:57.109Z","datetime":"2021-03-17 14:25","tags":["story","Hacker News"],"image":null,"imageAlt":null,"provider":"Hacker News","thirdPartyId":"26488655","url":"https://news.ycombinator.com/item?id=26488655","originalUrl":"https://chaos.social/@ConnyDuck/105904002285019275","imageRemote":"https://chaos.social/system/accounts/avatars/000/146/425/original/4c75cd6c8cd125d5.jpg","video":null,"channel":null,"channelUrl":null,"author":"garritfra","authorUrl":"https://news.ycombinator.com/user?id=garritfra","authorImage":null,"authorSlug":null,"score":268,"views":null,"sharedCount":null,"likeCount":null,"sharedContent":null,"parent":{"__typename":"HnJson","localize":[{"title":"Tusky已从Play Store中移除。","locale":"zh"},{"title":"Tusky已從Play Store中移除。","locale":"zh-Hant"}]}},{"__typename":"SocialMediaPost","id":"HnPost-26489561","excerpt":"","slug":"/hn/26489561","title":"Indiana Jones and the Last Crusade EGA/VGA Comparison","date":"March 17, 2021","dateISO":"2021-03-17T14:25:57.109Z","datetime":"2021-03-17 14:25","tags":["story","Hacker News"],"image":null,"imageAlt":null,"provider":"Hacker News","thirdPartyId":"26489561","url":"https://news.ycombinator.com/item?id=26489561","originalUrl":"http://www.superrune.com/tutorials/indy3_ega.php","imageRemote":"http://www.superrune.com/tutorials/images/indy3/indy3_room079_ega.png","video":null,"channel":null,"channelUrl":null,"author":"ingve","authorUrl":"https://news.ycombinator.com/user?id=ingve","authorImage":null,"authorSlug":null,"score":417,"views":null,"sharedCount":null,"likeCount":null,"sharedContent":null,"parent":{"__typename":"HnJson","localize":[{"title":"印第安纳琼斯与最后的十字军》EGA/VGA对比图","locale":"zh"},{"title":"印第安納瓊斯與最後的十字軍》EGA/VGA對比圖","locale":"zh-Hant"}]}},{"__typename":"SocialMediaPost","id":"HnPost-26484124","excerpt":"","slug":"/hn/26484124","title":"Can We Stop Pretending SMS Is Secure Now?","date":"March 17, 2021","dateISO":"2021-03-17T12:59:56.028Z","datetime":"2021-03-17 12:59","tags":["story","Hacker News"],"image":null,"imageAlt":null,"provider":"Hacker News","thirdPartyId":"26484124","url":"https://news.ycombinator.com/item?id=26484124","originalUrl":"https://krebsonsecurity.com/2021/03/can-we-stop-pretending-sms-is-secure-now/","imageRemote":"https://krebsonsecurity.com/wp-content/uploads/2018/09/phonescam.png","video":null,"channel":null,"channelUrl":null,"author":"parsecs","authorUrl":"https://news.ycombinator.com/user?id=parsecs","authorImage":null,"authorSlug":null,"score":221,"views":null,"sharedCount":null,"likeCount":null,"sharedContent":null,"parent":{"__typename":"HnJson","localize":[{"title":"我们现在能不能不要再假装短信是安全的？","locale":"zh"},{"title":"我們現在能不能不要再假裝短信是安全的？","locale":"zh-Hant"}]}},{"__typename":"SocialMediaPost","id":"HnPost-26485993","excerpt":"","slug":"/hn/26485993","title":"The Modern Java Platform – 2021 Edition","date":"March 17, 2021","dateISO":"2021-03-17T12:59:56.028Z","datetime":"2021-03-17 12:59","tags":["story","Hacker News"],"image":null,"imageAlt":null,"provider":"Hacker News","thirdPartyId":"26485993","url":"https://news.ycombinator.com/item?id=26485993","originalUrl":"https://jamesward.com/2021/03/16/the-modern-java-platform-2021-edition/","imageRemote":"https://jamesward.com/uploads/489/BrowseCatalogForProduct.png","video":null,"channel":null,"channelUrl":null,"author":"craigkerstiens","authorUrl":"https://news.ycombinator.com/user?id=craigkerstiens","authorImage":null,"authorSlug":null,"score":261,"views":null,"sharedCount":null,"likeCount":null,"sharedContent":null,"parent":{"__typename":"HnJson","localize":[{"title":"现代Java平台--2021年版","locale":"zh"},{"title":"現代Java平臺--2021年版","locale":"zh-Hant"}]}},{"__typename":"SocialMediaPost","id":"HnPost-26474947","excerpt":"","slug":"/hn/26474947","title":"Common Mistakes of New Engineering Managers","date":"March 17, 2021","dateISO":"2021-03-17T12:32:18.423Z","datetime":"2021-03-17 12:32","tags":["story","Hacker News"],"image":null,"imageAlt":null,"provider":"Hacker News","thirdPartyId":"26474947","url":"https://news.ycombinator.com/item?id=26474947","originalUrl":"https://ochronus.online/the-5-common-mistakes-of-new-engineering-managers/","imageRemote":"https://ochronus.online/wp-content/uploads/2021/03/krakenimages-8RXmc8pLX_I-unsplash-1024x683.jpg","video":null,"channel":null,"channelUrl":null,"author":"ochronus","authorUrl":"https://news.ycombinator.com/user?id=ochronus","authorImage":null,"authorSlug":null,"score":325,"views":null,"sharedCount":null,"likeCount":null,"sharedContent":null,"parent":{"__typename":"HnJson","localize":[{"title":"新任工程经理的常见错误","locale":"zh"},{"title":"新任工程經理的常見錯誤","locale":"zh-Hant"}]}},{"__typename":"SocialMediaPost","id":"HnPost-26484080","excerpt":"","slug":"/hn/26484080","title":"Introducing the Wikimedia Enterprise API","date":"March 17, 2021","dateISO":"2021-03-17T12:32:18.423Z","datetime":"2021-03-17 12:32","tags":["story","Hacker News"],"image":null,"imageAlt":null,"provider":"Hacker News","thirdPartyId":"26484080","url":"https://news.ycombinator.com/item?id=26484080","originalUrl":"https://diff.wikimedia.org/2021/03/16/introducing-the-wikimedia-enterprise-api/","imageRemote":"https://diff.wikimedia.org/wp-content/uploads/2021/03/1280px-Skytrain_abstract_1_6681277365.jpg?fit=1280%2C850","video":null,"channel":null,"channelUrl":null,"author":"dfjorque","authorUrl":"https://news.ycombinator.com/user?id=dfjorque","authorImage":null,"authorSlug":null,"score":173,"views":null,"sharedCount":null,"likeCount":null,"sharedContent":null,"parent":{"__typename":"HnJson","localize":[{"title":"维基媒体企业API介绍","locale":"zh"},{"title":"維基媒體企業API介紹","locale":"zh-Hant"}]}},{"__typename":"SocialMediaPost","id":"HnPost-26486761","excerpt":"","slug":"/hn/26486761","title":"AstraZeneca vaccine doesn't prevent B1351 Covid in early trial","date":"March 17, 2021","dateISO":"2021-03-17T11:51:12.924Z","datetime":"2021-03-17 11:51","tags":["story","Hacker News"],"image":null,"imageAlt":null,"provider":"Hacker News","thirdPartyId":"26486761","url":"https://news.ycombinator.com/item?id=26486761","originalUrl":"https://www.cidrap.umn.edu/news-perspective/2021/03/astrazeneca-vaccine-doesnt-prevent-b1351-covid-early-trial","imageRemote":"https://www.cidrap.umn.edu/sites/default/files/public/styles/thumbnail/public/images/news/young_teacher_gets_covid_vaccine-phil_roeder_0.jpg?itok=EO8kHksw","video":null,"channel":null,"channelUrl":null,"author":"reddotX","authorUrl":"https://news.ycombinator.com/user?id=reddotX","authorImage":null,"authorSlug":null,"score":260,"views":null,"sharedCount":null,"likeCount":null,"sharedContent":null,"parent":{"__typename":"HnJson","localize":[{"title":"阿斯利康疫苗在早期试验中不能预防B1351科维德","locale":"zh"},{"title":"阿斯利康疫苗在早期試驗中不能預防B1351科維德","locale":"zh-Hant"}]}},{"__typename":"SocialMediaPost","id":"HnPost-26480499","excerpt":"","slug":"/hn/26480499","title":"Google Play store bans polyamory dating app","date":"March 17, 2021","dateISO":"2021-03-17T11:44:24.237Z","datetime":"2021-03-17 11:44","tags":["story","Hacker News"],"image":null,"imageAlt":null,"provider":"Hacker News","thirdPartyId":"26480499","url":"https://news.ycombinator.com/item?id=26480499","originalUrl":"https://www.vice.com/en/article/z3vdpj/google-play-store-bans-polyamory-dating-app","imageRemote":"https://video-images.vice.com/articles/604a7d76276e89009b9a583b/lede/1615494648597-pexels-cottonbro-5018202.jpeg?image-resize-opts=Y3JvcD0xeHc6MC4zNzQ3eGg7MHh3LDAuMTA5NHhoJnJlc2l6ZT0xMjAwOiomcmVzaXplPTEyMDA6Kg","video":null,"channel":null,"channelUrl":null,"author":"pcthrowaway","authorUrl":"https://news.ycombinator.com/user?id=pcthrowaway","authorImage":null,"authorSlug":null,"score":211,"views":null,"sharedCount":null,"likeCount":null,"sharedContent":null,"parent":{"__typename":"HnJson","localize":[{"title":"Google Play商店禁止多角恋交友应用","locale":"zh"},{"title":"Google Play商店禁止多角戀交友應用","locale":"zh-Hant"}]}},{"__typename":"SocialMediaPost","id":"HnPost-26486737","excerpt":"","slug":"/hn/26486737","title":"Google Play service fee reduced to 15% for the first $1M/year","date":"March 17, 2021","dateISO":"2021-03-17T11:32:20.959Z","datetime":"2021-03-17 11:32","tags":["story","Hacker News"],"image":null,"imageAlt":null,"provider":"Hacker News","thirdPartyId":"26486737","url":"https://news.ycombinator.com/item?id=26486737","originalUrl":"https://android-developers.googleblog.com/2021/03/boosting-dev-success.html","imageRemote":"https://1.bp.blogspot.com/-AVwnqEsxp7Y/YEwHMnaKYkI/AAAAAAAAQPk/XB6r-ApAW9oHD78jB4P8JejVYbjLDKnEACLcBGAsYHQ/w1200-h630-p-k-no-nu/play%2Blogo.png","video":null,"channel":null,"channelUrl":null,"author":"h43k3r","authorUrl":"https://news.ycombinator.com/user?id=h43k3r","authorImage":null,"authorSlug":null,"score":495,"views":null,"sharedCount":null,"likeCount":null,"sharedContent":null,"parent":{"__typename":"HnJson","localize":[{"title":"Google Play服务费首100万美元/年降至15%。","locale":"zh"},{"title":"Google Play服務費首100萬美元/年降至15%。","locale":"zh-Hant"}]}},{"__typename":"SocialMediaPost","id":"HnPost-26485608","excerpt":"","slug":"/hn/26485608","title":"Lost in Thought: Psychological Risks of Meditation","date":"March 17, 2021","dateISO":"2021-03-17T11:14:16.553Z","datetime":"2021-03-17 11:14","tags":["story","Hacker News"],"image":null,"imageAlt":null,"provider":"Hacker News","thirdPartyId":"26485608","url":"https://news.ycombinator.com/item?id=26485608","originalUrl":"https://harpers.org/archive/2021/04/lost-in-thought-psychological-risks-of-meditation/","imageRemote":"https://harpers.org/wp-content/uploads/2021/04/HARPERS_0421_36_01-social.png","video":null,"channel":null,"channelUrl":null,"author":"telotortium","authorUrl":"https://news.ycombinator.com/user?id=telotortium","authorImage":null,"authorSlug":null,"score":237,"views":null,"sharedCount":null,"likeCount":null,"sharedContent":null,"parent":{"__typename":"HnJson","localize":[{"title":"迷失在思想中。冥想的心理风险","locale":"zh"},{"title":"迷失在思想中。冥想的心理風險","locale":"zh-Hant"}]}},{"__typename":"SocialMediaPost","id":"HnPost-26487854","excerpt":"","slug":"/hn/26487854","title":"GitHub, f ck your name change","date":"March 17, 2021","dateISO":"2021-03-17T08:50:03.806Z","datetime":"2021-03-17 08:50","tags":["story","Hacker News"],"image":null,"imageAlt":null,"provider":"Hacker News","thirdPartyId":"26487854","url":"https://news.ycombinator.com/item?id=26487854","originalUrl":"https://mooseyanon.medium.com/github-f-ck-your-name-change-de599033bbbe","imageRemote":"https://miro.medium.com/max/1200/1*SzYrXURz_C9FK3AhVR-SIw.jpeg","video":null,"channel":null,"channelUrl":null,"author":"leontrolski","authorUrl":"https://news.ycombinator.com/user?id=leontrolski","authorImage":null,"authorSlug":null,"score":3319,"views":null,"sharedCount":null,"likeCount":null,"sharedContent":null,"parent":{"__typename":"HnJson","localize":[{"title":"GitHub, f ck你的名字改变","locale":"zh"},{"title":"GitHub, f ck你的名字改變","locale":"zh-Hant"}]}},{"__typename":"SocialMediaPost","id":"HnPost-26485756","excerpt":"","slug":"/hn/26485756","title":"Why in the world would you own bonds?","date":"March 17, 2021","dateISO":"2021-03-17T06:47:18.099Z","datetime":"2021-03-17 06:47","tags":["story","Hacker News"],"image":null,"imageAlt":null,"provider":"Hacker News","thirdPartyId":"26485756","url":"https://news.ycombinator.com/item?id=26485756","originalUrl":"https://www.bridgewater.com/research-and-insights/why-in-the-world-would-you-own-bonds-when","imageRemote":"https://bridgewater.brightspotcdn.com/dims4/default/143e8bc/2147483647/strip/true/crop/1196x628+2+0/resize/1200x630!/quality/90/?url=http%3A%2F%2Fbridgewater-brightspot.s3.amazonaws.com%2Fe5%2Fbc%2F6907e0e242049722162872f4b18b%2Flinkedin-why-in-the-world-would-you-own-bonds-when-031521.jpg","video":null,"channel":null,"channelUrl":null,"author":"nkurz","authorUrl":"https://news.ycombinator.com/user?id=nkurz","authorImage":null,"authorSlug":null,"score":346,"views":null,"sharedCount":null,"likeCount":null,"sharedContent":null,"parent":{"__typename":"HnJson","localize":[{"title":"为什么你会拥有债券？","locale":"zh"},{"title":"爲什麼你會擁有債券？","locale":"zh-Hant"}]}},{"__typename":"SocialMediaPost","id":"HnPost-26484234","excerpt":"","slug":"/hn/26484234","title":"The auction that set off the race for AI supremacy","date":"March 17, 2021","dateISO":"2021-03-17T06:26:23.208Z","datetime":"2021-03-17 06:26","tags":["story","Hacker News"],"image":null,"imageAlt":null,"provider":"Hacker News","thirdPartyId":"26484234","url":"https://news.ycombinator.com/item?id=26484234","originalUrl":"https://www.wired.com/story/secret-auction-race-ai-supremacy-google-microsoft-baidu/","imageRemote":"https://media.wired.com/photos/604be6cf336bd81412cb72e5/191:100/w_1280,c_limit/unnamed.jpg","video":null,"channel":null,"channelUrl":null,"author":"chriskanan","authorUrl":"https://news.ycombinator.com/user?id=chriskanan","authorImage":null,"authorSlug":null,"score":230,"views":null,"sharedCount":null,"likeCount":null,"sharedContent":null,"parent":{"__typename":"HnJson","localize":[{"title":"掀起人工智能霸主之争的拍卖会","locale":"zh"},{"title":"掀起人工智能霸主之爭的拍賣會","locale":"zh-Hant"}]}},{"__typename":"SocialMediaPost","id":"HnPost-26484927","excerpt":"","slug":"/hn/26484927","title":"GitHub Has a Permission Problem","date":"March 17, 2021","dateISO":"2021-03-17T04:44:30.246Z","datetime":"2021-03-17 04:44","tags":["story","Hacker News"],"image":null,"imageAlt":null,"provider":"Hacker News","thirdPartyId":"26484927","url":"https://news.ycombinator.com/item?id=26484927","originalUrl":"https://games.greggman.com/game/github-permission-problem/","imageRemote":"https://games.greggman.com/images/misc/github-permissions.png","video":null,"channel":null,"channelUrl":null,"author":"phreack","authorUrl":"https://news.ycombinator.com/user?id=phreack","authorImage":null,"authorSlug":null,"score":257,"views":null,"sharedCount":null,"likeCount":null,"sharedContent":null,"parent":{"__typename":"HnJson","localize":[{"title":"GitHub出现权限问题","locale":"zh"},{"title":"GitHub出現權限問題","locale":"zh-Hant"}]}},{"__typename":"SocialMediaPost","id":"HnPost-26482304","excerpt":"","slug":"/hn/26482304","title":"Runj: Experimental, proof-of-concept OCI-compatible runtime for FreeBSD jails","date":"March 17, 2021","dateISO":"2021-03-17T04:17:10.712Z","datetime":"2021-03-17 04:17","tags":["story","Hacker News"],"image":null,"imageAlt":null,"provider":"Hacker News","thirdPartyId":"26482304","url":"https://news.ycombinator.com/item?id=26482304","originalUrl":"https://github.com/samuelkarp/runj#runj","imageRemote":"https://avatars.githubusercontent.com/u/737750?s=400&v=4","video":null,"channel":null,"channelUrl":null,"author":"ingve","authorUrl":"https://news.ycombinator.com/user?id=ingve","authorImage":null,"authorSlug":null,"score":191,"views":null,"sharedCount":null,"likeCount":null,"sharedContent":null,"parent":{"__typename":"HnJson","localize":[{"title":"Runj：实验性的、概念验证的、兼容OCI的FreeBSD监狱运行时。","locale":"zh"},{"title":"Runj：實驗性的、概念驗證的、兼容OCI的FreeBSD監獄運行時。","locale":"zh-Hant"}]}},{"__typename":"SocialMediaPost","id":"HnPost-26475596","excerpt":"","slug":"/hn/26475596","title":"GeForce RTX 3060 Ethereum Mining Restrictions Have Been Broken","date":"March 16, 2021","dateISO":"2021-03-16T23:54:38.439Z","datetime":"2021-03-16 23:54","tags":["story","Hacker News"],"image":null,"imageAlt":null,"provider":"Hacker News","thirdPartyId":"26475596","url":"https://news.ycombinator.com/item?id=26475596","originalUrl":"https://videocardz.com/newz/pc-watch-geforce-rtx-3060-ethereum-mining-restrictions-have-been-broken","imageRemote":"https://cdn.videocardz.com/1/2021/03/RTX-3060-Ethereum-1.jpg","video":null,"channel":null,"channelUrl":null,"author":"optimalsolver","authorUrl":"https://news.ycombinator.com/user?id=optimalsolver","authorImage":null,"authorSlug":null,"score":253,"views":null,"sharedCount":null,"likeCount":null,"sharedContent":null,"parent":{"__typename":"HnJson","localize":[{"title":"GeForce RTX 3060的Ethereum挖矿限制已被打破。","locale":"zh"},{"title":"GeForce RTX 3060的Ethereum挖礦限制已被打破。","locale":"zh-Hant"}]}}]}},"pageContext":{"basePath":"/","pageType":"home","tagsFilter":{"id":{"glob":"!*Post-1"}},"filter":{"id":{"glob":"!*Post-1"}},"limit":25,"skip":550,"totalPages":125,"total":3105,"currentPage":23,"maxWidth":1024,"maxHeight":512,"locale":"en","hrefLang":"en-US","originalPath":"/page/23","dateFormat":"MM/DD/YYYY"}},"staticQueryHashes":["1239077767","2506312863","2744905544","3025052997","3493603132","3493603132","3513215887","386998304"]}