{"componentChunkName":"component---gatsby-theme-buzzing-src-gatsby-theme-timeline-templates-posts-query-js","path":"/zh-Hant/tags/hacker-news/page/13","result":{"data":{"site":{"siteMetadata":{"title":"Reddit 热门","description":"用中文浏览Reddit热门内容","social":[{"name":"Reddit","url":"https://www.reddit.com/","external":true,"prefetch":null},{"name":"GitHub","url":"https://github.com/gatsbyjs","external":null,"prefetch":null}],"menuLinks":[{"name":"每周精选","url":"/issues","external":null,"prefetch":null},{"name":"RSS","url":"/rss.xml","external":null,"prefetch":false}],"localize":[{"locale":"en","title":"Buzzing on Reddit","description":"See what's buzzing on Reddit in your native language","social":[{"name":"Reddit","url":"https://www.reddit.com/","external":true,"prefetch":null}],"menuLinks":[{"name":"Weekly Selection","url":"/issues","external":null,"prefetch":null},{"name":"RSS","url":"/rss.xml","external":null,"prefetch":false}]},{"locale":"zh-Hant","title":"Reddit 熱門","description":"用中文瀏覽Reddit熱門內容","social":null,"menuLinks":null}]}},"tagsGroup":{"group":[{"fieldValue":"ASK HN","totalCount":20},{"fieldValue":"Bitcoin","totalCount":3},{"fieldValue":"Hacker News","totalCount":896},{"fieldValue":"Poll","totalCount":1},{"fieldValue":"Show HN","totalCount":34},{"fieldValue":"investing","totalCount":189},{"fieldValue":"poll","totalCount":1},{"fieldValue":"reddit","totalCount":720},{"fieldValue":"science","totalCount":1},{"fieldValue":"stocks","totalCount":319},{"fieldValue":"story","totalCount":895},{"fieldValue":"tweet","totalCount":269},{"fieldValue":"wallstreetbets","totalCount":212}]},"allBlogPost":{"nodes":[{"__typename":"SocialMediaPost","id":"HnPost-25605867","excerpt":"","slug":"/hn/25605867","title":"School or Prison","date":"January 01, 2021","dateISO":"2021-01-01T21:52:18.813Z","datetime":"2021-01-01 21:52","tags":["story","Hacker News"],"image":null,"imageAlt":null,"provider":"Hacker News","thirdPartyId":"25605867","url":"https://news.ycombinator.com/item?id=25605867","originalUrl":"https://www.schoolprison.com/","imageRemote":null,"video":null,"channel":null,"channelUrl":null,"author":"nickburlett","authorUrl":"https://news.ycombinator.com/user?id=nickburlett","authorImage":null,"authorSlug":null,"score":705,"views":null,"sharedCount":null,"likeCount":null,"sharedContent":null,"parent":{"__typename":"HnJson","localize":[{"title":"学校或监狱","locale":"zh"},{"title":"學校或監獄","locale":"zh-Hant"}]}},{"__typename":"SocialMediaPost","id":"HnPost-25603254","excerpt":"","slug":"/hn/25603254","title":"Running Debian on a 32MB RAM Single Core ARM SBC","date":"January 01, 2021","dateISO":"2021-01-01T20:44:07.449Z","datetime":"2021-01-01 20:44","tags":["story","Hacker News"],"image":null,"imageAlt":null,"provider":"Hacker News","thirdPartyId":"25603254","url":"https://news.ycombinator.com/item?id=25603254","originalUrl":"https://blog.jmdawson.co.uk/lichee-nano-pi-will-it-run-debian/","imageRemote":"https://i0.wp.com/blog.jmdawson.co.uk/wp-content/uploads/2021/01/LicheePi-Nano-Board-Large.jpg?fit=1414%2C976&ssl=1","video":null,"channel":null,"channelUrl":null,"author":"jamesmd","authorUrl":"https://news.ycombinator.com/user?id=jamesmd","authorImage":null,"authorSlug":null,"score":192,"views":null,"sharedCount":null,"likeCount":null,"sharedContent":null,"parent":{"__typename":"HnJson","localize":[{"title":"在32MB RAM单核ARM SBC上运行Debian","locale":"zh"},{"title":"在32MB RAM單核ARM SBC上運行Debian","locale":"zh-Hant"}]}},{"__typename":"SocialMediaPost","id":"HnPost-25603271","excerpt":"","slug":"/hn/25603271","title":"George Orwell is out of copyright. What happens now?","date":"January 01, 2021","dateISO":"2021-01-01T20:44:07.449Z","datetime":"2021-01-01 20:44","tags":["story","Hacker News"],"image":null,"imageAlt":null,"provider":"Hacker News","thirdPartyId":"25603271","url":"https://news.ycombinator.com/item?id=25603271","originalUrl":"https://www.theguardian.com/books/booksblog/2021/jan/01/george-orwell-is-out-of-copyright-what-happens-now","imageRemote":"https://i.guim.co.uk/img/media/2da60d98bd4e33cde3ab3a5a1d7f621090dcb400/0_648_2008_1203/master/2008.jpg?width=1200&height=630&quality=85&auto=format&fit=crop&overlay-align=bottom%2Cleft&overlay-width=100p&overlay-base64=L2ltZy9zdGF0aWMvb3ZlcmxheXMvdGctZGVmYXVsdC5wbmc&enable=upscale&s=498c1fee882c3f63e8d5e3cc5619590a","video":null,"channel":null,"channelUrl":null,"author":"headalgorithm","authorUrl":"https://news.ycombinator.com/user?id=headalgorithm","authorImage":null,"authorSlug":null,"score":193,"views":null,"sharedCount":null,"likeCount":null,"sharedContent":null,"parent":{"__typename":"HnJson","localize":[{"title":"乔治·奥威尔的版权到期了。现在怎么办？","locale":"zh"},{"title":"喬治·奧威爾的版權到期了。現在怎麼辦？","locale":"zh-Hant"}]}},{"__typename":"SocialMediaPost","id":"HnPost-25605156","excerpt":"","slug":"/hn/25605156","title":"Peer-reviewed papers are getting increasingly boring","date":"January 01, 2021","dateISO":"2021-01-01T20:44:07.449Z","datetime":"2021-01-01 20:44","tags":["story","Hacker News"],"image":null,"imageAlt":null,"provider":"Hacker News","thirdPartyId":"25605156","url":"https://news.ycombinator.com/item?id=25605156","originalUrl":"https://lemire.me/blog/2021/01/01/peer-reviewed-papers-are-getting-increasingly-boring/","imageRemote":"https://lemire.me/img/portrait2018facebook.jpg","video":null,"channel":null,"channelUrl":null,"author":"ingve","authorUrl":"https://news.ycombinator.com/user?id=ingve","authorImage":null,"authorSlug":null,"score":364,"views":null,"sharedCount":null,"likeCount":null,"sharedContent":null,"parent":{"__typename":"HnJson","localize":[{"title":"同行评议的论文越来越乏味。","locale":"zh"},{"title":"同行評議的論文越來越乏味。","locale":"zh-Hant"}]}},{"__typename":"SocialMediaPost","id":"HnPost-25605880","excerpt":"","slug":"/hn/25605880","title":"Apple has threatened to remove Amphetamine from the App Store","date":"January 01, 2021","dateISO":"2021-01-01T20:15:44.326Z","datetime":"2021-01-01 20:15","tags":["story","Hacker News"],"image":null,"imageAlt":null,"provider":"Hacker News","thirdPartyId":"25605880","url":"https://news.ycombinator.com/item?id=25605880","originalUrl":"https://github.com/x74353/SaveAmphetamine","imageRemote":"https://repository-images.githubusercontent.com/325698515/39601b00-4c26-11eb-9810-08ad8e3c371e","video":null,"channel":null,"channelUrl":null,"author":"giuliomagnifico","authorUrl":"https://news.ycombinator.com/user?id=giuliomagnifico","authorImage":null,"authorSlug":null,"score":946,"views":null,"sharedCount":null,"likeCount":null,"sharedContent":null,"parent":{"__typename":"HnJson","localize":[{"title":"苹果威胁要从App Store下架安非他命","locale":"zh"},{"title":"蘋果威脅要從App Store下架安非他命","locale":"zh-Hant"}]}},{"__typename":"SocialMediaPost","id":"HnPost-25600711","excerpt":"","slug":"/hn/25600711","title":"The naval shipworm helped bring about the Industrial Revolution","date":"January 01, 2021","dateISO":"2021-01-01T19:24:57.378Z","datetime":"2021-01-01 19:24","tags":["story","Hacker News"],"image":null,"imageAlt":null,"provider":"Hacker News","thirdPartyId":"25600711","url":"https://news.ycombinator.com/item?id=25600711","originalUrl":"https://twitter.com/davidfickling/status/1344404814256504832","imageRemote":null,"video":null,"channel":null,"channelUrl":null,"author":"mstats","authorUrl":"https://news.ycombinator.com/user?id=mstats","authorImage":null,"authorSlug":null,"score":160,"views":null,"sharedCount":null,"likeCount":null,"sharedContent":null,"parent":{"__typename":"HnJson","localize":[{"title":"海军舰艇蠕虫促成了工业革命。","locale":"zh"},{"title":"海軍艦艇蠕蟲促成了工業革命。","locale":"zh-Hant"}]}},{"__typename":"SocialMediaPost","id":"HnPost-25605211","excerpt":"","slug":"/hn/25605211","title":"My Experience @ Apple","date":"January 01, 2021","dateISO":"2021-01-01T19:24:57.378Z","datetime":"2021-01-01 19:24","tags":["story","Hacker News"],"image":null,"imageAlt":null,"provider":"Hacker News","thirdPartyId":"25605211","url":"https://news.ycombinator.com/item?id=25605211","originalUrl":"https://ex-apple-engineer.medium.com/my-experience-apple-5d8b6205cb56","imageRemote":"https://miro.medium.com/max/496/1*o3l4N-q01WTDrG73LitR8g.jpeg","video":null,"channel":null,"channelUrl":null,"author":"limono","authorUrl":"https://news.ycombinator.com/user?id=limono","authorImage":null,"authorSlug":null,"score":1597,"views":null,"sharedCount":null,"likeCount":null,"sharedContent":null,"parent":{"__typename":"HnJson","localize":[{"title":"我的经历@苹果","locale":"zh"},{"title":"我的經歷@蘋果","locale":"zh-Hant"}]}},{"__typename":"SocialMediaPost","id":"HnPost-25602602","excerpt":"","slug":"/hn/25602602","title":"White House wins ruling on disclosing health care prices","date":"January 01, 2021","dateISO":"2021-01-01T18:54:29.918Z","datetime":"2021-01-01 18:54","tags":["story","Hacker News"],"image":null,"imageAlt":null,"provider":"Hacker News","thirdPartyId":"25602602","url":"https://news.ycombinator.com/item?id=25602602","originalUrl":"https://apnews.com/article/donald-trump-politics-kayleigh-mcenany-courts-f0700210fe86004255f68f15d12e9932","imageRemote":"https://storage.googleapis.com/afs-prod/media/9a3dc45deae840ffa781c110213a4eb1/3000.jpeg","video":null,"channel":null,"channelUrl":null,"author":"gscott","authorUrl":"https://news.ycombinator.com/user?id=gscott","authorImage":null,"authorSlug":null,"score":207,"views":null,"sharedCount":null,"likeCount":null,"sharedContent":null,"parent":{"__typename":"HnJson","localize":[{"title":"白宫赢得关于披露医疗价格的裁决","locale":"zh"},{"title":"白宮贏得關於披露醫療價格的裁決","locale":"zh-Hant"}]}},{"__typename":"SocialMediaPost","id":"HnPost-25601821","excerpt":"","slug":"/hn/25601821","title":"State machines are wonderful tools","date":"January 01, 2021","dateISO":"2021-01-01T17:07:22.284Z","datetime":"2021-01-01 17:07","tags":["story","Hacker News"],"image":null,"imageAlt":null,"provider":"Hacker News","thirdPartyId":"25601821","url":"https://news.ycombinator.com/item?id=25601821","originalUrl":"https://nullprogram.com/blog/2020/12/31/","imageRemote":"https://nullprogram.com/img/diagram/morse.svg","video":null,"channel":null,"channelUrl":null,"author":"chmaynard","authorUrl":"https://news.ycombinator.com/user?id=chmaynard","authorImage":null,"authorSlug":null,"score":338,"views":null,"sharedCount":null,"likeCount":null,"sharedContent":null,"parent":{"__typename":"HnJson","localize":[{"title":"状态机是很棒的工具","locale":"zh"},{"title":"狀態機是很棒的工具","locale":"zh-Hant"}]}},{"__typename":"SocialMediaPost","id":"HnPost-25601846","excerpt":"","slug":"/hn/25601846","title":"Fired App Reviewer Sues Apple","date":"January 01, 2021","dateISO":"2021-01-01T17:07:22.284Z","datetime":"2021-01-01 17:07","tags":["story","Hacker News"],"image":null,"imageAlt":null,"provider":"Hacker News","thirdPartyId":"25601846","url":"https://news.ycombinator.com/item?id=25601846","originalUrl":"https://mjtsai.com/blog/2020/12/31/fired-app-reviewer-sues-apple/","imageRemote":"https://mjtsai.com/images/dropdmg-icon-32.png","video":null,"channel":null,"channelUrl":null,"author":"ksec","authorUrl":"https://news.ycombinator.com/user?id=ksec","authorImage":null,"authorSlug":null,"score":265,"views":null,"sharedCount":null,"likeCount":null,"sharedContent":null,"parent":{"__typename":"HnJson","localize":[{"title":"被解雇的App Reviewer起诉苹果","locale":"zh"},{"title":"被解僱的App Reviewer起訴蘋果","locale":"zh-Hant"}]}},{"__typename":"SocialMediaPost","id":"HnPost-25600011","excerpt":"","slug":"/hn/25600011","title":"Best of HN 2020","date":"January 01, 2021","dateISO":"2021-01-01T15:11:00.825Z","datetime":"2021-01-01 15:11","tags":["story","Hacker News"],"image":null,"imageAlt":null,"provider":"Hacker News","thirdPartyId":"25600011","url":"https://news.ycombinator.com/item?id=25600011","originalUrl":"https://hn.algolia.com/?dateEnd=1609415804&dateRange=custom&dateStart=1577836800&page=0&prefix=false&query=&sort=byPopularity&type=story","imageRemote":"https://d3nb9u6x572n0.cloudfront.net/yc-logo.png","video":null,"channel":null,"channelUrl":null,"author":"richardboegli","authorUrl":"https://news.ycombinator.com/user?id=richardboegli","authorImage":null,"authorSlug":null,"score":188,"views":null,"sharedCount":null,"likeCount":null,"sharedContent":null,"parent":{"__typename":"HnJson","localize":[{"title":"2020年度最佳HN","locale":"zh"},{"title":"2020年度最佳HN","locale":"zh-Hant"}]}},{"__typename":"SocialMediaPost","id":"HnPost-25602950","excerpt":"","slug":"/hn/25602950","title":"EU Signs €145bn Declaration to Develop Next Gen Processors and 2nm Technology","date":"January 01, 2021","dateISO":"2021-01-01T14:35:36.774Z","datetime":"2021-01-01 14:35","tags":["story","Hacker News"],"image":null,"imageAlt":null,"provider":"Hacker News","thirdPartyId":"25602950","url":"https://news.ycombinator.com/item?id=25602950","originalUrl":"https://www.eetimes.eu/eu-signs-e145bn-declaration-to-develop-next-gen-processors-and-2nm-technology/","imageRemote":"https://www.eetimes.eu/wp-content/uploads/2020/12/European-Commission-microelectronics-image.jpg?fit=992%2C682","video":null,"channel":null,"channelUrl":null,"author":"simonpd","authorUrl":"https://news.ycombinator.com/user?id=simonpd","authorImage":null,"authorSlug":null,"score":752,"views":null,"sharedCount":null,"likeCount":null,"sharedContent":null,"parent":{"__typename":"HnJson","localize":[{"title":"欧盟签署1450亿欧元宣言开发下一代处理器和2 NM技术","locale":"zh"},{"title":"歐盟簽署1450億歐元宣言開發下一代處理器和2 NM技術","locale":"zh-Hant"}]}},{"__typename":"SocialMediaPost","id":"HnPost-25601814","excerpt":"","slug":"/hn/25601814","title":"2021: CA law restricts delivery apps from listing restaurants without permission","date":"January 01, 2021","dateISO":"2021-01-01T12:14:04.261Z","datetime":"2021-01-01 12:14","tags":["story","Hacker News"],"image":null,"imageAlt":null,"provider":"Hacker News","thirdPartyId":"25601814","url":"https://news.ycombinator.com/item?id=25601814","originalUrl":"https://leginfo.legislature.ca.gov/faces/billTextClient.xhtml?bill_id=201920200AB2149","imageRemote":"https://leginfo.legislature.ca.gov/resources/images/header_img.png","video":null,"channel":null,"channelUrl":null,"author":"supernova87a","authorUrl":"https://news.ycombinator.com/user?id=supernova87a","authorImage":null,"authorSlug":null,"score":1317,"views":null,"sharedCount":null,"likeCount":null,"sharedContent":null,"parent":{"__typename":"HnJson","localize":[{"title":"2021年：CA法律限制送货应用程序未经许可列出餐厅","locale":"zh"},{"title":"2021年：CA法律限制送貨應用程序未經許可列出餐廳","locale":"zh-Hant"}]}},{"__typename":"SocialMediaPost","id":"HnPost-25598270","excerpt":"","slug":"/hn/25598270","title":"Reverse Engineering Source Code of the Biontech Pfizer Vaccine: Part 2","date":"January 01, 2021","dateISO":"2021-01-01T11:55:02.946Z","datetime":"2021-01-01 11:55","tags":["story","Hacker News"],"image":null,"imageAlt":null,"provider":"Hacker News","thirdPartyId":"25598270","url":"https://news.ycombinator.com/item?id=25598270","originalUrl":"https://berthub.eu/articles/posts/part-2-reverse-engineering-source-code-of-the-biontech-pfizer-vaccine/","imageRemote":"https://berthub.eu/articles/dna-codon-table.png","video":null,"channel":null,"channelUrl":null,"author":"soheilpro","authorUrl":"https://news.ycombinator.com/user?id=soheilpro","authorImage":null,"authorSlug":null,"score":212,"views":null,"sharedCount":null,"likeCount":null,"sharedContent":null,"parent":{"__typename":"HnJson","localize":[{"title":"生物技术辉瑞疫苗的反向工程源代码：第二部分","locale":"zh"},{"title":"生物技術輝瑞疫苗的反向工程源代碼：第二部分","locale":"zh-Hant"}]}},{"__typename":"SocialMediaPost","id":"HnPost-25590022","excerpt":"","slug":"/hn/25590022","title":"Why do we dream? A new theory on how it protects our brains","date":"January 01, 2021","dateISO":"2021-01-01T11:05:04.377Z","datetime":"2021-01-01 11:05","tags":["story","Hacker News"],"image":null,"imageAlt":null,"provider":"Hacker News","thirdPartyId":"25590022","url":"https://news.ycombinator.com/item?id=25590022","originalUrl":"https://time.com/5925206/why-do-we-dream/","imageRemote":"https://api.time.com/wp-content/uploads/2020/12/why-we-dream-kanghee-kim.jpg?quality=85&crop=0px%2C738px%2C1602px%2C838px&resize=1200%2C628&strip","video":null,"channel":null,"channelUrl":null,"author":"jdnier","authorUrl":"https://news.ycombinator.com/user?id=jdnier","authorImage":null,"authorSlug":null,"score":251,"views":null,"sharedCount":null,"likeCount":null,"sharedContent":null,"parent":{"__typename":"HnJson","localize":[{"title":"我们为什么要做梦？关于它如何保护我们大脑的新理论","locale":"zh"},{"title":"我們爲什麼要做夢？關於它如何保護我們大腦的新理論","locale":"zh-Hant"}]}},{"__typename":"SocialMediaPost","id":"HnPost-25594068","excerpt":"","slug":"/hn/25594068","title":"Ask HN: Predictions for 2021?","date":"January 01, 2021","dateISO":"2021-01-01T11:05:04.377Z","datetime":"2021-01-01 11:05","tags":["story","ASK HN","Hacker News"],"image":null,"imageAlt":null,"provider":"Hacker News","thirdPartyId":"25594068","url":"https://news.ycombinator.com/item?id=25594068","originalUrl":"https://news.ycombinator.com/item?id=25594068","imageRemote":null,"video":null,"channel":"ASK HN","channelUrl":"https://news.ycombinator.com/ask","author":"rvz","authorUrl":"https://news.ycombinator.com/user?id=rvz","authorImage":null,"authorSlug":null,"score":260,"views":null,"sharedCount":null,"likeCount":null,"sharedContent":null,"parent":{"__typename":"HnJson","localize":[{"title":"HN提问：对2021年的预测？","locale":"zh"},{"title":"HN提問：對2021年的預測？","locale":"zh-Hant"}]}},{"__typename":"SocialMediaPost","id":"HnPost-25598656","excerpt":"","slug":"/hn/25598656","title":"The Design of the Roland Juno Syntheziser's Oscillators","date":"January 01, 2021","dateISO":"2021-01-01T10:06:36.497Z","datetime":"2021-01-01 10:06","tags":["story","Hacker News"],"image":null,"imageAlt":null,"provider":"Hacker News","thirdPartyId":"25598656","url":"https://news.ycombinator.com/item?id=25598656","originalUrl":"https://blog.thea.codes/the-design-of-the-juno-dco/","imageRemote":"https://blog.thea.codes/static/juno/juno-logo.png","video":null,"channel":null,"channelUrl":null,"author":"cushychicken","authorUrl":"https://news.ycombinator.com/user?id=cushychicken","authorImage":null,"authorSlug":null,"score":237,"views":null,"sharedCount":null,"likeCount":null,"sharedContent":null,"parent":{"__typename":"HnJson","localize":[{"title":"罗兰·朱诺合成器振荡器的设计","locale":"zh"},{"title":"羅蘭·朱諾合成器振盪器的設計","locale":"zh-Hant"}]}},{"__typename":"SocialMediaPost","id":"HnPost-25591202","excerpt":"","slug":"/hn/25591202","title":"Shigeru Miyamoto wants to create a kinder world","date":"January 01, 2021","dateISO":"2021-01-01T08:40:26.123Z","datetime":"2021-01-01 08:40","tags":["story","Hacker News"],"image":null,"imageAlt":null,"provider":"Hacker News","thirdPartyId":"25591202","url":"https://news.ycombinator.com/item?id=25591202","originalUrl":"https://www.newyorker.com/culture/the-new-yorker-interview/shigeru-miyamoto-wants-to-create-a-kinder-world","imageRemote":"https://media.newyorker.com/photos/5fc512a4fb872ceec231feaf/16:9/w_1280,c_limit/TNYI-ShigeruMiyamoto.jpg","video":null,"channel":null,"channelUrl":null,"author":"polm23","authorUrl":"https://news.ycombinator.com/user?id=polm23","authorImage":null,"authorSlug":null,"score":220,"views":null,"sharedCount":null,"likeCount":null,"sharedContent":null,"parent":{"__typename":"HnJson","localize":[{"title":"宫本茂(Shigeru Miyamoto)想要创造一个更友善的世界","locale":"zh"},{"title":"宮本茂(Shigeru Miyamoto)想要創造一個更友善的世界","locale":"zh-Hant"}]}},{"__typename":"SocialMediaPost","id":"HnPost-25597430","excerpt":"","slug":"/hn/25597430","title":"“Odd Radio Circles” have astronomers excited","date":"January 01, 2021","dateISO":"2021-01-01T07:08:12.392Z","datetime":"2021-01-01 07:08","tags":["story","Hacker News"],"image":null,"imageAlt":null,"provider":"Hacker News","thirdPartyId":"25597430","url":"https://news.ycombinator.com/item?id=25597430","originalUrl":"https://singularityhub.com/2020/12/30/wtf-newly-discovered-ghostly-circles-in-the-sky-cant-be-explained-by-current-theories-and-astronomers-are-excited/","imageRemote":"https://singularityhub.com/wp-content/uploads/2020/12/mysterious-ghostly-circles-radio-waves-askap.jpg","video":null,"channel":null,"channelUrl":null,"author":"huntermeyer","authorUrl":"https://news.ycombinator.com/user?id=huntermeyer","authorImage":null,"authorSlug":null,"score":188,"views":null,"sharedCount":null,"likeCount":null,"sharedContent":null,"parent":{"__typename":"HnJson","localize":[{"title":"“奇数电波圈”让天文学家们兴奋不已","locale":"zh"},{"title":"“奇數電波圈”讓天文學家們興奮不已","locale":"zh-Hant"}]}},{"__typename":"SocialMediaPost","id":"HnPost-25600274","excerpt":"","slug":"/hn/25600274","title":"Most of what you read on the internet is written by insane people (2018)","date":"January 01, 2021","dateISO":"2021-01-01T07:08:12.392Z","datetime":"2021-01-01 07:08","tags":["story","Hacker News"],"image":null,"imageAlt":null,"provider":"Hacker News","thirdPartyId":"25600274","url":"https://news.ycombinator.com/item?id=25600274","originalUrl":"https://www.reddit.com/r/slatestarcodex/comments/9rvroo/most_of_what_you_read_on_the_internet_is_written/","imageRemote":"https://external-preview.redd.it/LaTGZ5w10DtENzLNNl4D_zSdAPFXhWVHz3H48Q93N5Q.jpg?auto=webp&s=c57ece1f23b1dc8adf0d8297b15965f5ceae77c0","video":null,"channel":null,"channelUrl":null,"author":"zuhayeer","authorUrl":"https://news.ycombinator.com/user?id=zuhayeer","authorImage":null,"authorSlug":null,"score":538,"views":null,"sharedCount":null,"likeCount":null,"sharedContent":null,"parent":{"__typename":"HnJson","localize":[{"title":"你在网上读到的大部分内容都是由精神错乱的人写的(2018年)","locale":"zh"},{"title":"你在網上讀到的大部分內容都是由精神錯亂的人寫的(2018年)","locale":"zh-Hant"}]}},{"__typename":"SocialMediaPost","id":"HnPost-25600338","excerpt":"","slug":"/hn/25600338","title":"TabFS: Mount your Browser Tabs as a Filesystem","date":"January 01, 2021","dateISO":"2021-01-01T06:37:51.401Z","datetime":"2021-01-01 06:37","tags":["story","Hacker News"],"image":null,"imageAlt":null,"provider":"Hacker News","thirdPartyId":"25600338","url":"https://news.ycombinator.com/item?id=25600338","originalUrl":"https://omar.website/tabfs/","imageRemote":"https://omar.website/projects/tabfs.png","video":null,"channel":null,"channelUrl":null,"author":"thesephist","authorUrl":"https://news.ycombinator.com/user?id=thesephist","authorImage":null,"authorSlug":null,"score":1400,"views":null,"sharedCount":null,"likeCount":null,"sharedContent":null,"parent":{"__typename":"HnJson","localize":[{"title":"TabFS：将浏览器选项卡装载为文件系统","locale":"zh"},{"title":"TabFS：將瀏覽器選項卡裝載爲文件系統","locale":"zh-Hant"}]}},{"__typename":"SocialMediaPost","id":"HnPost-25595830","excerpt":"","slug":"/hn/25595830","title":"USDS Digital Services Playbook","date":"January 01, 2021","dateISO":"2021-01-01T05:46:48.715Z","datetime":"2021-01-01 05:46","tags":["story","Hacker News"],"image":null,"imageAlt":null,"provider":"Hacker News","thirdPartyId":"25595830","url":"https://news.ycombinator.com/item?id=25595830","originalUrl":"https://playbook.cio.gov/","imageRemote":"https://playbook.cio.gov/assets/images/usds-logo-seal.png","video":null,"channel":null,"channelUrl":null,"author":"tomrod","authorUrl":"https://news.ycombinator.com/user?id=tomrod","authorImage":null,"authorSlug":null,"score":202,"views":null,"sharedCount":null,"likeCount":null,"sharedContent":null,"parent":{"__typename":"HnJson","localize":[{"title":"USDS数字服务行动手册","locale":"zh"},{"title":"USDS數字服務行動手冊","locale":"zh-Hant"}]}},{"__typename":"SocialMediaPost","id":"HnPost-25595897","excerpt":"","slug":"/hn/25595897","title":"Ex‐FBI operative says he worked to disrupt political activities up to '74 (1975)","date":"January 01, 2021","dateISO":"2021-01-01T01:34:15.401Z","datetime":"2021-01-01 01:34","tags":["story","Hacker News"],"image":null,"imageAlt":null,"provider":"Hacker News","thirdPartyId":"25595897","url":"https://news.ycombinator.com/item?id=25595897","originalUrl":"https://www.nytimes.com/1975/02/24/archives/exoperative-says-he-worked-for-fbi-to-disrupt-political-activities.html","imageRemote":"https://static01.nyt.com/newsgraphics/images/icons/defaultPromoCrop.png?year=1975","video":null,"channel":null,"channelUrl":null,"author":"AndrewBissell","authorUrl":"https://news.ycombinator.com/user?id=AndrewBissell","authorImage":null,"authorSlug":null,"score":232,"views":null,"sharedCount":null,"likeCount":null,"sharedContent":null,"parent":{"__typename":"HnJson","localize":[{"title":"前联邦调查局特工说，他在74年(1975)之前一直致力于扰乱政治活动","locale":"zh"},{"title":"前聯邦調查局特工說，他在74年(1975)之前一直致力於擾亂政治活動","locale":"zh-Hant"}]}},{"__typename":"SocialMediaPost","id":"HnPost-25598029","excerpt":"","slug":"/hn/25598029","title":"MF DOOM Has Died","date":"January 01, 2021","dateISO":"2021-01-01T01:34:15.400Z","datetime":"2021-01-01 01:34","tags":["story","Hacker News"],"image":null,"imageAlt":null,"provider":"Hacker News","thirdPartyId":"25598029","url":"https://news.ycombinator.com/item?id=25598029","originalUrl":"https://consequenceofsound.net/2020/12/mf-doom-dead-obituary/","imageRemote":"https://consequenceofsound.net/wp-content/uploads/2020/12/MF-DOOM.jpg?quality=80","video":null,"channel":null,"channelUrl":null,"author":"laurex","authorUrl":"https://news.ycombinator.com/user?id=laurex","authorImage":null,"authorSlug":null,"score":466,"views":null,"sharedCount":null,"likeCount":null,"sharedContent":null,"parent":{"__typename":"HnJson","localize":[{"title":"MF Deom已经死了","locale":"zh"},{"title":"MF Deom已經死了","locale":"zh-Hant"}]}},{"__typename":"SocialMediaPost","id":"HnPost-25593960","excerpt":"","slug":"/hn/25593960","title":"FCC orders phone companies to help trace illegal robocallers","date":"December 31, 2020","dateISO":"2020-12-31T23:09:39.942Z","datetime":"2020-12-31 23:09","tags":["story","Hacker News"],"image":null,"imageAlt":null,"provider":"Hacker News","thirdPartyId":"25593960","url":"https://news.ycombinator.com/item?id=25593960","originalUrl":"https://www.engadget.com/fcc-illegal-robocalls-tracing-new-rules-122542768.html","imageRemote":"https://o.aolcdn.com/images/dims?resize=1200%2C630&crop=1200%2C630%2C0%2C0&quality=95&image_uri=https%3A%2F%2Fs.yimg.com%2Fos%2Fcreatr-images%2F2020-06%2F1027c6d0-a4f0-11ea-a3e3-b844b86df74f&client=amp-blogside-v2&signature=2adb75f3b93d0c4a214d13688f0a370a931dde23","video":null,"channel":null,"channelUrl":null,"author":"FlyMoreRockets","authorUrl":"https://news.ycombinator.com/user?id=FlyMoreRockets","authorImage":null,"authorSlug":null,"score":181,"views":null,"sharedCount":null,"likeCount":null,"sharedContent":null,"parent":{"__typename":"HnJson","localize":[{"title":"FCC命令电话公司帮助追踪非法机器人呼叫者","locale":"zh"},{"title":"FCC命令電話公司幫助追蹤非法機器人呼叫者","locale":"zh-Hant"}]}}]}},"pageContext":{"basePath":"/","pageType":"tag","tag":"Hacker News","tagsFilter":{"id":{"glob":"!*Post-1"}},"filter":{"id":{"glob":"!*Post-1"},"tags":{"eq":"Hacker News"}},"limit":25,"skip":300,"total":896,"totalPages":36,"currentPage":13,"maxWidth":1024,"maxHeight":512,"locale":"zh-Hant","hrefLang":"zh-Hant","originalPath":"/tags/hacker-news/page/13","dateFormat":"YYYY-MM-DD"}},"staticQueryHashes":["1239077767","2506312863","2744905544","3025052997","3493603132","3493603132","3513215887","386998304"]}