{"componentChunkName":"component---gatsby-theme-buzzing-src-gatsby-theme-timeline-templates-posts-query-js","path":"/tags/story/page/29","result":{"data":{"site":{"siteMetadata":{"title":"Reddit 热门","description":"用中文浏览Reddit热门内容","social":[{"name":"Twitter","url":"https://twitter.com/gatsbyjs","external":null,"prefetch":null},{"name":"GitHub","url":"https://github.com/gatsbyjs","external":null,"prefetch":null}],"menuLinks":[],"localize":[{"locale":"en","title":"Buzzing on Reddit","description":"See what's buzzing on Reddit in your native language","social":[{"name":"Reddit","url":"https://www.reddit.com/","external":true,"prefetch":null}],"menuLinks":[{"name":"Weekly Selection","url":"/issues","external":null,"prefetch":null},{"name":"RSS","url":"/rss.xml","external":null,"prefetch":false}]},{"locale":"zh-Hant","title":"Reddit 熱門","description":"用中文瀏覽Reddit熱門內容","social":null,"menuLinks":null}]}},"tagsGroup":{"group":[{"fieldValue":"ASK HN","totalCount":44},{"fieldValue":"Bitcoin","totalCount":4},{"fieldValue":"Hacker News","totalCount":2600},{"fieldValue":"Poll","totalCount":1},{"fieldValue":"SaveAMC","totalCount":1},{"fieldValue":"Show HN","totalCount":89},{"fieldValue":"bitcoin","totalCount":3},{"fieldValue":"investing","totalCount":797},{"fieldValue":"poll","totalCount":1},{"fieldValue":"reddit","totalCount":4938},{"fieldValue":"science","totalCount":1},{"fieldValue":"stocks","totalCount":1592},{"fieldValue":"story","totalCount":2599},{"fieldValue":"tweet","totalCount":814},{"fieldValue":"wallstreetbets","totalCount":2549}]},"allBlogPost":{"nodes":[{"__typename":"SocialMediaPost","id":"HnPost-26195293","excerpt":"","slug":"/hn/26195293","title":"Why Birds Don’t Get Cold Feet","date":"February 20, 2021","dateISO":"2021-02-20T13:00:36.608Z","datetime":"2021-02-20 13:00","tags":["story","Hacker News"],"image":null,"imageAlt":null,"provider":"Hacker News","thirdPartyId":"26195293","url":"https://news.ycombinator.com/item?id=26195293","originalUrl":"https://medium.com/i-wanna-know/why-birds-dont-get-cold-feet-515487d50ed5","imageRemote":"https://miro.medium.com/max/1200/1*C4PcuoYTOoYdlFtuXUta-g.png","video":null,"channel":null,"channelUrl":null,"author":"pmontra","authorUrl":"https://news.ycombinator.com/user?id=pmontra","authorImage":null,"authorSlug":null,"score":207,"views":null,"sharedCount":null,"likeCount":null,"sharedContent":null,"parent":{"__typename":"HnJson","localize":[{"title":"鸟类为什么不会脚冷","locale":"zh"},{"title":"鳥類爲什麼不會腳冷","locale":"zh-Hant"}]}},{"__typename":"SocialMediaPost","id":"HnPost-26202063","excerpt":"","slug":"/hn/26202063","title":"I don't know, Timmy, being God is a big responsibility (2007)","date":"February 20, 2021","dateISO":"2021-02-20T11:32:42.574Z","datetime":"2021-02-20 11:32","tags":["story","Hacker News"],"image":null,"imageAlt":null,"provider":"Hacker News","thirdPartyId":"26202063","url":"https://news.ycombinator.com/item?id=26202063","originalUrl":"https://qntm.org/responsibility","imageRemote":null,"video":null,"channel":null,"channelUrl":null,"author":"pdkl95","authorUrl":"https://news.ycombinator.com/user?id=pdkl95","authorImage":null,"authorSlug":null,"score":401,"views":null,"sharedCount":null,"likeCount":null,"sharedContent":null,"parent":{"__typename":"HnJson","localize":[{"title":"我不知道，Timmy，做上帝是一个很大的责任（2007）。","locale":"zh"},{"title":"我不知道，Timmy，做上帝是一個很大的責任（2007）。","locale":"zh-Hant"}]}},{"__typename":"SocialMediaPost","id":"HnPost-26200630","excerpt":"","slug":"/hn/26200630","title":"My Life in E-Ink","date":"February 20, 2021","dateISO":"2021-02-20T10:52:29.459Z","datetime":"2021-02-20 10:52","tags":["story","Hacker News"],"image":null,"imageAlt":null,"provider":"Hacker News","thirdPartyId":"26200630","url":"https://news.ycombinator.com/item?id=26200630","originalUrl":"https://rgoswami.me/posts/my-life-in-eink/","imageRemote":"https://rgoswami.me/images/home.png","video":null,"channel":null,"channelUrl":null,"author":"HaoZeke","authorUrl":"https://news.ycombinator.com/user?id=HaoZeke","authorImage":null,"authorSlug":null,"score":282,"views":null,"sharedCount":null,"likeCount":null,"sharedContent":null,"parent":{"__typename":"HnJson","localize":[{"title":"我的电子墨水生活","locale":"zh"},{"title":"我的電子墨水生活","locale":"zh-Hant"}]}},{"__typename":"SocialMediaPost","id":"HnPost-26179311","excerpt":"","slug":"/hn/26179311","title":"Show HN: Split Keyboards Gallery","date":"February 20, 2021","dateISO":"2021-02-20T07:44:31.129Z","datetime":"2021-02-20 07:44","tags":["story","Show HN","Hacker News"],"image":null,"imageAlt":null,"provider":"Hacker News","thirdPartyId":"26179311","url":"https://news.ycombinator.com/item?id=26179311","originalUrl":"https://aposymbiont.github.io/split-keyboards/","imageRemote":"https://aposymbiont.github.io/split-keyboards/img/wheatfield_s75.jpg","video":null,"channel":"Show HN","channelUrl":"https://news.ycombinator.com/show","author":"Symbiote","authorUrl":"https://news.ycombinator.com/user?id=Symbiote","authorImage":null,"authorSlug":null,"score":248,"views":null,"sharedCount":null,"likeCount":null,"sharedContent":null,"parent":{"__typename":"HnJson","localize":[{"title":"显示HN：分体式键盘画廊","locale":"zh"},{"title":"顯示HN：分體式鍵盤畫廊","locale":"zh-Hant"}]}},{"__typename":"SocialMediaPost","id":"HnPost-26197140","excerpt":"","slug":"/hn/26197140","title":"How Antidepressants Work, at Last?","date":"February 20, 2021","dateISO":"2021-02-20T05:57:26.940Z","datetime":"2021-02-20 05:57","tags":["story","Hacker News"],"image":null,"imageAlt":null,"provider":"Hacker News","thirdPartyId":"26197140","url":"https://news.ycombinator.com/item?id=26197140","originalUrl":"https://blogs.sciencemag.org/pipeline/archives/2021/02/19/how-antidepressants-work-at-last","imageRemote":"https://blogs.sciencemag.org/pipeline/wp-content/uploads/sites/2/2015/06/logo-in-the-pipeline.svg","video":null,"channel":null,"channelUrl":null,"author":"eightysixfour","authorUrl":"https://news.ycombinator.com/user?id=eightysixfour","authorImage":null,"authorSlug":null,"score":252,"views":null,"sharedCount":null,"likeCount":null,"sharedContent":null,"parent":{"__typename":"HnJson","localize":[{"title":"抗抑郁药最后是如何发挥作用的？","locale":"zh"},{"title":"抗抑鬱藥最後是如何發揮作用的？","locale":"zh-Hant"}]}},{"__typename":"SocialMediaPost","id":"HnPost-26196372","excerpt":"","slug":"/hn/26196372","title":"Researchers looking for mRNA were ridiculed by colleagues","date":"February 20, 2021","dateISO":"2021-02-20T04:48:49.074Z","datetime":"2021-02-20 04:48","tags":["story","Hacker News"],"image":null,"imageAlt":null,"provider":"Hacker News","thirdPartyId":"26196372","url":"https://news.ycombinator.com/item?id=26196372","originalUrl":"https://www.macleans.ca/society/science/scientists-mrna-covid-vaccines/","imageRemote":"https://www.macleans.ca/wp-content/uploads/2021/02/MATTHEW-MESELSON-DNA-FRANGOU-FEB02-750x422.jpg","video":null,"channel":null,"channelUrl":null,"author":"fortran77","authorUrl":"https://news.ycombinator.com/user?id=fortran77","authorImage":null,"authorSlug":null,"score":438,"views":null,"sharedCount":null,"likeCount":null,"sharedContent":null,"parent":{"__typename":"HnJson","localize":[{"title":"研究人员寻找mRNA遭同事嘲笑","locale":"zh"},{"title":"研究人員尋找mRNA遭同事嘲笑","locale":"zh-Hant"}]}},{"__typename":"SocialMediaPost","id":"HnPost-26199676","excerpt":"","slug":"/hn/26199676","title":"A request for Pinboard old-timers","date":"February 20, 2021","dateISO":"2021-02-20T04:48:49.074Z","datetime":"2021-02-20 04:48","tags":["story","Hacker News"],"image":null,"imageAlt":null,"provider":"Hacker News","thirdPartyId":"26199676","url":"https://news.ycombinator.com/item?id=26199676","originalUrl":"https://www.prettyfwd.com/t/XiK8ArVIT6uVItPGeH3lzA/","imageRemote":null,"video":null,"channel":null,"channelUrl":null,"author":"Alex3917","authorUrl":"https://news.ycombinator.com/user?id=Alex3917","authorImage":null,"authorSlug":null,"score":267,"views":null,"sharedCount":null,"likeCount":null,"sharedContent":null,"parent":{"__typename":"HnJson","localize":[{"title":"对Pinboard老前辈的要求","locale":"zh"},{"title":"對Pinboard老前輩的要求","locale":"zh-Hant"}]}},{"__typename":"SocialMediaPost","id":"HnPost-26201160","excerpt":"","slug":"/hn/26201160","title":"Draw an iceberg and see how it would float in water","date":"February 20, 2021","dateISO":"2021-02-20T04:48:49.074Z","datetime":"2021-02-20 04:48","tags":["story","Hacker News"],"image":null,"imageAlt":null,"provider":"Hacker News","thirdPartyId":"26201160","url":"https://news.ycombinator.com/item?id=26201160","originalUrl":"https://joshdata.me/iceberger.html","imageRemote":null,"video":null,"channel":null,"channelUrl":null,"author":"raldi","authorUrl":"https://news.ycombinator.com/user?id=raldi","authorImage":null,"authorSlug":null,"score":1663,"views":null,"sharedCount":null,"likeCount":null,"sharedContent":null,"parent":{"__typename":"HnJson","localize":[{"title":"画一座冰山，看看它在水中如何漂浮。","locale":"zh"},{"title":"畫一座冰山，看看它在水中如何漂浮。","locale":"zh-Hant"}]}},{"__typename":"SocialMediaPost","id":"HnPost-26196301","excerpt":"","slug":"/hn/26196301","title":"Mars landing: Photo shows Perseverance rover during landing","date":"February 20, 2021","dateISO":"2021-02-20T02:31:12.409Z","datetime":"2021-02-20 02:31","tags":["story","Hacker News"],"image":null,"imageAlt":null,"provider":"Hacker News","thirdPartyId":"26196301","url":"https://news.ycombinator.com/item?id=26196301","originalUrl":"https://www.bbc.co.uk/news/science-environment-56133281","imageRemote":"https://ichef.bbci.co.uk/news/1024/branded_news/F5DB/production/_117093926_rover_drop.jpg","video":null,"channel":null,"channelUrl":null,"author":"jfk13","authorUrl":"https://news.ycombinator.com/user?id=jfk13","authorImage":null,"authorSlug":null,"score":259,"views":null,"sharedCount":null,"likeCount":null,"sharedContent":null,"parent":{"__typename":"HnJson","localize":[{"title":"火星登陆。照片显示 \"锲而不舍 \"号火星车在着陆时的情况。","locale":"zh"},{"title":"火星登陸。照片顯示 \"鍥而不捨 \"號火星車在着陸時的情況。","locale":"zh-Hant"}]}},{"__typename":"SocialMediaPost","id":"HnPost-26194285","excerpt":"","slug":"/hn/26194285","title":"OpenStreetMap charts a controversial new direction","date":"February 20, 2021","dateISO":"2021-02-20T02:04:51.992Z","datetime":"2021-02-20 02:04","tags":["story","Hacker News"],"image":null,"imageAlt":null,"provider":"Hacker News","thirdPartyId":"26194285","url":"https://news.ycombinator.com/item?id=26194285","originalUrl":"https://www.bloomberg.com/news/articles/2021-02-19/openstreetmap-charts-a-controversial-new-direction","imageRemote":null,"video":null,"channel":null,"channelUrl":null,"author":"maxerickson","authorUrl":"https://news.ycombinator.com/user?id=maxerickson","authorImage":null,"authorSlug":null,"score":206,"views":null,"sharedCount":null,"likeCount":null,"sharedContent":null,"parent":{"__typename":"HnJson","localize":[{"title":"OpenStreetMap描绘了一个有争议的新方向。","locale":"zh"},{"title":"OpenStreetMap描繪了一個有爭議的新方向。","locale":"zh-Hant"}]}},{"__typename":"SocialMediaPost","id":"HnPost-26197510","excerpt":"","slug":"/hn/26197510","title":"Cockpit – Integrated, glanceable, web-based interface for servers","date":"February 20, 2021","dateISO":"2021-02-20T02:04:51.992Z","datetime":"2021-02-20 02:04","tags":["story","Hacker News"],"image":null,"imageAlt":null,"provider":"Hacker News","thirdPartyId":"26197510","url":"https://news.ycombinator.com/item?id=26197510","originalUrl":"https://cockpit-project.org/","imageRemote":null,"video":null,"channel":null,"channelUrl":null,"author":"gilad","authorUrl":"https://news.ycombinator.com/user?id=gilad","authorImage":null,"authorSlug":null,"score":347,"views":null,"sharedCount":null,"likeCount":null,"sharedContent":null,"parent":{"__typename":"HnJson","localize":[{"title":"Cockpit - 基于网络的服务器综合界面，一目了然。","locale":"zh"},{"title":"Cockpit - 基於網絡的服務器綜合界面，一目瞭然。","locale":"zh-Hant"}]}},{"__typename":"SocialMediaPost","id":"HnPost-26198210","excerpt":"","slug":"/hn/26198210","title":"BTC Endgame","date":"February 20, 2021","dateISO":"2021-02-20T00:56:01.629Z","datetime":"2021-02-20 00:56","tags":["story","Hacker News"],"image":null,"imageAlt":null,"provider":"Hacker News","thirdPartyId":"26198210","url":"https://news.ycombinator.com/item?id=26198210","originalUrl":"https://github.com/mikekelly/btc-endgame","imageRemote":"https://avatars.githubusercontent.com/u/55782?s=400&v=4","video":null,"channel":null,"channelUrl":null,"author":"jbegley","authorUrl":"https://news.ycombinator.com/user?id=jbegley","authorImage":null,"authorSlug":null,"score":288,"views":null,"sharedCount":null,"likeCount":null,"sharedContent":null,"parent":{"__typename":"HnJson","localize":[{"title":"BTC终局","locale":"zh"},{"title":"BTC終局","locale":"zh-Hant"}]}},{"__typename":"SocialMediaPost","id":"HnPost-26194534","excerpt":"","slug":"/hn/26194534","title":"The DreamBank, a collection of over 20k dream reports","date":"February 19, 2021","dateISO":"2021-02-19T23:25:18.766Z","datetime":"2021-02-19 23:25","tags":["story","Hacker News"],"image":null,"imageAlt":null,"provider":"Hacker News","thirdPartyId":"26194534","url":"https://news.ycombinator.com/item?id=26194534","originalUrl":"http://www.dreambank.net/","imageRemote":"http://www.dreambank.net/images/dreambank.gif","video":null,"channel":null,"channelUrl":null,"author":"herbertl","authorUrl":"https://news.ycombinator.com/user?id=herbertl","authorImage":null,"authorSlug":null,"score":258,"views":null,"sharedCount":null,"likeCount":null,"sharedContent":null,"parent":{"__typename":"HnJson","localize":[{"title":"梦库，收集了2万多份梦境报告。","locale":"zh"},{"title":"夢庫，收集了2萬多份夢境報告。","locale":"zh-Hant"}]}},{"__typename":"SocialMediaPost","id":"HnPost-26190403","excerpt":"","slug":"/hn/26190403","title":"Checked C","date":"February 19, 2021","dateISO":"2021-02-19T22:24:57.935Z","datetime":"2021-02-19 22:24","tags":["story","Hacker News"],"image":null,"imageAlt":null,"provider":"Hacker News","thirdPartyId":"26190403","url":"https://news.ycombinator.com/item?id=26190403","originalUrl":"https://github.com/microsoft/checkedc","imageRemote":"https://avatars.githubusercontent.com/u/6154722?s=400&v=4","video":null,"channel":null,"channelUrl":null,"author":"tosh","authorUrl":"https://news.ycombinator.com/user?id=tosh","authorImage":null,"authorSlug":null,"score":175,"views":null,"sharedCount":null,"likeCount":null,"sharedContent":null,"parent":{"__typename":"HnJson","localize":[{"title":"已检查C","locale":"zh"},{"title":"已檢查C","locale":"zh-Hant"}]}},{"__typename":"SocialMediaPost","id":"HnPost-26197280","excerpt":"","slug":"/hn/26197280","title":"Mars becomes the 2nd planet that has more computers running Linux than Windows","date":"February 19, 2021","dateISO":"2021-02-19T20:47:49.848Z","datetime":"2021-02-19 20:47","tags":["story","Hacker News"],"image":null,"imageAlt":null,"provider":"Hacker News","thirdPartyId":"26197280","url":"https://news.ycombinator.com/item?id=26197280","originalUrl":"https://twitter.com/mikko/status/1362763793042972673","imageRemote":null,"video":null,"channel":null,"channelUrl":null,"author":"fireball_blaze","authorUrl":"https://news.ycombinator.com/user?id=fireball_blaze","authorImage":null,"authorSlug":null,"score":1183,"views":null,"sharedCount":null,"likeCount":null,"sharedContent":null,"parent":{"__typename":"HnJson","localize":[{"title":"火星成为第2个运行Linux的计算机数量超过Windows的星球。","locale":"zh"},{"title":"火星成爲第2個運行Linux的計算機數量超過Windows的星球。","locale":"zh-Hant"}]}},{"__typename":"SocialMediaPost","id":"HnPost-26194848","excerpt":"","slug":"/hn/26194848","title":"Prediction Markets: Tales from the Election","date":"February 19, 2021","dateISO":"2021-02-19T20:38:20.737Z","datetime":"2021-02-19 20:38","tags":["story","Hacker News"],"image":null,"imageAlt":null,"provider":"Hacker News","thirdPartyId":"26194848","url":"https://news.ycombinator.com/item?id=26194848","originalUrl":"https://vitalik.ca/general/2021/02/18/election.html","imageRemote":"http://vitalik.ca/images/icon.png","video":null,"channel":null,"channelUrl":null,"author":"0-_-0","authorUrl":"https://news.ycombinator.com/user?id=0-_-0","authorImage":null,"authorSlug":null,"score":208,"views":null,"sharedCount":null,"likeCount":null,"sharedContent":null,"parent":{"__typename":"HnJson","localize":[{"title":"预测市场。选举中的故事","locale":"zh"},{"title":"預測市場。選舉中的故事","locale":"zh-Hant"}]}},{"__typename":"SocialMediaPost","id":"HnPost-26195083","excerpt":"","slug":"/hn/26195083","title":"Ultima VIII – How to destroy a gaming franchise in one easy step","date":"February 19, 2021","dateISO":"2021-02-19T20:38:20.737Z","datetime":"2021-02-19 20:38","tags":["story","Hacker News"],"image":null,"imageAlt":null,"provider":"Hacker News","thirdPartyId":"26195083","url":"https://news.ycombinator.com/item?id=26195083","originalUrl":"https://www.filfre.net/2021/02/ultima-viii-or-how-to-destroy-a-gaming-franchise-in-one-easy-step/","imageRemote":"https://www.filfre.net/wp-content/uploads/2021/02/2748-pagan-ultima-viii-dos-front-cover-217x300.jpg","video":null,"channel":null,"channelUrl":null,"author":"doppp","authorUrl":"https://news.ycombinator.com/user?id=doppp","authorImage":null,"authorSlug":null,"score":324,"views":null,"sharedCount":null,"likeCount":null,"sharedContent":null,"parent":{"__typename":"HnJson","localize":[{"title":"Ultima VIII--如何在一个简单的步骤中摧毁一个游戏专营店","locale":"zh"},{"title":"Ultima VIII--如何在一個簡單的步驟中摧毀一個遊戲專營店","locale":"zh-Hant"}]}},{"__typename":"SocialMediaPost","id":"HnPost-26194764","excerpt":"","slug":"/hn/26194764","title":"Brave Browser leaks your Tor / Onion service requests through DNS","date":"February 19, 2021","dateISO":"2021-02-19T20:25:37.099Z","datetime":"2021-02-19 20:25","tags":["story","Hacker News"],"image":null,"imageAlt":null,"provider":"Hacker News","thirdPartyId":"26194764","url":"https://news.ycombinator.com/item?id=26194764","originalUrl":"https://ramble.pw/f/privacy/2387/brave-browser-leaks-your-tor-onion-service-requests-through","imageRemote":"https://ramble.pw/apple-touch-icon-precomposed.png","video":null,"channel":null,"channelUrl":null,"author":"todsacerdoti","authorUrl":"https://news.ycombinator.com/user?id=todsacerdoti","authorImage":null,"authorSlug":null,"score":362,"views":null,"sharedCount":null,"likeCount":null,"sharedContent":null,"parent":{"__typename":"HnJson","localize":[{"title":"勇敢的浏览器通过DNS泄露你的Tor/洋葱服务请求。","locale":"zh"},{"title":"勇敢的瀏覽器通過DNS泄露你的Tor/洋蔥服務請求。","locale":"zh-Hant"}]}},{"__typename":"SocialMediaPost","id":"HnPost-26194990","excerpt":"","slug":"/hn/26194990","title":"Tauri: An Electron alternative written in Rust","date":"February 19, 2021","dateISO":"2021-02-19T18:24:29.008Z","datetime":"2021-02-19 18:24","tags":["story","Hacker News"],"image":null,"imageAlt":null,"provider":"Hacker News","thirdPartyId":"26194990","url":"https://news.ycombinator.com/item?id=26194990","originalUrl":"https://tauri.studio/","imageRemote":"https://tauri.studio/en/img/tauri.png","video":null,"channel":null,"channelUrl":null,"author":"metalwhale","authorUrl":"https://news.ycombinator.com/user?id=metalwhale","authorImage":null,"authorSlug":null,"score":1106,"views":null,"sharedCount":null,"likeCount":null,"sharedContent":null,"parent":{"__typename":"HnJson","localize":[{"title":"Tauri: 一个用Rust编写的电子替代方案。","locale":"zh"},{"title":"Tauri: 一個用Rust編寫的電子替代方案。","locale":"zh-Hant"}]}},{"__typename":"SocialMediaPost","id":"HnPost-26189995","excerpt":"","slug":"/hn/26189995","title":"Things You Should Do Now","date":"February 19, 2021","dateISO":"2021-02-19T17:54:04.381Z","datetime":"2021-02-19 17:54","tags":["story","Hacker News"],"image":null,"imageAlt":null,"provider":"Hacker News","thirdPartyId":"26189995","url":"https://news.ycombinator.com/item?id=26189995","originalUrl":"https://secure.phabricator.com/book/phabflavor/article/things_you_should_do_now/","imageRemote":null,"video":null,"channel":null,"channelUrl":null,"author":"bshanks","authorUrl":"https://news.ycombinator.com/user?id=bshanks","authorImage":null,"authorSlug":null,"score":198,"views":null,"sharedCount":null,"likeCount":null,"sharedContent":null,"parent":{"__typename":"HnJson","localize":[{"title":"您现在应该做的事情","locale":"zh"},{"title":"您現在應該做的事情","locale":"zh-Hant"}]}},{"__typename":"SocialMediaPost","id":"HnPost-26193544","excerpt":"","slug":"/hn/26193544","title":"Facebook reported fake numbers to advertisers","date":"February 19, 2021","dateISO":"2021-02-19T16:30:26.068Z","datetime":"2021-02-19 16:30","tags":["story","Hacker News"],"image":null,"imageAlt":null,"provider":"Hacker News","thirdPartyId":"26193544","url":"https://news.ycombinator.com/item?id=26193544","originalUrl":"https://news.yahoo.com/unsealed-court-document-claims-facebook-203236002.html","imageRemote":"https://s.yimg.com/uu/api/res/1.2/2ddf.vlAZuyTgpVUaOxCEw--~B/aD0xNTAwO3c9MjAwMDthcHBpZD15dGFjaHlvbg--/https://media.zenfs.com/en/business_insider_articles_888/faab7cc77c8a73be318a4eec4906558c","video":null,"channel":null,"channelUrl":null,"author":"elorant","authorUrl":"https://news.ycombinator.com/user?id=elorant","authorImage":null,"authorSlug":null,"score":618,"views":null,"sharedCount":null,"likeCount":null,"sharedContent":null,"parent":{"__typename":"HnJson","localize":[{"title":"Facebook向广告商举报假号","locale":"zh"},{"title":"Facebook向廣告商舉報假號","locale":"zh-Hant"}]}},{"__typename":"SocialMediaPost","id":"HnPost-26191516","excerpt":"","slug":"/hn/26191516","title":"How to be more productive without forcing yourself","date":"February 19, 2021","dateISO":"2021-02-19T14:53:26.449Z","datetime":"2021-02-19 14:53","tags":["story","Hacker News"],"image":null,"imageAlt":null,"provider":"Hacker News","thirdPartyId":"26191516","url":"https://news.ycombinator.com/item?id=26191516","originalUrl":"https://www.deprocrastination.co/blog/how-to-be-productive-without-forcing-yourself","imageRemote":"https://www.deprocrastination.co/assets/illustrations/work_bad_rect.png","video":null,"channel":null,"channelUrl":null,"author":"vitabenes","authorUrl":"https://news.ycombinator.com/user?id=vitabenes","authorImage":null,"authorSlug":null,"score":276,"views":null,"sharedCount":null,"likeCount":null,"sharedContent":null,"parent":{"__typename":"HnJson","localize":[{"title":"如何不强迫自己提高工作效率","locale":"zh"},{"title":"如何不強迫自己提高工作效率","locale":"zh-Hant"}]}},{"__typename":"SocialMediaPost","id":"HnPost-26177263","excerpt":"","slug":"/hn/26177263","title":"Don’t format a drive of M1 Macs from recovery mode","date":"February 19, 2021","dateISO":"2021-02-19T14:27:37.720Z","datetime":"2021-02-19 14:27","tags":["story","Hacker News"],"image":null,"imageAlt":null,"provider":"Hacker News","thirdPartyId":"26177263","url":"https://news.ycombinator.com/item?id=26177263","originalUrl":"https://giuliomagnifico.medium.com/dont-ever-format-a-drive-of-m1-macs-from-recovery-mode-38f8676f20cd","imageRemote":"https://miro.medium.com/max/1200/1*Xz6mwsqpdUCxct1zdhpJYg.jpeg","video":null,"channel":null,"channelUrl":null,"author":"giuliomagnifico","authorUrl":"https://news.ycombinator.com/user?id=giuliomagnifico","authorImage":null,"authorSlug":null,"score":164,"views":null,"sharedCount":null,"likeCount":null,"sharedContent":null,"parent":{"__typename":"HnJson","localize":[{"title":"不要从恢复模式格式化M1 Mac的驱动器","locale":"zh"},{"title":"不要從恢復模式格式化M1 Mac的驅動器","locale":"zh-Hant"}]}},{"__typename":"SocialMediaPost","id":"HnPost-26192025","excerpt":"","slug":"/hn/26192025","title":"“I will slaughter you”","date":"February 19, 2021","dateISO":"2021-02-19T12:54:28.715Z","datetime":"2021-02-19 12:54","tags":["story","Hacker News"],"image":null,"imageAlt":null,"provider":"Hacker News","thirdPartyId":"26192025","url":"https://news.ycombinator.com/item?id=26192025","originalUrl":"https://daniel.haxx.se/blog/2021/02/19/i-will-slaughter-you/","imageRemote":"https://daniel.haxx.se/blog/wp-content/uploads/2020/10/daniel-on-tree-in-woods-672x372.jpg","video":null,"channel":null,"channelUrl":null,"author":"ingve","authorUrl":"https://news.ycombinator.com/user?id=ingve","authorImage":null,"authorSlug":null,"score":565,"views":null,"sharedCount":null,"likeCount":null,"sharedContent":null,"parent":{"__typename":"HnJson","localize":[{"title":"\"我要宰了你\"","locale":"zh"},{"title":"\"我要宰了你\"","locale":"zh-Hant"}]}},{"__typename":"SocialMediaPost","id":"HnPost-26191364","excerpt":"","slug":"/hn/26191364","title":"Uber drivers are workers not self employed, Supreme Court rules","date":"February 19, 2021","dateISO":"2021-02-19T11:32:27.098Z","datetime":"2021-02-19 11:32","tags":["story","Hacker News"],"image":null,"imageAlt":null,"provider":"Hacker News","thirdPartyId":"26191364","url":"https://news.ycombinator.com/item?id=26191364","originalUrl":"https://www.bbc.co.uk/news/business-56123668","imageRemote":"https://ichef.bbci.co.uk/news/1024/branded_news/1321D/production/_113556387_farrarandaslamsc.jpg","video":null,"channel":null,"channelUrl":null,"author":"BellLabradors","authorUrl":"https://news.ycombinator.com/user?id=BellLabradors","authorImage":null,"authorSlug":null,"score":403,"views":null,"sharedCount":null,"likeCount":null,"sharedContent":null,"parent":{"__typename":"HnJson","localize":[{"title":"最高法院裁定，Uber司机是工人不是自雇人员","locale":"zh"},{"title":"最高法院裁定，Uber司機是工人不是自僱人員","locale":"zh-Hant"}]}}]}},"pageContext":{"basePath":"/","pageType":"tag","tag":"story","tagsFilter":{"id":{"glob":"!*Post-1"}},"filter":{"id":{"glob":"!*Post-1"},"tags":{"eq":"story"}},"limit":25,"skip":700,"total":2599,"totalPages":104,"currentPage":29,"maxWidth":1024,"maxHeight":512,"locale":"zh","hrefLang":"zh-Hans","originalPath":"/tags/story/page/29","dateFormat":"YYYY-MM-DD"}},"staticQueryHashes":["1239077767","2506312863","2744905544","3025052997","3493603132","3493603132","3513215887","386998304"]}