{"componentChunkName":"component---gatsby-theme-buzzing-src-gatsby-theme-timeline-templates-posts-query-js","path":"/zh-Hant/tags/story/page/37","result":{"data":{"site":{"siteMetadata":{"title":"Reddit 热门","description":"用中文浏览Reddit热门内容","social":[{"name":"Twitter","url":"https://twitter.com/gatsbyjs","external":null,"prefetch":null},{"name":"GitHub","url":"https://github.com/gatsbyjs","external":null,"prefetch":null}],"menuLinks":[],"localize":[{"locale":"en","title":"Buzzing on Reddit","description":"See what's buzzing on Reddit in your native language","social":[{"name":"Reddit","url":"https://www.reddit.com/","external":true,"prefetch":null}],"menuLinks":[{"name":"Weekly Selection","url":"/issues","external":null,"prefetch":null},{"name":"RSS","url":"/rss.xml","external":null,"prefetch":false}]},{"locale":"zh-Hant","title":"Reddit 熱門","description":"用中文瀏覽Reddit熱門內容","social":null,"menuLinks":null}]}},"tagsGroup":{"group":[{"fieldValue":"ASK HN","totalCount":44},{"fieldValue":"Bitcoin","totalCount":4},{"fieldValue":"Hacker News","totalCount":2600},{"fieldValue":"Poll","totalCount":1},{"fieldValue":"SaveAMC","totalCount":1},{"fieldValue":"Show HN","totalCount":89},{"fieldValue":"bitcoin","totalCount":3},{"fieldValue":"investing","totalCount":797},{"fieldValue":"poll","totalCount":1},{"fieldValue":"reddit","totalCount":4938},{"fieldValue":"science","totalCount":1},{"fieldValue":"stocks","totalCount":1592},{"fieldValue":"story","totalCount":2599},{"fieldValue":"tweet","totalCount":814},{"fieldValue":"wallstreetbets","totalCount":2549}]},"allBlogPost":{"nodes":[{"__typename":"SocialMediaPost","id":"HnPost-26117453","excerpt":"","slug":"/hn/26117453","title":"Swift for TensorFlow Shuts Down","date":"February 12, 2021","dateISO":"2021-02-12T20:53:33.968Z","datetime":"2021-02-12 20:53","tags":["story","Hacker News"],"image":null,"imageAlt":null,"provider":"Hacker News","thirdPartyId":"26117453","url":"https://news.ycombinator.com/item?id=26117453","originalUrl":"https://github.com/tensorflow/swift","imageRemote":"https://avatars.githubusercontent.com/u/15658638?s=400&v=4","video":null,"channel":null,"channelUrl":null,"author":"high_derivative","authorUrl":"https://news.ycombinator.com/user?id=high_derivative","authorImage":null,"authorSlug":null,"score":502,"views":null,"sharedCount":null,"likeCount":null,"sharedContent":null,"parent":{"__typename":"HnJson","localize":[{"title":"Swift for TensorFlow关闭","locale":"zh"},{"title":"Swift for TensorFlow關閉","locale":"zh-Hant"}]}},{"__typename":"SocialMediaPost","id":"HnPost-26115329","excerpt":"","slug":"/hn/26115329","title":"Czech gunmaker CZG buys Colt","date":"February 12, 2021","dateISO":"2021-02-12T20:00:27.349Z","datetime":"2021-02-12 20:00","tags":["story","Hacker News"],"image":null,"imageAlt":null,"provider":"Hacker News","thirdPartyId":"26115329","url":"https://news.ycombinator.com/item?id=26115329","originalUrl":"https://reuters.com/article/idUSL1N2KH3HO","imageRemote":"https://s1.reutersmedia.net/resources_v2/images/rcom-default.png?w=800","video":null,"channel":null,"channelUrl":null,"author":"lazycrazyowl","authorUrl":"https://news.ycombinator.com/user?id=lazycrazyowl","authorImage":null,"authorSlug":null,"score":217,"views":null,"sharedCount":null,"likeCount":null,"sharedContent":null,"parent":{"__typename":"HnJson","localize":[{"title":"捷克枪械制造商CZG收购Colt","locale":"zh"},{"title":"捷克槍械製造商CZG收購Colt","locale":"zh-Hant"}]}},{"__typename":"SocialMediaPost","id":"HnPost-26114886","excerpt":"","slug":"/hn/26114886","title":"Mathematician Solves Sensitivity Conjecture in Two Pages (2019)","date":"February 12, 2021","dateISO":"2021-02-12T19:43:15.484Z","datetime":"2021-02-12 19:43","tags":["story","Hacker News"],"image":null,"imageAlt":null,"provider":"Hacker News","thirdPartyId":"26114886","url":"https://news.ycombinator.com/item?id=26114886","originalUrl":"https://www.quantamagazine.org/mathematician-solves-computer-science-conjecture-in-two-pages-20190725/","imageRemote":"https://d2r55xnwy6nx47.cloudfront.net/uploads/2019/07/Boolean-Sensitivity_1200_social.jpg","video":null,"channel":null,"channelUrl":null,"author":"kjhughes","authorUrl":"https://news.ycombinator.com/user?id=kjhughes","authorImage":null,"authorSlug":null,"score":285,"views":null,"sharedCount":null,"likeCount":null,"sharedContent":null,"parent":{"__typename":"HnJson","localize":[{"title":"数学家用两页纸解决灵敏度猜想(2019)","locale":"zh"},{"title":"數學家用兩頁紙解決靈敏度猜想(2019)","locale":"zh-Hant"}]}},{"__typename":"SocialMediaPost","id":"HnPost-26114094","excerpt":"","slug":"/hn/26114094","title":"EU privacy agency urges more safeguards to curb U.S. tech giants","date":"February 12, 2021","dateISO":"2021-02-12T19:21:39.831Z","datetime":"2021-02-12 19:21","tags":["story","Hacker News"],"image":null,"imageAlt":null,"provider":"Hacker News","thirdPartyId":"26114094","url":"https://news.ycombinator.com/item?id=26114094","originalUrl":"https://www.reuters.com/article/us-eu-tech-privacy/eu-privacy-agency-urges-more-safeguards-to-curb-u-s-tech-giants-idUSKBN2AA25D","imageRemote":"https://static.reuters.com/resources/r/?m=02&d=20210210&t=2&i=1551060190&r=LYNXMPEH191IA&w=800","video":null,"channel":null,"channelUrl":null,"author":"stiray","authorUrl":"https://news.ycombinator.com/user?id=stiray","authorImage":null,"authorSlug":null,"score":223,"views":null,"sharedCount":null,"likeCount":null,"sharedContent":null,"parent":{"__typename":"HnJson","localize":[{"title":"欧盟隐私机构敦促采取更多保障措施以遏制美国科技巨头","locale":"zh"},{"title":"歐盟隱私機構敦促採取更多保障措施以遏制美國科技巨頭","locale":"zh-Hant"}]}},{"__typename":"SocialMediaPost","id":"HnPost-26114959","excerpt":"","slug":"/hn/26114959","title":"Multiple Beverly Hills PD officers now weaponizing copyright against streaming","date":"February 12, 2021","dateISO":"2021-02-12T19:07:02.734Z","datetime":"2021-02-12 19:07","tags":["story","Hacker News"],"image":null,"imageAlt":null,"provider":"Hacker News","thirdPartyId":"26114959","url":"https://news.ycombinator.com/item?id=26114959","originalUrl":"https://www.vice.com/en/article/bvxa7q/new-video-shows-beverly-hills-cops-playing-beatles-to-trigger-instagram-copyright-filter","imageRemote":"https://video-images.vice.com/articles/6025e5da060c7e00959e13dc/lede/1613096463621-screen-shot-2021-02-11-at-92024-pm.png?image-resize-opts=Y3JvcD0xeHc6MC42ODExeGg7MHh3LDAuMjQzNnhoJnJlc2l6ZT0xMjAwOiomcmVzaXplPTEyMDA6Kg","video":null,"channel":null,"channelUrl":null,"author":"booleanbetrayal","authorUrl":"https://news.ycombinator.com/user?id=booleanbetrayal","authorImage":null,"authorSlug":null,"score":283,"views":null,"sharedCount":null,"likeCount":null,"sharedContent":null,"parent":{"__typename":"HnJson","localize":[{"title":"多名比佛利山庄警员现对流媒体进行版权武器化处理","locale":"zh"},{"title":"多名比佛利山莊警員現對流媒體進行版權武器化處理","locale":"zh-Hant"}]}},{"__typename":"SocialMediaPost","id":"HnPost-26111993","excerpt":"","slug":"/hn/26111993","title":"Spotify Optimized the Largest Dataflow Job Ever for Wrapped 2020","date":"February 12, 2021","dateISO":"2021-02-12T18:39:16.653Z","datetime":"2021-02-12 18:39","tags":["story","Hacker News"],"image":null,"imageAlt":null,"provider":"Hacker News","thirdPartyId":"26111993","url":"https://news.ycombinator.com/item?id=26111993","originalUrl":"https://engineering.atspotify.com/2021/02/11/how-spotify-optimized-the-largest-dataflow-job-ever-for-wrapped-2020","imageRemote":"https://storage.googleapis.com/rnd-atspotify/sites/2/2021/02/image1.gif","video":null,"channel":null,"channelUrl":null,"author":"SirOibaf","authorUrl":"https://news.ycombinator.com/user?id=SirOibaf","authorImage":null,"authorSlug":null,"score":196,"views":null,"sharedCount":null,"likeCount":null,"sharedContent":null,"parent":{"__typename":"HnJson","localize":[{"title":"Spotify优化了有史以来最大的数据流作业，以包揽2020年的工作。","locale":"zh"},{"title":"Spotify優化了有史以來最大的數據流作業，以包攬2020年的工作。","locale":"zh-Hant"}]}},{"__typename":"SocialMediaPost","id":"HnPost-26112959","excerpt":"","slug":"/hn/26112959","title":"Self-organising textures from cellular automata","date":"February 12, 2021","dateISO":"2021-02-12T16:35:21.231Z","datetime":"2021-02-12 16:35","tags":["story","Hacker News"],"image":null,"imageAlt":null,"provider":"Hacker News","thirdPartyId":"26112959","url":"https://news.ycombinator.com/item?id=26112959","originalUrl":"https://distill.pub/selforg/2021/textures/","imageRemote":"https://distill.pub/selforg/2021/textures/thumbnail.jpg","video":null,"channel":null,"channelUrl":null,"author":"fenomas","authorUrl":"https://news.ycombinator.com/user?id=fenomas","authorImage":null,"authorSlug":null,"score":418,"views":null,"sharedCount":null,"likeCount":null,"sharedContent":null,"parent":{"__typename":"HnJson","localize":[{"title":"来自细胞自动机的自组织纹理。","locale":"zh"},{"title":"來自細胞自動機的自組織紋理。","locale":"zh-Hant"}]}},{"__typename":"SocialMediaPost","id":"HnPost-26114194","excerpt":"","slug":"/hn/26114194","title":"“I saw that you spun up an Ubuntu image in Azure”","date":"February 12, 2021","dateISO":"2021-02-12T15:52:05.833Z","datetime":"2021-02-12 15:52","tags":["story","Hacker News"],"image":null,"imageAlt":null,"provider":"Hacker News","thirdPartyId":"26114194","url":"https://news.ycombinator.com/item?id=26114194","originalUrl":"https://twitter.com/LucaBongiorni/status/1359560585990537216","imageRemote":null,"video":null,"channel":null,"channelUrl":null,"author":"fireball_blaze","authorUrl":"https://news.ycombinator.com/user?id=fireball_blaze","authorImage":null,"authorSlug":null,"score":1165,"views":null,"sharedCount":null,"likeCount":null,"sharedContent":null,"parent":{"__typename":"HnJson","localize":[{"title":"\"我看到你在Azure中运行了一个Ubuntu镜像\"","locale":"zh"},{"title":"\"我看到你在Azure中運行了一個Ubuntu鏡像\"","locale":"zh-Hant"}]}},{"__typename":"SocialMediaPost","id":"HnPost-26097157","excerpt":"","slug":"/hn/26097157","title":"What you can learn about medieval Europe if you focus on peasants","date":"February 12, 2021","dateISO":"2021-02-12T15:27:14.078Z","datetime":"2021-02-12 15:27","tags":["story","Hacker News"],"image":null,"imageAlt":null,"provider":"Hacker News","thirdPartyId":"26097157","url":"https://news.ycombinator.com/item?id=26097157","originalUrl":"https://www.laphamsquarterly.org/roundtable/those-who-work","imageRemote":"https://www.laphamsquarterly.org/sites/default/files/styles/thumbnail/public/images/roundtable/teaser24440001.jpg?itok=iYKebl_X","video":null,"channel":null,"channelUrl":null,"author":"diodorus","authorUrl":"https://news.ycombinator.com/user?id=diodorus","authorImage":null,"authorSlug":null,"score":181,"views":null,"sharedCount":null,"likeCount":null,"sharedContent":null,"parent":{"__typename":"HnJson","localize":[{"title":"如果你关注农民，你可以了解到中世纪欧洲的情况","locale":"zh"},{"title":"如果你關注農民，你可以瞭解到中世紀歐洲的情況","locale":"zh-Hant"}]}},{"__typename":"SocialMediaPost","id":"HnPost-26110796","excerpt":"","slug":"/hn/26110796","title":"Computer Networks: A Systems Approach","date":"February 12, 2021","dateISO":"2021-02-12T14:46:42.672Z","datetime":"2021-02-12 14:46","tags":["story","Hacker News"],"image":null,"imageAlt":null,"provider":"Hacker News","thirdPartyId":"26110796","url":"https://news.ycombinator.com/item?id=26110796","originalUrl":"https://book.systemsapproach.org/","imageRemote":"https://book.systemsapproach.org/_images/SystemsApproachLogoURL.png","video":null,"channel":null,"channelUrl":null,"author":"Ballu","authorUrl":"https://news.ycombinator.com/user?id=Ballu","authorImage":null,"authorSlug":null,"score":254,"views":null,"sharedCount":null,"likeCount":null,"sharedContent":null,"parent":{"__typename":"HnJson","localize":[{"title":"计算机网络。系统方法","locale":"zh"},{"title":"計算機網絡。系統方法","locale":"zh-Hant"}]}},{"__typename":"SocialMediaPost","id":"HnPost-26106934","excerpt":"","slug":"/hn/26106934","title":"Leaving Mozilla","date":"February 12, 2021","dateISO":"2021-02-12T13:23:31.738Z","datetime":"2021-02-12 13:23","tags":["story","Hacker News"],"image":null,"imageAlt":null,"provider":"Hacker News","thirdPartyId":"26106934","url":"https://news.ycombinator.com/item?id=26106934","originalUrl":"https://www.emilykager.com/writing/2021/02/10/mozilla.html","imageRemote":"https://imgur.com/bkUoEuG.png","video":null,"channel":null,"channelUrl":null,"author":"dmm","authorUrl":"https://news.ycombinator.com/user?id=dmm","authorImage":null,"authorSlug":null,"score":174,"views":null,"sharedCount":null,"likeCount":null,"sharedContent":null,"parent":{"__typename":"HnJson","localize":[{"title":"离开Mozilla","locale":"zh"},{"title":"離開Mozilla","locale":"zh-Hant"}]}},{"__typename":"SocialMediaPost","id":"HnPost-26107924","excerpt":"","slug":"/hn/26107924","title":"Pravetz Computers","date":"February 12, 2021","dateISO":"2021-02-12T13:00:28.174Z","datetime":"2021-02-12 13:00","tags":["story","Hacker News"],"image":null,"imageAlt":null,"provider":"Hacker News","thirdPartyId":"26107924","url":"https://news.ycombinator.com/item?id=26107924","originalUrl":"https://en.wikipedia.org/wiki/Pravetz_computers","imageRemote":"https://upload.wikimedia.org/wikipedia/commons/thumb/2/23/Pn-pravez-class-4.jpg/220px-Pn-pravez-class-4.jpg","video":null,"channel":null,"channelUrl":null,"author":"incomplete","authorUrl":"https://news.ycombinator.com/user?id=incomplete","authorImage":null,"authorSlug":null,"score":171,"views":null,"sharedCount":null,"likeCount":null,"sharedContent":null,"parent":{"__typename":"HnJson","localize":[{"title":"Pravetz Computers","locale":"zh"},{"title":"Pravetz Computers","locale":"zh-Hant"}]}},{"__typename":"SocialMediaPost","id":"HnPost-26103769","excerpt":"","slug":"/hn/26103769","title":"How Fat Does a Fat Binary Need to Be?","date":"February 12, 2021","dateISO":"2021-02-12T12:14:39.428Z","datetime":"2021-02-12 12:14","tags":["story","Hacker News"],"image":null,"imageAlt":null,"provider":"Hacker News","thirdPartyId":"26103769","url":"https://news.ycombinator.com/item?id=26103769","originalUrl":"https://justine.lol/cosmopolitan/howfat.html","imageRemote":"https://storage.googleapis.com/justine/cosmopolitan/cosmopolitan.png","video":null,"channel":null,"channelUrl":null,"author":"jart","authorUrl":"https://news.ycombinator.com/user?id=jart","authorImage":null,"authorSlug":null,"score":170,"views":null,"sharedCount":null,"likeCount":null,"sharedContent":null,"parent":{"__typename":"HnJson","localize":[{"title":"肥二代需要多肥？","locale":"zh"},{"title":"肥二代需要多肥？","locale":"zh-Hant"}]}},{"__typename":"SocialMediaPost","id":"HnPost-26110928","excerpt":"","slug":"/hn/26110928","title":"Apple redirects Google Safe Browsing traffic through proxy servers in iOS 14.5","date":"February 12, 2021","dateISO":"2021-02-12T11:48:39.475Z","datetime":"2021-02-12 11:48","tags":["story","Hacker News"],"image":null,"imageAlt":null,"provider":"Hacker News","thirdPartyId":"26110928","url":"https://news.ycombinator.com/item?id=26110928","originalUrl":"https://the8-bit.com/apple-proxies-google-safe-browsing-privacy/","imageRemote":"https://the8-bit.com/wp-content/uploads/2021/02/safebrowsing.jpg","video":null,"channel":null,"channelUrl":null,"author":"CharlesW","authorUrl":"https://news.ycombinator.com/user?id=CharlesW","authorImage":null,"authorSlug":null,"score":391,"views":null,"sharedCount":null,"likeCount":null,"sharedContent":null,"parent":{"__typename":"HnJson","localize":[{"title":"苹果在iOS 14.5中通过代理服务器重定向谷歌安全浏览流量。","locale":"zh"},{"title":"蘋果在iOS 14.5中通過代理服務器重定向谷歌安全瀏覽流量。","locale":"zh-Hant"}]}},{"__typename":"SocialMediaPost","id":"HnPost-26090514","excerpt":"","slug":"/hn/26090514","title":"A sneak peek at MetaHuman Creator","date":"February 12, 2021","dateISO":"2021-02-12T10:51:42.924Z","datetime":"2021-02-12 10:51","tags":["story","Hacker News"],"image":null,"imageAlt":null,"provider":"Hacker News","thirdPartyId":"26090514","url":"https://news.ycombinator.com/item?id=26090514","originalUrl":"https://www.unrealengine.com/en-US/blog/a-sneak-peek-at-metahuman-creator-high-fidelity-digital-humans-made-easy","imageRemote":"https://cdn2.unrealengine.com/blog-share-1200x630-v2-1200x630-b7c199ba8340.jpg","video":null,"channel":null,"channelUrl":null,"author":"jsheard","authorUrl":"https://news.ycombinator.com/user?id=jsheard","authorImage":null,"authorSlug":null,"score":169,"views":null,"sharedCount":null,"likeCount":null,"sharedContent":null,"parent":{"__typename":"HnJson","localize":[{"title":"偷看MetaHuman Creator","locale":"zh"},{"title":"偷看MetaHuman Creator","locale":"zh-Hant"}]}},{"__typename":"SocialMediaPost","id":"HnPost-26103533","excerpt":"","slug":"/hn/26103533","title":"Tesla Recalls Cars with EMMC Failures, Calls Part a ‘Wear Item’","date":"February 12, 2021","dateISO":"2021-02-12T09:54:30.779Z","datetime":"2021-02-12 09:54","tags":["story","Hacker News"],"image":null,"imageAlt":null,"provider":"Hacker News","thirdPartyId":"26103533","url":"https://news.ycombinator.com/item?id=26103533","originalUrl":"https://hackaday.com/2021/02/11/tesla-recalls-cars-with-emmc-failures-calls-part-a-wear-item/","imageRemote":"https://hackaday.com/wp-content/uploads/2019/10/eMMC.jpg","video":null,"channel":null,"channelUrl":null,"author":"nickthegreek","authorUrl":"https://news.ycombinator.com/user?id=nickthegreek","authorImage":null,"authorSlug":null,"score":184,"views":null,"sharedCount":null,"likeCount":null,"sharedContent":null,"parent":{"__typename":"HnJson","localize":[{"title":"特斯拉召回EMMC故障汽车，称零件为 \"磨损品","locale":"zh"},{"title":"特斯拉召回EMMC故障汽車，稱零件爲 \"磨損品","locale":"zh-Hant"}]}},{"__typename":"SocialMediaPost","id":"HnPost-26110612","excerpt":"","slug":"/hn/26110612","title":"Comparison of Rust async and Linux thread context switch time and memory use","date":"February 12, 2021","dateISO":"2021-02-12T08:47:10.123Z","datetime":"2021-02-12 08:47","tags":["story","Hacker News"],"image":null,"imageAlt":null,"provider":"Hacker News","thirdPartyId":"26110612","url":"https://news.ycombinator.com/item?id=26110612","originalUrl":"https://github.com/jimblandy/context-switch","imageRemote":"https://avatars.githubusercontent.com/u/751272?s=400&v=4","video":null,"channel":null,"channelUrl":null,"author":"viraptor","authorUrl":"https://news.ycombinator.com/user?id=viraptor","authorImage":null,"authorSlug":null,"score":347,"views":null,"sharedCount":null,"likeCount":null,"sharedContent":null,"parent":{"__typename":"HnJson","localize":[{"title":"Rust async和Linux线程上下文切换时间和内存使用情况比较","locale":"zh"},{"title":"Rust async和Linux線程上下文切換時間和內存使用情況比較","locale":"zh-Hant"}]}},{"__typename":"SocialMediaPost","id":"HnPost-26111248","excerpt":"","slug":"/hn/26111248","title":"Chick Corea has died","date":"February 12, 2021","dateISO":"2021-02-12T08:47:10.123Z","datetime":"2021-02-12 08:47","tags":["story","Hacker News"],"image":null,"imageAlt":null,"provider":"Hacker News","thirdPartyId":"26111248","url":"https://news.ycombinator.com/item?id=26111248","originalUrl":"https://chickcorea.com/","imageRemote":"https://chickcorea.com/wp-content/uploads/2019/01/Trilogy-2019-Web-Banner.jpg","video":null,"channel":null,"channelUrl":null,"author":"rock_artist","authorUrl":"https://news.ycombinator.com/user?id=rock_artist","authorImage":null,"authorSlug":null,"score":704,"views":null,"sharedCount":null,"likeCount":null,"sharedContent":null,"parent":{"__typename":"HnJson","localize":[{"title":"Chick Corea死了","locale":"zh"},{"title":"Chick Corea死了","locale":"zh-Hant"}]}},{"__typename":"SocialMediaPost","id":"HnPost-26104667","excerpt":"","slug":"/hn/26104667","title":"Running unmodified Linux programs on Fuchsia","date":"February 12, 2021","dateISO":"2021-02-12T07:00:11.132Z","datetime":"2021-02-12 07:00","tags":["story","Hacker News"],"image":null,"imageAlt":null,"provider":"Hacker News","thirdPartyId":"26104667","url":"https://news.ycombinator.com/item?id=26104667","originalUrl":"https://fuchsia-review.googlesource.com/c/fuchsia/+/485181","imageRemote":null,"video":null,"channel":null,"channelUrl":null,"author":"lyssue","authorUrl":"https://news.ycombinator.com/user?id=lyssue","authorImage":null,"authorSlug":null,"score":197,"views":null,"sharedCount":null,"likeCount":null,"sharedContent":null,"parent":{"__typename":"HnJson","localize":[{"title":"在Fuchsia上运行未经修改的Linux程序。","locale":"zh"},{"title":"在Fuchsia上運行未經修改的Linux程序。","locale":"zh-Hant"}]}},{"__typename":"SocialMediaPost","id":"HnPost-26105890","excerpt":"","slug":"/hn/26105890","title":"Tell HN: A case of negative SEO I caught on my service and how I dealt with it","date":"February 12, 2021","dateISO":"2021-02-12T05:43:03.298Z","datetime":"2021-02-12 05:43","tags":["story","Hacker News"],"image":null,"imageAlt":null,"provider":"Hacker News","thirdPartyId":"26105890","url":"https://news.ycombinator.com/item?id=26105890","originalUrl":"https://news.ycombinator.com/item?id=26105890","imageRemote":null,"video":null,"channel":null,"channelUrl":null,"author":"santah","authorUrl":"https://news.ycombinator.com/user?id=santah","authorImage":null,"authorSlug":null,"score":278,"views":null,"sharedCount":null,"likeCount":null,"sharedContent":null,"parent":{"__typename":"HnJson","localize":[{"title":"告诉HN：我在服务上抓到的一个SEO负面案例，我是如何处理的？","locale":"zh"},{"title":"告訴HN：我在服務上抓到的一個SEO負面案例，我是如何處理的？","locale":"zh-Hant"}]}},{"__typename":"SocialMediaPost","id":"HnPost-26086196","excerpt":"","slug":"/hn/26086196","title":"Do Things that Don't Scale (2013)","date":"February 12, 2021","dateISO":"2021-02-12T05:17:40.032Z","datetime":"2021-02-12 05:17","tags":["story","Hacker News"],"image":null,"imageAlt":null,"provider":"Hacker News","thirdPartyId":"26086196","url":"https://news.ycombinator.com/item?id=26086196","originalUrl":"http://www.paulgraham.com/ds.html","imageRemote":"https://s.yimg.com/aah/paulgraham/quotes-1.gif","video":null,"channel":null,"channelUrl":null,"author":"ollerac","authorUrl":"https://news.ycombinator.com/user?id=ollerac","authorImage":null,"authorSlug":null,"score":176,"views":null,"sharedCount":null,"likeCount":null,"sharedContent":null,"parent":{"__typename":"HnJson","localize":[{"title":"做不规模的事(2013)","locale":"zh"},{"title":"做不規模的事(2013)","locale":"zh-Hant"}]}},{"__typename":"SocialMediaPost","id":"HnPost-26091100","excerpt":"","slug":"/hn/26091100","title":"LinkedIn’s Alternate Universe","date":"February 11, 2021","dateISO":"2021-02-11T23:25:30.213Z","datetime":"2021-02-11 23:25","tags":["story","Hacker News"],"image":null,"imageAlt":null,"provider":"Hacker News","thirdPartyId":"26091100","url":"https://news.ycombinator.com/item?id=26091100","originalUrl":"https://every.to/divinations/linkedins-alternate-universe-21780381","imageRemote":"https://d24ovhgu8s7341.cloudfront.net/uploads/post/cover/1423/optimized_40ac9496-fcd6-4638-9b55-64f17ba91976_1600x1067.png","video":null,"channel":null,"channelUrl":null,"author":"Benlights","authorUrl":"https://news.ycombinator.com/user?id=Benlights","authorImage":null,"authorSlug":null,"score":444,"views":null,"sharedCount":null,"likeCount":null,"sharedContent":null,"parent":{"__typename":"HnJson","localize":[{"title":"LinkedIn的备用宇宙","locale":"zh"},{"title":"LinkedIn的備用宇宙","locale":"zh-Hant"}]}},{"__typename":"SocialMediaPost","id":"HnPost-26106080","excerpt":"","slug":"/hn/26106080","title":"Kubernetes Failure Stories","date":"February 11, 2021","dateISO":"2021-02-11T23:25:30.213Z","datetime":"2021-02-11 23:25","tags":["story","Hacker News"],"image":null,"imageAlt":null,"provider":"Hacker News","thirdPartyId":"26106080","url":"https://news.ycombinator.com/item?id=26106080","originalUrl":"https://k8s.af","imageRemote":null,"video":null,"channel":null,"channelUrl":null,"author":"jakozaur","authorUrl":"https://news.ycombinator.com/user?id=jakozaur","authorImage":null,"authorSlug":null,"score":545,"views":null,"sharedCount":null,"likeCount":null,"sharedContent":null,"parent":{"__typename":"HnJson","localize":[{"title":"Kubernetes失败的故事","locale":"zh"},{"title":"Kubernetes失敗的故事","locale":"zh-Hant"}]}},{"__typename":"SocialMediaPost","id":"HnPost-26099259","excerpt":"","slug":"/hn/26099259","title":"Wikimedia narrows down the app sendin 90M requests to a pic of flower","date":"February 11, 2021","dateISO":"2021-02-11T21:36:25.653Z","datetime":"2021-02-11 21:36","tags":["story","Hacker News"],"image":null,"imageAlt":null,"provider":"Hacker News","thirdPartyId":"26099259","url":"https://news.ycombinator.com/item?id=26099259","originalUrl":"https://phabricator.wikimedia.org/T273741#6815828","imageRemote":"https://phab.wmfusercontent.org/file/data/hlnbv3qoota266kvqjsn/PHID-FILE-ejomd33brezpjooxsgmy/preview-Screenshot_at_2021-02-08_17-18-10.png","video":null,"channel":null,"channelUrl":null,"author":"hunter-2","authorUrl":"https://news.ycombinator.com/user?id=hunter-2","authorImage":null,"authorSlug":null,"score":190,"views":null,"sharedCount":null,"likeCount":null,"sharedContent":null,"parent":{"__typename":"HnJson","localize":[{"title":"维基媒体缩小了应用程序发送90M请求的花的图片","locale":"zh"},{"title":"維基媒體縮小了應用程序發送90M請求的花的圖片","locale":"zh-Hant"}]}},{"__typename":"SocialMediaPost","id":"HnPost-26102241","excerpt":"","slug":"/hn/26102241","title":"Uncovering a 24-year-old bug in the Linux Kernel","date":"February 11, 2021","dateISO":"2021-02-11T20:47:34.845Z","datetime":"2021-02-11 20:47","tags":["story","Hacker News"],"image":null,"imageAlt":null,"provider":"Hacker News","thirdPartyId":"26102241","url":"https://news.ycombinator.com/item?id=26102241","originalUrl":"https://engineering.skroutz.gr/blog/uncovering-a-24-year-old-bug-in-the-linux-kernel/","imageRemote":"https://engineering.skroutz.gr/images/site-logo.png","video":null,"channel":null,"channelUrl":null,"author":"greenonion","authorUrl":"https://news.ycombinator.com/user?id=greenonion","authorImage":null,"authorSlug":null,"score":496,"views":null,"sharedCount":null,"likeCount":null,"sharedContent":null,"parent":{"__typename":"HnJson","localize":[{"title":"揭开Linux内核中一个24年前的bug。","locale":"zh"},{"title":"揭開Linux內核中一個24年前的bug。","locale":"zh-Hant"}]}}]}},"pageContext":{"basePath":"/","pageType":"tag","tag":"story","tagsFilter":{"id":{"glob":"!*Post-1"}},"filter":{"id":{"glob":"!*Post-1"},"tags":{"eq":"story"}},"limit":25,"skip":900,"total":2599,"totalPages":104,"currentPage":37,"maxWidth":1024,"maxHeight":512,"locale":"zh-Hant","hrefLang":"zh-Hant","originalPath":"/tags/story/page/37","dateFormat":"YYYY-MM-DD"}},"staticQueryHashes":["1239077767","2506312863","2744905544","3025052997","3493603132","3493603132","3513215887","386998304"]}