{"componentChunkName":"component---gatsby-theme-buzzing-src-gatsby-theme-timeline-templates-posts-query-js","path":"/en/page/9","result":{"data":{"site":{"siteMetadata":{"title":"Reddit 热门","description":"用中文浏览Reddit热门内容","social":[{"name":"Twitter","url":"https://twitter.com/gatsbyjs","external":null,"prefetch":null},{"name":"GitHub","url":"https://github.com/gatsbyjs","external":null,"prefetch":null}],"menuLinks":[],"localize":[{"locale":"en","title":"Buzzing on Reddit","description":"See what's buzzing on Reddit in your native language","social":[{"name":"Reddit","url":"https://www.reddit.com/","external":true,"prefetch":null}],"menuLinks":[{"name":"Weekly Selection","url":"/issues","external":null,"prefetch":null},{"name":"RSS","url":"/rss.xml","external":null,"prefetch":false}]},{"locale":"zh-Hant","title":"Reddit 熱門","description":"用中文瀏覽Reddit熱門內容","social":null,"menuLinks":null}]}},"tagsGroup":{"group":[{"fieldValue":"ASK HN","totalCount":54},{"fieldValue":"Hacker News","totalCount":3105},{"fieldValue":"Poll","totalCount":1},{"fieldValue":"Show HN","totalCount":100},{"fieldValue":"poll","totalCount":1},{"fieldValue":"story","totalCount":3104}]},"allBlogPost":{"nodes":[{"__typename":"SocialMediaPost","id":"HnPost-26623117","excerpt":"","slug":"/hn/26623117","title":"VPN over SSH? The Socks Proxy","date":"March 30, 2021","dateISO":"2021-03-30T02:17:25.001Z","datetime":"2021-03-30 02:17","tags":["story","Hacker News"],"image":null,"imageAlt":null,"provider":"Hacker News","thirdPartyId":"26623117","url":"https://news.ycombinator.com/item?id=26623117","originalUrl":"https://blog.gwlab.page/vpn-over-ssh-the-socks-proxy-8a8d7bdc7028","imageRemote":"https://miro.medium.com/max/1200/1*862eO3Q0VN8iCUyW3JCRag@2x.png","video":null,"channel":null,"channelUrl":null,"author":"corychu","authorUrl":"https://news.ycombinator.com/user?id=corychu","authorImage":null,"authorSlug":null,"score":189,"views":null,"sharedCount":null,"likeCount":null,"sharedContent":null,"parent":{"__typename":"HnJson","localize":[{"title":"通过SSH的VPN？Socks代理服务器","locale":"zh"},{"title":"通過SSH的VPN？Socks代理服務器","locale":"zh-Hant"}]}},{"__typename":"SocialMediaPost","id":"HnPost-26629520","excerpt":"","slug":"/hn/26629520","title":"Work peak and professional decline","date":"March 30, 2021","dateISO":"2021-03-30T02:17:25.001Z","datetime":"2021-03-30 02:17","tags":["story","Hacker News"],"image":null,"imageAlt":null,"provider":"Hacker News","thirdPartyId":"26629520","url":"https://news.ycombinator.com/item?id=26629520","originalUrl":"https://www.theatlantic.com/magazine/archive/2019/07/work-peak-professional-decline/590650/","imageRemote":"https://cdn.theatlantic.com/thumbor/BzZYCngj0fTS_10N67Vgrdh6_14=/0x43:2000x1085/960x500/filters:format(png)/media/img/2019/06/WEL_Brooks_Decline_Opener/original.png","video":null,"channel":null,"channelUrl":null,"author":"fortran77","authorUrl":"https://news.ycombinator.com/user?id=fortran77","authorImage":null,"authorSlug":null,"score":196,"views":null,"sharedCount":null,"likeCount":null,"sharedContent":null,"parent":{"__typename":"HnJson","localize":[{"title":"工作高峰和职业衰退","locale":"zh"},{"title":"工作高峯和職業衰退","locale":"zh-Hant"}]}},{"__typename":"SocialMediaPost","id":"HnPost-26628198","excerpt":"","slug":"/hn/26628198","title":"Ubiquiti starts serving ads in their management interface","date":"March 30, 2021","dateISO":"2021-03-30T01:12:22.297Z","datetime":"2021-03-30 01:12","tags":["story","Hacker News"],"image":null,"imageAlt":null,"provider":"Hacker News","thirdPartyId":"26628198","url":"https://news.ycombinator.com/item?id=26628198","originalUrl":"https://twitter.com/superdealloc/status/1376626243865604100","imageRemote":null,"video":null,"channel":null,"channelUrl":null,"author":"andremedeiros","authorUrl":"https://news.ycombinator.com/user?id=andremedeiros","authorImage":null,"authorSlug":null,"score":630,"views":null,"sharedCount":null,"likeCount":null,"sharedContent":null,"parent":{"__typename":"HnJson","localize":[{"title":"Ubiquiti开始在其管理界面上提供广告服务。","locale":"zh"},{"title":"Ubiquiti開始在其管理界面上提供廣告服務。","locale":"zh-Hant"}]}},{"__typename":"SocialMediaPost","id":"HnPost-26624220","excerpt":"","slug":"/hn/26624220","title":"Retrospective review of Gödel, Escher, Bach (1996) [pdf]","date":"March 29, 2021","dateISO":"2021-03-29T23:00:41.143Z","datetime":"2021-03-29 23:00","tags":["story","Hacker News"],"image":null,"imageAlt":null,"provider":"Hacker News","thirdPartyId":"26624220","url":"https://news.ycombinator.com/item?id=26624220","originalUrl":"https://cs.nyu.edu/davise/papers/hofstadter.pdf","imageRemote":null,"video":null,"channel":null,"channelUrl":null,"author":"lawrenceyan","authorUrl":"https://news.ycombinator.com/user?id=lawrenceyan","authorImage":null,"authorSlug":null,"score":200,"views":null,"sharedCount":null,"likeCount":null,"sharedContent":null,"parent":{"__typename":"HnJson","localize":[{"title":"哥德尔、埃舍尔、巴赫的回顾(1996年) [pdf]","locale":"zh"},{"title":"哥德爾、埃舍爾、巴赫的回顧(1996年) [pdf]","locale":"zh-Hant"}]}},{"__typename":"SocialMediaPost","id":"HnPost-26628233","excerpt":"","slug":"/hn/26628233","title":"Moderna mRNA sequence released to GitHub [pdf]","date":"March 29, 2021","dateISO":"2021-03-29T22:53:46.580Z","datetime":"2021-03-29 22:53","tags":["story","Hacker News"],"image":null,"imageAlt":null,"provider":"Hacker News","thirdPartyId":"26628233","url":"https://news.ycombinator.com/item?id=26628233","originalUrl":"https://github.com/NAalytics/Assemblies-of-putative-SARS-CoV2-spike-encoding-mRNA-sequences-for-vaccines-BNT-162b2-and-mRNA-1273/blob/main/Assemblies%20of%20putative%20SARS-CoV2-spike-encoding%20mRNA%20sequences%20for%20vaccines%20BNT-162b2%20and%20mRNA-1273.docx.pdf","imageRemote":"https://avatars.githubusercontent.com/u/80712892?s=400&v=4","video":null,"channel":null,"channelUrl":null,"author":"aty268","authorUrl":"https://news.ycombinator.com/user?id=aty268","authorImage":null,"authorSlug":null,"score":1244,"views":null,"sharedCount":null,"likeCount":null,"sharedContent":null,"parent":{"__typename":"HnJson","localize":[{"title":"Moderna mRNA序列发布到GitHub [pdf] 。","locale":"zh"},{"title":"Moderna mRNA序列發佈到GitHub [pdf] 。","locale":"zh-Hant"}]}},{"__typename":"SocialMediaPost","id":"HnPost-26620059","excerpt":"","slug":"/hn/26620059","title":"Boston Dynamics unveils Stretch, a robot designed to move boxes in warehouses","date":"March 29, 2021","dateISO":"2021-03-29T22:34:07.813Z","datetime":"2021-03-29 22:34","tags":["story","Hacker News"],"image":null,"imageAlt":null,"provider":"Hacker News","thirdPartyId":"26620059","url":"https://news.ycombinator.com/item?id=26620059","originalUrl":"https://www.theverge.com/2021/3/29/22349978/boston-dynamics-stretch-robot-warehouse-logistics","imageRemote":"https://cdn.vox-cdn.com/thumbor/jB-alKsjW_cc-KPiu218bnW-0Mo=/0x591:8256x4914/fit-in/1200x630/cdn.vox-cdn.com/uploads/chorus_asset/file/22404970/BOSTONDYNAMICS_STRETCH_WAREHOUSE_Credit_to_Boston_Dynamics.jpg","video":null,"channel":null,"channelUrl":null,"author":"kyleShropshire","authorUrl":"https://news.ycombinator.com/user?id=kyleShropshire","authorImage":null,"authorSlug":null,"score":235,"views":null,"sharedCount":null,"likeCount":null,"sharedContent":null,"parent":{"__typename":"HnJson","localize":[{"title":"波士顿动力公司推出Stretch，这是一款专为在仓库中移动箱子而设计的机器人。","locale":"zh"},{"title":"波士頓動力公司推出Stretch，這是一款專爲在倉庫中移動箱子而設計的機器人。","locale":"zh-Hant"}]}},{"__typename":"SocialMediaPost","id":"HnPost-26620730","excerpt":"","slug":"/hn/26620730","title":"Problems with low DNS TTLs","date":"March 29, 2021","dateISO":"2021-03-29T22:34:07.813Z","datetime":"2021-03-29 22:34","tags":["story","Hacker News"],"image":null,"imageAlt":null,"provider":"Hacker News","thirdPartyId":"26620730","url":"https://news.ycombinator.com/item?id=26620730","originalUrl":"https://00f.net/2019/11/03/stop-using-low-dns-ttls/","imageRemote":"https://00f.net/img/posts/lowttls/ttls-overall.png","video":null,"channel":null,"channelUrl":null,"author":"JimWestergren","authorUrl":"https://news.ycombinator.com/user?id=JimWestergren","authorImage":null,"authorSlug":null,"score":183,"views":null,"sharedCount":null,"likeCount":null,"sharedContent":null,"parent":{"__typename":"HnJson","localize":[{"title":"低DNS TTLs的问题","locale":"zh"},{"title":"低DNS TTLs的問題","locale":"zh-Hant"}]}},{"__typename":"SocialMediaPost","id":"HnPost-26625398","excerpt":"","slug":"/hn/26625398","title":"Hello, HPy","date":"March 29, 2021","dateISO":"2021-03-29T21:54:26.916Z","datetime":"2021-03-29 21:54","tags":["story","Hacker News"],"image":null,"imageAlt":null,"provider":"Hacker News","thirdPartyId":"26625398","url":"https://news.ycombinator.com/item?id=26625398","originalUrl":"https://hpyproject.org/blog/posts/2021/03/hello-hpy/","imageRemote":"https://hpyproject.org/images/hpy-logo.svg","video":null,"channel":null,"channelUrl":null,"author":"milliams","authorUrl":"https://news.ycombinator.com/user?id=milliams","authorImage":null,"authorSlug":null,"score":323,"views":null,"sharedCount":null,"likeCount":null,"sharedContent":null,"parent":{"__typename":"HnJson","localize":[{"title":"你好，HPy","locale":"zh"},{"title":"你好，HPy","locale":"zh-Hant"}]}},{"__typename":"SocialMediaPost","id":"HnPost-26625356","excerpt":"","slug":"/hn/26625356","title":"USB 3.0* Radio Frequency Interference on 2.4 GHz Devices","date":"March 29, 2021","dateISO":"2021-03-29T20:39:34.782Z","datetime":"2021-03-29 20:39","tags":["story","Hacker News"],"image":null,"imageAlt":null,"provider":"Hacker News","thirdPartyId":"26625356","url":"https://news.ycombinator.com/item?id=26625356","originalUrl":"https://www.intel.com/content/www/us/en/products/docs/io/universal-serial-bus/usb3-frequency-interference-paper.html","imageRemote":"https://www.intel.com/etc.clientlibs/settings/wcm/designs/intel/us/en/images/resources/printlogo.png","video":null,"channel":null,"channelUrl":null,"author":"cyberlab","authorUrl":"https://news.ycombinator.com/user?id=cyberlab","authorImage":null,"authorSlug":null,"score":363,"views":null,"sharedCount":null,"likeCount":null,"sharedContent":null,"parent":{"__typename":"HnJson","localize":[{"title":"USB 3.0* 对2.4 GHz设备的射频干扰","locale":"zh"},{"title":"USB 3.0* 對2.4 GHz設備的射頻干擾","locale":"zh-Hant"}]}},{"__typename":"SocialMediaPost","id":"HnPost-26620048","excerpt":"","slug":"/hn/26620048","title":"&& operator chains (and –|, possibly) generates unoptimizable LLVM IR","date":"March 29, 2021","dateISO":"2021-03-29T20:23:16.569Z","datetime":"2021-03-29 20:23","tags":["story","Hacker News"],"image":null,"imageAlt":null,"provider":"Hacker News","thirdPartyId":"26620048","url":"https://news.ycombinator.com/item?id=26620048","originalUrl":"https://github.com/rust-lang/rust/issues/83623","imageRemote":"https://avatars.githubusercontent.com/u/5430905?s=400&v=4","video":null,"channel":null,"channelUrl":null,"author":"est31","authorUrl":"https://news.ycombinator.com/user?id=est31","authorImage":null,"authorSlug":null,"score":228,"views":null,"sharedCount":null,"likeCount":null,"sharedContent":null,"parent":{"__typename":"HnJson","localize":[{"title":"&&操作链（和-|，可能）会产生不可优化的LLVM IR。","locale":"zh"},{"title":"&&操作鏈（和-|，可能）會產生不可優化的LLVM IR。","locale":"zh-Hant"}]}},{"__typename":"SocialMediaPost","id":"HnPost-26624341","excerpt":"","slug":"/hn/26624341","title":"Show HN: An open-source, self-hostable Heroku and Netlify alternative","date":"March 29, 2021","dateISO":"2021-03-29T20:23:16.569Z","datetime":"2021-03-29 20:23","tags":["story","Show HN","Hacker News"],"image":null,"imageAlt":null,"provider":"Hacker News","thirdPartyId":"26624341","url":"https://news.ycombinator.com/item?id=26624341","originalUrl":"https://coollabs.io/coolify","imageRemote":"https://cdn.coollabs.io/assets/coollabs.png","video":null,"channel":"Show HN","channelUrl":"https://news.ycombinator.com/show","author":"andrasbacsai","authorUrl":"https://news.ycombinator.com/user?id=andrasbacsai","authorImage":null,"authorSlug":null,"score":344,"views":null,"sharedCount":null,"likeCount":null,"sharedContent":null,"parent":{"__typename":"HnJson","localize":[{"title":"显示HN：一个开源的，可自我托管的Heroku和Netlify的替代品。","locale":"zh"},{"title":"顯示HN：一個開源的，可自我託管的Heroku和Netlify的替代品。","locale":"zh-Hant"}]}},{"__typename":"SocialMediaPost","id":"HnPost-26624386","excerpt":"","slug":"/hn/26624386","title":"Numi. Beautiful calculator app for Mac","date":"March 29, 2021","dateISO":"2021-03-29T20:23:16.569Z","datetime":"2021-03-29 20:23","tags":["story","Hacker News"],"image":null,"imageAlt":null,"provider":"Hacker News","thirdPartyId":"26624386","url":"https://news.ycombinator.com/item?id=26624386","originalUrl":"https://numi.app/","imageRemote":"https://numi.app/images/demo.png","video":null,"channel":null,"channelUrl":null,"author":"caminocorner","authorUrl":"https://news.ycombinator.com/user?id=caminocorner","authorImage":null,"authorSlug":null,"score":406,"views":null,"sharedCount":null,"likeCount":null,"sharedContent":null,"parent":{"__typename":"HnJson","localize":[{"title":"Numi。美丽的计算器应用程序的Mac","locale":"zh"},{"title":"Numi。美麗的計算器應用程序的Mac","locale":"zh-Hant"}]}},{"__typename":"SocialMediaPost","id":"HnPost-26625739","excerpt":"","slug":"/hn/26625739","title":"Visa moves to allow payment settlements using cryptocurrency","date":"March 29, 2021","dateISO":"2021-03-29T20:23:16.569Z","datetime":"2021-03-29 20:23","tags":["story","Hacker News"],"image":null,"imageAlt":null,"provider":"Hacker News","thirdPartyId":"26625739","url":"https://news.ycombinator.com/item?id=26625739","originalUrl":"https://www.reuters.com/article/us-crypto-currency-visa-exclusive/exclusive-visa-moves-to-allow-payment-settlements-using-cryptocurrency-idUSKBN2BL0X9","imageRemote":"https://static.reuters.com/resources/r/?m=02&d=20210329&t=2&i=1556586181&r=LYNXMPEH2S0IE&w=800","video":null,"channel":null,"channelUrl":null,"author":"pseudolus","authorUrl":"https://news.ycombinator.com/user?id=pseudolus","authorImage":null,"authorSlug":null,"score":250,"views":null,"sharedCount":null,"likeCount":null,"sharedContent":null,"parent":{"__typename":"HnJson","localize":[{"title":"Visa采取行动允许使用加密货币进行支付结算","locale":"zh"},{"title":"Visa採取行動允許使用加密貨幣進行支付結算","locale":"zh-Hant"}]}},{"__typename":"SocialMediaPost","id":"HnPost-26622548","excerpt":"","slug":"/hn/26622548","title":"Show HN: I wrote a program to convert lines of text into trees","date":"March 29, 2021","dateISO":"2021-03-29T19:23:09.922Z","datetime":"2021-03-29 19:23","tags":["story","Show HN","Hacker News"],"image":null,"imageAlt":null,"provider":"Hacker News","thirdPartyId":"26622548","url":"https://news.ycombinator.com/item?id=26622548","originalUrl":"https://github.com/birchb1024/frangipanni","imageRemote":"https://avatars.githubusercontent.com/u/1464543?s=400&v=4","video":null,"channel":"Show HN","channelUrl":"https://news.ycombinator.com/show","author":"birchb","authorUrl":"https://news.ycombinator.com/user?id=birchb","authorImage":null,"authorSlug":null,"score":333,"views":null,"sharedCount":null,"likeCount":null,"sharedContent":null,"parent":{"__typename":"HnJson","localize":[{"title":"出示HN：我写了一个程序，把一行行文字转换成树状物","locale":"zh"},{"title":"出示HN：我寫了一個程序，把一行行文字轉換成樹狀物","locale":"zh-Hant"}]}},{"__typename":"SocialMediaPost","id":"HnPost-26620092","excerpt":"","slug":"/hn/26620092","title":"Ronald Reagan fires 11,359 air-traffic controllers (1981)","date":"March 29, 2021","dateISO":"2021-03-29T16:53:52.939Z","datetime":"2021-03-29 16:53","tags":["story","Hacker News"],"image":null,"imageAlt":null,"provider":"Hacker News","thirdPartyId":"26620092","url":"https://news.ycombinator.com/item?id=26620092","originalUrl":"https://www.history.com/this-day-in-history/reagan-fires-11359-air-traffic-controllers","imageRemote":"https://www.history.com/.image/ar_1:1%2Cc_fill%2Ccs_srgb%2Cq_auto:good%2Cw_1200/MTU1MTMyMDIxMzE4OTAzNjgy/icons-favicon.png","video":null,"channel":null,"channelUrl":null,"author":"a_imho","authorUrl":"https://news.ycombinator.com/user?id=a_imho","authorImage":null,"authorSlug":null,"score":196,"views":null,"sharedCount":null,"likeCount":null,"sharedContent":null,"parent":{"__typename":"HnJson","localize":[{"title":"罗纳德-里根开除11359名空管员","locale":"zh"},{"title":"羅納德-里根開除11359名空管員","locale":"zh-Hant"}]}},{"__typename":"SocialMediaPost","id":"HnPost-26620892","excerpt":"","slug":"/hn/26620892","title":"Gallup: U.S. church membership dips below 50% for first time","date":"March 29, 2021","dateISO":"2021-03-29T14:31:21.916Z","datetime":"2021-03-29 14:31","tags":["story","Hacker News"],"image":null,"imageAlt":null,"provider":"Hacker News","thirdPartyId":"26620892","url":"https://news.ycombinator.com/item?id=26620892","originalUrl":"https://www.axios.com/church-membership-gallup-26cc020b-5405-417a-a786-e10c286a30db.html","imageRemote":"https://images.axios.com/4eklbxyipZgs-fXtn0xjv9qfbcA=/0x313:3000x2000/1366x768/2021/03/29/1617016138338.jpg","video":null,"channel":null,"channelUrl":null,"author":"cwwc","authorUrl":"https://news.ycombinator.com/user?id=cwwc","authorImage":null,"authorSlug":null,"score":693,"views":null,"sharedCount":null,"likeCount":null,"sharedContent":null,"parent":{"__typename":"HnJson","localize":[{"title":"盖洛普 美国教会成员首次跌至50%以下","locale":"zh"},{"title":"蓋洛普 美國教會成員首次跌至50%以下","locale":"zh-Hant"}]}},{"__typename":"SocialMediaPost","id":"HnPost-26609492","excerpt":"","slug":"/hn/26609492","title":"How to Criticize Computer Scientists (2001)","date":"March 29, 2021","dateISO":"2021-03-29T14:10:35.054Z","datetime":"2021-03-29 14:10","tags":["story","Hacker News"],"image":null,"imageAlt":null,"provider":"Hacker News","thirdPartyId":"26609492","url":"https://news.ycombinator.com/item?id=26609492","originalUrl":"https://www.cs.purdue.edu/homes/dec/essay.criticize.html","imageRemote":null,"video":null,"channel":null,"channelUrl":null,"author":"agomez314","authorUrl":"https://news.ycombinator.com/user?id=agomez314","authorImage":null,"authorSlug":null,"score":232,"views":null,"sharedCount":null,"likeCount":null,"sharedContent":null,"parent":{"__typename":"HnJson","localize":[{"title":"如何批评计算机科学家(2001年)","locale":"zh"},{"title":"如何批評計算機科學家(2001年)","locale":"zh-Hant"}]}},{"__typename":"SocialMediaPost","id":"HnPost-26621308","excerpt":"","slug":"/hn/26621308","title":"Suez canal is free again","date":"March 29, 2021","dateISO":"2021-03-29T14:10:35.054Z","datetime":"2021-03-29 14:10","tags":["story","Hacker News"],"image":null,"imageAlt":null,"provider":"Hacker News","thirdPartyId":"26621308","url":"https://news.ycombinator.com/item?id=26621308","originalUrl":"https://www.reuters.com/article/us-egypt-suezcanal-ship-floated/suez-canal-says-traffic-in-channel-resumes-after-stranded-ship-refloated-idUSKBN2BL1S9","imageRemote":"https://static.reuters.com/resources/r/?m=02&d=20210329&t=2&i=1556605431&r=LYNXMPEH2S0YN&w=800","video":null,"channel":null,"channelUrl":null,"author":"WJW","authorUrl":"https://news.ycombinator.com/user?id=WJW","authorImage":null,"authorSlug":null,"score":1066,"views":null,"sharedCount":null,"likeCount":null,"sharedContent":null,"parent":{"__typename":"HnJson","localize":[{"title":"苏伊士运河再次获得自由","locale":"zh"},{"title":"蘇伊士運河再次獲得自由","locale":"zh-Hant"}]}},{"__typename":"SocialMediaPost","id":"HnPost-26614796","excerpt":"","slug":"/hn/26614796","title":"FicusJS","date":"March 29, 2021","dateISO":"2021-03-29T12:55:21.853Z","datetime":"2021-03-29 12:55","tags":["story","Hacker News"],"image":null,"imageAlt":null,"provider":"Hacker News","thirdPartyId":"26614796","url":"https://news.ycombinator.com/item?id=26614796","originalUrl":"https://docs.ficusjs.org/index.html","imageRemote":null,"video":null,"channel":null,"channelUrl":null,"author":"Sn0wCoder","authorUrl":"https://news.ycombinator.com/user?id=Sn0wCoder","authorImage":null,"authorSlug":null,"score":151,"views":null,"sharedCount":null,"likeCount":null,"sharedContent":null,"parent":{"__typename":"HnJson","localize":[{"title":"FicusJS","locale":"zh"},{"title":"FicusJS","locale":"zh-Hant"}]}},{"__typename":"SocialMediaPost","id":"HnPost-26620116","excerpt":"","slug":"/hn/26620116","title":"The Deno Company","date":"March 29, 2021","dateISO":"2021-03-29T12:55:21.853Z","datetime":"2021-03-29 12:55","tags":["story","Hacker News"],"image":null,"imageAlt":null,"provider":"Hacker News","thirdPartyId":"26620116","url":"https://news.ycombinator.com/item?id=26620116","originalUrl":"https://deno.com/blog/the-deno-company","imageRemote":"https://deno.com/denoland_inc/cover.jpg","video":null,"channel":null,"channelUrl":null,"author":"elisee","authorUrl":"https://news.ycombinator.com/user?id=elisee","authorImage":null,"authorSlug":null,"score":881,"views":null,"sharedCount":null,"likeCount":null,"sharedContent":null,"parent":{"__typename":"HnJson","localize":[{"title":"德诺公司","locale":"zh"},{"title":"德諾公司","locale":"zh-Hant"}]}},{"__typename":"SocialMediaPost","id":"HnPost-26617430","excerpt":"","slug":"/hn/26617430","title":"Giant Ship Is Moved To and Fro to Break Suction: Suez Update","date":"March 29, 2021","dateISO":"2021-03-29T12:21:52.047Z","datetime":"2021-03-29 12:21","tags":["story","Hacker News"],"image":null,"imageAlt":null,"provider":"Hacker News","thirdPartyId":"26617430","url":"https://news.ycombinator.com/item?id=26617430","originalUrl":"https://www.bloomberg.com/news/articles/2021-03-28/progress-made-in-moving-ship-more-vessels-diverted-suez-update","imageRemote":null,"video":null,"channel":null,"channelUrl":null,"author":"testfoobar","authorUrl":"https://news.ycombinator.com/user?id=testfoobar","authorImage":null,"authorSlug":null,"score":180,"views":null,"sharedCount":null,"likeCount":null,"sharedContent":null,"parent":{"__typename":"HnJson","localize":[{"title":"巨型船舶来回移动以打破吸力。苏伊士运河最新情况","locale":"zh"},{"title":"巨型船舶來回移動以打破吸力。蘇伊士運河最新情況","locale":"zh-Hant"}]}},{"__typename":"SocialMediaPost","id":"HnPost-26616707","excerpt":"","slug":"/hn/26616707","title":"PHP's Git server compromised, moving to GitHub","date":"March 29, 2021","dateISO":"2021-03-29T11:22:49.689Z","datetime":"2021-03-29 11:22","tags":["story","Hacker News"],"image":null,"imageAlt":null,"provider":"Hacker News","thirdPartyId":"26616707","url":"https://news.ycombinator.com/item?id=26616707","originalUrl":"https://news-web.php.net/php.internals/113838","imageRemote":"https://php.net/images/logos/php-logo.svg","video":null,"channel":null,"channelUrl":null,"author":"jsmith45","authorUrl":"https://news.ycombinator.com/user?id=jsmith45","authorImage":null,"authorSlug":null,"score":401,"views":null,"sharedCount":null,"likeCount":null,"sharedContent":null,"parent":{"__typename":"HnJson","localize":[{"title":"PHP的Git服务器被入侵，转移到GitHub上。","locale":"zh"},{"title":"PHP的Git服務器被入侵，轉移到GitHub上。","locale":"zh-Hant"}]}},{"__typename":"SocialMediaPost","id":"HnPost-26607983","excerpt":"","slug":"/hn/26607983","title":"The Actual OSI Model","date":"March 29, 2021","dateISO":"2021-03-29T10:43:44.399Z","datetime":"2021-03-29 10:43","tags":["story","Hacker News"],"image":null,"imageAlt":null,"provider":"Hacker News","thirdPartyId":"26607983","url":"https://news.ycombinator.com/item?id=26607983","originalUrl":"https://computer.rip/2021-03-27-the-actual-osi-model.html","imageRemote":null,"video":null,"channel":null,"channelUrl":null,"author":"zdw","authorUrl":"https://news.ycombinator.com/user?id=zdw","authorImage":null,"authorSlug":null,"score":231,"views":null,"sharedCount":null,"likeCount":null,"sharedContent":null,"parent":{"__typename":"HnJson","localize":[{"title":"实际OSI模型","locale":"zh"},{"title":"實際OSI模型","locale":"zh-Hant"}]}},{"__typename":"SocialMediaPost","id":"HnPost-26614654","excerpt":"","slug":"/hn/26614654","title":"Collabora Office: The enterprise-ready edition of LibreOffice","date":"March 29, 2021","dateISO":"2021-03-29T09:56:02.723Z","datetime":"2021-03-29 09:56","tags":["story","Hacker News"],"image":null,"imageAlt":null,"provider":"Hacker News","thirdPartyId":"26614654","url":"https://news.ycombinator.com/item?id=26614654","originalUrl":"https://www.collaboraoffice.com/solutions/collabora-office/","imageRemote":"https://www.collaboraoffice.com/wp-content/uploads/2015/10/desktop-with-perspective-with-calc-v3-cropped.png","video":null,"channel":null,"channelUrl":null,"author":"crazypython","authorUrl":"https://news.ycombinator.com/user?id=crazypython","authorImage":null,"authorSlug":null,"score":177,"views":null,"sharedCount":null,"likeCount":null,"sharedContent":null,"parent":{"__typename":"HnJson","localize":[{"title":"Collabora Office。LibreOffice的企业版","locale":"zh"},{"title":"Collabora Office。LibreOffice的企業版","locale":"zh-Hant"}]}},{"__typename":"SocialMediaPost","id":"HnPost-26616973","excerpt":"","slug":"/hn/26616973","title":"Robots.txt for the NYT has a specific exclusion for an 1996 news article","date":"March 29, 2021","dateISO":"2021-03-29T07:25:35.468Z","datetime":"2021-03-29 07:25","tags":["story","Hacker News"],"image":null,"imageAlt":null,"provider":"Hacker News","thirdPartyId":"26616973","url":"https://news.ycombinator.com/item?id=26616973","originalUrl":"https://twitter.com/oliviasolon/status/1171200746240372737","imageRemote":null,"video":null,"channel":null,"channelUrl":null,"author":"mikeortman","authorUrl":"https://news.ycombinator.com/user?id=mikeortman","authorImage":null,"authorSlug":null,"score":270,"views":null,"sharedCount":null,"likeCount":null,"sharedContent":null,"parent":{"__typename":"HnJson","localize":[{"title":"纽约时报的Robots.txt有一篇1996年的新闻文章，特别排除了以下内容","locale":"zh"},{"title":"紐約時報的Robots.txt有一篇1996年的新聞文章，特別排除了以下內容","locale":"zh-Hant"}]}}]}},"pageContext":{"basePath":"/","pageType":"home","tagsFilter":{"id":{"glob":"!*Post-1"}},"filter":{"id":{"glob":"!*Post-1"}},"limit":25,"skip":200,"totalPages":125,"total":3105,"currentPage":9,"maxWidth":1024,"maxHeight":512,"locale":"en","hrefLang":"en-US","originalPath":"/page/9","dateFormat":"MM/DD/YYYY"}},"staticQueryHashes":["1239077767","2506312863","2744905544","3025052997","3493603132","3493603132","3513215887","386998304"]}