{"componentChunkName":"component---gatsby-theme-buzzing-src-gatsby-theme-timeline-templates-posts-query-js","path":"/zh-Hant/tags/hacker-news/page/50","result":{"data":{"site":{"siteMetadata":{"title":"Reddit 热门","description":"用中文浏览Reddit热门内容","social":[{"name":"Twitter","url":"https://twitter.com/gatsbyjs","external":null,"prefetch":null},{"name":"GitHub","url":"https://github.com/gatsbyjs","external":null,"prefetch":null}],"menuLinks":[],"localize":[{"locale":"en","title":"Buzzing on Reddit","description":"See what's buzzing on Reddit in your native language","social":[{"name":"Reddit","url":"https://www.reddit.com/","external":true,"prefetch":null}],"menuLinks":[{"name":"Weekly Selection","url":"/issues","external":null,"prefetch":null},{"name":"RSS","url":"/rss.xml","external":null,"prefetch":false}]},{"locale":"zh-Hant","title":"Reddit 熱門","description":"用中文瀏覽Reddit熱門內容","social":null,"menuLinks":null}]}},"tagsGroup":{"group":[{"fieldValue":"ASK HN","totalCount":44},{"fieldValue":"Bitcoin","totalCount":4},{"fieldValue":"Hacker News","totalCount":2600},{"fieldValue":"Poll","totalCount":1},{"fieldValue":"SaveAMC","totalCount":1},{"fieldValue":"Show HN","totalCount":89},{"fieldValue":"bitcoin","totalCount":3},{"fieldValue":"investing","totalCount":797},{"fieldValue":"poll","totalCount":1},{"fieldValue":"reddit","totalCount":4938},{"fieldValue":"science","totalCount":1},{"fieldValue":"stocks","totalCount":1592},{"fieldValue":"story","totalCount":2599},{"fieldValue":"tweet","totalCount":814},{"fieldValue":"wallstreetbets","totalCount":2549}]},"allBlogPost":{"nodes":[{"__typename":"SocialMediaPost","id":"HnPost-25970658","excerpt":"","slug":"/hn/25970658","title":"The Great Unbundling","date":"January 31, 2021","dateISO":"2021-01-31T02:19:19.796Z","datetime":"2021-01-31 02:19","tags":["story","Hacker News"],"image":null,"imageAlt":null,"provider":"Hacker News","thirdPartyId":"25970658","url":"https://news.ycombinator.com/item?id=25970658","originalUrl":"https://www.ben-evans.com/presentations","imageRemote":"http://static1.squarespace.com/static/50363cf324ac8e905e7df861/t/6011a13c71ee374f4753e570/1611768128318/2021+Great+Unbundling.001.png?format=1500w","video":null,"channel":null,"channelUrl":null,"author":"notoriousarun","authorUrl":"https://news.ycombinator.com/user?id=notoriousarun","authorImage":null,"authorSlug":null,"score":245,"views":null,"sharedCount":null,"likeCount":null,"sharedContent":null,"parent":{"__typename":"HnJson","localize":[{"title":"大解体","locale":"zh"},{"title":"大解體","locale":"zh-Hant"}]}},{"__typename":"SocialMediaPost","id":"HnPost-25971037","excerpt":"","slug":"/hn/25971037","title":"Cory Doctorow: IP (2020)","date":"January 31, 2021","dateISO":"2021-01-31T02:19:19.796Z","datetime":"2021-01-31 02:19","tags":["story","Hacker News"],"image":null,"imageAlt":null,"provider":"Hacker News","thirdPartyId":"25971037","url":"https://news.ycombinator.com/item?id=25971037","originalUrl":"https://locusmag.com/2020/09/cory-doctorow-ip","imageRemote":"https://locusmag.com/wp-content/uploads/2017/05/Cory2017_800x400.jpg","video":null,"channel":null,"channelUrl":null,"author":"akkartik","authorUrl":"https://news.ycombinator.com/user?id=akkartik","authorImage":null,"authorSlug":null,"score":227,"views":null,"sharedCount":null,"likeCount":null,"sharedContent":null,"parent":{"__typename":"HnJson","localize":[{"title":"Cory Doctorow。IP(2020)","locale":"zh"},{"title":"Cory Doctorow。IP(2020)","locale":"zh-Hant"}]}},{"__typename":"SocialMediaPost","id":"HnPost-25972342","excerpt":"","slug":"/hn/25972342","title":"Regular afternoon naps linked to improved cognitive function","date":"January 30, 2021","dateISO":"2021-01-30T23:32:49.659Z","datetime":"2021-01-30 23:32","tags":["story","Hacker News"],"image":null,"imageAlt":null,"provider":"Hacker News","thirdPartyId":"25972342","url":"https://news.ycombinator.com/item?id=25972342","originalUrl":"https://www.sciencefocus.com/the-human-body/afternoon-naps-linked-to-improved-cognitive-function/","imageRemote":"https://images.immediate.co.uk/production/volatile/sites/4/2021/01/Afternoon-nap-b3dfc7f-e1611678959811.jpg?quality=90&resize=940,627","video":null,"channel":null,"channelUrl":null,"author":"prostoalex","authorUrl":"https://news.ycombinator.com/user?id=prostoalex","authorImage":null,"authorSlug":null,"score":434,"views":null,"sharedCount":null,"likeCount":null,"sharedContent":null,"parent":{"__typename":"HnJson","localize":[{"title":"午后定期小睡与认知功能改善有关","locale":"zh"},{"title":"午後定期小睡與認知功能改善有關","locale":"zh-Hant"}]}},{"__typename":"SocialMediaPost","id":"HnPost-25963589","excerpt":"","slug":"/hn/25963589","title":"Personal experiences bridge moral and political divides better than facts","date":"January 30, 2021","dateISO":"2021-01-30T22:28:28.357Z","datetime":"2021-01-30 22:28","tags":["story","Hacker News"],"image":null,"imageAlt":null,"provider":"Hacker News","thirdPartyId":"25963589","url":"https://news.ycombinator.com/item?id=25963589","originalUrl":"https://www.pnas.org/content/118/6/e2008389118","imageRemote":"https://www.pnas.org/content/118/6/e2008389118/F1.large.jpg","video":null,"channel":null,"channelUrl":null,"author":"lobbly","authorUrl":"https://news.ycombinator.com/user?id=lobbly","authorImage":null,"authorSlug":null,"score":387,"views":null,"sharedCount":null,"likeCount":null,"sharedContent":null,"parent":{"__typename":"HnJson","localize":[{"title":"个人经历比事实更能弥合道德和政治分歧。","locale":"zh"},{"title":"個人經歷比事實更能彌合道德和政治分歧。","locale":"zh-Hant"}]}},{"__typename":"SocialMediaPost","id":"HnPost-25971125","excerpt":"","slug":"/hn/25971125","title":"Analysis: Robinhood protected from lawsuits by user agreement, Congress","date":"January 30, 2021","dateISO":"2021-01-30T22:28:28.357Z","datetime":"2021-01-30 22:28","tags":["story","Hacker News"],"image":null,"imageAlt":null,"provider":"Hacker News","thirdPartyId":"25971125","url":"https://news.ycombinator.com/item?id=25971125","originalUrl":"https://www.reuters.com/article/us-retail-trading-robinhood-liability-an-idUSKBN29Z0HI","imageRemote":"https://static.reuters.com/resources/r/?m=02&d=20210130&t=2&i=1549659745&r=LYNXMPEH0T0AC&w=800","video":null,"channel":null,"channelUrl":null,"author":"1cvmask","authorUrl":"https://news.ycombinator.com/user?id=1cvmask","authorImage":null,"authorSlug":null,"score":186,"views":null,"sharedCount":null,"likeCount":null,"sharedContent":null,"parent":{"__typename":"HnJson","localize":[{"title":"分析。Robinhood受用户协议、国会保护，免于诉讼","locale":"zh"},{"title":"分析。Robinhood受用戶協議、國會保護，免於訴訟","locale":"zh-Hant"}]}},{"__typename":"SocialMediaPost","id":"HnPost-25969442","excerpt":"","slug":"/hn/25969442","title":"Are the Persian Gulf city-states slave societies?","date":"January 30, 2021","dateISO":"2021-01-30T20:24:01.289Z","datetime":"2021-01-30 20:24","tags":["story","Hacker News"],"image":null,"imageAlt":null,"provider":"Hacker News","thirdPartyId":"25969442","url":"https://news.ycombinator.com/item?id=25969442","originalUrl":"https://aeon.co/essays/are-the-persian-gulf-city-states-slave-societies","imageRemote":"https://alpha.aeon.co/images/19ed3697-a1ff-4735-8621-10826461ed3c/header_essay-final-nyc149085.jpg","video":null,"channel":null,"channelUrl":null,"author":"cmrdporcupine","authorUrl":"https://news.ycombinator.com/user?id=cmrdporcupine","authorImage":null,"authorSlug":null,"score":233,"views":null,"sharedCount":null,"likeCount":null,"sharedContent":null,"parent":{"__typename":"HnJson","localize":[{"title":"波斯湾城邦是奴隶社会吗？","locale":"zh"},{"title":"波斯灣城邦是奴隸社會嗎？","locale":"zh-Hant"}]}},{"__typename":"SocialMediaPost","id":"HnPost-25956652","excerpt":"","slug":"/hn/25956652","title":"Uniwidth Typefaces for Interface Design","date":"January 30, 2021","dateISO":"2021-01-30T18:44:18.456Z","datetime":"2021-01-30 18:44","tags":["story","Hacker News"],"image":null,"imageAlt":null,"provider":"Hacker News","thirdPartyId":"25956652","url":"https://news.ycombinator.com/item?id=25956652","originalUrl":"https://uxdesign.cc/uniwidth-typefaces-for-interface-design-b6e8078dc0f7","imageRemote":"https://miro.medium.com/max/1200/1*SEXMZ-JHRt2jzOoZfpM3SA.jpeg","video":null,"channel":null,"channelUrl":null,"author":"fanf2","authorUrl":"https://news.ycombinator.com/user?id=fanf2","authorImage":null,"authorSlug":null,"score":370,"views":null,"sharedCount":null,"likeCount":null,"sharedContent":null,"parent":{"__typename":"HnJson","localize":[{"title":"界面设计中的统一宽度字体","locale":"zh"},{"title":"界面設計中的統一寬度字體","locale":"zh-Hant"}]}},{"__typename":"SocialMediaPost","id":"HnPost-25967442","excerpt":"","slug":"/hn/25967442","title":"New Xquartz release with native Apple Silicon support","date":"January 30, 2021","dateISO":"2021-01-30T18:07:54.074Z","datetime":"2021-01-30 18:07","tags":["story","Hacker News"],"image":null,"imageAlt":null,"provider":"Hacker News","thirdPartyId":"25967442","url":"https://news.ycombinator.com/item?id=25967442","originalUrl":"https://www.mail-archive.com/xquartz-dev@lists.macosforge.org/msg01027.html","imageRemote":"https://www.mail-archive.com/logo.png","video":null,"channel":null,"channelUrl":null,"author":"ismiseted","authorUrl":"https://news.ycombinator.com/user?id=ismiseted","authorImage":null,"authorSlug":null,"score":229,"views":null,"sharedCount":null,"likeCount":null,"sharedContent":null,"parent":{"__typename":"HnJson","localize":[{"title":"新的Xquartz版本支持原生的Apple Silicon。","locale":"zh"},{"title":"新的Xquartz版本支持原生的Apple Silicon。","locale":"zh-Hant"}]}},{"__typename":"SocialMediaPost","id":"HnPost-25967641","excerpt":"","slug":"/hn/25967641","title":"Show HN: Collection of deep learning implementations with side-by-side notes","date":"January 30, 2021","dateISO":"2021-01-30T18:07:54.074Z","datetime":"2021-01-30 18:07","tags":["story","Show HN","Hacker News"],"image":null,"imageAlt":null,"provider":"Hacker News","thirdPartyId":"25967641","url":"https://news.ycombinator.com/item?id=25967641","originalUrl":"https://nn.labml.ai","imageRemote":"https://avatars1.githubusercontent.com/u/64068543?s=400&v=4","video":null,"channel":"Show HN","channelUrl":"https://news.ycombinator.com/show","author":"vpj","authorUrl":"https://news.ycombinator.com/user?id=vpj","authorImage":null,"authorSlug":null,"score":251,"views":null,"sharedCount":null,"likeCount":null,"sharedContent":null,"parent":{"__typename":"HnJson","localize":[{"title":"显示HN：深度学习实现的集合与侧记","locale":"zh"},{"title":"顯示HN：深度學習實現的集合與側記","locale":"zh-Hant"}]}},{"__typename":"SocialMediaPost","id":"HnPost-25969886","excerpt":"","slug":"/hn/25969886","title":"QUIC much easier to fingerprint than HTTPS","date":"January 30, 2021","dateISO":"2021-01-30T18:07:54.074Z","datetime":"2021-01-30 18:07","tags":["story","Hacker News"],"image":null,"imageAlt":null,"provider":"Hacker News","thirdPartyId":"25969886","url":"https://news.ycombinator.com/item?id=25969886","originalUrl":"https://arxiv.org/abs/2101.11871","imageRemote":"https://static.arxiv.org/static/browse/0.3.2.6/images/icons/social/bibsonomy.png","video":null,"channel":null,"channelUrl":null,"author":"pueblito","authorUrl":"https://news.ycombinator.com/user?id=pueblito","authorImage":null,"authorSlug":null,"score":338,"views":null,"sharedCount":null,"likeCount":null,"sharedContent":null,"parent":{"__typename":"HnJson","localize":[{"title":"QUIC比HTTPS更容易打指纹","locale":"zh"},{"title":"QUIC比HTTPS更容易打指紋","locale":"zh-Hant"}]}},{"__typename":"SocialMediaPost","id":"HnPost-25967382","excerpt":"","slug":"/hn/25967382","title":"University of Leicester firing all pure math faculty","date":"January 30, 2021","dateISO":"2021-01-30T17:29:40.001Z","datetime":"2021-01-30 17:29","tags":["story","Hacker News"],"image":null,"imageAlt":null,"provider":"Hacker News","thirdPartyId":"25967382","url":"https://news.ycombinator.com/item?id=25967382","originalUrl":"https://twitter.com/wtgowers/status/1355184163020804099","imageRemote":null,"video":null,"channel":null,"channelUrl":null,"author":"rfurmani","authorUrl":"https://news.ycombinator.com/user?id=rfurmani","authorImage":null,"authorSlug":null,"score":244,"views":null,"sharedCount":null,"likeCount":null,"sharedContent":null,"parent":{"__typename":"HnJson","localize":[{"title":"莱斯特大学解雇所有纯数学教师","locale":"zh"},{"title":"萊斯特大學解僱所有純數學教師","locale":"zh-Hant"}]}},{"__typename":"SocialMediaPost","id":"HnPost-25968348","excerpt":"","slug":"/hn/25968348","title":"Offline Algorithms in Low-Frequency Trading","date":"January 30, 2021","dateISO":"2021-01-30T17:29:40.001Z","datetime":"2021-01-30 17:29","tags":["story","Hacker News"],"image":null,"imageAlt":null,"provider":"Hacker News","thirdPartyId":"25968348","url":"https://news.ycombinator.com/item?id=25968348","originalUrl":"https://queue.acm.org/detail.cfm?id=3448307","imageRemote":"https://queue.acm.org/img/acmqueue_logo.gif","video":null,"channel":null,"channelUrl":null,"author":"hypomnemata","authorUrl":"https://news.ycombinator.com/user?id=hypomnemata","authorImage":null,"authorSlug":null,"score":347,"views":null,"sharedCount":null,"likeCount":null,"sharedContent":null,"parent":{"__typename":"HnJson","localize":[{"title":"低频交易的离线算法","locale":"zh"},{"title":"低頻交易的離線算法","locale":"zh-Hant"}]}},{"__typename":"SocialMediaPost","id":"HnPost-25968531","excerpt":"","slug":"/hn/25968531","title":"Dark Patterns at Scale: Findings from a Crawl of 11K Shopping Websites (2019)","date":"January 30, 2021","dateISO":"2021-01-30T17:29:40.001Z","datetime":"2021-01-30 17:29","tags":["story","Hacker News"],"image":null,"imageAlt":null,"provider":"Hacker News","thirdPartyId":"25968531","url":"https://news.ycombinator.com/item?id=25968531","originalUrl":"https://webtransparency.cs.princeton.edu/dark-patterns/","imageRemote":"https://webtransparency.cs.princeton.edu/dark-patterns/assets/images/sneaking.png","video":null,"channel":null,"channelUrl":null,"author":"pseudolus","authorUrl":"https://news.ycombinator.com/user?id=pseudolus","authorImage":null,"authorSlug":null,"score":389,"views":null,"sharedCount":null,"likeCount":null,"sharedContent":null,"parent":{"__typename":"HnJson","localize":[{"title":"暗格局规模。从11K购物网站抓取的发现(2019)","locale":"zh"},{"title":"暗格局規模。從11K購物網站抓取的發現(2019)","locale":"zh-Hant"}]}},{"__typename":"SocialMediaPost","id":"HnPost-25963556","excerpt":"","slug":"/hn/25963556","title":"Baking with machine learning (2020)","date":"January 30, 2021","dateISO":"2021-01-30T12:46:40.088Z","datetime":"2021-01-30 12:46","tags":["story","Hacker News"],"image":null,"imageAlt":null,"provider":"Hacker News","thirdPartyId":"25963556","url":"https://news.ycombinator.com/item?id=25963556","originalUrl":"https://sararobinson.dev/2020/04/30/baking-machine-learning.html","imageRemote":"https://storage.googleapis.com/sararobinson622.appspot.com/cakie.jpg","video":null,"channel":null,"channelUrl":null,"author":"pizza","authorUrl":"https://news.ycombinator.com/user?id=pizza","authorImage":null,"authorSlug":null,"score":173,"views":null,"sharedCount":null,"likeCount":null,"sharedContent":null,"parent":{"__typename":"HnJson","localize":[{"title":"用机器学习烘焙(2020年)","locale":"zh"},{"title":"用機器學習烘焙(2020年)","locale":"zh-Hant"}]}},{"__typename":"SocialMediaPost","id":"HnPost-25962178","excerpt":"","slug":"/hn/25962178","title":"Ask HN: Remote workers in a non-tech city, what's your experience?","date":"January 30, 2021","dateISO":"2021-01-30T10:52:17.528Z","datetime":"2021-01-30 10:52","tags":["story","ASK HN","Hacker News"],"image":null,"imageAlt":null,"provider":"Hacker News","thirdPartyId":"25962178","url":"https://news.ycombinator.com/item?id=25962178","originalUrl":"https://news.ycombinator.com/item?id=25962178","imageRemote":null,"video":null,"channel":"ASK HN","channelUrl":"https://news.ycombinator.com/ask","author":"holsOndI","authorUrl":"https://news.ycombinator.com/user?id=holsOndI","authorImage":null,"authorSlug":null,"score":222,"views":null,"sharedCount":null,"likeCount":null,"sharedContent":null,"parent":{"__typename":"HnJson","localize":[{"title":"问HN：在非科技城市的远程工作者，你有什么经验？","locale":"zh"},{"title":"問HN：在非科技城市的遠程工作者，你有什麼經驗？","locale":"zh-Hant"}]}},{"__typename":"SocialMediaPost","id":"HnPost-25964197","excerpt":"","slug":"/hn/25964197","title":"Europe's Vaccine Disaster","date":"January 30, 2021","dateISO":"2021-01-30T10:31:50.922Z","datetime":"2021-01-30 10:31","tags":["story","Hacker News"],"image":null,"imageAlt":null,"provider":"Hacker News","thirdPartyId":"25964197","url":"https://news.ycombinator.com/item?id=25964197","originalUrl":"https://www.spiegel.de/international/europe/europe-s-vaccine-disaster-commission-president-ursula-von-der-leyen-seeking-to-duck-responsibility-a-1197547d-6219-4438-9d69-b76e64701802","imageRemote":"https://cdn.prod.www.spiegel.de/images/3333010f-2131-4ac3-b46d-d98a46fcee1a_w1280_r1.77_fpx55_fpy37.jpg","video":null,"channel":null,"channelUrl":null,"author":"danielfoster","authorUrl":"https://news.ycombinator.com/user?id=danielfoster","authorImage":null,"authorSlug":null,"score":208,"views":null,"sharedCount":null,"likeCount":null,"sharedContent":null,"parent":{"__typename":"HnJson","localize":[{"title":"欧洲的疫苗灾难","locale":"zh"},{"title":"歐洲的疫苗災難","locale":"zh-Hant"}]}},{"__typename":"SocialMediaPost","id":"HnPost-25961420","excerpt":"","slug":"/hn/25961420","title":"Can you make a basic web app without Googling? I can’t","date":"January 30, 2021","dateISO":"2021-01-30T08:32:04.299Z","datetime":"2021-01-30 08:32","tags":["story","Hacker News"],"image":null,"imageAlt":null,"provider":"Hacker News","thirdPartyId":"25961420","url":"https://news.ycombinator.com/item?id=25961420","originalUrl":"https://web.eecs.utk.edu/~azh/blog/webappwithoutgoogling.html","imageRemote":"https://web.eecs.utk.edu/~azh/blog/images/appwithgoogling.png","video":null,"channel":null,"channelUrl":null,"author":"azhenley","authorUrl":"https://news.ycombinator.com/user?id=azhenley","authorImage":null,"authorSlug":null,"score":339,"views":null,"sharedCount":null,"likeCount":null,"sharedContent":null,"parent":{"__typename":"HnJson","localize":[{"title":"你能不用Googling做一个基本的网络应用吗？我做不到","locale":"zh"},{"title":"你能不用Googling做一個基本的網絡應用嗎？我做不到","locale":"zh-Hant"}]}},{"__typename":"SocialMediaPost","id":"HnPost-25964501","excerpt":"","slug":"/hn/25964501","title":"Apple Silicon M1 supports “billion of colors” a.k.a. HDR 10-bit output","date":"January 30, 2021","dateISO":"2021-01-30T07:51:16.279Z","datetime":"2021-01-30 07:51","tags":["story","Hacker News"],"image":null,"imageAlt":null,"provider":"Hacker News","thirdPartyId":"25964501","url":"https://news.ycombinator.com/item?id=25964501","originalUrl":"https://singhkays.com/blog/apple-silicon-m1-hdr-10bit-billion-colors/","imageRemote":"https://singhkays.com/blog/apple-silicon-m1-hdr-10bit-billion-colors/media/apple-m1-silicon-billions-of-colors.jpg","video":null,"channel":null,"channelUrl":null,"author":"singhkays","authorUrl":"https://news.ycombinator.com/user?id=singhkays","authorImage":null,"authorSlug":null,"score":241,"views":null,"sharedCount":null,"likeCount":null,"sharedContent":null,"parent":{"__typename":"HnJson","localize":[{"title":"苹果Silicon M1支持 \"亿色 \"也就是HDR 10-bit输出。","locale":"zh"},{"title":"蘋果Silicon M1支持 \"億色 \"也就是HDR 10-bit輸出。","locale":"zh-Hant"}]}},{"__typename":"SocialMediaPost","id":"HnPost-25964865","excerpt":"","slug":"/hn/25964865","title":"Siliconpr0n: High Resolution Chip Maps","date":"January 30, 2021","dateISO":"2021-01-30T07:31:42.504Z","datetime":"2021-01-30 07:31","tags":["story","Hacker News"],"image":null,"imageAlt":null,"provider":"Hacker News","thirdPartyId":"25964865","url":"https://news.ycombinator.com/item?id=25964865","originalUrl":"https://siliconpr0n.org/map/","imageRemote":"https://siliconpr0n.org/icons/blank.gif","video":null,"channel":null,"channelUrl":null,"author":"lelf","authorUrl":"https://news.ycombinator.com/user?id=lelf","authorImage":null,"authorSlug":null,"score":290,"views":null,"sharedCount":null,"likeCount":null,"sharedContent":null,"parent":{"__typename":"HnJson","localize":[{"title":"Siliconpr0n: 高分辨率芯片地图","locale":"zh"},{"title":"Siliconpr0n: 高分辨率芯片地圖","locale":"zh-Hant"}]}},{"__typename":"SocialMediaPost","id":"HnPost-25964226","excerpt":"","slug":"/hn/25964226","title":"Element (Matrix chat app) suspended from the Google Play Store","date":"January 30, 2021","dateISO":"2021-01-30T05:49:16.432Z","datetime":"2021-01-30 05:49","tags":["story","Hacker News"],"image":null,"imageAlt":null,"provider":"Hacker News","thirdPartyId":"25964226","url":"https://news.ycombinator.com/item?id=25964226","originalUrl":"https://twitter.com/element_hq/status/1355290296947499013","imageRemote":null,"video":null,"channel":null,"channelUrl":null,"author":"redsolver","authorUrl":"https://news.ycombinator.com/user?id=redsolver","authorImage":null,"authorSlug":null,"score":2008,"views":null,"sharedCount":null,"likeCount":null,"sharedContent":null,"parent":{"__typename":"HnJson","localize":[{"title":"元素（Matrix聊天应用）从Google Play Store暂停使用。","locale":"zh"},{"title":"元素（Matrix聊天應用）從Google Play Store暫停使用。","locale":"zh-Hant"}]}},{"__typename":"SocialMediaPost","id":"HnPost-25957820","excerpt":"","slug":"/hn/25957820","title":"Johnson and Johnson single-shot vaccine appears 66% effective in global trial","date":"January 30, 2021","dateISO":"2021-01-30T05:31:10.589Z","datetime":"2021-01-30 05:31","tags":["story","Hacker News"],"image":null,"imageAlt":null,"provider":"Hacker News","thirdPartyId":"25957820","url":"https://news.ycombinator.com/item?id=25957820","originalUrl":"https://www.cbc.ca/news/health/johnson-johnson-covid-vaccine-trial-1.5893009","imageRemote":"https://i.cbc.ca/1.5893047.1611927695!/fileImage/httpImage/image.jpg_gen/derivatives/16x9_620/virus-outbreak-johnson-johnson-vaccine.jpg","video":null,"channel":null,"channelUrl":null,"author":"heyheyheysome","authorUrl":"https://news.ycombinator.com/user?id=heyheyheysome","authorImage":null,"authorSlug":null,"score":186,"views":null,"sharedCount":null,"likeCount":null,"sharedContent":null,"parent":{"__typename":"HnJson","localize":[{"title":"强生单针疫苗在全球试验中出现66%的有效性","locale":"zh"},{"title":"強生單針疫苗在全球試驗中出現66%的有效性","locale":"zh-Hant"}]}},{"__typename":"SocialMediaPost","id":"HnPost-25965264","excerpt":"","slug":"/hn/25965264","title":"Element Was Suspended from the Playstore","date":"January 30, 2021","dateISO":"2021-01-30T05:31:10.589Z","datetime":"2021-01-30 05:31","tags":["story","Hacker News"],"image":null,"imageAlt":null,"provider":"Hacker News","thirdPartyId":"25965264","url":"https://news.ycombinator.com/item?id=25965264","originalUrl":"https://play.google.com/store/apps/details?id=im.vector.app","imageRemote":null,"video":null,"channel":null,"channelUrl":null,"author":"lousken","authorUrl":"https://news.ycombinator.com/user?id=lousken","authorImage":null,"authorSlug":null,"score":184,"views":null,"sharedCount":null,"likeCount":null,"sharedContent":null,"parent":{"__typename":"HnJson","localize":[{"title":"元素被暂停从游戏商店","locale":"zh"},{"title":"元素被暫停從遊戲商店","locale":"zh-Hant"}]}},{"__typename":"SocialMediaPost","id":"HnPost-25960469","excerpt":"","slug":"/hn/25960469","title":"AstraZeneca/EU contract","date":"January 30, 2021","dateISO":"2021-01-30T00:39:16.030Z","datetime":"2021-01-30 00:39","tags":["story","Hacker News"],"image":null,"imageAlt":null,"provider":"Hacker News","thirdPartyId":"25960469","url":"https://news.ycombinator.com/item?id=25960469","originalUrl":"https://fragdenstaat.de/dokumente/8409-apa_-_astrazeneca/","imageRemote":"https://media.frag-den-staat.de/files/docs/46/23/6b/46236b0f073046719e99c60745623863/page-p1-original.png.1200x630_q85_crop.png","video":null,"channel":null,"channelUrl":null,"author":"hannob","authorUrl":"https://news.ycombinator.com/user?id=hannob","authorImage":null,"authorSlug":null,"score":199,"views":null,"sharedCount":null,"likeCount":null,"sharedContent":null,"parent":{"__typename":"HnJson","localize":[{"title":"阿斯利康/欧盟合同","locale":"zh"},{"title":"阿斯利康/歐盟合同","locale":"zh-Hant"}]}},{"__typename":"SocialMediaPost","id":"HnPost-25961053","excerpt":"","slug":"/hn/25961053","title":"Facebook reportedly prepping antitrust lawsuit against Apple on App Store rules","date":"January 29, 2021","dateISO":"2021-01-29T23:56:41.666Z","datetime":"2021-01-29 23:56","tags":["story","Hacker News"],"image":null,"imageAlt":null,"provider":"Hacker News","thirdPartyId":"25961053","url":"https://news.ycombinator.com/item?id=25961053","originalUrl":"https://www.businessinsider.com/facebook-apple-antitrust-lawsuit-app-store-2021-1","imageRemote":"https://i.insider.com/6012d8136dfbe10018e00757?width=1200&format=jpeg","video":null,"channel":null,"channelUrl":null,"author":"PieUser","authorUrl":"https://news.ycombinator.com/user?id=PieUser","authorImage":null,"authorSlug":null,"score":228,"views":null,"sharedCount":null,"likeCount":null,"sharedContent":null,"parent":{"__typename":"HnJson","localize":[{"title":"据报道，Facebook正准备就App Store规则对苹果提起反垄断诉讼。","locale":"zh"},{"title":"據報道，Facebook正準備就App Store規則對蘋果提起反壟斷訴訟。","locale":"zh-Hant"}]}},{"__typename":"SocialMediaPost","id":"HnPost-25957923","excerpt":"","slug":"/hn/25957923","title":"u/DeepFuckingValue and the GameStop Reddit mania","date":"January 29, 2021","dateISO":"2021-01-29T23:06:31.561Z","datetime":"2021-01-29 23:06","tags":["story","Hacker News"],"image":null,"imageAlt":null,"provider":"Hacker News","thirdPartyId":"25957923","url":"https://news.ycombinator.com/item?id=25957923","originalUrl":"https://www.wsj.com/articles/keith-gill-drove-the-gamestop-reddit-mania-he-talked-to-the-journal-11611931696","imageRemote":"https://images.wsj.net/im-292292/social","video":null,"channel":null,"channelUrl":null,"author":"gangwolf","authorUrl":"https://news.ycombinator.com/user?id=gangwolf","authorImage":null,"authorSlug":null,"score":486,"views":null,"sharedCount":null,"likeCount":null,"sharedContent":null,"parent":{"__typename":"HnJson","localize":[{"title":"u/DeepFuckingValue和GameStop Reddit的狂热。","locale":"zh"},{"title":"u/DeepFuckingValue和GameStop Reddit的狂熱。","locale":"zh-Hant"}]}}]}},"pageContext":{"basePath":"/","pageType":"tag","tag":"Hacker News","tagsFilter":{"id":{"glob":"!*Post-1"}},"filter":{"id":{"glob":"!*Post-1"},"tags":{"eq":"Hacker News"}},"limit":25,"skip":1225,"total":2600,"totalPages":104,"currentPage":50,"maxWidth":1024,"maxHeight":512,"locale":"zh-Hant","hrefLang":"zh-Hant","originalPath":"/tags/hacker-news/page/50","dateFormat":"YYYY-MM-DD"}},"staticQueryHashes":["1239077767","2506312863","2744905544","3025052997","3493603132","3493603132","3513215887","386998304"]}