{"componentChunkName":"component---gatsby-theme-buzzing-src-gatsby-theme-timeline-templates-posts-query-js","path":"/tags/hacker-news/page/60","result":{"data":{"site":{"siteMetadata":{"title":"Reddit 热门","description":"用中文浏览Reddit热门内容","social":[{"name":"Twitter","url":"https://twitter.com/gatsbyjs","external":null,"prefetch":null},{"name":"GitHub","url":"https://github.com/gatsbyjs","external":null,"prefetch":null}],"menuLinks":[],"localize":[{"locale":"en","title":"Buzzing on Reddit","description":"See what's buzzing on Reddit in your native language","social":[{"name":"Reddit","url":"https://www.reddit.com/","external":true,"prefetch":null}],"menuLinks":[{"name":"Weekly Selection","url":"/issues","external":null,"prefetch":null},{"name":"RSS","url":"/rss.xml","external":null,"prefetch":false}]},{"locale":"zh-Hant","title":"Reddit 熱門","description":"用中文瀏覽Reddit熱門內容","social":null,"menuLinks":null}]}},"tagsGroup":{"group":[{"fieldValue":"ASK HN","totalCount":54},{"fieldValue":"Hacker News","totalCount":3107},{"fieldValue":"Poll","totalCount":1},{"fieldValue":"Show HN","totalCount":100},{"fieldValue":"poll","totalCount":1},{"fieldValue":"story","totalCount":3106}]},"allBlogPost":{"nodes":[{"__typename":"SocialMediaPost","id":"HnPost-26091085","excerpt":"","slug":"/hn/26091085","title":"Stanford Makes iPhone Development Course Free","date":"February 10, 2021","dateISO":"2021-02-10T17:48:18.943Z","datetime":"2021-02-10 17:48","tags":["story","Hacker News"],"image":null,"imageAlt":null,"provider":"Hacker News","thirdPartyId":"26091085","url":"https://news.ycombinator.com/item?id=26091085","originalUrl":"https://cs193p.sites.stanford.edu/","imageRemote":"https://cs193p.sites.stanford.edu/sites/g/files/sbiybj16636/files/styles/card_1900x950/public/media/image/l1_still.jpg?h=5ce26e05&itok=ONevivMe","video":null,"channel":null,"channelUrl":null,"author":"rangoon626","authorUrl":"https://news.ycombinator.com/user?id=rangoon626","authorImage":null,"authorSlug":null,"score":688,"views":null,"sharedCount":null,"likeCount":null,"sharedContent":null,"parent":{"__typename":"HnJson","localize":[{"title":"斯坦福大学让iPhone开发课程免费","locale":"zh"},{"title":"斯坦福大學讓iPhone開發課程免費","locale":"zh-Hant"}]}},{"__typename":"SocialMediaPost","id":"HnPost-26087949","excerpt":"","slug":"/hn/26087949","title":"Are we game yet? – A guide to the Rust game development ecosystem","date":"February 10, 2021","dateISO":"2021-02-10T17:01:56.419Z","datetime":"2021-02-10 17:01","tags":["story","Hacker News"],"image":null,"imageAlt":null,"provider":"Hacker News","thirdPartyId":"26087949","url":"https://news.ycombinator.com/item?id=26087949","originalUrl":"https://arewegameyet.rs/","imageRemote":"https://arewegameyet.rs/assets/img/rust-logo-128x128-blk-v2.png","video":null,"channel":null,"channelUrl":null,"author":"lnyan","authorUrl":"https://news.ycombinator.com/user?id=lnyan","authorImage":null,"authorSlug":null,"score":300,"views":null,"sharedCount":null,"likeCount":null,"sharedContent":null,"parent":{"__typename":"HnJson","localize":[{"title":"我们是游戏了吗？- Rust游戏开发生态系统指南","locale":"zh"},{"title":"我們是遊戲了嗎？- Rust遊戲開發生態系統指南","locale":"zh-Hant"}]}},{"__typename":"SocialMediaPost","id":"HnPost-26087502","excerpt":"","slug":"/hn/26087502","title":"Timezone Bullshit","date":"February 10, 2021","dateISO":"2021-02-10T14:45:30.268Z","datetime":"2021-02-10 14:45","tags":["story","Hacker News"],"image":null,"imageAlt":null,"provider":"Hacker News","thirdPartyId":"26087502","url":"https://news.ycombinator.com/item?id=26087502","originalUrl":"https://blog.wesleyac.com/posts/timezone-bullshit","imageRemote":null,"video":null,"channel":null,"channelUrl":null,"author":"organian","authorUrl":"https://news.ycombinator.com/user?id=organian","authorImage":null,"authorSlug":null,"score":388,"views":null,"sharedCount":null,"likeCount":null,"sharedContent":null,"parent":{"__typename":"HnJson","localize":[{"title":"时区废话","locale":"zh"},{"title":"時區廢話","locale":"zh-Hant"}]}},{"__typename":"SocialMediaPost","id":"HnPost-26088133","excerpt":"","slug":"/hn/26088133","title":"Mozilla Welcomes the Rust Foundation","date":"February 10, 2021","dateISO":"2021-02-10T14:31:09.777Z","datetime":"2021-02-10 14:31","tags":["story","Hacker News"],"image":null,"imageAlt":null,"provider":"Hacker News","thirdPartyId":"26088133","url":"https://news.ycombinator.com/item?id=26088133","originalUrl":"https://blog.mozilla.org/blog/2021/02/08/mozilla-welcomes-the-rust-foundation/","imageRemote":"https://blog.mozilla.org/wp-content/uploads/2021/02/Rust-Logo.png","video":null,"channel":null,"channelUrl":null,"author":"Garbage","authorUrl":"https://news.ycombinator.com/user?id=Garbage","authorImage":null,"authorSlug":null,"score":435,"views":null,"sharedCount":null,"likeCount":null,"sharedContent":null,"parent":{"__typename":"HnJson","localize":[{"title":"Mozilla欢迎Rust基金会","locale":"zh"},{"title":"Mozilla歡迎Rust基金會","locale":"zh-Hant"}]}},{"__typename":"SocialMediaPost","id":"HnPost-26088455","excerpt":"","slug":"/hn/26088455","title":"Bitcoin now uses more electricity than Argentina","date":"February 10, 2021","dateISO":"2021-02-10T14:31:09.777Z","datetime":"2021-02-10 14:31","tags":["story","Hacker News"],"image":null,"imageAlt":null,"provider":"Hacker News","thirdPartyId":"26088455","url":"https://news.ycombinator.com/item?id=26088455","originalUrl":"https://cbeci.org/cbeci/comparisons","imageRemote":null,"video":null,"channel":null,"channelUrl":null,"author":"apples_oranges","authorUrl":"https://news.ycombinator.com/user?id=apples_oranges","authorImage":null,"authorSlug":null,"score":961,"views":null,"sharedCount":null,"likeCount":null,"sharedContent":null,"parent":{"__typename":"HnJson","localize":[{"title":"比特币现在用电量比阿根廷还多","locale":"zh"},{"title":"比特幣現在用電量比阿根廷還多","locale":"zh-Hant"}]}},{"__typename":"SocialMediaPost","id":"HnPost-26078677","excerpt":"","slug":"/hn/26078677","title":"Infinitely zooming botanical floral paradise painting","date":"February 10, 2021","dateISO":"2021-02-10T12:42:03.461Z","datetime":"2021-02-10 12:42","tags":["story","Hacker News"],"image":null,"imageAlt":null,"provider":"Hacker News","thirdPartyId":"26078677","url":"https://news.ycombinator.com/item?id=26078677","originalUrl":"http://arkadia.xyz/","imageRemote":"https://arkadia.xyz/arkadia.jpg","video":null,"channel":null,"channelUrl":null,"author":"masupicchu","authorUrl":"https://news.ycombinator.com/user?id=masupicchu","authorImage":null,"authorSlug":null,"score":331,"views":null,"sharedCount":null,"likeCount":null,"sharedContent":null,"parent":{"__typename":"HnJson","localize":[{"title":"无限放大的植物花卉天堂画作。","locale":"zh"},{"title":"無限放大的植物花卉天堂畫作。","locale":"zh-Hant"}]}},{"__typename":"SocialMediaPost","id":"HnPost-26086288","excerpt":"","slug":"/hn/26086288","title":"90-year-old man spends $10k on 2 ads in WSJ to tell AT&T CEO about slow internet","date":"February 10, 2021","dateISO":"2021-02-10T12:13:55.648Z","datetime":"2021-02-10 12:13","tags":["story","Hacker News"],"image":null,"imageAlt":null,"provider":"Hacker News","thirdPartyId":"26086288","url":"https://news.ycombinator.com/item?id=26086288","originalUrl":"https://www.foxla.com/news/90-year-old-man-spends-10000-on-2-ads-in-wsj-to-tell-att-ceo-about-his-slow-internet-service","imageRemote":"https://images.foxtv.com/static.foxla.com/www.foxla.com/content/uploads/2021/02/1280/720/Epstein-ATT-ad1.jpg?ve=1&tl=1","video":null,"channel":null,"channelUrl":null,"author":"us0r","authorUrl":"https://news.ycombinator.com/user?id=us0r","authorImage":null,"authorSlug":null,"score":199,"views":null,"sharedCount":null,"likeCount":null,"sharedContent":null,"parent":{"__typename":"HnJson","localize":[{"title":"90岁老人花1万美元在《华尔街日报》上做2个广告，向AT&T CEO诉说网速慢的问题。","locale":"zh"},{"title":"90歲老人花1萬美元在《華爾街日報》上做2個廣告，向AT&T CEO訴說網速慢的問題。","locale":"zh-Hant"}]}},{"__typename":"SocialMediaPost","id":"HnPost-26087064","excerpt":"","slug":"/hn/26087064","title":"Researcher hacks over 35 tech firms in novel supply chain attack","date":"February 10, 2021","dateISO":"2021-02-10T11:00:20.403Z","datetime":"2021-02-10 11:00","tags":["story","Hacker News"],"image":null,"imageAlt":null,"provider":"Hacker News","thirdPartyId":"26087064","url":"https://news.ycombinator.com/item?id=26087064","originalUrl":"https://www.bleepingcomputer.com/news/security/researcher-hacks-over-35-tech-firms-in-novel-supply-chain-attack/","imageRemote":"https://www.bleepstatic.com/content/hl-images/2021/02/08/supply-chain.jpg","video":null,"channel":null,"channelUrl":null,"author":"Robadob","authorUrl":"https://news.ycombinator.com/user?id=Robadob","authorImage":null,"authorSlug":null,"score":1071,"views":null,"sharedCount":null,"likeCount":null,"sharedContent":null,"parent":{"__typename":"HnJson","localize":[{"title":"研究人员在新颖的供应链攻击中黑掉了35家以上的科技公司。","locale":"zh"},{"title":"研究人員在新穎的供應鏈攻擊中黑掉了35家以上的科技公司。","locale":"zh-Hant"}]}},{"__typename":"SocialMediaPost","id":"HnPost-26086086","excerpt":"","slug":"/hn/26086086","title":"Amazon competitor got our belt listing taken down by saying it contains drugs","date":"February 10, 2021","dateISO":"2021-02-10T08:52:25.987Z","datetime":"2021-02-10 08:52","tags":["story","Hacker News"],"image":null,"imageAlt":null,"provider":"Hacker News","thirdPartyId":"26086086","url":"https://news.ycombinator.com/item?id=26086086","originalUrl":"https://travelhead.medium.com/competitor-reported-our-no-buckle-belts-as-containing-a-dea-controlled-substance-and-got-us-e6df903172a3","imageRemote":"https://miro.medium.com/proxy/1*kFrc4tBFM_tCis-2Ic87WA.png","video":null,"channel":null,"channelUrl":null,"author":"travelhead","authorUrl":"https://news.ycombinator.com/user?id=travelhead","authorImage":null,"authorSlug":null,"score":507,"views":null,"sharedCount":null,"likeCount":null,"sharedContent":null,"parent":{"__typename":"HnJson","localize":[{"title":"亚马逊的竞争对手把我们的腰带列表撤下来了，说它含有毒品。","locale":"zh"},{"title":"亞馬遜的競爭對手把我們的腰帶列表撤下來了，說它含有毒品。","locale":"zh-Hant"}]}},{"__typename":"SocialMediaPost","id":"HnPost-26083919","excerpt":"","slug":"/hn/26083919","title":"Github1s – One second to read GitHub code with VS Code","date":"February 10, 2021","dateISO":"2021-02-10T03:30:31.543Z","datetime":"2021-02-10 03:30","tags":["story","Hacker News"],"image":null,"imageAlt":null,"provider":"Hacker News","thirdPartyId":"26083919","url":"https://news.ycombinator.com/item?id=26083919","originalUrl":"https://github.com/conwnet/github1s","imageRemote":"https://avatars.githubusercontent.com/u/17734694?s=400&v=4","video":null,"channel":null,"channelUrl":null,"author":"tardismechanic","authorUrl":"https://news.ycombinator.com/user?id=tardismechanic","authorImage":null,"authorSlug":null,"score":1640,"views":null,"sharedCount":null,"likeCount":null,"sharedContent":null,"parent":{"__typename":"HnJson","localize":[{"title":"Github1s - 用VS Code一秒读懂GitHub代码。","locale":"zh"},{"title":"Github1s - 用VS Code一秒讀懂GitHub代碼。","locale":"zh-Hant"}]}},{"__typename":"SocialMediaPost","id":"HnPost-26081880","excerpt":"","slug":"/hn/26081880","title":"Thinking too much can be bad for you","date":"February 10, 2021","dateISO":"2021-02-10T03:10:27.429Z","datetime":"2021-02-10 03:10","tags":["story","Hacker News"],"image":null,"imageAlt":null,"provider":"Hacker News","thirdPartyId":"26081880","url":"https://news.ycombinator.com/item?id=26081880","originalUrl":"https://www.economist.com/1843/2012/12/29/why-thinking-too-much-can-be-bad-for-you","imageRemote":"https://www.economist.com/img/b/1754/987/90/1843magazine.com/sites/default/files/styles/il_manual_crop_16_9/public/0312ILIN03-web.jpg","video":null,"channel":null,"channelUrl":null,"author":"smk_","authorUrl":"https://news.ycombinator.com/user?id=smk_","authorImage":null,"authorSlug":null,"score":334,"views":null,"sharedCount":null,"likeCount":null,"sharedContent":null,"parent":{"__typename":"HnJson","localize":[{"title":"想得太多会对你不利","locale":"zh"},{"title":"想得太多會對你不利","locale":"zh-Hant"}]}},{"__typename":"SocialMediaPost","id":"HnPost-26082347","excerpt":"","slug":"/hn/26082347","title":"Haxe 4.2","date":"February 10, 2021","dateISO":"2021-02-10T01:54:41.328Z","datetime":"2021-02-10 01:54","tags":["story","Hacker News"],"image":null,"imageAlt":null,"provider":"Hacker News","thirdPartyId":"26082347","url":"https://news.ycombinator.com/item?id=26082347","originalUrl":"https://community.haxe.org/t/haxe-4-2-0-is-released/2888","imageRemote":"https://community.haxe.org/uploads/default/original/1X/6f43c594828df00125c10a5a89df995731ddaa5c.png","video":null,"channel":null,"channelUrl":null,"author":"Gama11","authorUrl":"https://news.ycombinator.com/user?id=Gama11","authorImage":null,"authorSlug":null,"score":277,"views":null,"sharedCount":null,"likeCount":null,"sharedContent":null,"parent":{"__typename":"HnJson","localize":[{"title":"Haxe 4.2","locale":"zh"},{"title":"Haxe 4.2","locale":"zh-Hant"}]}},{"__typename":"SocialMediaPost","id":"HnPost-26080163","excerpt":"","slug":"/hn/26080163","title":"Ask HN: Team fun event ideas during WFH?","date":"February 10, 2021","dateISO":"2021-02-10T01:23:15.722Z","datetime":"2021-02-10 01:23","tags":["story","ASK HN","Hacker News"],"image":null,"imageAlt":null,"provider":"Hacker News","thirdPartyId":"26080163","url":"https://news.ycombinator.com/item?id=26080163","originalUrl":"https://news.ycombinator.com/item?id=26080163","imageRemote":null,"video":null,"channel":"ASK HN","channelUrl":"https://news.ycombinator.com/ask","author":"pseudobry","authorUrl":"https://news.ycombinator.com/user?id=pseudobry","authorImage":null,"authorSlug":null,"score":211,"views":null,"sharedCount":null,"likeCount":null,"sharedContent":null,"parent":{"__typename":"HnJson","localize":[{"title":"问HN：WFH期间的团队趣味活动创意？","locale":"zh"},{"title":"問HN：WFH期間的團隊趣味活動創意？","locale":"zh-Hant"}]}},{"__typename":"SocialMediaPost","id":"HnPost-26081208","excerpt":"","slug":"/hn/26081208","title":"The Queen has more power over British law than we thought","date":"February 10, 2021","dateISO":"2021-02-10T01:23:15.722Z","datetime":"2021-02-10 01:23","tags":["story","Hacker News"],"image":null,"imageAlt":null,"provider":"Hacker News","thirdPartyId":"26081208","url":"https://news.ycombinator.com/item?id=26081208","originalUrl":"https://www.theguardian.com/commentisfree/2021/feb/08/queen-power-british-law-queens-consent","imageRemote":"https://i.guim.co.uk/img/media/cef209006fd6b39432e7aa98664a10d48708ca65/0_232_3500_2101/master/3500.jpg?width=1200&height=630&quality=85&auto=format&fit=crop&overlay-align=bottom%2Cleft&overlay-width=100p&overlay-base64=L2ltZy9zdGF0aWMvb3ZlcmxheXMvdGctb3BpbmlvbnMucG5n&enable=upscale&s=d5f8dad0c097dc6b2a769889a4967ab7","video":null,"channel":null,"channelUrl":null,"author":"anonymfus","authorUrl":"https://news.ycombinator.com/user?id=anonymfus","authorImage":null,"authorSlug":null,"score":374,"views":null,"sharedCount":null,"likeCount":null,"sharedContent":null,"parent":{"__typename":"HnJson","localize":[{"title":"女王对英国法律的控制力比我们想象的要大得多","locale":"zh"},{"title":"女王對英國法律的控制力比我們想象的要大得多","locale":"zh-Hant"}]}},{"__typename":"SocialMediaPost","id":"HnPost-26082680","excerpt":"","slug":"/hn/26082680","title":"SDL Moves to GitHub","date":"February 10, 2021","dateISO":"2021-02-10T00:46:21.905Z","datetime":"2021-02-10 00:46","tags":["story","Hacker News"],"image":null,"imageAlt":null,"provider":"Hacker News","thirdPartyId":"26082680","url":"https://news.ycombinator.com/item?id=26082680","originalUrl":"https://discourse.libsdl.org/t/sdl-moving-to-github/28700/5","imageRemote":"https://discourse.libsdl.org/uploads/default/original/2X/7/7502c3c39c33c4309023972bdc0c0961f7ad78c4.png","video":null,"channel":null,"channelUrl":null,"author":"Bl4ckb0ne","authorUrl":"https://news.ycombinator.com/user?id=Bl4ckb0ne","authorImage":null,"authorSlug":null,"score":289,"views":null,"sharedCount":null,"likeCount":null,"sharedContent":null,"parent":{"__typename":"HnJson","localize":[{"title":"SDL 移至 GitHub","locale":"zh"},{"title":"SDL 移至 GitHub","locale":"zh-Hant"}]}},{"__typename":"SocialMediaPost","id":"HnPost-26080578","excerpt":"","slug":"/hn/26080578","title":"Browser Fuzzing at Mozilla","date":"February 09, 2021","dateISO":"2021-02-09T23:57:12.959Z","datetime":"2021-02-09 23:57","tags":["story","Hacker News"],"image":null,"imageAlt":null,"provider":"Hacker News","thirdPartyId":"26080578","url":"https://news.ycombinator.com/item?id=26080578","originalUrl":"https://hacks.mozilla.org/2021/02/browser-fuzzing-at-mozilla/","imageRemote":"https://hacks.mozilla.org/files/2021/02/Fuzzing-pipeline1-1.jpg","video":null,"channel":null,"channelUrl":null,"author":"gbrown_","authorUrl":"https://news.ycombinator.com/user?id=gbrown_","authorImage":null,"authorSlug":null,"score":231,"views":null,"sharedCount":null,"likeCount":null,"sharedContent":null,"parent":{"__typename":"HnJson","localize":[{"title":"Mozilla的浏览器模糊化","locale":"zh"},{"title":"Mozilla的瀏覽器模糊化","locale":"zh-Hant"}]}},{"__typename":"SocialMediaPost","id":"HnPost-26077294","excerpt":"","slug":"/hn/26077294","title":"Farmers are having to hack their own tractors  to make repairs","date":"February 09, 2021","dateISO":"2021-02-09T23:37:50.004Z","datetime":"2021-02-09 23:37","tags":["story","Hacker News"],"image":null,"imageAlt":null,"provider":"Hacker News","thirdPartyId":"26077294","url":"https://news.ycombinator.com/item?id=26077294","originalUrl":"https://www.thedrive.com/news/39158/farmers-are-having-to-hack-their-own-tractors-just-to-make-repairs","imageRemote":"https://api.thedrive.com/wp-content/uploads/2021/02/jdeere_970x546.jpg?quality=85","video":null,"channel":null,"channelUrl":null,"author":"clouddrover","authorUrl":"https://news.ycombinator.com/user?id=clouddrover","authorImage":null,"authorSlug":null,"score":278,"views":null,"sharedCount":null,"likeCount":null,"sharedContent":null,"parent":{"__typename":"HnJson","localize":[{"title":"农民不得不砍掉自己的拖拉机来进行维修。","locale":"zh"},{"title":"農民不得不砍掉自己的拖拉機來進行維修。","locale":"zh-Hant"}]}},{"__typename":"SocialMediaPost","id":"HnPost-26082303","excerpt":"","slug":"/hn/26082303","title":"Cops are playing music while citizens are filming to trigger copyright filters","date":"February 09, 2021","dateISO":"2021-02-09T22:58:54.664Z","datetime":"2021-02-09 22:58","tags":["story","Hacker News"],"image":null,"imageAlt":null,"provider":"Hacker News","thirdPartyId":"26082303","url":"https://news.ycombinator.com/item?id=26082303","originalUrl":"https://twitter.com/jason_koebler/status/1359213426740895744","imageRemote":null,"video":null,"channel":null,"channelUrl":null,"author":"edward","authorUrl":"https://news.ycombinator.com/user?id=edward","authorImage":null,"authorSlug":null,"score":959,"views":null,"sharedCount":null,"likeCount":null,"sharedContent":null,"parent":{"__typename":"HnJson","localize":[{"title":"警察在市民拍摄时播放音乐，引发版权过滤。","locale":"zh"},{"title":"警察在市民拍攝時播放音樂，引發版權過濾。","locale":"zh-Hant"}]}},{"__typename":"SocialMediaPost","id":"HnPost-26079389","excerpt":"","slug":"/hn/26079389","title":"Launch HN: SigNoz (YC W21) – Open-source alternative to DataDog","date":"February 09, 2021","dateISO":"2021-02-09T22:39:42.179Z","datetime":"2021-02-09 22:39","tags":["story","Hacker News"],"image":null,"imageAlt":null,"provider":"Hacker News","thirdPartyId":"26079389","url":"https://news.ycombinator.com/item?id=26079389","originalUrl":"https://news.ycombinator.com/item?id=26079389","imageRemote":null,"video":null,"channel":null,"channelUrl":null,"author":"pranay01","authorUrl":"https://news.ycombinator.com/user?id=pranay01","authorImage":null,"authorSlug":null,"score":222,"views":null,"sharedCount":null,"likeCount":null,"sharedContent":null,"parent":{"__typename":"HnJson","localize":[{"title":"推出HN：SigNoz(YC W21)--DataDog的开放源码替代方案。","locale":"zh"},{"title":"推出HN：SigNoz(YC W21)--DataDog的開放源碼替代方案。","locale":"zh-Hant"}]}},{"__typename":"SocialMediaPost","id":"HnPost-26082428","excerpt":"","slug":"/hn/26082428","title":"OpenStreetMap proven to be a highly accurate map in top US cities","date":"February 09, 2021","dateISO":"2021-02-09T22:39:42.179Z","datetime":"2021-02-09 22:39","tags":["story","Hacker News"],"image":null,"imageAlt":null,"provider":"Hacker News","thirdPartyId":"26082428","url":"https://news.ycombinator.com/item?id=26082428","originalUrl":"https://eng.lyft.com/how-lyft-discovered-openstreetmap-is-the-freshest-map-for-rideshare-a7a41bf92ec","imageRemote":"https://miro.medium.com/max/1200/0*fuDU1vIj1ASqSiFs","video":null,"channel":null,"channelUrl":null,"author":"clarecorthell","authorUrl":"https://news.ycombinator.com/user?id=clarecorthell","authorImage":null,"authorSlug":null,"score":871,"views":null,"sharedCount":null,"likeCount":null,"sharedContent":null,"parent":{"__typename":"HnJson","localize":[{"title":"事实证明，OpenStreetMap是美国顶级城市的高精度地图。","locale":"zh"},{"title":"事實證明，OpenStreetMap是美國頂級城市的高精度地圖。","locale":"zh-Hant"}]}},{"__typename":"SocialMediaPost","id":"HnPost-26080760","excerpt":"","slug":"/hn/26080760","title":"Pattern Matching Accepted for Python","date":"February 09, 2021","dateISO":"2021-02-09T22:24:05.503Z","datetime":"2021-02-09 22:24","tags":["story","Hacker News"],"image":null,"imageAlt":null,"provider":"Hacker News","thirdPartyId":"26080760","url":"https://news.ycombinator.com/item?id=26080760","originalUrl":"https://lwn.net/Articles/845480/","imageRemote":"https://static.lwn.net/images/logo/barepenguin-70.png","video":null,"channel":null,"channelUrl":null,"author":"eplanit","authorUrl":"https://news.ycombinator.com/user?id=eplanit","authorImage":null,"authorSlug":null,"score":646,"views":null,"sharedCount":null,"likeCount":null,"sharedContent":null,"parent":{"__typename":"HnJson","localize":[{"title":"接受Python的模式匹配","locale":"zh"},{"title":"接受Python的模式匹配","locale":"zh-Hant"}]}},{"__typename":"SocialMediaPost","id":"HnPost-26081672","excerpt":"","slug":"/hn/26081672","title":"Creeping as a Service","date":"February 09, 2021","dateISO":"2021-02-09T22:24:05.503Z","datetime":"2021-02-09 22:24","tags":["story","Hacker News"],"image":null,"imageAlt":null,"provider":"Hacker News","thirdPartyId":"26081672","url":"https://news.ycombinator.com/item?id=26081672","originalUrl":"https://every.to/divinations/creeping-as-a-service-craas","imageRemote":"https://d24ovhgu8s7341.cloudfront.net/uploads/post/social_media_image/1495/Social_1200x628.png","video":null,"channel":null,"channelUrl":null,"author":"dshipper","authorUrl":"https://news.ycombinator.com/user?id=dshipper","authorImage":null,"authorSlug":null,"score":351,"views":null,"sharedCount":null,"likeCount":null,"sharedContent":null,"parent":{"__typename":"HnJson","localize":[{"title":"匍匐作为一种服务","locale":"zh"},{"title":"匍匐作爲一種服務","locale":"zh-Hant"}]}},{"__typename":"SocialMediaPost","id":"HnPost-26079002","excerpt":"","slug":"/hn/26079002","title":"John McWhorter: The Neoracists","date":"February 09, 2021","dateISO":"2021-02-09T21:00:43.316Z","datetime":"2021-02-09 21:00","tags":["story","Hacker News"],"image":null,"imageAlt":null,"provider":"Hacker News","thirdPartyId":"26079002","url":"https://news.ycombinator.com/item?id=26079002","originalUrl":"https://www.persuasion.community/p/john-mcwhorter-the-neoracists","imageRemote":"https://cdn.substack.com/image/fetch/w_1200,c_limit,f_jpg,q_auto:good,fl_progressive:steep/https%3A%2F%2Fbucketeer-e05bbc84-baa3-437e-9518-adb32be77984.s3.amazonaws.com%2Fpublic%2Fimages%2Fd3f575ee-a995-499c-86fe-72680f8d5d12_700x312.jpeg","video":null,"channel":null,"channelUrl":null,"author":"paulpauper","authorUrl":"https://news.ycombinator.com/user?id=paulpauper","authorImage":null,"authorSlug":null,"score":192,"views":null,"sharedCount":null,"likeCount":null,"sharedContent":null,"parent":{"__typename":"HnJson","localize":[{"title":"约翰-麦克沃特：新种族主义者","locale":"zh"},{"title":"約翰-麥克沃特：新種族主義者","locale":"zh-Hant"}]}},{"__typename":"SocialMediaPost","id":"HnPost-26077823","excerpt":"","slug":"/hn/26077823","title":"Haskell: The Bad Parts, part 2 (2020)","date":"February 09, 2021","dateISO":"2021-02-09T20:07:36.333Z","datetime":"2021-02-09 20:07","tags":["story","Hacker News"],"image":null,"imageAlt":null,"provider":"Hacker News","thirdPartyId":"26077823","url":"https://news.ycombinator.com/item?id=26077823","originalUrl":"https://www.snoyman.com/blog/2020/11/haskell-bad-parts-2","imageRemote":"https://www.snoyman.com/img/snoylogo.png","video":null,"channel":null,"channelUrl":null,"author":"anuragsoni","authorUrl":"https://news.ycombinator.com/user?id=anuragsoni","authorImage":null,"authorSlug":null,"score":257,"views":null,"sharedCount":null,"likeCount":null,"sharedContent":null,"parent":{"__typename":"HnJson","localize":[{"title":"Haskell: 坏的部分，第二部分(2020年)","locale":"zh"},{"title":"Haskell: 壞的部分，第二部分(2020年)","locale":"zh-Hant"}]}},{"__typename":"SocialMediaPost","id":"HnPost-26076731","excerpt":"","slug":"/hn/26076731","title":"Pseudophilosophy encourages confused, self-indulgent thinking","date":"February 09, 2021","dateISO":"2021-02-09T18:24:20.719Z","datetime":"2021-02-09 18:24","tags":["story","Hacker News"],"image":null,"imageAlt":null,"provider":"Hacker News","thirdPartyId":"26076731","url":"https://news.ycombinator.com/item?id=26076731","originalUrl":"https://psyche.co/ideas/pseudophilosophy-encourages-confused-self-indulgent-thinking","imageRemote":"https://epsilon.psyche.co/images/c9dd3ad2-33fb-4920-bda5-af5fd800c3fc/2700x1530.jpg","video":null,"channel":null,"channelUrl":null,"author":"pseudolus","authorUrl":"https://news.ycombinator.com/user?id=pseudolus","authorImage":null,"authorSlug":null,"score":187,"views":null,"sharedCount":null,"likeCount":null,"sharedContent":null,"parent":{"__typename":"HnJson","localize":[{"title":"伪哲学鼓励了混乱的、自我放纵的思考","locale":"zh"},{"title":"僞哲學鼓勵了混亂的、自我放縱的思考","locale":"zh-Hant"}]}}]}},"pageContext":{"basePath":"/","pageType":"tag","tag":"Hacker News","tagsFilter":{"id":{"glob":"!*Post-1"}},"filter":{"id":{"glob":"!*Post-1"},"tags":{"eq":"Hacker News"}},"limit":25,"skip":1475,"total":3107,"totalPages":125,"currentPage":60,"maxWidth":1024,"maxHeight":512,"locale":"zh","hrefLang":"zh-Hans","originalPath":"/tags/hacker-news/page/60","dateFormat":"YYYY-MM-DD"}},"staticQueryHashes":["1239077767","2506312863","2744905544","3025052997","3493603132","3493603132","3513215887","386998304"]}