{"componentChunkName":"component---gatsby-theme-buzzing-src-gatsby-theme-timeline-templates-posts-query-js","path":"/ja/tags/hacker-news/page/118","result":{"data":{"site":{"siteMetadata":{"title":"Reddit 热门","description":"用中文浏览Reddit热门内容","social":[{"name":"Twitter","url":"https://twitter.com/gatsbyjs","external":null,"prefetch":null},{"name":"GitHub","url":"https://github.com/gatsbyjs","external":null,"prefetch":null}],"menuLinks":[],"localize":[{"locale":"en","title":"Buzzing on Reddit","description":"See what's buzzing on Reddit in your native language","social":[{"name":"Reddit","url":"https://www.reddit.com/","external":true,"prefetch":null}],"menuLinks":[{"name":"Weekly Selection","url":"/issues","external":null,"prefetch":null},{"name":"RSS","url":"/rss.xml","external":null,"prefetch":false}]},{"locale":"zh-Hant","title":"Reddit 熱門","description":"用中文瀏覽Reddit熱門內容","social":null,"menuLinks":null}]}},"tagsGroup":{"group":[{"fieldValue":"ASK HN","totalCount":54},{"fieldValue":"Hacker News","totalCount":3107},{"fieldValue":"Poll","totalCount":1},{"fieldValue":"Show HN","totalCount":100},{"fieldValue":"poll","totalCount":1},{"fieldValue":"story","totalCount":3106}]},"allBlogPost":{"nodes":[{"__typename":"SocialMediaPost","id":"HnPost-25487747","excerpt":"","slug":"/hn/25487747","title":"Researchers propose faster, more efficient alternatives to backpropagation","date":"December 20, 2020","dateISO":"2020-12-20T20:25:49.319Z","datetime":"2020-12-20 20:25","tags":["story","Hacker News"],"image":null,"imageAlt":null,"provider":"Hacker News","thirdPartyId":"25487747","url":"https://news.ycombinator.com/item?id=25487747","originalUrl":"https://venturebeat.com/2020/12/16/at-neurips-2020-researchers-proposed-faster-more-efficient-alternatives-to-backpropagation/","imageRemote":"https://venturebeat.com/wp-content/uploads/2019/04/brain-ai-e1561657878421.jpg?w=1200&strip=all","video":null,"channel":null,"channelUrl":null,"author":"webmaven","authorUrl":"https://news.ycombinator.com/user?id=webmaven","authorImage":null,"authorSlug":null,"score":239,"views":null,"sharedCount":null,"likeCount":null,"sharedContent":null,"parent":{"__typename":"HnJson","localize":[{"title":"研究人员提出了比反向传播更快、更有效的替代方案","locale":"zh"},{"title":"研究人員提出了比反向傳播更快、更有效的替代方案","locale":"zh-Hant"}]}},{"__typename":"SocialMediaPost","id":"HnPost-25487130","excerpt":"","slug":"/hn/25487130","title":"An Engineer’s Guide to Stock Options (2013)","date":"December 20, 2020","dateISO":"2020-12-20T19:30:58.668Z","datetime":"2020-12-20 19:30","tags":["story","Hacker News"],"image":null,"imageAlt":null,"provider":"Hacker News","thirdPartyId":"25487130","url":"https://news.ycombinator.com/item?id=25487130","originalUrl":"https://blog.alexmaccaw.com/an-engineers-guide-to-stock-options#","imageRemote":"https://svbtleusercontent.com/b894YXfgATViN2NPFboW1y02260xsuap_large.png","video":null,"channel":null,"channelUrl":null,"author":"lemonspat","authorUrl":"https://news.ycombinator.com/user?id=lemonspat","authorImage":null,"authorSlug":null,"score":249,"views":null,"sharedCount":null,"likeCount":null,"sharedContent":null,"parent":{"__typename":"HnJson","localize":[{"title":"股票期权工程师指南(2013)","locale":"zh"},{"title":"股票期權工程師指南(2013)","locale":"zh-Hant"}]}},{"__typename":"SocialMediaPost","id":"HnPost-25487556","excerpt":"","slug":"/hn/25487556","title":"Lode Runner","date":"December 20, 2020","dateISO":"2020-12-20T19:12:27.588Z","datetime":"2020-12-20 19:12","tags":["story","Hacker News"],"image":null,"imageAlt":null,"provider":"Hacker News","thirdPartyId":"25487556","url":"https://news.ycombinator.com/item?id=25487556","originalUrl":"https://www.filfre.net/2020/12/lode-runner/","imageRemote":"https://www.filfre.net/wp-content/uploads/2020/12/Douglas_E._Smith.jpg","video":null,"channel":null,"channelUrl":null,"author":"doppp","authorUrl":"https://news.ycombinator.com/user?id=doppp","authorImage":null,"authorSlug":null,"score":367,"views":null,"sharedCount":null,"likeCount":null,"sharedContent":null,"parent":{"__typename":"HnJson","localize":[{"title":"矿脉流道","locale":"zh"},{"title":"礦脈流道","locale":"zh-Hant"}]}},{"__typename":"SocialMediaPost","id":"HnPost-25485943","excerpt":"","slug":"/hn/25485943","title":"How we made the PJON network protocol from scratch","date":"December 20, 2020","dateISO":"2020-12-20T18:55:32.177Z","datetime":"2020-12-20 18:55","tags":["story","Hacker News"],"image":null,"imageAlt":null,"provider":"Hacker News","thirdPartyId":"25485943","url":"https://news.ycombinator.com/item?id=25485943","originalUrl":"https://www.pjon.org/how.php","imageRemote":"https://www.pjon.org/assets/images/PJON-fbshare3.jpg","video":null,"channel":null,"channelUrl":null,"author":"gioscarab","authorUrl":"https://news.ycombinator.com/user?id=gioscarab","authorImage":null,"authorSlug":null,"score":125,"views":null,"sharedCount":null,"likeCount":null,"sharedContent":null,"parent":{"__typename":"HnJson","localize":[{"title":"我们是如何从头开始制定PJON网络协议的","locale":"zh"},{"title":"我們是如何從頭開始制定PJON網絡協議的","locale":"zh-Hant"}]}},{"__typename":"SocialMediaPost","id":"HnPost-25487711","excerpt":"","slug":"/hn/25487711","title":"FFmpeg is 20 years old today","date":"December 20, 2020","dateISO":"2020-12-20T18:55:32.177Z","datetime":"2020-12-20 18:55","tags":["story","Hacker News"],"image":null,"imageAlt":null,"provider":"Hacker News","thirdPartyId":"25487711","url":"https://news.ycombinator.com/item?id=25487711","originalUrl":"https://twitter.com/ffmpeg/status/1340698413143224320","imageRemote":null,"video":null,"channel":null,"channelUrl":null,"author":"Daemon404","authorUrl":"https://news.ycombinator.com/user?id=Daemon404","authorImage":null,"authorSlug":null,"score":462,"views":null,"sharedCount":null,"likeCount":null,"sharedContent":null,"parent":{"__typename":"HnJson","localize":[{"title":"FFmpeg今天是20岁生日","locale":"zh"},{"title":"FFmpeg今天是20歲生日","locale":"zh-Hant"}]}},{"__typename":"SocialMediaPost","id":"HnPost-25485938","excerpt":"","slug":"/hn/25485938","title":"Early humans may have survived the harsh winters by hibernating","date":"December 20, 2020","dateISO":"2020-12-20T18:32:11.094Z","datetime":"2020-12-20 18:32","tags":["story","Hacker News"],"image":null,"imageAlt":null,"provider":"Hacker News","thirdPartyId":"25485938","url":"https://news.ycombinator.com/item?id=25485938","originalUrl":"https://www.theguardian.com/science/2020/dec/20/early-humans-may-have-survived-the-harsh-winters-by-hibernating","imageRemote":"https://i.guim.co.uk/img/media/b4e918b91715d223f92a30b87c931e556dc77afc/0_282_6000_3600/master/6000.jpg?width=1200&height=630&quality=85&auto=format&fit=crop&overlay-align=bottom%2Cleft&overlay-width=100p&overlay-base64=L2ltZy9zdGF0aWMvb3ZlcmxheXMvdG8tZGVmYXVsdC5wbmc&enable=upscale&s=0109c8339aa91226cd80106f813caf55","video":null,"channel":null,"channelUrl":null,"author":"ystad","authorUrl":"https://news.ycombinator.com/user?id=ystad","authorImage":null,"authorSlug":null,"score":160,"views":null,"sharedCount":null,"likeCount":null,"sharedContent":null,"parent":{"__typename":"HnJson","localize":[{"title":"早期的人类可能是通过冬眠在严冬中幸存下来的。","locale":"zh"},{"title":"早期的人類可能是通過冬眠在嚴冬中倖存下來的。","locale":"zh-Hant"}]}},{"__typename":"SocialMediaPost","id":"HnPost-25485966","excerpt":"","slug":"/hn/25485966","title":"Starting Sunday, cable companies can no longer ‘rent’ you the router you own","date":"December 20, 2020","dateISO":"2020-12-20T16:50:14.560Z","datetime":"2020-12-20 16:50","tags":["story","Hacker News"],"image":null,"imageAlt":null,"provider":"Hacker News","thirdPartyId":"25485966","url":"https://news.ycombinator.com/item?id=25485966","originalUrl":"https://www.theverge.com/2020/12/19/22191096/internet-modem-router-rental-fee-fix-television-viewer-protection-act-tvpa","imageRemote":"https://cdn.vox-cdn.com/thumbor/gBYgKGQ_r3Y_O1bVGGM4T2b6aew=/0x49:1020x583/fit-in/1200x630/cdn.vox-cdn.com/uploads/chorus_asset/file/4023834/vs09-02_1251cxs-2.0.png","video":null,"channel":null,"channelUrl":null,"author":"pseudolus","authorUrl":"https://news.ycombinator.com/user?id=pseudolus","authorImage":null,"authorSlug":null,"score":295,"views":null,"sharedCount":null,"likeCount":null,"sharedContent":null,"parent":{"__typename":"HnJson","localize":[{"title":"从周日开始，有线电视公司不能再“出租”你拥有的路由器","locale":"zh"},{"title":"從週日開始，有線電視公司不能再“出租”你擁有的路由器","locale":"zh-Hant"}]}},{"__typename":"SocialMediaPost","id":"HnPost-25486058","excerpt":"","slug":"/hn/25486058","title":"The Internet Is for Porn","date":"December 20, 2020","dateISO":"2020-12-20T16:03:25.695Z","datetime":"2020-12-20 16:03","tags":["story","Hacker News"],"image":null,"imageAlt":null,"provider":"Hacker News","thirdPartyId":"25486058","url":"https://news.ycombinator.com/item?id=25486058","originalUrl":"https://themargins.substack.com/p/the-internet-is-for-porn","imageRemote":"https://cdn.substack.com/image/youtube/w_728,c_limit/Fay6parYkrw","video":null,"channel":null,"channelUrl":null,"author":"tosh","authorUrl":"https://news.ycombinator.com/user?id=tosh","authorImage":null,"authorSlug":null,"score":266,"views":null,"sharedCount":null,"likeCount":null,"sharedContent":null,"parent":{"__typename":"HnJson","localize":[{"title":"互联网是为色情服务的","locale":"zh"},{"title":"互聯網是爲色情服務的","locale":"zh-Hant"}]}},{"__typename":"SocialMediaPost","id":"HnPost-25484133","excerpt":"","slug":"/hn/25484133","title":"Show HN: Owncast – The open source, self-hosted live streaming server","date":"December 20, 2020","dateISO":"2020-12-20T15:52:45.799Z","datetime":"2020-12-20 15:52","tags":["story","Show HN","Hacker News"],"image":null,"imageAlt":null,"provider":"Hacker News","thirdPartyId":"25484133","url":"https://news.ycombinator.com/item?id=25484133","originalUrl":"https://news.ycombinator.com/item?id=25484133","imageRemote":null,"video":null,"channel":"Show HN","channelUrl":"https://news.ycombinator.com/show","author":"gabekangas","authorUrl":"https://news.ycombinator.com/user?id=gabekangas","authorImage":null,"authorSlug":null,"score":241,"views":null,"sharedCount":null,"likeCount":null,"sharedContent":null,"parent":{"__typename":"HnJson","localize":[{"title":"HN新产品：Owncast-开源的自托管直播服务器","locale":"zh"},{"title":"show HN：Owncast-開源的自託管直播服務器","locale":"zh-Hant"}]}},{"__typename":"SocialMediaPost","id":"HnPost-25485651","excerpt":"","slug":"/hn/25485651","title":"The web is 30 years old today","date":"December 20, 2020","dateISO":"2020-12-20T15:52:45.799Z","datetime":"2020-12-20 15:52","tags":["story","Hacker News"],"image":null,"imageAlt":null,"provider":"Hacker News","thirdPartyId":"25485651","url":"https://news.ycombinator.com/item?id=25485651","originalUrl":"https://home.cern/science/computing/birth-web","imageRemote":"https://home.cern/sites/home.web.cern.ch/files/logo/cern-logo.png","video":null,"channel":null,"channelUrl":null,"author":"Anon84","authorUrl":"https://news.ycombinator.com/user?id=Anon84","authorImage":null,"authorSlug":null,"score":754,"views":null,"sharedCount":null,"likeCount":null,"sharedContent":null,"parent":{"__typename":"HnJson","localize":[{"title":"今天，万维网已经有30年的历史了。","locale":"zh"},{"title":"今天，萬維網已經有30年的歷史了。","locale":"zh-Hant"}]}},{"__typename":"SocialMediaPost","id":"HnPost-25483723","excerpt":"","slug":"/hn/25483723","title":"How to cook a medieval feast: recipes from the Middle Ages","date":"December 20, 2020","dateISO":"2020-12-20T15:34:11.572Z","datetime":"2020-12-20 15:34","tags":["story","Hacker News"],"image":null,"imageAlt":null,"provider":"Hacker News","thirdPartyId":"25483723","url":"https://news.ycombinator.com/item?id=25483723","originalUrl":"https://blog.britishmuseum.org/how-to-cook-a-medieval-feast/","imageRemote":"https://blog.britishmuseum.org/wp-content/uploads/2020/12/229310001-1.jpg","video":null,"channel":null,"channelUrl":null,"author":"pepys","authorUrl":"https://news.ycombinator.com/user?id=pepys","authorImage":null,"authorSlug":null,"score":147,"views":null,"sharedCount":null,"likeCount":null,"sharedContent":null,"parent":{"__typename":"HnJson","localize":[{"title":"如何烹调中世纪的盛宴：中世纪的食谱","locale":"zh"},{"title":"如何烹調中世紀的盛宴：中世紀的食譜","locale":"zh-Hant"}]}},{"__typename":"SocialMediaPost","id":"HnPost-25481278","excerpt":"","slug":"/hn/25481278","title":"The original \"Spacewar!\" running on a virtual DEC PDP-1","date":"December 20, 2020","dateISO":"2020-12-20T14:34:06.027Z","datetime":"2020-12-20 14:34","tags":["story","Hacker News"],"image":null,"imageAlt":null,"provider":"Hacker News","thirdPartyId":"25481278","url":"https://news.ycombinator.com/item?id=25481278","originalUrl":"https://www.masswerk.at/spacewar/","imageRemote":"https://www.masswerk.at/spacewar/images/pagepreview.jpg","video":null,"channel":null,"channelUrl":null,"author":"CharlesW","authorUrl":"https://news.ycombinator.com/user?id=CharlesW","authorImage":null,"authorSlug":null,"score":110,"views":null,"sharedCount":null,"likeCount":null,"sharedContent":null,"parent":{"__typename":"HnJson","localize":[{"title":"原版“太空武士！”在虚拟DEC PDP-1上运行","locale":"zh"},{"title":"原版“太空武士！”在虛擬DEC PDP-1上運行","locale":"zh-Hant"}]}},{"__typename":"SocialMediaPost","id":"HnPost-25481772","excerpt":"","slug":"/hn/25481772","title":"Show HN: Create a QR code with text in the code pattern","date":"December 20, 2020","dateISO":"2020-12-20T14:34:06.027Z","datetime":"2020-12-20 14:34","tags":["story","Show HN","Hacker News"],"image":null,"imageAlt":null,"provider":"Hacker News","thirdPartyId":"25481772","url":"https://news.ycombinator.com/item?id=25481772","originalUrl":"http://qr.new","imageRemote":null,"video":null,"channel":"Show HN","channelUrl":"https://news.ycombinator.com/show","author":"koch","authorUrl":"https://news.ycombinator.com/user?id=koch","authorImage":null,"authorSlug":null,"score":126,"views":null,"sharedCount":null,"likeCount":null,"sharedContent":null,"parent":{"__typename":"HnJson","localize":[{"title":"HN新产品：使用代码模式中的文本创建二维码","locale":"zh"},{"title":"show HN：使用代碼模式中的文本創建二維碼","locale":"zh-Hant"}]}},{"__typename":"SocialMediaPost","id":"HnPost-25481837","excerpt":"","slug":"/hn/25481837","title":"Show HN: I wrote a book on implementing DDD, CQRS and Event Sourcing","date":"December 20, 2020","dateISO":"2020-12-20T14:34:06.027Z","datetime":"2020-12-20 14:34","tags":["story","Show HN","Hacker News"],"image":null,"imageAlt":null,"provider":"Hacker News","thirdPartyId":"25481837","url":"https://news.ycombinator.com/item?id=25481837","originalUrl":"https://leanpub.com/implementing-ddd-cqrs-and-event-sourcing","imageRemote":"https://d2sofvawe08yqg.cloudfront.net/implementing-ddd-cqrs-and-event-sourcing/medium?1607341766","video":null,"channel":"Show HN","channelUrl":"https://news.ycombinator.com/show","author":"alex-lawrence","authorUrl":"https://news.ycombinator.com/user?id=alex-lawrence","authorImage":null,"authorSlug":null,"score":168,"views":null,"sharedCount":null,"likeCount":null,"sharedContent":null,"parent":{"__typename":"HnJson","localize":[{"title":"HN新产品：我写了一本关于实现DDD、CQRS和事件源的书","locale":"zh"},{"title":"show HN：我寫了一本關於實現DDD、CQRS和事件源的書","locale":"zh-Hant"}]}},{"__typename":"SocialMediaPost","id":"HnPost-25482075","excerpt":"","slug":"/hn/25482075","title":"The Abolition of Work (2002)","date":"December 20, 2020","dateISO":"2020-12-20T14:34:06.027Z","datetime":"2020-12-20 14:34","tags":["story","Hacker News"],"image":null,"imageAlt":null,"provider":"Hacker News","thirdPartyId":"25482075","url":"https://news.ycombinator.com/item?id=25482075","originalUrl":"https://theanarchistlibrary.org/library/bob-black-the-abolition-of-work","imageRemote":"https://theanarchistlibrary.org/sitefiles/en/opengraph.png","video":null,"channel":null,"channelUrl":null,"author":"lordwarnut","authorUrl":"https://news.ycombinator.com/user?id=lordwarnut","authorImage":null,"authorSlug":null,"score":157,"views":null,"sharedCount":null,"likeCount":null,"sharedContent":null,"parent":{"__typename":"HnJson","localize":[{"title":"“废止工作”(2002)","locale":"zh"},{"title":"“廢止工作”(2002)","locale":"zh-Hant"}]}},{"__typename":"SocialMediaPost","id":"HnPost-25482219","excerpt":"","slug":"/hn/25482219","title":"IceWM 2.0 – Ice Window Manager","date":"December 20, 2020","dateISO":"2020-12-20T14:34:06.027Z","datetime":"2020-12-20 14:34","tags":["story","Hacker News"],"image":null,"imageAlt":null,"provider":"Hacker News","thirdPartyId":"25482219","url":"https://news.ycombinator.com/item?id=25482219","originalUrl":"https://ice-wm.org/","imageRemote":"https://ice-wm.org/images/logom.jpg","video":null,"channel":null,"channelUrl":null,"author":"conductor","authorUrl":"https://news.ycombinator.com/user?id=conductor","authorImage":null,"authorSlug":null,"score":123,"views":null,"sharedCount":null,"likeCount":null,"sharedContent":null,"parent":{"__typename":"HnJson","localize":[{"title":"IceWM 2.0-冰窗管理器","locale":"zh"},{"title":"IceWM 2.0-冰窗管理器","locale":"zh-Hant"}]}},{"__typename":"SocialMediaPost","id":"HnPost-25483010","excerpt":"","slug":"/hn/25483010","title":"Apple M1 foreshadows Rise of RISC-V","date":"December 20, 2020","dateISO":"2020-12-20T14:34:06.027Z","datetime":"2020-12-20 14:34","tags":["story","Hacker News"],"image":null,"imageAlt":null,"provider":"Hacker News","thirdPartyId":"25483010","url":"https://news.ycombinator.com/item?id=25483010","originalUrl":"https://erik-engheim.medium.com/apple-m1-foreshadows-risc-v-dd63a62b2562","imageRemote":"https://miro.medium.com/max/678/1*DcbqCwxXvWGHcXgw4_r2JQ.jpeg","video":null,"channel":null,"channelUrl":null,"author":"socialdemocrat","authorUrl":"https://news.ycombinator.com/user?id=socialdemocrat","authorImage":null,"authorSlug":null,"score":401,"views":null,"sharedCount":null,"likeCount":null,"sharedContent":null,"parent":{"__typename":"HnJson","localize":[{"title":"苹果M1预示着RISC-V的崛起","locale":"zh"},{"title":"蘋果M1預示着RISC-V的崛起","locale":"zh-Hant"}]}},{"__typename":"SocialMediaPost","id":"HnPost-25485428","excerpt":"","slug":"/hn/25485428","title":"Raspberry Pi Server Mark III","date":"December 20, 2020","dateISO":"2020-12-20T14:34:06.027Z","datetime":"2020-12-20 14:34","tags":["story","Hacker News"],"image":null,"imageAlt":null,"provider":"Hacker News","thirdPartyId":"25485428","url":"https://news.ycombinator.com/item?id=25485428","originalUrl":"https://uplab.pro/2020/12/raspberry-pi-server-mark-iii/","imageRemote":"https://uplab.pro/wp-content/uploads/2020/12/UPTIME-Raspberry-Pi-Platform-pi18nossd-v1.0-1024x681.jpg","video":null,"channel":null,"channelUrl":null,"author":"homarp","authorUrl":"https://news.ycombinator.com/user?id=homarp","authorImage":null,"authorSlug":null,"score":322,"views":null,"sharedCount":null,"likeCount":null,"sharedContent":null,"parent":{"__typename":"HnJson","localize":[{"title":"覆盆子PI服务器马克III","locale":"zh"},{"title":"覆盆子PI服務器馬克III","locale":"zh-Hant"}]}},{"__typename":"SocialMediaPost","id":"HnPost-25481143","excerpt":"","slug":"/hn/25481143","title":"Ryzen 5800X vs. M1: Programming benchmarks","date":"December 20, 2020","dateISO":"2020-12-20T04:13:29.259Z","datetime":"2020-12-20 04:13","tags":["story","Hacker News"],"image":null,"imageAlt":null,"provider":"Hacker News","thirdPartyId":"25481143","url":"https://news.ycombinator.com/item?id=25481143","originalUrl":"https://github.com/tuhdo/tuhdo.github.io/blob/master/emacs-tutor/zen3_vs_m1.org","imageRemote":"https://avatars1.githubusercontent.com/u/4818719?s=400&v=4","video":null,"channel":null,"channelUrl":null,"author":"tuhdo","authorUrl":"https://news.ycombinator.com/user?id=tuhdo","authorImage":null,"authorSlug":null,"score":338,"views":null,"sharedCount":null,"likeCount":null,"sharedContent":null,"parent":{"__typename":"HnJson","localize":[{"title":"Ryzen 5800X与M1：编程基准","locale":"zh"},{"title":"Ryzen 5800X與M1：編程基準","locale":"zh-Hant"}]}},{"__typename":"SocialMediaPost","id":"HnPost-25482883","excerpt":"","slug":"/hn/25482883","title":"Windows 10 20H2: ChkDsk damages filesystem on SSDs with KB4592438 installed","date":"December 20, 2020","dateISO":"2020-12-20T04:13:29.259Z","datetime":"2020-12-20 04:13","tags":["story","Hacker News"],"image":null,"imageAlt":null,"provider":"Hacker News","thirdPartyId":"25482883","url":"https://news.ycombinator.com/item?id=25482883","originalUrl":"https://borncity.com/win/2020/12/18/windows-10-20h2-chkdsk-damages-file-system-on-ssds-with-update-kb4592438-installed/","imageRemote":"https://www.borncity.com/blog/wp-content/uploads/2015/01/win102.jpg","video":null,"channel":null,"channelUrl":null,"author":"xeeeeeeeeeeenu","authorUrl":"https://news.ycombinator.com/user?id=xeeeeeeeeeeenu","authorImage":null,"authorSlug":null,"score":426,"views":null,"sharedCount":null,"likeCount":null,"sharedContent":null,"parent":{"__typename":"HnJson","localize":[{"title":"Windows 10 20H2：ChkDsk损坏安装了KB4592438的SSD上的文件系统","locale":"zh"},{"title":"Windows 10 20H2：ChkDsk損壞安裝了KB4592438的SSD上的文件系統","locale":"zh-Hant"}]}},{"__typename":"SocialMediaPost","id":"HnPost-25482410","excerpt":"","slug":"/hn/25482410","title":"Back to the '70s with Serverless","date":"December 20, 2020","dateISO":"2020-12-20T02:58:19.461Z","datetime":"2020-12-20 02:58","tags":["story","Hacker News"],"image":null,"imageAlt":null,"provider":"Hacker News","thirdPartyId":"25482410","url":"https://news.ycombinator.com/item?id=25482410","originalUrl":"http://evrl.com/devops/cloud/2020/12/18/serverless.html","imageRemote":"http://evrl.com/img/rss.png","video":null,"channel":null,"channelUrl":null,"author":"pjmlp","authorUrl":"https://news.ycombinator.com/user?id=pjmlp","authorImage":null,"authorSlug":null,"score":518,"views":null,"sharedCount":null,"likeCount":null,"sharedContent":null,"parent":{"__typename":"HnJson","localize":[{"title":"带着无服务器回到70年代","locale":"zh"},{"title":"帶着無服務器回到70年代","locale":"zh-Hant"}]}},{"__typename":"SocialMediaPost","id":"HnPost-25482927","excerpt":"","slug":"/hn/25482927","title":"All problems stem from man's inability to sit quietly in a room alone (2014)","date":"December 20, 2020","dateISO":"2020-12-20T02:39:37.073Z","datetime":"2020-12-20 02:39","tags":["story","Hacker News"],"image":null,"imageAlt":null,"provider":"Hacker News","thirdPartyId":"25482927","url":"https://news.ycombinator.com/item?id=25482927","originalUrl":"https://www.theguardian.com/lifeandstyle/2014/jul/19/change-your-life-sit-down-and-think","imageRemote":"https://i.guim.co.uk/img/static/sys-images/Guardian/Pix/pictures/2014/7/11/1405093400255/This-column-change-your-l-010.jpg?width=1200&height=630&quality=85&auto=format&fit=crop&overlay-align=bottom%2Cleft&overlay-width=100p&overlay-base64=L2ltZy9zdGF0aWMvb3ZlcmxheXMvdGctZGVmYXVsdC5wbmc&enable=upscale&s=d7ed9bf29fa49f230efeb671b6868ef4","video":null,"channel":null,"channelUrl":null,"author":"chesterfield","authorUrl":"https://news.ycombinator.com/user?id=chesterfield","authorImage":null,"authorSlug":null,"score":825,"views":null,"sharedCount":null,"likeCount":null,"sharedContent":null,"parent":{"__typename":"HnJson","localize":[{"title":"所有问题都源于男人无法独自安静地坐在房间里(2014)","locale":"zh"},{"title":"所有問題都源於男人無法獨自安靜地坐在房間裏(2014)","locale":"zh-Hant"}]}},{"__typename":"SocialMediaPost","id":"HnPost-25480829","excerpt":"","slug":"/hn/25480829","title":"No, SAR Can't See Through Buildings","date":"December 20, 2020","dateISO":"2020-12-20T01:07:45.235Z","datetime":"2020-12-20 01:07","tags":["story","Hacker News"],"image":null,"imageAlt":null,"provider":"Hacker News","thirdPartyId":"25480829","url":"https://news.ycombinator.com/item?id=25480829","originalUrl":"https://www.capellaspace.com/no-sar-cant-see-through-buildings/","imageRemote":"https://www.capellaspace.com/wp-content/uploads/2020/12/Capella-Space-Spot-Image-Tokyo-Japan-1.jpg","video":null,"channel":null,"channelUrl":null,"author":"Shelnutt2","authorUrl":"https://news.ycombinator.com/user?id=Shelnutt2","authorImage":null,"authorSlug":null,"score":192,"views":null,"sharedCount":null,"likeCount":null,"sharedContent":null,"parent":{"__typename":"HnJson","localize":[{"title":"不，SAR看不见建筑物","locale":"zh"},{"title":"不，SAR看不見建築物","locale":"zh-Hant"}]}},{"__typename":"SocialMediaPost","id":"HnPost-25481465","excerpt":"","slug":"/hn/25481465","title":"Setting up your own Nextcloud instance to get off of Google","date":"December 20, 2020","dateISO":"2020-12-20T01:07:45.235Z","datetime":"2020-12-20 01:07","tags":["story","Hacker News"],"image":null,"imageAlt":null,"provider":"Hacker News","thirdPartyId":"25481465","url":"https://news.ycombinator.com/item?id=25481465","originalUrl":"https://kiramclean.com/blog/how-to-set-up-your-own-nextcloud-server/","imageRemote":null,"video":null,"channel":null,"channelUrl":null,"author":"kmclean","authorUrl":"https://news.ycombinator.com/user?id=kmclean","authorImage":null,"authorSlug":null,"score":283,"views":null,"sharedCount":null,"likeCount":null,"sharedContent":null,"parent":{"__typename":"HnJson","localize":[{"title":"设置您自己的Nextcloud实例以脱离Google","locale":"zh"},{"title":"設置您自己的Nextcloud實例以脫離Google","locale":"zh-Hant"}]}},{"__typename":"SocialMediaPost","id":"HnPost-25480321","excerpt":"","slug":"/hn/25480321","title":"Bevy 0.4: data oriented game engine built in Rust","date":"December 19, 2020","dateISO":"2020-12-19T23:40:08.042Z","datetime":"2020-12-19 23:40","tags":["story","Hacker News"],"image":null,"imageAlt":null,"provider":"Hacker News","thirdPartyId":"25480321","url":"https://news.ycombinator.com/item?id=25480321","originalUrl":"https://bevyengine.org/news/bevy-0-4/","imageRemote":"https://bevyengine.org/assets/bevy_logo_fill.png","video":null,"channel":null,"channelUrl":null,"author":"_cart","authorUrl":"https://news.ycombinator.com/user?id=_cart","authorImage":null,"authorSlug":null,"score":113,"views":null,"sharedCount":null,"likeCount":null,"sharedContent":null,"parent":{"__typename":"HnJson","localize":[{"title":"Bevy 0.4：Rust内置的面向数据的游戏引擎","locale":"zh"},{"title":"Bevy 0.4：Rust內置的面向數據的遊戲引擎","locale":"zh-Hant"}]}}]}},"pageContext":{"basePath":"/","pageType":"tag","tag":"Hacker News","tagsFilter":{"id":{"glob":"!*Post-1"}},"filter":{"id":{"glob":"!*Post-1"},"tags":{"eq":"Hacker News"}},"limit":25,"skip":2925,"total":3107,"totalPages":125,"currentPage":118,"maxWidth":1024,"maxHeight":512,"locale":"ja","hrefLang":"ja-JA","originalPath":"/tags/hacker-news/page/118","dateFormat":"YYYY-MM-DD"}},"staticQueryHashes":["1239077767","2506312863","2744905544","3025052997","3493603132","3493603132","3513215887","386998304"]}