{"componentChunkName":"component---gatsby-theme-buzzing-src-gatsby-theme-timeline-templates-posts-query-js","path":"/en/tags/story/page/4","result":{"data":{"site":{"siteMetadata":{"title":"Reddit 热门","description":"用中文浏览Reddit热门内容","social":[{"name":"Reddit","url":"https://www.reddit.com/","external":true,"prefetch":null},{"name":"GitHub","url":"https://github.com/gatsbyjs","external":null,"prefetch":null}],"menuLinks":[{"name":"每周精选","url":"/issues","external":null,"prefetch":null},{"name":"RSS","url":"/rss.xml","external":null,"prefetch":false}],"localize":[{"locale":"en","title":"Buzzing on Reddit","description":"See what's buzzing on Reddit in your native language","social":[{"name":"Reddit","url":"https://www.reddit.com/","external":true,"prefetch":null}],"menuLinks":[{"name":"Weekly Selection","url":"/issues","external":null,"prefetch":null},{"name":"RSS","url":"/rss.xml","external":null,"prefetch":false}]},{"locale":"zh-Hant","title":"Reddit 熱門","description":"用中文瀏覽Reddit熱門內容","social":null,"menuLinks":null}]}},"tagsGroup":{"group":[{"fieldValue":"ASK HN","totalCount":19},{"fieldValue":"Bitcoin","totalCount":3},{"fieldValue":"Hacker News","totalCount":799},{"fieldValue":"Poll","totalCount":1},{"fieldValue":"Show HN","totalCount":31},{"fieldValue":"investing","totalCount":166},{"fieldValue":"poll","totalCount":1},{"fieldValue":"reddit","totalCount":592},{"fieldValue":"science","totalCount":1},{"fieldValue":"stocks","totalCount":276},{"fieldValue":"story","totalCount":798},{"fieldValue":"tweet","totalCount":242},{"fieldValue":"wallstreetbets","totalCount":150}]},"allBlogPost":{"nodes":[{"__typename":"SocialMediaPost","id":"HnPost-25653112","excerpt":"","slug":"/hn/25653112","title":"Cincinnati is home to the largest unused subway system in the world (2016)","date":"January 06, 2021","dateISO":"2021-01-06T05:52:32.580Z","datetime":"2021-01-06 05:52","tags":["story","Hacker News"],"image":null,"imageAlt":null,"provider":"Hacker News","thirdPartyId":"25653112","url":"https://news.ycombinator.com/item?id=25653112","originalUrl":"https://www.atlasobscura.com/articles/cincinnati-built-a-subway-system-100-years-ago-but-never-used-it","imageRemote":"https://assets.atlasobscura.com/media/W1siZiIsInVwbG9hZHMvYXNzZXRzLzM4NzFiZGMzMTAwODc1NmUyMF9zdWJ3YXkxLmpwZyJdLFsicCIsImNvbnZlcnQiLCItYXV0by1vcmllbnQgIl0sWyJwIiwidGh1bWIiLCIxNDM4eDk1OSsyNys0MSJdLFsicCIsImNvbnZlcnQiLCItcXVhbGl0eSA4MSAtYXV0by1vcmllbnQiXSxbInAiLCJ0aHVtYiIsIjYwMHg-Il1d","video":null,"channel":null,"channelUrl":null,"author":"respinal","authorUrl":"https://news.ycombinator.com/user?id=respinal","authorImage":null,"authorSlug":null,"score":202,"views":null,"sharedCount":null,"likeCount":null,"sharedContent":null,"parent":{"__typename":"HnJson","localize":[{"title":"辛辛那提是世界上最大的未使用地铁系统的所在地(2016)","locale":"zh"},{"title":"辛辛那提是世界上最大的未使用地鐵系統的所在地(2016)","locale":"zh-Hant"}]}},{"__typename":"SocialMediaPost","id":"HnPost-25650094","excerpt":"","slug":"/hn/25650094","title":"Amazon buys 11 Boeing 767s to expand its cargo fleet","date":"January 06, 2021","dateISO":"2021-01-06T05:10:40.845Z","datetime":"2021-01-06 05:10","tags":["story","Hacker News"],"image":null,"imageAlt":null,"provider":"Hacker News","thirdPartyId":"25650094","url":"https://news.ycombinator.com/item?id=25650094","originalUrl":"https://www.cbc.ca/news/business/amazon-westjet-1.5861635","imageRemote":"https://i.cbc.ca/1.5861643.1609859058!/fileImage/httpImage/image.jpg_gen/derivatives/16x9_620/amazon-delivery-plane.jpg","video":null,"channel":null,"channelUrl":null,"author":"seryoiupfurds","authorUrl":"https://news.ycombinator.com/user?id=seryoiupfurds","authorImage":null,"authorSlug":null,"score":246,"views":null,"sharedCount":null,"likeCount":null,"sharedContent":null,"parent":{"__typename":"HnJson","localize":[{"title":"亚马逊购买11架波音767扩大货运机队","locale":"zh"},{"title":"亞馬遜購買11架波音767擴大貨運機隊","locale":"zh-Hant"}]}},{"__typename":"SocialMediaPost","id":"HnPost-25650224","excerpt":"","slug":"/hn/25650224","title":"Ask HN: Please share your experience teaching your kids to program","date":"January 06, 2021","dateISO":"2021-01-06T04:30:27.453Z","datetime":"2021-01-06 04:30","tags":["story","ASK HN","Hacker News"],"image":null,"imageAlt":null,"provider":"Hacker News","thirdPartyId":"25650224","url":"https://news.ycombinator.com/item?id=25650224","originalUrl":"https://news.ycombinator.com/item?id=25650224","imageRemote":null,"video":null,"channel":"ASK HN","channelUrl":"https://news.ycombinator.com/ask","author":"lmilcin","authorUrl":"https://news.ycombinator.com/user?id=lmilcin","authorImage":null,"authorSlug":null,"score":290,"views":null,"sharedCount":null,"likeCount":null,"sharedContent":null,"parent":{"__typename":"HnJson","localize":[{"title":"HN提问：请分享您教孩子编程的经验","locale":"zh"},{"title":"HN提問：請分享您教孩子編程的經驗","locale":"zh-Hant"}]}},{"__typename":"SocialMediaPost","id":"HnPost-25649091","excerpt":"","slug":"/hn/25649091","title":"Is Everything Securities Fraud?","date":"January 06, 2021","dateISO":"2021-01-06T02:38:15.185Z","datetime":"2021-01-06 02:38","tags":["story","Hacker News"],"image":null,"imageAlt":null,"provider":"Hacker News","thirdPartyId":"25649091","url":"https://news.ycombinator.com/item?id=25649091","originalUrl":"https://papers.ssrn.com/sol3/papers.cfm?abstract_id=3664132","imageRemote":"https://static.ssrn.com/cfincludes/img/icons/icon-adobe-pdf.svg","video":null,"channel":null,"channelUrl":null,"author":"Tomte","authorUrl":"https://news.ycombinator.com/user?id=Tomte","authorImage":null,"authorSlug":null,"score":196,"views":null,"sharedCount":null,"likeCount":null,"sharedContent":null,"parent":{"__typename":"HnJson","localize":[{"title":"一切都是证券欺诈吗？","locale":"zh"},{"title":"一切都是證券欺詐嗎？","locale":"zh-Hant"}]}},{"__typename":"SocialMediaPost","id":"HnPost-25651103","excerpt":"","slug":"/hn/25651103","title":"5G Advocates Renew Attempts to Poach Wi-Fi’s 6GHz Spectrum","date":"January 06, 2021","dateISO":"2021-01-06T02:38:15.185Z","datetime":"2021-01-06 02:38","tags":["story","Hacker News"],"image":null,"imageAlt":null,"provider":"Hacker News","thirdPartyId":"25651103","url":"https://news.ycombinator.com/item?id=25651103","originalUrl":"https://www.eetimes.com/5g-advocates-renew-attempts-to-poach-wi-fis-6ghz-spectrum/","imageRemote":"https://www.eetimes.com/wp-content/uploads/GSMA-1.jpg?fit=2560%2C1295","video":null,"channel":null,"channelUrl":null,"author":"danaos","authorUrl":"https://news.ycombinator.com/user?id=danaos","authorImage":null,"authorSlug":null,"score":227,"views":null,"sharedCount":null,"likeCount":null,"sharedContent":null,"parent":{"__typename":"HnJson","localize":[{"title":"5G倡导者再次尝试窃取Wi-Fi的6 GHz频谱","locale":"zh"},{"title":"5G倡導者再次嘗試竊取Wi-Fi的6 GHz頻譜","locale":"zh-Hant"}]}},{"__typename":"SocialMediaPost","id":"HnPost-25647034","excerpt":"","slug":"/hn/25647034","title":"JupyterLab 3.0","date":"January 06, 2021","dateISO":"2021-01-06T01:35:22.225Z","datetime":"2021-01-06 01:35","tags":["story","Hacker News"],"image":null,"imageAlt":null,"provider":"Hacker News","thirdPartyId":"25647034","url":"https://news.ycombinator.com/item?id=25647034","originalUrl":"https://blog.jupyter.org/jupyterlab-3-0-is-out-4f58385e25bb","imageRemote":"https://miro.medium.com/max/1000/1*iZTmCAefbExeTZNJKWy4cQ.png","video":null,"channel":null,"channelUrl":null,"author":"kylebarron","authorUrl":"https://news.ycombinator.com/user?id=kylebarron","authorImage":null,"authorSlug":null,"score":260,"views":null,"sharedCount":null,"likeCount":null,"sharedContent":null,"parent":{"__typename":"HnJson","localize":[{"title":"JupyterLab 3.0","locale":"zh"},{"title":"JupyterLab 3.0","locale":"zh-Hant"}]}},{"__typename":"SocialMediaPost","id":"HnPost-25649476","excerpt":"","slug":"/hn/25649476","title":"Wasmer 1.0","date":"January 05, 2021","dateISO":"2021-01-05T23:02:41.033Z","datetime":"2021-01-05 23:02","tags":["story","Hacker News"],"image":null,"imageAlt":null,"provider":"Hacker News","thirdPartyId":"25649476","url":"https://news.ycombinator.com/item?id=25649476","originalUrl":"https://medium.com/wasmer/wasmer-1-0-3f86ca18c043","imageRemote":"https://miro.medium.com/max/1200/1*C4Wc6JS2U9dlcsbW-OjnXA.jpeg","video":null,"channel":null,"channelUrl":null,"author":"wiqar","authorUrl":"https://news.ycombinator.com/user?id=wiqar","authorImage":null,"authorSlug":null,"score":338,"views":null,"sharedCount":null,"likeCount":null,"sharedContent":null,"parent":{"__typename":"HnJson","localize":[{"title":"Wasmer 1.0","locale":"zh"},{"title":"Wasmer 1.0","locale":"zh-Hant"}]}},{"__typename":"SocialMediaPost","id":"HnPost-25647652","excerpt":"","slug":"/hn/25647652","title":"Danes Get 20-Year 0% Mortgages","date":"January 05, 2021","dateISO":"2021-01-05T22:22:59.011Z","datetime":"2021-01-05 22:22","tags":["story","Hacker News"],"image":null,"imageAlt":null,"provider":"Hacker News","thirdPartyId":"25647652","url":"https://news.ycombinator.com/item?id=25647652","originalUrl":"https://www.bloombergquint.com/onweb/danes-get-20-year-0-mortgages-as-interest-rates-keep-sinking","imageRemote":"https://gumlet.assettype.com/bloombergquint%2F2021-01%2F23023fa7-8898-4576-943e-b9745b5e1982%2F229395954.jpg?rect=0%2C283%2C4000%2C2100&w=1200&auto=format%2Ccompress&ogImage=true","video":null,"channel":null,"channelUrl":null,"author":"harambae","authorUrl":"https://news.ycombinator.com/user?id=harambae","authorImage":null,"authorSlug":null,"score":214,"views":null,"sharedCount":null,"likeCount":null,"sharedContent":null,"parent":{"__typename":"HnJson","localize":[{"title":"丹麦人获得20年期0%抵押贷款","locale":"zh"},{"title":"丹麥人獲得20年期0%抵押貸款","locale":"zh-Hant"}]}},{"__typename":"SocialMediaPost","id":"HnPost-25649557","excerpt":"","slug":"/hn/25649557","title":"DALL·E: Creating Images from Text","date":"January 05, 2021","dateISO":"2021-01-05T21:29:22.777Z","datetime":"2021-01-05 21:29","tags":["story","Hacker News"],"image":null,"imageAlt":null,"provider":"Hacker News","thirdPartyId":"25649557","url":"https://news.ycombinator.com/item?id=25649557","originalUrl":"https://openai.com/blog/dall-e/","imageRemote":"https://openai.com/content/images/2021/01/2x-no-mark-1.jpg","video":null,"channel":null,"channelUrl":null,"author":"todsacerdoti","authorUrl":"https://news.ycombinator.com/user?id=todsacerdoti","authorImage":null,"authorSlug":null,"score":1234,"views":null,"sharedCount":null,"likeCount":null,"sharedContent":null,"parent":{"__typename":"HnJson","localize":[{"title":"Dall·E：从文本创建图像","locale":"zh"},{"title":"Dall·E：從文本創建圖像","locale":"zh-Hant"}]}},{"__typename":"SocialMediaPost","id":"HnPost-25649719","excerpt":"","slug":"/hn/25649719","title":"Asahi Linux: Linux on Apple Silicon project","date":"January 05, 2021","dateISO":"2021-01-05T21:01:17.396Z","datetime":"2021-01-05 21:01","tags":["story","Hacker News"],"image":null,"imageAlt":null,"provider":"Hacker News","thirdPartyId":"25649719","url":"https://news.ycombinator.com/item?id=25649719","originalUrl":"https://asahilinux.org/","imageRemote":"https://asahilinux.org/img/AsahiLinux_logomark_256px.png","video":null,"channel":null,"channelUrl":null,"author":"jackhalford","authorUrl":"https://news.ycombinator.com/user?id=jackhalford","authorImage":null,"authorSlug":null,"score":649,"views":null,"sharedCount":null,"likeCount":null,"sharedContent":null,"parent":{"__typename":"HnJson","localize":[{"title":"朝日Linux：Linux on Apple Silicon项目","locale":"zh"},{"title":"朝日Linux：Linux on Apple Silicon項目","locale":"zh-Hant"}]}},{"__typename":"SocialMediaPost","id":"HnPost-25644926","excerpt":"","slug":"/hn/25644926","title":"How I learned to love and fear the Riemann Hypothesis","date":"January 05, 2021","dateISO":"2021-01-05T20:42:40.182Z","datetime":"2021-01-05 20:42","tags":["story","Hacker News"],"image":null,"imageAlt":null,"provider":"Hacker News","thirdPartyId":"25644926","url":"https://news.ycombinator.com/item?id=25644926","originalUrl":"https://www.quantamagazine.org/how-i-learned-to-love-and-fear-the-riemann-hypothesis-20210104/","imageRemote":"https://d2r55xnwy6nx47.cloudfront.net/uploads/2021/01/Riemann-Hypothesis-social.jpg","video":null,"channel":null,"channelUrl":null,"author":"pseudolus","authorUrl":"https://news.ycombinator.com/user?id=pseudolus","authorImage":null,"authorSlug":null,"score":193,"views":null,"sharedCount":null,"likeCount":null,"sharedContent":null,"parent":{"__typename":"HnJson","localize":[{"title":"我是如何学会爱和恐惧黎曼假说的","locale":"zh"},{"title":"我是如何學會愛和恐懼黎曼假說的","locale":"zh-Hant"}]}},{"__typename":"SocialMediaPost","id":"HnPost-25648186","excerpt":"","slug":"/hn/25648186","title":"Moral Competence","date":"January 05, 2021","dateISO":"2021-01-05T20:42:40.182Z","datetime":"2021-01-05 20:42","tags":["story","Hacker News"],"image":null,"imageAlt":null,"provider":"Hacker News","thirdPartyId":"25648186","url":"https://news.ycombinator.com/item?id=25648186","originalUrl":"https://evanjconrad.com/posts/moral-competence","imageRemote":"https://evanjconrad.com/twittercard.png","video":null,"channel":null,"channelUrl":null,"author":"flaque","authorUrl":"https://news.ycombinator.com/user?id=flaque","authorImage":null,"authorSlug":null,"score":294,"views":null,"sharedCount":null,"likeCount":null,"sharedContent":null,"parent":{"__typename":"HnJson","localize":[{"title":"道德能力","locale":"zh"},{"title":"道德能力","locale":"zh-Hant"}]}},{"__typename":"SocialMediaPost","id":"HnPost-25640501","excerpt":"","slug":"/hn/25640501","title":"Jack Ma Is Missing","date":"January 05, 2021","dateISO":"2021-01-05T19:52:43.456Z","datetime":"2021-01-05 19:52","tags":["story","Hacker News"],"image":null,"imageAlt":null,"provider":"Hacker News","thirdPartyId":"25640501","url":"https://news.ycombinator.com/item?id=25640501","originalUrl":"https://nymag.com/intelligencer/2021/01/where-in-the-world-is-jack-ma.html","imageRemote":"https://pyxis.nymag.com/v1/imgs/ac3/c4a/27245d0fd858792d08fd8e5cad6ebb4fb4-jack-ma.1x.rsocial.w1200.jpg","video":null,"channel":null,"channelUrl":null,"author":"derangedHorse","authorUrl":"https://news.ycombinator.com/user?id=derangedHorse","authorImage":null,"authorSlug":null,"score":153,"views":null,"sharedCount":null,"likeCount":null,"sharedContent":null,"parent":{"__typename":"HnJson","localize":[{"title":"马云失踪","locale":"zh"},{"title":"馬雲失蹤","locale":"zh-Hant"}]}},{"__typename":"SocialMediaPost","id":"HnPost-25646376","excerpt":"","slug":"/hn/25646376","title":"Sci-Hub: Scientists, Academics, Teachers and Students Protest Blocking Lawsuit","date":"January 05, 2021","dateISO":"2021-01-05T19:52:43.456Z","datetime":"2021-01-05 19:52","tags":["story","Hacker News"],"image":null,"imageAlt":null,"provider":"Hacker News","thirdPartyId":"25646376","url":"https://news.ycombinator.com/item?id=25646376","originalUrl":"https://torrentfreak.com/sci-hub-scientists-academics-teachers-and-students-protest-blocking-lawsuit-050121/","imageRemote":"https://torrentfreak.com/images/court2-featured.jpg","video":null,"channel":null,"channelUrl":null,"author":"parsecs","authorUrl":"https://news.ycombinator.com/user?id=parsecs","authorImage":null,"authorSlug":null,"score":211,"views":null,"sharedCount":null,"likeCount":null,"sharedContent":null,"parent":{"__typename":"HnJson","localize":[{"title":"SCI-Hub：科学家、学者、教师和学生抗议阻止诉讼","locale":"zh"},{"title":"SCI-Hub：科學家、學者、教師和學生抗議阻止訴訟","locale":"zh-Hant"}]}},{"__typename":"SocialMediaPost","id":"HnPost-25646180","excerpt":"","slug":"/hn/25646180","title":"New Defaults","date":"January 05, 2021","dateISO":"2021-01-05T19:21:28.377Z","datetime":"2021-01-05 19:21","tags":["story","Hacker News"],"image":null,"imageAlt":null,"provider":"Hacker News","thirdPartyId":"25646180","url":"https://news.ycombinator.com/item?id=25646180","originalUrl":"https://stratechery.com/2021/new-defaults/","imageRemote":"https://stratechery.com/wp-content/uploads/2021/01/defaults-1.png","video":null,"channel":null,"channelUrl":null,"author":"kaboro","authorUrl":"https://news.ycombinator.com/user?id=kaboro","authorImage":null,"authorSlug":null,"score":273,"views":null,"sharedCount":null,"likeCount":null,"sharedContent":null,"parent":{"__typename":"HnJson","localize":[{"title":"新的默认值","locale":"zh"},{"title":"新的默認值","locale":"zh-Hant"}]}},{"__typename":"SocialMediaPost","id":"HnPost-25646909","excerpt":"","slug":"/hn/25646909","title":"Learn Go in five minutes","date":"January 05, 2021","dateISO":"2021-01-05T19:21:28.377Z","datetime":"2021-01-05 19:21","tags":["story","Hacker News"],"image":null,"imageAlt":null,"provider":"Hacker News","thirdPartyId":"25646909","url":"https://news.ycombinator.com/item?id=25646909","originalUrl":"https://gist.github.com/prologic/5f6afe9c1b98016ca278f4d507e65510","imageRemote":"https://github.githubassets.com/images/modules/gists/gist-og-image.png","video":null,"channel":null,"channelUrl":null,"author":"tate","authorUrl":"https://news.ycombinator.com/user?id=tate","authorImage":null,"authorSlug":null,"score":202,"views":null,"sharedCount":null,"likeCount":null,"sharedContent":null,"parent":{"__typename":"HnJson","localize":[{"title":"五分钟后学棋","locale":"zh"},{"title":"五分鐘後學棋","locale":"zh-Hant"}]}},{"__typename":"SocialMediaPost","id":"HnPost-25642392","excerpt":"","slug":"/hn/25642392","title":"Blocking Pinterest may reduce your data usage","date":"January 05, 2021","dateISO":"2021-01-05T18:12:16.890Z","datetime":"2021-01-05 18:12","tags":["story","Hacker News"],"image":null,"imageAlt":null,"provider":"Hacker News","thirdPartyId":"25642392","url":"https://news.ycombinator.com/item?id=25642392","originalUrl":"https://ruky.me/2021/01/05/you-might-want-to-block-pinterest-to-save-your-data/","imageRemote":"https://ruky.me/wp-content/uploads/2020/12/15A7DE22-2C11-4D5A-A2EE-9CCE51B929B5.jpeg","video":null,"channel":null,"channelUrl":null,"author":"rukshn","authorUrl":"https://news.ycombinator.com/user?id=rukshn","authorImage":null,"authorSlug":null,"score":156,"views":null,"sharedCount":null,"likeCount":null,"sharedContent":null,"parent":{"__typename":"HnJson","localize":[{"title":"屏蔽Pinterest可能会减少您的数据使用量","locale":"zh"},{"title":"屏蔽Pinterest可能會減少您的數據使用量","locale":"zh-Hant"}]}},{"__typename":"SocialMediaPost","id":"HnPost-25644605","excerpt":"","slug":"/hn/25644605","title":"Busiest hour ever in the history of Gov.uk 17M page requests just 21 5xx errors","date":"January 05, 2021","dateISO":"2021-01-05T18:12:16.890Z","datetime":"2021-01-05 18:12","tags":["story","Hacker News"],"image":null,"imageAlt":null,"provider":"Hacker News","thirdPartyId":"25644605","url":"https://news.ycombinator.com/item?id=25644605","originalUrl":"https://twitter.com/TheRealNooshu/status/1346183432876019712","imageRemote":null,"video":null,"channel":null,"channelUrl":null,"author":"robtaylor","authorUrl":"https://news.ycombinator.com/user?id=robtaylor","authorImage":null,"authorSlug":null,"score":230,"views":null,"sharedCount":null,"likeCount":null,"sharedContent":null,"parent":{"__typename":"HnJson","localize":[{"title":"Gov.uk历史上最忙的一个小时，17M页面仅请求215xx个错误","locale":"zh"},{"title":"Gov.uk歷史上最忙的一個小時，17M頁面僅請求215xx個錯誤","locale":"zh-Hant"}]}},{"__typename":"SocialMediaPost","id":"HnPost-25644656","excerpt":"","slug":"/hn/25644656","title":"Understanding Connections and Pools","date":"January 05, 2021","dateISO":"2021-01-05T18:12:16.890Z","datetime":"2021-01-05 18:12","tags":["story","Hacker News"],"image":null,"imageAlt":null,"provider":"Hacker News","thirdPartyId":"25644656","url":"https://news.ycombinator.com/item?id=25644656","originalUrl":"https://sudhir.io/understanding-connections-pools/","imageRemote":"https://images.unsplash.com/photo-1554960750-9468c5d9e239?crop=entropy&cs=tinysrgb&fit=max&fm=jpg&ixid=MXwxMTc3M3wwfDF8c2VhcmNofDN8fGNvbm5lY3Rpb25zfGVufDB8fHw&ixlib=rb-1.2.1&q=80&w=2000","video":null,"channel":null,"channelUrl":null,"author":"sudhirj","authorUrl":"https://news.ycombinator.com/user?id=sudhirj","authorImage":null,"authorSlug":null,"score":213,"views":null,"sharedCount":null,"likeCount":null,"sharedContent":null,"parent":{"__typename":"HnJson","localize":[{"title":"了解连接和池","locale":"zh"},{"title":"瞭解連接和池","locale":"zh-Hant"}]}},{"__typename":"SocialMediaPost","id":"HnPost-25644678","excerpt":"","slug":"/hn/25644678","title":"RSD – RISC-V Out-of-Order Superscalar Processor","date":"January 05, 2021","dateISO":"2021-01-05T18:12:16.890Z","datetime":"2021-01-05 18:12","tags":["story","Hacker News"],"image":null,"imageAlt":null,"provider":"Hacker News","thirdPartyId":"25644678","url":"https://news.ycombinator.com/item?id=25644678","originalUrl":"https://github.com/rsd-devel/rsd","imageRemote":"https://avatars1.githubusercontent.com/u/56767679?s=400&v=4","video":null,"channel":null,"channelUrl":null,"author":"varbhat","authorUrl":"https://news.ycombinator.com/user?id=varbhat","authorImage":null,"authorSlug":null,"score":239,"views":null,"sharedCount":null,"likeCount":null,"sharedContent":null,"parent":{"__typename":"HnJson","localize":[{"title":"RSD-RISC-V无序超标量处理器","locale":"zh"},{"title":"RSD-RISC-V無序超標量處理器","locale":"zh-Hant"}]}},{"__typename":"SocialMediaPost","id":"HnPost-25644817","excerpt":"","slug":"/hn/25644817","title":"Ask HN: Who's looking for a co-founder?","date":"January 05, 2021","dateISO":"2021-01-05T18:12:16.890Z","datetime":"2021-01-05 18:12","tags":["story","ASK HN","Hacker News"],"image":null,"imageAlt":null,"provider":"Hacker News","thirdPartyId":"25644817","url":"https://news.ycombinator.com/item?id=25644817","originalUrl":"https://news.ycombinator.com/item?id=25644817","imageRemote":null,"video":null,"channel":"ASK HN","channelUrl":"https://news.ycombinator.com/ask","author":"notoriousarun","authorUrl":"https://news.ycombinator.com/user?id=notoriousarun","authorImage":null,"authorSlug":null,"score":222,"views":null,"sharedCount":null,"likeCount":null,"sharedContent":null,"parent":{"__typename":"HnJson","localize":[{"title":"HN提问：谁在寻找联合创始人？","locale":"zh"},{"title":"HN提問：誰在尋找聯合創始人？","locale":"zh-Hant"}]}},{"__typename":"SocialMediaPost","id":"HnPost-25644828","excerpt":"","slug":"/hn/25644828","title":"Show HN: Unclack – a macOS app that auto-mutes your keyboard","date":"January 05, 2021","dateISO":"2021-01-05T18:12:16.890Z","datetime":"2021-01-05 18:12","tags":["story","Show HN","Hacker News"],"image":null,"imageAlt":null,"provider":"Hacker News","thirdPartyId":"25644828","url":"https://news.ycombinator.com/item?id=25644828","originalUrl":"https://unclack.app","imageRemote":"https://unclack.app/images/logo.png","video":null,"channel":"Show HN","channelUrl":"https://news.ycombinator.com/show","author":"robotsquidward","authorUrl":"https://news.ycombinator.com/user?id=robotsquidward","authorImage":null,"authorSlug":null,"score":277,"views":null,"sharedCount":null,"likeCount":null,"sharedContent":null,"parent":{"__typename":"HnJson","localize":[{"title":"HN新产品：Unclack-一款MacOS应用程序，可以自动将键盘静音","locale":"zh"},{"title":"HN新產品：Unclack-一款MacOS應用程序，可以自動將鍵盤靜音","locale":"zh-Hant"}]}},{"__typename":"SocialMediaPost","id":"HnPost-25645838","excerpt":"","slug":"/hn/25645838","title":"Electric cars make up 54% of cars sold in Norway in 2020","date":"January 05, 2021","dateISO":"2021-01-05T18:12:16.890Z","datetime":"2021-01-05 18:12","tags":["story","Hacker News"],"image":null,"imageAlt":null,"provider":"Hacker News","thirdPartyId":"25645838","url":"https://news.ycombinator.com/item?id=25645838","originalUrl":"https://www.theguardian.com/environment/2021/jan/05/electric-cars-record-market-share-norway","imageRemote":"https://i.guim.co.uk/img/media/43f47e95d285b4318ac525118892b7e0183eedc4/0_273_6087_3652/master/6087.jpg?width=1200&height=630&quality=85&auto=format&fit=crop&overlay-align=bottom%2Cleft&overlay-width=100p&overlay-base64=L2ltZy9zdGF0aWMvb3ZlcmxheXMvdGctZGVmYXVsdC5wbmc&enable=upscale&s=85b7b832fa5ab922215fdfb09f18d5da","video":null,"channel":null,"channelUrl":null,"author":"phonebucket","authorUrl":"https://news.ycombinator.com/user?id=phonebucket","authorImage":null,"authorSlug":null,"score":190,"views":null,"sharedCount":null,"likeCount":null,"sharedContent":null,"parent":{"__typename":"HnJson","localize":[{"title":"2020年，电动汽车占挪威汽车销量的54%","locale":"zh"},{"title":"2020年，電動汽車佔挪威汽車銷量的54%","locale":"zh-Hant"}]}},{"__typename":"SocialMediaPost","id":"HnPost-25646867","excerpt":"","slug":"/hn/25646867","title":"U.S. Bill H.R.69 introduced – To make daylight savings time permanent","date":"January 05, 2021","dateISO":"2021-01-05T18:12:16.890Z","datetime":"2021-01-05 18:12","tags":["story","Hacker News"],"image":null,"imageAlt":null,"provider":"Hacker News","thirdPartyId":"25646867","url":"https://news.ycombinator.com/item?id=25646867","originalUrl":"https://www.congress.gov/bill/117th-congress/house-bill/69?s=1&r=7","imageRemote":"https://www.congress.gov/img/opengraph1200by630.jpg","video":null,"channel":null,"channelUrl":null,"author":"mdm12","authorUrl":"https://news.ycombinator.com/user?id=mdm12","authorImage":null,"authorSlug":null,"score":344,"views":null,"sharedCount":null,"likeCount":null,"sharedContent":null,"parent":{"__typename":"HnJson","localize":[{"title":"美国法案H.R.69提出-将夏令时永久化","locale":"zh"},{"title":"美國法案H.R.69提出-將夏令時永久化","locale":"zh-Hant"}]}},{"__typename":"SocialMediaPost","id":"HnPost-25641420","excerpt":"","slug":"/hn/25641420","title":"Show HN: Handel – A procedural programming language for writing songs in browser","date":"January 05, 2021","dateISO":"2021-01-05T17:09:01.959Z","datetime":"2021-01-05 17:09","tags":["story","Show HN","Hacker News"],"image":null,"imageAlt":null,"provider":"Hacker News","thirdPartyId":"25641420","url":"https://news.ycombinator.com/item?id=25641420","originalUrl":"https://handel-pl.github.io","imageRemote":null,"video":null,"channel":"Show HN","channelUrl":"https://news.ycombinator.com/show","author":"ddj231","authorUrl":"https://news.ycombinator.com/user?id=ddj231","authorImage":null,"authorSlug":null,"score":186,"views":null,"sharedCount":null,"likeCount":null,"sharedContent":null,"parent":{"__typename":"HnJson","localize":[{"title":"HN新产品：HANDELL-一种在浏览器中编写歌曲的过程化编程语言","locale":"zh"},{"title":"HN新產品：HANDELL-一種在瀏覽器中編寫歌曲的過程化編程語言","locale":"zh-Hant"}]}}]}},"pageContext":{"basePath":"/","pageType":"tag","tag":"story","tagsFilter":{"id":{"glob":"!*Post-1"}},"filter":{"id":{"glob":"!*Post-1"},"tags":{"eq":"story"}},"limit":25,"skip":75,"total":798,"totalPages":32,"currentPage":4,"maxWidth":1024,"maxHeight":512,"locale":"en","hrefLang":"en-US","originalPath":"/tags/story/page/4","dateFormat":"MM/DD/YYYY"}},"staticQueryHashes":["1239077767","1684688348","2506312863","2744905544","3493603132","3493603132","386998304"]}