{"componentChunkName":"component---gatsby-theme-buzzing-src-gatsby-theme-timeline-templates-posts-query-js","path":"/tags/show-hn/page/2","result":{"data":{"site":{"siteMetadata":{"title":"Reddit 热门","description":"用中文浏览Reddit热门内容","social":[{"name":"Twitter","url":"https://twitter.com/gatsbyjs","external":null,"prefetch":null},{"name":"GitHub","url":"https://github.com/gatsbyjs","external":null,"prefetch":null}],"menuLinks":[],"localize":[{"locale":"en","title":"Buzzing on Reddit","description":"See what's buzzing on Reddit in your native language","social":[{"name":"Reddit","url":"https://www.reddit.com/","external":true,"prefetch":null}],"menuLinks":[{"name":"Weekly Selection","url":"/issues","external":null,"prefetch":null},{"name":"RSS","url":"/rss.xml","external":null,"prefetch":false}]},{"locale":"zh-Hant","title":"Reddit 熱門","description":"用中文瀏覽Reddit熱門內容","social":null,"menuLinks":null}]}},"tagsGroup":{"group":[{"fieldValue":"ASK HN","totalCount":36},{"fieldValue":"Bitcoin","totalCount":4},{"fieldValue":"Hacker News","totalCount":2185},{"fieldValue":"Poll","totalCount":1},{"fieldValue":"SaveAMC","totalCount":1},{"fieldValue":"Show HN","totalCount":76},{"fieldValue":"bitcoin","totalCount":3},{"fieldValue":"investing","totalCount":686},{"fieldValue":"poll","totalCount":1},{"fieldValue":"reddit","totalCount":4012},{"fieldValue":"science","totalCount":1},{"fieldValue":"stocks","totalCount":1322},{"fieldValue":"story","totalCount":2184},{"fieldValue":"tweet","totalCount":697},{"fieldValue":"wallstreetbets","totalCount":2004}]},"allBlogPost":{"nodes":[{"__typename":"SocialMediaPost","id":"HnPost-26006731","excerpt":"","slug":"/hn/26006731","title":"Show HN: Archivy – Extensible Self Hosted Knowledge Base – v1 Release","date":"February 03, 2021","dateISO":"2021-02-03T16:47:25.900Z","datetime":"2021-02-03 16:47","tags":["story","Show HN","Hacker News"],"image":null,"imageAlt":null,"provider":"Hacker News","thirdPartyId":"26006731","url":"https://news.ycombinator.com/item?id=26006731","originalUrl":"https://archivy.github.io","imageRemote":"https://archivy.github.io/img/logo.png","video":null,"channel":"Show HN","channelUrl":"https://news.ycombinator.com/show","author":"etherio","authorUrl":"https://news.ycombinator.com/user?id=etherio","authorImage":null,"authorSlug":null,"score":173,"views":null,"sharedCount":null,"likeCount":null,"sharedContent":null,"parent":{"__typename":"HnJson","localize":[{"title":"显示 HN: Archivy - 可扩展的自助式知识库 - v1 版本","locale":"zh"},{"title":"顯示 HN: Archivy - 可擴展的自助式知識庫 - v1 版本","locale":"zh-Hant"}]}},{"__typename":"SocialMediaPost","id":"HnPost-26013715","excerpt":"","slug":"/hn/26013715","title":"Show HN: Haven – Run a private website to share with only the people you choose","date":"February 03, 2021","dateISO":"2021-02-03T16:47:25.900Z","datetime":"2021-02-03 16:47","tags":["story","Show HN","Hacker News"],"image":null,"imageAlt":null,"provider":"Hacker News","thirdPartyId":"26013715","url":"https://news.ycombinator.com/item?id=26013715","originalUrl":"https://havenweb.org/","imageRemote":"https://havenweb.org/undraw_content_creator_xeju.svg","video":null,"channel":"Show HN","channelUrl":"https://news.ycombinator.com/show","author":"mawise","authorUrl":"https://news.ycombinator.com/user?id=mawise","authorImage":null,"authorSlug":null,"score":534,"views":null,"sharedCount":null,"likeCount":null,"sharedContent":null,"parent":{"__typename":"HnJson","localize":[{"title":"显示HN：Haven - 运行一个私人网站，只与您选择的人分享。","locale":"zh"},{"title":"顯示HN：Haven - 運行一個私人網站，只與您選擇的人分享。","locale":"zh-Hant"}]}},{"__typename":"SocialMediaPost","id":"HnPost-25967641","excerpt":"","slug":"/hn/25967641","title":"Show HN: Collection of deep learning implementations with side-by-side notes","date":"January 30, 2021","dateISO":"2021-01-30T18:07:54.074Z","datetime":"2021-01-30 18:07","tags":["story","Show HN","Hacker News"],"image":null,"imageAlt":null,"provider":"Hacker News","thirdPartyId":"25967641","url":"https://news.ycombinator.com/item?id=25967641","originalUrl":"https://nn.labml.ai","imageRemote":"https://avatars1.githubusercontent.com/u/64068543?s=400&v=4","video":null,"channel":"Show HN","channelUrl":"https://news.ycombinator.com/show","author":"vpj","authorUrl":"https://news.ycombinator.com/user?id=vpj","authorImage":null,"authorSlug":null,"score":251,"views":null,"sharedCount":null,"likeCount":null,"sharedContent":null,"parent":{"__typename":"HnJson","localize":[{"title":"显示HN：深度学习实现的集合与侧记","locale":"zh"},{"title":"顯示HN：深度學習實現的集合與側記","locale":"zh-Hant"}]}},{"__typename":"SocialMediaPost","id":"HnPost-25948797","excerpt":"","slug":"/hn/25948797","title":"Show HN: A usable eBook reader inside a browser (azw3, mobi, ePub, pdf)","date":"January 29, 2021","dateISO":"2021-01-29T02:44:11.478Z","datetime":"2021-01-29 02:44","tags":["story","Show HN","Hacker News"],"image":null,"imageAlt":null,"provider":"Hacker News","thirdPartyId":"25948797","url":"https://news.ycombinator.com/item?id=25948797","originalUrl":"https://www.loudreader.com","imageRemote":null,"video":null,"channel":"Show HN","channelUrl":"https://news.ycombinator.com/show","author":"javapnews","authorUrl":"https://news.ycombinator.com/user?id=javapnews","authorImage":null,"authorSlug":null,"score":294,"views":null,"sharedCount":null,"likeCount":null,"sharedContent":null,"parent":{"__typename":"HnJson","localize":[{"title":"显示 HN：浏览器内的可用电子书阅读器 (azw3, mobi, ePub, pdf)","locale":"zh"},{"title":"顯示 HN：瀏覽器內的可用電子書閱讀器 (azw3, mobi, ePub, pdf)","locale":"zh-Hant"}]}},{"__typename":"SocialMediaPost","id":"HnPost-25936042","excerpt":"","slug":"/hn/25936042","title":"Show HN: Reddit Wallstreetbets Top Leaderboard","date":"January 28, 2021","dateISO":"2021-01-28T21:57:18.629Z","datetime":"2021-01-28 21:57","tags":["story","Show HN","Hacker News"],"image":null,"imageAlt":null,"provider":"Hacker News","thirdPartyId":"25936042","url":"https://news.ycombinator.com/item?id=25936042","originalUrl":"https://stonks.news/wsb/summary/","imageRemote":null,"video":null,"channel":"Show HN","channelUrl":"https://news.ycombinator.com/show","author":"vthallam","authorUrl":"https://news.ycombinator.com/user?id=vthallam","authorImage":null,"authorSlug":null,"score":234,"views":null,"sharedCount":null,"likeCount":null,"sharedContent":null,"parent":{"__typename":"HnJson","localize":[{"title":"显示HN：Reddit Wallstreetbets顶级排行榜。","locale":"zh"},{"title":"顯示HN：Reddit Wallstreetbets頂級排行榜。","locale":"zh-Hant"}]}},{"__typename":"SocialMediaPost","id":"HnPost-25892889","excerpt":"","slug":"/hn/25892889","title":"Show HN: Sokyokuban, a puzzle game in a non-Euclidian world","date":"January 25, 2021","dateISO":"2021-01-25T14:12:39.245Z","datetime":"2021-01-25 14:12","tags":["story","Show HN","Hacker News"],"image":null,"imageAlt":null,"provider":"Hacker News","thirdPartyId":"25892889","url":"https://news.ycombinator.com/item?id=25892889","originalUrl":"https://sokyokuban.com/","imageRemote":"https://sokyokuban.com/sculpture.38fd0393.png","video":null,"channel":"Show HN","channelUrl":"https://news.ycombinator.com/show","author":"jaspervdj","authorUrl":"https://news.ycombinator.com/user?id=jaspervdj","authorImage":null,"authorSlug":null,"score":167,"views":null,"sharedCount":null,"likeCount":null,"sharedContent":null,"parent":{"__typename":"HnJson","localize":[{"title":"展示HN：非欧几里得世界里的解谜游戏Sokyokuban。","locale":"zh"},{"title":"展示HN：非歐幾里得世界裏的解謎遊戲Sokyokuban。","locale":"zh-Hant"}]}},{"__typename":"SocialMediaPost","id":"HnPost-25889420","excerpt":"","slug":"/hn/25889420","title":"Show HN: Full text search Project Gutenberg (60m paragraphs)","date":"January 24, 2021","dateISO":"2021-01-24T19:30:30.343Z","datetime":"2021-01-24 19:30","tags":["story","Show HN","Hacker News"],"image":null,"imageAlt":null,"provider":"Hacker News","thirdPartyId":"25889420","url":"https://news.ycombinator.com/item?id=25889420","originalUrl":"https://gutensearch.com/","imageRemote":null,"video":null,"channel":"Show HN","channelUrl":"https://news.ycombinator.com/show","author":"gutensearch","authorUrl":"https://news.ycombinator.com/user?id=gutensearch","authorImage":null,"authorSlug":null,"score":173,"views":null,"sharedCount":null,"likeCount":null,"sharedContent":null,"parent":{"__typename":"HnJson","localize":[{"title":"显示HN：全文检索Project Gutenberg(60m段)","locale":"zh"},{"title":"顯示HN：全文檢索Project Gutenberg(60m段)","locale":"zh-Hant"}]}},{"__typename":"SocialMediaPost","id":"HnPost-25885760","excerpt":"","slug":"/hn/25885760","title":"Show HN: Filmulator – a streamlined, open-source raw photo editor","date":"January 24, 2021","dateISO":"2021-01-24T05:25:47.043Z","datetime":"2021-01-24 05:25","tags":["story","Show HN","Hacker News"],"image":null,"imageAlt":null,"provider":"Hacker News","thirdPartyId":"25885760","url":"https://news.ycombinator.com/item?id=25885760","originalUrl":"https://filmulator.org/v0-11-0/","imageRemote":"https://filmulator.org/images/filmulator512icon.png","video":null,"channel":"Show HN","channelUrl":"https://news.ycombinator.com/show","author":"CarVac","authorUrl":"https://news.ycombinator.com/user?id=CarVac","authorImage":null,"authorSlug":null,"score":174,"views":null,"sharedCount":null,"likeCount":null,"sharedContent":null,"parent":{"__typename":"HnJson","localize":[{"title":"显示HN：Filmulator--一个精简的、开源的原始照片编辑器。","locale":"zh"},{"title":"顯示HN：Filmulator--一個精簡的、開源的原始照片編輯器。","locale":"zh-Hant"}]}},{"__typename":"SocialMediaPost","id":"HnPost-25879238","excerpt":"","slug":"/hn/25879238","title":"Show HN: Rysolv – Fix open source issues, get paid","date":"January 23, 2021","dateISO":"2021-01-23T16:18:39.349Z","datetime":"2021-01-23 16:18","tags":["story","Show HN","Hacker News"],"image":null,"imageAlt":null,"provider":"Hacker News","thirdPartyId":"25879238","url":"https://news.ycombinator.com/item?id=25879238","originalUrl":"https://rysolv.com/issues","imageRemote":null,"video":null,"channel":"Show HN","channelUrl":"https://news.ycombinator.com/show","author":"themanmaran","authorUrl":"https://news.ycombinator.com/user?id=themanmaran","authorImage":null,"authorSlug":null,"score":203,"views":null,"sharedCount":null,"likeCount":null,"sharedContent":null,"parent":{"__typename":"HnJson","localize":[{"title":"显示HN：Rysolv - 修复开源问题，获得报酬。","locale":"zh"},{"title":"顯示HN：Rysolv - 修復開源問題，獲得報酬。","locale":"zh-Hant"}]}},{"__typename":"SocialMediaPost","id":"HnPost-25870482","excerpt":"","slug":"/hn/25870482","title":"Show HN: 128-bit, roughly-ordered, URL-safe UUIDs","date":"January 23, 2021","dateISO":"2021-01-23T04:04:32.275Z","datetime":"2021-01-23 04:04","tags":["story","Show HN","Hacker News"],"image":null,"imageAlt":null,"provider":"Hacker News","thirdPartyId":"25870482","url":"https://news.ycombinator.com/item?id=25870482","originalUrl":"https://github.com/anthonynsimon/timeflake","imageRemote":"https://avatars.githubusercontent.com/u/13251079?s=400&v=4","video":null,"channel":"Show HN","channelUrl":"https://news.ycombinator.com/show","author":"amzans","authorUrl":"https://news.ycombinator.com/user?id=amzans","authorImage":null,"authorSlug":null,"score":181,"views":null,"sharedCount":null,"likeCount":null,"sharedContent":null,"parent":{"__typename":"HnJson","localize":[{"title":"HN新产品：128位，粗略排序，URL安全的UUID。","locale":"zh"},{"title":"HN新產品：128位，粗略排序，URL安全的UUID。","locale":"zh-Hant"}]}},{"__typename":"SocialMediaPost","id":"HnPost-25872922","excerpt":"","slug":"/hn/25872922","title":"Show HN: Iconduck – 100k open source icons, downloadable and searchable","date":"January 22, 2021","dateISO":"2021-01-22T19:33:47.939Z","datetime":"2021-01-22 19:33","tags":["story","Show HN","Hacker News"],"image":null,"imageAlt":null,"provider":"Hacker News","thirdPartyId":"25872922","url":"https://news.ycombinator.com/item?id=25872922","originalUrl":"https://iconduck.com/","imageRemote":"https://iconduck.com/external/icons/static/images/og/fallback.png","video":null,"channel":"Show HN","channelUrl":"https://news.ycombinator.com/show","author":"onassar","authorUrl":"https://news.ycombinator.com/user?id=onassar","authorImage":null,"authorSlug":null,"score":233,"views":null,"sharedCount":null,"likeCount":null,"sharedContent":null,"parent":{"__typename":"HnJson","localize":[{"title":"HN新产品： Iconduck - 100k开源图标，可下载和搜索。","locale":"zh"},{"title":"HN新產品： Iconduck - 100k開源圖標，可下載和搜索。","locale":"zh-Hant"}]}},{"__typename":"SocialMediaPost","id":"HnPost-25848793","excerpt":"","slug":"/hn/25848793","title":"Show HN: A mindfulness based social network designed to be checked once a week","date":"January 21, 2021","dateISO":"2021-01-21T06:02:50.981Z","datetime":"2021-01-21 06:02","tags":["story","Show HN","Hacker News"],"image":null,"imageAlt":null,"provider":"Hacker News","thirdPartyId":"25848793","url":"https://news.ycombinator.com/item?id=25848793","originalUrl":"https://www.sundayy.app/","imageRemote":"https://www.sundayy.app/assets/meta_image-6ebe63a352870bc14e4f621164fa882fdf67e3787e56c9cdf5d6ca56f2d41faa.png","video":null,"channel":"Show HN","channelUrl":"https://news.ycombinator.com/show","author":"jillianschuller","authorUrl":"https://news.ycombinator.com/user?id=jillianschuller","authorImage":null,"authorSlug":null,"score":205,"views":null,"sharedCount":null,"likeCount":null,"sharedContent":null,"parent":{"__typename":"HnJson","localize":[{"title":"HN新产品：一个基于心态的社交网络，旨在每周检查一次。","locale":"zh"},{"title":"HN新產品：一個基於心態的社交網絡，旨在每週檢查一次。","locale":"zh-Hant"}]}},{"__typename":"SocialMediaPost","id":"HnPost-25848278","excerpt":"","slug":"/hn/25848278","title":"Show HN: Beeper – All Your Chats in One App","date":"January 20, 2021","dateISO":"2021-01-20T19:49:31.541Z","datetime":"2021-01-20 19:49","tags":["story","Show HN","Hacker News"],"image":null,"imageAlt":null,"provider":"Hacker News","thirdPartyId":"25848278","url":"https://news.ycombinator.com/item?id=25848278","originalUrl":"https://www.beeperhq.com/?hn","imageRemote":"https://uploads-ssl.webflow.com/5ffc199ed786423eb2569667/60085426880a0ada43c6f2b7_opengraph.png","video":null,"channel":"Show HN","channelUrl":"https://news.ycombinator.com/show","author":"erohead","authorUrl":"https://news.ycombinator.com/user?id=erohead","authorImage":null,"authorSlug":null,"score":877,"views":null,"sharedCount":null,"likeCount":null,"sharedContent":null,"parent":{"__typename":"HnJson","localize":[{"title":"","locale":"zh"},{"title":"","locale":"zh-Hant"}]}},{"__typename":"SocialMediaPost","id":"HnPost-25846347","excerpt":"","slug":"/hn/25846347","title":"Show HN: I built an online interactive course that helps you learn vim faster","date":"January 20, 2021","dateISO":"2021-01-20T16:32:56.458Z","datetime":"2021-01-20 16:32","tags":["story","Show HN","Hacker News"],"image":null,"imageAlt":null,"provider":"Hacker News","thirdPartyId":"25846347","url":"https://news.ycombinator.com/item?id=25846347","originalUrl":"https://www.vim.so","imageRemote":"https://www.vim.so/meta_image.png","video":null,"channel":"Show HN","channelUrl":"https://news.ycombinator.com/show","author":"CoffeePython","authorUrl":"https://news.ycombinator.com/user?id=CoffeePython","authorImage":null,"authorSlug":null,"score":641,"views":null,"sharedCount":null,"likeCount":null,"sharedContent":null,"parent":{"__typename":"HnJson","localize":[{"title":"HN新产品：我建立了一个在线互动课程，帮助你更快地学习vim。","locale":"zh"},{"title":"HN新產品：我建立了一個在線互動課程，幫助你更快地學習vim。","locale":"zh-Hant"}]}},{"__typename":"SocialMediaPost","id":"HnPost-25836395","excerpt":"","slug":"/hn/25836395","title":"Show HN: Virtual breadboard in the browser, inspired by Ben Eater's 6502","date":"January 20, 2021","dateISO":"2021-01-20T01:52:29.536Z","datetime":"2021-01-20 01:52","tags":["story","Show HN","Hacker News"],"image":null,"imageAlt":null,"provider":"Hacker News","thirdPartyId":"25836395","url":"https://news.ycombinator.com/item?id=25836395","originalUrl":"https://www.tejotron.com/","imageRemote":null,"video":null,"channel":"Show HN","channelUrl":"https://news.ycombinator.com/show","author":"Tejotron","authorUrl":"https://news.ycombinator.com/user?id=Tejotron","authorImage":null,"authorSlug":null,"score":401,"views":null,"sharedCount":null,"likeCount":null,"sharedContent":null,"parent":{"__typename":"HnJson","localize":[{"title":"HN新产品：浏览器中的虚拟面包板，灵感来自Ben Eater的6502。","locale":"zh"},{"title":"HN新產品：瀏覽器中的虛擬麪包板，靈感來自Ben Eater的6502。","locale":"zh-Hant"}]}},{"__typename":"SocialMediaPost","id":"HnPost-25821873","excerpt":"","slug":"/hn/25821873","title":"Show HN: Compare prices that US hospitals charge patients and insurance co's","date":"January 18, 2021","dateISO":"2021-01-18T17:54:28.793Z","datetime":"2021-01-18 17:54","tags":["story","Show HN","Hacker News"],"image":null,"imageAlt":null,"provider":"Hacker News","thirdPartyId":"25821873","url":"https://news.ycombinator.com/item?id=25821873","originalUrl":"https://turquoise.health/","imageRemote":"https://turquoise.health/static/images/logo.4d5f83c2f008.svg","video":null,"channel":"Show HN","channelUrl":"https://news.ycombinator.com/show","author":"ageitgey","authorUrl":"https://news.ycombinator.com/user?id=ageitgey","authorImage":null,"authorSlug":null,"score":445,"views":null,"sharedCount":null,"likeCount":null,"sharedContent":null,"parent":{"__typename":"HnJson","localize":[{"title":"HN新产品： 比较美国医院对患者和保险公司的收费价格。","locale":"zh"},{"title":"HN新產品： 比較美國醫院對患者和保險公司的收費價格。","locale":"zh-Hant"}]}},{"__typename":"SocialMediaPost","id":"HnPost-25786640","excerpt":"","slug":"/hn/25786640","title":"Show HN: Vmctl/Vmcli – Easily Run Linux VMs on M1 Macs","date":"January 17, 2021","dateISO":"2021-01-17T05:14:39.170Z","datetime":"2021-01-17 05:14","tags":["story","Show HN","Hacker News"],"image":null,"imageAlt":null,"provider":"Hacker News","thirdPartyId":"25786640","url":"https://news.ycombinator.com/item?id=25786640","originalUrl":"https://github.com/gyf304/vmcli","imageRemote":"https://avatars0.githubusercontent.com/u/7296537?s=400&v=4","video":null,"channel":"Show HN","channelUrl":"https://news.ycombinator.com/show","author":"gyf304","authorUrl":"https://news.ycombinator.com/user?id=gyf304","authorImage":null,"authorSlug":null,"score":198,"views":null,"sharedCount":null,"likeCount":null,"sharedContent":null,"parent":{"__typename":"HnJson","localize":[{"title":"HN新产品： Vmctl/Vmcli - 在M1 Mac上轻松运行Linux虚拟机。","locale":"zh"},{"title":"HN新產品： Vmctl/Vmcli - 在M1 Mac上輕鬆運行Linux虛擬機。","locale":"zh-Hant"}]}},{"__typename":"SocialMediaPost","id":"HnPost-25750807","excerpt":"","slug":"/hn/25750807","title":"Show HN: Vantage – An alternative AWS console focused on developer experience","date":"January 13, 2021","dateISO":"2021-01-13T09:58:11.490Z","datetime":"2021-01-13 09:58","tags":["story","Show HN","Hacker News"],"image":null,"imageAlt":null,"provider":"Hacker News","thirdPartyId":"25750807","url":"https://news.ycombinator.com/item?id=25750807","originalUrl":"https://www.vantage.sh/","imageRemote":"https://uploads-ssl.webflow.com/5f9ba05ba40d6414f341df34/5ffce71e4734200665f6f876_Vantage.svg","video":null,"channel":"Show HN","channelUrl":"https://news.ycombinator.com/show","author":"StratusBen","authorUrl":"https://news.ycombinator.com/user?id=StratusBen","authorImage":null,"authorSlug":null,"score":221,"views":null,"sharedCount":null,"likeCount":null,"sharedContent":null,"parent":{"__typename":"HnJson","localize":[{"title":"HN新产品：Vantage - 一个专注于开发者体验的替代性AWS控制台。","locale":"zh"},{"title":"HN新產品：Vantage - 一個專注於開發者體驗的替代性AWS控制檯。","locale":"zh-Hant"}]}},{"__typename":"SocialMediaPost","id":"HnPost-25749492","excerpt":"","slug":"/hn/25749492","title":"Show HN: Amplication – Instantly Generate Node.js Apps with GraphQL and REST API","date":"January 13, 2021","dateISO":"2021-01-13T01:55:07.168Z","datetime":"2021-01-13 01:55","tags":["story","Show HN","Hacker News"],"image":null,"imageAlt":null,"provider":"Hacker News","thirdPartyId":"25749492","url":"https://news.ycombinator.com/item?id=25749492","originalUrl":"https://github.com/amplication/amplication","imageRemote":"https://repository-images.githubusercontent.com/262862475/89475900-2730-11eb-8f1f-bdb1b9648403","video":null,"channel":"Show HN","channelUrl":"https://news.ycombinator.com/show","author":"yuvalhazaz","authorUrl":"https://news.ycombinator.com/user?id=yuvalhazaz","authorImage":null,"authorSlug":null,"score":270,"views":null,"sharedCount":null,"likeCount":null,"sharedContent":null,"parent":{"__typename":"HnJson","localize":[{"title":"HN新产品：Amplication - 使用GraphQL和REST API即时生成Node.js应用。","locale":"zh"},{"title":"HN新產品：Amplication - 使用GraphQL和REST API即時生成Node.js應用。","locale":"zh-Hant"}]}},{"__typename":"SocialMediaPost","id":"HnPost-25713858","excerpt":"","slug":"/hn/25713858","title":"Show HN: Using flamegraphs to read big HN threads","date":"January 11, 2021","dateISO":"2021-01-11T14:46:22.997Z","datetime":"2021-01-11 14:46","tags":["story","Show HN","Hacker News"],"image":null,"imageAlt":null,"provider":"Hacker News","thirdPartyId":"25713858","url":"https://news.ycombinator.com/item?id=25713858","originalUrl":"https://trungdq88.github.io/hn-big-threads/index.html","imageRemote":null,"video":null,"channel":"Show HN","channelUrl":"https://news.ycombinator.com/show","author":"trungdq88","authorUrl":"https://news.ycombinator.com/user?id=trungdq88","authorImage":null,"authorSlug":null,"score":247,"views":null,"sharedCount":null,"likeCount":null,"sharedContent":null,"parent":{"__typename":"HnJson","localize":[{"title":"HN新产品：使用火焰记录仪读取大型HN线程","locale":"zh"},{"title":"HN新產品：使用火焰記錄儀讀取大型HN線程","locale":"zh-Hant"}]}},{"__typename":"SocialMediaPost","id":"HnPost-25677272","excerpt":"","slug":"/hn/25677272","title":"Show HN: I built a 4kb alternative to React, Vue, etc for building web UIs.","date":"January 08, 2021","dateISO":"2021-01-08T07:14:36.254Z","datetime":"2021-01-08 07:14","tags":["story","Show HN","Hacker News"],"image":null,"imageAlt":null,"provider":"Hacker News","thirdPartyId":"25677272","url":"https://news.ycombinator.com/item?id=25677272","originalUrl":"https://synergyjs.org","imageRemote":null,"video":null,"channel":"Show HN","channelUrl":"https://news.ycombinator.com/show","author":"defx","authorUrl":"https://news.ycombinator.com/user?id=defx","authorImage":null,"authorSlug":null,"score":341,"views":null,"sharedCount":null,"likeCount":null,"sharedContent":null,"parent":{"__typename":"HnJson","localize":[{"title":"HN新产品：我构建了一个4KB的替代方案来构建WebUI，用于Reaction、Vue等。","locale":"zh"},{"title":"HN新產品：我構建了一個4KB的替代方案來構建WebUI，用於Reaction、Vue等。","locale":"zh-Hant"}]}},{"__typename":"SocialMediaPost","id":"HnPost-25657198","excerpt":"","slug":"/hn/25657198","title":"Show HN: I built the antithesis of Zoom. Add GIFs, stickers, BGs. Talk like IRL","date":"January 06, 2021","dateISO":"2021-01-06T23:07:35.029Z","datetime":"2021-01-06 23:07","tags":["story","Show HN","Hacker News"],"image":null,"imageAlt":null,"provider":"Hacker News","thirdPartyId":"25657198","url":"https://news.ycombinator.com/item?id=25657198","originalUrl":"https://reslash.co","imageRemote":"https://lh3.googleusercontent.com/PqDSh8jsRBkIXSVia7c2ApjQe8H-NqMZUH_g-GDw-U4phh5Ce3lSOIiVWMZarby8BItOmiqU1sxKAevJtiRX=s0","video":null,"channel":"Show HN","channelUrl":"https://news.ycombinator.com/show","author":"remotelyyours","authorUrl":"https://news.ycombinator.com/user?id=remotelyyours","authorImage":null,"authorSlug":null,"score":262,"views":null,"sharedCount":null,"likeCount":null,"sharedContent":null,"parent":{"__typename":"HnJson","localize":[{"title":"HN新产品：我建立了缩放的对立面。添加GIF、贴纸、BGS。像现实中的我那样说话","locale":"zh"},{"title":"HN新產品：我建立了縮放的對立面。添加GIF、貼紙、BGS。像現實中的我那樣說話","locale":"zh-Hant"}]}},{"__typename":"SocialMediaPost","id":"HnPost-25627673","excerpt":"","slug":"/hn/25627673","title":"Show HN: Lightspeed – subsecond, open source, self hosted stream from OBS","date":"January 06, 2021","dateISO":"2021-01-06T09:56:27.782Z","datetime":"2021-01-06 09:56","tags":["story","Show HN","Hacker News"],"image":null,"imageAlt":null,"provider":"Hacker News","thirdPartyId":"25627673","url":"https://news.ycombinator.com/item?id=25627673","originalUrl":"https://github.com/GRVYDEV/Project-Lightspeed","imageRemote":"https://avatars1.githubusercontent.com/u/35381942?s=400&v=4","video":null,"channel":"Show HN","channelUrl":"https://news.ycombinator.com/show","author":"GRVYDEV","authorUrl":"https://news.ycombinator.com/user?id=GRVYDEV","authorImage":null,"authorSlug":null,"score":449,"views":null,"sharedCount":null,"likeCount":null,"sharedContent":null,"parent":{"__typename":"HnJson","localize":[{"title":"HN新产品：光速-亚秒级、开源、来自OBS的自托管流","locale":"zh"},{"title":"HN新產品：光速-亞秒級、開源、來自OBS的自託管流","locale":"zh-Hant"}]}},{"__typename":"SocialMediaPost","id":"HnPost-25644828","excerpt":"","slug":"/hn/25644828","title":"Show HN: Unclack – a macOS app that auto-mutes your keyboard","date":"January 05, 2021","dateISO":"2021-01-05T18:12:16.890Z","datetime":"2021-01-05 18:12","tags":["story","Show HN","Hacker News"],"image":null,"imageAlt":null,"provider":"Hacker News","thirdPartyId":"25644828","url":"https://news.ycombinator.com/item?id=25644828","originalUrl":"https://unclack.app","imageRemote":"https://unclack.app/images/logo.png","video":null,"channel":"Show HN","channelUrl":"https://news.ycombinator.com/show","author":"robotsquidward","authorUrl":"https://news.ycombinator.com/user?id=robotsquidward","authorImage":null,"authorSlug":null,"score":277,"views":null,"sharedCount":null,"likeCount":null,"sharedContent":null,"parent":{"__typename":"HnJson","localize":[{"title":"HN新产品：Unclack-一款MacOS应用程序，可以自动将键盘静音","locale":"zh"},{"title":"HN新產品：Unclack-一款MacOS應用程序，可以自動將鍵盤靜音","locale":"zh-Hant"}]}},{"__typename":"SocialMediaPost","id":"HnPost-25641420","excerpt":"","slug":"/hn/25641420","title":"Show HN: Handel – A procedural programming language for writing songs in browser","date":"January 05, 2021","dateISO":"2021-01-05T17:09:01.959Z","datetime":"2021-01-05 17:09","tags":["story","Show HN","Hacker News"],"image":null,"imageAlt":null,"provider":"Hacker News","thirdPartyId":"25641420","url":"https://news.ycombinator.com/item?id=25641420","originalUrl":"https://handel-pl.github.io","imageRemote":null,"video":null,"channel":"Show HN","channelUrl":"https://news.ycombinator.com/show","author":"ddj231","authorUrl":"https://news.ycombinator.com/user?id=ddj231","authorImage":null,"authorSlug":null,"score":186,"views":null,"sharedCount":null,"likeCount":null,"sharedContent":null,"parent":{"__typename":"HnJson","localize":[{"title":"HN新产品：HANDELL-一种在浏览器中编写歌曲的过程化编程语言","locale":"zh"},{"title":"HN新產品：HANDELL-一種在瀏覽器中編寫歌曲的過程化編程語言","locale":"zh-Hant"}]}}]}},"pageContext":{"basePath":"/","pageType":"tag","tag":"Show HN","tagsFilter":{"id":{"glob":"!*Post-1"}},"filter":{"id":{"glob":"!*Post-1"},"tags":{"eq":"Show HN"}},"limit":25,"skip":25,"total":76,"totalPages":4,"currentPage":2,"maxWidth":1024,"maxHeight":512,"locale":"zh","hrefLang":"zh-Hans","originalPath":"/tags/show-hn/page/2","dateFormat":"YYYY-MM-DD"}},"staticQueryHashes":["1239077767","2506312863","2744905544","3025052997","3493603132","3493603132","3513215887","386998304"]}