{"componentChunkName":"component---gatsby-theme-buzzing-src-gatsby-theme-timeline-templates-posts-query-js","path":"/en/tags/hacker-news/page/43","result":{"data":{"site":{"siteMetadata":{"title":"Reddit 热门","description":"用中文浏览Reddit热门内容","social":[{"name":"Twitter","url":"https://twitter.com/gatsbyjs","external":null,"prefetch":null},{"name":"GitHub","url":"https://github.com/gatsbyjs","external":null,"prefetch":null}],"menuLinks":[],"localize":[{"locale":"en","title":"Buzzing on Reddit","description":"See what's buzzing on Reddit in your native language","social":[{"name":"Reddit","url":"https://www.reddit.com/","external":true,"prefetch":null}],"menuLinks":[{"name":"Weekly Selection","url":"/issues","external":null,"prefetch":null},{"name":"RSS","url":"/rss.xml","external":null,"prefetch":false}]},{"locale":"zh-Hant","title":"Reddit 熱門","description":"用中文瀏覽Reddit熱門內容","social":null,"menuLinks":null}]}},"tagsGroup":{"group":[{"fieldValue":"ASK HN","totalCount":36},{"fieldValue":"Bitcoin","totalCount":4},{"fieldValue":"Hacker News","totalCount":2185},{"fieldValue":"Poll","totalCount":1},{"fieldValue":"SaveAMC","totalCount":1},{"fieldValue":"Show HN","totalCount":76},{"fieldValue":"bitcoin","totalCount":3},{"fieldValue":"investing","totalCount":686},{"fieldValue":"poll","totalCount":1},{"fieldValue":"reddit","totalCount":4012},{"fieldValue":"science","totalCount":1},{"fieldValue":"stocks","totalCount":1322},{"fieldValue":"story","totalCount":2184},{"fieldValue":"tweet","totalCount":697},{"fieldValue":"wallstreetbets","totalCount":2004}]},"allBlogPost":{"nodes":[{"__typename":"SocialMediaPost","id":"HnPost-25876699","excerpt":"","slug":"/hn/25876699","title":"Facebook shuts down the Socialist Workers Party in Britain","date":"January 23, 2021","dateISO":"2021-01-23T04:04:32.275Z","datetime":"2021-01-23 04:04","tags":["story","Hacker News"],"image":null,"imageAlt":null,"provider":"Hacker News","thirdPartyId":"25876699","url":"https://news.ycombinator.com/item?id=25876699","originalUrl":"https://swp.org.uk/press-release-facebook-shuts-down-major-left-wing-group-in-britain/","imageRemote":"https://swp.org.uk/wp-content/uploads/image0-3b.jpg","video":null,"channel":null,"channelUrl":null,"author":"jimmy2020","authorUrl":"https://news.ycombinator.com/user?id=jimmy2020","authorImage":null,"authorSlug":null,"score":257,"views":null,"sharedCount":null,"likeCount":null,"sharedContent":null,"parent":{"__typename":"HnJson","localize":[{"title":"脸书关闭英国社会主义工人党。","locale":"zh"},{"title":"臉書關閉英國社會主義工人黨。","locale":"zh-Hant"}]}},{"__typename":"SocialMediaPost","id":"HnPost-25876767","excerpt":"","slug":"/hn/25876767","title":"Brad Cox has died","date":"January 23, 2021","dateISO":"2021-01-23T04:04:32.275Z","datetime":"2021-01-23 04:04","tags":["story","Hacker News"],"image":null,"imageAlt":null,"provider":"Hacker News","thirdPartyId":"25876767","url":"https://news.ycombinator.com/item?id=25876767","originalUrl":"https://www.legacy.com/us/obituaries/scnow/name/brad-cox-obituary?pid=197454225","imageRemote":null,"video":null,"channel":null,"channelUrl":null,"author":"carlosrg","authorUrl":"https://news.ycombinator.com/user?id=carlosrg","authorImage":null,"authorSlug":null,"score":512,"views":null,"sharedCount":null,"likeCount":null,"sharedContent":null,"parent":{"__typename":"HnJson","localize":[{"title":"Brad Cox死了","locale":"zh"},{"title":"Brad Cox死了","locale":"zh-Hant"}]}},{"__typename":"SocialMediaPost","id":"HnPost-25877059","excerpt":"","slug":"/hn/25877059","title":"One hull crack located in ISS, another one suspected","date":"January 23, 2021","dateISO":"2021-01-23T04:04:32.275Z","datetime":"2021-01-23 04:04","tags":["story","Hacker News"],"image":null,"imageAlt":null,"provider":"Hacker News","thirdPartyId":"25877059","url":"https://news.ycombinator.com/item?id=25877059","originalUrl":"https://tass.com/science/1247847","imageRemote":"https://phototass2.cdnvideo.ru/width/1200_4ce85301/tass/m2/en/uploads/i/20210122/1300487.jpg","video":null,"channel":null,"channelUrl":null,"author":"revicon","authorUrl":"https://news.ycombinator.com/user?id=revicon","authorImage":null,"authorSlug":null,"score":197,"views":null,"sharedCount":null,"likeCount":null,"sharedContent":null,"parent":{"__typename":"HnJson","localize":[{"title":"国际空间站发现一条船体裂缝，另一条疑似裂缝。","locale":"zh"},{"title":"國際空間站發現一條船體裂縫，另一條疑似裂縫。","locale":"zh-Hant"}]}},{"__typename":"SocialMediaPost","id":"HnPost-25871605","excerpt":"","slug":"/hn/25871605","title":"Rqlite: The lightweight, distributed relational database built on SQLite","date":"January 22, 2021","dateISO":"2021-01-22T22:15:58.339Z","datetime":"2021-01-22 22:15","tags":["story","Hacker News"],"image":null,"imageAlt":null,"provider":"Hacker News","thirdPartyId":"25871605","url":"https://news.ycombinator.com/item?id=25871605","originalUrl":"https://github.com/rqlite/rqlite","imageRemote":"https://avatars.githubusercontent.com/u/18683023?s=400&v=4","video":null,"channel":null,"channelUrl":null,"author":"pavanyara","authorUrl":"https://news.ycombinator.com/user?id=pavanyara","authorImage":null,"authorSlug":null,"score":162,"views":null,"sharedCount":null,"likeCount":null,"sharedContent":null,"parent":{"__typename":"HnJson","localize":[{"title":"Rqlite。基于SQLite的轻量级分布式关系数据库","locale":"zh"},{"title":"Rqlite。基於SQLite的輕量級分佈式關係數據庫","locale":"zh-Hant"}]}},{"__typename":"SocialMediaPost","id":"HnPost-25869460","excerpt":"","slug":"/hn/25869460","title":"Why webcams aren’t good enough","date":"January 22, 2021","dateISO":"2021-01-22T21:42:32.444Z","datetime":"2021-01-22 21:42","tags":["story","Hacker News"],"image":null,"imageAlt":null,"provider":"Hacker News","thirdPartyId":"25869460","url":"https://news.ycombinator.com/item?id=25869460","originalUrl":"https://reincubate.com/support/how-to/why-are-webcams-bad/","imageRemote":"https://i.reincubate.com/c/webcams-are-bad.png","video":null,"channel":null,"channelUrl":null,"author":"rcarmo","authorUrl":"https://news.ycombinator.com/user?id=rcarmo","authorImage":null,"authorSlug":null,"score":165,"views":null,"sharedCount":null,"likeCount":null,"sharedContent":null,"parent":{"__typename":"HnJson","localize":[{"title":"为什么网络摄像头不够好","locale":"zh"},{"title":"爲什麼網絡攝像頭不夠好","locale":"zh-Hant"}]}},{"__typename":"SocialMediaPost","id":"HnPost-25871990","excerpt":"","slug":"/hn/25871990","title":"Raspberry Pi Enters Microcontroller Game with $4 Pico","date":"January 22, 2021","dateISO":"2021-01-22T21:04:07.237Z","datetime":"2021-01-22 21:04","tags":["story","Hacker News"],"image":null,"imageAlt":null,"provider":"Hacker News","thirdPartyId":"25871990","url":"https://news.ycombinator.com/item?id=25871990","originalUrl":"https://hackaday.com/2021/01/20/raspberry-pi-enters-microcontroller-game-with-4-pico/","imageRemote":"https://hackaday.com/wp-content/uploads/2021/01/DSCF2185_featured.png","video":null,"channel":null,"channelUrl":null,"author":"dwpdwpdwpdwpdwp","authorUrl":"https://news.ycombinator.com/user?id=dwpdwpdwpdwpdwp","authorImage":null,"authorSlug":null,"score":175,"views":null,"sharedCount":null,"likeCount":null,"sharedContent":null,"parent":{"__typename":"HnJson","localize":[{"title":"树莓派以4美元Pico进入微控制器游戏","locale":"zh"},{"title":"樹莓派以4美元Pico進入微控制器遊戲","locale":"zh-Hant"}]}},{"__typename":"SocialMediaPost","id":"HnPost-25874497","excerpt":"","slug":"/hn/25874497","title":"First-ever atomic resolution video of salt crystals forming in real time","date":"January 22, 2021","dateISO":"2021-01-22T21:04:07.237Z","datetime":"2021-01-22 21:04","tags":["story","Hacker News"],"image":null,"imageAlt":null,"provider":"Hacker News","thirdPartyId":"25874497","url":"https://news.ycombinator.com/item?id=25874497","originalUrl":"https://www.u-tokyo.ac.jp/focus/en/press/z0508_00161.html","imageRemote":"https://www.u-tokyo.ac.jp/content/400152886.png","video":null,"channel":null,"channelUrl":null,"author":"rbanffy","authorUrl":"https://news.ycombinator.com/user?id=rbanffy","authorImage":null,"authorSlug":null,"score":187,"views":null,"sharedCount":null,"likeCount":null,"sharedContent":null,"parent":{"__typename":"HnJson","localize":[{"title":"有史以来第一段盐晶体实时形成的原子分辨率视频。","locale":"zh"},{"title":"有史以來第一段鹽晶體實時形成的原子分辨率視頻。","locale":"zh-Hant"}]}},{"__typename":"SocialMediaPost","id":"HnPost-25859588","excerpt":"","slug":"/hn/25859588","title":"VSCode, Dev Containers and Docker","date":"January 22, 2021","dateISO":"2021-01-22T19:33:47.939Z","datetime":"2021-01-22 19:33","tags":["story","Hacker News"],"image":null,"imageAlt":null,"provider":"Hacker News","thirdPartyId":"25859588","url":"https://news.ycombinator.com/item?id=25859588","originalUrl":"https://blog.feabhas.com/2021/01/vscode-dev-containers-and-docker-moving-software-development-forward/","imageRemote":"https://blog.feabhas.com/wp-content/uploads/2021/01/open-in-devcontainer-1024x874.png","video":null,"channel":null,"channelUrl":null,"author":"ingve","authorUrl":"https://news.ycombinator.com/user?id=ingve","authorImage":null,"authorSlug":null,"score":163,"views":null,"sharedCount":null,"likeCount":null,"sharedContent":null,"parent":{"__typename":"HnJson","localize":[{"title":"VSCode，开发容器和Docker。","locale":"zh"},{"title":"VSCode，開發容器和Docker。","locale":"zh-Hant"}]}},{"__typename":"SocialMediaPost","id":"HnPost-25868742","excerpt":"","slug":"/hn/25868742","title":"Tales of Favicons and Caches: Persistent Tracking in Modern Browsers [pdf]","date":"January 22, 2021","dateISO":"2021-01-22T19:33:47.939Z","datetime":"2021-01-22 19:33","tags":["story","Hacker News"],"image":null,"imageAlt":null,"provider":"Hacker News","thirdPartyId":"25868742","url":"https://news.ycombinator.com/item?id=25868742","originalUrl":"https://www.cs.uic.edu/~polakis/papers/solomos-ndss21.pdf","imageRemote":null,"video":null,"channel":null,"channelUrl":null,"author":"amenghra","authorUrl":"https://news.ycombinator.com/user?id=amenghra","authorImage":null,"authorSlug":null,"score":161,"views":null,"sharedCount":null,"likeCount":null,"sharedContent":null,"parent":{"__typename":"HnJson","localize":[{"title":"法宝和藏品的故事。现代浏览器中的持久跟踪 [pdf]","locale":"zh"},{"title":"法寶和藏品的故事。現代瀏覽器中的持久跟蹤 [pdf]","locale":"zh-Hant"}]}},{"__typename":"SocialMediaPost","id":"HnPost-25869918","excerpt":"","slug":"/hn/25869918","title":"Android Ported to RISC-V","date":"January 22, 2021","dateISO":"2021-01-22T19:33:47.939Z","datetime":"2021-01-22 19:33","tags":["story","Hacker News"],"image":null,"imageAlt":null,"provider":"Hacker News","thirdPartyId":"25869918","url":"https://news.ycombinator.com/item?id=25869918","originalUrl":"https://www.theregister.com/2021/01/21/android_riscv_port/","imageRemote":"https://regmedia.co.uk/2021/01/21/shutterstock_risc.jpg","video":null,"channel":null,"channelUrl":null,"author":"phkahler","authorUrl":"https://news.ycombinator.com/user?id=phkahler","authorImage":null,"authorSlug":null,"score":167,"views":null,"sharedCount":null,"likeCount":null,"sharedContent":null,"parent":{"__typename":"HnJson","localize":[{"title":"Android移植到RISC-V上","locale":"zh"},{"title":"Android移植到RISC-V上","locale":"zh-Hant"}]}},{"__typename":"SocialMediaPost","id":"HnPost-25871787","excerpt":"","slug":"/hn/25871787","title":"Remembering Windows 3.1 themes and user empowerment","date":"January 22, 2021","dateISO":"2021-01-22T19:33:47.939Z","datetime":"2021-01-22 19:33","tags":["story","Hacker News"],"image":null,"imageAlt":null,"provider":"Hacker News","thirdPartyId":"25871787","url":"https://news.ycombinator.com/item?id=25871787","originalUrl":"https://hisham.hm/2019/07/26/remembering-windows-31-themes-and-user-empowerment/","imageRemote":"https://hisham.hm/img/logo-sq.png","video":null,"channel":null,"channelUrl":null,"author":"ingve","authorUrl":"https://news.ycombinator.com/user?id=ingve","authorImage":null,"authorSlug":null,"score":200,"views":null,"sharedCount":null,"likeCount":null,"sharedContent":null,"parent":{"__typename":"HnJson","localize":[{"title":"记Windows3.1主题和用户授权情况","locale":"zh"},{"title":"記Windows3.1主題和用戶授權情況","locale":"zh-Hant"}]}},{"__typename":"SocialMediaPost","id":"HnPost-25872525","excerpt":"","slug":"/hn/25872525","title":"Pidgin – A Universal Chat Client","date":"January 22, 2021","dateISO":"2021-01-22T19:33:47.939Z","datetime":"2021-01-22 19:33","tags":["story","Hacker News"],"image":null,"imageAlt":null,"provider":"Hacker News","thirdPartyId":"25872525","url":"https://news.ycombinator.com/item?id=25872525","originalUrl":"https://www.pidgin.im/plugins","imageRemote":"https://pidgin.im/images/pidgin-circle-256.png","video":null,"channel":null,"channelUrl":null,"author":"smusamashah","authorUrl":"https://news.ycombinator.com/user?id=smusamashah","authorImage":null,"authorSlug":null,"score":383,"views":null,"sharedCount":null,"likeCount":null,"sharedContent":null,"parent":{"__typename":"HnJson","localize":[{"title":"Pidgin - 一个通用的聊天客户端","locale":"zh"},{"title":"Pidgin - 一個通用的聊天客戶端","locale":"zh-Hant"}]}},{"__typename":"SocialMediaPost","id":"HnPost-25872922","excerpt":"","slug":"/hn/25872922","title":"Show HN: Iconduck – 100k open source icons, downloadable and searchable","date":"January 22, 2021","dateISO":"2021-01-22T19:33:47.939Z","datetime":"2021-01-22 19:33","tags":["story","Show HN","Hacker News"],"image":null,"imageAlt":null,"provider":"Hacker News","thirdPartyId":"25872922","url":"https://news.ycombinator.com/item?id=25872922","originalUrl":"https://iconduck.com/","imageRemote":"https://iconduck.com/external/icons/static/images/og/fallback.png","video":null,"channel":"Show HN","channelUrl":"https://news.ycombinator.com/show","author":"onassar","authorUrl":"https://news.ycombinator.com/user?id=onassar","authorImage":null,"authorSlug":null,"score":233,"views":null,"sharedCount":null,"likeCount":null,"sharedContent":null,"parent":{"__typename":"HnJson","localize":[{"title":"HN新产品： Iconduck - 100k开源图标，可下载和搜索。","locale":"zh"},{"title":"HN新產品： Iconduck - 100k開源圖標，可下載和搜索。","locale":"zh-Hant"}]}},{"__typename":"SocialMediaPost","id":"HnPost-25873095","excerpt":"","slug":"/hn/25873095","title":"Audi announces end of combustion A4, A6 and A8 models","date":"January 22, 2021","dateISO":"2021-01-22T19:33:47.939Z","datetime":"2021-01-22 19:33","tags":["story","Hacker News"],"image":null,"imageAlt":null,"provider":"Hacker News","thirdPartyId":"25873095","url":"https://news.ycombinator.com/item?id=25873095","originalUrl":"https://www.electrive.com/2021/01/22/audi-announces-end-of-combustion-a4-a6-a8-models/","imageRemote":"https://www.electrive.com/wp-content/uploads/2021/01/audi-a4-a6-a8-collage-min.png","video":null,"channel":null,"channelUrl":null,"author":"reddotX","authorUrl":"https://news.ycombinator.com/user?id=reddotX","authorImage":null,"authorSlug":null,"score":259,"views":null,"sharedCount":null,"likeCount":null,"sharedContent":null,"parent":{"__typename":"HnJson","localize":[{"title":"奥迪宣布结束内燃式A4、A6和A8车型的研发工作","locale":"zh"},{"title":"奧迪宣佈結束內燃式A4、A6和A8車型的研發工作","locale":"zh-Hant"}]}},{"__typename":"SocialMediaPost","id":"HnPost-25873887","excerpt":"","slug":"/hn/25873887","title":"Dissecting the Apple M1 GPU, Part II","date":"January 22, 2021","dateISO":"2021-01-22T19:33:47.939Z","datetime":"2021-01-22 19:33","tags":["story","Hacker News"],"image":null,"imageAlt":null,"provider":"Hacker News","thirdPartyId":"25873887","url":"https://news.ycombinator.com/item?id=25873887","originalUrl":"https://rosenzweig.io/blog/asahi-gpu-part-2.html","imageRemote":"https://rosenzweig.io/M1HelloTriangle.png","video":null,"channel":null,"channelUrl":null,"author":"dddddaviddddd","authorUrl":"https://news.ycombinator.com/user?id=dddddaviddddd","authorImage":null,"authorSlug":null,"score":187,"views":null,"sharedCount":null,"likeCount":null,"sharedContent":null,"parent":{"__typename":"HnJson","localize":[{"title":"剖析苹果M1 GPU，第二部分。","locale":"zh"},{"title":"剖析蘋果M1 GPU，第二部分。","locale":"zh-Hant"}]}},{"__typename":"SocialMediaPost","id":"HnPost-25867693","excerpt":"","slug":"/hn/25867693","title":"Why isn't differential dataflow more popular?","date":"January 22, 2021","dateISO":"2021-01-22T15:59:57.819Z","datetime":"2021-01-22 15:59","tags":["story","Hacker News"],"image":null,"imageAlt":null,"provider":"Hacker News","thirdPartyId":"25867693","url":"https://news.ycombinator.com/item?id=25867693","originalUrl":"https://scattered-thoughts.net/writing/why-isnt-differential-dataflow-more-popular/","imageRemote":null,"video":null,"channel":null,"channelUrl":null,"author":"jamii","authorUrl":"https://news.ycombinator.com/user?id=jamii","authorImage":null,"authorSlug":null,"score":167,"views":null,"sharedCount":null,"likeCount":null,"sharedContent":null,"parent":{"__typename":"HnJson","localize":[{"title":"为什么差分数据流没有更受欢迎？","locale":"zh"},{"title":"爲什麼差分數據流沒有更受歡迎？","locale":"zh-Hant"}]}},{"__typename":"SocialMediaPost","id":"HnPost-25860819","excerpt":"","slug":"/hn/25860819","title":"Launch HN: Finmark (YC S20) – Financial planning software for startups","date":"January 22, 2021","dateISO":"2021-01-22T14:52:03.669Z","datetime":"2021-01-22 14:52","tags":["story","Hacker News"],"image":null,"imageAlt":null,"provider":"Hacker News","thirdPartyId":"25860819","url":"https://news.ycombinator.com/item?id=25860819","originalUrl":"https://news.ycombinator.com/item?id=25860819","imageRemote":null,"video":null,"channel":null,"channelUrl":null,"author":"ramie","authorUrl":"https://news.ycombinator.com/user?id=ramie","authorImage":null,"authorSlug":null,"score":160,"views":null,"sharedCount":null,"likeCount":null,"sharedContent":null,"parent":{"__typename":"HnJson","localize":[{"title":"发布会 HN：Finmark (YC S20)--初创企业财务规划软件。","locale":"zh"},{"title":"發佈會 HN：Finmark (YC S20)--初創企業財務規劃軟件。","locale":"zh-Hant"}]}},{"__typename":"SocialMediaPost","id":"HnPost-25868644","excerpt":"","slug":"/hn/25868644","title":"Monarch butterfly population in California spirals to another record low","date":"January 22, 2021","dateISO":"2021-01-22T14:52:03.669Z","datetime":"2021-01-22 14:52","tags":["story","Hacker News"],"image":null,"imageAlt":null,"provider":"Hacker News","thirdPartyId":"25868644","url":"https://news.ycombinator.com/item?id=25868644","originalUrl":"http://xerces.org/blog/monarch-population-in-california-spirals-to-another-record-low","imageRemote":"http://xerces.org/sites/default/files/inline-images/IMG_4134.JPG","video":null,"channel":null,"channelUrl":null,"author":"prostoalex","authorUrl":"https://news.ycombinator.com/user?id=prostoalex","authorImage":null,"authorSlug":null,"score":164,"views":null,"sharedCount":null,"likeCount":null,"sharedContent":null,"parent":{"__typename":"HnJson","localize":[{"title":"加利福尼亚的帝王斑蝶数量再创新低","locale":"zh"},{"title":"加利福尼亞的帝王斑蝶數量再創新低","locale":"zh-Hant"}]}},{"__typename":"SocialMediaPost","id":"HnPost-25860251","excerpt":"","slug":"/hn/25860251","title":"DDoS-Guard to forfeit internet space occupied by Parler","date":"January 22, 2021","dateISO":"2021-01-22T13:45:25.865Z","datetime":"2021-01-22 13:45","tags":["story","Hacker News"],"image":null,"imageAlt":null,"provider":"Hacker News","thirdPartyId":"25860251","url":"https://news.ycombinator.com/item?id=25860251","originalUrl":"https://krebsonsecurity.com/2021/01/ddos-guard-to-forfeit-internet-space-occupied-by-parler/","imageRemote":"https://krebsonsecurity.com/wp-content/uploads/2021/01/parler2.png","video":null,"channel":null,"channelUrl":null,"author":"todsacerdoti","authorUrl":"https://news.ycombinator.com/user?id=todsacerdoti","authorImage":null,"authorSlug":null,"score":164,"views":null,"sharedCount":null,"likeCount":null,"sharedContent":null,"parent":{"__typename":"HnJson","localize":[{"title":"DDoS-Guard将没收Parler占用的互联网空间。","locale":"zh"},{"title":"DDoS-Guard將沒收Parler佔用的互聯網空間。","locale":"zh-Hant"}]}},{"__typename":"SocialMediaPost","id":"HnPost-25865094","excerpt":"","slug":"/hn/25865094","title":"AWS announces forks of Elasticsearch and Kibana","date":"January 22, 2021","dateISO":"2021-01-22T13:45:25.865Z","datetime":"2021-01-22 13:45","tags":["story","Hacker News"],"image":null,"imageAlt":null,"provider":"Hacker News","thirdPartyId":"25865094","url":"https://news.ycombinator.com/item?id=25865094","originalUrl":"https://aws.amazon.com/blogs/opensource/stepping-up-for-a-truly-open-source-elasticsearch","imageRemote":"https://d2908q01vomqb2.cloudfront.net/ca3512f4dfa95a03169c5a670a4c91a19b3077b4/2019/01/10/open-source-logo-800x400.jpg","video":null,"channel":null,"channelUrl":null,"author":"ke4qqq","authorUrl":"https://news.ycombinator.com/user?id=ke4qqq","authorImage":null,"authorSlug":null,"score":1112,"views":null,"sharedCount":null,"likeCount":null,"sharedContent":null,"parent":{"__typename":"HnJson","localize":[{"title":"AWS宣布对Elasticsearch和Kibana进行分叉处理","locale":"zh"},{"title":"AWS宣佈對Elasticsearch和Kibana進行分叉處理","locale":"zh-Hant"}]}},{"__typename":"SocialMediaPost","id":"HnPost-25860094","excerpt":"","slug":"/hn/25860094","title":"FunkWhale: Decentralized Music Server","date":"January 22, 2021","dateISO":"2021-01-22T07:49:08.978Z","datetime":"2021-01-22 07:49","tags":["story","Hacker News"],"image":null,"imageAlt":null,"provider":"Hacker News","thirdPartyId":"25860094","url":"https://news.ycombinator.com/item?id=25860094","originalUrl":"https://funkwhale.audio/en_US/","imageRemote":"https://funkwhale.audio/favicon.png","video":null,"channel":null,"channelUrl":null,"author":"alexfromapex","authorUrl":"https://news.ycombinator.com/user?id=alexfromapex","authorImage":null,"authorSlug":null,"score":160,"views":null,"sharedCount":null,"likeCount":null,"sharedContent":null,"parent":{"__typename":"HnJson","localize":[{"title":"FunkWhale。分散式音乐服务器","locale":"zh"},{"title":"FunkWhale。分散式音樂服務器","locale":"zh-Hant"}]}},{"__typename":"SocialMediaPost","id":"HnPost-25868713","excerpt":"","slug":"/hn/25868713","title":"Google's Project Loon is shutting down","date":"January 22, 2021","dateISO":"2021-01-22T07:49:08.978Z","datetime":"2021-01-22 07:49","tags":["story","Hacker News"],"image":null,"imageAlt":null,"provider":"Hacker News","thirdPartyId":"25868713","url":"https://news.ycombinator.com/item?id=25868713","originalUrl":"https://blog.x.company/loons-final-flight-e9d699123a96?gi=b913b3d1667e","imageRemote":"https://miro.medium.com/max/1200/1*gEo3FCKfchd_3UWWUalsjg.jpeg","video":null,"channel":null,"channelUrl":null,"author":"sarthakjshetty","authorUrl":"https://news.ycombinator.com/user?id=sarthakjshetty","authorImage":null,"authorSlug":null,"score":184,"views":null,"sharedCount":null,"likeCount":null,"sharedContent":null,"parent":{"__typename":"HnJson","localize":[{"title":"谷歌的Project Loon要关闭了","locale":"zh"},{"title":"谷歌的Project Loon要關閉了","locale":"zh-Hant"}]}},{"__typename":"SocialMediaPost","id":"HnPost-25861998","excerpt":"","slug":"/hn/25861998","title":"Twitter sued for allegedly refusing to remove child porn","date":"January 22, 2021","dateISO":"2021-01-22T04:05:22.865Z","datetime":"2021-01-22 04:05","tags":["story","Hacker News"],"image":null,"imageAlt":null,"provider":"Hacker News","thirdPartyId":"25861998","url":"https://news.ycombinator.com/item?id=25861998","originalUrl":"https://nypost.com/2021/01/21/twitter-sued-for-allegedly-refusing-to-remove-child-porn/","imageRemote":"https://i0.wp.com/nypost.com/wp-content/uploads/sites/2/2021/01/twitter-lawsuit-01.jpg?quality=90&strip=all&ssl=1","video":null,"channel":null,"channelUrl":null,"author":"thereare5lights","authorUrl":"https://news.ycombinator.com/user?id=thereare5lights","authorImage":null,"authorSlug":null,"score":174,"views":null,"sharedCount":null,"likeCount":null,"sharedContent":null,"parent":{"__typename":"HnJson","localize":[{"title":"推特因涉嫌拒绝删除儿童色情而被起诉","locale":"zh"},{"title":"推特因涉嫌拒絕刪除兒童色情而被起訴","locale":"zh-Hant"}]}},{"__typename":"SocialMediaPost","id":"HnPost-25852438","excerpt":"","slug":"/hn/25852438","title":"The Apgar Score helped decrease the infant mortality rate","date":"January 22, 2021","dateISO":"2021-01-22T01:31:22.224Z","datetime":"2021-01-22 01:31","tags":["story","Hacker News"],"image":null,"imageAlt":null,"provider":"Hacker News","thirdPartyId":"25852438","url":"https://news.ycombinator.com/item?id=25852438","originalUrl":"https://massivesci.com/articles/virginia-apgar-score-anesthesiologist-our-science-heroes/","imageRemote":"https://images.takeshape.io/fd194db7-7b25-4b5a-8cc7-da7f31fab475/dev/f86656e9-c055-4b81-ad7c-7ed5cefabd4e/gabriel-tovar-zFatTAHadrU-unsplash.jpg?auto=compress%2Cformat&crop=faces&fit=crop&fm=jpg&h=630&q=75&w=1200","video":null,"channel":null,"channelUrl":null,"author":"allthebest","authorUrl":"https://news.ycombinator.com/user?id=allthebest","authorImage":null,"authorSlug":null,"score":163,"views":null,"sharedCount":null,"likeCount":null,"sharedContent":null,"parent":{"__typename":"HnJson","localize":[{"title":"Apgar评分有助于降低婴儿死亡率。","locale":"zh"},{"title":"Apgar評分有助於降低嬰兒死亡率。","locale":"zh-Hant"}]}},{"__typename":"SocialMediaPost","id":"HnPost-25858366","excerpt":"","slug":"/hn/25858366","title":"Support for the IPFS Protocol – Firefox Bugzilla","date":"January 22, 2021","dateISO":"2021-01-22T01:31:22.224Z","datetime":"2021-01-22 01:31","tags":["story","Hacker News"],"image":null,"imageAlt":null,"provider":"Hacker News","thirdPartyId":"25858366","url":"https://news.ycombinator.com/item?id=25858366","originalUrl":"https://bugzilla.mozilla.org/show_bug.cgi?id=1354807","imageRemote":"https://bugzilla.mozilla.org/static/v20201215.1/extensions/BMO/web/images/moz-fav-one-color-white-rgb.svg","video":null,"channel":null,"channelUrl":null,"author":"fossislife","authorUrl":"https://news.ycombinator.com/user?id=fossislife","authorImage":null,"authorSlug":null,"score":199,"views":null,"sharedCount":null,"likeCount":null,"sharedContent":null,"parent":{"__typename":"HnJson","localize":[{"title":"对IPFS协议的支持 - Firefox Bugzilla。","locale":"zh"},{"title":"對IPFS協議的支持 - Firefox Bugzilla。","locale":"zh-Hant"}]}}]}},"pageContext":{"basePath":"/","pageType":"tag","tag":"Hacker News","tagsFilter":{"id":{"glob":"!*Post-1"}},"filter":{"id":{"glob":"!*Post-1"},"tags":{"eq":"Hacker News"}},"limit":25,"skip":1050,"total":2185,"totalPages":88,"currentPage":43,"maxWidth":1024,"maxHeight":512,"locale":"en","hrefLang":"en-US","originalPath":"/tags/hacker-news/page/43","dateFormat":"MM/DD/YYYY"}},"staticQueryHashes":["1239077767","2506312863","2744905544","3025052997","3493603132","3493603132","3513215887","386998304"]}