{"componentChunkName":"component---gatsby-theme-buzzing-src-gatsby-theme-timeline-templates-posts-query-js","path":"/zh-Hant/tags/story/page/17","result":{"data":{"site":{"siteMetadata":{"title":"Reddit 热门","description":"用中文浏览Reddit热门内容","social":[{"name":"Twitter","url":"https://twitter.com/gatsbyjs","external":null,"prefetch":null},{"name":"GitHub","url":"https://github.com/gatsbyjs","external":null,"prefetch":null}],"menuLinks":[],"localize":[{"locale":"en","title":"Buzzing on Reddit","description":"See what's buzzing on Reddit in your native language","social":[{"name":"Reddit","url":"https://www.reddit.com/","external":true,"prefetch":null}],"menuLinks":[{"name":"Weekly Selection","url":"/issues","external":null,"prefetch":null},{"name":"RSS","url":"/rss.xml","external":null,"prefetch":false}]},{"locale":"zh-Hant","title":"Reddit 熱門","description":"用中文瀏覽Reddit熱門內容","social":null,"menuLinks":null}]}},"tagsGroup":{"group":[{"fieldValue":"ASK HN","totalCount":22},{"fieldValue":"Bitcoin","totalCount":3},{"fieldValue":"Hacker News","totalCount":920},{"fieldValue":"Poll","totalCount":1},{"fieldValue":"Show HN","totalCount":34},{"fieldValue":"investing","totalCount":197},{"fieldValue":"poll","totalCount":1},{"fieldValue":"reddit","totalCount":777},{"fieldValue":"science","totalCount":1},{"fieldValue":"stocks","totalCount":336},{"fieldValue":"story","totalCount":919},{"fieldValue":"tweet","totalCount":275},{"fieldValue":"wallstreetbets","totalCount":244}]},"allBlogPost":{"nodes":[{"__typename":"SocialMediaPost","id":"HnPost-25573365","excerpt":"","slug":"/hn/25573365","title":"Bug drone for UK army that weights 196g, has 40 mins autonomy and 2km range","date":"December 30, 2020","dateISO":"2020-12-30T06:32:40.976Z","datetime":"2020-12-30 06:32","tags":["story","Hacker News"],"image":null,"imageAlt":null,"provider":"Hacker News","thirdPartyId":"25573365","url":"https://news.ycombinator.com/item?id=25573365","originalUrl":"https://www.baesystems.com/en/collaborating-with-uavtek-to-develop-nano-bug-drone","imageRemote":"https://www.baesystems.com/en/download-en/multimediaimage/webImage/20201221164607/1434659491836.jpg","video":null,"channel":null,"channelUrl":null,"author":"giuliomagnifico","authorUrl":"https://news.ycombinator.com/user?id=giuliomagnifico","authorImage":null,"authorSlug":null,"score":203,"views":null,"sharedCount":null,"likeCount":null,"sharedContent":null,"parent":{"__typename":"HnJson","localize":[{"title":"英国陆军窃听器无人机，重196克，自主40分钟，射程2公里","locale":"zh"},{"title":"英國陸軍竊聽器無人機，重196克，自主40分鐘，射程2公里","locale":"zh-Hant"}]}},{"__typename":"SocialMediaPost","id":"HnPost-25574180","excerpt":"","slug":"/hn/25574180","title":"Google Maps changes a route after the drama of young people lost on a ghost road","date":"December 30, 2020","dateISO":"2020-12-30T05:07:57.948Z","datetime":"2020-12-30 05:07","tags":["story","Hacker News"],"image":null,"imageAlt":null,"provider":"Hacker News","thirdPartyId":"25574180","url":"https://news.ycombinator.com/item?id=25574180","originalUrl":"https://tekdeeps.com/google-maps-changes-a-route-after-the-drama-of-young-people-lost-on-a-ghost-road/","imageRemote":"https://img.huffingtonpost.com/asset/5fe496d7240000c5068ad642.png?ops=scalefit_630_noupscale","video":null,"channel":null,"channelUrl":null,"author":"f311a","authorUrl":"https://news.ycombinator.com/user?id=f311a","authorImage":null,"authorSlug":null,"score":296,"views":null,"sharedCount":null,"likeCount":null,"sharedContent":null,"parent":{"__typename":"HnJson","localize":[{"title":"谷歌地图在年轻人迷失在幽灵路上的戏码后改变了路线","locale":"zh"},{"title":"谷歌地圖在年輕人迷失在幽靈路上的戲碼後改變了路線","locale":"zh-Hant"}]}},{"__typename":"SocialMediaPost","id":"HnPost-25575505","excerpt":"","slug":"/hn/25575505","title":"Top Python libraries of 2020 you should know about","date":"December 30, 2020","dateISO":"2020-12-30T03:29:25.776Z","datetime":"2020-12-30 03:29","tags":["story","Hacker News"],"image":null,"imageAlt":null,"provider":"Hacker News","thirdPartyId":"25575505","url":"https://news.ycombinator.com/item?id=25575505","originalUrl":"https://tryolabs.com/blog/2020/12/21/top-10-python-libraries-of-2020/","imageRemote":"https://tryolabs.com/blog/images/blog/social/2020-12-21-top-10-python-libraries-of-2020.2235b05f.png","video":null,"channel":null,"channelUrl":null,"author":"trueduke","authorUrl":"https://news.ycombinator.com/user?id=trueduke","authorImage":null,"authorSlug":null,"score":269,"views":null,"sharedCount":null,"likeCount":null,"sharedContent":null,"parent":{"__typename":"HnJson","localize":[{"title":"2020年度您应该知道的顶级Python库","locale":"zh"},{"title":"2020年度您應該知道的頂級Python庫","locale":"zh-Hant"}]}},{"__typename":"SocialMediaPost","id":"HnPost-25576113","excerpt":"","slug":"/hn/25576113","title":"Visa Advertising Solutions (VAS) Opt Out","date":"December 30, 2020","dateISO":"2020-12-30T03:29:25.776Z","datetime":"2020-12-30 03:29","tags":["story","Hacker News"],"image":null,"imageAlt":null,"provider":"Hacker News","thirdPartyId":"25576113","url":"https://news.ycombinator.com/item?id=25576113","originalUrl":"https://marketingreportoptout.visa.com/OPTOUT/request.do","imageRemote":"https://marketingreportoptout.visa.com/OPTOUT/OptoutCaptcha.do","video":null,"channel":null,"channelUrl":null,"author":"enjoyyourlife","authorUrl":"https://news.ycombinator.com/user?id=enjoyyourlife","authorImage":null,"authorSlug":null,"score":507,"views":null,"sharedCount":null,"likeCount":null,"sharedContent":null,"parent":{"__typename":"HnJson","localize":[{"title":"Visa广告解决方案(VAS)选择退出","locale":"zh"},{"title":"Visa廣告解決方案(VAS)選擇退出","locale":"zh-Hant"}]}},{"__typename":"SocialMediaPost","id":"HnPost-25568650","excerpt":"","slug":"/hn/25568650","title":"Flow Browser Preview on the Raspberry Pi 400","date":"December 30, 2020","dateISO":"2020-12-30T02:22:56.864Z","datetime":"2020-12-30 02:22","tags":["story","Hacker News"],"image":null,"imageAlt":null,"provider":"Hacker News","thirdPartyId":"25568650","url":"https://news.ycombinator.com/item?id=25568650","originalUrl":"https://www.ekioh.com/blog/flow-raspberry-pi/","imageRemote":"https://www.ekioh.com/wp-content/uploads/2020-12-28-215433_1920x1080_scrot-1024x576.png","video":null,"channel":null,"channelUrl":null,"author":"hotpoodle","authorUrl":"https://news.ycombinator.com/user?id=hotpoodle","authorImage":null,"authorSlug":null,"score":160,"views":null,"sharedCount":null,"likeCount":null,"sharedContent":null,"parent":{"__typename":"HnJson","localize":[{"title":"树莓PI 400的Flow Browser预览","locale":"zh"},{"title":"樹莓PI 400的Flow Browser預覽","locale":"zh-Hant"}]}},{"__typename":"SocialMediaPost","id":"HnPost-25570376","excerpt":"","slug":"/hn/25570376","title":"New U.S. Dietary Guidelines Reject Recommendation to Cut Sugar, Alcohol Intake","date":"December 30, 2020","dateISO":"2020-12-30T02:22:56.864Z","datetime":"2020-12-30 02:22","tags":["story","Hacker News"],"image":null,"imageAlt":null,"provider":"Hacker News","thirdPartyId":"25570376","url":"https://news.ycombinator.com/item?id=25570376","originalUrl":"https://www.wsj.com/articles/new-u-s-dietary-guidelines-reject-recommendation-to-cut-sugar-alcohol-intake-11609254000","imageRemote":"https://images.wsj.net/im-278630/social","video":null,"channel":null,"channelUrl":null,"author":"tempsy","authorUrl":"https://news.ycombinator.com/user?id=tempsy","authorImage":null,"authorSlug":null,"score":163,"views":null,"sharedCount":null,"likeCount":null,"sharedContent":null,"parent":{"__typename":"HnJson","localize":[{"title":"美国新饮食指南拒绝减少糖和酒精摄入量的建议","locale":"zh"},{"title":"美國新飲食指南拒絕減少糖和酒精攝入量的建議","locale":"zh-Hant"}]}},{"__typename":"SocialMediaPost","id":"HnPost-25572500","excerpt":"","slug":"/hn/25572500","title":"Germany: 'Colossal' cyberattack knocks out Funke news group","date":"December 30, 2020","dateISO":"2020-12-30T02:22:56.864Z","datetime":"2020-12-30 02:22","tags":["story","Hacker News"],"image":null,"imageAlt":null,"provider":"Hacker News","thirdPartyId":"25572500","url":"https://news.ycombinator.com/item?id=25572500","originalUrl":"https://www.dw.com/en/germany-colossal-cyberattack-knocks-out-funke-news-group/a-56087804","imageRemote":"https://static.dw.com/image/50467755_6.jpg","video":null,"channel":null,"channelUrl":null,"author":"samizdis","authorUrl":"https://news.ycombinator.com/user?id=samizdis","authorImage":null,"authorSlug":null,"score":168,"views":null,"sharedCount":null,"likeCount":null,"sharedContent":null,"parent":{"__typename":"HnJson","localize":[{"title":"德国：“巨大的”网络攻击击倒了芬克新闻集团(Funke News Group)","locale":"zh"},{"title":"德國：“巨大的”網絡攻擊擊倒了芬克新聞集團(Funke News Group)","locale":"zh-Hant"}]}},{"__typename":"SocialMediaPost","id":"HnPost-25560894","excerpt":"","slug":"/hn/25560894","title":"Ruby 3.0 and the new FiberScheduler interface","date":"December 30, 2020","dateISO":"2020-12-30T01:21:57.523Z","datetime":"2020-12-30 01:21","tags":["story","Hacker News"],"image":null,"imageAlt":null,"provider":"Hacker News","thirdPartyId":"25560894","url":"https://news.ycombinator.com/item?id=25560894","originalUrl":"http://www.wjwh.eu/posts/2020-12-28-ruby-fiber-scheduler-c-extension.html","imageRemote":"http://www.wjwh.eu/images/ruby_logo.png","video":null,"channel":null,"channelUrl":null,"author":"WJW","authorUrl":"https://news.ycombinator.com/user?id=WJW","authorImage":null,"authorSlug":null,"score":215,"views":null,"sharedCount":null,"likeCount":null,"sharedContent":null,"parent":{"__typename":"HnJson","localize":[{"title":"Ruby 3.0和新的FiberScheduler接口","locale":"zh"},{"title":"Ruby 3.0和新的FiberScheduler接口","locale":"zh-Hant"}]}},{"__typename":"SocialMediaPost","id":"HnPost-25573989","excerpt":"","slug":"/hn/25573989","title":"20 Years Later","date":"December 30, 2020","dateISO":"2020-12-30T01:21:57.523Z","datetime":"2020-12-30 01:21","tags":["story","Hacker News"],"image":null,"imageAlt":null,"provider":"Hacker News","thirdPartyId":"25573989","url":"https://news.ycombinator.com/item?id=25573989","originalUrl":"https://www.math.columbia.edu/~woit/wordpress/?p=12069","imageRemote":"https://www.math.columbia.edu/~woit/wordpress/wp-content/uploads/2019/08/mass-shell-new.png","video":null,"channel":null,"channelUrl":null,"author":"jjgreen","authorUrl":"https://news.ycombinator.com/user?id=jjgreen","authorImage":null,"authorSlug":null,"score":410,"views":null,"sharedCount":null,"likeCount":null,"sharedContent":null,"parent":{"__typename":"HnJson","localize":[{"title":"20年后","locale":"zh"},{"title":"20年後","locale":"zh-Hant"}]}},{"__typename":"SocialMediaPost","id":"HnPost-25573176","excerpt":"","slug":"/hn/25573176","title":"Apple loses copyright battle against security startup Corellium","date":"December 29, 2020","dateISO":"2020-12-29T23:36:38.343Z","datetime":"2020-12-29 23:36","tags":["story","Hacker News"],"image":null,"imageAlt":null,"provider":"Hacker News","thirdPartyId":"25573176","url":"https://news.ycombinator.com/item?id=25573176","originalUrl":"https://www.washingtonpost.com/technology/2020/12/29/apple-corellium-lawsuit/","imageRemote":"https://www.washingtonpost.com/wp-apps/imrs.php?src=https://arc-anglerfish-washpost-prod-washpost.s3.amazonaws.com/public/DSVCEYXFL5GY5JHMQ33JUXQ5WM.jpg&w=1440","video":null,"channel":null,"channelUrl":null,"author":"comex","authorUrl":"https://news.ycombinator.com/user?id=comex","authorImage":null,"authorSlug":null,"score":285,"views":null,"sharedCount":null,"likeCount":null,"sharedContent":null,"parent":{"__typename":"HnJson","localize":[{"title":"苹果输掉了与安全初创公司Corellium的版权战","locale":"zh"},{"title":"蘋果輸掉了與安全初創公司Corellium的版權戰","locale":"zh-Hant"}]}},{"__typename":"SocialMediaPost","id":"HnPost-25570268","excerpt":"","slug":"/hn/25570268","title":"Adding comments to your static blog with Mastodon","date":"December 29, 2020","dateISO":"2020-12-29T23:00:47.490Z","datetime":"2020-12-29 23:00","tags":["story","Hacker News"],"image":null,"imageAlt":null,"provider":"Hacker News","thirdPartyId":"25570268","url":"https://news.ycombinator.com/item?id=25570268","originalUrl":"https://carlschwan.eu/2020/12/29/adding-comments-to-your-static-blog-with-mastodon/","imageRemote":"https://carlschwan.eu/img/avatar_huccf9fccdd27b10b08dfdacefc35be2a2_24305_300x0_resize_box_2.png","video":null,"channel":null,"channelUrl":null,"author":"ognarb","authorUrl":"https://news.ycombinator.com/user?id=ognarb","authorImage":null,"authorSlug":null,"score":295,"views":null,"sharedCount":null,"likeCount":null,"sharedContent":null,"parent":{"__typename":"HnJson","localize":[{"title":"用乳齿象在你的静电上添加评论","locale":"zh"},{"title":"用乳齒象在你的靜電上添加評論","locale":"zh-Hant"}]}},{"__typename":"SocialMediaPost","id":"HnPost-25570207","excerpt":"","slug":"/hn/25570207","title":"Apple’s longtime supplier accused of using forced labor in China","date":"December 29, 2020","dateISO":"2020-12-29T22:28:51.804Z","datetime":"2020-12-29 22:28","tags":["story","Hacker News"],"image":null,"imageAlt":null,"provider":"Hacker News","thirdPartyId":"25570207","url":"https://news.ycombinator.com/item?id=25570207","originalUrl":"https://www.washingtonpost.com/technology/2020/12/29/lens-technology-apple-uighur/","imageRemote":"https://www.washingtonpost.com/wp-apps/imrs.php?src=https://arc-anglerfish-washpost-prod-washpost.s3.amazonaws.com/public/YXDA4KCGDYI6XLBKHLAPFOGO5M.jpg&w=1440","video":null,"channel":null,"channelUrl":null,"author":"mzs","authorUrl":"https://news.ycombinator.com/user?id=mzs","authorImage":null,"authorSlug":null,"score":391,"views":null,"sharedCount":null,"likeCount":null,"sharedContent":null,"parent":{"__typename":"HnJson","localize":[{"title":"苹果的长期供应商被控在中国使用强迫劳动","locale":"zh"},{"title":"蘋果的長期供應商被控在中國使用強迫勞動","locale":"zh-Hant"}]}},{"__typename":"SocialMediaPost","id":"HnPost-25570611","excerpt":"","slug":"/hn/25570611","title":"The Life in the Simpsons Is No Longer Attainable","date":"December 29, 2020","dateISO":"2020-12-29T21:34:21.075Z","datetime":"2020-12-29 21:34","tags":["story","Hacker News"],"image":null,"imageAlt":null,"provider":"Hacker News","thirdPartyId":"25570611","url":"https://news.ycombinator.com/item?id=25570611","originalUrl":"https://www.theatlantic.com/ideas/archive/2020/12/life-simpsons-no-longer-attainable/617499/","imageRemote":"https://cdn.theatlantic.com/thumbor/sMtViFcsDrwrXHWhBzRJdHB09WY=/0x53:2496x1353/960x500/https://cdn.theatlantic.com/assets/media/img/mt/2020/12/TheSimpsons_3119_UndercoverBurns_ZABF19Sc2057AvidColorCorrected/original.jpg","video":null,"channel":null,"channelUrl":null,"author":"MrJagil","authorUrl":"https://news.ycombinator.com/user?id=MrJagil","authorImage":null,"authorSlug":null,"score":162,"views":null,"sharedCount":null,"likeCount":null,"sharedContent":null,"parent":{"__typename":"HnJson","localize":[{"title":"“辛普森一家的生活”不再可取","locale":"zh"},{"title":"“辛普森一家的生活”不再可取","locale":"zh-Hant"}]}},{"__typename":"SocialMediaPost","id":"HnPost-25571072","excerpt":"","slug":"/hn/25571072","title":"YouTube removed a Cybersecurity channel without much reason","date":"December 29, 2020","dateISO":"2020-12-29T21:08:30.030Z","datetime":"2020-12-29 21:08","tags":["story","Hacker News"],"image":null,"imageAlt":null,"provider":"Hacker News","thirdPartyId":"25571072","url":"https://news.ycombinator.com/item?id=25571072","originalUrl":"https://www.linkedin.com/posts/mohammedadam24_cybersecurity-infosec-penetrationtesting-activity-6749595324978987008-UFbn","imageRemote":"https://media-exp1.licdn.com/dms/image/C5622AQEBtuGBM0sAXw/feedshare-shrink_1280-alternative/0/1609228925193?e=1612396800&v=beta&t=BwKdJ7uTfdjw7hEu-R3VO-HumLnT7glO4DYUGHFCX2c","video":null,"channel":null,"channelUrl":null,"author":"amrrs","authorUrl":"https://news.ycombinator.com/user?id=amrrs","authorImage":null,"authorSlug":null,"score":282,"views":null,"sharedCount":null,"likeCount":null,"sharedContent":null,"parent":{"__typename":"HnJson","localize":[{"title":"YouTube无缘无故删除了一个网络安全频道","locale":"zh"},{"title":"YouTube無緣無故刪除了一個網絡安全頻道","locale":"zh-Hant"}]}},{"__typename":"SocialMediaPost","id":"HnPost-25569963","excerpt":"","slug":"/hn/25569963","title":"We should administer Covid-19 vaccines as fast as possible, not reserve doses","date":"December 29, 2020","dateISO":"2020-12-29T20:34:58.107Z","datetime":"2020-12-29 20:34","tags":["story","Hacker News"],"image":null,"imageAlt":null,"provider":"Hacker News","thirdPartyId":"25569963","url":"https://news.ycombinator.com/item?id=25569963","originalUrl":"https://www.theglobeandmail.com/canada/article-new-data-favour-administering-covid-19-vaccines-as-fast-as-possible/","imageRemote":"https://www.theglobeandmail.com/resizer/RFppO_cj6ttxmhjVR50R9QyOoOo=/1200x0/filters:quality(80)/cloudfront-us-east-1.images.arcpublishing.com/tgam/CVW7JCT3F5DX5AUKPLBPIXDI7Y.JPG","video":null,"channel":null,"channelUrl":null,"author":"elsewhen","authorUrl":"https://news.ycombinator.com/user?id=elsewhen","authorImage":null,"authorSlug":null,"score":170,"views":null,"sharedCount":null,"likeCount":null,"sharedContent":null,"parent":{"__typename":"HnJson","localize":[{"title":"我们应该尽快接种冠状病毒疫苗，而不是储备剂量。","locale":"zh"},{"title":"我們應該儘快接種冠狀病毒疫苗，而不是儲備劑量。","locale":"zh-Hant"}]}},{"__typename":"SocialMediaPost","id":"HnPost-25573327","excerpt":"","slug":"/hn/25573327","title":"Boston Dynamics: Do You Love Me?","date":"December 29, 2020","dateISO":"2020-12-29T20:34:58.107Z","datetime":"2020-12-29 20:34","tags":["story","Hacker News"],"image":null,"imageAlt":null,"provider":"Hacker News","thirdPartyId":"25573327","url":"https://news.ycombinator.com/item?id=25573327","originalUrl":"https://www.youtube.com/watch?v=fn3KWM1kuAw","imageRemote":"https://i.ytimg.com/vi/fn3KWM1kuAw/maxresdefault.jpg","video":null,"channel":null,"channelUrl":null,"author":"modeless","authorUrl":"https://news.ycombinator.com/user?id=modeless","authorImage":null,"authorSlug":null,"score":1194,"views":null,"sharedCount":null,"likeCount":null,"sharedContent":null,"parent":{"__typename":"HnJson","localize":[{"title":"波士顿动力：你爱我吗？","locale":"zh"},{"title":"波士頓動力：你愛我嗎？","locale":"zh-Hant"}]}},{"__typename":"SocialMediaPost","id":"HnPost-25568668","excerpt":"","slug":"/hn/25568668","title":"Show HN: LinkAce – Your self-hosted, FOSS bookmark archive","date":"December 29, 2020","dateISO":"2020-12-29T20:04:37.555Z","datetime":"2020-12-29 20:04","tags":["story","Show HN","Hacker News"],"image":null,"imageAlt":null,"provider":"Hacker News","thirdPartyId":"25568668","url":"https://news.ycombinator.com/item?id=25568668","originalUrl":"https://www.linkace.org/","imageRemote":"https://www.linkace.org/images/linkace-social.jpg","video":null,"channel":"Show HN","channelUrl":"https://news.ycombinator.com/show","author":"Kovah","authorUrl":"https://news.ycombinator.com/user?id=Kovah","authorImage":null,"authorSlug":null,"score":222,"views":null,"sharedCount":null,"likeCount":null,"sharedContent":null,"parent":{"__typename":"HnJson","localize":[{"title":"HN新产品：LinkAce-您的自托管自由/开源软件书签档案","locale":"zh"},{"title":"HN新產品：LinkAce-您的自託管自由/開源軟件書籤檔案","locale":"zh-Hant"}]}},{"__typename":"SocialMediaPost","id":"HnPost-25572852","excerpt":"","slug":"/hn/25572852","title":"Computer Science textbooks that are freely available online","date":"December 29, 2020","dateISO":"2020-12-29T20:04:37.555Z","datetime":"2020-12-29 20:04","tags":["story","Hacker News"],"image":null,"imageAlt":null,"provider":"Hacker News","thirdPartyId":"25572852","url":"https://news.ycombinator.com/item?id=25572852","originalUrl":"https://csgordon.github.io/books.html","imageRemote":null,"video":null,"channel":null,"channelUrl":null,"author":"MrXOR","authorUrl":"https://news.ycombinator.com/user?id=MrXOR","authorImage":null,"authorSlug":null,"score":560,"views":null,"sharedCount":null,"likeCount":null,"sharedContent":null,"parent":{"__typename":"HnJson","localize":[{"title":"在线免费提供的计算机科学教科书","locale":"zh"},{"title":"在線免費提供的計算機科學教科書","locale":"zh-Hant"}]}},{"__typename":"SocialMediaPost","id":"HnPost-25569148","excerpt":"","slug":"/hn/25569148","title":"Against Essential and Accidental Complexity","date":"December 29, 2020","dateISO":"2020-12-29T19:48:26.769Z","datetime":"2020-12-29 19:48","tags":["story","Hacker News"],"image":null,"imageAlt":null,"provider":"Hacker News","thirdPartyId":"25569148","url":"https://news.ycombinator.com/item?id=25569148","originalUrl":"https://danluu.com/essential-complexity/","imageRemote":null,"video":null,"channel":null,"channelUrl":null,"author":"weinzierl","authorUrl":"https://news.ycombinator.com/user?id=weinzierl","authorImage":null,"authorSlug":null,"score":243,"views":null,"sharedCount":null,"likeCount":null,"sharedContent":null,"parent":{"__typename":"HnJson","localize":[{"title":"对抗本质和偶然的复杂性","locale":"zh"},{"title":"對抗本質和偶然的複雜性","locale":"zh-Hant"}]}},{"__typename":"SocialMediaPost","id":"HnPost-25567079","excerpt":"","slug":"/hn/25567079","title":"Japan developing wooden satellites to cut down on space junk","date":"December 29, 2020","dateISO":"2020-12-29T17:52:52.491Z","datetime":"2020-12-29 17:52","tags":["story","Hacker News"],"image":null,"imageAlt":null,"provider":"Hacker News","thirdPartyId":"25567079","url":"https://news.ycombinator.com/item?id=25567079","originalUrl":"https://www.bbc.com/news/business-55463366","imageRemote":"https://ichef.bbci.co.uk/news/1024/branded_news/16C49/production/_116275239_woodensatellite.jpg","video":null,"channel":null,"channelUrl":null,"author":"mmhsieh","authorUrl":"https://news.ycombinator.com/user?id=mmhsieh","authorImage":null,"authorSlug":null,"score":213,"views":null,"sharedCount":null,"likeCount":null,"sharedContent":null,"parent":{"__typename":"HnJson","localize":[{"title":"日本开发木制卫星以减少太空垃圾","locale":"zh"},{"title":"日本開發木製衛星以減少太空垃圾","locale":"zh-Hant"}]}},{"__typename":"SocialMediaPost","id":"HnPost-25568181","excerpt":"","slug":"/hn/25568181","title":"Cider 1.0","date":"December 29, 2020","dateISO":"2020-12-29T17:52:52.491Z","datetime":"2020-12-29 17:52","tags":["story","Hacker News"],"image":null,"imageAlt":null,"provider":"Hacker News","thirdPartyId":"25568181","url":"https://news.ycombinator.com/item?id=25568181","originalUrl":"https://metaredux.com/posts/2020/12/28/cider-1-0.html","imageRemote":null,"video":null,"channel":null,"channelUrl":null,"author":"rayxi271828","authorUrl":"https://news.ycombinator.com/user?id=rayxi271828","authorImage":null,"authorSlug":null,"score":233,"views":null,"sharedCount":null,"likeCount":null,"sharedContent":null,"parent":{"__typename":"HnJson","localize":[{"title":"苹果酒1.0","locale":"zh"},{"title":"蘋果酒1.0","locale":"zh-Hant"}]}},{"__typename":"SocialMediaPost","id":"HnPost-25569883","excerpt":"","slug":"/hn/25569883","title":"Brexit deal mentions Netscape browser and Mozilla Mail","date":"December 29, 2020","dateISO":"2020-12-29T16:56:30.706Z","datetime":"2020-12-29 16:56","tags":["story","Hacker News"],"image":null,"imageAlt":null,"provider":"Hacker News","thirdPartyId":"25569883","url":"https://news.ycombinator.com/item?id=25569883","originalUrl":"https://www.bbc.co.uk/news/technology-55475433","imageRemote":"https://ichef.bbci.co.uk/news/1024/branded_news/6B75/production/_116290572_gettyimages-113425375.jpg","video":null,"channel":null,"channelUrl":null,"author":"spzb","authorUrl":"https://news.ycombinator.com/user?id=spzb","authorImage":null,"authorSlug":null,"score":338,"views":null,"sharedCount":null,"likeCount":null,"sharedContent":null,"parent":{"__typename":"HnJson","localize":[{"title":"英国退欧协议提到Netscape Browser和Mozilla Mail","locale":"zh"},{"title":"英國退歐協議提到Netscape Browser和Mozilla Mail","locale":"zh-Hant"}]}},{"__typename":"SocialMediaPost","id":"HnPost-25570038","excerpt":"","slug":"/hn/25570038","title":"Ten year study: No link between violent video games and aggressive behavior","date":"December 29, 2020","dateISO":"2020-12-29T16:56:30.706Z","datetime":"2020-12-29 16:56","tags":["story","Hacker News"],"image":null,"imageAlt":null,"provider":"Hacker News","thirdPartyId":"25570038","url":"https://news.ycombinator.com/item?id=25570038","originalUrl":"https://gamesage.net/blogs/news/ten-year-long-study-confirms-no-link-between-playing-violent-video-games-as-early-as-ten-years-old-and-aggressive-behavior-later-in-life","imageRemote":"https://cdn.shopify.com/s/files/1/0267/3111/8669/articles/GTA-V-Logo-Banner_1024x.png?v=1609244377","video":null,"channel":null,"channelUrl":null,"author":"chops","authorUrl":"https://news.ycombinator.com/user?id=chops","authorImage":null,"authorSlug":null,"score":1012,"views":null,"sharedCount":null,"likeCount":null,"sharedContent":null,"parent":{"__typename":"HnJson","localize":[{"title":"十年研究：暴力电子游戏和攻击性行为之间没有联系","locale":"zh"},{"title":"十年研究：暴力電子遊戲和攻擊性行爲之間沒有聯繫","locale":"zh-Hant"}]}},{"__typename":"SocialMediaPost","id":"HnPost-25570247","excerpt":"","slug":"/hn/25570247","title":"iPhone workers given choice of forced labor or being sent to detention centers","date":"December 29, 2020","dateISO":"2020-12-29T16:56:30.706Z","datetime":"2020-12-29 16:56","tags":["story","Hacker News"],"image":null,"imageAlt":null,"provider":"Hacker News","thirdPartyId":"25570247","url":"https://news.ycombinator.com/item?id=25570247","originalUrl":"https://9to5mac.com/2020/12/29/iphone-workers-forced-labor/","imageRemote":"https://i0.wp.com/9to5mac.com/wp-content/uploads/sites/6/2020/12/iPhone-workers-%E2%80%93-forced-labor-or-detention-centers-says-report.jpg?resize=1200%2C628&quality=82&strip=all&ssl=1","video":null,"channel":null,"channelUrl":null,"author":"notRobot","authorUrl":"https://news.ycombinator.com/user?id=notRobot","authorImage":null,"authorSlug":null,"score":572,"views":null,"sharedCount":null,"likeCount":null,"sharedContent":null,"parent":{"__typename":"HnJson","localize":[{"title":"iPhone工人可以选择强迫劳动或被送往拘留中心","locale":"zh"},{"title":"iPhone工人可以選擇強迫勞動或被送往拘留中心","locale":"zh-Hant"}]}},{"__typename":"SocialMediaPost","id":"HnPost-25568856","excerpt":"","slug":"/hn/25568856","title":"Show HN: Thruhikes – A list of long distance hikes around the world","date":"December 29, 2020","dateISO":"2020-12-29T15:33:30.877Z","datetime":"2020-12-29 15:33","tags":["story","Show HN","Hacker News"],"image":null,"imageAlt":null,"provider":"Hacker News","thirdPartyId":"25568856","url":"https://news.ycombinator.com/item?id=25568856","originalUrl":"https://thruhikes.net/","imageRemote":"https://thruhikes.net/logo.png","video":null,"channel":"Show HN","channelUrl":"https://news.ycombinator.com/show","author":"oguzcanhuner","authorUrl":"https://news.ycombinator.com/user?id=oguzcanhuner","authorImage":null,"authorSlug":null,"score":398,"views":null,"sharedCount":null,"likeCount":null,"sharedContent":null,"parent":{"__typename":"HnJson","localize":[{"title":"HN新产品：Thruhikes-世界长途徒步旅行清单","locale":"zh"},{"title":"HN新產品：Thruhikes-世界長途徒步旅行清單","locale":"zh-Hant"}]}}]}},"pageContext":{"basePath":"/","pageType":"tag","tag":"story","tagsFilter":{"id":{"glob":"!*Post-1"}},"filter":{"id":{"glob":"!*Post-1"},"tags":{"eq":"story"}},"limit":25,"skip":400,"total":919,"totalPages":37,"currentPage":17,"maxWidth":1024,"maxHeight":512,"locale":"zh-Hant","hrefLang":"zh-Hant","originalPath":"/tags/story/page/17","dateFormat":"YYYY-MM-DD"}},"staticQueryHashes":["1239077767","2506312863","2744905544","3025052997","3493603132","3493603132","3513215887","386998304"]}