{"componentChunkName":"component---gatsby-theme-buzzing-src-gatsby-theme-timeline-templates-posts-query-js","path":"/zh-Hant/tags/story/page/41","result":{"data":{"site":{"siteMetadata":{"title":"Reddit 热门","description":"用中文浏览Reddit热门内容","social":[{"name":"Twitter","url":"https://twitter.com/gatsbyjs","external":null,"prefetch":null},{"name":"GitHub","url":"https://github.com/gatsbyjs","external":null,"prefetch":null}],"menuLinks":[],"localize":[{"locale":"en","title":"Buzzing on Reddit","description":"See what's buzzing on Reddit in your native language","social":[{"name":"Reddit","url":"https://www.reddit.com/","external":true,"prefetch":null}],"menuLinks":[{"name":"Weekly Selection","url":"/issues","external":null,"prefetch":null},{"name":"RSS","url":"/rss.xml","external":null,"prefetch":false}]},{"locale":"zh-Hant","title":"Reddit 熱門","description":"用中文瀏覽Reddit熱門內容","social":null,"menuLinks":null}]}},"tagsGroup":{"group":[{"fieldValue":"ASK HN","totalCount":44},{"fieldValue":"Bitcoin","totalCount":4},{"fieldValue":"Hacker News","totalCount":2600},{"fieldValue":"Poll","totalCount":1},{"fieldValue":"SaveAMC","totalCount":1},{"fieldValue":"Show HN","totalCount":89},{"fieldValue":"bitcoin","totalCount":3},{"fieldValue":"investing","totalCount":797},{"fieldValue":"poll","totalCount":1},{"fieldValue":"reddit","totalCount":4938},{"fieldValue":"science","totalCount":1},{"fieldValue":"stocks","totalCount":1592},{"fieldValue":"story","totalCount":2599},{"fieldValue":"tweet","totalCount":814},{"fieldValue":"wallstreetbets","totalCount":2549}]},"allBlogPost":{"nodes":[{"__typename":"SocialMediaPost","id":"HnPost-26061637","excerpt":"","slug":"/hn/26061637","title":"Stop defacing quotes with brackets","date":"February 09, 2021","dateISO":"2021-02-09T13:07:32.664Z","datetime":"2021-02-09 13:07","tags":["story","Hacker News"],"image":null,"imageAlt":null,"provider":"Hacker News","thirdPartyId":"26061637","url":"https://news.ycombinator.com/item?id=26061637","originalUrl":"https://slate.com/human-interest/2021/02/stop-defacing-quotes-with-brackets.html","imageRemote":"https://compote.slate.com/images/b13ffe92-56ce-40ee-8858-76d0fe1980ac.jpeg?width=780&height=520&rect=1560x1040&offset=0x0","video":null,"channel":null,"channelUrl":null,"author":"howsilly","authorUrl":"https://news.ycombinator.com/user?id=howsilly","authorImage":null,"authorSlug":null,"score":241,"views":null,"sharedCount":null,"likeCount":null,"sharedContent":null,"parent":{"__typename":"HnJson","localize":[{"title":"停止用括号污损引号","locale":"zh"},{"title":"停止用括號污損引號","locale":"zh-Hant"}]}},{"__typename":"SocialMediaPost","id":"HnPost-26071906","excerpt":"","slug":"/hn/26071906","title":"I don't want to do front-end anymore","date":"February 09, 2021","dateISO":"2021-02-09T12:39:42.070Z","datetime":"2021-02-09 12:39","tags":["story","Hacker News"],"image":null,"imageAlt":null,"provider":"Hacker News","thirdPartyId":"26071906","url":"https://news.ycombinator.com/item?id=26071906","originalUrl":"https://www.askonomm.com/blog/i-dont-want-to-do-frontend-anymore","imageRemote":null,"video":null,"channel":null,"channelUrl":null,"author":"askonomm","authorUrl":"https://news.ycombinator.com/user?id=askonomm","authorImage":null,"authorSlug":null,"score":409,"views":null,"sharedCount":null,"likeCount":null,"sharedContent":null,"parent":{"__typename":"HnJson","localize":[{"title":"我不想再做前端了。","locale":"zh"},{"title":"我不想再做前端了。","locale":"zh-Hant"}]}},{"__typename":"SocialMediaPost","id":"HnPost-26075004","excerpt":"","slug":"/hn/26075004","title":"CD Project Red has been hacked. Hit with ransomware and data stolen.","date":"February 09, 2021","dateISO":"2021-02-09T11:23:09.982Z","datetime":"2021-02-09 11:23","tags":["story","Hacker News"],"image":null,"imageAlt":null,"provider":"Hacker News","thirdPartyId":"26075004","url":"https://news.ycombinator.com/item?id=26075004","originalUrl":"https://twitter.com/CDPROJEKTRED/status/1359048125403590660","imageRemote":null,"video":null,"channel":null,"channelUrl":null,"author":"rmm","authorUrl":"https://news.ycombinator.com/user?id=rmm","authorImage":null,"authorSlug":null,"score":280,"views":null,"sharedCount":null,"likeCount":null,"sharedContent":null,"parent":{"__typename":"HnJson","localize":[{"title":"红色项目CD被黑客攻击 遭遇勒索软件，数据被盗。","locale":"zh"},{"title":"紅色項目CD被黑客攻擊 遭遇勒索軟件，數據被盜。","locale":"zh-Hant"}]}},{"__typename":"SocialMediaPost","id":"HnPost-26066528","excerpt":"","slug":"/hn/26066528","title":"The largest study to date on the genetic basis of sexuality (2019)","date":"February 09, 2021","dateISO":"2021-02-09T11:07:34.026Z","datetime":"2021-02-09 11:07","tags":["story","Hacker News"],"image":null,"imageAlt":null,"provider":"Hacker News","thirdPartyId":"26066528","url":"https://news.ycombinator.com/item?id=26066528","originalUrl":"https://www.nature.com/articles/d41586-019-02585-6","imageRemote":"https://media.nature.com/lw1024/magazine-assets/d41586-019-02585-6/d41586-019-02585-6_17110348.jpg","video":null,"channel":null,"channelUrl":null,"author":"YeGoblynQueenne","authorUrl":"https://news.ycombinator.com/user?id=YeGoblynQueenne","authorImage":null,"authorSlug":null,"score":170,"views":null,"sharedCount":null,"likeCount":null,"sharedContent":null,"parent":{"__typename":"HnJson","localize":[{"title":"迄今规模最大的性行为遗传基础研究(2019年)","locale":"zh"},{"title":"迄今規模最大的性行爲遺傳基礎研究(2019年)","locale":"zh-Hant"}]}},{"__typename":"SocialMediaPost","id":"HnPost-26056781","excerpt":"","slug":"/hn/26056781","title":"Opinion: Don’t Stop at Big Tech–We Need to Bust Big Agriculture, Too","date":"February 09, 2021","dateISO":"2021-02-09T10:24:16.380Z","datetime":"2021-02-09 10:24","tags":["story","Hacker News"],"image":null,"imageAlt":null,"provider":"Hacker News","thirdPartyId":"26056781","url":"https://news.ycombinator.com/item?id=26056781","originalUrl":"https://modernfarmer.com/2021/02/opinion-dont-stop-at-big-tech-we-need-to-bust-big-agriculture-too/","imageRemote":"https://modernfarmer.com/wp-content/uploads/2021/02/shutterstock_1604644429.jpg","video":null,"channel":null,"channelUrl":null,"author":"doener","authorUrl":"https://news.ycombinator.com/user?id=doener","authorImage":null,"authorSlug":null,"score":161,"views":null,"sharedCount":null,"likeCount":null,"sharedContent":null,"parent":{"__typename":"HnJson","localize":[{"title":"观点。不要止于大科技--也要打击大农业。","locale":"zh"},{"title":"觀點。不要止於大科技--也要打擊大農業。","locale":"zh-Hant"}]}},{"__typename":"SocialMediaPost","id":"HnPost-26073135","excerpt":"","slug":"/hn/26073135","title":"Reddit valued at $6B on a $250M round","date":"February 09, 2021","dateISO":"2021-02-09T10:24:16.379Z","datetime":"2021-02-09 10:24","tags":["story","Hacker News"],"image":null,"imageAlt":null,"provider":"Hacker News","thirdPartyId":"26073135","url":"https://news.ycombinator.com/item?id=26073135","originalUrl":"https://www.reuters.com/article/us-reddit-funding/reddits-valuation-doubles-to-6-billion-after-new-250-million-funding-idUSKBN2A9056","imageRemote":"https://static.reuters.com/resources/r/?m=02&d=20210209&t=2&i=1550822785&r=LYNXMPEH18033&w=800","video":null,"channel":null,"channelUrl":null,"author":"mathattack","authorUrl":"https://news.ycombinator.com/user?id=mathattack","authorImage":null,"authorSlug":null,"score":231,"views":null,"sharedCount":null,"likeCount":null,"sharedContent":null,"parent":{"__typename":"HnJson","localize":[{"title":"Reddit估值60亿美元，融资2.5亿美元。","locale":"zh"},{"title":"Reddit估值60億美元，融資2.5億美元。","locale":"zh-Hant"}]}},{"__typename":"SocialMediaPost","id":"HnPost-26073463","excerpt":"","slug":"/hn/26073463","title":"Turning an old Amazon Kindle into a eInk development platform","date":"February 09, 2021","dateISO":"2021-02-09T09:39:26.017Z","datetime":"2021-02-09 09:39","tags":["story","Hacker News"],"image":null,"imageAlt":null,"provider":"Hacker News","thirdPartyId":"26073463","url":"https://news.ycombinator.com/item?id=26073463","originalUrl":"https://blog.lidskialf.net/2021/02/08/turning-an-old-kindle-into-a-eink-development-platform/","imageRemote":"https://adq454703481.files.wordpress.com/2021/02/kindle_serial_magnified.jpg?w=900","video":null,"channel":null,"channelUrl":null,"author":"miles","authorUrl":"https://news.ycombinator.com/user?id=miles","authorImage":null,"authorSlug":null,"score":371,"views":null,"sharedCount":null,"likeCount":null,"sharedContent":null,"parent":{"__typename":"HnJson","localize":[{"title":"将旧的亚马逊Kindle变成一个eInk开发平台。","locale":"zh"},{"title":"將舊的亞馬遜Kindle變成一個eInk開發平臺。","locale":"zh-Hant"}]}},{"__typename":"SocialMediaPost","id":"HnPost-26074289","excerpt":"","slug":"/hn/26074289","title":"Algorithms by Jeff Erickson","date":"February 09, 2021","dateISO":"2021-02-09T08:41:26.494Z","datetime":"2021-02-09 08:41","tags":["story","Hacker News"],"image":null,"imageAlt":null,"provider":"Hacker News","thirdPartyId":"26074289","url":"https://news.ycombinator.com/item?id=26074289","originalUrl":"http://jeffe.cs.illinois.edu/teaching/algorithms/","imageRemote":"http://jeffe.cs.illinois.edu/teaching/algorithms/FrontCover.png","video":null,"channel":null,"channelUrl":null,"author":"ngzhian","authorUrl":"https://news.ycombinator.com/user?id=ngzhian","authorImage":null,"authorSlug":null,"score":589,"views":null,"sharedCount":null,"likeCount":null,"sharedContent":null,"parent":{"__typename":"HnJson","localize":[{"title":"Jeff Erickson的算法","locale":"zh"},{"title":"Jeff Erickson的算法","locale":"zh-Hant"}]}},{"__typename":"SocialMediaPost","id":"HnPost-26062617","excerpt":"","slug":"/hn/26062617","title":"A gorilla who was brought up as a boy in an English village","date":"February 09, 2021","dateISO":"2021-02-09T04:53:38.825Z","datetime":"2021-02-09 04:53","tags":["story","Hacker News"],"image":null,"imageAlt":null,"provider":"Hacker News","thirdPartyId":"26062617","url":"https://news.ycombinator.com/item?id=26062617","originalUrl":"https://medium.com/history-of-yesterday/the-gorilla-who-was-brought-up-as-a-boy-in-an-english-village-6e3cdac33c63","imageRemote":"https://miro.medium.com/max/1200/1*_JNgqrv1mAjGfKRmb_N1GA.png","video":null,"channel":null,"channelUrl":null,"author":"simonebrunozzi","authorUrl":"https://news.ycombinator.com/user?id=simonebrunozzi","authorImage":null,"authorSlug":null,"score":181,"views":null,"sharedCount":null,"likeCount":null,"sharedContent":null,"parent":{"__typename":"HnJson","localize":[{"title":"一个在英国村子里长大的大猩猩。","locale":"zh"},{"title":"一個在英國村子裏長大的大猩猩。","locale":"zh-Hant"}]}},{"__typename":"SocialMediaPost","id":"HnPost-26063523","excerpt":"","slug":"/hn/26063523","title":"The computers rejecting job applications","date":"February 09, 2021","dateISO":"2021-02-09T00:56:46.309Z","datetime":"2021-02-09 00:56","tags":["story","Hacker News"],"image":null,"imageAlt":null,"provider":"Hacker News","thirdPartyId":"26063523","url":"https://news.ycombinator.com/item?id=26063523","originalUrl":"https://www.bbc.co.uk/news/business-55932977","imageRemote":"https://ichef.bbci.co.uk/news/1024/branded_news/F305/production/_116831226_gettyimages-90786576.jpg","video":null,"channel":null,"channelUrl":null,"author":"mnw21cam","authorUrl":"https://news.ycombinator.com/user?id=mnw21cam","authorImage":null,"authorSlug":null,"score":197,"views":null,"sharedCount":null,"likeCount":null,"sharedContent":null,"parent":{"__typename":"HnJson","localize":[{"title":"拒绝求职申请的电脑","locale":"zh"},{"title":"拒絕求職申請的電腦","locale":"zh-Hant"}]}},{"__typename":"SocialMediaPost","id":"HnPost-26072025","excerpt":"","slug":"/hn/26072025","title":"20% of requests for Wikimedia Commons are for one image of a flower","date":"February 09, 2021","dateISO":"2021-02-09T00:56:46.309Z","datetime":"2021-02-09 00:56","tags":["story","Hacker News"],"image":null,"imageAlt":null,"provider":"Hacker News","thirdPartyId":"26072025","url":"https://news.ycombinator.com/item?id=26072025","originalUrl":"https://phabricator.wikimedia.org/T273741","imageRemote":null,"video":null,"channel":null,"channelUrl":null,"author":"IfOnlyYouKnew","authorUrl":"https://news.ycombinator.com/user?id=IfOnlyYouKnew","authorImage":null,"authorSlug":null,"score":1384,"views":null,"sharedCount":null,"likeCount":null,"sharedContent":null,"parent":{"__typename":"HnJson","localize":[{"title":"20%的维基共享资源请求是针对一朵花的图像。","locale":"zh"},{"title":"20%的維基共享資源請求是針對一朵花的圖像。","locale":"zh-Hant"}]}},{"__typename":"SocialMediaPost","id":"HnPost-26070262","excerpt":"","slug":"/hn/26070262","title":"Hacker increased chemical level at Oldsmar's city water system, sheriff says","date":"February 09, 2021","dateISO":"2021-02-09T00:00:20.634Z","datetime":"2021-02-09 00:00","tags":["story","Hacker News"],"image":null,"imageAlt":null,"provider":"Hacker News","thirdPartyId":"26070262","url":"https://news.ycombinator.com/item?id=26070262","originalUrl":"https://www.wtsp.com/article/news/local/pinellascounty/pinellas-oldsmar-water-system-computer-intrustion/67-512b2bab-9f94-44d7-841e-5169fdb0a0bd","imageRemote":"https://media.wtsp.com/assets/WTSP/images/69f3cbdf-c368-4596-8187-a104c601feca/69f3cbdf-c368-4596-8187-a104c601feca_1140x641.jpg","video":null,"channel":null,"channelUrl":null,"author":"bschne","authorUrl":"https://news.ycombinator.com/user?id=bschne","authorImage":null,"authorSlug":null,"score":578,"views":null,"sharedCount":null,"likeCount":null,"sharedContent":null,"parent":{"__typename":"HnJson","localize":[{"title":"警长说，黑客增加了Oldsmar城市供水系统的化学水平。","locale":"zh"},{"title":"警長說，黑客增加了Oldsmar城市供水系統的化學水平。","locale":"zh-Hant"}]}},{"__typename":"SocialMediaPost","id":"HnPost-26067326","excerpt":"","slug":"/hn/26067326","title":"New 10 Terapixel Image of the Night Sky Contains 1B Galaxies","date":"February 08, 2021","dateISO":"2021-02-08T23:53:33.885Z","datetime":"2021-02-08 23:53","tags":["story","Hacker News"],"image":null,"imageAlt":null,"provider":"Hacker News","thirdPartyId":"26067326","url":"https://news.ycombinator.com/item?id=26067326","originalUrl":"https://viewer.legacysurvey.org/#IC%203206","imageRemote":null,"video":null,"channel":null,"channelUrl":null,"author":"soheilpro","authorUrl":"https://news.ycombinator.com/user?id=soheilpro","authorImage":null,"authorSlug":null,"score":521,"views":null,"sharedCount":null,"likeCount":null,"sharedContent":null,"parent":{"__typename":"HnJson","localize":[{"title":"新的10兆像素夜空图像包含1B星系","locale":"zh"},{"title":"新的10兆像素夜空圖像包含1B星系","locale":"zh-Hant"}]}},{"__typename":"SocialMediaPost","id":"HnPost-26066340","excerpt":"","slug":"/hn/26066340","title":"Show HN: \"Programming Algorithms in Lisp” Book","date":"February 08, 2021","dateISO":"2021-02-08T23:32:12.847Z","datetime":"2021-02-08 23:32","tags":["story","Show HN","Hacker News"],"image":null,"imageAlt":null,"provider":"Hacker News","thirdPartyId":"26066340","url":"https://news.ycombinator.com/item?id=26066340","originalUrl":"https://www.apress.com/gp/book/9781484264270","imageRemote":"https://images.springer.com/sgw/books/medium/9781484264270.jpg","video":null,"channel":"Show HN","channelUrl":"https://news.ycombinator.com/show","author":"vseloved","authorUrl":"https://news.ycombinator.com/user?id=vseloved","authorImage":null,"authorSlug":null,"score":232,"views":null,"sharedCount":null,"likeCount":null,"sharedContent":null,"parent":{"__typename":"HnJson","localize":[{"title":"出示HN：《Lisp编程算法》一书","locale":"zh"},{"title":"出示HN：《Lisp編程算法》一書","locale":"zh-Hant"}]}},{"__typename":"SocialMediaPost","id":"HnPost-26068032","excerpt":"","slug":"/hn/26068032","title":"Blog with Markdown and Git, and degrade gracefully through time","date":"February 08, 2021","dateISO":"2021-02-08T22:55:45.392Z","datetime":"2021-02-08 22:55","tags":["story","Hacker News"],"image":null,"imageAlt":null,"provider":"Hacker News","thirdPartyId":"26068032","url":"https://news.ycombinator.com/item?id=26068032","originalUrl":"https://brandur.org/fragments/graceful-degradation-time","imageRemote":"https://brandur.org/photographs/fragments/graceful-degradation-time/markdown-and-git.png","video":null,"channel":null,"channelUrl":null,"author":"craigkerstiens","authorUrl":"https://news.ycombinator.com/user?id=craigkerstiens","authorImage":null,"authorSlug":null,"score":290,"views":null,"sharedCount":null,"likeCount":null,"sharedContent":null,"parent":{"__typename":"HnJson","localize":[{"title":"用Markdown和Git写博客，并通过时间优雅地降解。","locale":"zh"},{"title":"用Markdown和Git寫博客，並通過時間優雅地降解。","locale":"zh-Hant"}]}},{"__typename":"SocialMediaPost","id":"HnPost-26069621","excerpt":"","slug":"/hn/26069621","title":"Show HN: Clerk – all of user management as-a-service, not just authentication","date":"February 08, 2021","dateISO":"2021-02-08T21:58:04.534Z","datetime":"2021-02-08 21:58","tags":["story","Show HN","Hacker News"],"image":null,"imageAlt":null,"provider":"Hacker News","thirdPartyId":"26069621","url":"https://news.ycombinator.com/item?id=26069621","originalUrl":"https://clerk.dev/blog/all-of-user-management-not-just-authentication","imageRemote":"https://uploads-ssl.webflow.com/5fd7bfc6e6f1ce2fd6ab58c5/6019dff6fd671523538092e1_blog-clerk.png","video":null,"channel":"Show HN","channelUrl":"https://news.ycombinator.com/show","author":"colinclerk","authorUrl":"https://news.ycombinator.com/user?id=colinclerk","authorImage":null,"authorSlug":null,"score":579,"views":null,"sharedCount":null,"likeCount":null,"sharedContent":null,"parent":{"__typename":"HnJson","localize":[{"title":"显示HN：办事器--所有的用户管理即服务，而不仅仅是身份验证","locale":"zh"},{"title":"顯示HN：辦事器--所有的用戶管理即服務，而不僅僅是身份驗證","locale":"zh-Hant"}]}},{"__typename":"SocialMediaPost","id":"HnPost-26066345","excerpt":"","slug":"/hn/26066345","title":"Don’t Underestimate the Power of a Walk","date":"February 08, 2021","dateISO":"2021-02-08T21:20:53.178Z","datetime":"2021-02-08 21:20","tags":["story","Hacker News"],"image":null,"imageAlt":null,"provider":"Hacker News","thirdPartyId":"26066345","url":"https://news.ycombinator.com/item?id=26066345","originalUrl":"https://hbr.org/2021/02/dont-underestimate-the-power-of-a-walk","imageRemote":"https://hbr.org/resources/images/article_assets/2021/02/Feb21_02_227304805.jpg","video":null,"channel":null,"channelUrl":null,"author":"tdmckinlay","authorUrl":"https://news.ycombinator.com/user?id=tdmckinlay","authorImage":null,"authorSlug":null,"score":244,"views":null,"sharedCount":null,"likeCount":null,"sharedContent":null,"parent":{"__typename":"HnJson","localize":[{"title":"不要低估散步的力量。","locale":"zh"},{"title":"不要低估散步的力量。","locale":"zh-Hant"}]}},{"__typename":"SocialMediaPost","id":"HnPost-26056851","excerpt":"","slug":"/hn/26056851","title":"NYT reporter falsely accuses tech investor of using a slur","date":"February 08, 2021","dateISO":"2021-02-08T20:52:18.562Z","datetime":"2021-02-08 20:52","tags":["story","Hacker News"],"image":null,"imageAlt":null,"provider":"Hacker News","thirdPartyId":"26056851","url":"https://news.ycombinator.com/item?id=26056851","originalUrl":"https://greenwald.substack.com/p/the-journalistic-tattletale-and-censorship","imageRemote":"https://cdn.substack.com/image/fetch/w_1200,c_limit,f_jpg,q_auto:good,fl_progressive:steep/https%3A%2F%2Fbucketeer-e05bbc84-baa3-437e-9518-adb32be77984.s3.amazonaws.com%2Fpublic%2Fimages%2F823ccc6a-dfdb-48a2-b79e-33691326f128_2999x880.jpeg","video":null,"channel":null,"channelUrl":null,"author":"high_derivative","authorUrl":"https://news.ycombinator.com/user?id=high_derivative","authorImage":null,"authorSlug":null,"score":451,"views":null,"sharedCount":null,"likeCount":null,"sharedContent":null,"parent":{"__typename":"HnJson","localize":[{"title":"纽约时报记者诬陷科技投资者使用污言秽语。","locale":"zh"},{"title":"紐約時報記者誣陷科技投資者使用污言穢語。","locale":"zh-Hant"}]}},{"__typename":"SocialMediaPost","id":"HnPost-26066365","excerpt":"","slug":"/hn/26066365","title":"GitHub experiencing issues with actions, pull requests, packages","date":"February 08, 2021","dateISO":"2021-02-08T20:41:50.231Z","datetime":"2021-02-08 20:41","tags":["story","Hacker News"],"image":null,"imageAlt":null,"provider":"Hacker News","thirdPartyId":"26066365","url":"https://news.ycombinator.com/item?id=26066365","originalUrl":"https://www.githubstatus.com/incidents/th4mgzt9y25t","imageRemote":"https://dka575ofm4ao0.cloudfront.net/pages-twitter_logos/original/36420/GitHub-Mark-120px-plus.png","video":null,"channel":null,"channelUrl":null,"author":"Amorymeltzer","authorUrl":"https://news.ycombinator.com/user?id=Amorymeltzer","authorImage":null,"authorSlug":null,"score":214,"views":null,"sharedCount":null,"likeCount":null,"sharedContent":null,"parent":{"__typename":"HnJson","localize":[{"title":"GitHub在动作、拉取请求、包方面遇到问题。","locale":"zh"},{"title":"GitHub在動作、拉取請求、包方面遇到問題。","locale":"zh-Hant"}]}},{"__typename":"SocialMediaPost","id":"HnPost-26065511","excerpt":"","slug":"/hn/26065511","title":"State of the Common Lisp ecosystem, 2020","date":"February 08, 2021","dateISO":"2021-02-08T19:52:43.523Z","datetime":"2021-02-08 19:52","tags":["story","Hacker News"],"image":null,"imageAlt":null,"provider":"Hacker News","thirdPartyId":"26065511","url":"https://news.ycombinator.com/item?id=26065511","originalUrl":"https://lisp-journey.gitlab.io/blog/state-of-the-common-lisp-ecosystem-2020/","imageRemote":null,"video":null,"channel":null,"channelUrl":null,"author":"lelf","authorUrl":"https://news.ycombinator.com/user?id=lelf","authorImage":null,"authorSlug":null,"score":310,"views":null,"sharedCount":null,"likeCount":null,"sharedContent":null,"parent":{"__typename":"HnJson","localize":[{"title":"2020年共同语言生态系统的现状","locale":"zh"},{"title":"2020年共同語言生態系統的現狀","locale":"zh-Hant"}]}},{"__typename":"SocialMediaPost","id":"HnPost-26067188","excerpt":"","slug":"/hn/26067188","title":"Reminder: Terraria Dev’s Google Story Is Not Unusual at All","date":"February 08, 2021","dateISO":"2021-02-08T19:19:13.150Z","datetime":"2021-02-08 19:19","tags":["story","Hacker News"],"image":null,"imageAlt":null,"provider":"Hacker News","thirdPartyId":"26067188","url":"https://news.ycombinator.com/item?id=26067188","originalUrl":"https://codewriteplay.com/2021/02/08/reminder-terraria-devs-google-story-is-not-unusual-at-all/","imageRemote":null,"video":null,"channel":null,"channelUrl":null,"author":"teddyh","authorUrl":"https://news.ycombinator.com/user?id=teddyh","authorImage":null,"authorSlug":null,"score":316,"views":null,"sharedCount":null,"likeCount":null,"sharedContent":null,"parent":{"__typename":"HnJson","localize":[{"title":"提醒。Terraria Dev的谷歌故事一点也不稀奇","locale":"zh"},{"title":"提醒。Terraria Dev的谷歌故事一點也不稀奇","locale":"zh-Hant"}]}},{"__typename":"SocialMediaPost","id":"HnPost-26066918","excerpt":"","slug":"/hn/26066918","title":"I followed my dreams and got demoted to software developer","date":"February 08, 2021","dateISO":"2021-02-08T18:53:24.897Z","datetime":"2021-02-08 18:53","tags":["story","Hacker News"],"image":null,"imageAlt":null,"provider":"Hacker News","thirdPartyId":"26066918","url":"https://news.ycombinator.com/item?id=26066918","originalUrl":"https://stackoverflow.blog/2021/02/08/moving-from-designer-to-developer-stack-overflow/","imageRemote":"https://149351115.v2.pressablecdn.com/wp-content/uploads/2021/02/Kristina-Lustig-Blog-Post-Header.jpg","video":null,"channel":null,"channelUrl":null,"author":"TangerineDream","authorUrl":"https://news.ycombinator.com/user?id=TangerineDream","authorImage":null,"authorSlug":null,"score":350,"views":null,"sharedCount":null,"likeCount":null,"sharedContent":null,"parent":{"__typename":"HnJson","localize":[{"title":"我追寻着自己的梦想，却被降职为软件开发人员。","locale":"zh"},{"title":"我追尋着自己的夢想，卻被降職爲軟件開發人員。","locale":"zh-Hant"}]}},{"__typename":"SocialMediaPost","id":"HnPost-26067118","excerpt":"","slug":"/hn/26067118","title":"Rust Foundation: Hello, World","date":"February 08, 2021","dateISO":"2021-02-08T17:48:35.241Z","datetime":"2021-02-08 17:48","tags":["story","Hacker News"],"image":null,"imageAlt":null,"provider":"Hacker News","thirdPartyId":"26067118","url":"https://news.ycombinator.com/item?id=26067118","originalUrl":"https://foundation.rust-lang.org/posts/2021-02-08-hello-world/","imageRemote":"https://foundation.rust-lang.org/img/rf-logo-transparent.png","video":null,"channel":null,"channelUrl":null,"author":"steveklabnik","authorUrl":"https://news.ycombinator.com/user?id=steveklabnik","authorImage":null,"authorSlug":null,"score":864,"views":null,"sharedCount":null,"likeCount":null,"sharedContent":null,"parent":{"__typename":"HnJson","localize":[{"title":"锈蚀基金会。你好，世界","locale":"zh"},{"title":"鏽蝕基金會。你好，世界","locale":"zh-Hant"}]}},{"__typename":"SocialMediaPost","id":"HnPost-26063239","excerpt":"","slug":"/hn/26063239","title":"Requests dropped when using Cloudflare’s free tier for a commercial project","date":"February 08, 2021","dateISO":"2021-02-08T17:11:49.216Z","datetime":"2021-02-08 17:11","tags":["story","Hacker News"],"image":null,"imageAlt":null,"provider":"Hacker News","thirdPartyId":"26063239","url":"https://news.ycombinator.com/item?id=26063239","originalUrl":"https://pawelurbanek.com/cloudflare-free-plan","imageRemote":"https://pawelurbanek.com/assets/cloudflare-blocking-requests-b6d1ac130e4de4e9b2076e9053fdbbc362efb6a3e8c10a1cbff130d20b3c38d3.jpg","video":null,"channel":null,"channelUrl":null,"author":"pawurb","authorUrl":"https://news.ycombinator.com/user?id=pawurb","authorImage":null,"authorSlug":null,"score":176,"views":null,"sharedCount":null,"likeCount":null,"sharedContent":null,"parent":{"__typename":"HnJson","localize":[{"title":"在商业项目中使用Cloudflare的免费层时，请求被删除。","locale":"zh"},{"title":"在商業項目中使用Cloudflare的免費層時，請求被刪除。","locale":"zh-Hant"}]}},{"__typename":"SocialMediaPost","id":"HnPost-26060690","excerpt":"","slug":"/hn/26060690","title":"Stop Swiss Cheesing your calendar","date":"February 08, 2021","dateISO":"2021-02-08T15:43:58.239Z","datetime":"2021-02-08 15:43","tags":["story","Hacker News"],"image":null,"imageAlt":null,"provider":"Hacker News","thirdPartyId":"26060690","url":"https://news.ycombinator.com/item?id=26060690","originalUrl":"https://thinkingthrough.substack.com/p/stop-swiss-cheesing-your-calendar","imageRemote":"https://cdn.substack.com/image/fetch/w_1200,c_limit,f_jpg,q_auto:good,fl_progressive:steep/https%3A%2F%2Fbucketeer-e05bbc84-baa3-437e-9518-adb32be77984.s3.amazonaws.com%2Fpublic%2Fimages%2Fff4cb66e-86ed-40aa-8786-047f18e1d9ca_590x443.jpeg","video":null,"channel":null,"channelUrl":null,"author":"maddynator","authorUrl":"https://news.ycombinator.com/user?id=maddynator","authorImage":null,"authorSlug":null,"score":223,"views":null,"sharedCount":null,"likeCount":null,"sharedContent":null,"parent":{"__typename":"HnJson","localize":[{"title":"停止瑞士奶酪你的日历","locale":"zh"},{"title":"停止瑞士奶酪你的日曆","locale":"zh-Hant"}]}}]}},"pageContext":{"basePath":"/","pageType":"tag","tag":"story","tagsFilter":{"id":{"glob":"!*Post-1"}},"filter":{"id":{"glob":"!*Post-1"},"tags":{"eq":"story"}},"limit":25,"skip":1000,"total":2599,"totalPages":104,"currentPage":41,"maxWidth":1024,"maxHeight":512,"locale":"zh-Hant","hrefLang":"zh-Hant","originalPath":"/tags/story/page/41","dateFormat":"YYYY-MM-DD"}},"staticQueryHashes":["1239077767","2506312863","2744905544","3025052997","3493603132","3493603132","3513215887","386998304"]}