{"componentChunkName":"component---gatsby-theme-buzzing-src-gatsby-theme-timeline-templates-posts-query-js","path":"/tags/hacker-news/page/15","result":{"data":{"site":{"siteMetadata":{"title":"Reddit 热门","description":"用中文浏览Reddit热门内容","social":[{"name":"Twitter","url":"https://twitter.com/gatsbyjs","external":null,"prefetch":null},{"name":"GitHub","url":"https://github.com/gatsbyjs","external":null,"prefetch":null}],"menuLinks":[],"localize":[{"locale":"en","title":"Buzzing on Reddit","description":"See what's buzzing on Reddit in your native language","social":[{"name":"Reddit","url":"https://www.reddit.com/","external":true,"prefetch":null}],"menuLinks":[{"name":"Weekly Selection","url":"/issues","external":null,"prefetch":null},{"name":"RSS","url":"/rss.xml","external":null,"prefetch":false}]},{"locale":"zh-Hant","title":"Reddit 熱門","description":"用中文瀏覽Reddit熱門內容","social":null,"menuLinks":null}]}},"tagsGroup":{"group":[{"fieldValue":"ASK HN","totalCount":36},{"fieldValue":"Bitcoin","totalCount":4},{"fieldValue":"Hacker News","totalCount":2185},{"fieldValue":"Poll","totalCount":1},{"fieldValue":"SaveAMC","totalCount":1},{"fieldValue":"Show HN","totalCount":76},{"fieldValue":"bitcoin","totalCount":3},{"fieldValue":"investing","totalCount":686},{"fieldValue":"poll","totalCount":1},{"fieldValue":"reddit","totalCount":4012},{"fieldValue":"science","totalCount":1},{"fieldValue":"stocks","totalCount":1322},{"fieldValue":"story","totalCount":2184},{"fieldValue":"tweet","totalCount":697},{"fieldValue":"wallstreetbets","totalCount":2004}]},"allBlogPost":{"nodes":[{"__typename":"SocialMediaPost","id":"HnPost-26165800","excerpt":"","slug":"/hn/26165800","title":"'Sexual favours were the norm in music industry'","date":"February 17, 2021","dateISO":"2021-02-17T21:21:44.905Z","datetime":"2021-02-17 21:21","tags":["story","Hacker News"],"image":null,"imageAlt":null,"provider":"Hacker News","thirdPartyId":"26165800","url":"https://news.ycombinator.com/item?id=26165800","originalUrl":"https://www.bbc.com/news/entertainment-arts-56029660","imageRemote":"https://ichef.bbci.co.uk/news/1024/branded_news/17547/production/_116995559_gettyimages-84883712_cut.jpg","video":null,"channel":null,"channelUrl":null,"author":"RickJWagner","authorUrl":"https://news.ycombinator.com/user?id=RickJWagner","authorImage":null,"authorSlug":null,"score":356,"views":null,"sharedCount":null,"likeCount":null,"sharedContent":null,"parent":{"__typename":"HnJson","localize":[{"title":"\"性爱是音乐界的常态","locale":"zh"},{"title":"\"性愛是音樂界的常態","locale":"zh-Hant"}]}},{"__typename":"SocialMediaPost","id":"HnPost-26169747","excerpt":"","slug":"/hn/26169747","title":"Visualization of 40M Cell Towers","date":"February 17, 2021","dateISO":"2021-02-17T21:21:44.905Z","datetime":"2021-02-17 21:21","tags":["story","Hacker News"],"image":null,"imageAlt":null,"provider":"Hacker News","thirdPartyId":"26169747","url":"https://news.ycombinator.com/item?id=26169747","originalUrl":"https://alpercinar.com/open-cell-id/","imageRemote":"https://alpercinar.com/open-cell-id/summary.png","video":null,"channel":null,"channelUrl":null,"author":"alprc","authorUrl":"https://news.ycombinator.com/user?id=alprc","authorImage":null,"authorSlug":null,"score":481,"views":null,"sharedCount":null,"likeCount":null,"sharedContent":null,"parent":{"__typename":"HnJson","localize":[{"title":"40M电池塔的可视化","locale":"zh"},{"title":"40M電池塔的可視化","locale":"zh-Hant"}]}},{"__typename":"SocialMediaPost","id":"HnPost-26169886","excerpt":"","slug":"/hn/26169886","title":"Changes to sharing and viewing news on Facebook in Australia","date":"February 17, 2021","dateISO":"2021-02-17T21:21:44.905Z","datetime":"2021-02-17 21:21","tags":["story","Hacker News"],"image":null,"imageAlt":null,"provider":"Hacker News","thirdPartyId":"26169886","url":"https://news.ycombinator.com/item?id=26169886","originalUrl":"https://about.fb.com/news/2021/02/changes-to-sharing-and-viewing-news-on-facebook-in-australia/","imageRemote":"https://about.fb.com/wp-content/uploads/2019/11/FB_Newsroom_Social.png?w=1200","video":null,"channel":null,"channelUrl":null,"author":"justinv","authorUrl":"https://news.ycombinator.com/user?id=justinv","authorImage":null,"authorSlug":null,"score":361,"views":null,"sharedCount":null,"likeCount":null,"sharedContent":null,"parent":{"__typename":"HnJson","localize":[{"title":"澳大利亚Facebook上分享和查看新闻的变化","locale":"zh"},{"title":"澳大利亞Facebook上分享和查看新聞的變化","locale":"zh-Hant"}]}},{"__typename":"SocialMediaPost","id":"HnPost-26165390","excerpt":"","slug":"/hn/26165390","title":"Quad9 public DNS moves to Switzerland","date":"February 17, 2021","dateISO":"2021-02-17T21:01:02.979Z","datetime":"2021-02-17 21:01","tags":["story","Hacker News"],"image":null,"imageAlt":null,"provider":"Hacker News","thirdPartyId":"26165390","url":"https://news.ycombinator.com/item?id=26165390","originalUrl":"https://www.quad9.net/news/blog/quad9-public-domain-name-service-moves-to-switzerland-for-maximum-internet-privacy-protection/","imageRemote":"https://www.quad9.net/uploads/V10_2x_65239ac8db.jpg","video":null,"channel":null,"channelUrl":null,"author":"chronogram","authorUrl":"https://news.ycombinator.com/user?id=chronogram","authorImage":null,"authorSlug":null,"score":191,"views":null,"sharedCount":null,"likeCount":null,"sharedContent":null,"parent":{"__typename":"HnJson","localize":[{"title":"Quad9公共DNS移至瑞士","locale":"zh"},{"title":"Quad9公共DNS移至瑞士","locale":"zh-Hant"}]}},{"__typename":"SocialMediaPost","id":"HnPost-26165357","excerpt":"","slug":"/hn/26165357","title":"WebKit Quirks","date":"February 17, 2021","dateISO":"2021-02-17T20:24:40.291Z","datetime":"2021-02-17 20:24","tags":["story","Hacker News"],"image":null,"imageAlt":null,"provider":"Hacker News","thirdPartyId":"26165357","url":"https://news.ycombinator.com/item?id=26165357","originalUrl":"https://github.com/WebKit/WebKit/blob/main/Source/WebCore/page/Quirks.cpp","imageRemote":"https://avatars.githubusercontent.com/u/6458?s=400&v=4","video":null,"channel":null,"channelUrl":null,"author":"momonga","authorUrl":"https://news.ycombinator.com/user?id=momonga","authorImage":null,"authorSlug":null,"score":193,"views":null,"sharedCount":null,"likeCount":null,"sharedContent":null,"parent":{"__typename":"HnJson","localize":[{"title":"WebKit的怪癖","locale":"zh"},{"title":"WebKit的怪癖","locale":"zh-Hant"}]}},{"__typename":"SocialMediaPost","id":"HnPost-26167248","excerpt":"","slug":"/hn/26167248","title":"Kill the Newsletter – Convert email newsletters into Atom feeds","date":"February 17, 2021","dateISO":"2021-02-17T20:24:40.291Z","datetime":"2021-02-17 20:24","tags":["story","Hacker News"],"image":null,"imageAlt":null,"provider":"Hacker News","thirdPartyId":"26167248","url":"https://news.ycombinator.com/item?id=26167248","originalUrl":"https://kill-the-newsletter.com/","imageRemote":"https://kill-the-newsletter.com/logo.svg","video":null,"channel":null,"channelUrl":null,"author":"polm23","authorUrl":"https://news.ycombinator.com/user?id=polm23","authorImage":null,"authorSlug":null,"score":338,"views":null,"sharedCount":null,"likeCount":null,"sharedContent":null,"parent":{"__typename":"HnJson","localize":[{"title":"杀死通讯--将电子邮件通讯转换为Atom feeds。","locale":"zh"},{"title":"殺死通訊--將電子郵件通訊轉換爲Atom feeds。","locale":"zh-Hant"}]}},{"__typename":"SocialMediaPost","id":"HnPost-26168285","excerpt":"","slug":"/hn/26168285","title":"Show HN: Ray.so – Create beautiful images of your code","date":"February 17, 2021","dateISO":"2021-02-17T19:54:10.491Z","datetime":"2021-02-17 19:54","tags":["story","Show HN","Hacker News"],"image":null,"imageAlt":null,"provider":"Hacker News","thirdPartyId":"26168285","url":"https://news.ycombinator.com/item?id=26168285","originalUrl":"https://ray.so","imageRemote":null,"video":null,"channel":"Show HN","channelUrl":"https://news.ycombinator.com/show","author":"thomaspaulmann","authorUrl":"https://news.ycombinator.com/user?id=thomaspaulmann","authorImage":null,"authorSlug":null,"score":379,"views":null,"sharedCount":null,"likeCount":null,"sharedContent":null,"parent":{"__typename":"HnJson","localize":[{"title":"显示HN：Ray.so - 为您的代码创建美丽的图像。","locale":"zh"},{"title":"顯示HN：Ray.so - 爲您的代碼創建美麗的圖像。","locale":"zh-Hant"}]}},{"__typename":"SocialMediaPost","id":"HnPost-26163982","excerpt":"","slug":"/hn/26163982","title":"Pixar in a Box: the art of storytelling","date":"February 17, 2021","dateISO":"2021-02-17T18:08:47.242Z","datetime":"2021-02-17 18:08","tags":["story","Hacker News"],"image":null,"imageAlt":null,"provider":"Hacker News","thirdPartyId":"26163982","url":"https://news.ycombinator.com/item?id=26163982","originalUrl":"https://www.khanacademy.org/humanities/hass-storytelling/storytelling-pixar-in-a-box","imageRemote":"https://cdn.kastatic.org/images/khan-logo-dark-background-2.png","video":null,"channel":null,"channelUrl":null,"author":"aminozuur","authorUrl":"https://news.ycombinator.com/user?id=aminozuur","authorImage":null,"authorSlug":null,"score":237,"views":null,"sharedCount":null,"likeCount":null,"sharedContent":null,"parent":{"__typename":"HnJson","localize":[{"title":"皮克斯的盒子：讲故事的艺术。","locale":"zh"},{"title":"皮克斯的盒子：講故事的藝術。","locale":"zh-Hant"}]}},{"__typename":"SocialMediaPost","id":"HnPost-26164879","excerpt":"","slug":"/hn/26164879","title":"Python Programming and Numerical Methods: A Guide for Engineers and Scientists","date":"February 17, 2021","dateISO":"2021-02-17T17:53:49.304Z","datetime":"2021-02-17 17:53","tags":["story","Hacker News"],"image":null,"imageAlt":null,"provider":"Hacker News","thirdPartyId":"26164879","url":"https://news.ycombinator.com/item?id=26164879","originalUrl":"https://pythonnumericalmethods.berkeley.edu/notebooks/Index.html","imageRemote":null,"video":null,"channel":null,"channelUrl":null,"author":"happy-go-lucky","authorUrl":"https://news.ycombinator.com/user?id=happy-go-lucky","authorImage":null,"authorSlug":null,"score":264,"views":null,"sharedCount":null,"likeCount":null,"sharedContent":null,"parent":{"__typename":"HnJson","localize":[{"title":"Python编程和数值方法。工程师和科学家指南","locale":"zh"},{"title":"Python編程和數值方法。工程師和科學家指南","locale":"zh-Hant"}]}},{"__typename":"SocialMediaPost","id":"HnPost-26165966","excerpt":"","slug":"/hn/26165966","title":"Epic Games steps up Apple fight with EU antitrust complaint","date":"February 17, 2021","dateISO":"2021-02-17T16:58:39.192Z","datetime":"2021-02-17 16:58","tags":["story","Hacker News"],"image":null,"imageAlt":null,"provider":"Hacker News","thirdPartyId":"26165966","url":"https://news.ycombinator.com/item?id=26165966","originalUrl":"https://www.reuters.com/article/us-eu-apple-epic-games-antitrust/epic-games-takes-apple-fight-to-eu-antitrust-regulators-idUSKBN2AH0MO","imageRemote":"https://static.reuters.com/resources/r/?m=02&d=20210217&t=2&i=1551831472&r=LYNXMPEH1G0D8&w=800","video":null,"channel":null,"channelUrl":null,"author":"mikesabbagh","authorUrl":"https://news.ycombinator.com/user?id=mikesabbagh","authorImage":null,"authorSlug":null,"score":646,"views":null,"sharedCount":null,"likeCount":null,"sharedContent":null,"parent":{"__typename":"HnJson","localize":[{"title":"Epic Games向欧盟提出反垄断申诉，加大对苹果的打击力度。","locale":"zh"},{"title":"Epic Games向歐盟提出反壟斷申訴，加大對蘋果的打擊力度。","locale":"zh-Hant"}]}},{"__typename":"SocialMediaPost","id":"HnPost-26166204","excerpt":"","slug":"/hn/26166204","title":"Declassified spacecrafts and orbital weapons of the USSR","date":"February 17, 2021","dateISO":"2021-02-17T16:58:39.191Z","datetime":"2021-02-17 16:58","tags":["story","Hacker News"],"image":null,"imageAlt":null,"provider":"Hacker News","thirdPartyId":"26166204","url":"https://news.ycombinator.com/item?id=26166204","originalUrl":"https://www.xissufotoday.space/2018/04/declassified-spacecrafts-and-orbital.html","imageRemote":"https://1.bp.blogspot.com/-hR9EPgdNTO0/V6igmMBuAsI/AAAAAAAABPs/RyK0eKmYbkor6nNer0HytjJN5OsSST14QCLcB/w1200-h630-p-k-no-nu/skif-20.jpg","video":null,"channel":null,"channelUrl":null,"author":"eternalban","authorUrl":"https://news.ycombinator.com/user?id=eternalban","authorImage":null,"authorSlug":null,"score":306,"views":null,"sharedCount":null,"likeCount":null,"sharedContent":null,"parent":{"__typename":"HnJson","localize":[{"title":"苏联解密的航天器和轨道武器","locale":"zh"},{"title":"蘇聯解密的航天器和軌道武器","locale":"zh-Hant"}]}},{"__typename":"SocialMediaPost","id":"HnPost-26156391","excerpt":"","slug":"/hn/26156391","title":"Pine64 Unveils Quartz64 SBC","date":"February 17, 2021","dateISO":"2021-02-17T15:39:49.688Z","datetime":"2021-02-17 15:39","tags":["story","Hacker News"],"image":null,"imageAlt":null,"provider":"Hacker News","thirdPartyId":"26156391","url":"https://news.ycombinator.com/item?id=26156391","originalUrl":"https://www.cnx-software.com/2021/02/16/pine64-unveils-quartz64-sbc-powered-by-rockchip-rk3566-soc/","imageRemote":"https://www.cnx-software.com/wp-content/uploads/2021/02/Quartz64-RK3566-SBC.jpg","video":null,"channel":null,"channelUrl":null,"author":"stambros","authorUrl":"https://news.ycombinator.com/user?id=stambros","authorImage":null,"authorSlug":null,"score":164,"views":null,"sharedCount":null,"likeCount":null,"sharedContent":null,"parent":{"__typename":"HnJson","localize":[{"title":"Pine64推出Quartz64 SBC。","locale":"zh"},{"title":"Pine64推出Quartz64 SBC。","locale":"zh-Hant"}]}},{"__typename":"SocialMediaPost","id":"HnPost-26165809","excerpt":"","slug":"/hn/26165809","title":"Why did I leave Google or, why did I stay so long?","date":"February 17, 2021","dateISO":"2021-02-17T14:35:16.375Z","datetime":"2021-02-17 14:35","tags":["story","Hacker News"],"image":null,"imageAlt":null,"provider":"Hacker News","thirdPartyId":"26165809","url":"https://news.ycombinator.com/item?id=26165809","originalUrl":"https://paygo.media/p/25171","imageRemote":"https://paygo-public-prod.s3.amazonaws.com/articles/25171/kl5u2xqf.jpg","video":null,"channel":null,"channelUrl":null,"author":"mrowland","authorUrl":"https://news.ycombinator.com/user?id=mrowland","authorImage":null,"authorSlug":null,"score":788,"views":null,"sharedCount":null,"likeCount":null,"sharedContent":null,"parent":{"__typename":"HnJson","localize":[{"title":"我为什么要离开谷歌，或者说，我为什么要呆这么久？","locale":"zh"},{"title":"我爲什麼要離開谷歌，或者說，我爲什麼要呆這麼久？","locale":"zh-Hant"}]}},{"__typename":"SocialMediaPost","id":"HnPost-26162513","excerpt":"","slug":"/hn/26162513","title":"Spy pixels in emails 'have become endemic'","date":"February 17, 2021","dateISO":"2021-02-17T12:41:48.758Z","datetime":"2021-02-17 12:41","tags":["story","Hacker News"],"image":null,"imageAlt":null,"provider":"Hacker News","thirdPartyId":"26162513","url":"https://news.ycombinator.com/item?id=26162513","originalUrl":"https://www.bbc.co.uk/news/technology-56071437","imageRemote":"https://ichef.bbci.co.uk/news/1024/branded_news/34B1/production/_116998431_emails-leo.jpg","video":null,"channel":null,"channelUrl":null,"author":"dijksterhuis","authorUrl":"https://news.ycombinator.com/user?id=dijksterhuis","authorImage":null,"authorSlug":null,"score":282,"views":null,"sharedCount":null,"likeCount":null,"sharedContent":null,"parent":{"__typename":"HnJson","localize":[{"title":"电子邮件中的间谍像素 \"已经成为流行的\"。","locale":"zh"},{"title":"電子郵件中的間諜像素 \"已經成爲流行的\"。","locale":"zh-Hant"}]}},{"__typename":"SocialMediaPost","id":"HnPost-26162825","excerpt":"","slug":"/hn/26162825","title":"GitHub Deceased User Policy","date":"February 17, 2021","dateISO":"2021-02-17T12:41:48.758Z","datetime":"2021-02-17 12:41","tags":["story","Hacker News"],"image":null,"imageAlt":null,"provider":"Hacker News","thirdPartyId":"26162825","url":"https://news.ycombinator.com/item?id=26162825","originalUrl":"https://docs.github.com/en/github/site-policy/github-deceased-user-policy","imageRemote":null,"video":null,"channel":null,"channelUrl":null,"author":"bobbiechen","authorUrl":"https://news.ycombinator.com/user?id=bobbiechen","authorImage":null,"authorSlug":null,"score":240,"views":null,"sharedCount":null,"likeCount":null,"sharedContent":null,"parent":{"__typename":"HnJson","localize":[{"title":"GitHub已故用户政策","locale":"zh"},{"title":"GitHub已故用戶政策","locale":"zh-Hant"}]}},{"__typename":"SocialMediaPost","id":"HnPost-26164001","excerpt":"","slug":"/hn/26164001","title":"Always Bet on Text","date":"February 17, 2021","dateISO":"2021-02-17T12:41:48.758Z","datetime":"2021-02-17 12:41","tags":["story","Hacker News"],"image":null,"imageAlt":null,"provider":"Hacker News","thirdPartyId":"26164001","url":"https://news.ycombinator.com/item?id=26164001","originalUrl":"https://graydon2.dreamwidth.org/193447.html","imageRemote":"https://v.dreamwidth.org/709628/684470","video":null,"channel":null,"channelUrl":null,"author":"asyrafql","authorUrl":"https://news.ycombinator.com/user?id=asyrafql","authorImage":null,"authorSlug":null,"score":564,"views":null,"sharedCount":null,"likeCount":null,"sharedContent":null,"parent":{"__typename":"HnJson","localize":[{"title":"总是在文字上下注","locale":"zh"},{"title":"總是在文字上下注","locale":"zh-Hant"}]}},{"__typename":"SocialMediaPost","id":"HnPost-26143909","excerpt":"","slug":"/hn/26143909","title":"Clubhouse’s Inevitability","date":"February 17, 2021","dateISO":"2021-02-17T11:29:07.482Z","datetime":"2021-02-17 11:29","tags":["story","Hacker News"],"image":null,"imageAlt":null,"provider":"Hacker News","thirdPartyId":"26143909","url":"https://news.ycombinator.com/item?id=26143909","originalUrl":"https://stratechery.com/2021/clubhouses-inevitability/","imageRemote":"https://stratechery.com/wp-content/uploads/2021/02/WAclubhouse-9.png","video":null,"channel":null,"channelUrl":null,"author":"jger15","authorUrl":"https://news.ycombinator.com/user?id=jger15","authorImage":null,"authorSlug":null,"score":163,"views":null,"sharedCount":null,"likeCount":null,"sharedContent":null,"parent":{"__typename":"HnJson","localize":[{"title":"会所的必然性","locale":"zh"},{"title":"會所的必然性","locale":"zh-Hant"}]}},{"__typename":"SocialMediaPost","id":"HnPost-26163904","excerpt":"","slug":"/hn/26163904","title":"European Citizens' Initiative for a ban on biometric mass surveillance","date":"February 17, 2021","dateISO":"2021-02-17T11:29:07.482Z","datetime":"2021-02-17 11:29","tags":["story","Hacker News"],"image":null,"imageAlt":null,"provider":"Hacker News","thirdPartyId":"26163904","url":"https://news.ycombinator.com/item?id=26163904","originalUrl":"https://reclaimyourface.eu/","imageRemote":"https://reclaimyourface.eu/wp-content/uploads/2021/02/ECI-Launch_Sharepic_2.png","video":null,"channel":null,"channelUrl":null,"author":"hacka22","authorUrl":"https://news.ycombinator.com/user?id=hacka22","authorImage":null,"authorSlug":null,"score":276,"views":null,"sharedCount":null,"likeCount":null,"sharedContent":null,"parent":{"__typename":"HnJson","localize":[{"title":"欧洲公民关于禁止生物识别大规模监控的倡议。","locale":"zh"},{"title":"歐洲公民關於禁止生物識別大規模監控的倡議。","locale":"zh-Hant"}]}},{"__typename":"SocialMediaPost","id":"HnPost-26163346","excerpt":"","slug":"/hn/26163346","title":"IKEA to discontinue its annual catalog, ending a 70-year run","date":"February 17, 2021","dateISO":"2021-02-17T10:41:42.011Z","datetime":"2021-02-17 10:41","tags":["story","Hacker News"],"image":null,"imageAlt":null,"provider":"Hacker News","thirdPartyId":"26163346","url":"https://news.ycombinator.com/item?id=26163346","originalUrl":"https://www.architecturaldigest.com/story/ikea-catalog-to-be-discontinued","imageRemote":"https://media.architecturaldigest.com/photos/5fd247a65395673f547985cd/16:9/w_1280,c_limit/GettyImages-1290244802.jpg","video":null,"channel":null,"channelUrl":null,"author":"RankingMember","authorUrl":"https://news.ycombinator.com/user?id=RankingMember","authorImage":null,"authorSlug":null,"score":375,"views":null,"sharedCount":null,"likeCount":null,"sharedContent":null,"parent":{"__typename":"HnJson","localize":[{"title":"宜家家居将停产年度目录，结束70年的经营历史。","locale":"zh"},{"title":"宜家家居將停產年度目錄，結束70年的經營歷史。","locale":"zh-Hant"}]}},{"__typename":"SocialMediaPost","id":"HnPost-26160028","excerpt":"","slug":"/hn/26160028","title":"Malware in open-source web extensions","date":"February 17, 2021","dateISO":"2021-02-17T08:46:40.823Z","datetime":"2021-02-17 08:46","tags":["story","Hacker News"],"image":null,"imageAlt":null,"provider":"Hacker News","thirdPartyId":"26160028","url":"https://news.ycombinator.com/item?id=26160028","originalUrl":"https://lwn.net/SubscriberLink/846272/37d25507fa3e9cd3/","imageRemote":"https://static.lwn.net/images/logo/barepenguin-70.png","video":null,"channel":null,"channelUrl":null,"author":"chmaynard","authorUrl":"https://news.ycombinator.com/user?id=chmaynard","authorImage":null,"authorSlug":null,"score":234,"views":null,"sharedCount":null,"likeCount":null,"sharedContent":null,"parent":{"__typename":"HnJson","localize":[{"title":"开源网络扩展中的恶意软件","locale":"zh"},{"title":"開源網絡擴展中的惡意軟件","locale":"zh-Hant"}]}},{"__typename":"SocialMediaPost","id":"HnPost-26159405","excerpt":"","slug":"/hn/26159405","title":"Clubhouse Bio Generator","date":"February 17, 2021","dateISO":"2021-02-17T07:23:34.032Z","datetime":"2021-02-17 07:23","tags":["story","Hacker News"],"image":null,"imageAlt":null,"provider":"Hacker News","thirdPartyId":"26159405","url":"https://news.ycombinator.com/item?id=26159405","originalUrl":"https://perchance.org/owh9gelu4t","imageRemote":"https://perchance.org/api/getGeneratorScreenshot?generatorName=owh9gelu4t","video":null,"channel":null,"channelUrl":null,"author":"ChrisArchitect","authorUrl":"https://news.ycombinator.com/user?id=ChrisArchitect","authorImage":null,"authorSlug":null,"score":231,"views":null,"sharedCount":null,"likeCount":null,"sharedContent":null,"parent":{"__typename":"HnJson","localize":[{"title":"会所生物发生器","locale":"zh"},{"title":"會所生物發生器","locale":"zh-Hant"}]}},{"__typename":"SocialMediaPost","id":"HnPost-26157331","excerpt":"","slug":"/hn/26157331","title":"New Report Shows Cops Used Ring Cameras to Monitor Black Lives Matter Protests","date":"February 17, 2021","dateISO":"2021-02-17T05:57:36.232Z","datetime":"2021-02-17 05:57","tags":["story","Hacker News"],"image":null,"imageAlt":null,"provider":"Hacker News","thirdPartyId":"26157331","url":"https://news.ycombinator.com/item?id=26157331","originalUrl":"https://www.eff.org/press/releases/new-eff-report-shows-cops-used-ring-cameras-monitor-black-lives-matter-protests","imageRemote":"https://www.eff.org/files/banner_library/ring_banner.png","video":null,"channel":null,"channelUrl":null,"author":"DiabloD3","authorUrl":"https://news.ycombinator.com/user?id=DiabloD3","authorImage":null,"authorSlug":null,"score":172,"views":null,"sharedCount":null,"likeCount":null,"sharedContent":null,"parent":{"__typename":"HnJson","localize":[{"title":"新的报告显示，警察使用环形摄像机监控黑人生命至上的抗议活动。","locale":"zh"},{"title":"新的報告顯示，警察使用環形攝像機監控黑人生命至上的抗議活動。","locale":"zh-Hant"}]}},{"__typename":"SocialMediaPost","id":"HnPost-26158879","excerpt":"","slug":"/hn/26158879","title":"An anniversary for great justice: Remembering “All Your Base” 20 years later","date":"February 17, 2021","dateISO":"2021-02-17T05:15:41.684Z","datetime":"2021-02-17 05:15","tags":["story","Hacker News"],"image":null,"imageAlt":null,"provider":"Hacker News","thirdPartyId":"26158879","url":"https://news.ycombinator.com/item?id=26158879","originalUrl":"https://arstechnica.com/gaming/2021/02/get-ready-to-feel-old-the-all-your-base-music-video-turns-20-today/","imageRemote":"https://cdn.arstechnica.net/wp-content/uploads/2021/02/all-your-base-760x380.jpg","video":null,"channel":null,"channelUrl":null,"author":"samizdis","authorUrl":"https://news.ycombinator.com/user?id=samizdis","authorImage":null,"authorSlug":null,"score":273,"views":null,"sharedCount":null,"likeCount":null,"sharedContent":null,"parent":{"__typename":"HnJson","localize":[{"title":"大义凛然的纪念日。20年后纪念 \"你的所有基地\"","locale":"zh"},{"title":"大義凜然的紀念日。20年後紀念 \"你的所有基地\"","locale":"zh-Hant"}]}},{"__typename":"SocialMediaPost","id":"HnPost-26159106","excerpt":"","slug":"/hn/26159106","title":"NASA's Perseverance rover will attempt to land on Mars this week","date":"February 17, 2021","dateISO":"2021-02-17T04:47:01.695Z","datetime":"2021-02-17 04:47","tags":["story","Hacker News"],"image":null,"imageAlt":null,"provider":"Hacker News","thirdPartyId":"26159106","url":"https://news.ycombinator.com/item?id=26159106","originalUrl":"https://spectrum.ieee.org/automaton/aerospace/robotic-exploration/nasa-perseverance-rover-landing-on-mars-overview","imageRemote":null,"video":null,"channel":null,"channelUrl":null,"author":"quercusa","authorUrl":"https://news.ycombinator.com/user?id=quercusa","authorImage":null,"authorSlug":null,"score":298,"views":null,"sharedCount":null,"likeCount":null,"sharedContent":null,"parent":{"__typename":"HnJson","localize":[{"title":"美国宇航局的 \"锲而不舍 \"号探测器将在本周尝试登陆火星。","locale":"zh"},{"title":"美國宇航局的 \"鍥而不捨 \"號探測器將在本週嘗試登陸火星。","locale":"zh-Hant"}]}},{"__typename":"SocialMediaPost","id":"HnPost-26161846","excerpt":"","slug":"/hn/26161846","title":"Done Answering Questions Stack Overflow","date":"February 17, 2021","dateISO":"2021-02-17T04:47:01.695Z","datetime":"2021-02-17 04:47","tags":["story","Hacker News"],"image":null,"imageAlt":null,"provider":"Hacker News","thirdPartyId":"26161846","url":"https://news.ycombinator.com/item?id=26161846","originalUrl":"https://games.greggman.com/game/done-with-stackoverflow/","imageRemote":"https://games.greggman.com/images/misc/stackoverflow-no-points.png","video":null,"channel":null,"channelUrl":null,"author":"polm23","authorUrl":"https://news.ycombinator.com/user?id=polm23","authorImage":null,"authorSlug":null,"score":352,"views":null,"sharedCount":null,"likeCount":null,"sharedContent":null,"parent":{"__typename":"HnJson","localize":[{"title":"完成回答问题 Stack Overflow","locale":"zh"},{"title":"完成回答問題 Stack Overflow","locale":"zh-Hant"}]}}]}},"pageContext":{"basePath":"/","pageType":"tag","tag":"Hacker News","tagsFilter":{"id":{"glob":"!*Post-1"}},"filter":{"id":{"glob":"!*Post-1"},"tags":{"eq":"Hacker News"}},"limit":25,"skip":350,"total":2185,"totalPages":88,"currentPage":15,"maxWidth":1024,"maxHeight":512,"locale":"zh","hrefLang":"zh-Hans","originalPath":"/tags/hacker-news/page/15","dateFormat":"YYYY-MM-DD"}},"staticQueryHashes":["1239077767","2506312863","2744905544","3025052997","3493603132","3493603132","3513215887","386998304"]}