{"componentChunkName":"component---gatsby-theme-buzzing-src-gatsby-theme-timeline-templates-posts-query-js","path":"/en/tags/story/page/6","result":{"data":{"site":{"siteMetadata":{"title":"Reddit 热门","description":"用中文浏览Reddit热门内容","social":[{"name":"Twitter","url":"https://twitter.com/gatsbyjs","external":null,"prefetch":null},{"name":"GitHub","url":"https://github.com/gatsbyjs","external":null,"prefetch":null}],"menuLinks":[],"localize":[{"locale":"en","title":"Buzzing on Reddit","description":"See what's buzzing on Reddit in your native language","social":[{"name":"Reddit","url":"https://www.reddit.com/","external":true,"prefetch":null}],"menuLinks":[{"name":"Weekly Selection","url":"/issues","external":null,"prefetch":null},{"name":"RSS","url":"/rss.xml","external":null,"prefetch":false}]},{"locale":"zh-Hant","title":"Reddit 熱門","description":"用中文瀏覽Reddit熱門內容","social":null,"menuLinks":null}]}},"tagsGroup":{"group":[{"fieldValue":"ASK HN","totalCount":22},{"fieldValue":"Bitcoin","totalCount":3},{"fieldValue":"Hacker News","totalCount":920},{"fieldValue":"Poll","totalCount":1},{"fieldValue":"Show HN","totalCount":34},{"fieldValue":"investing","totalCount":197},{"fieldValue":"poll","totalCount":1},{"fieldValue":"reddit","totalCount":777},{"fieldValue":"science","totalCount":1},{"fieldValue":"stocks","totalCount":336},{"fieldValue":"story","totalCount":919},{"fieldValue":"tweet","totalCount":275},{"fieldValue":"wallstreetbets","totalCount":244}]},"allBlogPost":{"nodes":[{"__typename":"SocialMediaPost","id":"HnPost-25695357","excerpt":"","slug":"/hn/25695357","title":"Twitter suspends Sci-Hub account amid Indian court case","date":"January 09, 2021","dateISO":"2021-01-09T14:53:21.107Z","datetime":"2021-01-09 14:53","tags":["story","Hacker News"],"image":null,"imageAlt":null,"provider":"Hacker News","thirdPartyId":"25695357","url":"https://news.ycombinator.com/item?id=25695357","originalUrl":"https://twitter.com/verge/status/1347597998155591680","imageRemote":null,"video":null,"channel":null,"channelUrl":null,"author":"1cvmask","authorUrl":"https://news.ycombinator.com/user?id=1cvmask","authorImage":null,"authorSlug":null,"score":206,"views":null,"sharedCount":null,"likeCount":null,"sharedContent":null,"parent":{"__typename":"HnJson","localize":[{"title":"推特在印度法庭案件中暂停Sci-Hub账户","locale":"zh"},{"title":"推特在印度法庭案件中暫停Sci-Hub賬戶","locale":"zh-Hant"}]}},{"__typename":"SocialMediaPost","id":"HnPost-25696842","excerpt":"","slug":"/hn/25696842","title":"Signal gaining popularity in India after WhatsApp policy changes","date":"January 09, 2021","dateISO":"2021-01-09T11:52:02.666Z","datetime":"2021-01-09 11:52","tags":["story","Hacker News"],"image":null,"imageAlt":null,"provider":"Hacker News","thirdPartyId":"25696842","url":"https://news.ycombinator.com/item?id=25696842","originalUrl":"https://economictimes.indiatimes.com/tech/technology/whatsapp-rival-signal-reports-growing-pains-after-elon-musks-tweet/articleshow/80172451.cms","imageRemote":"https://img.etimg.com/thumb/msid-80172545,width-1070,height-580,imgsize-601228,overlay-ettech/photo.jpg","video":null,"channel":null,"channelUrl":null,"author":"curmudgeon22","authorUrl":"https://news.ycombinator.com/user?id=curmudgeon22","authorImage":null,"authorSlug":null,"score":200,"views":null,"sharedCount":null,"likeCount":null,"sharedContent":null,"parent":{"__typename":"HnJson","localize":[{"title":"WhatsApp政策变化后，印度越来越受欢迎的信号","locale":"zh"},{"title":"WhatsApp政策變化後，印度越來越受歡迎的信號","locale":"zh-Hant"}]}},{"__typename":"SocialMediaPost","id":"HnPost-25690212","excerpt":"","slug":"/hn/25690212","title":"Ruby 3, Concurrency and the Ecosystem","date":"January 09, 2021","dateISO":"2021-01-09T11:19:27.742Z","datetime":"2021-01-09 11:19","tags":["story","Hacker News"],"image":null,"imageAlt":null,"provider":"Hacker News","thirdPartyId":"25690212","url":"https://news.ycombinator.com/item?id=25690212","originalUrl":"https://kirshatrov.com/2021/01/06/ruby-concurrency-and-ecosystem/","imageRemote":"https://kirshatrov.com/assets/layout-images/kirs.jpg","video":null,"channel":null,"channelUrl":null,"author":"ksec","authorUrl":"https://news.ycombinator.com/user?id=ksec","authorImage":null,"authorSlug":null,"score":201,"views":null,"sharedCount":null,"likeCount":null,"sharedContent":null,"parent":{"__typename":"HnJson","localize":[{"title":"Ruby3、并发性和生态系统","locale":"zh"},{"title":"Ruby3、併發性和生態系統","locale":"zh-Hant"}]}},{"__typename":"SocialMediaPost","id":"HnPost-25693618","excerpt":"","slug":"/hn/25693618","title":"When Amazon Switched from Sun to Linux","date":"January 09, 2021","dateISO":"2021-01-09T10:54:30.149Z","datetime":"2021-01-09 10:54","tags":["story","Hacker News"],"image":null,"imageAlt":null,"provider":"Hacker News","thirdPartyId":"25693618","url":"https://news.ycombinator.com/item?id=25693618","originalUrl":"https://twitter.com/DanRose999/status/1347677573900242944","imageRemote":null,"video":null,"channel":null,"channelUrl":null,"author":"fanf2","authorUrl":"https://news.ycombinator.com/user?id=fanf2","authorImage":null,"authorSlug":null,"score":211,"views":null,"sharedCount":null,"likeCount":null,"sharedContent":null,"parent":{"__typename":"HnJson","localize":[{"title":"当亚马逊从Sun切换到Linux时","locale":"zh"},{"title":"當亞馬遜從Sun切換到Linux時","locale":"zh-Hant"}]}},{"__typename":"SocialMediaPost","id":"HnPost-25697823","excerpt":"","slug":"/hn/25697823","title":"You've Been Referred Here Because You're Wrong About Section 230 of the CDA","date":"January 09, 2021","dateISO":"2021-01-09T09:48:56.979Z","datetime":"2021-01-09 09:48","tags":["story","Hacker News"],"image":null,"imageAlt":null,"provider":"Hacker News","thirdPartyId":"25697823","url":"https://news.ycombinator.com/item?id=25697823","originalUrl":"https://www.techdirt.com/articles/20200531/23325444617/hello-youve-been-referred-here-because-youre-wrong-about-section-230-communications-decency-act.shtml","imageRemote":"https://ii.techdirt.com/s/t/i/td_icon_300.png","video":null,"channel":null,"channelUrl":null,"author":"tonyztan","authorUrl":"https://news.ycombinator.com/user?id=tonyztan","authorImage":null,"authorSlug":null,"score":210,"views":null,"sharedCount":null,"likeCount":null,"sharedContent":null,"parent":{"__typename":"HnJson","localize":[{"title":"你被推荐到这里是因为你对CDA第230条的看法是错误的","locale":"zh"},{"title":"你被推薦到這裏是因爲你對CDA第230條的看法是錯誤的","locale":"zh-Hant"}]}},{"__typename":"SocialMediaPost","id":"HnPost-25688066","excerpt":"","slug":"/hn/25688066","title":"Archaeologists in Turkey unearth 2,500-year-old temple of Aphrodite","date":"January 09, 2021","dateISO":"2021-01-09T07:15:13.460Z","datetime":"2021-01-09 07:15","tags":["story","Hacker News"],"image":null,"imageAlt":null,"provider":"Hacker News","thirdPartyId":"25688066","url":"https://news.ycombinator.com/item?id=25688066","originalUrl":"https://www.smithsonianmag.com/smart-news/2500-year-old-temple-aphrodite-found-turkey-180976694/","imageRemote":"https://thumbs-prod.si-cdn.com/XKzTYURgDtoK7WYcQfm4Opc-CdU=/fit-in/1600x0/filters:focal(396x236:397x237)/https://public-media.si-cdn.com/filer/20/3e/203ed968-01b1-4cac-8b20-53978889aefc/urla.jpg","video":null,"channel":null,"channelUrl":null,"author":"gmays","authorUrl":"https://news.ycombinator.com/user?id=gmays","authorImage":null,"authorSlug":null,"score":200,"views":null,"sharedCount":null,"likeCount":null,"sharedContent":null,"parent":{"__typename":"HnJson","localize":[{"title":"土耳其考古学家出土2500年前的阿佛洛狄特神庙","locale":"zh"},{"title":"土耳其考古學家出土2500年前的阿佛洛狄特神廟","locale":"zh-Hant"}]}},{"__typename":"SocialMediaPost","id":"HnPost-25696577","excerpt":"","slug":"/hn/25696577","title":"Pfizer vaccine appears effective against mutation in new coronavirus variants","date":"January 09, 2021","dateISO":"2021-01-09T07:15:13.460Z","datetime":"2021-01-09 07:15","tags":["story","Hacker News"],"image":null,"imageAlt":null,"provider":"Hacker News","thirdPartyId":"25696577","url":"https://news.ycombinator.com/item?id=25696577","originalUrl":"https://www.cbc.ca/news/health/pfizer-biontech-vaccine-appears-effective-against-mutation-in-new-coronavirus-variants-study-suggests-1.5865885","imageRemote":"https://i.cbc.ca/1.5852149.1608672062!/cumulusImage/httpImage/image.jpg_gen/derivatives/16x9_620/covid-vaccinations-toronto.jpg","video":null,"channel":null,"channelUrl":null,"author":"awnird","authorUrl":"https://news.ycombinator.com/user?id=awnird","authorImage":null,"authorSlug":null,"score":208,"views":null,"sharedCount":null,"likeCount":null,"sharedContent":null,"parent":{"__typename":"HnJson","localize":[{"title":"辉瑞疫苗似乎对新冠状病毒变异有效","locale":"zh"},{"title":"輝瑞疫苗似乎對新冠狀病毒變異有效","locale":"zh-Hant"}]}},{"__typename":"SocialMediaPost","id":"HnPost-25690319","excerpt":"","slug":"/hn/25690319","title":"Best of show – abuse of libc","date":"January 09, 2021","dateISO":"2021-01-09T03:16:58.010Z","datetime":"2021-01-09 03:16","tags":["story","Hacker News"],"image":null,"imageAlt":null,"provider":"Hacker News","thirdPartyId":"25690319","url":"https://news.ycombinator.com/item?id=25690319","originalUrl":"https://www.ioccc.org/2020/carlini/index.html","imageRemote":"https://www.ioccc.org/png/ioccc.png","video":null,"channel":null,"channelUrl":null,"author":"mooreds","authorUrl":"https://news.ycombinator.com/user?id=mooreds","authorImage":null,"authorSlug":null,"score":205,"views":null,"sharedCount":null,"likeCount":null,"sharedContent":null,"parent":{"__typename":"HnJson","localize":[{"title":"最佳展示-滥用libc","locale":"zh"},{"title":"最佳展示-濫用libc","locale":"zh-Hant"}]}},{"__typename":"SocialMediaPost","id":"HnPost-25691912","excerpt":"","slug":"/hn/25691912","title":"Permanent suspension of @realDonaldTrump","date":"January 08, 2021","dateISO":"2021-01-08T23:56:31.995Z","datetime":"2021-01-08 23:56","tags":["story","Hacker News"],"image":null,"imageAlt":null,"provider":"Hacker News","thirdPartyId":"25691912","url":"https://news.ycombinator.com/item?id=25691912","originalUrl":"https://blog.twitter.com/en_us/topics/company/2020/suspension.html","imageRemote":"https://blog.twitter.com/content/dam/blog-twitter/official/universal-assets/Generic_BlogShare.jpg","video":null,"channel":null,"channelUrl":null,"author":"minimaxir","authorUrl":"https://news.ycombinator.com/user?id=minimaxir","authorImage":null,"authorSlug":null,"score":557,"views":null,"sharedCount":null,"likeCount":null,"sharedContent":null,"parent":{"__typename":"HnJson","localize":[{"title":"永久暂停@realDonaldTrump","locale":"zh"},{"title":"永久暫停@realDonaldTrump","locale":"zh-Hant"}]}},{"__typename":"SocialMediaPost","id":"HnPost-25688418","excerpt":"","slug":"/hn/25688418","title":"Laptop stolen from Pelosi's office during storming of U.S. Capitol, says aide","date":"January 08, 2021","dateISO":"2021-01-08T20:33:56.797Z","datetime":"2021-01-08 20:33","tags":["story","Hacker News"],"image":null,"imageAlt":null,"provider":"Hacker News","thirdPartyId":"25688418","url":"https://news.ycombinator.com/item?id=25688418","originalUrl":"https://www.reuters.com/article/BigStory12/idUSKBN29D2HA","imageRemote":"https://static.reuters.com/resources/r/?m=02&d=20210108&t=2&i=1547134375&r=LYNXMPEH0713Z&w=800","video":null,"channel":null,"channelUrl":null,"author":"thefounder","authorUrl":"https://news.ycombinator.com/user?id=thefounder","authorImage":null,"authorSlug":null,"score":256,"views":null,"sharedCount":null,"likeCount":null,"sharedContent":null,"parent":{"__typename":"HnJson","localize":[{"title":"助手说，在袭击美国国会大厦期间，佩洛西办公室的笔记本电脑被盗","locale":"zh"},{"title":"助手說，在襲擊美國國會大廈期間，佩洛西辦公室的筆記本電腦被盜","locale":"zh-Hant"}]}},{"__typename":"SocialMediaPost","id":"HnPost-25687552","excerpt":"","slug":"/hn/25687552","title":"Nancy Pelosi spokesman confirms laptop was stolen from the speaker’s office","date":"January 08, 2021","dateISO":"2021-01-08T19:36:47.469Z","datetime":"2021-01-08 19:36","tags":["story","Hacker News"],"image":null,"imageAlt":null,"provider":"Hacker News","thirdPartyId":"25687552","url":"https://news.ycombinator.com/item?id=25687552","originalUrl":"https://www.theguardian.com/us-news/live/2021/jan/08/donald-trump-capitol-impeachment-joe-biden-election-coronavirus-covid-live-updates","imageRemote":"https://i.guim.co.uk/img/media/0ebc02fb2c07fd14f869f7d5abc1199e6660caa2/0_0_6000_3600/master/6000.jpg?width=1200&height=630&quality=85&auto=format&fit=crop&overlay-align=bottom%2Cleft&overlay-width=100p&overlay-base64=L2ltZy9zdGF0aWMvb3ZlcmxheXMvdGctbGl2ZS5wbmc&enable=upscale&s=0259f1c05688296bb8d193ddfeaf8455","video":null,"channel":null,"channelUrl":null,"author":"spzb","authorUrl":"https://news.ycombinator.com/user?id=spzb","authorImage":null,"authorSlug":null,"score":227,"views":null,"sharedCount":null,"likeCount":null,"sharedContent":null,"parent":{"__typename":"HnJson","localize":[{"title":"南希·佩洛西发言人证实议长办公室的笔记本电脑被盗","locale":"zh"},{"title":"南希·佩洛西發言人證實議長辦公室的筆記本電腦被盜","locale":"zh-Hant"}]}},{"__typename":"SocialMediaPost","id":"HnPost-25687754","excerpt":"","slug":"/hn/25687754","title":"Reddit bans subreddit group “r/DonaldTrump”","date":"January 08, 2021","dateISO":"2021-01-08T19:36:47.469Z","datetime":"2021-01-08 19:36","tags":["story","Hacker News"],"image":null,"imageAlt":null,"provider":"Hacker News","thirdPartyId":"25687754","url":"https://news.ycombinator.com/item?id=25687754","originalUrl":"https://www.axios.com/reddit-bans-rdonaldtrump-subreddit-ff1da2de-37ab-49cf-afbd-2012f806959e.html","imageRemote":"https://images.axios.com/fB2yyvnorxd-0QnWyjs2QGWhJdM=/1366x768/smart/2021/01/08/1610126152015.png","video":null,"channel":null,"channelUrl":null,"author":"threatofrain","authorUrl":"https://news.ycombinator.com/user?id=threatofrain","authorImage":null,"authorSlug":null,"score":240,"views":null,"sharedCount":null,"likeCount":null,"sharedContent":null,"parent":{"__typename":"HnJson","localize":[{"title":"Reddit禁用子Reddit群组“r/DonaldTrump”","locale":"zh"},{"title":"Reddit禁用子Reddit羣組“r/DonaldTrump”","locale":"zh-Hant"}]}},{"__typename":"SocialMediaPost","id":"HnPost-25681362","excerpt":"","slug":"/hn/25681362","title":"How Tail Call Optimization Works","date":"January 08, 2021","dateISO":"2021-01-08T18:58:09.003Z","datetime":"2021-01-08 18:58","tags":["story","Hacker News"],"image":null,"imageAlt":null,"provider":"Hacker News","thirdPartyId":"25681362","url":"https://news.ycombinator.com/item?id=25681362","originalUrl":"https://eklitzke.org/how-tail-call-optimization-works","imageRemote":null,"video":null,"channel":null,"channelUrl":null,"author":"g42gregory","authorUrl":"https://news.ycombinator.com/user?id=g42gregory","authorImage":null,"authorSlug":null,"score":200,"views":null,"sharedCount":null,"likeCount":null,"sharedContent":null,"parent":{"__typename":"HnJson","localize":[{"title":"尾部呼叫优化的工作原理","locale":"zh"},{"title":"尾部呼叫優化的工作原理","locale":"zh-Hant"}]}},{"__typename":"SocialMediaPost","id":"HnPost-25684293","excerpt":"","slug":"/hn/25684293","title":"Victory at the High Court against the government’s use of 'general warrants’","date":"January 08, 2021","dateISO":"2021-01-08T18:58:09.003Z","datetime":"2021-01-08 18:58","tags":["story","Hacker News"],"image":null,"imageAlt":null,"provider":"Hacker News","thirdPartyId":"25684293","url":"https://news.ycombinator.com/item?id=25684293","originalUrl":"https://privacyinternational.org/press-release/4358/victory-high-court-against-governments-use-general-warrants","imageRemote":"https://privacyinternational.org/sites/default/files/styles/large/public/2021-01/Staging%20.001.jpeg?itok=6EykpG4Z","video":null,"channel":null,"channelUrl":null,"author":"mpweiher","authorUrl":"https://news.ycombinator.com/user?id=mpweiher","authorImage":null,"authorSlug":null,"score":212,"views":null,"sharedCount":null,"likeCount":null,"sharedContent":null,"parent":{"__typename":"HnJson","localize":[{"title":"高等法院胜诉政府使用“通行证”","locale":"zh"},{"title":"高等法院勝訴政府使用“通行證”","locale":"zh-Hant"}]}},{"__typename":"SocialMediaPost","id":"HnPost-25686179","excerpt":"","slug":"/hn/25686179","title":"Signal WhatsApp Chats Import","date":"January 08, 2021","dateISO":"2021-01-08T18:17:43.691Z","datetime":"2021-01-08 18:17","tags":["story","Hacker News"],"image":null,"imageAlt":null,"provider":"Hacker News","thirdPartyId":"25686179","url":"https://news.ycombinator.com/item?id=25686179","originalUrl":"https://github.com/signalapp/Signal-Android/issues/1014","imageRemote":"https://avatars3.githubusercontent.com/u/702459?s=400&v=4","video":null,"channel":null,"channelUrl":null,"author":"janisz","authorUrl":"https://news.ycombinator.com/user?id=janisz","authorImage":null,"authorSlug":null,"score":287,"views":null,"sharedCount":null,"likeCount":null,"sharedContent":null,"parent":{"__typename":"HnJson","localize":[{"title":"信号WhatsApp聊天导入","locale":"zh"},{"title":"信號WhatsApp聊天導入","locale":"zh-Hant"}]}},{"__typename":"SocialMediaPost","id":"HnPost-25683615","excerpt":"","slug":"/hn/25683615","title":"Apple's privacy labels show WhatsApp and Facebook Messenger hunger for user data","date":"January 08, 2021","dateISO":"2021-01-08T15:39:15.889Z","datetime":"2021-01-08 15:39","tags":["story","Hacker News"],"image":null,"imageAlt":null,"provider":"Hacker News","thirdPartyId":"25683615","url":"https://news.ycombinator.com/item?id=25683615","originalUrl":"https://www.techradar.com/news/apples-privacy-labels-reveals-whatsapp-and-facebook-messengers-hunger-for-user-data","imageRemote":"https://cdn.mos.cms.futurecdn.net/TDBmksgrF4PKKnb5XxpQBU-1200-80.jpg","video":null,"channel":null,"channelUrl":null,"author":"ColinWright","authorUrl":"https://news.ycombinator.com/user?id=ColinWright","authorImage":null,"authorSlug":null,"score":213,"views":null,"sharedCount":null,"likeCount":null,"sharedContent":null,"parent":{"__typename":"HnJson","localize":[{"title":"苹果的隐私标签显示WhatsApp和Facebook Messenger对用户数据的渴求","locale":"zh"},{"title":"蘋果的隱私標籤顯示WhatsApp和Facebook Messenger對用戶數據的渴求","locale":"zh-Hant"}]}},{"__typename":"SocialMediaPost","id":"HnPost-25682785","excerpt":"","slug":"/hn/25682785","title":"Texas Instruments sent a DMCA takedown to a site archiving data sheets","date":"January 08, 2021","dateISO":"2021-01-08T14:24:38.209Z","datetime":"2021-01-08 14:24","tags":["story","Hacker News"],"image":null,"imageAlt":null,"provider":"Hacker News","thirdPartyId":"25682785","url":"https://news.ycombinator.com/item?id=25682785","originalUrl":"https://twitter.com/marcan42/status/1347403996332376065","imageRemote":null,"video":null,"channel":null,"channelUrl":null,"author":"DyslexicAtheist","authorUrl":"https://news.ycombinator.com/user?id=DyslexicAtheist","authorImage":null,"authorSlug":null,"score":205,"views":null,"sharedCount":null,"likeCount":null,"sharedContent":null,"parent":{"__typename":"HnJson","localize":[{"title":"德州仪器向存档数据表的站点发送了DMCA拆卸","locale":"zh"},{"title":"德州儀器向存檔數據表的站點發送了DMCA拆卸","locale":"zh-Hant"}]}},{"__typename":"SocialMediaPost","id":"HnPost-25671452","excerpt":"","slug":"/hn/25671452","title":"How Boston Dynamics Taught Its Robots to Dance","date":"January 08, 2021","dateISO":"2021-01-08T12:53:29.419Z","datetime":"2021-01-08 12:53","tags":["story","Hacker News"],"image":null,"imageAlt":null,"provider":"Hacker News","thirdPartyId":"25671452","url":"https://news.ycombinator.com/item?id=25671452","originalUrl":"https://spectrum.ieee.org/automaton/robotics/humanoids/how-boston-dynamics-taught-its-robots-to-dance","imageRemote":null,"video":null,"channel":null,"channelUrl":null,"author":"samizdis","authorUrl":"https://news.ycombinator.com/user?id=samizdis","authorImage":null,"authorSlug":null,"score":221,"views":null,"sharedCount":null,"likeCount":null,"sharedContent":null,"parent":{"__typename":"HnJson","localize":[{"title":"波士顿动力公司是如何教机器人跳舞的","locale":"zh"},{"title":"波士頓動力公司是如何教機器人跳舞的","locale":"zh-Hant"}]}},{"__typename":"SocialMediaPost","id":"HnPost-25654955","excerpt":"","slug":"/hn/25654955","title":"Peter Norvig's “pytudes” for Advent of Code 2020","date":"January 08, 2021","dateISO":"2021-01-08T10:13:30.153Z","datetime":"2021-01-08 10:13","tags":["story","Hacker News"],"image":null,"imageAlt":null,"provider":"Hacker News","thirdPartyId":"25654955","url":"https://news.ycombinator.com/item?id=25654955","originalUrl":"https://github.com/norvig/pytudes/blob/master/ipynb/Advent-2020.ipynb","imageRemote":"https://avatars2.githubusercontent.com/u/4370220?s=400&v=4","video":null,"channel":null,"channelUrl":null,"author":"ff7f00","authorUrl":"https://news.ycombinator.com/user?id=ff7f00","authorImage":null,"authorSlug":null,"score":202,"views":null,"sharedCount":null,"likeCount":null,"sharedContent":null,"parent":{"__typename":"HnJson","localize":[{"title":"彼得·诺维格(Peter Norvig)为代码2020的到来而作的“侏儒”","locale":"zh"},{"title":"彼得·諾維格(Peter Norvig)爲代碼2020的到來而作的“侏儒”","locale":"zh-Hant"}]}},{"__typename":"SocialMediaPost","id":"HnPost-25677272","excerpt":"","slug":"/hn/25677272","title":"Show HN: I built a 4kb alternative to React, Vue, etc for building web UIs.","date":"January 08, 2021","dateISO":"2021-01-08T07:14:36.254Z","datetime":"2021-01-08 07:14","tags":["story","Show HN","Hacker News"],"image":null,"imageAlt":null,"provider":"Hacker News","thirdPartyId":"25677272","url":"https://news.ycombinator.com/item?id=25677272","originalUrl":"https://synergyjs.org","imageRemote":null,"video":null,"channel":"Show HN","channelUrl":"https://news.ycombinator.com/show","author":"defx","authorUrl":"https://news.ycombinator.com/user?id=defx","authorImage":null,"authorSlug":null,"score":203,"views":null,"sharedCount":null,"likeCount":null,"sharedContent":null,"parent":{"__typename":"HnJson","localize":[{"title":"HN新产品：我构建了一个4KB的替代方案来构建WebUI，用于Reaction、Vue等。","locale":"zh"},{"title":"HN新產品：我構建了一個4KB的替代方案來構建WebUI，用於Reaction、Vue等。","locale":"zh-Hant"}]}},{"__typename":"SocialMediaPost","id":"HnPost-25675556","excerpt":"","slug":"/hn/25675556","title":"CVE-2021-3011: Key recovery on Google Titan Key","date":"January 08, 2021","dateISO":"2021-01-08T06:00:42.247Z","datetime":"2021-01-08 06:00","tags":["story","Hacker News"],"image":null,"imageAlt":null,"provider":"Hacker News","thirdPartyId":"25675556","url":"https://news.ycombinator.com/item?id=25675556","originalUrl":"https://ninjalab.io/a-side-journey-to-titan/","imageRemote":"https://ninjalab.io/wp-content/uploads/2021/01/Titan_Bluetooth_EM_probe.png","video":null,"channel":null,"channelUrl":null,"author":"hexa-","authorUrl":"https://news.ycombinator.com/user?id=hexa-","authorImage":null,"authorSlug":null,"score":201,"views":null,"sharedCount":null,"likeCount":null,"sharedContent":null,"parent":{"__typename":"HnJson","localize":[{"title":"CVE-2021-3011：Google Titan Key上的密钥恢复","locale":"zh"},{"title":"CVE-2021-3011：Google Titan Key上的密鑰恢復","locale":"zh-Hant"}]}},{"__typename":"SocialMediaPost","id":"HnPost-25675763","excerpt":"","slug":"/hn/25675763","title":"Apple relases open source modules of Big Sur","date":"January 08, 2021","dateISO":"2021-01-08T06:00:42.247Z","datetime":"2021-01-08 06:00","tags":["story","Hacker News"],"image":null,"imageAlt":null,"provider":"Hacker News","thirdPartyId":"25675763","url":"https://news.ycombinator.com/item?id=25675763","originalUrl":"https://opensource.apple.com/release/macos-1101.html","imageRemote":"https://opensource.apple.com/static/images/icon_downloads.png","video":null,"channel":null,"channelUrl":null,"author":"giuliomagnifico","authorUrl":"https://news.ycombinator.com/user?id=giuliomagnifico","authorImage":null,"authorSlug":null,"score":201,"views":null,"sharedCount":null,"likeCount":null,"sharedContent":null,"parent":{"__typename":"HnJson","localize":[{"title":"苹果转售Big Sur的开源模块","locale":"zh"},{"title":"蘋果轉售Big Sur的開源模塊","locale":"zh-Hant"}]}},{"__typename":"SocialMediaPost","id":"HnPost-25675249","excerpt":"","slug":"/hn/25675249","title":"Epic acquires RAD Game Tools","date":"January 08, 2021","dateISO":"2021-01-08T05:20:41.123Z","datetime":"2021-01-08 05:20","tags":["story","Hacker News"],"image":null,"imageAlt":null,"provider":"Hacker News","thirdPartyId":"25675249","url":"https://news.ycombinator.com/item?id=25675249","originalUrl":"https://www.epicgames.com/site/en-US/news/epic-acquires-rad-game-tools","imageRemote":"https://cdn2.unrealengine.com/555x500-555x500-6a965e5b97f2.png","video":null,"channel":null,"channelUrl":null,"author":"jsheard","authorUrl":"https://news.ycombinator.com/user?id=jsheard","authorImage":null,"authorSlug":null,"score":202,"views":null,"sharedCount":null,"likeCount":null,"sharedContent":null,"parent":{"__typename":"HnJson","localize":[{"title":"EPIC收购RAD游戏工具","locale":"zh"},{"title":"EPIC收購RAD遊戲工具","locale":"zh-Hant"}]}},{"__typename":"SocialMediaPost","id":"HnPost-25673495","excerpt":"","slug":"/hn/25673495","title":"My stack is HTML+CSS","date":"January 08, 2021","dateISO":"2021-01-08T04:50:45.633Z","datetime":"2021-01-08 04:50","tags":["story","Hacker News"],"image":null,"imageAlt":null,"provider":"Hacker News","thirdPartyId":"25673495","url":"https://news.ycombinator.com/item?id=25673495","originalUrl":"https://blog.steren.fr/2020/my-stack-will-outlive-yours/","imageRemote":"https://blog.steren.fr/2020/my-stack-will-outlive-yours/lighthouse-score-improve.png","video":null,"channel":null,"channelUrl":null,"author":"zdw","authorUrl":"https://news.ycombinator.com/user?id=zdw","authorImage":null,"authorSlug":null,"score":201,"views":null,"sharedCount":null,"likeCount":null,"sharedContent":null,"parent":{"__typename":"HnJson","localize":[{"title":"我的堆栈是HTML+CSS","locale":"zh"},{"title":"我的堆棧是HTML+CSS","locale":"zh-Hant"}]}},{"__typename":"SocialMediaPost","id":"HnPost-25679388","excerpt":"","slug":"/hn/25679388","title":"Sealed U.S. Court Records Exposed in SolarWinds Breach","date":"January 08, 2021","dateISO":"2021-01-08T04:50:45.633Z","datetime":"2021-01-08 04:50","tags":["story","Hacker News"],"image":null,"imageAlt":null,"provider":"Hacker News","thirdPartyId":"25679388","url":"https://news.ycombinator.com/item?id=25679388","originalUrl":"https://krebsonsecurity.com/2021/01/sealed-u-s-court-records-exposed-in-solarwinds-breach/","imageRemote":"https://krebsonsecurity.com/wp-content/uploads/2021/01/uscourts.png","video":null,"channel":null,"channelUrl":null,"author":"parsecs","authorUrl":"https://news.ycombinator.com/user?id=parsecs","authorImage":null,"authorSlug":null,"score":207,"views":null,"sharedCount":null,"likeCount":null,"sharedContent":null,"parent":{"__typename":"HnJson","localize":[{"title":"SolarWinds泄密事件曝光密封的美国法院记录","locale":"zh"},{"title":"SolarWinds泄密事件曝光密封的美國法院記錄","locale":"zh-Hant"}]}}]}},"pageContext":{"basePath":"/","pageType":"tag","tag":"story","tagsFilter":{"id":{"glob":"!*Post-1"}},"filter":{"id":{"glob":"!*Post-1"},"tags":{"eq":"story"}},"limit":25,"skip":125,"total":919,"totalPages":37,"currentPage":6,"maxWidth":1024,"maxHeight":512,"locale":"en","hrefLang":"en-US","originalPath":"/tags/story/page/6","dateFormat":"MM/DD/YYYY"}},"staticQueryHashes":["1239077767","2506312863","2744905544","3025052997","3493603132","3493603132","3513215887","386998304"]}