{"componentChunkName":"component---gatsby-theme-buzzing-src-gatsby-theme-timeline-templates-posts-query-js","path":"/tags/hacker-news/page/16","result":{"data":{"site":{"siteMetadata":{"title":"Reddit 热门","description":"用中文浏览Reddit热门内容","social":[{"name":"Twitter","url":"https://twitter.com/gatsbyjs","external":null,"prefetch":null},{"name":"GitHub","url":"https://github.com/gatsbyjs","external":null,"prefetch":null}],"menuLinks":[],"localize":[{"locale":"en","title":"Buzzing on Reddit","description":"See what's buzzing on Reddit in your native language","social":[{"name":"Reddit","url":"https://www.reddit.com/","external":true,"prefetch":null}],"menuLinks":[{"name":"Weekly Selection","url":"/issues","external":null,"prefetch":null},{"name":"RSS","url":"/rss.xml","external":null,"prefetch":false}]},{"locale":"zh-Hant","title":"Reddit 熱門","description":"用中文瀏覽Reddit熱門內容","social":null,"menuLinks":null}]}},"tagsGroup":{"group":[{"fieldValue":"ASK HN","totalCount":54},{"fieldValue":"Hacker News","totalCount":3105},{"fieldValue":"Poll","totalCount":1},{"fieldValue":"Show HN","totalCount":100},{"fieldValue":"poll","totalCount":1},{"fieldValue":"story","totalCount":3104}]},"allBlogPost":{"nodes":[{"__typename":"SocialMediaPost","id":"HnPost-26555514","excerpt":"","slug":"/hn/26555514","title":"ZGC – What's new in JDK 16","date":"March 23, 2021","dateISO":"2021-03-23T21:48:22.903Z","datetime":"2021-03-23 21:48","tags":["story","Hacker News"],"image":null,"imageAlt":null,"provider":"Hacker News","thirdPartyId":"26555514","url":"https://news.ycombinator.com/item?id=26555514","originalUrl":"https://malloc.se/blog/zgc-jdk16","imageRemote":"https://malloc.se/img/zgc-jdk16/max_pause_time.svg","video":null,"channel":null,"channelUrl":null,"author":"harporoeder","authorUrl":"https://news.ycombinator.com/user?id=harporoeder","authorImage":null,"authorSlug":null,"score":194,"views":null,"sharedCount":null,"likeCount":null,"sharedContent":null,"parent":{"__typename":"HnJson","localize":[{"title":"ZGC - JDK 16中的新内容。","locale":"zh"},{"title":"ZGC - JDK 16中的新內容。","locale":"zh-Hant"}]}},{"__typename":"SocialMediaPost","id":"HnPost-26559869","excerpt":"","slug":"/hn/26559869","title":"TLS 1.0, 1.1 officially deprecated","date":"March 23, 2021","dateISO":"2021-03-23T21:48:22.903Z","datetime":"2021-03-23 21:48","tags":["story","Hacker News"],"image":null,"imageAlt":null,"provider":"Hacker News","thirdPartyId":"26559869","url":"https://news.ycombinator.com/item?id=26559869","originalUrl":"https://datatracker.ietf.org/doc/rfc8996/","imageRemote":"https://www.ietf.org/lib/dt/7.27.0/ietf/images/ietflogo-small-transparent.png","video":null,"channel":null,"channelUrl":null,"author":"cmckn","authorUrl":"https://news.ycombinator.com/user?id=cmckn","authorImage":null,"authorSlug":null,"score":390,"views":null,"sharedCount":null,"likeCount":null,"sharedContent":null,"parent":{"__typename":"HnJson","localize":[{"title":"TLS 1.0、1.1正式废止","locale":"zh"},{"title":"TLS 1.0、1.1正式廢止","locale":"zh-Hant"}]}},{"__typename":"SocialMediaPost","id":"HnPost-26558939","excerpt":"","slug":"/hn/26558939","title":"The Raspberry Pi can boot off NVMe SSDs now","date":"March 23, 2021","dateISO":"2021-03-23T21:32:07.509Z","datetime":"2021-03-23 21:32","tags":["story","Hacker News"],"image":null,"imageAlt":null,"provider":"Hacker News","thirdPartyId":"26558939","url":"https://news.ycombinator.com/item?id=26558939","originalUrl":"https://www.jeffgeerling.com/blog/2021/raspberry-pi-can-boot-nvme-ssds-now","imageRemote":"https://www.jeffgeerling.com/sites/default/files/images/mirkopc-cm4-with-wd-black-sn750-ssd-nvme.jpeg","video":null,"channel":null,"channelUrl":null,"author":"geerlingguy","authorUrl":"https://news.ycombinator.com/user?id=geerlingguy","authorImage":null,"authorSlug":null,"score":346,"views":null,"sharedCount":null,"likeCount":null,"sharedContent":null,"parent":{"__typename":"HnJson","localize":[{"title":"Raspberry Pi可以从NVMe SSD上启动了","locale":"zh"},{"title":"Raspberry Pi可以從NVMe SSD上啓動了","locale":"zh-Hant"}]}},{"__typename":"SocialMediaPost","id":"HnPost-26554451","excerpt":"","slug":"/hn/26554451","title":"Show HN: PyWebIO – Write interactive web app in script way","date":"March 23, 2021","dateISO":"2021-03-23T21:11:46.176Z","datetime":"2021-03-23 21:11","tags":["story","Show HN","Hacker News"],"image":null,"imageAlt":null,"provider":"Hacker News","thirdPartyId":"26554451","url":"https://news.ycombinator.com/item?id=26554451","originalUrl":"https://github.com/wang0618/PyWebIO","imageRemote":"https://repository-images.githubusercontent.com/243948277/2a223300-a99f-11ea-9dd1-06cba0b1da95","video":null,"channel":"Show HN","channelUrl":"https://news.ycombinator.com/show","author":"Wang0618","authorUrl":"https://news.ycombinator.com/user?id=Wang0618","authorImage":null,"authorSlug":null,"score":199,"views":null,"sharedCount":null,"likeCount":null,"sharedContent":null,"parent":{"__typename":"HnJson","localize":[{"title":"显示HN：PyWebIO - 用脚本的方式编写交互式网络应用。","locale":"zh"},{"title":"顯示HN：PyWebIO - 用腳本的方式編寫交互式網絡應用。","locale":"zh-Hant"}]}},{"__typename":"SocialMediaPost","id":"HnPost-26554697","excerpt":"","slug":"/hn/26554697","title":"Reddit nuking accounts of anyone who mentions a new employee or their history","date":"March 23, 2021","dateISO":"2021-03-23T20:55:56.123Z","datetime":"2021-03-23 20:55","tags":["story","Hacker News"],"image":null,"imageAlt":null,"provider":"Hacker News","thirdPartyId":"26554697","url":"https://news.ycombinator.com/item?id=26554697","originalUrl":"https://twitter.com/jessesingal/status/1374347246070796289","imageRemote":null,"video":null,"channel":null,"channelUrl":null,"author":"Tenoke","authorUrl":"https://news.ycombinator.com/user?id=Tenoke","authorImage":null,"authorSlug":null,"score":183,"views":null,"sharedCount":null,"likeCount":null,"sharedContent":null,"parent":{"__typename":"HnJson","localize":[{"title":"Reddit对任何提到新员工或他们的历史的人的账户进行核对。","locale":"zh"},{"title":"Reddit對任何提到新員工或他們的歷史的人的賬戶進行覈對。","locale":"zh-Hant"}]}},{"__typename":"SocialMediaPost","id":"HnPost-26557886","excerpt":"","slug":"/hn/26557886","title":"SvelteKit Is in Public Beta","date":"March 23, 2021","dateISO":"2021-03-23T19:49:02.636Z","datetime":"2021-03-23 19:49","tags":["story","Hacker News"],"image":null,"imageAlt":null,"provider":"Hacker News","thirdPartyId":"26557886","url":"https://news.ycombinator.com/item?id=26557886","originalUrl":"https://svelte.dev/blog/sveltekit-beta","imageRemote":"https://svelte.dev/images/twitter-card.png","video":null,"channel":null,"channelUrl":null,"author":"benmccann","authorUrl":"https://news.ycombinator.com/user?id=benmccann","authorImage":null,"authorSlug":null,"score":312,"views":null,"sharedCount":null,"likeCount":null,"sharedContent":null,"parent":{"__typename":"HnJson","localize":[{"title":"SvelteKit已进入公开测试阶段","locale":"zh"},{"title":"SvelteKit已進入公開測試階段","locale":"zh-Hant"}]}},{"__typename":"SocialMediaPost","id":"HnPost-26557236","excerpt":"","slug":"/hn/26557236","title":"Top Saudi official issued death threat against UN's Khashoggi investigator","date":"March 23, 2021","dateISO":"2021-03-23T19:42:14.824Z","datetime":"2021-03-23 19:42","tags":["story","Hacker News"],"image":null,"imageAlt":null,"provider":"Hacker News","thirdPartyId":"26557236","url":"https://news.ycombinator.com/item?id=26557236","originalUrl":"https://www.theguardian.com/world/2021/mar/23/top-saudi-official-issued-death-threat-against-uns-khashoggi-investigator","imageRemote":"https://i.guim.co.uk/img/media/54c0e1a489b290b12dd5f9e50ae354fb27f6f2e2/0_133_4000_2400/master/4000.jpg?width=1200&height=630&quality=85&auto=format&fit=crop&overlay-align=bottom%2Cleft&overlay-width=100p&overlay-base64=L2ltZy9zdGF0aWMvb3ZlcmxheXMvdGctZGVmYXVsdC5wbmc&enable=upscale&s=3d5d29652d0f0185dd135380e35a1459","video":null,"channel":null,"channelUrl":null,"author":"sofixa","authorUrl":"https://news.ycombinator.com/user?id=sofixa","authorImage":null,"authorSlug":null,"score":281,"views":null,"sharedCount":null,"likeCount":null,"sharedContent":null,"parent":{"__typename":"HnJson","localize":[{"title":"沙特高官对联合国卡舒吉调查员发出死亡威胁","locale":"zh"},{"title":"沙特高官對聯合國卡舒吉調查員發出死亡威脅","locale":"zh-Hant"}]}},{"__typename":"SocialMediaPost","id":"HnPost-26554410","excerpt":"","slug":"/hn/26554410","title":"The virus that causes the common cold can effectively boot the Covid virus out","date":"March 23, 2021","dateISO":"2021-03-23T18:44:28.984Z","datetime":"2021-03-23 18:44","tags":["story","Hacker News"],"image":null,"imageAlt":null,"provider":"Hacker News","thirdPartyId":"26554410","url":"https://news.ycombinator.com/item?id=26554410","originalUrl":"http://bbc.com/news/health-56483445","imageRemote":"https://ichef.bbci.co.uk/news/1024/branded_news/C964/production/_117665515_cold.jpg","video":null,"channel":null,"channelUrl":null,"author":"discocrisco","authorUrl":"https://news.ycombinator.com/user?id=discocrisco","authorImage":null,"authorSlug":null,"score":220,"views":null,"sharedCount":null,"likeCount":null,"sharedContent":null,"parent":{"__typename":"HnJson","localize":[{"title":"引起普通感冒的病毒可以有效地将科维德病毒引导出来。","locale":"zh"},{"title":"引起普通感冒的病毒可以有效地將科維德病毒引導出來。","locale":"zh-Hant"}]}},{"__typename":"SocialMediaPost","id":"HnPost-26537298","excerpt":"","slug":"/hn/26537298","title":"“Is Parallel Programming Hard, and, If So, What Can You Do About It?” v2 Is Out","date":"March 23, 2021","dateISO":"2021-03-23T17:56:05.133Z","datetime":"2021-03-23 17:56","tags":["story","Hacker News"],"image":null,"imageAlt":null,"provider":"Hacker News","thirdPartyId":"26537298","url":"https://news.ycombinator.com/item?id=26537298","originalUrl":"https://mirrors.edge.kernel.org/pub/linux/kernel/people/paulmck/perfbook/perfbook.html","imageRemote":null,"video":null,"channel":null,"channelUrl":null,"author":"vkaku","authorUrl":"https://news.ycombinator.com/user?id=vkaku","authorImage":null,"authorSlug":null,"score":194,"views":null,"sharedCount":null,"likeCount":null,"sharedContent":null,"parent":{"__typename":"HnJson","localize":[{"title":"\"并行编程难不难，如果难，你能做些什么？\" v2已发布","locale":"zh"},{"title":"\"並行編程難不難，如果難，你能做些什麼？\" v2已發佈","locale":"zh-Hant"}]}},{"__typename":"SocialMediaPost","id":"HnPost-26551604","excerpt":"","slug":"/hn/26551604","title":"Akira Kurosawa’s List of His 100 Favorite Movies (2015)","date":"March 23, 2021","dateISO":"2021-03-23T17:56:05.133Z","datetime":"2021-03-23 17:56","tags":["story","Hacker News"],"image":null,"imageAlt":null,"provider":"Hacker News","thirdPartyId":"26551604","url":"https://news.ycombinator.com/item?id=26551604","originalUrl":"https://www.openculture.com/2015/01/akira-kurosawas-list-of-his-100-favorite-movies.html","imageRemote":"https://cdn8.openculture.com/wp-content/uploads/2015/01/08210231/akira_kurosawa.jpg","video":null,"channel":null,"channelUrl":null,"author":"lermontov","authorUrl":"https://news.ycombinator.com/user?id=lermontov","authorImage":null,"authorSlug":null,"score":287,"views":null,"sharedCount":null,"likeCount":null,"sharedContent":null,"parent":{"__typename":"HnJson","localize":[{"title":"黑泽明最喜欢的100部电影名单（2015年）。","locale":"zh"},{"title":"黑澤明最喜歡的100部電影名單（2015年）。","locale":"zh-Hant"}]}},{"__typename":"SocialMediaPost","id":"HnPost-26555117","excerpt":"","slug":"/hn/26555117","title":"Scaling YC","date":"March 23, 2021","dateISO":"2021-03-23T17:56:05.133Z","datetime":"2021-03-23 17:56","tags":["story","Hacker News"],"image":null,"imageAlt":null,"provider":"Hacker News","thirdPartyId":"26555117","url":"https://news.ycombinator.com/item?id=26555117","originalUrl":"https://blog.ycombinator.com/scaling-yc/","imageRemote":"https://blog.ycombinator.com/wp-content/uploads/2021/03/Artboard-32-4.png","video":null,"channel":null,"channelUrl":null,"author":"todsacerdoti","authorUrl":"https://news.ycombinator.com/user?id=todsacerdoti","authorImage":null,"authorSlug":null,"score":256,"views":null,"sharedCount":null,"likeCount":null,"sharedContent":null,"parent":{"__typename":"HnJson","localize":[{"title":"缩放YC","locale":"zh"},{"title":"縮放YC","locale":"zh-Hant"}]}},{"__typename":"SocialMediaPost","id":"HnPost-26557175","excerpt":"","slug":"/hn/26557175","title":"Reddit is banning any Aimee Challenor mention. UK public figure and Reddit admin","date":"March 23, 2021","dateISO":"2021-03-23T17:56:05.133Z","datetime":"2021-03-23 17:56","tags":["story","Hacker News"],"image":null,"imageAlt":null,"provider":"Hacker News","thirdPartyId":"26557175","url":"https://news.ycombinator.com/item?id=26557175","originalUrl":"https://old.reddit.com/r/ukpolitics/comments/mbbm2c/welcome_back_subreddit_statement/","imageRemote":"https://www.redditstatic.com/new-icon.png","video":null,"channel":null,"channelUrl":null,"author":"9387367","authorUrl":"https://news.ycombinator.com/user?id=9387367","authorImage":null,"authorSlug":null,"score":725,"views":null,"sharedCount":null,"likeCount":null,"sharedContent":null,"parent":{"__typename":"HnJson","localize":[{"title":"Reddit正在禁止任何Aimee Challenor的提及。英国公众人物、Reddit管理员","locale":"zh"},{"title":"Reddit正在禁止任何Aimee Challenor的提及。英國公衆人物、Reddit管理員","locale":"zh-Hant"}]}},{"__typename":"SocialMediaPost","id":"HnPost-26555873","excerpt":"","slug":"/hn/26555873","title":"Chrome’s address bar will use https:// by default","date":"March 23, 2021","dateISO":"2021-03-23T17:24:07.327Z","datetime":"2021-03-23 17:24","tags":["story","Hacker News"],"image":null,"imageAlt":null,"provider":"Hacker News","thirdPartyId":"26555873","url":"https://news.ycombinator.com/item?id=26555873","originalUrl":"https://blog.chromium.org/2021/03/a-safer-default-for-navigation-https.html","imageRemote":"http://1.bp.blogspot.com/-vkF7AFJOwBk/VkQxeAGi1mI/AAAAAAAARYo/57denvsQ8zA/s1600-r/logo_chromium.png","video":null,"channel":null,"channelUrl":null,"author":"feross","authorUrl":"https://news.ycombinator.com/user?id=feross","authorImage":null,"authorSlug":null,"score":656,"views":null,"sharedCount":null,"likeCount":null,"sharedContent":null,"parent":{"__typename":"HnJson","localize":[{"title":"Chrome浏览器的地址栏将默认使用https://。","locale":"zh"},{"title":"Chrome瀏覽器的地址欄將默認使用https://。","locale":"zh-Hant"}]}},{"__typename":"SocialMediaPost","id":"HnPost-26536884","excerpt":"","slug":"/hn/26536884","title":"A Brief History of the Hedge Fund","date":"March 23, 2021","dateISO":"2021-03-23T16:43:08.452Z","datetime":"2021-03-23 16:43","tags":["story","Hacker News"],"image":null,"imageAlt":null,"provider":"Hacker News","thirdPartyId":"26536884","url":"https://news.ycombinator.com/item?id=26536884","originalUrl":"https://www.newyorker.com/culture/culture-desk/a-brief-history-of-the-hedge-fund","imageRemote":"https://media.newyorker.com/photos/604e3e2110a40afc473f6681/16:9/w_1280,c_limit/Kaufman-Hedgefunds.jpg","video":null,"channel":null,"channelUrl":null,"author":"fortran77","authorUrl":"https://news.ycombinator.com/user?id=fortran77","authorImage":null,"authorSlug":null,"score":164,"views":null,"sharedCount":null,"likeCount":null,"sharedContent":null,"parent":{"__typename":"HnJson","localize":[{"title":"对冲基金简史","locale":"zh"},{"title":"對沖基金簡史","locale":"zh-Hant"}]}},{"__typename":"SocialMediaPost","id":"HnPost-26554504","excerpt":"","slug":"/hn/26554504","title":"We are building a better Heroku","date":"March 23, 2021","dateISO":"2021-03-23T16:43:08.452Z","datetime":"2021-03-23 16:43","tags":["story","Hacker News"],"image":null,"imageAlt":null,"provider":"Hacker News","thirdPartyId":"26554504","url":"https://news.ycombinator.com/item?id=26554504","originalUrl":"https://about.gitlab.com/blog/2021/03/22/we-are-building-a-better-heroku/","imageRemote":"https://about.gitlab.com/images/blogimages/better-heroku-5min-prod-app/spacex-unsplash.jpg","video":null,"channel":null,"channelUrl":null,"author":"rement","authorUrl":"https://news.ycombinator.com/user?id=rement","authorImage":null,"authorSlug":null,"score":252,"views":null,"sharedCount":null,"likeCount":null,"sharedContent":null,"parent":{"__typename":"HnJson","localize":[{"title":"我们正在建设一个更好的Heroku","locale":"zh"},{"title":"我們正在建設一個更好的Heroku","locale":"zh-Hant"}]}},{"__typename":"SocialMediaPost","id":"HnPost-26549363","excerpt":"","slug":"/hn/26549363","title":"NSA Issues Guidance on Zero Trust Security Model","date":"March 23, 2021","dateISO":"2021-03-23T15:52:03.758Z","datetime":"2021-03-23 15:52","tags":["story","Hacker News"],"image":null,"imageAlt":null,"provider":"Hacker News","thirdPartyId":"26549363","url":"https://news.ycombinator.com/item?id=26549363","originalUrl":"https://www.nsa.gov/News-Features/Feature-Stories/Article-View/Article/2515176/nsa-issues-guidance-on-zero-trust-security-model/","imageRemote":"https://media.defense.gov/2021/Feb/25/2002588472/825/780/0/210225-D-IM742-1001.JPG","video":null,"channel":null,"channelUrl":null,"author":"graderjs","authorUrl":"https://news.ycombinator.com/user?id=graderjs","authorImage":null,"authorSlug":null,"score":154,"views":null,"sharedCount":null,"likeCount":null,"sharedContent":null,"parent":{"__typename":"HnJson","localize":[{"title":"NSA发布零信任安全模式指南","locale":"zh"},{"title":"NSA發佈零信任安全模式指南","locale":"zh-Hant"}]}},{"__typename":"SocialMediaPost","id":"HnPost-26554065","excerpt":"","slug":"/hn/26554065","title":"Factoring 2048 RSA integers in 177 days with 13436 qubits and a multimode memory","date":"March 23, 2021","dateISO":"2021-03-23T15:52:03.758Z","datetime":"2021-03-23 15:52","tags":["story","Hacker News"],"image":null,"imageAlt":null,"provider":"Hacker News","thirdPartyId":"26554065","url":"https://news.ycombinator.com/item?id=26554065","originalUrl":"https://arxiv.org/abs/2103.06159","imageRemote":"https://static.arxiv.org/static/browse/0.3.2.6/images/icons/social/bibsonomy.png","video":null,"channel":null,"channelUrl":null,"author":"athul7744","authorUrl":"https://news.ycombinator.com/user?id=athul7744","authorImage":null,"authorSlug":null,"score":240,"views":null,"sharedCount":null,"likeCount":null,"sharedContent":null,"parent":{"__typename":"HnJson","localize":[{"title":"在177天内对2048个RSA整数进行分解，使用13436个位数和一个多模存储器。","locale":"zh"},{"title":"在177天內對2048個RSA整數進行分解，使用13436個位數和一個多模存儲器。","locale":"zh-Hant"}]}},{"__typename":"SocialMediaPost","id":"HnPost-26537967","excerpt":"","slug":"/hn/26537967","title":"Douglas Adams' note to self reveals author found writing torture","date":"March 23, 2021","dateISO":"2021-03-23T14:55:56.277Z","datetime":"2021-03-23 14:55","tags":["story","Hacker News"],"image":null,"imageAlt":null,"provider":"Hacker News","thirdPartyId":"26537967","url":"https://news.ycombinator.com/item?id=26537967","originalUrl":"https://www.theguardian.com/books/2021/mar/22/douglas-adams-note-to-self-reveals-author-found-writing-torture","imageRemote":"https://i.guim.co.uk/img/media/5912c071b8a28b1ff08cddf07138379216335f31/0_812_2874_1723/master/2874.jpg?width=1200&height=630&quality=85&auto=format&fit=crop&overlay-align=bottom%2Cleft&overlay-width=100p&overlay-base64=L2ltZy9zdGF0aWMvb3ZlcmxheXMvdGctZGVmYXVsdC5wbmc&enable=upscale&s=33547a1f06b06215fe271405246296c5","video":null,"channel":null,"channelUrl":null,"author":"sohkamyung","authorUrl":"https://news.ycombinator.com/user?id=sohkamyung","authorImage":null,"authorSlug":null,"score":207,"views":null,"sharedCount":null,"likeCount":null,"sharedContent":null,"parent":{"__typename":"HnJson","localize":[{"title":"道格拉斯-亚当斯自述书透露作者被发现写作酷刑","locale":"zh"},{"title":"道格拉斯-亞當斯自述書透露作者被發現寫作酷刑","locale":"zh-Hant"}]}},{"__typename":"SocialMediaPost","id":"HnPost-26554539","excerpt":"","slug":"/hn/26554539","title":"Nokia releases complete historical Plan9 source under permissive licence","date":"March 23, 2021","dateISO":"2021-03-23T14:55:56.277Z","datetime":"2021-03-23 14:55","tags":["story","Hacker News"],"image":null,"imageAlt":null,"provider":"Hacker News","thirdPartyId":"26554539","url":"https://news.ycombinator.com/item?id=26554539","originalUrl":"https://www.bell-labs.com/institute/blog/plan-9-bell-labs-cyberspace/","imageRemote":"https://d1p0gxnqcu0lvz.cloudfront.net/images/Plan_9_v2.original.jpg","video":null,"channel":null,"channelUrl":null,"author":"__d","authorUrl":"https://news.ycombinator.com/user?id=__d","authorImage":null,"authorSlug":null,"score":862,"views":null,"sharedCount":null,"likeCount":null,"sharedContent":null,"parent":{"__typename":"HnJson","localize":[{"title":"诺基亚在许可的情况下发布完整的Plan9历史源。","locale":"zh"},{"title":"諾基亞在許可的情況下發布完整的Plan9歷史源。","locale":"zh-Hant"}]}},{"__typename":"SocialMediaPost","id":"HnPost-26550685","excerpt":"","slug":"/hn/26550685","title":"Darker Corners of Go","date":"March 23, 2021","dateISO":"2021-03-23T14:36:52.922Z","datetime":"2021-03-23 14:36","tags":["story","Hacker News"],"image":null,"imageAlt":null,"provider":"Hacker News","thirdPartyId":"26550685","url":"https://news.ycombinator.com/item?id=26550685","originalUrl":"https://rytisbiel.com/2021/03/06/darker-corners-of-go/","imageRemote":"https://rytisbiel.com/wp-content/uploads/2021/03/logo_sm.jpg","video":null,"channel":null,"channelUrl":null,"author":"signa11","authorUrl":"https://news.ycombinator.com/user?id=signa11","authorImage":null,"authorSlug":null,"score":183,"views":null,"sharedCount":null,"likeCount":null,"sharedContent":null,"parent":{"__typename":"HnJson","localize":[{"title":"围棋的黑暗角落","locale":"zh"},{"title":"圍棋的黑暗角落","locale":"zh-Hant"}]}},{"__typename":"SocialMediaPost","id":"HnPost-26552375","excerpt":"","slug":"/hn/26552375","title":"Result from LHCb experiment challenges the Standard Model","date":"March 23, 2021","dateISO":"2021-03-23T14:19:46.944Z","datetime":"2021-03-23 14:19","tags":["story","Hacker News"],"image":null,"imageAlt":null,"provider":"Hacker News","thirdPartyId":"26552375","url":"https://news.ycombinator.com/item?id=26552375","originalUrl":"https://www.bbc.co.uk/news/science-environment-56491033","imageRemote":"https://ichef.bbci.co.uk/news/1024/branded_news/43FF/production/_117670471_201802-025_01.jpg","video":null,"channel":null,"channelUrl":null,"author":"Kaibeezy","authorUrl":"https://news.ycombinator.com/user?id=Kaibeezy","authorImage":null,"authorSlug":null,"score":213,"views":null,"sharedCount":null,"likeCount":null,"sharedContent":null,"parent":{"__typename":"HnJson","localize":[{"title":"LHCb实验结果挑战标准模型","locale":"zh"},{"title":"LHCb實驗結果挑戰標準模型","locale":"zh-Hant"}]}},{"__typename":"SocialMediaPost","id":"HnPost-26537734","excerpt":"","slug":"/hn/26537734","title":"Show HN: Regular expression compilation visualized","date":"March 23, 2021","dateISO":"2021-03-23T13:37:57.898Z","datetime":"2021-03-23 13:37","tags":["story","Show HN","Hacker News"],"image":null,"imageAlt":null,"provider":"Hacker News","thirdPartyId":"26537734","url":"https://news.ycombinator.com/item?id=26537734","originalUrl":"https://compiler.org/reason-re-nfa/src/index.html","imageRemote":null,"video":null,"channel":"Show HN","channelUrl":"https://news.ycombinator.com/show","author":"JoelJacobson","authorUrl":"https://news.ycombinator.com/user?id=JoelJacobson","authorImage":null,"authorSlug":null,"score":216,"views":null,"sharedCount":null,"likeCount":null,"sharedContent":null,"parent":{"__typename":"HnJson","localize":[{"title":"显示HN：正则表达式编译可视化","locale":"zh"},{"title":"顯示HN：正則表達式編譯可視化","locale":"zh-Hant"}]}},{"__typename":"SocialMediaPost","id":"HnPost-26553235","excerpt":"","slug":"/hn/26553235","title":"Small, cheap spy satellites mean there’s no hiding place","date":"March 23, 2021","dateISO":"2021-03-23T13:37:57.898Z","datetime":"2021-03-23 13:37","tags":["story","Hacker News"],"image":null,"imageAlt":null,"provider":"Hacker News","thirdPartyId":"26553235","url":"https://news.ycombinator.com/item?id=26553235","originalUrl":"https://www.economist.com/science-and-technology/2021/03/18/small-cheap-spy-satellites-mean-theres-no-hiding-place","imageRemote":"https://www.economist.com/img/b/1280/720/90/sites/default/files/images/2021/03/articles/main/20210320_std001.jpg","video":null,"channel":null,"channelUrl":null,"author":"known","authorUrl":"https://news.ycombinator.com/user?id=known","authorImage":null,"authorSlug":null,"score":348,"views":null,"sharedCount":null,"likeCount":null,"sharedContent":null,"parent":{"__typename":"HnJson","localize":[{"title":"小型廉价的间谍卫星意味着无处可藏","locale":"zh"},{"title":"小型廉價的間諜衛星意味着無處可藏","locale":"zh-Hant"}]}},{"__typename":"SocialMediaPost","id":"HnPost-26551366","excerpt":"","slug":"/hn/26551366","title":"This Music Video Does Not Exist [video]","date":"March 23, 2021","dateISO":"2021-03-23T11:47:28.679Z","datetime":"2021-03-23 11:47","tags":["story","Hacker News"],"image":null,"imageAlt":null,"provider":"Hacker News","thirdPartyId":"26551366","url":"https://news.ycombinator.com/item?id=26551366","originalUrl":"https://www.thismusicvideodoesnotexist.com/","imageRemote":null,"video":null,"channel":null,"channelUrl":null,"author":"smthngwitty","authorUrl":"https://news.ycombinator.com/user?id=smthngwitty","authorImage":null,"authorSlug":null,"score":249,"views":null,"sharedCount":null,"likeCount":null,"sharedContent":null,"parent":{"__typename":"HnJson","localize":[{"title":"这支音乐视频不存在[视频]。","locale":"zh"},{"title":"這支音樂視頻不存在[視頻]。","locale":"zh-Hant"}]}},{"__typename":"SocialMediaPost","id":"HnPost-26550054","excerpt":"","slug":"/hn/26550054","title":"DARPA now has AI-controlled F-16s working as a team in virtual dogfights","date":"March 23, 2021","dateISO":"2021-03-23T07:50:45.177Z","datetime":"2021-03-23 07:50","tags":["story","Hacker News"],"image":null,"imageAlt":null,"provider":"Hacker News","thirdPartyId":"26550054","url":"https://news.ycombinator.com/item?id=26550054","originalUrl":"https://www.thedrive.com/the-war-zone/39899/darpa-now-has-ai-controlled-f-16s-working-as-a-team-in-virtual-dogfights","imageRemote":"https://api.thedrive.com/wp-content/uploads/2021/03/Air-Combat-Evolution-AI-dogfight.jpg?quality=85","video":null,"channel":null,"channelUrl":null,"author":"SEJeff","authorUrl":"https://news.ycombinator.com/user?id=SEJeff","authorImage":null,"authorSlug":null,"score":245,"views":null,"sharedCount":null,"likeCount":null,"sharedContent":null,"parent":{"__typename":"HnJson","localize":[{"title":"DARPA现在已经让AI控制的F-16战机作为一个团队在虚拟狗战中工作。","locale":"zh"},{"title":"DARPA現在已經讓AI控制的F-16戰機作爲一個團隊在虛擬狗戰中工作。","locale":"zh-Hant"}]}}]}},"pageContext":{"basePath":"/","pageType":"tag","tag":"Hacker News","tagsFilter":{"id":{"glob":"!*Post-1"}},"filter":{"id":{"glob":"!*Post-1"},"tags":{"eq":"Hacker News"}},"limit":25,"skip":375,"total":3105,"totalPages":125,"currentPage":16,"maxWidth":1024,"maxHeight":512,"locale":"zh","hrefLang":"zh-Hans","originalPath":"/tags/hacker-news/page/16","dateFormat":"YYYY-MM-DD"}},"staticQueryHashes":["1239077767","2506312863","2744905544","3025052997","3493603132","3493603132","3513215887","386998304"]}