{"componentChunkName":"component---gatsby-theme-buzzing-src-gatsby-theme-timeline-templates-posts-query-js","path":"/en/page/81","result":{"data":{"site":{"siteMetadata":{"title":"Reddit 热门","description":"用中文浏览Reddit热门内容","social":[{"name":"Twitter","url":"https://twitter.com/gatsbyjs","external":null,"prefetch":null},{"name":"GitHub","url":"https://github.com/gatsbyjs","external":null,"prefetch":null}],"menuLinks":[],"localize":[{"locale":"en","title":"Buzzing on Reddit","description":"See what's buzzing on Reddit in your native language","social":[{"name":"Reddit","url":"https://www.reddit.com/","external":true,"prefetch":null}],"menuLinks":[{"name":"Weekly Selection","url":"/issues","external":null,"prefetch":null},{"name":"RSS","url":"/rss.xml","external":null,"prefetch":false}]},{"locale":"zh-Hant","title":"Reddit 熱門","description":"用中文瀏覽Reddit熱門內容","social":null,"menuLinks":null}]}},"tagsGroup":{"group":[{"fieldValue":"ASK HN","totalCount":54},{"fieldValue":"Hacker News","totalCount":3107},{"fieldValue":"Poll","totalCount":1},{"fieldValue":"Show HN","totalCount":100},{"fieldValue":"poll","totalCount":1},{"fieldValue":"story","totalCount":3106}]},"allBlogPost":{"nodes":[{"__typename":"SocialMediaPost","id":"HnPost-25863999","excerpt":"","slug":"/hn/25863999","title":"Judge refuses to reinstate Parler after Amazon shut it down","date":"January 21, 2021","dateISO":"2021-01-21T23:57:33.109Z","datetime":"2021-01-21 23:57","tags":["story","Hacker News"],"image":null,"imageAlt":null,"provider":"Hacker News","thirdPartyId":"25863999","url":"https://news.ycombinator.com/item?id=25863999","originalUrl":"https://www.npr.org/2021/01/21/956486352/judge-refuses-to-reinstate-parler-after-amazon-shut-it-down","imageRemote":"https://media.npr.org/assets/img/2021/01/13/gettyimages-1230524224_wide-7f6730bd908167fcd9999b442955dfab46bdd926.jpg?s=1400","video":null,"channel":null,"channelUrl":null,"author":"eu","authorUrl":"https://news.ycombinator.com/user?id=eu","authorImage":null,"authorSlug":null,"score":306,"views":null,"sharedCount":null,"likeCount":null,"sharedContent":null,"parent":{"__typename":"HnJson","localize":[{"title":"亚马逊关闭Parler后，法官拒绝恢复Parler。","locale":"zh"},{"title":"亞馬遜關閉Parler後，法官拒絕恢復Parler。","locale":"zh-Hant"}]}},{"__typename":"SocialMediaPost","id":"HnPost-25864078","excerpt":"","slug":"/hn/25864078","title":"DeLorean considering all-electric reboot","date":"January 21, 2021","dateISO":"2021-01-21T23:57:33.109Z","datetime":"2021-01-21 23:57","tags":["story","Hacker News"],"image":null,"imageAlt":null,"provider":"Hacker News","thirdPartyId":"25864078","url":"https://news.ycombinator.com/item?id=25864078","originalUrl":"https://www.newdelorean.com/nhtsa-releases-final-low-volume-manufacturing-rules/","imageRemote":"https://www.newdelorean.com/wp-content/uploads/2016/02/dmc-logo.png","video":null,"channel":null,"channelUrl":null,"author":"evo_9","authorUrl":"https://news.ycombinator.com/user?id=evo_9","authorImage":null,"authorSlug":null,"score":366,"views":null,"sharedCount":null,"likeCount":null,"sharedContent":null,"parent":{"__typename":"HnJson","localize":[{"title":"迪罗瑞安考虑重启全电动车业务","locale":"zh"},{"title":"迪羅瑞安考慮重啓全電動車業務","locale":"zh-Hant"}]}},{"__typename":"SocialMediaPost","id":"HnPost-25859622","excerpt":"","slug":"/hn/25859622","title":"Over 700k paintings from the Rijksmuseum online copyright free","date":"January 21, 2021","dateISO":"2021-01-21T22:13:18.131Z","datetime":"2021-01-21 22:13","tags":["story","Hacker News"],"image":null,"imageAlt":null,"provider":"Hacker News","thirdPartyId":"25859622","url":"https://news.ycombinator.com/item?id=25859622","originalUrl":"https://www.ianvisits.co.uk/blog/2021/01/21/over-700000-paintings-from-the-rijksmuseum-online-copyright-free/","imageRemote":"https://www.ianvisits.co.uk/blog/wp-content/uploads/2021/01/Rijksmuseum-04.jpg","video":null,"channel":null,"channelUrl":null,"author":"edward","authorUrl":"https://news.ycombinator.com/user?id=edward","authorImage":null,"authorSlug":null,"score":358,"views":null,"sharedCount":null,"likeCount":null,"sharedContent":null,"parent":{"__typename":"HnJson","localize":[{"title":"超过70万幅画作来自莱克斯博物馆在线版权免费。","locale":"zh"},{"title":"超過70萬幅畫作來自萊克斯博物館在線版權免費。","locale":"zh-Hant"}]}},{"__typename":"SocialMediaPost","id":"HnPost-25861422","excerpt":"","slug":"/hn/25861422","title":"The Next Gen Database Servers Powering Let's Encrypt","date":"January 21, 2021","dateISO":"2021-01-21T21:40:54.410Z","datetime":"2021-01-21 21:40","tags":["story","Hacker News"],"image":null,"imageAlt":null,"provider":"Hacker News","thirdPartyId":"25861422","url":"https://news.ycombinator.com/item?id=25861422","originalUrl":"https://letsencrypt.org/2021/01/21/next-gen-database-servers.html","imageRemote":"https://letsencrypt.org/images/le-logo-twitter-noalpha.png","video":null,"channel":null,"channelUrl":null,"author":"jaas","authorUrl":"https://news.ycombinator.com/user?id=jaas","authorImage":null,"authorSlug":null,"score":403,"views":null,"sharedCount":null,"likeCount":null,"sharedContent":null,"parent":{"__typename":"HnJson","localize":[{"title":"支持Let's Encrypt的下一代数据库服务器。","locale":"zh"},{"title":"支持Let's Encrypt的下一代數據庫服務器。","locale":"zh-Hant"}]}},{"__typename":"SocialMediaPost","id":"HnPost-25860325","excerpt":"","slug":"/hn/25860325","title":"Prostate cancer can be precisely diagnosed using a urine test with AI","date":"January 21, 2021","dateISO":"2021-01-21T21:02:54.898Z","datetime":"2021-01-21 21:02","tags":["story","Hacker News"],"image":null,"imageAlt":null,"provider":"Hacker News","thirdPartyId":"25860325","url":"https://news.ycombinator.com/item?id=25860325","originalUrl":"https://phys.org/news/2021-01-cancer-precisely-urine-artificial-intelligence.html","imageRemote":"https://scx2.b-cdn.net/gfx/news/hires/2021/cancercanbep.jpg","video":null,"channel":null,"channelUrl":null,"author":"samizdis","authorUrl":"https://news.ycombinator.com/user?id=samizdis","authorImage":null,"authorSlug":null,"score":202,"views":null,"sharedCount":null,"likeCount":null,"sharedContent":null,"parent":{"__typename":"HnJson","localize":[{"title":"前列腺癌可通过尿检与AI精准诊断","locale":"zh"},{"title":"前列腺癌可通過尿檢與AI精準診斷","locale":"zh-Hant"}]}},{"__typename":"SocialMediaPost","id":"HnPost-25862281","excerpt":"","slug":"/hn/25862281","title":"Retiring Tucows Downloads","date":"January 21, 2021","dateISO":"2021-01-21T21:02:54.898Z","datetime":"2021-01-21 21:02","tags":["story","Hacker News"],"image":null,"imageAlt":null,"provider":"Hacker News","thirdPartyId":"25862281","url":"https://news.ycombinator.com/item?id=25862281","originalUrl":"https://tucows.com/retired/","imageRemote":"https://app.jobvite.com/logo/tucowslogoonblue_1573162159821.png","video":null,"channel":null,"channelUrl":null,"author":"andrewdutton","authorUrl":"https://news.ycombinator.com/user?id=andrewdutton","authorImage":null,"authorSlug":null,"score":459,"views":null,"sharedCount":null,"likeCount":null,"sharedContent":null,"parent":{"__typename":"HnJson","localize":[{"title":"即将退休的图库下载","locale":"zh"},{"title":"即將退休的圖庫下載","locale":"zh-Hant"}]}},{"__typename":"SocialMediaPost","id":"HnPost-25859128","excerpt":"","slug":"/hn/25859128","title":"Predicting Hard Drive Failure with Machine Learning","date":"January 21, 2021","dateISO":"2021-01-21T20:16:25.456Z","datetime":"2021-01-21 20:16","tags":["story","Hacker News"],"image":null,"imageAlt":null,"provider":"Hacker News","thirdPartyId":"25859128","url":"https://news.ycombinator.com/item?id=25859128","originalUrl":"https://datto.engineering/post/predicting-hard-drive-failure-with-machine-learning","imageRemote":"https://datto.engineering/img/datto-logo__dark.svg","video":null,"channel":null,"channelUrl":null,"author":"binwiederhier","authorUrl":"https://news.ycombinator.com/user?id=binwiederhier","authorImage":null,"authorSlug":null,"score":221,"views":null,"sharedCount":null,"likeCount":null,"sharedContent":null,"parent":{"__typename":"HnJson","localize":[{"title":"用机器学习预测硬盘驱动器故障","locale":"zh"},{"title":"用機器學習預測硬盤驅動器故障","locale":"zh-Hant"}]}},{"__typename":"SocialMediaPost","id":"HnPost-25858901","excerpt":"","slug":"/hn/25858901","title":"Bitcoincore.org removes Satoshi's whitepaper from website after threats from CSW","date":"January 21, 2021","dateISO":"2021-01-21T19:32:48.760Z","datetime":"2021-01-21 19:32","tags":["story","Hacker News"],"image":null,"imageAlt":null,"provider":"Hacker News","thirdPartyId":"25858901","url":"https://news.ycombinator.com/item?id=25858901","originalUrl":"https://bitcoin.org/en/posts/regarding-csw","imageRemote":"https://bitcoin.org/img/icons/opengraph.png?1611216350","video":null,"channel":null,"channelUrl":null,"author":"wildrice","authorUrl":"https://news.ycombinator.com/user?id=wildrice","authorImage":null,"authorSlug":null,"score":268,"views":null,"sharedCount":null,"likeCount":null,"sharedContent":null,"parent":{"__typename":"HnJson","localize":[{"title":"在受到CSW威胁后，Bitcoincore.org从网站上删除了Satoshi的白皮书。","locale":"zh"},{"title":"在受到CSW威脅後，Bitcoincore.org從網站上刪除了Satoshi的白皮書。","locale":"zh-Hant"}]}},{"__typename":"SocialMediaPost","id":"HnPost-25862291","excerpt":"","slug":"/hn/25862291","title":"Rust for Windows","date":"January 21, 2021","dateISO":"2021-01-21T19:32:48.760Z","datetime":"2021-01-21 19:32","tags":["story","Hacker News"],"image":null,"imageAlt":null,"provider":"Hacker News","thirdPartyId":"25862291","url":"https://news.ycombinator.com/item?id=25862291","originalUrl":"https://github.com/microsoft/windows-rs","imageRemote":"https://avatars.githubusercontent.com/u/6154722?s=400&v=4","video":null,"channel":null,"channelUrl":null,"author":"dsr12","authorUrl":"https://news.ycombinator.com/user?id=dsr12","authorImage":null,"authorSlug":null,"score":745,"views":null,"sharedCount":null,"likeCount":null,"sharedContent":null,"parent":{"__typename":"HnJson","localize":[{"title":"铁锈语言 for Windows","locale":"zh"},{"title":"鐵鏽語言 for Windows","locale":"zh-Hant"}]}},{"__typename":"SocialMediaPost","id":"HnPost-25854845","excerpt":"","slug":"/hn/25854845","title":"Life of a Netflix Partner Engineer – The case of the extra 40 ms","date":"January 21, 2021","dateISO":"2021-01-21T18:34:58.882Z","datetime":"2021-01-21 18:34","tags":["story","Hacker News"],"image":null,"imageAlt":null,"provider":"Hacker News","thirdPartyId":"25854845","url":"https://news.ycombinator.com/item?id=25854845","originalUrl":"https://netflixtechblog.com/life-of-a-netflix-partner-engineer-the-case-of-extra-40-ms-b4c2dd278513","imageRemote":"https://miro.medium.com/max/811/1*TftatmXUCJnKtnyKisOCrQ.png","video":null,"channel":null,"channelUrl":null,"author":"saranshk","authorUrl":"https://news.ycombinator.com/user?id=saranshk","authorImage":null,"authorSlug":null,"score":167,"views":null,"sharedCount":null,"likeCount":null,"sharedContent":null,"parent":{"__typename":"HnJson","localize":[{"title":"网红合伙人工程师的生活--额外40毫秒的案例","locale":"zh"},{"title":"網紅合夥人工程師的生活--額外40毫秒的案例","locale":"zh-Hant"}]}},{"__typename":"SocialMediaPost","id":"HnPost-25858160","excerpt":"","slug":"/hn/25858160","title":"Why cats are crazy for catnip","date":"January 21, 2021","dateISO":"2021-01-21T18:34:58.882Z","datetime":"2021-01-21 18:34","tags":["story","Hacker News"],"image":null,"imageAlt":null,"provider":"Hacker News","thirdPartyId":"25858160","url":"https://news.ycombinator.com/item?id=25858160","originalUrl":"https://www.sciencemag.org/news/2021/01/why-cats-are-crazy-catnip","imageRemote":"https://www.sciencemag.org/sites/default/files/012021-cats-thumbnail.png","video":null,"channel":null,"channelUrl":null,"author":"pseudolus","authorUrl":"https://news.ycombinator.com/user?id=pseudolus","authorImage":null,"authorSlug":null,"score":180,"views":null,"sharedCount":null,"likeCount":null,"sharedContent":null,"parent":{"__typename":"HnJson","localize":[{"title":"为什么猫咪会为猫薄荷而疯狂？","locale":"zh"},{"title":"爲什麼貓咪會爲貓薄荷而瘋狂？","locale":"zh-Hant"}]}},{"__typename":"SocialMediaPost","id":"HnPost-25858750","excerpt":"","slug":"/hn/25858750","title":"New Intel CEO Making Waves: Rehiring Retired CPU Architects","date":"January 21, 2021","dateISO":"2021-01-21T18:34:58.882Z","datetime":"2021-01-21 18:34","tags":["story","Hacker News"],"image":null,"imageAlt":null,"provider":"Hacker News","thirdPartyId":"25858750","url":"https://news.ycombinator.com/item?id=25858750","originalUrl":"https://www.anandtech.com/show/16438/new-intel-ceo-making-waves-rehiring-retired-cpu-architects","imageRemote":"https://images.anandtech.com/doci/16438/nehalem_678x452.jpg","video":null,"channel":null,"channelUrl":null,"author":"rbanffy","authorUrl":"https://news.ycombinator.com/user?id=rbanffy","authorImage":null,"authorSlug":null,"score":640,"views":null,"sharedCount":null,"likeCount":null,"sharedContent":null,"parent":{"__typename":"HnJson","localize":[{"title":"英特尔新CEO造势。重用退休的CPU架构师","locale":"zh"},{"title":"英特爾新CEO造勢。重用退休的CPU架構師","locale":"zh-Hant"}]}},{"__typename":"SocialMediaPost","id":"HnPost-25859907","excerpt":"","slug":"/hn/25859907","title":"How We Ported Linux to the M1","date":"January 21, 2021","dateISO":"2021-01-21T18:34:58.882Z","datetime":"2021-01-21 18:34","tags":["story","Hacker News"],"image":null,"imageAlt":null,"provider":"Hacker News","thirdPartyId":"25859907","url":"https://news.ycombinator.com/item?id=25859907","originalUrl":"https://corellium.com/blog/linux-m1","imageRemote":"https://images.prismic.io/corellium/149cd274-12f3-4438-a764-d7a438099be6_2021-01-20-232045.jpeg?auto=compress,format","video":null,"channel":null,"channelUrl":null,"author":"easton","authorUrl":"https://news.ycombinator.com/user?id=easton","authorImage":null,"authorSlug":null,"score":346,"views":null,"sharedCount":null,"likeCount":null,"sharedContent":null,"parent":{"__typename":"HnJson","localize":[{"title":"我们如何将Linux移植到M1上","locale":"zh"},{"title":"我們如何將Linux移植到M1上","locale":"zh-Hant"}]}},{"__typename":"SocialMediaPost","id":"HnPost-25836345","excerpt":"","slug":"/hn/25836345","title":"Lispsyntax.jl: A Clojure-like Lisp syntax for julia","date":"January 21, 2021","dateISO":"2021-01-21T17:29:06.938Z","datetime":"2021-01-21 17:29","tags":["story","Hacker News"],"image":null,"imageAlt":null,"provider":"Hacker News","thirdPartyId":"25836345","url":"https://news.ycombinator.com/item?id=25836345","originalUrl":"https://github.com/swadey/LispSyntax.jl","imageRemote":"https://avatars.githubusercontent.com/u/1401817?s=400&v=4","video":null,"channel":null,"channelUrl":null,"author":"phonebucket","authorUrl":"https://news.ycombinator.com/user?id=phonebucket","authorImage":null,"authorSlug":null,"score":160,"views":null,"sharedCount":null,"likeCount":null,"sharedContent":null,"parent":{"__typename":"HnJson","localize":[{"title":"Lispsyntax.jl: 类似Clojure的julia Lisp语法。","locale":"zh"},{"title":"Lispsyntax.jl: 類似Clojure的julia Lisp語法。","locale":"zh-Hant"}]}},{"__typename":"SocialMediaPost","id":"HnPost-25849533","excerpt":"","slug":"/hn/25849533","title":"Fediverse in 2020","date":"January 21, 2021","dateISO":"2021-01-21T17:29:06.938Z","datetime":"2021-01-21 17:29","tags":["story","Hacker News"],"image":null,"imageAlt":null,"provider":"Hacker News","thirdPartyId":"25849533","url":"https://news.ycombinator.com/item?id=25849533","originalUrl":"https://fediverse.party/en/post/fediverse-in-2020","imageRemote":"https://fediverse.party/en/post/fediverse-in-2020/banner.jpg","video":null,"channel":null,"channelUrl":null,"author":"buovjaga","authorUrl":"https://news.ycombinator.com/user?id=buovjaga","authorImage":null,"authorSlug":null,"score":164,"views":null,"sharedCount":null,"likeCount":null,"sharedContent":null,"parent":{"__typename":"HnJson","localize":[{"title":"2020年的Fediverse","locale":"zh"},{"title":"2020年的Fediverse","locale":"zh-Hant"}]}},{"__typename":"SocialMediaPost","id":"HnPost-25838364","excerpt":"","slug":"/hn/25838364","title":"Java on Truffle – Going Fully Metacircular","date":"January 21, 2021","dateISO":"2021-01-21T14:59:13.675Z","datetime":"2021-01-21 14:59","tags":["story","Hacker News"],"image":null,"imageAlt":null,"provider":"Hacker News","thirdPartyId":"25838364","url":"https://news.ycombinator.com/item?id=25838364","originalUrl":"https://medium.com/graalvm/java-on-truffle-going-fully-metacircular-215531e3f840","imageRemote":"https://miro.medium.com/max/1177/1*fWeivN_3IbdjJ9GkJXxHzA.png","video":null,"channel":null,"channelUrl":null,"author":"Borkdude","authorUrl":"https://news.ycombinator.com/user?id=Borkdude","authorImage":null,"authorSlug":null,"score":240,"views":null,"sharedCount":null,"likeCount":null,"sharedContent":null,"parent":{"__typename":"HnJson","localize":[{"title":"在松露上的Java--全面走向元圆形","locale":"zh"},{"title":"在松露上的Java--全面走向元圓形","locale":"zh-Hant"}]}},{"__typename":"SocialMediaPost","id":"HnPost-25844277","excerpt":"","slug":"/hn/25844277","title":"Can't uninstall Adobe apps without an account (2018)","date":"January 21, 2021","dateISO":"2021-01-21T14:59:13.675Z","datetime":"2021-01-21 14:59","tags":["story","Hacker News"],"image":null,"imageAlt":null,"provider":"Hacker News","thirdPartyId":"25844277","url":"https://news.ycombinator.com/item?id=25844277","originalUrl":"https://feedback.photoshop.com/conversations/photoshop/cant-uninstall-adobe-apps-without-an-account/5f5f45ee4b561a3d4268bd5e","imageRemote":"https://sprcdn-assets.sprinklr.com/1701/3ba0fb70-5cba-4314-a6bb-df27ed5519b8-204447730.jpg","video":null,"channel":null,"channelUrl":null,"author":"sings","authorUrl":"https://news.ycombinator.com/user?id=sings","authorImage":null,"authorSlug":null,"score":310,"views":null,"sharedCount":null,"likeCount":null,"sharedContent":null,"parent":{"__typename":"HnJson","localize":[{"title":"没有账号无法卸载Adobe应用(2018)","locale":"zh"},{"title":"沒有賬號無法卸載Adobe應用(2018)","locale":"zh-Hant"}]}},{"__typename":"SocialMediaPost","id":"HnPost-25844959","excerpt":"","slug":"/hn/25844959","title":"Intel outsources Core i3 to TSMC's 5nm process","date":"January 21, 2021","dateISO":"2021-01-21T14:59:13.675Z","datetime":"2021-01-21 14:59","tags":["story","Hacker News"],"image":null,"imageAlt":null,"provider":"Hacker News","thirdPartyId":"25844959","url":"https://news.ycombinator.com/item?id=25844959","originalUrl":"https://www.eenewseurope.com/news/intel-TSMC-5nm","imageRemote":"https://eenews.cdnartwhere.eu/sites/default/files/styles/facebook/public/sites/default/files/images/inteldefinition630.jpg?itok=rP0IVJbs","video":null,"channel":null,"channelUrl":null,"author":"djoldman","authorUrl":"https://news.ycombinator.com/user?id=djoldman","authorImage":null,"authorSlug":null,"score":492,"views":null,"sharedCount":null,"likeCount":null,"sharedContent":null,"parent":{"__typename":"HnJson","localize":[{"title":"英特尔将酷睿i3外包给台积电的5纳米工艺。","locale":"zh"},{"title":"英特爾將酷睿i3外包給臺積電的5納米工藝。","locale":"zh-Hant"}]}},{"__typename":"SocialMediaPost","id":"HnPost-25846391","excerpt":"","slug":"/hn/25846391","title":"Red Hat announces no-cost RHEL for small production environments","date":"January 21, 2021","dateISO":"2021-01-21T14:59:13.675Z","datetime":"2021-01-21 14:59","tags":["story","Hacker News"],"image":null,"imageAlt":null,"provider":"Hacker News","thirdPartyId":"25846391","url":"https://news.ycombinator.com/item?id=25846391","originalUrl":"https://www.redhat.com/en/blog/new-year-new-red-hat-enterprise-linux-programs-easier-ways-access-rhel","imageRemote":"https://www.redhat.com/cms/managed-files/RH_OpenTech.gif","video":null,"channel":null,"channelUrl":null,"author":"IceWreck","authorUrl":"https://news.ycombinator.com/user?id=IceWreck","authorImage":null,"authorSlug":null,"score":171,"views":null,"sharedCount":null,"likeCount":null,"sharedContent":null,"parent":{"__typename":"HnJson","localize":[{"title":"红帽宣布为小型生产环境提供免费RHEL服务","locale":"zh"},{"title":"紅帽宣佈爲小型生產環境提供免費RHEL服務","locale":"zh-Hant"}]}},{"__typename":"SocialMediaPost","id":"HnPost-25849054","excerpt":"","slug":"/hn/25849054","title":"Launch HN: Manara (YC W21) – Connect Middle East engineers with global companies","date":"January 21, 2021","dateISO":"2021-01-21T14:59:13.675Z","datetime":"2021-01-21 14:59","tags":["story","Hacker News"],"image":null,"imageAlt":null,"provider":"Hacker News","thirdPartyId":"25849054","url":"https://news.ycombinator.com/item?id=25849054","originalUrl":"https://news.ycombinator.com/item?id=25849054","imageRemote":null,"video":null,"channel":null,"channelUrl":null,"author":"laila90","authorUrl":"https://news.ycombinator.com/user?id=laila90","authorImage":null,"authorSlug":null,"score":185,"views":null,"sharedCount":null,"likeCount":null,"sharedContent":null,"parent":{"__typename":"HnJson","localize":[{"title":"启动HN：Manara (YC W21)--连接中东工程师与全球公司","locale":"zh"},{"title":"啓動HN：Manara (YC W21)--連接中東工程師與全球公司","locale":"zh-Hant"}]}},{"__typename":"SocialMediaPost","id":"HnPost-25850739","excerpt":"","slug":"/hn/25850739","title":"Ask HN: Anyone know any funny programming jokes?","date":"January 21, 2021","dateISO":"2021-01-21T14:59:13.675Z","datetime":"2021-01-21 14:59","tags":["story","ASK HN","Hacker News"],"image":null,"imageAlt":null,"provider":"Hacker News","thirdPartyId":"25850739","url":"https://news.ycombinator.com/item?id=25850739","originalUrl":"https://news.ycombinator.com/item?id=25850739","imageRemote":null,"video":null,"channel":"ASK HN","channelUrl":"https://news.ycombinator.com/ask","author":"arthurcolle","authorUrl":"https://news.ycombinator.com/user?id=arthurcolle","authorImage":null,"authorSlug":null,"score":674,"views":null,"sharedCount":null,"likeCount":null,"sharedContent":null,"parent":{"__typename":"HnJson","localize":[{"title":"HN提问：有谁知道什么有趣的编程笑话？","locale":"zh"},{"title":"HN提問：有誰知道什麼有趣的編程笑話？","locale":"zh-Hant"}]}},{"__typename":"SocialMediaPost","id":"HnPost-25854523","excerpt":"","slug":"/hn/25854523","title":"Select a muscle and it provides the exercises to workout the selected muscle","date":"January 21, 2021","dateISO":"2021-01-21T14:59:13.675Z","datetime":"2021-01-21 14:59","tags":["story","Hacker News"],"image":null,"imageAlt":null,"provider":"Hacker News","thirdPartyId":"25854523","url":"https://news.ycombinator.com/item?id=25854523","originalUrl":"https://musclewiki.com/","imageRemote":"https://musclewiki.com/static/images/favicon.jpg","video":null,"channel":null,"channelUrl":null,"author":"punkspider","authorUrl":"https://news.ycombinator.com/user?id=punkspider","authorImage":null,"authorSlug":null,"score":1949,"views":null,"sharedCount":null,"likeCount":null,"sharedContent":null,"parent":{"__typename":"HnJson","localize":[{"title":"选择一块肌肉，它提供了锻炼所选肌肉的练习。","locale":"zh"},{"title":"選擇一塊肌肉，它提供了鍛鍊所選肌肉的練習。","locale":"zh-Hant"}]}},{"__typename":"SocialMediaPost","id":"HnPost-25856257","excerpt":"","slug":"/hn/25856257","title":"Management by metrics leads us astray","date":"January 21, 2021","dateISO":"2021-01-21T14:59:13.675Z","datetime":"2021-01-21 14:59","tags":["story","Hacker News"],"image":null,"imageAlt":null,"provider":"Hacker News","thirdPartyId":"25856257","url":"https://news.ycombinator.com/item?id=25856257","originalUrl":"https://jakobgreenfeld.com/metrics","imageRemote":"http://jakobgreenfeld.com/images/gut-feeling.png","video":null,"channel":null,"channelUrl":null,"author":"jakobgreenfeld","authorUrl":"https://news.ycombinator.com/user?id=jakobgreenfeld","authorImage":null,"authorSlug":null,"score":287,"views":null,"sharedCount":null,"likeCount":null,"sharedContent":null,"parent":{"__typename":"HnJson","localize":[{"title":"衡量管理使我们误入歧途","locale":"zh"},{"title":"衡量管理使我們誤入歧途","locale":"zh-Hant"}]}},{"__typename":"SocialMediaPost","id":"HnPost-25856291","excerpt":"","slug":"/hn/25856291","title":"Raspberry Pi Pico and RP2040 Microcontroller","date":"January 21, 2021","dateISO":"2021-01-21T14:59:13.675Z","datetime":"2021-01-21 14:59","tags":["story","Hacker News"],"image":null,"imageAlt":null,"provider":"Hacker News","thirdPartyId":"25856291","url":"https://news.ycombinator.com/item?id=25856291","originalUrl":"https://www.raspberrypi.org/products/raspberry-pi-pico/","imageRemote":"https://www.raspberrypi.org/homepage-9df4b/homepage-9df4b/static/opengraph-4f161fecfe846a0ecb0b52045238c4ae.png","video":null,"channel":null,"channelUrl":null,"author":"schappim","authorUrl":"https://news.ycombinator.com/user?id=schappim","authorImage":null,"authorSlug":null,"score":469,"views":null,"sharedCount":null,"likeCount":null,"sharedContent":null,"parent":{"__typename":"HnJson","localize":[{"title":"Raspberry Pi Pico和RP2040微控制器。","locale":"zh"},{"title":"Raspberry Pi Pico和RP2040微控制器。","locale":"zh-Hant"}]}},{"__typename":"SocialMediaPost","id":"HnPost-25848793","excerpt":"","slug":"/hn/25848793","title":"Show HN: A mindfulness based social network designed to be checked once a week","date":"January 21, 2021","dateISO":"2021-01-21T06:02:50.981Z","datetime":"2021-01-21 06:02","tags":["story","Show HN","Hacker News"],"image":null,"imageAlt":null,"provider":"Hacker News","thirdPartyId":"25848793","url":"https://news.ycombinator.com/item?id=25848793","originalUrl":"https://www.sundayy.app/","imageRemote":"https://www.sundayy.app/assets/meta_image-6ebe63a352870bc14e4f621164fa882fdf67e3787e56c9cdf5d6ca56f2d41faa.png","video":null,"channel":"Show HN","channelUrl":"https://news.ycombinator.com/show","author":"jillianschuller","authorUrl":"https://news.ycombinator.com/user?id=jillianschuller","authorImage":null,"authorSlug":null,"score":205,"views":null,"sharedCount":null,"likeCount":null,"sharedContent":null,"parent":{"__typename":"HnJson","localize":[{"title":"HN新产品：一个基于心态的社交网络，旨在每周检查一次。","locale":"zh"},{"title":"HN新產品：一個基於心態的社交網絡，旨在每週檢查一次。","locale":"zh-Hant"}]}}]}},"pageContext":{"basePath":"/","pageType":"home","tagsFilter":{"id":{"glob":"!*Post-1"}},"filter":{"id":{"glob":"!*Post-1"}},"limit":25,"skip":2000,"totalPages":125,"total":3107,"currentPage":81,"maxWidth":1024,"maxHeight":512,"locale":"en","hrefLang":"en-US","originalPath":"/page/81","dateFormat":"MM/DD/YYYY"}},"staticQueryHashes":["1239077767","2506312863","2744905544","3025052997","3493603132","3493603132","3513215887","386998304"]}