{"componentChunkName":"component---gatsby-theme-buzzing-src-gatsby-theme-timeline-templates-posts-query-js","path":"/zh-Hant/tags/story/page/79","result":{"data":{"site":{"siteMetadata":{"title":"Reddit 热门","description":"用中文浏览Reddit热门内容","social":[{"name":"Twitter","url":"https://twitter.com/gatsbyjs","external":null,"prefetch":null},{"name":"GitHub","url":"https://github.com/gatsbyjs","external":null,"prefetch":null}],"menuLinks":[],"localize":[{"locale":"en","title":"Buzzing on Reddit","description":"See what's buzzing on Reddit in your native language","social":[{"name":"Reddit","url":"https://www.reddit.com/","external":true,"prefetch":null}],"menuLinks":[{"name":"Weekly Selection","url":"/issues","external":null,"prefetch":null},{"name":"RSS","url":"/rss.xml","external":null,"prefetch":false}]},{"locale":"zh-Hant","title":"Reddit 熱門","description":"用中文瀏覽Reddit熱門內容","social":null,"menuLinks":null}]}},"tagsGroup":{"group":[{"fieldValue":"ASK HN","totalCount":42},{"fieldValue":"Bitcoin","totalCount":4},{"fieldValue":"Hacker News","totalCount":2407},{"fieldValue":"Poll","totalCount":1},{"fieldValue":"SaveAMC","totalCount":1},{"fieldValue":"Show HN","totalCount":81},{"fieldValue":"bitcoin","totalCount":3},{"fieldValue":"investing","totalCount":753},{"fieldValue":"poll","totalCount":1},{"fieldValue":"reddit","totalCount":4523},{"fieldValue":"science","totalCount":1},{"fieldValue":"stocks","totalCount":1482},{"fieldValue":"story","totalCount":2406},{"fieldValue":"tweet","totalCount":767},{"fieldValue":"wallstreetbets","totalCount":2288}]},"allBlogPost":{"nodes":[{"__typename":"SocialMediaPost","id":"HnPost-25554941","excerpt":"","slug":"/hn/25554941","title":"2-Acre Vertical Farm Run by AI and Robots Out-Produces 720-Acre Flat Farm","date":"December 28, 2020","dateISO":"2020-12-28T05:06:21.919Z","datetime":"2020-12-28 05:06","tags":["story","Hacker News"],"image":null,"imageAlt":null,"provider":"Hacker News","thirdPartyId":"25554941","url":"https://news.ycombinator.com/item?id=25554941","originalUrl":"https://www.intelligentliving.co/vertical-farm-out-produces-flat-farm/","imageRemote":"https://i1.wp.com/www.intelligentliving.co/wp-content/uploads/2020/12/Plenty-featured.jpg?fit=1000%2C758&ssl=1","video":null,"channel":null,"channelUrl":null,"author":"wrycoder","authorUrl":"https://news.ycombinator.com/user?id=wrycoder","authorImage":null,"authorSlug":null,"score":418,"views":null,"sharedCount":null,"likeCount":null,"sharedContent":null,"parent":{"__typename":"HnJson","localize":[{"title":"由人工智能和机器人运营的2英亩垂直农场超过生产720英亩的平坦农场","locale":"zh"},{"title":"由人工智能和機器人運營的2英畝垂直農場超過生產720英畝的平坦農場","locale":"zh-Hant"}]}},{"__typename":"SocialMediaPost","id":"HnPost-25552267","excerpt":"","slug":"/hn/25552267","title":"Systems design explains the world: volume 1","date":"December 28, 2020","dateISO":"2020-12-28T01:12:55.977Z","datetime":"2020-12-28 01:12","tags":["story","Hacker News"],"image":null,"imageAlt":null,"provider":"Hacker News","thirdPartyId":"25552267","url":"https://news.ycombinator.com/item?id=25552267","originalUrl":"https://apenwarr.ca/log/20201227","imageRemote":"https://apenwarr.ca/img/ave-home.jpg","video":null,"channel":null,"channelUrl":null,"author":"peapicker","authorUrl":"https://news.ycombinator.com/user?id=peapicker","authorImage":null,"authorSlug":null,"score":332,"views":null,"sharedCount":null,"likeCount":null,"sharedContent":null,"parent":{"__typename":"HnJson","localize":[{"title":"系统设计解释世界：第一卷","locale":"zh"},{"title":"系統設計解釋世界：第一卷","locale":"zh-Hant"}]}},{"__typename":"SocialMediaPost","id":"HnPost-25553445","excerpt":"","slug":"/hn/25553445","title":"Upptime – GitHub-powered open-source uptime monitor and status page","date":"December 28, 2020","dateISO":"2020-12-28T01:12:55.977Z","datetime":"2020-12-28 01:12","tags":["story","Hacker News"],"image":null,"imageAlt":null,"provider":"Hacker News","thirdPartyId":"25553445","url":"https://news.ycombinator.com/item?id=25553445","originalUrl":"https://upptime.js.org/","imageRemote":"https://upptime.js.org/img/smo.png","video":null,"channel":null,"channelUrl":null,"author":"fahrradflucht","authorUrl":"https://news.ycombinator.com/user?id=fahrradflucht","authorImage":null,"authorSlug":null,"score":301,"views":null,"sharedCount":null,"likeCount":null,"sharedContent":null,"parent":{"__typename":"HnJson","localize":[{"title":"Upptime-GitHub支持的开源正常运行时间监视器和状态页面","locale":"zh"},{"title":"Upptime-GitHub支持的開源正常運行時間監視器和狀態頁面","locale":"zh-Hant"}]}},{"__typename":"SocialMediaPost","id":"HnPost-25552342","excerpt":"","slug":"/hn/25552342","title":"SaaS We Happily Pay For","date":"December 27, 2020","dateISO":"2020-12-27T22:35:13.568Z","datetime":"2020-12-27 22:35","tags":["story","Hacker News"],"image":null,"imageAlt":null,"provider":"Hacker News","thirdPartyId":"25552342","url":"https://news.ycombinator.com/item?id=25552342","originalUrl":"https://francescodilorenzo.com/saas-we-pay-for","imageRemote":null,"video":null,"channel":null,"channelUrl":null,"author":"frankdilo","authorUrl":"https://news.ycombinator.com/user?id=frankdilo","authorImage":null,"authorSlug":null,"score":445,"views":null,"sharedCount":null,"likeCount":null,"sharedContent":null,"parent":{"__typename":"HnJson","localize":[{"title":"我们很乐意为SaaS买单","locale":"zh"},{"title":"我們很樂意爲SaaS買單","locale":"zh-Hant"}]}},{"__typename":"SocialMediaPost","id":"HnPost-25543742","excerpt":"","slug":"/hn/25543742","title":"Archaeologists uncover ancient street food shop in Pompeii","date":"December 27, 2020","dateISO":"2020-12-27T21:28:18.748Z","datetime":"2020-12-27 21:28","tags":["story","Hacker News"],"image":null,"imageAlt":null,"provider":"Hacker News","thirdPartyId":"25543742","url":"https://news.ycombinator.com/item?id=25543742","originalUrl":"https://www.reuters.com/article/italy-pompeii-idUSKBN2900D3","imageRemote":"https://static.reuters.com/resources/r/?m=02&d=20201226&t=2&i=1545854509&r=LYNXMPEGBP06D&w=800","video":null,"channel":null,"channelUrl":null,"author":"pseudolus","authorUrl":"https://news.ycombinator.com/user?id=pseudolus","authorImage":null,"authorSlug":null,"score":344,"views":null,"sharedCount":null,"likeCount":null,"sharedContent":null,"parent":{"__typename":"HnJson","localize":[{"title":"考古学家在庞贝发现古老的街头食品店","locale":"zh"},{"title":"考古學家在龐貝發現古老的街頭食品店","locale":"zh-Hant"}]}},{"__typename":"SocialMediaPost","id":"HnPost-25551122","excerpt":"","slug":"/hn/25551122","title":"Bye Bye Mongo, Hello Postgres (2018)","date":"December 27, 2020","dateISO":"2020-12-27T20:22:55.782Z","datetime":"2020-12-27 20:22","tags":["story","Hacker News"],"image":null,"imageAlt":null,"provider":"Hacker News","thirdPartyId":"25551122","url":"https://news.ycombinator.com/item?id=25551122","originalUrl":"https://www.theguardian.com/info/2018/nov/30/bye-bye-mongo-hello-postgres","imageRemote":"https://i.guim.co.uk/img/media/4842b3009287b04d043eb1b627ee8fa5e6e77096/0_19_3817_2289/master/3817.jpg?width=1200&height=630&quality=85&auto=format&fit=crop&overlay-align=bottom%2Cleft&overlay-width=100p&overlay-base64=L2ltZy9zdGF0aWMvb3ZlcmxheXMvdGctZGVmYXVsdC5wbmc&enable=upscale&s=e4c21a6cbd5b33eebecfc4eeffc43598","video":null,"channel":null,"channelUrl":null,"author":"mathattack","authorUrl":"https://news.ycombinator.com/user?id=mathattack","authorImage":null,"authorSlug":null,"score":197,"views":null,"sharedCount":null,"likeCount":null,"sharedContent":null,"parent":{"__typename":"HnJson","localize":[{"title":"再见Mongo，Hello Postgres(2018)","locale":"zh"},{"title":"再見Mongo，Hello Postgres(2018)","locale":"zh-Hant"}]}},{"__typename":"SocialMediaPost","id":"HnPost-25550901","excerpt":"","slug":"/hn/25550901","title":"Rotating Sails Help to Revive Wind-Powered Shipping","date":"December 27, 2020","dateISO":"2020-12-27T19:20:42.997Z","datetime":"2020-12-27 19:20","tags":["story","Hacker News"],"image":null,"imageAlt":null,"provider":"Hacker News","thirdPartyId":"25550901","url":"https://news.ycombinator.com/item?id=25550901","originalUrl":"https://www.scientificamerican.com/article/rotating-sails-help-to-revive-wind-powered-shipping/","imageRemote":"https://static.scientificamerican.com/sciam/cache/file/E8C4CF97-DFC3-4E7C-8EFCFFCEF4B7D5C0.jpg","video":null,"channel":null,"channelUrl":null,"author":"ystad","authorUrl":"https://news.ycombinator.com/user?id=ystad","authorImage":null,"authorSlug":null,"score":238,"views":null,"sharedCount":null,"likeCount":null,"sharedContent":null,"parent":{"__typename":"HnJson","localize":[{"title":"旋转风帆，重振风能航运","locale":"zh"},{"title":"旋轉風帆，重振風能航運","locale":"zh-Hant"}]}},{"__typename":"SocialMediaPost","id":"HnPost-25548342","excerpt":"","slug":"/hn/25548342","title":"How a British Covid-19 vaccine went from pole position to troubled start","date":"December 27, 2020","dateISO":"2020-12-27T18:55:52.351Z","datetime":"2020-12-27 18:55","tags":["story","Hacker News"],"image":null,"imageAlt":null,"provider":"Hacker News","thirdPartyId":"25548342","url":"https://news.ycombinator.com/item?id=25548342","originalUrl":"https://www.reuters.com/article/us-health-coronavirus-britain-vaccine-sp-idUKKBN28Y0XU","imageRemote":"https://static.reuters.com/resources/r/?m=02&d=20201224&t=2&i=1545697015&r=LYNXMPEGBN0KH&w=800","video":null,"channel":null,"channelUrl":null,"author":"respinal","authorUrl":"https://news.ycombinator.com/user?id=respinal","authorImage":null,"authorSlug":null,"score":156,"views":null,"sharedCount":null,"likeCount":null,"sharedContent":null,"parent":{"__typename":"HnJson","localize":[{"title":"英国冠状病毒疫苗是如何从领先地位走到麻烦的开始的","locale":"zh"},{"title":"英國冠狀病毒疫苗是如何從領先地位走到麻煩的開始的","locale":"zh-Hant"}]}},{"__typename":"SocialMediaPost","id":"HnPost-25549762","excerpt":"","slug":"/hn/25549762","title":"Remote Chaos Communication Congress – Streams","date":"December 27, 2020","dateISO":"2020-12-27T18:55:52.351Z","datetime":"2020-12-27 18:55","tags":["story","Hacker News"],"image":null,"imageAlt":null,"provider":"Hacker News","thirdPartyId":"25549762","url":"https://news.ycombinator.com/item?id=25549762","originalUrl":"https://streaming.media.ccc.de/rc3/","imageRemote":"https://cdn.c3voc.de/thumbnail/rc1/thumb.jpeg","video":null,"channel":null,"channelUrl":null,"author":"doener","authorUrl":"https://news.ycombinator.com/user?id=doener","authorImage":null,"authorSlug":null,"score":221,"views":null,"sharedCount":null,"likeCount":null,"sharedContent":null,"parent":{"__typename":"HnJson","localize":[{"title":"远程混沌通信大会-STREAMS","locale":"zh"},{"title":"遠程混沌通信大會-STREAMS","locale":"zh-Hant"}]}},{"__typename":"SocialMediaPost","id":"HnPost-25550685","excerpt":"","slug":"/hn/25550685","title":"Complex Systems Fail","date":"December 27, 2020","dateISO":"2020-12-27T18:55:52.351Z","datetime":"2020-12-27 18:55","tags":["story","Hacker News"],"image":null,"imageAlt":null,"provider":"Hacker News","thirdPartyId":"25550685","url":"https://news.ycombinator.com/item?id=25550685","originalUrl":"https://how.complexsystems.fail","imageRemote":null,"video":null,"channel":null,"channelUrl":null,"author":"mxschumacher","authorUrl":"https://news.ycombinator.com/user?id=mxschumacher","authorImage":null,"authorSlug":null,"score":362,"views":null,"sharedCount":null,"likeCount":null,"sharedContent":null,"parent":{"__typename":"HnJson","localize":[{"title":"复杂系统故障","locale":"zh"},{"title":"複雜系統故障","locale":"zh-Hant"}]}},{"__typename":"SocialMediaPost","id":"HnPost-25543656","excerpt":"","slug":"/hn/25543656","title":"Talking out loud to yourself is a technology for thinking","date":"December 27, 2020","dateISO":"2020-12-27T16:57:22.397Z","datetime":"2020-12-27 16:57","tags":["story","Hacker News"],"image":null,"imageAlt":null,"provider":"Hacker News","thirdPartyId":"25543656","url":"https://news.ycombinator.com/item?id=25543656","originalUrl":"https://psyche.co/ideas/talking-out-loud-to-yourself-is-a-technology-for-thinking","imageRemote":"https://omicron.psyche.co/images/a197418d-665b-412a-85cc-a9b6e9392f08/2700x1530.jpg","video":null,"channel":null,"channelUrl":null,"author":"headalgorithm","authorUrl":"https://news.ycombinator.com/user?id=headalgorithm","authorImage":null,"authorSlug":null,"score":419,"views":null,"sharedCount":null,"likeCount":null,"sharedContent":null,"parent":{"__typename":"HnJson","localize":[{"title":"大声自言自语是一种思考的技术","locale":"zh"},{"title":"大聲自言自語是一種思考的技術","locale":"zh-Hant"}]}},{"__typename":"SocialMediaPost","id":"HnPost-25551487","excerpt":"","slug":"/hn/25551487","title":"Just Wanted to Say Thanks","date":"December 27, 2020","dateISO":"2020-12-27T16:57:22.397Z","datetime":"2020-12-27 16:57","tags":["story","Hacker News"],"image":null,"imageAlt":null,"provider":"Hacker News","thirdPartyId":"25551487","url":"https://news.ycombinator.com/item?id=25551487","originalUrl":"https://github.com/compumike/hairpin-proxy/issues/5","imageRemote":"https://avatars3.githubusercontent.com/u/1057385?s=400&v=4","video":null,"channel":null,"channelUrl":null,"author":"compumike","authorUrl":"https://news.ycombinator.com/user?id=compumike","authorImage":null,"authorSlug":null,"score":1241,"views":null,"sharedCount":null,"likeCount":null,"sharedContent":null,"parent":{"__typename":"HnJson","localize":[{"title":"我只想说声谢谢","locale":"zh"},{"title":"我只想說聲謝謝","locale":"zh-Hant"}]}},{"__typename":"SocialMediaPost","id":"HnPost-25546477","excerpt":"","slug":"/hn/25546477","title":"An Oscar Winner Made a Khashoggi Documentary. Streaming Services Didn’t Want It","date":"December 27, 2020","dateISO":"2020-12-27T08:41:19.524Z","datetime":"2020-12-27 08:41","tags":["story","Hacker News"],"image":null,"imageAlt":null,"provider":"Hacker News","thirdPartyId":"25546477","url":"https://news.ycombinator.com/item?id=25546477","originalUrl":"https://www.nytimes.com/2020/12/24/business/media/dissident-jamal-khashoggi-netflix-amazon.html#click=https://t.co/HoBRLE1wPV","imageRemote":"https://static01.nyt.com/images/2020/12/24/business/24dissident-1/24dissident-1-facebookJumbo.jpg","video":null,"channel":null,"channelUrl":null,"author":"doener","authorUrl":"https://news.ycombinator.com/user?id=doener","authorImage":null,"authorSlug":null,"score":220,"views":null,"sharedCount":null,"likeCount":null,"sharedContent":null,"parent":{"__typename":"HnJson","localize":[{"title":"一位奥斯卡奖得主制作了一部卡舒吉纪录片。流媒体服务公司不想要它","locale":"zh"},{"title":"一位奧斯卡獎得主製作了一部卡舒吉紀錄片。流媒體服務公司不想要它","locale":"zh-Hant"}]}},{"__typename":"SocialMediaPost","id":"HnPost-25547450","excerpt":"","slug":"/hn/25547450","title":"The Future of RTS","date":"December 27, 2020","dateISO":"2020-12-27T08:06:56.292Z","datetime":"2020-12-27 08:06","tags":["story","Hacker News"],"image":null,"imageAlt":null,"provider":"Hacker News","thirdPartyId":"25547450","url":"https://news.ycombinator.com/item?id=25547450","originalUrl":"https://docs.google.com/document/d/1RIAmHaInU_tb-Xv9EMZ6SP2zLE50t91zI2ThINwCHHo/edit","imageRemote":"https://lh3.googleusercontent.com/jf15ksyql-ucRacexf75HH0lrPV9GiznwB1hNV0GOiAuqi1b4PKK3wWTJ5MBI66qyLq4_UyCMg=w1200-h630-p","video":null,"channel":null,"channelUrl":null,"author":"henning","authorUrl":"https://news.ycombinator.com/user?id=henning","authorImage":null,"authorSlug":null,"score":188,"views":null,"sharedCount":null,"likeCount":null,"sharedContent":null,"parent":{"__typename":"HnJson","localize":[{"title":"RTS的未来","locale":"zh"},{"title":"RTS的未來","locale":"zh-Hant"}]}},{"__typename":"SocialMediaPost","id":"HnPost-25545153","excerpt":"","slug":"/hn/25545153","title":"Show HN: CodeSwing – A CodePen-like interactive playground, built into VS Code","date":"December 27, 2020","dateISO":"2020-12-27T07:36:04.744Z","datetime":"2020-12-27 07:36","tags":["story","Show HN","Hacker News"],"image":null,"imageAlt":null,"provider":"Hacker News","thirdPartyId":"25545153","url":"https://news.ycombinator.com/item?id=25545153","originalUrl":"https://github.com/codespaces-contrib/codeswing","imageRemote":"https://avatars2.githubusercontent.com/u/71164577?s=400&v=4","video":null,"channel":"Show HN","channelUrl":"https://news.ycombinator.com/show","author":"lostintangent","authorUrl":"https://news.ycombinator.com/user?id=lostintangent","authorImage":null,"authorSlug":null,"score":159,"views":null,"sharedCount":null,"likeCount":null,"sharedContent":null,"parent":{"__typename":"HnJson","localize":[{"title":"HN新产品：CodeSwing-一个类似CodePen的交互式游乐场，内置于VS代码中","locale":"zh"},{"title":"HN新產品：CodeSwing-一個類似CodePen的交互式遊樂場，內置於VS代碼中","locale":"zh-Hant"}]}},{"__typename":"SocialMediaPost","id":"HnPost-25548938","excerpt":"","slug":"/hn/25548938","title":"California Public Utilities Commission fired director who exposed missing $200M","date":"December 27, 2020","dateISO":"2020-12-27T07:01:19.727Z","datetime":"2020-12-27 07:01","tags":["story","Hacker News"],"image":null,"imageAlt":null,"provider":"Hacker News","thirdPartyId":"25548938","url":"https://news.ycombinator.com/item?id=25548938","originalUrl":"https://www.propublica.org/article/she-noticed-200-million-missing-then-she-was-fired","imageRemote":"https://assets-c3.propublica.org/images/articles/_1200x630_crop_center-center_82_none/20201224-stebbins-lead-1200x630.jpg?mtime=1608338064","video":null,"channel":null,"channelUrl":null,"author":"js2","authorUrl":"https://news.ycombinator.com/user?id=js2","authorImage":null,"authorSlug":null,"score":606,"views":null,"sharedCount":null,"likeCount":null,"sharedContent":null,"parent":{"__typename":"HnJson","localize":[{"title":"加州公用事业委员会解雇揭露失踪2亿美元的主管","locale":"zh"},{"title":"加州公用事業委員會解僱揭露失蹤2億美元的主管","locale":"zh-Hant"}]}},{"__typename":"SocialMediaPost","id":"HnPost-25547205","excerpt":"","slug":"/hn/25547205","title":"Run More Stuff in Docker","date":"December 27, 2020","dateISO":"2020-12-27T06:00:27.860Z","datetime":"2020-12-27 06:00","tags":["story","Hacker News"],"image":null,"imageAlt":null,"provider":"Hacker News","thirdPartyId":"25547205","url":"https://news.ycombinator.com/item?id=25547205","originalUrl":"https://jonathan.bergknoff.com/journal/run-more-stuff-in-docker/","imageRemote":null,"video":null,"channel":null,"channelUrl":null,"author":"psxuaw","authorUrl":"https://news.ycombinator.com/user?id=psxuaw","authorImage":null,"authorSlug":null,"score":198,"views":null,"sharedCount":null,"likeCount":null,"sharedContent":null,"parent":{"__typename":"HnJson","localize":[{"title":"在Docker中运行更多内容","locale":"zh"},{"title":"在Docker中運行更多內容","locale":"zh-Hant"}]}},{"__typename":"SocialMediaPost","id":"HnPost-25543838","excerpt":"","slug":"/hn/25543838","title":"New setup for 2020","date":"December 27, 2020","dateISO":"2020-12-27T05:54:12.850Z","datetime":"2020-12-27 05:54","tags":["story","Hacker News"],"image":null,"imageAlt":null,"provider":"Hacker News","thirdPartyId":"25543838","url":"https://news.ycombinator.com/item?id=25543838","originalUrl":"https://changelog.com/posts/the-new-changelog-setup-for-2020","imageRemote":"https://cdn.changelog.com/uploads/posts/dV92/large.png?v=63771908545","video":null,"channel":null,"channelUrl":null,"author":"fagnerbrack","authorUrl":"https://news.ycombinator.com/user?id=fagnerbrack","authorImage":null,"authorSlug":null,"score":117,"views":null,"sharedCount":null,"likeCount":null,"sharedContent":null,"parent":{"__typename":"HnJson","localize":[{"title":"2020年的新设置","locale":"zh"},{"title":"2020年的新設置","locale":"zh-Hant"}]}},{"__typename":"SocialMediaPost","id":"HnPost-25547716","excerpt":"","slug":"/hn/25547716","title":"API pagination design","date":"December 27, 2020","dateISO":"2020-12-27T05:54:12.850Z","datetime":"2020-12-27 05:54","tags":["story","Hacker News"],"image":null,"imageAlt":null,"provider":"Hacker News","thirdPartyId":"25547716","url":"https://news.ycombinator.com/item?id=25547716","originalUrl":"https://solovyov.net/blog/2020/api-pagination-design/","imageRemote":"https://solovyov.net/static/logo.png?v=37bbffb3","video":null,"channel":null,"channelUrl":null,"author":"fagnerbrack","authorUrl":"https://news.ycombinator.com/user?id=fagnerbrack","authorImage":null,"authorSlug":null,"score":352,"views":null,"sharedCount":null,"likeCount":null,"sharedContent":null,"parent":{"__typename":"HnJson","localize":[{"title":"API分页设计","locale":"zh"},{"title":"API分頁設計","locale":"zh-Hant"}]}},{"__typename":"SocialMediaPost","id":"HnPost-25547151","excerpt":"","slug":"/hn/25547151","title":"Apple Silicon M1 Die-Shots","date":"December 27, 2020","dateISO":"2020-12-27T05:04:48.579Z","datetime":"2020-12-27 05:04","tags":["story","Hacker News"],"image":null,"imageAlt":null,"provider":"Hacker News","thirdPartyId":"25547151","url":"https://news.ycombinator.com/item?id=25547151","originalUrl":"https://www.techinsights.com/blog/two-new-apple-socs-two-market-events-apple-a14-and-m1","imageRemote":"https://www.techinsights.com/sites/default/files/2020-12/blog-details.jpg","video":null,"channel":null,"channelUrl":null,"author":"stefanhoelzl","authorUrl":"https://news.ycombinator.com/user?id=stefanhoelzl","authorImage":null,"authorSlug":null,"score":185,"views":null,"sharedCount":null,"likeCount":null,"sharedContent":null,"parent":{"__typename":"HnJson","localize":[{"title":"Apple Silicon M1死因拍摄","locale":"zh"},{"title":"Apple Silicon M1死因拍攝","locale":"zh-Hant"}]}},{"__typename":"SocialMediaPost","id":"HnPost-25547123","excerpt":"","slug":"/hn/25547123","title":"Lost nuclear device atop of Nanda Devi","date":"December 27, 2020","dateISO":"2020-12-27T04:41:43.150Z","datetime":"2020-12-27 04:41","tags":["story","Hacker News"],"image":null,"imageAlt":null,"provider":"Hacker News","thirdPartyId":"25547123","url":"https://news.ycombinator.com/item?id=25547123","originalUrl":"https://www.livehistoryindia.com/cover-story/2020/09/18/nanda-devi-nuclear-device","imageRemote":"https://images.assettype.com/indynetwork/2020-09/de00724b-9ea2-4f38-82dc-ca78b3e6dee0/Image_9.jpg?w=700&ogImage=true&auto=format%2Ccompress","video":null,"channel":null,"channelUrl":null,"author":"hudvin","authorUrl":"https://news.ycombinator.com/user?id=hudvin","authorImage":null,"authorSlug":null,"score":208,"views":null,"sharedCount":null,"likeCount":null,"sharedContent":null,"parent":{"__typename":"HnJson","localize":[{"title":"南大设备顶部丢失的核装置","locale":"zh"},{"title":"南大設備頂部丟失的核裝置","locale":"zh-Hant"}]}},{"__typename":"SocialMediaPost","id":"HnPost-25547438","excerpt":"","slug":"/hn/25547438","title":"Starship / Super Heavy","date":"December 27, 2020","dateISO":"2020-12-27T03:13:26.012Z","datetime":"2020-12-27 03:13","tags":["story","Hacker News"],"image":null,"imageAlt":null,"provider":"Hacker News","thirdPartyId":"25547438","url":"https://news.ycombinator.com/item?id=25547438","originalUrl":"https://www.faa.gov/space/stakeholder_engagement/spacex_starship/starship_super_heavy/","imageRemote":"https://www.faa.gov/templates/4/assets/img/logoDOTRibbon@1x.png","video":null,"channel":null,"channelUrl":null,"author":"zaroth","authorUrl":"https://news.ycombinator.com/user?id=zaroth","authorImage":null,"authorSlug":null,"score":327,"views":null,"sharedCount":null,"likeCount":null,"sharedContent":null,"parent":{"__typename":"HnJson","localize":[{"title":"星际飞船/超重型","locale":"zh"},{"title":"星際飛船/超重型","locale":"zh-Hant"}]}},{"__typename":"SocialMediaPost","id":"HnPost-25547448","excerpt":"","slug":"/hn/25547448","title":"What If You Could Do It All Over?","date":"December 27, 2020","dateISO":"2020-12-27T02:19:19.259Z","datetime":"2020-12-27 02:19","tags":["story","Hacker News"],"image":null,"imageAlt":null,"provider":"Hacker News","thirdPartyId":"25547448","url":"https://news.ycombinator.com/item?id=25547448","originalUrl":"https://www.newyorker.com/magazine/2020/12/21/what-if-you-could-do-it-all-over","imageRemote":"https://media.newyorker.com/photos/5fd296d5f0b3263b5d9c5038/16:9/w_1280,c_limit/201221_r37576.jpg","video":null,"channel":null,"channelUrl":null,"author":"jonas21","authorUrl":"https://news.ycombinator.com/user?id=jonas21","authorImage":null,"authorSlug":null,"score":443,"views":null,"sharedCount":null,"likeCount":null,"sharedContent":null,"parent":{"__typename":"HnJson","localize":[{"title":"如果你能从头再来一遍呢？","locale":"zh"},{"title":"如果你能從頭再來一遍呢？","locale":"zh-Hant"}]}},{"__typename":"SocialMediaPost","id":"HnPost-25542456","excerpt":"","slug":"/hn/25542456","title":"Show HN: System for Private Data Management","date":"December 27, 2020","dateISO":"2020-12-27T01:19:27.658Z","datetime":"2020-12-27 01:19","tags":["story","Show HN","Hacker News"],"image":null,"imageAlt":null,"provider":"Hacker News","thirdPartyId":"25542456","url":"https://news.ycombinator.com/item?id=25542456","originalUrl":"https://github.com/Volmarg/personal-management-system","imageRemote":"https://avatars2.githubusercontent.com/u/37488679?s=400&v=4","video":null,"channel":"Show HN","channelUrl":"https://news.ycombinator.com/show","author":"dariuszW","authorUrl":"https://news.ycombinator.com/user?id=dariuszW","authorImage":null,"authorSlug":null,"score":131,"views":null,"sharedCount":null,"likeCount":null,"sharedContent":null,"parent":{"__typename":"HnJson","localize":[{"title":"HN新产品：私有数据管理系统","locale":"zh"},{"title":"HN新產品：私有數據管理系統","locale":"zh-Hant"}]}},{"__typename":"SocialMediaPost","id":"HnPost-25543898","excerpt":"","slug":"/hn/25543898","title":"Stadia uses a web app to bypass Apple's policy on cloud gaming apps","date":"December 27, 2020","dateISO":"2020-12-27T01:19:27.658Z","datetime":"2020-12-27 01:19","tags":["story","Hacker News"],"image":null,"imageAlt":null,"provider":"Hacker News","thirdPartyId":"25543898","url":"https://news.ycombinator.com/item?id=25543898","originalUrl":"https://www.extremetech.com/mobile/318411-stadia-is-now-playable-on-iphone-thanks-to-googles-new-web-app","imageRemote":"https://www.extremetech.com/wp-content/uploads/2019/11/Stadia-et-33.jpg","video":null,"channel":null,"channelUrl":null,"author":"rewq4321","authorUrl":"https://news.ycombinator.com/user?id=rewq4321","authorImage":null,"authorSlug":null,"score":140,"views":null,"sharedCount":null,"likeCount":null,"sharedContent":null,"parent":{"__typename":"HnJson","localize":[{"title":"Stadia使用网络应用绕过苹果的云游戏应用政策","locale":"zh"},{"title":"Stadia使用網絡應用繞過蘋果的雲遊戲應用政策","locale":"zh-Hant"}]}}]}},"pageContext":{"basePath":"/","pageType":"tag","tag":"story","tagsFilter":{"id":{"glob":"!*Post-1"}},"filter":{"id":{"glob":"!*Post-1"},"tags":{"eq":"story"}},"limit":25,"skip":1950,"total":2406,"totalPages":97,"currentPage":79,"maxWidth":1024,"maxHeight":512,"locale":"zh-Hant","hrefLang":"zh-Hant","originalPath":"/tags/story/page/79","dateFormat":"YYYY-MM-DD"}},"staticQueryHashes":["1239077767","2506312863","2744905544","3025052997","3493603132","3493603132","3513215887","386998304"]}