{"componentChunkName":"component---gatsby-theme-buzzing-src-gatsby-theme-timeline-templates-posts-query-js","path":"/tags/story/page/8","result":{"data":{"site":{"siteMetadata":{"title":"Reddit 热门","description":"用中文浏览Reddit热门内容","social":[{"name":"Twitter","url":"https://twitter.com/gatsbyjs","external":null,"prefetch":null},{"name":"GitHub","url":"https://github.com/gatsbyjs","external":null,"prefetch":null}],"menuLinks":[],"localize":[{"locale":"en","title":"Buzzing on Reddit","description":"See what's buzzing on Reddit in your native language","social":[{"name":"Reddit","url":"https://www.reddit.com/","external":true,"prefetch":null}],"menuLinks":[{"name":"Weekly Selection","url":"/issues","external":null,"prefetch":null},{"name":"RSS","url":"/rss.xml","external":null,"prefetch":false}]},{"locale":"zh-Hant","title":"Reddit 熱門","description":"用中文瀏覽Reddit熱門內容","social":null,"menuLinks":null}]}},"tagsGroup":{"group":[{"fieldValue":"ASK HN","totalCount":42},{"fieldValue":"Bitcoin","totalCount":4},{"fieldValue":"Hacker News","totalCount":2407},{"fieldValue":"Poll","totalCount":1},{"fieldValue":"SaveAMC","totalCount":1},{"fieldValue":"Show HN","totalCount":81},{"fieldValue":"bitcoin","totalCount":3},{"fieldValue":"investing","totalCount":753},{"fieldValue":"poll","totalCount":1},{"fieldValue":"reddit","totalCount":4523},{"fieldValue":"science","totalCount":1},{"fieldValue":"stocks","totalCount":1482},{"fieldValue":"story","totalCount":2406},{"fieldValue":"tweet","totalCount":767},{"fieldValue":"wallstreetbets","totalCount":2288}]},"allBlogPost":{"nodes":[{"__typename":"SocialMediaPost","id":"HnPost-26344358","excerpt":"","slug":"/hn/26344358","title":"DuckDuckGo – two non-JavaScript versions of search results","date":"March 04, 2021","dateISO":"2021-03-04T23:22:23.003Z","datetime":"2021-03-04 23:22","tags":["story","Hacker News"],"image":null,"imageAlt":null,"provider":"Hacker News","thirdPartyId":"26344358","url":"https://news.ycombinator.com/item?id=26344358","originalUrl":"https://help.duckduckgo.com/duckduckgo-help-pages/features/non-javascript/","imageRemote":"https://help.duckduckgo.com/duckduckgo-help-pages/logo.v108.svg","video":null,"channel":null,"channelUrl":null,"author":"URfejk","authorUrl":"https://news.ycombinator.com/user?id=URfejk","authorImage":null,"authorSlug":null,"score":316,"views":null,"sharedCount":null,"likeCount":null,"sharedContent":null,"parent":{"__typename":"HnJson","localize":[{"title":"DuckDuckGo - 两个非JavaScript版本的搜索结果。","locale":"zh"},{"title":"DuckDuckGo - 兩個非JavaScript版本的搜索結果。","locale":"zh-Hant"}]}},{"__typename":"SocialMediaPost","id":"HnPost-26347380","excerpt":"","slug":"/hn/26347380","title":"100Mbps uploads and downloads should be US broadband standard, senators say","date":"March 04, 2021","dateISO":"2021-03-04T22:50:42.848Z","datetime":"2021-03-04 22:50","tags":["story","Hacker News"],"image":null,"imageAlt":null,"provider":"Hacker News","thirdPartyId":"26347380","url":"https://news.ycombinator.com/item?id=26347380","originalUrl":"https://arstechnica.com/tech-policy/2021/03/100mbps-uploads-and-downloads-should-be-us-broadband-standard-senators-say/","imageRemote":"https://cdn.arstechnica.net/wp-content/uploads/2020/07/getty-fiber-760x380.jpg","video":null,"channel":null,"channelUrl":null,"author":"caution","authorUrl":"https://news.ycombinator.com/user?id=caution","authorImage":null,"authorSlug":null,"score":380,"views":null,"sharedCount":null,"likeCount":null,"sharedContent":null,"parent":{"__typename":"HnJson","localize":[{"title":"参议员称100Mbps上传和下载应成为美国宽带标准","locale":"zh"},{"title":"參議員稱100Mbps上傳和下載應成爲美國寬帶標準","locale":"zh-Hant"}]}},{"__typename":"SocialMediaPost","id":"HnPost-26347867","excerpt":"","slug":"/hn/26347867","title":"Git's list of banned C functions","date":"March 04, 2021","dateISO":"2021-03-04T21:34:59.130Z","datetime":"2021-03-04 21:34","tags":["story","Hacker News"],"image":null,"imageAlt":null,"provider":"Hacker News","thirdPartyId":"26347867","url":"https://news.ycombinator.com/item?id=26347867","originalUrl":"https://github.com/git/git/blob/master/banned.h","imageRemote":"https://avatars.githubusercontent.com/u/18133?s=400&v=4","video":null,"channel":null,"channelUrl":null,"author":"muds","authorUrl":"https://news.ycombinator.com/user?id=muds","authorImage":null,"authorSlug":null,"score":693,"views":null,"sharedCount":null,"likeCount":null,"sharedContent":null,"parent":{"__typename":"HnJson","localize":[{"title":"Git禁止的C函数列表","locale":"zh"},{"title":"Git禁止的C函數列表","locale":"zh-Hant"}]}},{"__typename":"SocialMediaPost","id":"HnPost-26347073","excerpt":"","slug":"/hn/26347073","title":"The lessons of Fukushima – Nuclear power must be well regulated, not ditched","date":"March 04, 2021","dateISO":"2021-03-04T21:21:46.127Z","datetime":"2021-03-04 21:21","tags":["story","Hacker News"],"image":null,"imageAlt":null,"provider":"Hacker News","thirdPartyId":"26347073","url":"https://news.ycombinator.com/item?id=26347073","originalUrl":"https://www.economist.com/leaders/2021/03/06/nuclear-power-must-be-well-regulated-not-ditched","imageRemote":"https://www.economist.com/img/b/1280/720/90/sites/default/files/images/print-edition/20210306_LDD002_0.jpg","video":null,"channel":null,"channelUrl":null,"author":"mpweiher","authorUrl":"https://news.ycombinator.com/user?id=mpweiher","authorImage":null,"authorSlug":null,"score":337,"views":null,"sharedCount":null,"likeCount":null,"sharedContent":null,"parent":{"__typename":"HnJson","localize":[{"title":"福岛的教训--核电必须得到很好的监管，而不是被抛弃","locale":"zh"},{"title":"福島的教訓--核電必須得到很好的監管，而不是被拋棄","locale":"zh-Hant"}]}},{"__typename":"SocialMediaPost","id":"HnPost-26346688","excerpt":"","slug":"/hn/26346688","title":"“User Engagement” Is Code for “Addiction”","date":"March 04, 2021","dateISO":"2021-03-04T20:45:25.675Z","datetime":"2021-03-04 20:45","tags":["story","Hacker News"],"image":null,"imageAlt":null,"provider":"Hacker News","thirdPartyId":"26346688","url":"https://news.ycombinator.com/item?id=26346688","originalUrl":"https://medium.com/swlh/user-engagement-is-code-for-addiction-a2f50d36d7ac","imageRemote":"https://miro.medium.com/max/1200/0*lhrtMVRvjz4tsDi6.jpg","video":null,"channel":null,"channelUrl":null,"author":"rbanffy","authorUrl":"https://news.ycombinator.com/user?id=rbanffy","authorImage":null,"authorSlug":null,"score":602,"views":null,"sharedCount":null,"likeCount":null,"sharedContent":null,"parent":{"__typename":"HnJson","localize":[{"title":"\"用户参与度 \"是 \"上瘾 \"的代码","locale":"zh"},{"title":"\"用戶參與度 \"是 \"上癮 \"的代碼","locale":"zh-Hant"}]}},{"__typename":"SocialMediaPost","id":"HnPost-26345226","excerpt":"","slug":"/hn/26345226","title":"Female Founder Secrets: Fertility","date":"March 04, 2021","dateISO":"2021-03-04T20:10:02.483Z","datetime":"2021-03-04 20:10","tags":["story","Hacker News"],"image":null,"imageAlt":null,"provider":"Hacker News","thirdPartyId":"26345226","url":"https://news.ycombinator.com/item?id=26345226","originalUrl":"https://femfosec.com/fertility/","imageRemote":"https://femfosec.com/content/images/2020/02/author-anon.jpg","video":null,"channel":null,"channelUrl":null,"author":"femfosec","authorUrl":"https://news.ycombinator.com/user?id=femfosec","authorImage":null,"authorSlug":null,"score":438,"views":null,"sharedCount":null,"likeCount":null,"sharedContent":null,"parent":{"__typename":"HnJson","localize":[{"title":"女性创始人的秘密 不孕不育","locale":"zh"},{"title":"女性創始人的祕密 不孕不育","locale":"zh-Hant"}]}},{"__typename":"SocialMediaPost","id":"HnPost-26339893","excerpt":"","slug":"/hn/26339893","title":"Don’t blindly prefer emplace_back to push_back","date":"March 04, 2021","dateISO":"2021-03-04T19:55:25.030Z","datetime":"2021-03-04 19:55","tags":["story","Hacker News"],"image":null,"imageAlt":null,"provider":"Hacker News","thirdPartyId":"26339893","url":"https://news.ycombinator.com/item?id=26339893","originalUrl":"https://quuxplusone.github.io/blog/2021/03/03/push-back-emplace-back/","imageRemote":"https://raw.githubusercontent.com/Quuxplusone/blog/master/images/pumpkin-toss.jpg","video":null,"channel":null,"channelUrl":null,"author":"todsacerdoti","authorUrl":"https://news.ycombinator.com/user?id=todsacerdoti","authorImage":null,"authorSlug":null,"score":171,"views":null,"sharedCount":null,"likeCount":null,"sharedContent":null,"parent":{"__typename":"HnJson","localize":[{"title":"不要盲目倾向于emplace_back而不是push_back。","locale":"zh"},{"title":"不要盲目傾向於emplace_back而不是push_back。","locale":"zh-Hant"}]}},{"__typename":"SocialMediaPost","id":"HnPost-26344013","excerpt":"","slug":"/hn/26344013","title":"Google’s FLoC Is a Terrible Idea","date":"March 04, 2021","dateISO":"2021-03-04T19:41:36.184Z","datetime":"2021-03-04 19:41","tags":["story","Hacker News"],"image":null,"imageAlt":null,"provider":"Hacker News","thirdPartyId":"26344013","url":"https://news.ycombinator.com/item?id=26344013","originalUrl":"https://www.eff.org/deeplinks/2021/03/googles-floc-terrible-idea","imageRemote":"https://www.eff.org/files/banner_library/third_party_tracking_banner.png","video":null,"channel":null,"channelUrl":null,"author":"wyldfire","authorUrl":"https://news.ycombinator.com/user?id=wyldfire","authorImage":null,"authorSlug":null,"score":495,"views":null,"sharedCount":null,"likeCount":null,"sharedContent":null,"parent":{"__typename":"HnJson","localize":[{"title":"谷歌的FLoC是一个可怕的想法","locale":"zh"},{"title":"谷歌的FLoC是一個可怕的想法","locale":"zh-Hant"}]}},{"__typename":"SocialMediaPost","id":"HnPost-26341218","excerpt":"","slug":"/hn/26341218","title":"That Is Not How Your Brain Works","date":"March 04, 2021","dateISO":"2021-03-04T18:40:21.153Z","datetime":"2021-03-04 18:40","tags":["story","Hacker News"],"image":null,"imageAlt":null,"provider":"Hacker News","thirdPartyId":"26341218","url":"https://news.ycombinator.com/item?id=26341218","originalUrl":"https://nautil.us/issue/98/mind/that-is-not-how-your-brain-works","imageRemote":"http://static.nautil.us/18215_295029833128d5e7b4f965599342d793.png","video":null,"channel":null,"channelUrl":null,"author":"dnetesn","authorUrl":"https://news.ycombinator.com/user?id=dnetesn","authorImage":null,"authorSlug":null,"score":268,"views":null,"sharedCount":null,"likeCount":null,"sharedContent":null,"parent":{"__typename":"HnJson","localize":[{"title":"这不是你的大脑如何工作","locale":"zh"},{"title":"這不是你的大腦如何工作","locale":"zh-Hant"}]}},{"__typename":"SocialMediaPost","id":"HnPost-26341295","excerpt":"","slug":"/hn/26341295","title":"We Expect 300k Fewer Births Than Usual This Year in the US","date":"March 04, 2021","dateISO":"2021-03-04T18:40:21.153Z","datetime":"2021-03-04 18:40","tags":["story","Hacker News"],"image":null,"imageAlt":null,"provider":"Hacker News","thirdPartyId":"26341295","url":"https://news.ycombinator.com/item?id=26341295","originalUrl":"https://www.nytimes.com/2021/03/04/opinion/coronavirus-baby-bust.html","imageRemote":"https://static01.nyt.com/images/2021/03/04/opinion/04KearneyLevine/04KearneyLevine-facebookJumbo.jpg","video":null,"channel":null,"channelUrl":null,"author":"pseudolus","authorUrl":"https://news.ycombinator.com/user?id=pseudolus","authorImage":null,"authorSlug":null,"score":202,"views":null,"sharedCount":null,"likeCount":null,"sharedContent":null,"parent":{"__typename":"HnJson","localize":[{"title":"我们预计今年美国的出生人数将比往年减少30万。","locale":"zh"},{"title":"我們預計今年美國的出生人數將比往年減少30萬。","locale":"zh-Hant"}]}},{"__typename":"SocialMediaPost","id":"HnPost-26344739","excerpt":"","slug":"/hn/26344739","title":"Apple now lets you transfer your iCloud Photos to Google Photos","date":"March 04, 2021","dateISO":"2021-03-04T18:40:21.153Z","datetime":"2021-03-04 18:40","tags":["story","Hacker News"],"image":null,"imageAlt":null,"provider":"Hacker News","thirdPartyId":"26344739","url":"https://news.ycombinator.com/item?id=26344739","originalUrl":"https://support.apple.com/en-us/HT208514","imageRemote":"https://support.apple.com/library/content/dam/edam/applecare/images/en_US/il/warning-icon-alt.png","video":null,"channel":null,"channelUrl":null,"author":"brunoluiz","authorUrl":"https://news.ycombinator.com/user?id=brunoluiz","authorImage":null,"authorSlug":null,"score":521,"views":null,"sharedCount":null,"likeCount":null,"sharedContent":null,"parent":{"__typename":"HnJson","localize":[{"title":"苹果现在可以让你把iCloud照片传输到谷歌照片上","locale":"zh"},{"title":"蘋果現在可以讓你把iCloud照片傳輸到谷歌照片上","locale":"zh-Hant"}]}},{"__typename":"SocialMediaPost","id":"HnPost-26343047","excerpt":"","slug":"/hn/26343047","title":"Joan Fons hired to work on Godot's rendering","date":"March 04, 2021","dateISO":"2021-03-04T18:17:35.630Z","datetime":"2021-03-04 18:17","tags":["story","Hacker News"],"image":null,"imageAlt":null,"provider":"Hacker News","thirdPartyId":"26343047","url":"https://news.ycombinator.com/item?id=26343047","originalUrl":"https://godotengine.org/article/joan-fons-hired-work-godot-rendering","imageRemote":"https://godotengine.org/storage/app/uploads/public/603/d19/c65/603d19c65f84b182870883.png","video":null,"channel":null,"channelUrl":null,"author":"jakearmitage","authorUrl":"https://news.ycombinator.com/user?id=jakearmitage","authorImage":null,"authorSlug":null,"score":167,"views":null,"sharedCount":null,"likeCount":null,"sharedContent":null,"parent":{"__typename":"HnJson","localize":[{"title":"琼-冯斯受雇于戈多的渲染工作。","locale":"zh"},{"title":"瓊-馮斯受僱於戈多的渲染工作。","locale":"zh-Hant"}]}},{"__typename":"SocialMediaPost","id":"HnPost-26339341","excerpt":"","slug":"/hn/26339341","title":"TSMC at the head of history’s tide: two high walls and one sharp knife","date":"March 04, 2021","dateISO":"2021-03-04T17:56:37.664Z","datetime":"2021-03-04 17:56","tags":["story","Hacker News"],"image":null,"imageAlt":null,"provider":"Hacker News","thirdPartyId":"26339341","url":"https://news.ycombinator.com/item?id=26339341","originalUrl":"https://docs.google.com/document/d/1RMr9lzlgrReruoosnoHLIZ0hHbqJT5Kq7hZmcG6_uqg/mobilebasic#heading=h.xehsiu9i1mw1","imageRemote":"https://lh4.googleusercontent.com/R3_TilSUwtTCXeCScO__enmr25ZNFhFNFcpIpraIa6plQmeazEfOG7Y_dLTXejBhkqoHblV2Sl3KdXkpfab_mlhiPTjwXgTSf8-b0qbpOaekDFJ2YgppM_9clk4kALwPQA=s600","video":null,"channel":null,"channelUrl":null,"author":"avoidboringppl","authorUrl":"https://news.ycombinator.com/user?id=avoidboringppl","authorImage":null,"authorSlug":null,"score":189,"views":null,"sharedCount":null,"likeCount":null,"sharedContent":null,"parent":{"__typename":"HnJson","localize":[{"title":"站在历史潮头的台积电：两道高墙，一把尖刀。","locale":"zh"},{"title":"站在歷史潮頭的臺積電：兩道高牆，一把尖刀。","locale":"zh-Hant"}]}},{"__typename":"SocialMediaPost","id":"HnPost-26343577","excerpt":"","slug":"/hn/26343577","title":"HTTPWTF","date":"March 04, 2021","dateISO":"2021-03-04T17:56:37.664Z","datetime":"2021-03-04 17:56","tags":["story","Hacker News"],"image":null,"imageAlt":null,"provider":"Hacker News","thirdPartyId":"26343577","url":"https://news.ycombinator.com/item?id=26343577","originalUrl":"https://httptoolkit.tech/blog/http-wtf/","imageRemote":"https://httptoolkit.tech/static/383569a207bcadd6edc37a3547d92ffe/3c289/why.jpg","video":null,"channel":null,"channelUrl":null,"author":"pimterry","authorUrl":"https://news.ycombinator.com/user?id=pimterry","authorImage":null,"authorSlug":null,"score":718,"views":null,"sharedCount":null,"likeCount":null,"sharedContent":null,"parent":{"__typename":"HnJson","localize":[{"title":"HTTPWTF","locale":"zh"},{"title":"HTTPWTF","locale":"zh-Hant"}]}},{"__typename":"SocialMediaPost","id":"HnPost-26341055","excerpt":"","slug":"/hn/26341055","title":"Lion: A formally verified, 5-stage pipeline RISC-V core","date":"March 04, 2021","dateISO":"2021-03-04T17:43:50.645Z","datetime":"2021-03-04 17:43","tags":["story","Hacker News"],"image":null,"imageAlt":null,"provider":"Hacker News","thirdPartyId":"26341055","url":"https://news.ycombinator.com/item?id=26341055","originalUrl":"https://github.com/standardsemiconductor/lion","imageRemote":"https://repository-images.githubusercontent.com/339923019/7995fe00-7936-11eb-9882-0972da27a493","video":null,"channel":null,"channelUrl":null,"author":"varbhat","authorUrl":"https://news.ycombinator.com/user?id=varbhat","authorImage":null,"authorSlug":null,"score":233,"views":null,"sharedCount":null,"likeCount":null,"sharedContent":null,"parent":{"__typename":"HnJson","localize":[{"title":"狮。一个经过正式验证的5级流水线RISC-V核；","locale":"zh"},{"title":"獅。一個經過正式驗證的5級流水線RISC-V核；","locale":"zh-Hant"}]}},{"__typename":"SocialMediaPost","id":"HnPost-26337537","excerpt":"","slug":"/hn/26337537","title":"Twin sisters worth millions thanks to female gamers","date":"March 04, 2021","dateISO":"2021-03-04T17:15:06.514Z","datetime":"2021-03-04 17:15","tags":["story","Hacker News"],"image":null,"imageAlt":null,"provider":"Hacker News","thirdPartyId":"26337537","url":"https://news.ycombinator.com/item?id=26337537","originalUrl":"https://www.bbc.com/news/business-56261671","imageRemote":"https://ichef.bbci.co.uk/news/1024/branded_news/92AA/production/_117364573_03a78ef0-db03-4308-8104-a531945728dd.jpg","video":null,"channel":null,"channelUrl":null,"author":"alexanderdmitri","authorUrl":"https://news.ycombinator.com/user?id=alexanderdmitri","authorImage":null,"authorSlug":null,"score":167,"views":null,"sharedCount":null,"likeCount":null,"sharedContent":null,"parent":{"__typename":"HnJson","localize":[{"title":"双胞胎姐妹因女玩家而身价百万","locale":"zh"},{"title":"雙胞胎姐妹因女玩家而身價百萬","locale":"zh-Hant"}]}},{"__typename":"SocialMediaPost","id":"HnPost-26343394","excerpt":"","slug":"/hn/26343394","title":"US Senators call on FCC to raise broadband definition to 100Mbs down and up","date":"March 04, 2021","dateISO":"2021-03-04T17:15:06.514Z","datetime":"2021-03-04 17:15","tags":["story","Hacker News"],"image":null,"imageAlt":null,"provider":"Hacker News","thirdPartyId":"26343394","url":"https://news.ycombinator.com/item?id=26343394","originalUrl":"https://www.theverge.com/2021/3/4/22312065/fcc-highspeed-broadband-service-ajit-pai-bennet-angus-king-rob-portman","imageRemote":"https://cdn.vox-cdn.com/thumbor/VMbS5rPOyphJM2ljXWfsKHcXfVE=/0x385:5374x3199/fit-in/1200x630/cdn.vox-cdn.com/uploads/chorus_asset/file/22343380/1230675894.jpg","video":null,"channel":null,"channelUrl":null,"author":"fireball_blaze","authorUrl":"https://news.ycombinator.com/user?id=fireball_blaze","authorImage":null,"authorSlug":null,"score":524,"views":null,"sharedCount":null,"likeCount":null,"sharedContent":null,"parent":{"__typename":"HnJson","localize":[{"title":"美国参议员呼吁FCC将宽带定义提高到100Mbs上下。","locale":"zh"},{"title":"美國參議員呼籲FCC將寬帶定義提高到100Mbs上下。","locale":"zh-Hant"}]}},{"__typename":"SocialMediaPost","id":"HnPost-26337913","excerpt":"","slug":"/hn/26337913","title":"Accidentally quadratic: When Python is faster than C++","date":"March 04, 2021","dateISO":"2021-03-04T16:37:45.210Z","datetime":"2021-03-04 16:37","tags":["story","Hacker News"],"image":null,"imageAlt":null,"provider":"Hacker News","thirdPartyId":"26337913","url":"https://news.ycombinator.com/item?id=26337913","originalUrl":"https://arxiv.org/abs/1911.12338","imageRemote":"https://static.arxiv.org/static/browse/0.3.2.6/images/icons/social/bibsonomy.png","video":null,"channel":null,"channelUrl":null,"author":"mehrdadn","authorUrl":"https://news.ycombinator.com/user?id=mehrdadn","authorImage":null,"authorSlug":null,"score":206,"views":null,"sharedCount":null,"likeCount":null,"sharedContent":null,"parent":{"__typename":"HnJson","localize":[{"title":"意外的二次元。当Python比C++快时","locale":"zh"},{"title":"意外的二次元。當Python比C++快時","locale":"zh-Hant"}]}},{"__typename":"SocialMediaPost","id":"HnPost-26338525","excerpt":"","slug":"/hn/26338525","title":"A Tale of Two Slings: Peak Design and Amazon Basics [video]","date":"March 04, 2021","dateISO":"2021-03-04T16:37:45.210Z","datetime":"2021-03-04 16:37","tags":["story","Hacker News"],"image":null,"imageAlt":null,"provider":"Hacker News","thirdPartyId":"26338525","url":"https://news.ycombinator.com/item?id=26338525","originalUrl":"https://www.youtube.com/watch?v=HbxWGjQ2szQ","imageRemote":"https://i.ytimg.com/vi/HbxWGjQ2szQ/maxresdefault.jpg","video":null,"channel":null,"channelUrl":null,"author":"LordAtlas","authorUrl":"https://news.ycombinator.com/user?id=LordAtlas","authorImage":null,"authorSlug":null,"score":168,"views":null,"sharedCount":null,"likeCount":null,"sharedContent":null,"parent":{"__typename":"HnJson","localize":[{"title":"两个吊索的故事》。巅峰设计和亚马逊基础知识[视频]","locale":"zh"},{"title":"兩個吊索的故事》。巔峯設計和亞馬遜基礎知識[視頻]","locale":"zh-Hant"}]}},{"__typename":"SocialMediaPost","id":"HnPost-26339051","excerpt":"","slug":"/hn/26339051","title":"India’s new intermediary liability and digital media laws will harm the internet","date":"March 04, 2021","dateISO":"2021-03-04T16:37:45.210Z","datetime":"2021-03-04 16:37","tags":["story","Hacker News"],"image":null,"imageAlt":null,"provider":"Hacker News","thirdPartyId":"26339051","url":"https://news.ycombinator.com/item?id=26339051","originalUrl":"https://blog.mozilla.org/netpolicy/2021/03/02/indias-new-intermediary-liability-and-digital-media-regulations-will-harm-the-open-internet/","imageRemote":"https://ffp4g1ylyit3jdyti1hqcvtb-wpengine.netdna-ssl.com/netpolicy/wp-content/themes/frontierline/img/place-thumb.png","video":null,"channel":null,"channelUrl":null,"author":"searchableguy","authorUrl":"https://news.ycombinator.com/user?id=searchableguy","authorImage":null,"authorSlug":null,"score":171,"views":null,"sharedCount":null,"likeCount":null,"sharedContent":null,"parent":{"__typename":"HnJson","localize":[{"title":"印度新的中介责任和数字媒体法将伤害互联网","locale":"zh"},{"title":"印度新的中介責任和數字媒體法將傷害互聯網","locale":"zh-Hant"}]}},{"__typename":"SocialMediaPost","id":"HnPost-26340384","excerpt":"","slug":"/hn/26340384","title":"How to Operate an Airport in Antarctica","date":"March 04, 2021","dateISO":"2021-03-04T15:57:16.135Z","datetime":"2021-03-04 15:57","tags":["story","Hacker News"],"image":null,"imageAlt":null,"provider":"Hacker News","thirdPartyId":"26340384","url":"https://news.ycombinator.com/item?id=26340384","originalUrl":"https://www.flightradar24.com/blog/troll-research-station-how-to-operate-an-airport-in-antarctica/","imageRemote":"https://www.flightradar24.com/blog/wp-content/uploads/2021/03/Runway-Overview.jpg","video":null,"channel":null,"channelUrl":null,"author":"Arnt","authorUrl":"https://news.ycombinator.com/user?id=Arnt","authorImage":null,"authorSlug":null,"score":288,"views":null,"sharedCount":null,"likeCount":null,"sharedContent":null,"parent":{"__typename":"HnJson","localize":[{"title":"如何在南极洲运营机场？","locale":"zh"},{"title":"如何在南極洲運營機場？","locale":"zh-Hant"}]}},{"__typename":"SocialMediaPost","id":"HnPost-26338244","excerpt":"","slug":"/hn/26338244","title":"Bitsquatting Windows.com","date":"March 04, 2021","dateISO":"2021-03-04T15:11:39.051Z","datetime":"2021-03-04 15:11","tags":["story","Hacker News"],"image":null,"imageAlt":null,"provider":"Hacker News","thirdPartyId":"26338244","url":"https://news.ycombinator.com/item?id=26338244","originalUrl":"https://remyhax.xyz/posts/bitsquatting-windows/","imageRemote":"https://remyhax.xyz/image/dns.jpg","video":null,"channel":null,"channelUrl":null,"author":"vikrum","authorUrl":"https://news.ycombinator.com/user?id=vikrum","authorImage":null,"authorSlug":null,"score":248,"views":null,"sharedCount":null,"likeCount":null,"sharedContent":null,"parent":{"__typename":"HnJson","localize":[{"title":"Bitsquatting Windows.com","locale":"zh"},{"title":"Bitsquatting Windows.com","locale":"zh-Hant"}]}},{"__typename":"SocialMediaPost","id":"HnPost-26341837","excerpt":"","slug":"/hn/26341837","title":"Every $1 of BTC value responsible for $0.49 in health and climate damages in US","date":"March 04, 2021","dateISO":"2021-03-04T13:53:58.807Z","datetime":"2021-03-04 13:53","tags":["story","Hacker News"],"image":null,"imageAlt":null,"provider":"Hacker News","thirdPartyId":"26341837","url":"https://news.ycombinator.com/item?id=26341837","originalUrl":"https://www.sciencedirect.com/science/article/abs/pii/S2214629619302701","imageRemote":"https://ars.els-cdn.com/content/image/1-s2.0-S2214629619X00109-cov150h.gif","video":null,"channel":null,"channelUrl":null,"author":"Bluestein","authorUrl":"https://news.ycombinator.com/user?id=Bluestein","authorImage":null,"authorSlug":null,"score":244,"views":null,"sharedCount":null,"likeCount":null,"sharedContent":null,"parent":{"__typename":"HnJson","localize":[{"title":"在美国，每1美元的BTC价值负责0.49美元的健康和气候损害。","locale":"zh"},{"title":"在美國，每1美元的BTC價值負責0.49美元的健康和氣候損害。","locale":"zh-Hant"}]}},{"__typename":"SocialMediaPost","id":"HnPost-26336880","excerpt":"","slug":"/hn/26336880","title":"Goat Ops","date":"March 04, 2021","dateISO":"2021-03-04T12:34:31.808Z","datetime":"2021-03-04 12:34","tags":["story","Hacker News"],"image":null,"imageAlt":null,"provider":"Hacker News","thirdPartyId":"26336880","url":"https://news.ycombinator.com/item?id=26336880","originalUrl":"http://www.goatops.com/","imageRemote":null,"video":null,"channel":null,"channelUrl":null,"author":"Something1234","authorUrl":"https://news.ycombinator.com/user?id=Something1234","authorImage":null,"authorSlug":null,"score":244,"views":null,"sharedCount":null,"likeCount":null,"sharedContent":null,"parent":{"__typename":"HnJson","localize":[{"title":"Goat Ops","locale":"zh"},{"title":"Goat Ops","locale":"zh-Hant"}]}},{"__typename":"SocialMediaPost","id":"HnPost-26334163","excerpt":"","slug":"/hn/26334163","title":"Silicon Valley stays on top as tech salaries climb across U.S.","date":"March 04, 2021","dateISO":"2021-03-04T07:47:12.926Z","datetime":"2021-03-04 07:47","tags":["story","Hacker News"],"image":null,"imageAlt":null,"provider":"Hacker News","thirdPartyId":"26334163","url":"https://news.ycombinator.com/item?id=26334163","originalUrl":"https://spectrum.ieee.org/view-from-the-valley/at-work/tech-careers/silicon-valley-stays-on-top-as-tech-salaries-climb-across-us","imageRemote":null,"video":null,"channel":null,"channelUrl":null,"author":"samizdis","authorUrl":"https://news.ycombinator.com/user?id=samizdis","authorImage":null,"authorSlug":null,"score":175,"views":null,"sharedCount":null,"likeCount":null,"sharedContent":null,"parent":{"__typename":"HnJson","localize":[{"title":"硅谷保持榜首，全美科技薪酬攀升。","locale":"zh"},{"title":"硅谷保持榜首，全美科技薪酬攀升。","locale":"zh-Hant"}]}}]}},"pageContext":{"basePath":"/","pageType":"tag","tag":"story","tagsFilter":{"id":{"glob":"!*Post-1"}},"filter":{"id":{"glob":"!*Post-1"},"tags":{"eq":"story"}},"limit":25,"skip":175,"total":2406,"totalPages":97,"currentPage":8,"maxWidth":1024,"maxHeight":512,"locale":"zh","hrefLang":"zh-Hans","originalPath":"/tags/story/page/8","dateFormat":"YYYY-MM-DD"}},"staticQueryHashes":["1239077767","2506312863","2744905544","3025052997","3493603132","3493603132","3513215887","386998304"]}