{"componentChunkName":"component---gatsby-theme-buzzing-src-gatsby-theme-timeline-templates-posts-query-js","path":"/tags/show-hn/page/4","result":{"data":{"site":{"siteMetadata":{"title":"Reddit 热门","description":"用中文浏览Reddit热门内容","social":[{"name":"Twitter","url":"https://twitter.com/gatsbyjs","external":null,"prefetch":null},{"name":"GitHub","url":"https://github.com/gatsbyjs","external":null,"prefetch":null}],"menuLinks":[],"localize":[{"locale":"en","title":"Buzzing on Reddit","description":"See what's buzzing on Reddit in your native language","social":[{"name":"Reddit","url":"https://www.reddit.com/","external":true,"prefetch":null}],"menuLinks":[{"name":"Weekly Selection","url":"/issues","external":null,"prefetch":null},{"name":"RSS","url":"/rss.xml","external":null,"prefetch":false}]},{"locale":"zh-Hant","title":"Reddit 熱門","description":"用中文瀏覽Reddit熱門內容","social":null,"menuLinks":null}]}},"tagsGroup":{"group":[{"fieldValue":"ASK HN","totalCount":54},{"fieldValue":"Hacker News","totalCount":3105},{"fieldValue":"Poll","totalCount":1},{"fieldValue":"Show HN","totalCount":100},{"fieldValue":"poll","totalCount":1},{"fieldValue":"story","totalCount":3104}]},"allBlogPost":{"nodes":[{"__typename":"SocialMediaPost","id":"HnPost-25624718","excerpt":"","slug":"/hn/25624718","title":"Show HN: Pluto – macOS system monitor app","date":"January 04, 2021","dateISO":"2021-01-04T13:52:43.815Z","datetime":"2021-01-04 13:52","tags":["story","Show HN","Hacker News"],"image":null,"imageAlt":null,"provider":"Hacker News","thirdPartyId":"25624718","url":"https://news.ycombinator.com/item?id=25624718","originalUrl":"https://apps.apple.com/us/app/pluto-hud/id1544577573?mt=12","imageRemote":"https://is3-ssl.mzstatic.com/image/thumb/Purple124/v4/c1/c7/c4/c1c7c47f-07eb-66b3-9765-c508058fe4c4/AppIcon-85-220-4-2x.png/1200x630bb.png","video":null,"channel":"Show HN","channelUrl":"https://news.ycombinator.com/show","author":"lupinglade","authorUrl":"https://news.ycombinator.com/user?id=lupinglade","authorImage":null,"authorSlug":null,"score":158,"views":null,"sharedCount":null,"likeCount":null,"sharedContent":null,"parent":{"__typename":"HnJson","localize":[{"title":"HN新产品：冥王星-MacOS系统监控APP","locale":"zh"},{"title":"HN新產品：冥王星-MacOS系統監控APP","locale":"zh-Hant"}]}},{"__typename":"SocialMediaPost","id":"HnPost-25622095","excerpt":"","slug":"/hn/25622095","title":"Show HN: OpenScan – open-source document scanner app","date":"January 04, 2021","dateISO":"2021-01-04T01:32:35.034Z","datetime":"2021-01-04 01:32","tags":["story","Show HN","Hacker News"],"image":null,"imageAlt":null,"provider":"Hacker News","thirdPartyId":"25622095","url":"https://news.ycombinator.com/item?id=25622095","originalUrl":"https://github.com/Ethereal-Developers-Inc/OpenScan","imageRemote":"https://avatars2.githubusercontent.com/u/68118808?s=400&v=4","video":null,"channel":"Show HN","channelUrl":"https://news.ycombinator.com/show","author":"mighty3xodus","authorUrl":"https://news.ycombinator.com/user?id=mighty3xodus","authorImage":null,"authorSlug":null,"score":200,"views":null,"sharedCount":null,"likeCount":null,"sharedContent":null,"parent":{"__typename":"HnJson","localize":[{"title":"HN新产品：openScan-开源文档扫描仪应用","locale":"zh"},{"title":"HN新產品：openScan-開源文檔掃描儀應用","locale":"zh-Hant"}]}},{"__typename":"SocialMediaPost","id":"HnPost-25614167","excerpt":"","slug":"/hn/25614167","title":"Show HN: I shot high-res stitched panoramas in Iceland using a thermal camera","date":"January 02, 2021","dateISO":"2021-01-02T19:14:54.465Z","datetime":"2021-01-02 19:14","tags":["story","Show HN","Hacker News"],"image":null,"imageAlt":null,"provider":"Hacker News","thirdPartyId":"25614167","url":"https://news.ycombinator.com/item?id=25614167","originalUrl":"https://petapixel.com/2019/07/13/shooting-high-res-thermal-photos-of-iceland-to-show-nature-at-work/?q=5","imageRemote":"https://petapixel.com/assets/uploads/2019/07/icelandthermalfeattt.jpg","video":null,"channel":"Show HN","channelUrl":"https://news.ycombinator.com/show","author":"dheera","authorUrl":"https://news.ycombinator.com/user?id=dheera","authorImage":null,"authorSlug":null,"score":747,"views":null,"sharedCount":null,"likeCount":null,"sharedContent":null,"parent":{"__typename":"HnJson","localize":[{"title":"HN新产品：我在冰岛用热像仪拍摄了高分辨率的缝合全景","locale":"zh"},{"title":"HN新產品：我在冰島用熱像儀拍攝了高分辨率的縫合全景","locale":"zh-Hant"}]}},{"__typename":"SocialMediaPost","id":"HnPost-25573523","excerpt":"","slug":"/hn/25573523","title":"Show HN: The Agora – an experimental social network","date":"December 31, 2020","dateISO":"2020-12-31T11:07:27.942Z","datetime":"2020-12-31 11:07","tags":["story","Show HN","Hacker News"],"image":null,"imageAlt":null,"provider":"Hacker News","thirdPartyId":"25573523","url":"https://news.ycombinator.com/item?id=25573523","originalUrl":"http://anagora.org/node/agora","imageRemote":"https://anagora.org/static/img/agora.png","video":null,"channel":"Show HN","channelUrl":"https://news.ycombinator.com/show","author":"flancian","authorUrl":"https://news.ycombinator.com/user?id=flancian","authorImage":null,"authorSlug":null,"score":157,"views":null,"sharedCount":null,"likeCount":null,"sharedContent":null,"parent":{"__typename":"HnJson","localize":[{"title":"HN新产品：农庄-一个实验性的社交网络","locale":"zh"},{"title":"HN新產品：農莊-一個實驗性的社交網絡","locale":"zh-Hant"}]}},{"__typename":"SocialMediaPost","id":"HnPost-25582187","excerpt":"","slug":"/hn/25582187","title":"Show HN: PSX Party – Online Multiplayer Playstation 1 Emulator Using WebRTC","date":"December 30, 2020","dateISO":"2020-12-30T16:56:26.186Z","datetime":"2020-12-30 16:56","tags":["story","Show HN","Hacker News"],"image":null,"imageAlt":null,"provider":"Hacker News","thirdPartyId":"25582187","url":"https://news.ycombinator.com/item?id=25582187","originalUrl":"https://psxparty.kosmi.io/?ref=hn1","imageRemote":null,"video":null,"channel":"Show HN","channelUrl":"https://news.ycombinator.com/show","author":"hauxir","authorUrl":"https://news.ycombinator.com/user?id=hauxir","authorImage":null,"authorSlug":null,"score":655,"views":null,"sharedCount":null,"likeCount":null,"sharedContent":null,"parent":{"__typename":"HnJson","localize":[{"title":"HN新产品：PSXParty-使用WebRTC的在线多人PlayStation1仿真器","locale":"zh"},{"title":"HN新產品：PSXParty-使用WebRTC的在線多人PlayStation1仿真器","locale":"zh-Hant"}]}},{"__typename":"SocialMediaPost","id":"HnPost-25568668","excerpt":"","slug":"/hn/25568668","title":"Show HN: LinkAce – Your self-hosted, FOSS bookmark archive","date":"December 29, 2020","dateISO":"2020-12-29T20:04:37.555Z","datetime":"2020-12-29 20:04","tags":["story","Show HN","Hacker News"],"image":null,"imageAlt":null,"provider":"Hacker News","thirdPartyId":"25568668","url":"https://news.ycombinator.com/item?id=25568668","originalUrl":"https://www.linkace.org/","imageRemote":"https://www.linkace.org/images/linkace-social.jpg","video":null,"channel":"Show HN","channelUrl":"https://news.ycombinator.com/show","author":"Kovah","authorUrl":"https://news.ycombinator.com/user?id=Kovah","authorImage":null,"authorSlug":null,"score":222,"views":null,"sharedCount":null,"likeCount":null,"sharedContent":null,"parent":{"__typename":"HnJson","localize":[{"title":"HN新产品：LinkAce-您的自托管自由/开源软件书签档案","locale":"zh"},{"title":"HN新產品：LinkAce-您的自託管自由/開源軟件書籤檔案","locale":"zh-Hant"}]}},{"__typename":"SocialMediaPost","id":"HnPost-25568856","excerpt":"","slug":"/hn/25568856","title":"Show HN: Thruhikes – A list of long distance hikes around the world","date":"December 29, 2020","dateISO":"2020-12-29T15:33:30.877Z","datetime":"2020-12-29 15:33","tags":["story","Show HN","Hacker News"],"image":null,"imageAlt":null,"provider":"Hacker News","thirdPartyId":"25568856","url":"https://news.ycombinator.com/item?id=25568856","originalUrl":"https://thruhikes.net/","imageRemote":"https://thruhikes.net/logo.png","video":null,"channel":"Show HN","channelUrl":"https://news.ycombinator.com/show","author":"oguzcanhuner","authorUrl":"https://news.ycombinator.com/user?id=oguzcanhuner","authorImage":null,"authorSlug":null,"score":398,"views":null,"sharedCount":null,"likeCount":null,"sharedContent":null,"parent":{"__typename":"HnJson","localize":[{"title":"HN新产品：Thruhikes-世界长途徒步旅行清单","locale":"zh"},{"title":"HN新產品：Thruhikes-世界長途徒步旅行清單","locale":"zh-Hant"}]}},{"__typename":"SocialMediaPost","id":"HnPost-25566132","excerpt":"","slug":"/hn/25566132","title":"Show HN: Raspberry Pi 400 with a $2 IPS 240x240 micro display","date":"December 29, 2020","dateISO":"2020-12-29T06:32:04.312Z","datetime":"2020-12-29 06:32","tags":["story","Show HN","Hacker News"],"image":null,"imageAlt":null,"provider":"Hacker News","thirdPartyId":"25566132","url":"https://news.ycombinator.com/item?id=25566132","originalUrl":"https://github.com/igbit/micro-displays/blob/main/README.md","imageRemote":"https://avatars3.githubusercontent.com/u/75217607?s=400&v=4","video":null,"channel":"Show HN","channelUrl":"https://news.ycombinator.com/show","author":"sgroppino","authorUrl":"https://news.ycombinator.com/user?id=sgroppino","authorImage":null,"authorSlug":null,"score":355,"views":null,"sharedCount":null,"likeCount":null,"sharedContent":null,"parent":{"__typename":"HnJson","localize":[{"title":"HN新产品：覆盆子PI400，配有2美元的IPS 240x240微型显示屏","locale":"zh"},{"title":"HN新產品：覆盆子PI400，配有2美元的IPS 240x240微型顯示屏","locale":"zh-Hant"}]}},{"__typename":"SocialMediaPost","id":"HnPost-25558891","excerpt":"","slug":"/hn/25558891","title":"Show HN: Recurring reviews to track the whole lifecycle of a product","date":"December 29, 2020","dateISO":"2020-12-29T04:00:45.970Z","datetime":"2020-12-29 04:00","tags":["story","Show HN","Hacker News"],"image":null,"imageAlt":null,"provider":"Hacker News","thirdPartyId":"25558891","url":"https://news.ycombinator.com/item?id=25558891","originalUrl":"https://www.buyforlife.com/blog/4kpaLtbnG6MkseMj44niVV/recurring-reviews-to-track-the-whole-lifecycle-of-a-product","imageRemote":"https://www.buyforlife.com/preview.png","video":null,"channel":"Show HN","channelUrl":"https://news.ycombinator.com/show","author":"hubraumhugo","authorUrl":"https://news.ycombinator.com/user?id=hubraumhugo","authorImage":null,"authorSlug":null,"score":175,"views":null,"sharedCount":null,"likeCount":null,"sharedContent":null,"parent":{"__typename":"HnJson","localize":[{"title":"HN新产品：重复评审以跟踪产品的整个生命周期","locale":"zh"},{"title":"HN新產品：重複評審以跟蹤產品的整個生命週期","locale":"zh-Hant"}]}},{"__typename":"SocialMediaPost","id":"HnPost-25545153","excerpt":"","slug":"/hn/25545153","title":"Show HN: CodeSwing – A CodePen-like interactive playground, built into VS Code","date":"December 27, 2020","dateISO":"2020-12-27T07:36:04.744Z","datetime":"2020-12-27 07:36","tags":["story","Show HN","Hacker News"],"image":null,"imageAlt":null,"provider":"Hacker News","thirdPartyId":"25545153","url":"https://news.ycombinator.com/item?id=25545153","originalUrl":"https://github.com/codespaces-contrib/codeswing","imageRemote":"https://avatars2.githubusercontent.com/u/71164577?s=400&v=4","video":null,"channel":"Show HN","channelUrl":"https://news.ycombinator.com/show","author":"lostintangent","authorUrl":"https://news.ycombinator.com/user?id=lostintangent","authorImage":null,"authorSlug":null,"score":159,"views":null,"sharedCount":null,"likeCount":null,"sharedContent":null,"parent":{"__typename":"HnJson","localize":[{"title":"HN新产品：CodeSwing-一个类似CodePen的交互式游乐场，内置于VS代码中","locale":"zh"},{"title":"HN新產品：CodeSwing-一個類似CodePen的交互式遊樂場，內置於VS代碼中","locale":"zh-Hant"}]}},{"__typename":"SocialMediaPost","id":"HnPost-25542456","excerpt":"","slug":"/hn/25542456","title":"Show HN: System for Private Data Management","date":"December 27, 2020","dateISO":"2020-12-27T01:19:27.658Z","datetime":"2020-12-27 01:19","tags":["story","Show HN","Hacker News"],"image":null,"imageAlt":null,"provider":"Hacker News","thirdPartyId":"25542456","url":"https://news.ycombinator.com/item?id=25542456","originalUrl":"https://github.com/Volmarg/personal-management-system","imageRemote":"https://avatars2.githubusercontent.com/u/37488679?s=400&v=4","video":null,"channel":"Show HN","channelUrl":"https://news.ycombinator.com/show","author":"dariuszW","authorUrl":"https://news.ycombinator.com/user?id=dariuszW","authorImage":null,"authorSlug":null,"score":131,"views":null,"sharedCount":null,"likeCount":null,"sharedContent":null,"parent":{"__typename":"HnJson","localize":[{"title":"HN新产品：私有数据管理系统","locale":"zh"},{"title":"HN新產品：私有數據管理系統","locale":"zh-Hant"}]}},{"__typename":"SocialMediaPost","id":"HnPost-25544397","excerpt":"","slug":"/hn/25544397","title":"Show HN: Simple-graph – a graph database in SQLite","date":"December 26, 2020","dateISO":"2020-12-26T21:23:34.476Z","datetime":"2020-12-26 21:23","tags":["story","Show HN","Hacker News"],"image":null,"imageAlt":null,"provider":"Hacker News","thirdPartyId":"25544397","url":"https://news.ycombinator.com/item?id=25544397","originalUrl":"https://github.com/dpapathanasiou/simple-graph","imageRemote":"https://avatars2.githubusercontent.com/u/1387395?s=400&v=4","video":null,"channel":"Show HN","channelUrl":"https://news.ycombinator.com/show","author":"dpapathanasiou","authorUrl":"https://news.ycombinator.com/user?id=dpapathanasiou","authorImage":null,"authorSlug":null,"score":235,"views":null,"sharedCount":null,"likeCount":null,"sharedContent":null,"parent":{"__typename":"HnJson","localize":[{"title":"HN新产品：SIMPLE-GRAPH-SQLITE中的图形数据库","locale":"zh"},{"title":"HN新產品：SIMPLE-GRAPH-SQLITE中的圖形數據庫","locale":"zh-Hant"}]}},{"__typename":"SocialMediaPost","id":"HnPost-25531343","excerpt":"","slug":"/hn/25531343","title":"Show HN: TreeOS – A 16-bit bootsector Christmas tree demo","date":"December 25, 2020","dateISO":"2020-12-25T02:51:32.440Z","datetime":"2020-12-25 02:51","tags":["story","Show HN","Hacker News"],"image":null,"imageAlt":null,"provider":"Hacker News","thirdPartyId":"25531343","url":"https://news.ycombinator.com/item?id=25531343","originalUrl":"https://github.com/cfallin/treeos","imageRemote":"https://avatars2.githubusercontent.com/u/216148?s=400&v=4","video":null,"channel":"Show HN","channelUrl":"https://news.ycombinator.com/show","author":"cfallin","authorUrl":"https://news.ycombinator.com/user?id=cfallin","authorImage":null,"authorSlug":null,"score":140,"views":null,"sharedCount":null,"likeCount":null,"sharedContent":null,"parent":{"__typename":"HnJson","localize":[{"title":"HN新产品：TreeOS-16位引导扇区圣诞树演示","locale":"zh"},{"title":"HN新產品：TreeOS-16位引導扇區聖誕樹演示","locale":"zh-Hant"}]}},{"__typename":"SocialMediaPost","id":"HnPost-25517226","excerpt":"","slug":"/hn/25517226","title":"Show HN: Django and React SaaS boilerplate tutorial","date":"December 23, 2020","dateISO":"2020-12-23T18:58:13.068Z","datetime":"2020-12-23 18:58","tags":["story","Show HN","Hacker News"],"image":null,"imageAlt":null,"provider":"Hacker News","thirdPartyId":"25517226","url":"https://news.ycombinator.com/item?id=25517226","originalUrl":"https://github.com/saasitive/django-react-boilerplate","imageRemote":"https://avatars1.githubusercontent.com/u/71877212?s=400&v=4","video":null,"channel":"Show HN","channelUrl":"https://news.ycombinator.com/show","author":"pplonski86","authorUrl":"https://news.ycombinator.com/user?id=pplonski86","authorImage":null,"authorSlug":null,"score":135,"views":null,"sharedCount":null,"likeCount":null,"sharedContent":null,"parent":{"__typename":"HnJson","localize":[{"title":"HN新产品：Django和Reaction SaaS样板教程","locale":"zh"},{"title":"HN新產品：Django和Reaction SaaS樣板教程","locale":"zh-Hant"}]}},{"__typename":"SocialMediaPost","id":"HnPost-25497737","excerpt":"","slug":"/hn/25497737","title":"Show HN: Pop.com – Video Calls, in 3D","date":"December 21, 2020","dateISO":"2020-12-21T22:02:08.817Z","datetime":"2020-12-21 22:02","tags":["story","Show HN","Hacker News"],"image":null,"imageAlt":null,"provider":"Hacker News","thirdPartyId":"25497737","url":"https://news.ycombinator.com/item?id=25497737","originalUrl":"https://pop.com","imageRemote":"https://pop.com/assets/img/logo/unfurl-pop.png","video":null,"channel":"Show HN","channelUrl":"https://news.ycombinator.com/show","author":"jsherwani","authorUrl":"https://news.ycombinator.com/user?id=jsherwani","authorImage":null,"authorSlug":null,"score":239,"views":null,"sharedCount":null,"likeCount":null,"sharedContent":null,"parent":{"__typename":"HnJson","localize":[{"title":"HN新产品：pop.com-3D视频通话","locale":"zh"},{"title":"show HN：pop.com-3D視頻通話","locale":"zh-Hant"}]}},{"__typename":"SocialMediaPost","id":"HnPost-25494988","excerpt":"","slug":"/hn/25494988","title":"Show HN: Find the safest well lit walking route between two locations","date":"December 21, 2020","dateISO":"2020-12-21T18:47:23.529Z","datetime":"2020-12-21 18:47","tags":["story","Show HN","Hacker News"],"image":null,"imageAlt":null,"provider":"Hacker News","thirdPartyId":"25494988","url":"https://news.ycombinator.com/item?id=25494988","originalUrl":"https://github.com/mfbx9da4/brightpath-backend#mission","imageRemote":"https://avatars1.githubusercontent.com/u/1690659?s=400&v=4","video":null,"channel":"Show HN","channelUrl":"https://news.ycombinator.com/show","author":"mfbx9da4","authorUrl":"https://news.ycombinator.com/user?id=mfbx9da4","authorImage":null,"authorSlug":null,"score":222,"views":null,"sharedCount":null,"likeCount":null,"sharedContent":null,"parent":{"__typename":"HnJson","localize":[{"title":"HN新产品：找到两个地点之间最安全、照明最好的步行路线","locale":"zh"},{"title":"SHOW HN：找到兩個地點之間最安全、照明最好的步行路線","locale":"zh-Hant"}]}},{"__typename":"SocialMediaPost","id":"HnPost-25495393","excerpt":"","slug":"/hn/25495393","title":"Show HN: NoteCalc","date":"December 21, 2020","dateISO":"2020-12-21T18:01:49.948Z","datetime":"2020-12-21 18:01","tags":["story","Show HN","Hacker News"],"image":null,"imageAlt":null,"provider":"Hacker News","thirdPartyId":"25495393","url":"https://news.ycombinator.com/item?id=25495393","originalUrl":"https://github.com/bbodi/notecalc3/releases/tag/v0.3.0","imageRemote":"https://avatars1.githubusercontent.com/u/2362136?s=400&v=4","video":null,"channel":"Show HN","channelUrl":"https://news.ycombinator.com/show","author":"bbodi","authorUrl":"https://news.ycombinator.com/user?id=bbodi","authorImage":null,"authorSlug":null,"score":264,"views":null,"sharedCount":null,"likeCount":null,"sharedContent":null,"parent":{"__typename":"HnJson","localize":[{"title":"HN新产品：NoteCalc","locale":"zh"},{"title":"HN新产品：NoteCalc","locale":"zh-Hant"}]}},{"__typename":"SocialMediaPost","id":"HnPost-25485624","excerpt":"","slug":"/hn/25485624","title":"Show HN: Galène Videoconferencing Server","date":"December 21, 2020","dateISO":"2020-12-21T16:48:47.545Z","datetime":"2020-12-21 16:48","tags":["story","Show HN","Hacker News"],"image":null,"imageAlt":null,"provider":"Hacker News","thirdPartyId":"25485624","url":"https://news.ycombinator.com/item?id=25485624","originalUrl":"https://galene.org","imageRemote":"https://galene.org/images/sfu-2000-small.jpg","video":null,"channel":"Show HN","channelUrl":"https://news.ycombinator.com/show","author":"jech","authorUrl":"https://news.ycombinator.com/user?id=jech","authorImage":null,"authorSlug":null,"score":131,"views":null,"sharedCount":null,"likeCount":null,"sharedContent":null,"parent":{"__typename":"HnJson","localize":[{"title":"HN新产品：Galène视频会议服务器","locale":"zh"},{"title":"HN新产品：Galène視頻會議服務器","locale":"zh-Hant"}]}},{"__typename":"SocialMediaPost","id":"HnPost-25484133","excerpt":"","slug":"/hn/25484133","title":"Show HN: Owncast – The open source, self-hosted live streaming server","date":"December 20, 2020","dateISO":"2020-12-20T15:52:45.799Z","datetime":"2020-12-20 15:52","tags":["story","Show HN","Hacker News"],"image":null,"imageAlt":null,"provider":"Hacker News","thirdPartyId":"25484133","url":"https://news.ycombinator.com/item?id=25484133","originalUrl":"https://news.ycombinator.com/item?id=25484133","imageRemote":null,"video":null,"channel":"Show HN","channelUrl":"https://news.ycombinator.com/show","author":"gabekangas","authorUrl":"https://news.ycombinator.com/user?id=gabekangas","authorImage":null,"authorSlug":null,"score":241,"views":null,"sharedCount":null,"likeCount":null,"sharedContent":null,"parent":{"__typename":"HnJson","localize":[{"title":"HN新产品：Owncast-开源的自托管直播服务器","locale":"zh"},{"title":"show HN：Owncast-開源的自託管直播服務器","locale":"zh-Hant"}]}},{"__typename":"SocialMediaPost","id":"HnPost-25481772","excerpt":"","slug":"/hn/25481772","title":"Show HN: Create a QR code with text in the code pattern","date":"December 20, 2020","dateISO":"2020-12-20T14:34:06.027Z","datetime":"2020-12-20 14:34","tags":["story","Show HN","Hacker News"],"image":null,"imageAlt":null,"provider":"Hacker News","thirdPartyId":"25481772","url":"https://news.ycombinator.com/item?id=25481772","originalUrl":"http://qr.new","imageRemote":null,"video":null,"channel":"Show HN","channelUrl":"https://news.ycombinator.com/show","author":"koch","authorUrl":"https://news.ycombinator.com/user?id=koch","authorImage":null,"authorSlug":null,"score":126,"views":null,"sharedCount":null,"likeCount":null,"sharedContent":null,"parent":{"__typename":"HnJson","localize":[{"title":"HN新产品：使用代码模式中的文本创建二维码","locale":"zh"},{"title":"show HN：使用代碼模式中的文本創建二維碼","locale":"zh-Hant"}]}},{"__typename":"SocialMediaPost","id":"HnPost-25481837","excerpt":"","slug":"/hn/25481837","title":"Show HN: I wrote a book on implementing DDD, CQRS and Event Sourcing","date":"December 20, 2020","dateISO":"2020-12-20T14:34:06.027Z","datetime":"2020-12-20 14:34","tags":["story","Show HN","Hacker News"],"image":null,"imageAlt":null,"provider":"Hacker News","thirdPartyId":"25481837","url":"https://news.ycombinator.com/item?id=25481837","originalUrl":"https://leanpub.com/implementing-ddd-cqrs-and-event-sourcing","imageRemote":"https://d2sofvawe08yqg.cloudfront.net/implementing-ddd-cqrs-and-event-sourcing/medium?1607341766","video":null,"channel":"Show HN","channelUrl":"https://news.ycombinator.com/show","author":"alex-lawrence","authorUrl":"https://news.ycombinator.com/user?id=alex-lawrence","authorImage":null,"authorSlug":null,"score":168,"views":null,"sharedCount":null,"likeCount":null,"sharedContent":null,"parent":{"__typename":"HnJson","localize":[{"title":"HN新产品：我写了一本关于实现DDD、CQRS和事件源的书","locale":"zh"},{"title":"show HN：我寫了一本關於實現DDD、CQRS和事件源的書","locale":"zh-Hant"}]}},{"__typename":"SocialMediaPost","id":"HnPost-25473964","excerpt":"","slug":"/hn/25473964","title":"Show HN: I have found the world's greatest landing page","date":"December 19, 2020","dateISO":"2020-12-19T04:34:02.011Z","datetime":"2020-12-19 04:34","tags":["story","Show HN","Hacker News"],"image":null,"imageAlt":null,"provider":"Hacker News","thirdPartyId":"25473964","url":"https://news.ycombinator.com/item?id=25473964","originalUrl":"https://muzzleapp.com","imageRemote":"https://muzzleapp.com/muzzle_image.jpg","video":null,"channel":"Show HN","channelUrl":"https://news.ycombinator.com/show","author":"CPLX","authorUrl":"https://news.ycombinator.com/user?id=CPLX","authorImage":null,"authorSlug":null,"score":119,"views":null,"sharedCount":null,"likeCount":null,"sharedContent":null,"parent":{"__typename":"HnJson","localize":[{"title":"HN新产品：我找到了世界上最棒的登录页","locale":"zh"},{"title":"SHOW HN：我找到了世界上最棒的登錄頁","locale":"zh-Hant"}]}},{"__typename":"SocialMediaPost","id":"HnPost-25470672","excerpt":"","slug":"/hn/25470672","title":"Show HN: Sqwok – A low-cruft, minimalist alternative to Reddit and Twitter","date":"December 19, 2020","dateISO":"2020-12-19T01:41:48.070Z","datetime":"2020-12-19 01:41","tags":["story","Show HN","Hacker News"],"image":null,"imageAlt":null,"provider":"Hacker News","thirdPartyId":"25470672","url":"https://news.ycombinator.com/item?id=25470672","originalUrl":"https://sqwok.im/","imageRemote":null,"video":null,"channel":"Show HN","channelUrl":"https://news.ycombinator.com/show","author":"holler","authorUrl":"https://news.ycombinator.com/user?id=holler","authorImage":null,"authorSlug":null,"score":185,"views":null,"sharedCount":null,"likeCount":null,"sharedContent":null,"parent":{"__typename":"HnJson","localize":[{"title":"HN新产品：Sqwok-Reddit和Twitter的低调、简约的替代品","locale":"zh"},{"title":"show HN：Sqwok-Reddit和Twitter的低調、簡約的替代品","locale":"zh-Hant"}]}},{"__typename":"SocialMediaPost","id":"HnPost-25461367","excerpt":"","slug":"/hn/25461367","title":"Show HN: StumblingOn – Randomly find indie websites – recreating StumbleUpon","date":"December 18, 2020","dateISO":"2020-12-18T05:30:33.771Z","datetime":"2020-12-18 05:30","tags":["story","Show HN","Hacker News"],"image":null,"imageAlt":null,"provider":"Hacker News","thirdPartyId":"25461367","url":"https://news.ycombinator.com/item?id=25461367","originalUrl":"https://stumblingon.com","imageRemote":null,"video":null,"channel":"Show HN","channelUrl":"https://news.ycombinator.com/show","author":"ALittleLight","authorUrl":"https://news.ycombinator.com/user?id=ALittleLight","authorImage":null,"authorSlug":null,"score":138,"views":null,"sharedCount":null,"likeCount":null,"sharedContent":null,"parent":{"__typename":"HnJson","localize":[{"title":"HN新产品：StumblingOn-随机查找独立网站-重新创建StumbleUpon","locale":"zh"},{"title":"show HN：StumblingOn-隨機查找獨立網站-重新創建StumbleUpon","locale":"zh-Hant"}]}},{"__typename":"SocialMediaPost","id":"HnPost-25455659","excerpt":"","slug":"/hn/25455659","title":"Show HN: Make comic book layouts in the browser","date":"December 17, 2020","dateISO":"2020-12-17T19:00:03.709Z","datetime":"2020-12-17 19:00","tags":["story","Show HN","Hacker News"],"image":null,"imageAlt":null,"provider":"Hacker News","thirdPartyId":"25455659","url":"https://news.ycombinator.com/item?id=25455659","originalUrl":"https://andrewfulrich.gitlab.io/panelle/","imageRemote":"https://andrewfulrich.gitlab.io/panelle/images/pointerIcon.svg","video":null,"channel":"Show HN","channelUrl":"https://news.ycombinator.com/show","author":"TiredGuy","authorUrl":"https://news.ycombinator.com/user?id=TiredGuy","authorImage":null,"authorSlug":null,"score":192,"views":null,"sharedCount":null,"likeCount":null,"sharedContent":null,"parent":{"__typename":"HnJson","localize":[{"title":"HN新产品：在浏览器中进行漫画书布局","locale":"zh"},{"title":"HN新产品：在瀏覽器中進行漫畫書佈局","locale":"zh-Hant"}]}}]}},"pageContext":{"basePath":"/","pageType":"tag","tag":"Show HN","tagsFilter":{"id":{"glob":"!*Post-1"}},"filter":{"id":{"glob":"!*Post-1"},"tags":{"eq":"Show HN"}},"limit":25,"skip":75,"total":100,"totalPages":4,"currentPage":4,"maxWidth":1024,"maxHeight":512,"locale":"zh","hrefLang":"zh-Hans","originalPath":"/tags/show-hn/page/4","dateFormat":"YYYY-MM-DD"}},"staticQueryHashes":["1239077767","2506312863","2744905544","3025052997","3493603132","3493603132","3513215887","386998304"]}