{"componentChunkName":"component---gatsby-theme-buzzing-src-gatsby-theme-timeline-templates-posts-query-js","path":"/zh-Hant/tags/story/","result":{"data":{"site":{"siteMetadata":{"title":"Reddit 热门","description":"用中文浏览Reddit热门内容","social":[{"name":"Twitter","url":"https://twitter.com/gatsbyjs","external":null,"prefetch":null},{"name":"GitHub","url":"https://github.com/gatsbyjs","external":null,"prefetch":null}],"menuLinks":[],"localize":[{"locale":"en","title":"Buzzing on Reddit","description":"See what's buzzing on Reddit in your native language","social":[{"name":"Reddit","url":"https://www.reddit.com/","external":true,"prefetch":null}],"menuLinks":[{"name":"Weekly Selection","url":"/issues","external":null,"prefetch":null},{"name":"RSS","url":"/rss.xml","external":null,"prefetch":false}]},{"locale":"zh-Hant","title":"Reddit 熱門","description":"用中文瀏覽Reddit熱門內容","social":null,"menuLinks":null}]}},"tagsGroup":{"group":[{"fieldValue":"ASK HN","totalCount":36},{"fieldValue":"Bitcoin","totalCount":4},{"fieldValue":"Hacker News","totalCount":2185},{"fieldValue":"Poll","totalCount":1},{"fieldValue":"SaveAMC","totalCount":1},{"fieldValue":"Show HN","totalCount":76},{"fieldValue":"bitcoin","totalCount":3},{"fieldValue":"investing","totalCount":686},{"fieldValue":"poll","totalCount":1},{"fieldValue":"reddit","totalCount":4012},{"fieldValue":"science","totalCount":1},{"fieldValue":"stocks","totalCount":1322},{"fieldValue":"story","totalCount":2184},{"fieldValue":"tweet","totalCount":697},{"fieldValue":"wallstreetbets","totalCount":2004}]},"allBlogPost":{"nodes":[{"__typename":"SocialMediaPost","id":"HnPost-26327815","excerpt":"","slug":"/hn/26327815","title":"Google no longer wanted to sponsor the AI   ethics conference","date":"March 03, 2021","dateISO":"2021-03-03T16:27:14.817Z","datetime":"2021-03-03 16:27","tags":["story","Hacker News"],"image":null,"imageAlt":null,"provider":"Hacker News","thirdPartyId":"26327815","url":"https://news.ycombinator.com/item?id=26327815","originalUrl":"https://www.heise.de/news/Google-als-Sponsor-fuer-KI-Ethik-Konferenz-nicht-mehr-erwuenscht-5070341.html","imageRemote":"https://heise.cloudimg.io/bound/1200x1200/q85.png-lossy-85.webp-lossy-85.foil1/_www-heise-de_/imgs/18/3/0/6/6/0/4/5/shutterstock_1869421615-3bb841112822530d.jpeg","video":null,"channel":null,"channelUrl":null,"author":"imagine99","authorUrl":"https://news.ycombinator.com/user?id=imagine99","authorImage":null,"authorSlug":null,"score":169,"views":null,"sharedCount":null,"likeCount":null,"sharedContent":null,"parent":{"__typename":"HnJson","localize":[{"title":"谷歌不想再赞助AI伦理会议了","locale":"zh"},{"title":"谷歌不想再贊助AI倫理會議了","locale":"zh-Hant"}]}},{"__typename":"SocialMediaPost","id":"HnPost-26327779","excerpt":"","slug":"/hn/26327779","title":"PipeWire: The Linux audio/video bus","date":"March 03, 2021","dateISO":"2021-03-03T16:00:54.405Z","datetime":"2021-03-03 16:00","tags":["story","Hacker News"],"image":null,"imageAlt":null,"provider":"Hacker News","thirdPartyId":"26327779","url":"https://news.ycombinator.com/item?id=26327779","originalUrl":"https://lwn.net/SubscriberLink/847412/d7826b1353e33734","imageRemote":"https://static.lwn.net/images/logo/barepenguin-70.png","video":null,"channel":null,"channelUrl":null,"author":"darwi","authorUrl":"https://news.ycombinator.com/user?id=darwi","authorImage":null,"authorSlug":null,"score":161,"views":null,"sharedCount":null,"likeCount":null,"sharedContent":null,"parent":{"__typename":"HnJson","localize":[{"title":"PipeWire: Linux音频/视频总线","locale":"zh"},{"title":"PipeWire: Linux音頻/視頻總線","locale":"zh-Hant"}]}},{"__typename":"SocialMediaPost","id":"HnPost-26326599","excerpt":"","slug":"/hn/26326599","title":"Icons – Google Fonts","date":"March 03, 2021","dateISO":"2021-03-03T15:52:16.001Z","datetime":"2021-03-03 15:52","tags":["story","Hacker News"],"image":null,"imageAlt":null,"provider":"Hacker News","thirdPartyId":"26326599","url":"https://news.ycombinator.com/item?id=26326599","originalUrl":"https://fonts.google.com/icons","imageRemote":"http://www.gstatic.com/images/icons/material/apps/fonts/1x/catalog/v5/opengraph_color.png","video":null,"channel":null,"channelUrl":null,"author":"zuhayeer","authorUrl":"https://news.ycombinator.com/user?id=zuhayeer","authorImage":null,"authorSlug":null,"score":166,"views":null,"sharedCount":null,"likeCount":null,"sharedContent":null,"parent":{"__typename":"HnJson","localize":[{"title":"图标 - Google Fonts","locale":"zh"},{"title":"圖標 - Google Fonts","locale":"zh-Hant"}]}},{"__typename":"SocialMediaPost","id":"HnPost-26326639","excerpt":"","slug":"/hn/26326639","title":"Möbius Printing Helper","date":"March 03, 2021","dateISO":"2021-03-03T14:26:01.513Z","datetime":"2021-03-03 14:26","tags":["story","Hacker News"],"image":null,"imageAlt":null,"provider":"Hacker News","thirdPartyId":"26326639","url":"https://news.ycombinator.com/item?id=26326639","originalUrl":"https://shreevatsa.net/mobius-print/","imageRemote":null,"video":null,"channel":null,"channelUrl":null,"author":"tta","authorUrl":"https://news.ycombinator.com/user?id=tta","authorImage":null,"authorSlug":null,"score":168,"views":null,"sharedCount":null,"likeCount":null,"sharedContent":null,"parent":{"__typename":"HnJson","localize":[{"title":"Möbius印刷助手","locale":"zh"},{"title":"Möbius印刷助手","locale":"zh-Hant"}]}},{"__typename":"SocialMediaPost","id":"HnPost-26323966","excerpt":"","slug":"/hn/26323966","title":"Local PDF Tools – Powered by WebAssembly","date":"March 03, 2021","dateISO":"2021-03-03T13:59:40.086Z","datetime":"2021-03-03 13:59","tags":["story","Hacker News"],"image":null,"imageAlt":null,"provider":"Hacker News","thirdPartyId":"26323966","url":"https://news.ycombinator.com/item?id=26323966","originalUrl":"https://localpdf.tech/","imageRemote":"https://github.com/jufabeck2202/go-wasm-pdfmerge/blob/master/logo.jpeg?raw=true","video":null,"channel":null,"channelUrl":null,"author":"twapi","authorUrl":"https://news.ycombinator.com/user?id=twapi","authorImage":null,"authorSlug":null,"score":160,"views":null,"sharedCount":null,"likeCount":null,"sharedContent":null,"parent":{"__typename":"HnJson","localize":[{"title":"本地PDF工具 - Powered by WebAssembly","locale":"zh"},{"title":"本地PDF工具 - Powered by WebAssembly","locale":"zh-Hant"}]}},{"__typename":"SocialMediaPost","id":"HnPost-26325090","excerpt":"","slug":"/hn/26325090","title":"DJI FPV","date":"March 03, 2021","dateISO":"2021-03-03T13:52:52.213Z","datetime":"2021-03-03 13:52","tags":["story","Hacker News"],"image":null,"imageAlt":null,"provider":"Hacker News","thirdPartyId":"26325090","url":"https://news.ycombinator.com/item?id=26325090","originalUrl":"https://www.dji.com/dji-fpv","imageRemote":"https://www1.djicdn.com/cms/uploads/9337e10e717c91307c7c2a65aaacb6ef@374*374.png","video":null,"channel":null,"channelUrl":null,"author":"qkhhly","authorUrl":"https://news.ycombinator.com/user?id=qkhhly","authorImage":null,"authorSlug":null,"score":160,"views":null,"sharedCount":null,"likeCount":null,"sharedContent":null,"parent":{"__typename":"HnJson","localize":[{"title":"DJI FPV","locale":"zh"},{"title":"DJI FPV","locale":"zh-Hant"}]}},{"__typename":"SocialMediaPost","id":"HnPost-26324590","excerpt":"","slug":"/hn/26324590","title":"Linux Desktop on Apple Silicon/M1 in Practice","date":"March 03, 2021","dateISO":"2021-03-03T13:24:26.570Z","datetime":"2021-03-03 13:24","tags":["story","Hacker News"],"image":null,"imageAlt":null,"provider":"Hacker News","thirdPartyId":"26324590","url":"https://news.ycombinator.com/item?id=26324590","originalUrl":"https://gist.github.com/akihikodaki/87df4149e7ca87f18dc56807ec5a1bc5","imageRemote":"https://github.githubassets.com/images/modules/gists/gist-og-image.png","video":null,"channel":null,"channelUrl":null,"author":"aodaki","authorUrl":"https://news.ycombinator.com/user?id=aodaki","authorImage":null,"authorSlug":null,"score":168,"views":null,"sharedCount":null,"likeCount":null,"sharedContent":null,"parent":{"__typename":"HnJson","localize":[{"title":"苹果Silicon/M1上的Linux桌面实践","locale":"zh"},{"title":"蘋果Silicon/M1上的Linux桌面實踐","locale":"zh-Hant"}]}},{"__typename":"SocialMediaPost","id":"HnPost-26326795","excerpt":"","slug":"/hn/26326795","title":"ICANN Refuses to Accredit Pirate Bay Founder Peter Sunde Due to His ‘Background’","date":"March 03, 2021","dateISO":"2021-03-03T12:33:10.080Z","datetime":"2021-03-03 12:33","tags":["story","Hacker News"],"image":null,"imageAlt":null,"provider":"Hacker News","thirdPartyId":"26326795","url":"https://news.ycombinator.com/item?id=26326795","originalUrl":"https://torrentfreak.com/icann-refuses-to-accredit-pirate-bay-founder-peter-sunde-due-to-his-background-210303/","imageRemote":"https://torrentfreak.com/images/featuredlarge-e1599570834888.jpg","video":null,"channel":null,"channelUrl":null,"author":"input_sh","authorUrl":"https://news.ycombinator.com/user?id=input_sh","authorImage":null,"authorSlug":null,"score":182,"views":null,"sharedCount":null,"likeCount":null,"sharedContent":null,"parent":{"__typename":"HnJson","localize":[{"title":"ICANN因海盗湾创始人彼得-松德的 \"背景 \"而拒绝认可他的身份。","locale":"zh"},{"title":"ICANN因海盜灣創始人彼得-松德的 \"背景 \"而拒絕認可他的身份。","locale":"zh-Hant"}]}},{"__typename":"SocialMediaPost","id":"HnPost-26324347","excerpt":"","slug":"/hn/26324347","title":"Microsoft Power-Fx: a low-code general purpose programming language","date":"March 03, 2021","dateISO":"2021-03-03T07:51:45.001Z","datetime":"2021-03-03 07:51","tags":["story","Hacker News"],"image":null,"imageAlt":null,"provider":"Hacker News","thirdPartyId":"26324347","url":"https://news.ycombinator.com/item?id=26324347","originalUrl":"https://github.com/microsoft/power-fx","imageRemote":"https://avatars.githubusercontent.com/u/6154722?s=400&v=4","video":null,"channel":null,"channelUrl":null,"author":"Garbage","authorUrl":"https://news.ycombinator.com/user?id=Garbage","authorImage":null,"authorSlug":null,"score":160,"views":null,"sharedCount":null,"likeCount":null,"sharedContent":null,"parent":{"__typename":"HnJson","localize":[{"title":"微软Power-Fx：一种低代码通用编程语言。","locale":"zh"},{"title":"微軟Power-Fx：一種低代碼通用編程語言。","locale":"zh-Hant"}]}},{"__typename":"SocialMediaPost","id":"HnPost-26318379","excerpt":"","slug":"/hn/26318379","title":"Dieter Rams Palettes","date":"March 03, 2021","dateISO":"2021-03-03T07:34:27.123Z","datetime":"2021-03-03 07:34","tags":["story","Hacker News"],"image":null,"imageAlt":null,"provider":"Hacker News","thirdPartyId":"26318379","url":"https://news.ycombinator.com/item?id=26318379","originalUrl":"http://blog.presentandcorrect.com/rams-palettes","imageRemote":"http://cdn.shopify.com/s/files/1/0952/3604/t/3/assets/logo.png?4863568515797548870","video":null,"channel":null,"channelUrl":null,"author":"bookofjoe","authorUrl":"https://news.ycombinator.com/user?id=bookofjoe","authorImage":null,"authorSlug":null,"score":160,"views":null,"sharedCount":null,"likeCount":null,"sharedContent":null,"parent":{"__typename":"HnJson","localize":[{"title":"Dieter Rams调色板","locale":"zh"},{"title":"Dieter Rams調色板","locale":"zh-Hant"}]}},{"__typename":"SocialMediaPost","id":"HnPost-26302344","excerpt":"","slug":"/hn/26302344","title":"Giving Ada a Chance","date":"March 03, 2021","dateISO":"2021-03-03T06:49:26.021Z","datetime":"2021-03-03 06:49","tags":["story","Hacker News"],"image":null,"imageAlt":null,"provider":"Hacker News","thirdPartyId":"26302344","url":"https://news.ycombinator.com/item?id=26302344","originalUrl":"https://ajxs.me/blog/Giving_Ada_a_chance.html","imageRemote":null,"video":null,"channel":null,"channelUrl":null,"author":"jayp1418","authorUrl":"https://news.ycombinator.com/user?id=jayp1418","authorImage":null,"authorSlug":null,"score":161,"views":null,"sharedCount":null,"likeCount":null,"sharedContent":null,"parent":{"__typename":"HnJson","localize":[{"title":"给Ada一个机会","locale":"zh"},{"title":"給Ada一個機會","locale":"zh-Hant"}]}},{"__typename":"SocialMediaPost","id":"HnPost-26323600","excerpt":"","slug":"/hn/26323600","title":"Deno v1.8 – support for WebGPU, private modules, Intl, and much more","date":"March 03, 2021","dateISO":"2021-03-03T04:39:36.842Z","datetime":"2021-03-03 04:39","tags":["story","Hacker News"],"image":null,"imageAlt":null,"provider":"Hacker News","thirdPartyId":"26323600","url":"https://news.ycombinator.com/item?id=26323600","originalUrl":"https://deno.land/posts/v1.8#new-features-and-changes","imageRemote":null,"video":null,"channel":null,"channelUrl":null,"author":"searchableguy","authorUrl":"https://news.ycombinator.com/user?id=searchableguy","authorImage":null,"authorSlug":null,"score":168,"views":null,"sharedCount":null,"likeCount":null,"sharedContent":null,"parent":{"__typename":"HnJson","localize":[{"title":"Deno v1.8 - 支持WebGPU、私有模块、IntlL等。","locale":"zh"},{"title":"Deno v1.8 - 支持WebGPU、私有模塊、IntlL等。","locale":"zh-Hant"}]}},{"__typename":"SocialMediaPost","id":"HnPost-26323852","excerpt":"","slug":"/hn/26323852","title":"NASA's Perseverance rover sends stunning images","date":"March 03, 2021","dateISO":"2021-03-03T04:25:10.539Z","datetime":"2021-03-03 04:25","tags":["story","Hacker News"],"image":null,"imageAlt":null,"provider":"Hacker News","thirdPartyId":"26323852","url":"https://news.ycombinator.com/item?id=26323852","originalUrl":"https://www.bbc.com/news/in-pictures-56238018","imageRemote":"https://ichef.bbci.co.uk/news/1024/branded_news/8BE7/production/_117351853_2380a7d2-be79-4dc0-b269-9f8d3fe67b60.jpg","video":null,"channel":null,"channelUrl":null,"author":"astdb","authorUrl":"https://news.ycombinator.com/user?id=astdb","authorImage":null,"authorSlug":null,"score":182,"views":null,"sharedCount":null,"likeCount":null,"sharedContent":null,"parent":{"__typename":"HnJson","localize":[{"title":"美国宇航局的 \"锲而不舍 \"号探测器发出惊人的图像","locale":"zh"},{"title":"美國宇航局的 \"鍥而不捨 \"號探測器發出驚人的圖像","locale":"zh-Hant"}]}},{"__typename":"SocialMediaPost","id":"HnPost-26320532","excerpt":"","slug":"/hn/26320532","title":"Watchy: Hackable $50 Smartwatch","date":"March 03, 2021","dateISO":"2021-03-03T03:22:43.365Z","datetime":"2021-03-03 03:22","tags":["story","Hacker News"],"image":null,"imageAlt":null,"provider":"Hacker News","thirdPartyId":"26320532","url":"https://news.ycombinator.com/item?id=26320532","originalUrl":"https://spectrum.ieee.org/geek-life/hands-on/watchy-the-hackable-50-smartwatch","imageRemote":null,"video":null,"channel":null,"channelUrl":null,"author":"ystad","authorUrl":"https://news.ycombinator.com/user?id=ystad","authorImage":null,"authorSlug":null,"score":161,"views":null,"sharedCount":null,"likeCount":null,"sharedContent":null,"parent":{"__typename":"HnJson","localize":[{"title":"Watchy: 可破解的50美元智能手表","locale":"zh"},{"title":"Watchy: 可破解的50美元智能手錶","locale":"zh-Hant"}]}},{"__typename":"SocialMediaPost","id":"HnPost-26314756","excerpt":"","slug":"/hn/26314756","title":"How an Anti-TypeScript “JavaScript developer” like me became a TypeScript fan","date":"March 03, 2021","dateISO":"2021-03-03T02:09:20.208Z","datetime":"2021-03-03 02:09","tags":["story","Hacker News"],"image":null,"imageAlt":null,"provider":"Hacker News","thirdPartyId":"26314756","url":"https://news.ycombinator.com/item?id=26314756","originalUrl":"https://chiragswadia.medium.com/how-an-anti-typescript-javascript-developer-like-me-became-a-typescript-fan-a4e043151ad7","imageRemote":"https://miro.medium.com/max/1200/1*mhW-IR7S3z9xkTWPHbY0cg.jpeg","video":null,"channel":null,"channelUrl":null,"author":"chiragswadia","authorUrl":"https://news.ycombinator.com/user?id=chiragswadia","authorImage":null,"authorSlug":null,"score":160,"views":null,"sharedCount":null,"likeCount":null,"sharedContent":null,"parent":{"__typename":"HnJson","localize":[{"title":"像我这样一个反TypeScript的 \"JavaScript开发者 \"是如何成为TypeScript粉丝的？","locale":"zh"},{"title":"像我這樣一個反TypeScript的 \"JavaScript開發者 \"是如何成爲TypeScript粉絲的？","locale":"zh-Hant"}]}},{"__typename":"SocialMediaPost","id":"HnPost-26319649","excerpt":"","slug":"/hn/26319649","title":"Rookie coding mistake prior to Gab hack came from site’s CTO","date":"March 03, 2021","dateISO":"2021-03-03T02:09:20.208Z","datetime":"2021-03-03 02:09","tags":["story","Hacker News"],"image":null,"imageAlt":null,"provider":"Hacker News","thirdPartyId":"26319649","url":"https://news.ycombinator.com/item?id=26319649","originalUrl":"https://arstechnica.com/gadgets/2021/03/rookie-coding-mistake-prior-to-gab-hack-came-from-sites-cto/","imageRemote":"https://cdn.arstechnica.net/wp-content/uploads/2021/03/gab-silicon-valley-760x380.jpg","video":null,"channel":null,"channelUrl":null,"author":"minimaxir","authorUrl":"https://news.ycombinator.com/user?id=minimaxir","authorImage":null,"authorSlug":null,"score":163,"views":null,"sharedCount":null,"likeCount":null,"sharedContent":null,"parent":{"__typename":"HnJson","localize":[{"title":"Gab被黑之前的新手编码错误来自于网站的CTO。","locale":"zh"},{"title":"Gab被黑之前的新手編碼錯誤來自於網站的CTO。","locale":"zh-Hant"}]}},{"__typename":"SocialMediaPost","id":"HnPost-26313932","excerpt":"","slug":"/hn/26313932","title":"Physicists have filmed the oscillation of a time crystal","date":"March 03, 2021","dateISO":"2021-03-03T01:28:29.972Z","datetime":"2021-03-03 01:28","tags":["story","Hacker News"],"image":null,"imageAlt":null,"provider":"Hacker News","thirdPartyId":"26313932","url":"https://news.ycombinator.com/item?id=26313932","originalUrl":"https://www.sciencealert.com/watch-the-first-ever-video-of-a-time-crystal-oscillating","imageRemote":"https://www.sciencealert.com/images/2021-02/time-crystal_1024.gif","video":null,"channel":null,"channelUrl":null,"author":"IFR","authorUrl":"https://news.ycombinator.com/user?id=IFR","authorImage":null,"authorSlug":null,"score":166,"views":null,"sharedCount":null,"likeCount":null,"sharedContent":null,"parent":{"__typename":"HnJson","localize":[{"title":"物理学家拍下了时间晶体的振荡现象","locale":"zh"},{"title":"物理學家拍下了時間晶體的振盪現象","locale":"zh-Hant"}]}},{"__typename":"SocialMediaPost","id":"HnPost-26321962","excerpt":"","slug":"/hn/26321962","title":"“This destroys the RSA cryptosystem”","date":"March 02, 2021","dateISO":"2021-03-02T23:56:46.780Z","datetime":"2021-03-02 23:56","tags":["story","Hacker News"],"image":null,"imageAlt":null,"provider":"Hacker News","thirdPartyId":"26321962","url":"https://news.ycombinator.com/item?id=26321962","originalUrl":"https://eprint.iacr.org/2021/232","imageRemote":null,"video":null,"channel":null,"channelUrl":null,"author":"renaudg","authorUrl":"https://news.ycombinator.com/user?id=renaudg","authorImage":null,"authorSlug":null,"score":160,"views":null,"sharedCount":null,"likeCount":null,"sharedContent":null,"parent":{"__typename":"HnJson","localize":[{"title":"\"这破坏了RSA密码系统\"","locale":"zh"},{"title":"\"這破壞了RSA密碼系統\"","locale":"zh-Hant"}]}},{"__typename":"SocialMediaPost","id":"HnPost-26314900","excerpt":"","slug":"/hn/26314900","title":"Statistics Postdoc Tames Decades-Old Geometry Problem","date":"March 02, 2021","dateISO":"2021-03-02T23:33:59.467Z","datetime":"2021-03-02 23:33","tags":["story","Hacker News"],"image":null,"imageAlt":null,"provider":"Hacker News","thirdPartyId":"26314900","url":"https://news.ycombinator.com/item?id=26314900","originalUrl":"https://www.quantamagazine.org/statistics-postdoc-tames-decades-old-geometry-problem-20210301/","imageRemote":"https://d2r55xnwy6nx47.cloudfront.net/uploads/2021/03/Convex-Slices_1200_social.jpg","video":null,"channel":null,"channelUrl":null,"author":"rbanffy","authorUrl":"https://news.ycombinator.com/user?id=rbanffy","authorImage":null,"authorSlug":null,"score":160,"views":null,"sharedCount":null,"likeCount":null,"sharedContent":null,"parent":{"__typename":"HnJson","localize":[{"title":"统计学博士后驯服几十年前的几何学问题","locale":"zh"},{"title":"統計學博士後馴服幾十年前的幾何學問題","locale":"zh-Hant"}]}},{"__typename":"SocialMediaPost","id":"HnPost-26322089","excerpt":"","slug":"/hn/26322089","title":"MIT Press has granted full access to all its journals","date":"March 02, 2021","dateISO":"2021-03-02T23:33:59.467Z","datetime":"2021-03-02 23:33","tags":["story","Hacker News"],"image":null,"imageAlt":null,"provider":"Hacker News","thirdPartyId":"26322089","url":"https://news.ycombinator.com/item?id=26322089","originalUrl":"https://www.mitpressjournals.org/action/showPublications","imageRemote":"https://www.mitpressjournals.org/pb-assets/images/colophon.png","video":null,"channel":null,"channelUrl":null,"author":"orixilus","authorUrl":"https://news.ycombinator.com/user?id=orixilus","authorImage":null,"authorSlug":null,"score":189,"views":null,"sharedCount":null,"likeCount":null,"sharedContent":null,"parent":{"__typename":"HnJson","localize":[{"title":"麻省理工学院出版社已批准对其所有期刊进行全面访问。","locale":"zh"},{"title":"麻省理工學院出版社已批准對其所有期刊進行全面訪問。","locale":"zh-Hant"}]}},{"__typename":"SocialMediaPost","id":"HnPost-26315434","excerpt":"","slug":"/hn/26315434","title":"Rent controls have split housing in Berlin into two distinct markets","date":"March 02, 2021","dateISO":"2021-03-02T23:13:12.789Z","datetime":"2021-03-02 23:13","tags":["story","Hacker News"],"image":null,"imageAlt":null,"provider":"Hacker News","thirdPartyId":"26315434","url":"https://news.ycombinator.com/item?id=26315434","originalUrl":"https://www.bloomberg.com/opinion/articles/2021-03-02/berlin-s-rent-controls-are-proving-to-be-the-disaster-we-feared","imageRemote":null,"video":null,"channel":null,"channelUrl":null,"author":"vanburen","authorUrl":"https://news.ycombinator.com/user?id=vanburen","authorImage":null,"authorSlug":null,"score":163,"views":null,"sharedCount":null,"likeCount":null,"sharedContent":null,"parent":{"__typename":"HnJson","localize":[{"title":"房租管制将柏林的住房分割成两个不同的市场。","locale":"zh"},{"title":"房租管制將柏林的住房分割成兩個不同的市場。","locale":"zh-Hant"}]}},{"__typename":"SocialMediaPost","id":"HnPost-26319850","excerpt":"","slug":"/hn/26319850","title":"Beyond Meat signs global supply deals with McDonald’s, KFC and Pizza Hut","date":"March 02, 2021","dateISO":"2021-03-02T21:35:02.346Z","datetime":"2021-03-02 21:35","tags":["story","Hacker News"],"image":null,"imageAlt":null,"provider":"Hacker News","thirdPartyId":"26319850","url":"https://news.ycombinator.com/item?id=26319850","originalUrl":"https://agfundernews.com/beyond-meat-signs-global-supply-deals-with-mcdonalds-yum-brands.html","imageRemote":"https://agfundernews.com/wp-content/uploads/2021/03/Beyond-Meat-Pizza-Hut-Beyond-Italian-Sausage-Hero-e1614577903588.jpg","video":null,"channel":null,"channelUrl":null,"author":"adrian_mrd","authorUrl":"https://news.ycombinator.com/user?id=adrian_mrd","authorImage":null,"authorSlug":null,"score":204,"views":null,"sharedCount":null,"likeCount":null,"sharedContent":null,"parent":{"__typename":"HnJson","localize":[{"title":"Beyond Meat与麦当劳、肯德基和必胜客签订全球供应协议。","locale":"zh"},{"title":"Beyond Meat與麥當勞、肯德基和必勝客簽訂全球供應協議。","locale":"zh-Hant"}]}},{"__typename":"SocialMediaPost","id":"HnPost-26318872","excerpt":"","slug":"/hn/26318872","title":"jQuery 3.6.0","date":"March 02, 2021","dateISO":"2021-03-02T20:57:49.473Z","datetime":"2021-03-02 20:57","tags":["story","Hacker News"],"image":null,"imageAlt":null,"provider":"Hacker News","thirdPartyId":"26318872","url":"https://news.ycombinator.com/item?id=26318872","originalUrl":"http://blog.jquery.com/2021/03/02/jquery-3-6-0-released/","imageRemote":"http://0.gravatar.com/avatar/920831f693509679574832bb125a1d48?s=68&d=mm&r=g","video":null,"channel":null,"channelUrl":null,"author":"mkurz","authorUrl":"https://news.ycombinator.com/user?id=mkurz","authorImage":null,"authorSlug":null,"score":163,"views":null,"sharedCount":null,"likeCount":null,"sharedContent":null,"parent":{"__typename":"HnJson","localize":[{"title":"jQuery 3.6.0","locale":"zh"},{"title":"jQuery 3.6.0","locale":"zh-Hant"}]}},{"__typename":"SocialMediaPost","id":"HnPost-26317741","excerpt":"","slug":"/hn/26317741","title":"Almost 40% of U.S. Consumers Trust Online Reviews Less Than They Did 5 Years Ago","date":"March 02, 2021","dateISO":"2021-03-02T20:44:09.246Z","datetime":"2021-03-02 20:44","tags":["story","Hacker News"],"image":null,"imageAlt":null,"provider":"Hacker News","thirdPartyId":"26317741","url":"https://news.ycombinator.com/item?id=26317741","originalUrl":"https://www.reviews.com/home/security-systems/almost-40-percent-of-us-consumers-trust-online-reviews-less-than-they-did-five-years-ago/","imageRemote":"https://www.reviews.com/wp-content/uploads/2021/02/online-review-study.jpg","video":null,"channel":null,"channelUrl":null,"author":"sharkweek","authorUrl":"https://news.ycombinator.com/user?id=sharkweek","authorImage":null,"authorSlug":null,"score":162,"views":null,"sharedCount":null,"likeCount":null,"sharedContent":null,"parent":{"__typename":"HnJson","localize":[{"title":"近四成美国消费者对在线评论的信任度低于5年前。","locale":"zh"},{"title":"近四成美國消費者對在線評論的信任度低於5年前。","locale":"zh-Hant"}]}},{"__typename":"SocialMediaPost","id":"HnPost-26316637","excerpt":"","slug":"/hn/26316637","title":"Lotus 1-2-3 arbitrary resolution","date":"March 02, 2021","dateISO":"2021-03-02T19:55:02.296Z","datetime":"2021-03-02 19:55","tags":["story","Hacker News"],"image":null,"imageAlt":null,"provider":"Hacker News","thirdPartyId":"26316637","url":"https://news.ycombinator.com/item?id=26316637","originalUrl":"https://lock.cmpxchg8b.com/lotus123.html","imageRemote":"https://lock.cmpxchg8b.com/img/lotus-online-help.png","video":null,"channel":null,"channelUrl":null,"author":"diffuse_l","authorUrl":"https://news.ycombinator.com/user?id=diffuse_l","authorImage":null,"authorSlug":null,"score":162,"views":null,"sharedCount":null,"likeCount":null,"sharedContent":null,"parent":{"__typename":"HnJson","localize":[{"title":"莲花1-2-3任意解决","locale":"zh"},{"title":"蓮花1-2-3任意解決","locale":"zh-Hant"}]}}]}},"pageContext":{"basePath":"/","pageType":"tag","tag":"story","tagsFilter":{"id":{"glob":"!*Post-1"}},"filter":{"id":{"glob":"!*Post-1"},"tags":{"eq":"story"}},"limit":25,"skip":0,"total":2184,"totalPages":88,"currentPage":1,"maxWidth":1024,"maxHeight":512,"locale":"zh-Hant","hrefLang":"zh-Hant","originalPath":"/tags/story/","dateFormat":"YYYY-MM-DD"}},"staticQueryHashes":["1239077767","2506312863","2744905544","3025052997","3493603132","3493603132","3513215887","386998304"]}