{"componentChunkName":"component---gatsby-theme-buzzing-src-gatsby-theme-timeline-templates-posts-query-js","path":"/tags/hacker-news/page/62","result":{"data":{"site":{"siteMetadata":{"title":"Reddit 热门","description":"用中文浏览Reddit热门内容","social":[{"name":"Twitter","url":"https://twitter.com/gatsbyjs","external":null,"prefetch":null},{"name":"GitHub","url":"https://github.com/gatsbyjs","external":null,"prefetch":null}],"menuLinks":[],"localize":[{"locale":"en","title":"Buzzing on Reddit","description":"See what's buzzing on Reddit in your native language","social":[{"name":"Reddit","url":"https://www.reddit.com/","external":true,"prefetch":null}],"menuLinks":[{"name":"Weekly Selection","url":"/issues","external":null,"prefetch":null},{"name":"RSS","url":"/rss.xml","external":null,"prefetch":false}]},{"locale":"zh-Hant","title":"Reddit 熱門","description":"用中文瀏覽Reddit熱門內容","social":null,"menuLinks":null}]}},"tagsGroup":{"group":[{"fieldValue":"ASK HN","totalCount":42},{"fieldValue":"Bitcoin","totalCount":4},{"fieldValue":"Hacker News","totalCount":2409},{"fieldValue":"Poll","totalCount":1},{"fieldValue":"SaveAMC","totalCount":1},{"fieldValue":"Show HN","totalCount":81},{"fieldValue":"bitcoin","totalCount":3},{"fieldValue":"investing","totalCount":755},{"fieldValue":"poll","totalCount":1},{"fieldValue":"reddit","totalCount":4525},{"fieldValue":"science","totalCount":1},{"fieldValue":"stocks","totalCount":1482},{"fieldValue":"story","totalCount":2408},{"fieldValue":"tweet","totalCount":767},{"fieldValue":"wallstreetbets","totalCount":2288}]},"allBlogPost":{"nodes":[{"__typename":"SocialMediaPost","id":"HnPost-25759477","excerpt":"","slug":"/hn/25759477","title":"Developer’s response to “WireGuard: great protocol, but skip the Mac app”","date":"January 13, 2021","dateISO":"2021-01-13T12:13:43.070Z","datetime":"2021-01-13 12:13","tags":["story","Hacker News"],"image":null,"imageAlt":null,"provider":"Hacker News","thirdPartyId":"25759477","url":"https://news.ycombinator.com/item?id=25759477","originalUrl":"https://lists.zx2c4.com/pipermail/wireguard/2020-December/006226.html","imageRemote":null,"video":null,"channel":null,"channelUrl":null,"author":"motiejus","authorUrl":"https://news.ycombinator.com/user?id=motiejus","authorImage":null,"authorSlug":null,"score":919,"views":null,"sharedCount":null,"likeCount":null,"sharedContent":null,"parent":{"__typename":"HnJson","localize":[{"title":"开发者对 \"WireGuard：伟大的协议，但跳过Mac应用 \"的回应。","locale":"zh"},{"title":"開發者對 \"WireGuard：偉大的協議，但跳過Mac應用 \"的迴應。","locale":"zh-Hant"}]}},{"__typename":"SocialMediaPost","id":"HnPost-25750807","excerpt":"","slug":"/hn/25750807","title":"Show HN: Vantage – An alternative AWS console focused on developer experience","date":"January 13, 2021","dateISO":"2021-01-13T09:58:11.490Z","datetime":"2021-01-13 09:58","tags":["story","Show HN","Hacker News"],"image":null,"imageAlt":null,"provider":"Hacker News","thirdPartyId":"25750807","url":"https://news.ycombinator.com/item?id=25750807","originalUrl":"https://www.vantage.sh/","imageRemote":"https://uploads-ssl.webflow.com/5f9ba05ba40d6414f341df34/5ffce71e4734200665f6f876_Vantage.svg","video":null,"channel":"Show HN","channelUrl":"https://news.ycombinator.com/show","author":"StratusBen","authorUrl":"https://news.ycombinator.com/user?id=StratusBen","authorImage":null,"authorSlug":null,"score":221,"views":null,"sharedCount":null,"likeCount":null,"sharedContent":null,"parent":{"__typename":"HnJson","localize":[{"title":"HN新产品：Vantage - 一个专注于开发者体验的替代性AWS控制台。","locale":"zh"},{"title":"HN新產品：Vantage - 一個專注於開發者體驗的替代性AWS控制檯。","locale":"zh-Hant"}]}},{"__typename":"SocialMediaPost","id":"HnPost-25757275","excerpt":"","slug":"/hn/25757275","title":"Huawei patent mentions use of Uighur-spotting tech","date":"January 13, 2021","dateISO":"2021-01-13T09:58:11.490Z","datetime":"2021-01-13 09:58","tags":["story","Hacker News"],"image":null,"imageAlt":null,"provider":"Hacker News","thirdPartyId":"25757275","url":"https://news.ycombinator.com/item?id=25757275","originalUrl":"https://www.bbc.co.uk/news/technology-55634388","imageRemote":"https://ichef.bbci.co.uk/news/1024/branded_news/1078C/production/_116486476_huawei.jpg","video":null,"channel":null,"channelUrl":null,"author":"mellosouls","authorUrl":"https://news.ycombinator.com/user?id=mellosouls","authorImage":null,"authorSlug":null,"score":278,"views":null,"sharedCount":null,"likeCount":null,"sharedContent":null,"parent":{"__typename":"HnJson","localize":[{"title":"华为专利提到使用维吾尔族点穴技术","locale":"zh"},{"title":"華爲專利提到使用維吾爾族點穴技術","locale":"zh-Hant"}]}},{"__typename":"SocialMediaPost","id":"HnPost-25753908","excerpt":"","slug":"/hn/25753908","title":"Beaker Browser – experimental peer to peer web browser","date":"January 13, 2021","dateISO":"2021-01-13T08:59:07.030Z","datetime":"2021-01-13 08:59","tags":["story","Hacker News"],"image":null,"imageAlt":null,"provider":"Hacker News","thirdPartyId":"25753908","url":"https://news.ycombinator.com/item?id=25753908","originalUrl":"https://beakerbrowser.com/","imageRemote":"https://beakerbrowser.com/img/logo/logo.png","video":null,"channel":null,"channelUrl":null,"author":"rayrag","authorUrl":"https://news.ycombinator.com/user?id=rayrag","authorImage":null,"authorSlug":null,"score":256,"views":null,"sharedCount":null,"likeCount":null,"sharedContent":null,"parent":{"__typename":"HnJson","localize":[{"title":"贝克浏览器--实验性的点对点网络浏览器。","locale":"zh"},{"title":"貝克瀏覽器--實驗性的點對點網絡瀏覽器。","locale":"zh-Hant"}]}},{"__typename":"SocialMediaPost","id":"HnPost-25748820","excerpt":"","slug":"/hn/25748820","title":"India’s “plantain man” has traveled widely to collect unusual banana varieties","date":"January 13, 2021","dateISO":"2021-01-13T06:22:26.266Z","datetime":"2021-01-13 06:22","tags":["story","Hacker News"],"image":null,"imageAlt":null,"provider":"Hacker News","thirdPartyId":"25748820","url":"https://news.ycombinator.com/item?id=25748820","originalUrl":"https://www.atlasobscura.com/articles/how-many-kinds-bananas-are-there","imageRemote":"https://assets.atlasobscura.com/media/W1siZiIsInVwbG9hZHMvYXNzZXRzLzUzZGM0YmE2MTcyMGYxYTU5M19CYW5hbmEgRmFybWVyIGluIEluZGlhX19UaG91c2FuZCBmaW5nZXItMy5qcGciXSxbInAiLCJjb252ZXJ0IiwiIl0sWyJwIiwiY29udmVydCIsIi1xdWFsaXR5IDgxIC1hdXRvLW9yaWVudCJdLFsicCIsInRodW1iIiwiNjAweD4iXV0/Banana%20Farmer%20in%20India__Thousand%20finger-3.jpg","video":null,"channel":null,"channelUrl":null,"author":"fortran77","authorUrl":"https://news.ycombinator.com/user?id=fortran77","authorImage":null,"authorSlug":null,"score":220,"views":null,"sharedCount":null,"likeCount":null,"sharedContent":null,"parent":{"__typename":"HnJson","localize":[{"title":"印度 \"芭蕉人 \"走南闯北收集寻常香蕉品种","locale":"zh"},{"title":"印度 \"芭蕉人 \"走南闖北收集尋常香蕉品種","locale":"zh-Hant"}]}},{"__typename":"SocialMediaPost","id":"HnPost-25754437","excerpt":"","slug":"/hn/25754437","title":"Learn X by Doing Y – A project-based learning search engine","date":"January 13, 2021","dateISO":"2021-01-13T06:22:26.266Z","datetime":"2021-01-13 06:22","tags":["story","Hacker News"],"image":null,"imageAlt":null,"provider":"Hacker News","thirdPartyId":"25754437","url":"https://news.ycombinator.com/item?id=25754437","originalUrl":"https://aquadzn.github.io/learn-x-by-doing-y/","imageRemote":"https://raw.githubusercontent.com/aquadzn/learn-x-by-doing-y/main/docs/preview.png","video":null,"channel":null,"channelUrl":null,"author":"didizaja","authorUrl":"https://news.ycombinator.com/user?id=didizaja","authorImage":null,"authorSlug":null,"score":338,"views":null,"sharedCount":null,"likeCount":null,"sharedContent":null,"parent":{"__typename":"HnJson","localize":[{"title":"通过做Y学习X - 一个基于项目的学习搜索引擎。","locale":"zh"},{"title":"通過做Y學習X - 一個基於項目的學習搜索引擎。","locale":"zh-Hant"}]}},{"__typename":"SocialMediaPost","id":"HnPost-25757398","excerpt":"","slug":"/hn/25757398","title":"Signal community: Reminder: Please be nice","date":"January 13, 2021","dateISO":"2021-01-13T06:22:26.265Z","datetime":"2021-01-13 06:22","tags":["story","Hacker News"],"image":null,"imageAlt":null,"provider":"Hacker News","thirdPartyId":"25757398","url":"https://news.ycombinator.com/item?id=25757398","originalUrl":"https://community.signalusers.org/t/reminder-please-be-nice/21217","imageRemote":"https://community.signalusers.org/uploads/db3609/original/2X/6/6fb659f2a4924b34c11c850c5aef0c13a73af0f0.png","video":null,"channel":null,"channelUrl":null,"author":"decrypt","authorUrl":"https://news.ycombinator.com/user?id=decrypt","authorImage":null,"authorSlug":null,"score":1143,"views":null,"sharedCount":null,"likeCount":null,"sharedContent":null,"parent":{"__typename":"HnJson","localize":[{"title":"信号社区。提醒： 请对我好一点","locale":"zh"},{"title":"信號社區。提醒： 請對我好一點","locale":"zh-Hant"}]}},{"__typename":"SocialMediaPost","id":"HnPost-25754895","excerpt":"","slug":"/hn/25754895","title":"Solarwind, Fireeye, Microsoft and Cisco leaks are offered for sale","date":"January 13, 2021","dateISO":"2021-01-13T05:50:10.597Z","datetime":"2021-01-13 05:50","tags":["story","Hacker News"],"image":null,"imageAlt":null,"provider":"Hacker News","thirdPartyId":"25754895","url":"https://news.ycombinator.com/item?id=25754895","originalUrl":"http://solarleaks.net/","imageRemote":null,"video":null,"channel":null,"channelUrl":null,"author":"autoro","authorUrl":"https://news.ycombinator.com/user?id=autoro","authorImage":null,"authorSlug":null,"score":285,"views":null,"sharedCount":null,"likeCount":null,"sharedContent":null,"parent":{"__typename":"HnJson","localize":[{"title":"Solarwind、火眼金睛、微软和思科泄漏的信息被提供出售。","locale":"zh"},{"title":"Solarwind、火眼金睛、微軟和思科泄漏的信息被提供出售。","locale":"zh-Hant"}]}},{"__typename":"SocialMediaPost","id":"HnPost-25742883","excerpt":"","slug":"/hn/25742883","title":"Ron Paul locked out of his Facebook page","date":"January 13, 2021","dateISO":"2021-01-13T02:58:43.187Z","datetime":"2021-01-13 02:58","tags":["story","Hacker News"],"image":null,"imageAlt":null,"provider":"Hacker News","thirdPartyId":"25742883","url":"https://news.ycombinator.com/item?id=25742883","originalUrl":"https://twitter.com/ronpaul/status/1348694943905308672","imageRemote":null,"video":null,"channel":null,"channelUrl":null,"author":"drak0n1c","authorUrl":"https://news.ycombinator.com/user?id=drak0n1c","authorImage":null,"authorSlug":null,"score":216,"views":null,"sharedCount":null,"likeCount":null,"sharedContent":null,"parent":{"__typename":"HnJson","localize":[{"title":"罗恩-保罗被锁定在他的Facebook页面上","locale":"zh"},{"title":"羅恩-保羅被鎖定在他的Facebook頁面上","locale":"zh-Hant"}]}},{"__typename":"SocialMediaPost","id":"HnPost-25750582","excerpt":"","slug":"/hn/25750582","title":"A Proposal for Adding Generics to Go","date":"January 13, 2021","dateISO":"2021-01-13T02:58:43.187Z","datetime":"2021-01-13 02:58","tags":["story","Hacker News"],"image":null,"imageAlt":null,"provider":"Hacker News","thirdPartyId":"25750582","url":"https://news.ycombinator.com/item?id=25750582","originalUrl":"https://blog.golang.org/generics-proposal","imageRemote":"https://blog.golang.org/lib/godoc/images/go-logo-blue.svg","video":null,"channel":null,"channelUrl":null,"author":"jparise","authorUrl":"https://news.ycombinator.com/user?id=jparise","authorImage":null,"authorSlug":null,"score":220,"views":null,"sharedCount":null,"likeCount":null,"sharedContent":null,"parent":{"__typename":"HnJson","localize":[{"title":"关于在围棋中增加通用名称的建议。","locale":"zh"},{"title":"關於在圍棋中增加通用名稱的建議。","locale":"zh-Hant"}]}},{"__typename":"SocialMediaPost","id":"HnPost-25745304","excerpt":"","slug":"/hn/25745304","title":"Facebook to staff: Avoid company-branded clothing for own safety","date":"January 13, 2021","dateISO":"2021-01-13T01:55:07.168Z","datetime":"2021-01-13 01:55","tags":["story","Hacker News"],"image":null,"imageAlt":null,"provider":"Hacker News","thirdPartyId":"25745304","url":"https://news.ycombinator.com/item?id=25745304","originalUrl":"https://www.businessinsider.com/facebook-trump-ban-staff-company-branded-clothing-safety-concerns-2021-1","imageRemote":"https://i.insider.com/5ffd71aed184b30018aae3b3?width=1200&format=jpeg","video":null,"channel":null,"channelUrl":null,"author":"pera","authorUrl":"https://news.ycombinator.com/user?id=pera","authorImage":null,"authorSlug":null,"score":306,"views":null,"sharedCount":null,"likeCount":null,"sharedContent":null,"parent":{"__typename":"HnJson","localize":[{"title":"脸书对员工。为了自身安全，避免穿公司品牌的衣服","locale":"zh"},{"title":"臉書對員工。爲了自身安全，避免穿公司品牌的衣服","locale":"zh-Hant"}]}},{"__typename":"SocialMediaPost","id":"HnPost-25749492","excerpt":"","slug":"/hn/25749492","title":"Show HN: Amplication – Instantly Generate Node.js Apps with GraphQL and REST API","date":"January 13, 2021","dateISO":"2021-01-13T01:55:07.168Z","datetime":"2021-01-13 01:55","tags":["story","Show HN","Hacker News"],"image":null,"imageAlt":null,"provider":"Hacker News","thirdPartyId":"25749492","url":"https://news.ycombinator.com/item?id=25749492","originalUrl":"https://github.com/amplication/amplication","imageRemote":"https://repository-images.githubusercontent.com/262862475/89475900-2730-11eb-8f1f-bdb1b9648403","video":null,"channel":"Show HN","channelUrl":"https://news.ycombinator.com/show","author":"yuvalhazaz","authorUrl":"https://news.ycombinator.com/user?id=yuvalhazaz","authorImage":null,"authorSlug":null,"score":270,"views":null,"sharedCount":null,"likeCount":null,"sharedContent":null,"parent":{"__typename":"HnJson","localize":[{"title":"HN新产品：Amplication - 使用GraphQL和REST API即时生成Node.js应用。","locale":"zh"},{"title":"HN新產品：Amplication - 使用GraphQL和REST API即時生成Node.js應用。","locale":"zh-Hant"}]}},{"__typename":"SocialMediaPost","id":"HnPost-25753166","excerpt":"","slug":"/hn/25753166","title":"Computer Science Curriculum in 1000 YouTube Videos","date":"January 13, 2021","dateISO":"2021-01-13T00:11:33.256Z","datetime":"2021-01-13 00:11","tags":["story","Hacker News"],"image":null,"imageAlt":null,"provider":"Hacker News","thirdPartyId":"25753166","url":"https://news.ycombinator.com/item?id=25753166","originalUrl":"https://laconicml.com/computer-science-curriculum-youtube-videos/","imageRemote":"https://laconicml.com/wp-content/uploads/2020/12/post_58_naslovna.jpg","video":null,"channel":null,"channelUrl":null,"author":"nixass","authorUrl":"https://news.ycombinator.com/user?id=nixass","authorImage":null,"authorSlug":null,"score":340,"views":null,"sharedCount":null,"likeCount":null,"sharedContent":null,"parent":{"__typename":"HnJson","localize":[{"title":"计算机科学课程在1000个YouTube视频中","locale":"zh"},{"title":"計算機科學課程在1000個YouTube視頻中","locale":"zh-Hant"}]}},{"__typename":"SocialMediaPost","id":"HnPost-25752000","excerpt":"","slug":"/hn/25752000","title":"U.S. to require negative Covid-19 tests for international air passengers","date":"January 12, 2021","dateISO":"2021-01-12T21:42:57.714Z","datetime":"2021-01-12 21:42","tags":["story","Hacker News"],"image":null,"imageAlt":null,"provider":"Hacker News","thirdPartyId":"25752000","url":"https://news.ycombinator.com/item?id=25752000","originalUrl":"https://www.reuters.com/article/us-health-coronavirus-airlines/u-s-to-require-negative-covid-19-tests-for-international-air-passengers-sources-idUSKBN29H2KD","imageRemote":"https://static.reuters.com/resources/r/?m=02&d=20210112&t=2&i=1547531421&r=LYNXMPEH0B1CR&w=800","video":null,"channel":null,"channelUrl":null,"author":"Element_","authorUrl":"https://news.ycombinator.com/user?id=Element_","authorImage":null,"authorSlug":null,"score":380,"views":null,"sharedCount":null,"likeCount":null,"sharedContent":null,"parent":{"__typename":"HnJson","localize":[{"title":"美国将要求国际航空旅客进行Covid-19阴性检测。","locale":"zh"},{"title":"美國將要求國際航空旅客進行Covid-19陰性檢測。","locale":"zh-Hant"}]}},{"__typename":"SocialMediaPost","id":"HnPost-25751808","excerpt":"","slug":"/hn/25751808","title":"If it will matter after today, don't talk about it in a chat room","date":"January 12, 2021","dateISO":"2021-01-12T20:44:49.459Z","datetime":"2021-01-12 20:44","tags":["story","Hacker News"],"image":null,"imageAlt":null,"provider":"Hacker News","thirdPartyId":"25751808","url":"https://news.ycombinator.com/item?id=25751808","originalUrl":"https://critter.blog/2021/01/12/if-it-matters-after-today-stop-talking-about-it-in-a-chat-room/","imageRemote":"https://mikecrittendenhome.files.wordpress.com/2021/01/stephen-phillips-hostreviews-co-uk-ae0ix-blcjc-unsplash.jpg?w=1200","video":null,"channel":null,"channelUrl":null,"author":"mcrittenden","authorUrl":"https://news.ycombinator.com/user?id=mcrittenden","authorImage":null,"authorSlug":null,"score":749,"views":null,"sharedCount":null,"likeCount":null,"sharedContent":null,"parent":{"__typename":"HnJson","localize":[{"title":"如果过了今天就有关系了，就不要在聊天室里说了。","locale":"zh"},{"title":"如果過了今天就有關係了，就不要在聊天室裏說了。","locale":"zh-Hant"}]}},{"__typename":"SocialMediaPost","id":"HnPost-25744251","excerpt":"","slug":"/hn/25744251","title":"Signal Fork with WhatsApp Migration","date":"January 12, 2021","dateISO":"2021-01-12T17:42:57.735Z","datetime":"2021-01-12 17:42","tags":["story","Hacker News"],"image":null,"imageAlt":null,"provider":"Hacker News","thirdPartyId":"25744251","url":"https://news.ycombinator.com/item?id=25744251","originalUrl":"https://github.com/jukefoxer/Signal-Android/tree/feature/wa-db-import","imageRemote":"https://avatars3.githubusercontent.com/u/30292742?s=400&v=4","video":null,"channel":null,"channelUrl":null,"author":"lsblk","authorUrl":"https://news.ycombinator.com/user?id=lsblk","authorImage":null,"authorSlug":null,"score":290,"views":null,"sharedCount":null,"likeCount":null,"sharedContent":null,"parent":{"__typename":"HnJson","localize":[{"title":"WhatsApp迁移的信号分叉","locale":"zh"},{"title":"WhatsApp遷移的信號分叉","locale":"zh-Hant"}]}},{"__typename":"SocialMediaPost","id":"HnPost-25744661","excerpt":"","slug":"/hn/25744661","title":"I received my first donation on my open-source side project and it felt great","date":"January 12, 2021","dateISO":"2021-01-12T17:42:57.735Z","datetime":"2021-01-12 17:42","tags":["story","Hacker News"],"image":null,"imageAlt":null,"provider":"Hacker News","thirdPartyId":"25744661","url":"https://news.ycombinator.com/item?id=25744661","originalUrl":"https://gourav.io/blog/first-donation-on-open-source-side-project","imageRemote":"https://gourav.io/_next/static/media/pages/blog/first-donation-on-open-source-side-project/og.png","video":null,"channel":null,"channelUrl":null,"author":"jerrygoyal","authorUrl":"https://news.ycombinator.com/user?id=jerrygoyal","authorImage":null,"authorSlug":null,"score":401,"views":null,"sharedCount":null,"likeCount":null,"sharedContent":null,"parent":{"__typename":"HnJson","localize":[{"title":"我收到了我的开源项目的第一笔捐款，感觉很棒","locale":"zh"},{"title":"我收到了我的開源項目的第一筆捐款，感覺很棒","locale":"zh-Hant"}]}},{"__typename":"SocialMediaPost","id":"HnPost-25745615","excerpt":"","slug":"/hn/25745615","title":"Plain Text Accounting","date":"January 12, 2021","dateISO":"2021-01-12T17:42:57.735Z","datetime":"2021-01-12 17:42","tags":["story","Hacker News"],"image":null,"imageAlt":null,"provider":"Hacker News","thirdPartyId":"25745615","url":"https://news.ycombinator.com/item?id=25745615","originalUrl":"https://plaintextaccounting.org/","imageRemote":"https://img.shields.io/github/stars/plaintextaccounting/plaintextaccounting.github.io.svg?style=social&label=Github","video":null,"channel":null,"channelUrl":null,"author":"sundarurfriend","authorUrl":"https://news.ycombinator.com/user?id=sundarurfriend","authorImage":null,"authorSlug":null,"score":469,"views":null,"sharedCount":null,"likeCount":null,"sharedContent":null,"parent":{"__typename":"HnJson","localize":[{"title":"明文记帐","locale":"zh"},{"title":"明文記帳","locale":"zh-Hant"}]}},{"__typename":"SocialMediaPost","id":"HnPost-25747659","excerpt":"","slug":"/hn/25747659","title":"How Silicon Valley, in a Show of Monopolistic Force, Destroyed Parler","date":"January 12, 2021","dateISO":"2021-01-12T17:42:57.734Z","datetime":"2021-01-12 17:42","tags":["story","Hacker News"],"image":null,"imageAlt":null,"provider":"Hacker News","thirdPartyId":"25747659","url":"https://news.ycombinator.com/item?id=25747659","originalUrl":"https://greenwald.substack.com/p/how-silicon-valley-in-a-show-of-monopolistic","imageRemote":"https://cdn.substack.com/image/fetch/h_600,c_limit,f_auto,q_auto:good,fl_progressive:steep/https%3A%2F%2Fbucketeer-e05bbc84-baa3-437e-9518-adb32be77984.s3.amazonaws.com%2Fpublic%2Fimages%2F5bf83518-22df-4333-a423-63fbb59cb9a2_4032x3024.jpeg","video":null,"channel":null,"channelUrl":null,"author":"amadeuspagel","authorUrl":"https://news.ycombinator.com/user?id=amadeuspagel","authorImage":null,"authorSlug":null,"score":1049,"views":null,"sharedCount":null,"likeCount":null,"sharedContent":null,"parent":{"__typename":"HnJson","localize":[{"title":"硅谷如何在一场垄断力量的展示中摧毁了帕勒","locale":"zh"},{"title":"硅谷如何在一場壟斷力量的展示中摧毀了帕勒","locale":"zh-Hant"}]}},{"__typename":"SocialMediaPost","id":"HnPost-25747284","excerpt":"","slug":"/hn/25747284","title":"Sci-Hub Is Now on the ‘Uncensorable Web’","date":"January 12, 2021","dateISO":"2021-01-12T15:47:14.563Z","datetime":"2021-01-12 15:47","tags":["story","Hacker News"],"image":null,"imageAlt":null,"provider":"Hacker News","thirdPartyId":"25747284","url":"https://news.ycombinator.com/item?id=25747284","originalUrl":"https://www.nasdaq.com/articles/pirated-academic-database-sci-hub-is-now-on-the-uncensorable-web-2021-01-11","imageRemote":null,"video":null,"channel":null,"channelUrl":null,"author":"rasengan","authorUrl":"https://news.ycombinator.com/user?id=rasengan","authorImage":null,"authorSlug":null,"score":840,"views":null,"sharedCount":null,"likeCount":null,"sharedContent":null,"parent":{"__typename":"HnJson","localize":[{"title":"SCI-Hub现在出现在“不受监控的网络”上","locale":"zh"},{"title":"SCI-Hub現在出現在“不受監控的網絡”上","locale":"zh-Hant"}]}},{"__typename":"SocialMediaPost","id":"HnPost-25743546","excerpt":"","slug":"/hn/25743546","title":"Lulu – Mac open-source firewall that aims to block unknown outgoing connections","date":"January 12, 2021","dateISO":"2021-01-12T15:15:23.411Z","datetime":"2021-01-12 15:15","tags":["story","Hacker News"],"image":null,"imageAlt":null,"provider":"Hacker News","thirdPartyId":"25743546","url":"https://news.ycombinator.com/item?id=25743546","originalUrl":"https://objective-see.com/products/lulu.html","imageRemote":"https://objective-see.com/images/LL/alert.png","video":null,"channel":null,"channelUrl":null,"author":"tambourine_man","authorUrl":"https://news.ycombinator.com/user?id=tambourine_man","authorImage":null,"authorSlug":null,"score":363,"views":null,"sharedCount":null,"likeCount":null,"sharedContent":null,"parent":{"__typename":"HnJson","localize":[{"title":"Lulu-Mac开源防火墙，针对挡路未知出站连接","locale":"zh"},{"title":"Lulu-Mac開源防火牆，針對擋路未知出站連接","locale":"zh-Hant"}]}},{"__typename":"SocialMediaPost","id":"HnPost-25741858","excerpt":"","slug":"/hn/25741858","title":"Two Worlds: So Much Prosperity, So Much Skepticism","date":"January 12, 2021","dateISO":"2021-01-12T14:48:05.158Z","datetime":"2021-01-12 14:48","tags":["story","Hacker News"],"image":null,"imageAlt":null,"provider":"Hacker News","thirdPartyId":"25741858","url":"https://news.ycombinator.com/item?id=25741858","originalUrl":"https://www.collaborativefund.com/blog/two-worlds/","imageRemote":"http://www.collaborativefund.com/uploads/ashkan-forouzani-VlBygHw4K3I-unsplash.jpg","video":null,"channel":null,"channelUrl":null,"author":"loosetypes","authorUrl":"https://news.ycombinator.com/user?id=loosetypes","authorImage":null,"authorSlug":null,"score":236,"views":null,"sharedCount":null,"likeCount":null,"sharedContent":null,"parent":{"__typename":"HnJson","localize":[{"title":"两个世界：如此繁荣，如此怀疑","locale":"zh"},{"title":"兩個世界：如此繁榮，如此懷疑","locale":"zh-Hant"}]}},{"__typename":"SocialMediaPost","id":"HnPost-25741972","excerpt":"","slug":"/hn/25741972","title":"Moderna is announcing three new vaccine programs","date":"January 12, 2021","dateISO":"2021-01-12T10:05:35.278Z","datetime":"2021-01-12 10:05","tags":["story","Hacker News"],"image":null,"imageAlt":null,"provider":"Hacker News","thirdPartyId":"25741972","url":"https://news.ycombinator.com/item?id=25741972","originalUrl":"https://investors.modernatx.com/news-releases/news-release-details/moderna-provides-business-update-and-announces-three-new","imageRemote":"https://cts.businesswire.com/ct/CT?id=bwnews&sty=20210111005580r1&sid=acqr8&distro=nx&lang=en","video":null,"channel":null,"channelUrl":null,"author":"Osiris30","authorUrl":"https://news.ycombinator.com/user?id=Osiris30","authorImage":null,"authorSlug":null,"score":355,"views":null,"sharedCount":null,"likeCount":null,"sharedContent":null,"parent":{"__typename":"HnJson","localize":[{"title":"莫德纳宣布了三个新的疫苗项目","locale":"zh"},{"title":"莫德納宣佈了三個新的疫苗項目","locale":"zh-Hant"}]}},{"__typename":"SocialMediaPost","id":"HnPost-25741729","excerpt":"","slug":"/hn/25741729","title":"Theseus: A modern experimental OS written from scratch in Rust","date":"January 12, 2021","dateISO":"2021-01-12T09:22:23.662Z","datetime":"2021-01-12 09:22","tags":["story","Hacker News"],"image":null,"imageAlt":null,"provider":"Hacker News","thirdPartyId":"25741729","url":"https://news.ycombinator.com/item?id=25741729","originalUrl":"https://github.com/theseus-os/Theseus","imageRemote":"https://avatars3.githubusercontent.com/u/42755277?s=400&v=4","video":null,"channel":null,"channelUrl":null,"author":"metalwhale","authorUrl":"https://news.ycombinator.com/user?id=metalwhale","authorImage":null,"authorSlug":null,"score":377,"views":null,"sharedCount":null,"likeCount":null,"sharedContent":null,"parent":{"__typename":"HnJson","localize":[{"title":"Teseus：一个用铁锈白手起家的现代实验操作系统","locale":"zh"},{"title":"Teseus：一個用鐵鏽白手起家的現代實驗操作系統","locale":"zh-Hant"}]}},{"__typename":"SocialMediaPost","id":"HnPost-25742276","excerpt":"","slug":"/hn/25742276","title":"Amazon Echo Flex Teardown: Microphone Mute, Real or Fake?","date":"January 12, 2021","dateISO":"2021-01-12T08:49:54.035Z","datetime":"2021-01-12 08:49","tags":["story","Hacker News"],"image":null,"imageAlt":null,"provider":"Hacker News","thirdPartyId":"25742276","url":"https://news.ycombinator.com/item?id=25742276","originalUrl":"https://electronupdate.blogspot.com/2021/01/amazon-echo-flex-microphone-mute-real.html","imageRemote":"https://1.bp.blogspot.com/-w-OdOP8R-XA/X_W4e3hgxWI/AAAAAAAABgY/_EmKhHLtksAoFbLJEjZmGVk-JZ9X-_kowCLcBGAsYHQ/w1200-h630-p-k-no-nu/mute1.png","video":null,"channel":null,"channelUrl":null,"author":"parsecs","authorUrl":"https://news.ycombinator.com/user?id=parsecs","authorImage":null,"authorSlug":null,"score":435,"views":null,"sharedCount":null,"likeCount":null,"sharedContent":null,"parent":{"__typename":"HnJson","localize":[{"title":"亚马逊Echo Flex Teardown：麦克风静音，真的还是假的？","locale":"zh"},{"title":"亞馬遜Echo Flex Teardown：麥克風靜音，真的還是假的？","locale":"zh-Hant"}]}}]}},"pageContext":{"basePath":"/","pageType":"tag","tag":"Hacker News","tagsFilter":{"id":{"glob":"!*Post-1"}},"filter":{"id":{"glob":"!*Post-1"},"tags":{"eq":"Hacker News"}},"limit":25,"skip":1525,"total":2409,"totalPages":97,"currentPage":62,"maxWidth":1024,"maxHeight":512,"locale":"zh","hrefLang":"zh-Hans","originalPath":"/tags/hacker-news/page/62","dateFormat":"YYYY-MM-DD"}},"staticQueryHashes":["1239077767","2506312863","2744905544","3025052997","3493603132","3493603132","3513215887","386998304"]}