{"componentChunkName":"component---gatsby-theme-buzzing-src-gatsby-theme-timeline-templates-posts-query-js","path":"/zh-Hant/page/169","result":{"data":{"site":{"siteMetadata":{"title":"Reddit 热门","description":"用中文浏览Reddit热门内容","social":[{"name":"Twitter","url":"https://twitter.com/gatsbyjs","external":null,"prefetch":null},{"name":"GitHub","url":"https://github.com/gatsbyjs","external":null,"prefetch":null}],"menuLinks":[],"localize":[{"locale":"en","title":"Buzzing on Reddit","description":"See what's buzzing on Reddit in your native language","social":{"name":null,"url":null,"external":null,"prefetch":null},"menuLinks":[{"name":"Weekly Selection","url":"/issues","external":null,"prefetch":null},{"name":"RSS","url":"/rss.xml","external":null,"prefetch":false}]},{"locale":"zh-Hant","title":"Reddit 熱門","description":"用中文瀏覽Reddit熱門內容","social":null,"menuLinks":null}]}},"tagsGroup":{"group":[{"fieldValue":"3D Printing","totalCount":4},{"fieldValue":"A/B Testing","totalCount":14},{"fieldValue":"AMCarmy","totalCount":1},{"fieldValue":"APIs","totalCount":96},{"fieldValue":"Action Games","totalCount":2},{"fieldValue":"Ad Blockers","totalCount":4},{"fieldValue":"Adventure Games","totalCount":2},{"fieldValue":"Advertising","totalCount":28},{"fieldValue":"Airbnb","totalCount":2},{"fieldValue":"Alexa Skills","totalCount":2},{"fieldValue":"Amazon","totalCount":8},{"fieldValue":"Analytics","totalCount":115},{"fieldValue":"Android","totalCount":168},{"fieldValue":"Anonymous","totalCount":3},{"fieldValue":"Apple","totalCount":58},{"fieldValue":"Apple TV","totalCount":1},{"fieldValue":"Apple Watch","totalCount":7},{"fieldValue":"Art","totalCount":23},{"fieldValue":"Artificial Intelligence","totalCount":247},{"fieldValue":"Audio and Voice ","totalCount":47},{"fieldValue":"Augmented Reality","totalCount":16},{"fieldValue":"Backpacks","totalCount":1},{"fieldValue":"Batteries","totalCount":1},{"fieldValue":"Beauty","totalCount":2},{"fieldValue":"Biking","totalCount":1},{"fieldValue":"Biohacking","totalCount":6},{"fieldValue":"Bitcoin","totalCount":4},{"fieldValue":"Blockstack","totalCount":2},{"fieldValue":"Board Games","totalCount":6},{"fieldValue":"Books","totalCount":26},{"fieldValue":"Bots","totalCount":29},{"fieldValue":"Branding","totalCount":27},{"fieldValue":"CSM Tools","totalCount":2},{"fieldValue":"Calendar and Scheduling","totalCount":61},{"fieldValue":"Cannabis","totalCount":1},{"fieldValue":"Card Games","totalCount":3},{"fieldValue":"Cars","totalCount":4},{"fieldValue":"Cats","totalCount":1},{"fieldValue":"Charity and Giving","totalCount":3},{"fieldValue":"Chrome Extensions","totalCount":100},{"fieldValue":"Coffee","totalCount":4},{"fieldValue":"Comics and Graphic Novels","totalCount":1},{"fieldValue":"Cooking","totalCount":5},{"fieldValue":"Cooking Books","totalCount":3},{"fieldValue":"Couples","totalCount":2},{"fieldValue":"Crafting games","totalCount":1},{"fieldValue":"Crowdfunding","totalCount":31},{"fieldValue":"Crypto","totalCount":69},{"fieldValue":"Custom iPhone Keyboards","totalCount":1},{"fieldValue":"Customer communication","totalCount":59},{"fieldValue":"DJing","totalCount":1},{"fieldValue":"Dating","totalCount":10},{"fieldValue":"Delivery","totalCount":5},{"fieldValue":"Design Books","totalCount":14},{"fieldValue":"Design Tools","totalCount":418},{"fieldValue":"Developer Tools","totalCount":554},{"fieldValue":"Diversity and Inclusion","totalCount":7},{"fieldValue":"Dogs","totalCount":3},{"fieldValue":"Drinking","totalCount":4},{"fieldValue":"Drones","totalCount":4},{"fieldValue":"Dropbox","totalCount":2},{"fieldValue":"E-Commerce","totalCount":76},{"fieldValue":"Education","totalCount":131},{"fieldValue":"Email","totalCount":50},{"fieldValue":"Email Marketing","totalCount":41},{"fieldValue":"Email Newsletters","totalCount":60},{"fieldValue":"Emoji","totalCount":7},{"fieldValue":"Events","totalCount":22},{"fieldValue":"Facebook","totalCount":9},{"fieldValue":"Facebook Messenger","totalCount":4},{"fieldValue":"Fashion","totalCount":8},{"fieldValue":"FemTech","totalCount":5},{"fieldValue":"Fintech","totalCount":130},{"fieldValue":"Firefox Extensions","totalCount":13},{"fieldValue":"Free Games","totalCount":11},{"fieldValue":"Freelance","totalCount":22},{"fieldValue":"FuckElon","totalCount":1},{"fieldValue":"Funny","totalCount":39},{"fieldValue":"Funny Games","totalCount":4},{"fieldValue":"GIFs","totalCount":4},{"fieldValue":"Games","totalCount":63},{"fieldValue":"GitHub","totalCount":66},{"fieldValue":"Google","totalCount":26},{"fieldValue":"Google Home","totalCount":1},{"fieldValue":"Green Tech","totalCount":15},{"fieldValue":"Growth Hacking","totalCount":73},{"fieldValue":"Growth Hacks ","totalCount":9},{"fieldValue":"Hardware","totalCount":17},{"fieldValue":"Health and Fitness","totalCount":112},{"fieldValue":"Hiring and Recruiting","totalCount":47},{"fieldValue":"Home","totalCount":21},{"fieldValue":"Icons","totalCount":19},{"fieldValue":"Indie Games","totalCount":12},{"fieldValue":"Instagram","totalCount":26},{"fieldValue":"Internet of Things","totalCount":32},{"fieldValue":"Investing","totalCount":50},{"fieldValue":"Kids","totalCount":12},{"fieldValue":"Kindle","totalCount":3},{"fieldValue":"Learn a Language","totalCount":21},{"fieldValue":"Legal","totalCount":12},{"fieldValue":"LinkedIn","totalCount":10},{"fieldValue":"Linux","totalCount":5},{"fieldValue":"Mac","totalCount":89},{"fieldValue":"Mac Menu Bar Apps","totalCount":28},{"fieldValue":"Maker Tools ","totalCount":37},{"fieldValue":"Maps","totalCount":16},{"fieldValue":"Marketing","totalCount":463},{"fieldValue":"Meditation","totalCount":12},{"fieldValue":"Medtech","totalCount":13},{"fieldValue":"Meetings","totalCount":45},{"fieldValue":"Messaging","totalCount":53},{"fieldValue":"Money ","totalCount":34},{"fieldValue":"Movies","totalCount":12},{"fieldValue":"Moving and Storage","totalCount":1},{"fieldValue":"Music","totalCount":46},{"fieldValue":"Netflix","totalCount":5},{"fieldValue":"News","totalCount":41},{"fieldValue":"No-Code","totalCount":81},{"fieldValue":"Nomad Lifestyle","totalCount":27},{"fieldValue":"Note","totalCount":23},{"fieldValue":"On-Demand","totalCount":5},{"fieldValue":"Open Source","totalCount":63},{"fieldValue":"Open World Games","totalCount":1},{"fieldValue":"Outdoors","totalCount":4},{"fieldValue":"PC","totalCount":4},{"fieldValue":"Parenting","totalCount":2},{"fieldValue":"Party","totalCount":5},{"fieldValue":"Payment","totalCount":34},{"fieldValue":"Pets","totalCount":4},{"fieldValue":"Photography","totalCount":38},{"fieldValue":"Photoshop","totalCount":6},{"fieldValue":"Politics","totalCount":7},{"fieldValue":"Privacy","totalCount":46},{"fieldValue":"Product Hunt","totalCount":20},{"fieldValue":"ProductHunt","totalCount":2888},{"fieldValue":"Productivity","totalCount":1111},{"fieldValue":"Prototyping","totalCount":29},{"fieldValue":"Public Relations","totalCount":3},{"fieldValue":"Puzzle Games","totalCount":6},{"fieldValue":"Quantified Self","totalCount":8},{"fieldValue":"Remote Work Tools","totalCount":99},{"fieldValue":"Robots","totalCount":4},{"fieldValue":"SEO Tools","totalCount":33},{"fieldValue":"SaaS","totalCount":280},{"fieldValue":"Safari Extensions","totalCount":4},{"fieldValue":"Sales","totalCount":72},{"fieldValue":"SaveAMC","totalCount":1},{"fieldValue":"Sci-fi Games","totalCount":1},{"fieldValue":"Science Books","totalCount":2},{"fieldValue":"Side Projects","totalCount":51},{"fieldValue":"Sketch","totalCount":8},{"fieldValue":"Slack","totalCount":35},{"fieldValue":"Snapchat","totalCount":1},{"fieldValue":"Soccer","totalCount":1},{"fieldValue":"Social Impact ","totalCount":20},{"fieldValue":"Social Media Tools","totalCount":189},{"fieldValue":"Software Engineering","totalCount":73},{"fieldValue":"SoundCloud","totalCount":2},{"fieldValue":"Space","totalCount":4},{"fieldValue":"Sports","totalCount":8},{"fieldValue":"Sports Games","totalCount":1},{"fieldValue":"Spotify","totalCount":9},{"fieldValue":"Spreadsheets","totalCount":15},{"fieldValue":"Squarespace","totalCount":1},{"fieldValue":"Standing Desks","totalCount":2},{"fieldValue":"Startup Books","totalCount":12},{"fieldValue":"Startup Lessons ","totalCount":24},{"fieldValue":"Strategy games","totalCount":4},{"fieldValue":"Surfing","totalCount":2},{"fieldValue":"TV","totalCount":7},{"fieldValue":"Tabletop Games","totalCount":1},{"fieldValue":"Task Management","totalCount":76},{"fieldValue":"Tech","totalCount":865},{"fieldValue":"Telegram","totalCount":3},{"fieldValue":"Text Editors","totalCount":13},{"fieldValue":"Time Tracking","totalCount":18},{"fieldValue":"Transportation","totalCount":1},{"fieldValue":"Travel","totalCount":41},{"fieldValue":"Twitter","totalCount":32},{"fieldValue":"Typography","totalCount":4},{"fieldValue":"User Experience","totalCount":293},{"fieldValue":"Venture Capital","totalCount":23},{"fieldValue":"Video Streaming","totalCount":62},{"fieldValue":"Virtual Assistants","totalCount":11},{"fieldValue":"Virtual Reality","totalCount":10},{"fieldValue":"Wallpaper","totalCount":2},{"fieldValue":"Wearables","totalCount":9},{"fieldValue":"Weather Apps","totalCount":2},{"fieldValue":"Web App","totalCount":344},{"fieldValue":"Windows","totalCount":18},{"fieldValue":"Wine","totalCount":1},{"fieldValue":"Word Games","totalCount":1},{"fieldValue":"WordPress","totalCount":15},{"fieldValue":"Work In Progress ","totalCount":4},{"fieldValue":"Writing Tools","totalCount":65},{"fieldValue":"YouTube","totalCount":13},{"fieldValue":"bitcoin","totalCount":3},{"fieldValue":"iMessage Apps","totalCount":2},{"fieldValue":"iPad","totalCount":37},{"fieldValue":"iPhone","totalCount":350},{"fieldValue":"reddit","totalCount":4},{"fieldValue":"science","totalCount":1},{"fieldValue":"tweet","totalCount":1324}]},"allBlogPost":{"nodes":[{"id":"TweetPost-1330977567097167872","excerpt":"","slug":"/tweet/1330977567097167872","title":"80% of U.S. wealth is held by people 60 and over\n\nChart from BofA https://t.co/Tc4l4BE1Me","date":"November 23, 2020","dateISO":"2020-11-23T20:52:35.000Z","datetime":"2020-11-23 20:52","tags":["tweet"],"image":null,"imageAlt":"Tweet Image","__typename":"SocialMediaPost","provider":"Twitter","thirdPartyId":"1330977567097167872","url":"https://twitter.com/michaelbatnick/statuses/1330977567097167872","originalUrl":null,"imageRemote":"https://pbs.twimg.com/media/EniTnY2WMAATbU9.jpg","video":null,"channel":null,"channelUrl":null,"author":"Michael Batnick","authorUrl":"https://twitter.com/michaelbatnick","authorImage":null,"authorSlug":"michaelbatnick","score":1997,"views":null,"sharedCount":366,"likeCount":1265,"sharedContent":null,"parent":{"localize":[{"locale":"zh","full_text":"美国80%的财富由60岁及以上的人持有\n\n来自美国银行https://t.co/Tc4l4BE1Me的图表","quoted_status_full_text":null,"retweeted_status_full_text":null},{"locale":"zh-Hant","full_text":"美國80%的財富由60歲及以上的人持有\n\n來自美國銀行https://t.co/Tc4l4BE1Me的圖表","quoted_status_full_text":null,"retweeted_status_full_text":null}]}},{"id":"TweetPost-1330907072712552455","excerpt":"","slug":"/tweet/1330907072712552455","title":"At $492 billion, Tesla's market cap is now higher than the market cap of...\nGM\nFord\nFiat Chrysler\nHonda\nHyundai\nDaimler\nFerrari\nBMW\n&amp; Volkswagen....\nCombined.\n\n$TSLA\n\nData via @ycharts https://t.co/zEOzwS160r","date":"November 23, 2020","dateISO":"2020-11-23T16:12:27.000Z","datetime":"2020-11-23 16:12","tags":["tweet"],"image":null,"imageAlt":"Tweet Image","__typename":"SocialMediaPost","provider":"Twitter","thirdPartyId":"1330907072712552455","url":"https://twitter.com/charliebilello/statuses/1330907072712552455","originalUrl":null,"imageRemote":"https://pbs.twimg.com/media/EnhUnKjXMAU0sWu.png","video":null,"channel":null,"channelUrl":null,"author":"Charlie Bilello","authorUrl":"https://twitter.com/charliebilello","authorImage":null,"authorSlug":"charliebilello","score":1604,"views":null,"sharedCount":297,"likeCount":1010,"sharedContent":null,"parent":{"localize":[{"locale":"zh","full_text":"特斯拉目前的市值为4920亿美元，高于.\n通用汽车\n福特\n菲亚特克莱斯勒\n本田\n现代汽车(Hyundai)\n戴姆勒\n法拉利\n宝马\n&amp；大众.\n加在一起。\n\n$TSLA\n\n通过@ycharts https://t.co/zEOzwS160r提供的数据","quoted_status_full_text":null,"retweeted_status_full_text":null},{"locale":"zh-Hant","full_text":"特斯拉目前的市值爲4920億美元，高於.\n通用汽車\n福特\n菲亞特克萊斯勒\n本田\n現代汽車(Hyundai)\n戴姆勒\n法拉利\n寶馬\n&amp；大衆.\n加在一起。\n\n$TSLA\n\n通過@ycharts https://t.co/zEOzwS160r提供的數據","quoted_status_full_text":null,"retweeted_status_full_text":null}]}},{"id":"TweetPost-1329795590373445633","excerpt":"","slug":"/tweet/1329795590373445633","title":"New Post:\n\nBitcoin, Bubbles, and Belief...\n\nhttps://t.co/XQ7kfnOh0V https://t.co/zt0707HfPQ","date":"November 20, 2020","dateISO":"2020-11-20T14:35:49.000Z","datetime":"2020-11-20 14:35","tags":["tweet"],"image":null,"imageAlt":"Tweet Image","__typename":"SocialMediaPost","provider":"Twitter","thirdPartyId":"1329795590373445633","url":"https://twitter.com/charliebilello/statuses/1329795590373445633","originalUrl":null,"imageRemote":"https://pbs.twimg.com/media/EnRh03MW4AAHrCe.png","video":null,"channel":null,"channelUrl":null,"author":"Charlie Bilello","authorUrl":"https://twitter.com/charliebilello","authorImage":null,"authorSlug":"charliebilello","score":438,"views":null,"sharedCount":67,"likeCount":304,"sharedContent":null,"parent":{"localize":[{"locale":"zh","full_text":"新帖子：\n\n比特币、泡沫和信仰。\n\nhttps://t.co/XQ7kfnOh0V https://t.co/zt0707HfPQ","quoted_status_full_text":null,"retweeted_status_full_text":null},{"locale":"zh-Hant","full_text":"新帖子：\n\n比特幣、泡沫和信仰。\n\nhttps://t.co/XQ7kfnOh0V https://t.co/zt0707HfPQ","quoted_status_full_text":null,"retweeted_status_full_text":null}]}},{"id":"TweetPost-1329779480945111041","excerpt":"","slug":"/tweet/1329779480945111041","title":"30-Year Mortgage Rate in the US moves down to 2.72%, another all-time low. How much longer before you get paid to borrow money? https://t.co/hkC8tYD42G","date":"November 20, 2020","dateISO":"2020-11-20T13:31:49.000Z","datetime":"2020-11-20 13:31","tags":["tweet"],"image":null,"imageAlt":"Tweet Image","__typename":"SocialMediaPost","provider":"Twitter","thirdPartyId":"1329779480945111041","url":"https://twitter.com/charliebilello/statuses/1329779480945111041","originalUrl":null,"imageRemote":"https://pbs.twimg.com/media/EnRTBkyWMAEh1RB.png","video":null,"channel":null,"channelUrl":null,"author":"Charlie Bilello","authorUrl":"https://twitter.com/charliebilello","authorImage":null,"authorSlug":"charliebilello","score":478,"views":null,"sharedCount":81,"likeCount":316,"sharedContent":null,"parent":{"localize":[{"locale":"zh","full_text":"美国30年期抵押贷款利率降至2.72%，再创历史新低。你还要多久才能拿到借钱的钱？https://t.co/hkC8tYD42G","quoted_status_full_text":null,"retweeted_status_full_text":null},{"locale":"zh-Hant","full_text":"美國30年期抵押貸款利率降至2.72%，再創歷史新低。你還要多久才能拿到借錢的錢？https://t.co/hkC8tYD42G","quoted_status_full_text":null,"retweeted_status_full_text":null}]}},{"id":"TweetPost-1329467223585529856","excerpt":"","slug":"/tweet/1329467223585529856","title":"Price to Earnings Ratios...\n\nTesla: 1006x\nAmazon: 91x\nNetflix: 78x\nApple: 36x\nMicrosoft: 34x\nGoogle: 34x\nFacebook: 31x\n\nPrice to Sales Ratios...\n\nTesla: 18x\nMicrosoft: 11x\nFacebook: 10x\nNetflix: 9x\nApple: 8x\nGoogle: 7x\nAmazon: 5x\n\nData via @ycharts","date":"November 19, 2020","dateISO":"2020-11-19T16:51:01.000Z","datetime":"2020-11-19 16:51","tags":["tweet"],"image":null,"imageAlt":null,"__typename":"SocialMediaPost","provider":"Twitter","thirdPartyId":"1329467223585529856","url":"https://twitter.com/charliebilello/statuses/1329467223585529856","originalUrl":null,"imageRemote":null,"video":null,"channel":null,"channelUrl":null,"author":"Charlie Bilello","authorUrl":"https://twitter.com/charliebilello","authorImage":null,"authorSlug":"charliebilello","score":1768,"views":null,"sharedCount":281,"likeCount":1206,"sharedContent":null,"parent":{"localize":[{"locale":"zh","full_text":"市盈率.\n\n特斯拉：1006x\n亚马逊：91X\nNetflix：78x\n苹果：36倍\n微软：34倍\n谷歌：34倍\nFacebook：31x\n\n价格销售比..。\n\n特斯拉：18倍\n微软：11x\nFacebook：10倍\nNetflix：9X\n苹果：8倍\n谷歌：7倍\n亚马逊：5X\n\n通过@YCharts提供的数据","quoted_status_full_text":null,"retweeted_status_full_text":null},{"locale":"zh-Hant","full_text":"市盈率.\n\n特斯拉：1006x\n亞馬遜：91X\nNetflix：78x\n蘋果：36倍\n微軟：34倍\n谷歌：34倍\nFacebook：31x\n\n價格銷售比..。\n\n特斯拉：18倍\n微軟：11x\nFacebook：10倍\nNetflix：9X\n蘋果：8倍\n谷歌：7倍\n亞馬遜：5X\n\n通過@YCharts提供的數據","quoted_status_full_text":null,"retweeted_status_full_text":null}]}},{"id":"TweetPost-1329465858071154688","excerpt":"","slug":"/tweet/1329465858071154688","title":"Tesla has the 7th largest market cap of any company in the United States. \n\nIt's bigger than Philip Morris, Starbucks, Boeing, and Citigroup combined. https://t.co/qE1Av7nokU","date":"November 19, 2020","dateISO":"2020-11-19T16:45:35.000Z","datetime":"2020-11-19 16:45","tags":["tweet"],"image":null,"imageAlt":"Tweet Image","__typename":"SocialMediaPost","provider":"Twitter","thirdPartyId":"1329465858071154688","url":"https://twitter.com/michaelbatnick/statuses/1329465858071154688","originalUrl":null,"imageRemote":"https://pbs.twimg.com/media/EnM2H-mWMAAthpk.jpg","video":null,"channel":null,"channelUrl":null,"author":"Michael Batnick","authorUrl":"https://twitter.com/michaelbatnick","authorImage":null,"authorSlug":"michaelbatnick","score":652,"views":null,"sharedCount":93,"likeCount":466,"sharedContent":null,"parent":{"localize":[{"locale":"zh","full_text":"特斯拉的市值在美国所有公司中排名第七。\n\n它比菲利普莫里斯、星巴克、波音和花旗集团加起来还要大。https://t.co/qE1Av7nokU","quoted_status_full_text":null,"retweeted_status_full_text":null},{"locale":"zh-Hant","full_text":"特斯拉的市值在美國所有公司中排名第七。\n\n它比菲利普莫里斯、星巴克、波音和花旗集團加起來還要大。https://t.co/qE1Av7nokU","quoted_status_full_text":null,"retweeted_status_full_text":null}]}},{"id":"TweetPost-1329465642907480067","excerpt":"","slug":"/tweet/1329465642907480067","title":"Tesla's market cap has increased 640% in the last year.\n\nTesla's sales are up 15% over the last year.\n\n$TSLA\n\nData via @ycharts","date":"November 19, 2020","dateISO":"2020-11-19T16:44:44.000Z","datetime":"2020-11-19 16:44","tags":["tweet"],"image":null,"imageAlt":null,"__typename":"SocialMediaPost","provider":"Twitter","thirdPartyId":"1329465642907480067","url":"https://twitter.com/charliebilello/statuses/1329465642907480067","originalUrl":null,"imageRemote":null,"video":null,"channel":null,"channelUrl":null,"author":"Charlie Bilello","authorUrl":"https://twitter.com/charliebilello","authorImage":null,"authorSlug":"charliebilello","score":752,"views":null,"sharedCount":85,"likeCount":582,"sharedContent":null,"parent":{"localize":[{"locale":"zh","full_text":"去年，特斯拉的市值增长了640%。\n\n特斯拉的销量比去年增长了15%。\n\n$TSLA\n\n通过@YCharts提供的数据","quoted_status_full_text":null,"retweeted_status_full_text":null},{"locale":"zh-Hant","full_text":"去年，特斯拉的市值增長了640%。\n\n特斯拉的銷量比去年增長了15%。\n\n$TSLA\n\n通過@YCharts提供的數據","quoted_status_full_text":null,"retweeted_status_full_text":null}]}},{"id":"TweetPost-1329464642134028288","excerpt":"","slug":"/tweet/1329464642134028288","title":"Tesla's market cap is now $50 billion higher than Walmart.\n\nSales...\nTesla: $28 billion\nWalmart: $549 billion\n\nNet Income...\nTesla: $556 million\nWalmart: $20 billion\n\n$TSLA $WMT\n\nChart/Data via @ycharts https://t.co/ajSyGIsrOs","date":"November 19, 2020","dateISO":"2020-11-19T16:40:45.000Z","datetime":"2020-11-19 16:40","tags":["tweet"],"image":null,"imageAlt":"Tweet Image","__typename":"SocialMediaPost","provider":"Twitter","thirdPartyId":"1329464642134028288","url":"https://twitter.com/charliebilello/statuses/1329464642134028288","originalUrl":null,"imageRemote":"https://pbs.twimg.com/media/EnM08YaXEAEekEk.png","video":null,"channel":null,"channelUrl":null,"author":"Charlie Bilello","authorUrl":"https://twitter.com/charliebilello","authorImage":null,"authorSlug":"charliebilello","score":1805,"views":null,"sharedCount":293,"likeCount":1219,"sharedContent":null,"parent":{"localize":[{"locale":"zh","full_text":"特斯拉的市值现在比沃尔玛高出500亿美元。\n\n销售量..。\n特斯拉：280亿美元\n沃尔玛：5490亿美元\n\n净收入.\n特斯拉：5.56亿美元\n沃尔玛：200亿美元\n\n$TSLA$WMT\n\n通过@ycharts https://t.co/ajSyGIsrOs查看图表/数据","quoted_status_full_text":null,"retweeted_status_full_text":null},{"locale":"zh-Hant","full_text":"特斯拉的市值現在比沃爾瑪高出500億美元。\n\n銷售量..。\n特斯拉：280億美元\n沃爾瑪：5490億美元\n\n淨收入.\n特斯拉：5.56億美元\n沃爾瑪：200億美元\n\n$TSLA$WMT\n\n通過@ycharts https://t.co/ajSyGIsrOs查看圖表/數據","quoted_status_full_text":null,"retweeted_status_full_text":null}]}},{"id":"TweetPost-1328881123754201090","excerpt":"","slug":"/tweet/1328881123754201090","title":"Are you kidding me? https://t.co/uTBhmrzODU","date":"November 18, 2020","dateISO":"2020-11-18T02:02:03.000Z","datetime":"2020-11-18 02:02","tags":["tweet"],"image":null,"imageAlt":"Tweet Image","__typename":"SocialMediaPost","provider":"Twitter","thirdPartyId":"1328881123754201090","url":"https://twitter.com/michaelbatnick/statuses/1328881123754201090","originalUrl":null,"imageRemote":"https://pbs.twimg.com/media/EnEiRkAWMAc_S9n.jpg","video":null,"channel":null,"channelUrl":null,"author":"Michael Batnick","authorUrl":"https://twitter.com/michaelbatnick","authorImage":null,"authorSlug":"michaelbatnick","score":896,"views":null,"sharedCount":64,"likeCount":768,"sharedContent":null,"parent":{"localize":[{"locale":"zh","full_text":"你在开我的玩笑吗？https://t.co/uTBhmrzODU","quoted_status_full_text":null,"retweeted_status_full_text":null},{"locale":"zh-Hant","full_text":"你在開我的玩笑嗎？https://t.co/uTBhmrzODU","quoted_status_full_text":null,"retweeted_status_full_text":null}]}},{"id":"TweetPost-1328472534178738182","excerpt":"","slug":"/tweet/1328472534178738182","title":"Wut https://t.co/WSn3u179pS","date":"November 16, 2020","dateISO":"2020-11-16T22:58:28.000Z","datetime":"2020-11-16 22:58","tags":["tweet"],"image":null,"imageAlt":"Tweet Image","__typename":"SocialMediaPost","provider":"Twitter","thirdPartyId":"1328472534178738182","url":"https://twitter.com/michaelbatnick/statuses/1328472534178738182","originalUrl":null,"imageRemote":"https://pbs.twimg.com/media/Em-uWtoWMAIXCFz.jpg","video":null,"channel":null,"channelUrl":null,"author":"Michael Batnick","authorUrl":"https://twitter.com/michaelbatnick","authorImage":null,"authorSlug":"michaelbatnick","score":581,"views":null,"sharedCount":15,"likeCount":551,"sharedContent":null,"parent":{"localize":[{"locale":"zh","full_text":"WUT https://t.co/WSn3u179pS","quoted_status_full_text":null,"retweeted_status_full_text":null},{"locale":"zh-Hant","full_text":"WUT https://t.co/WSn3u179pS","quoted_status_full_text":null,"retweeted_status_full_text":null}]}},{"id":"TweetPost-1327597383472046081","excerpt":"","slug":"/tweet/1327597383472046081","title":"How I Invest My Money\n\nhttps://t.co/fVv7VyvMly","date":"November 14, 2020","dateISO":"2020-11-14T13:00:56.000Z","datetime":"2020-11-14 13:00","tags":["tweet"],"image":null,"imageAlt":null,"__typename":"SocialMediaPost","provider":"Twitter","thirdPartyId":"1327597383472046081","url":"https://twitter.com/michaelbatnick/statuses/1327597383472046081","originalUrl":null,"imageRemote":null,"video":null,"channel":null,"channelUrl":null,"author":"Michael Batnick","authorUrl":"https://twitter.com/michaelbatnick","authorImage":null,"authorSlug":"michaelbatnick","score":438,"views":null,"sharedCount":26,"likeCount":386,"sharedContent":null,"parent":{"localize":[{"locale":"zh","full_text":"我如何投资我的钱\n\nhttps://t.co/fVv7VyvMly","quoted_status_full_text":null,"retweeted_status_full_text":null},{"locale":"zh-Hant","full_text":"我如何投資我的錢\n\nhttps://t.co/fVv7VyvMly","quoted_status_full_text":null,"retweeted_status_full_text":null}]}},{"id":"TweetPost-1325792060566286337","excerpt":"","slug":"/tweet/1325792060566286337","title":"Leisure and hospitality stocks are gonna go nuts.\n\nFour seasons total landscaping  upgraded to five seasons. +15% pre market.","date":"November 09, 2020","dateISO":"2020-11-09T13:27:13.000Z","datetime":"2020-11-09 13:27","tags":["tweet"],"image":null,"imageAlt":null,"__typename":"SocialMediaPost","provider":"Twitter","thirdPartyId":"1325792060566286337","url":"https://twitter.com/michaelbatnick/statuses/1325792060566286337","originalUrl":null,"imageRemote":null,"video":null,"channel":null,"channelUrl":null,"author":"Michael Batnick","authorUrl":"https://twitter.com/michaelbatnick","authorImage":null,"authorSlug":"michaelbatnick","score":1044,"views":null,"sharedCount":40,"likeCount":964,"sharedContent":null,"parent":{"localize":[{"locale":"zh","full_text":"休闲和酒店类股要疯了。\n\n四季总园林绿化升级为五季。上市前+15%。","quoted_status_full_text":null,"retweeted_status_full_text":null},{"locale":"zh-Hant","full_text":"休閒和酒店類股要瘋了。\n\n四季總園林綠化升級爲五季。上市前+15%。","quoted_status_full_text":null,"retweeted_status_full_text":null}]}}]}},"pageContext":{"basePath":"/","pageType":"home","tagsFilter":{"date":{"gt":"2000-12-25T10:54:58.000Z"}},"filter":{"date":{"gt":"2000-12-25T10:54:58.000Z"}},"limit":25,"skip":4200,"totalPages":169,"total":4212,"currentPage":169,"maxWidth":1024,"maxHeight":512,"locale":"zh-Hant","hrefLang":"zh-Hant","originalPath":"/page/169","dateFormat":"YYYY-MM-DD"}},"staticQueryHashes":["1239077767","2506312863","2744905544","3025052997","3280999885","3948070931","68699025"]}