{"componentChunkName":"component---gatsby-theme-buzzing-src-gatsby-theme-timeline-templates-posts-query-js","path":"/zh-Hant/tags/story/page/48","result":{"data":{"site":{"siteMetadata":{"title":"Reddit 热门","description":"用中文浏览Reddit热门内容","social":[{"name":"Twitter","url":"https://twitter.com/gatsbyjs","external":null,"prefetch":null},{"name":"GitHub","url":"https://github.com/gatsbyjs","external":null,"prefetch":null}],"menuLinks":[],"localize":[{"locale":"en","title":"Buzzing on Reddit","description":"See what's buzzing on Reddit in your native language","social":[{"name":"Reddit","url":"https://www.reddit.com/","external":true,"prefetch":null}],"menuLinks":[{"name":"Weekly Selection","url":"/issues","external":null,"prefetch":null},{"name":"RSS","url":"/rss.xml","external":null,"prefetch":false}]},{"locale":"zh-Hant","title":"Reddit 熱門","description":"用中文瀏覽Reddit熱門內容","social":null,"menuLinks":null}]}},"tagsGroup":{"group":[{"fieldValue":"ASK HN","totalCount":44},{"fieldValue":"Bitcoin","totalCount":4},{"fieldValue":"Hacker News","totalCount":2600},{"fieldValue":"Poll","totalCount":1},{"fieldValue":"SaveAMC","totalCount":1},{"fieldValue":"Show HN","totalCount":89},{"fieldValue":"bitcoin","totalCount":3},{"fieldValue":"investing","totalCount":797},{"fieldValue":"poll","totalCount":1},{"fieldValue":"reddit","totalCount":4938},{"fieldValue":"science","totalCount":1},{"fieldValue":"stocks","totalCount":1592},{"fieldValue":"story","totalCount":2599},{"fieldValue":"tweet","totalCount":814},{"fieldValue":"wallstreetbets","totalCount":2549}]},"allBlogPost":{"nodes":[{"__typename":"SocialMediaPost","id":"HnPost-25992390","excerpt":"","slug":"/hn/25992390","title":"Me and ADHD","date":"February 02, 2021","dateISO":"2021-02-02T02:17:09.528Z","datetime":"2021-02-02 02:17","tags":["story","Hacker News"],"image":null,"imageAlt":null,"provider":"Hacker News","thirdPartyId":"25992390","url":"https://news.ycombinator.com/item?id=25992390","originalUrl":"https://www.linkedin.com/pulse/adhd-me-ish-verduzco/","imageRemote":"https://media-exp1.licdn.com/dms/image/C5612AQFpIWWKSwdm0Q/article-cover_image-shrink_720_1280/0/1607560663284?e=1617840000&v=beta&t=QitL8OY7apTowftZ7Qc7V_No0k-iK45yqOGmHMBms6I","video":null,"channel":null,"channelUrl":null,"author":"rbanffy","authorUrl":"https://news.ycombinator.com/user?id=rbanffy","authorImage":null,"authorSlug":null,"score":274,"views":null,"sharedCount":null,"likeCount":null,"sharedContent":null,"parent":{"__typename":"HnJson","localize":[{"title":"我和多动症","locale":"zh"},{"title":"我和多動症","locale":"zh-Hant"}]}},{"__typename":"SocialMediaPost","id":"HnPost-25989532","excerpt":"","slug":"/hn/25989532","title":"The Focus to Say No (2011)","date":"February 01, 2021","dateISO":"2021-02-01T22:30:41.094Z","datetime":"2021-02-01 22:30","tags":["story","Hacker News"],"image":null,"imageAlt":null,"provider":"Hacker News","thirdPartyId":"25989532","url":"https://news.ycombinator.com/item?id=25989532","originalUrl":"https://fs.blog/2011/09/steve-jobs-saying-no/","imageRemote":"https://149366099.v2.pressablecdn.com/wp-content/uploads/2011/09/Steve-Jobs-on-Focus.png","video":null,"channel":null,"channelUrl":null,"author":"7d7n","authorUrl":"https://news.ycombinator.com/user?id=7d7n","authorImage":null,"authorSlug":null,"score":196,"views":null,"sharedCount":null,"likeCount":null,"sharedContent":null,"parent":{"__typename":"HnJson","localize":[{"title":"说 \"不 \"的焦点 (2011)","locale":"zh"},{"title":"說 \"不 \"的焦點 (2011)","locale":"zh-Hant"}]}},{"__typename":"SocialMediaPost","id":"HnPost-25991485","excerpt":"","slug":"/hn/25991485","title":"Launch HN: Opstrace (YC S19) – open-source Datadog","date":"February 01, 2021","dateISO":"2021-02-01T22:30:41.094Z","datetime":"2021-02-01 22:30","tags":["story","Hacker News"],"image":null,"imageAlt":null,"provider":"Hacker News","thirdPartyId":"25991485","url":"https://news.ycombinator.com/item?id=25991485","originalUrl":"https://news.ycombinator.com/item?id=25991485","imageRemote":null,"video":null,"channel":null,"channelUrl":null,"author":"spahl","authorUrl":"https://news.ycombinator.com/user?id=spahl","authorImage":null,"authorSlug":null,"score":311,"views":null,"sharedCount":null,"likeCount":null,"sharedContent":null,"parent":{"__typename":"HnJson","localize":[{"title":"推出HN：Opstrace (YC S19)--开源Datadog。","locale":"zh"},{"title":"推出HN：Opstrace (YC S19)--開源Datadog。","locale":"zh-Hant"}]}},{"__typename":"SocialMediaPost","id":"HnPost-25992664","excerpt":"","slug":"/hn/25992664","title":"Google Stadia shuts down internal studios, changing business focus","date":"February 01, 2021","dateISO":"2021-02-01T21:52:16.564Z","datetime":"2021-02-01 21:52","tags":["story","Hacker News"],"image":null,"imageAlt":null,"provider":"Hacker News","thirdPartyId":"25992664","url":"https://news.ycombinator.com/item?id=25992664","originalUrl":"https://kotaku.com/google-stadia-shuts-down-internal-studios-changing-bus-1846146761","imageRemote":"https://i.kinja-img.com/gawker-media/image/upload/c_fill,f_auto,fl_progressive,g_center,h_675,pg_1,q_80,w_1200/mbzutcwxko5svfxpfq9r.png","video":null,"channel":null,"channelUrl":null,"author":"danso","authorUrl":"https://news.ycombinator.com/user?id=danso","authorImage":null,"authorSlug":null,"score":654,"views":null,"sharedCount":null,"likeCount":null,"sharedContent":null,"parent":{"__typename":"HnJson","localize":[{"title":"谷歌Stadia关闭内部工作室，改变业务重点。","locale":"zh"},{"title":"谷歌Stadia關閉內部工作室，改變業務重點。","locale":"zh-Hant"}]}},{"__typename":"SocialMediaPost","id":"HnPost-25979941","excerpt":"","slug":"/hn/25979941","title":"Launch HN: LayerCI (YC S20) - Staging servers that act like (and replace) CI","date":"February 01, 2021","dateISO":"2021-02-01T21:24:15.612Z","datetime":"2021-02-01 21:24","tags":["story","Hacker News"],"image":null,"imageAlt":null,"provider":"Hacker News","thirdPartyId":"25979941","url":"https://news.ycombinator.com/item?id=25979941","originalUrl":"https://news.ycombinator.com/item?id=25979941","imageRemote":null,"video":null,"channel":null,"channelUrl":null,"author":"colinchartier","authorUrl":"https://news.ycombinator.com/user?id=colinchartier","authorImage":null,"authorSlug":null,"score":174,"views":null,"sharedCount":null,"likeCount":null,"sharedContent":null,"parent":{"__typename":"HnJson","localize":[{"title":"启动HN：LayerCI(YC S20)--类似(并取代)CI的中转服务器。","locale":"zh"},{"title":"啓動HN：LayerCI(YC S20)--類似(並取代)CI的中轉服務器。","locale":"zh-Hant"}]}},{"__typename":"SocialMediaPost","id":"HnPost-25990702","excerpt":"","slug":"/hn/25990702","title":"FastAPI framework, high perf, easy to learn, fast to code, ready for production","date":"February 01, 2021","dateISO":"2021-02-01T20:53:03.370Z","datetime":"2021-02-01 20:53","tags":["story","Hacker News"],"image":null,"imageAlt":null,"provider":"Hacker News","thirdPartyId":"25990702","url":"https://news.ycombinator.com/item?id=25990702","originalUrl":"https://fastapi.tiangolo.com/","imageRemote":"https://fastapi.tiangolo.com/img/logo-margin/logo-teal.png","video":null,"channel":null,"channelUrl":null,"author":"homarp","authorUrl":"https://news.ycombinator.com/user?id=homarp","authorImage":null,"authorSlug":null,"score":506,"views":null,"sharedCount":null,"likeCount":null,"sharedContent":null,"parent":{"__typename":"HnJson","localize":[{"title":"FastAPI框架，高精尖，易学易用，快速编码，可用于生产","locale":"zh"},{"title":"FastAPI框架，高精尖，易學易用，快速編碼，可用於生產","locale":"zh-Hant"}]}},{"__typename":"SocialMediaPost","id":"HnPost-25991784","excerpt":"","slug":"/hn/25991784","title":"Drug decriminalization in Oregon begins today","date":"February 01, 2021","dateISO":"2021-02-01T20:34:47.987Z","datetime":"2021-02-01 20:34","tags":["story","Hacker News"],"image":null,"imageAlt":null,"provider":"Hacker News","thirdPartyId":"25991784","url":"https://news.ycombinator.com/item?id=25991784","originalUrl":"https://drugpolicy.org/press-release/2021/02/drug-decriminalization-oregon-officially-begins-today","imageRemote":"https://drugpolicy.org/sites/default/files/2017-09/no-more-drug-war-share-graphic.png","video":null,"channel":null,"channelUrl":null,"author":"undefined1","authorUrl":"https://news.ycombinator.com/user?id=undefined1","authorImage":null,"authorSlug":null,"score":253,"views":null,"sharedCount":null,"likeCount":null,"sharedContent":null,"parent":{"__typename":"HnJson","localize":[{"title":"俄勒冈州毒品非刑罪化今天开始实施","locale":"zh"},{"title":"俄勒岡州毒品非刑罪化今天開始實施","locale":"zh-Hant"}]}},{"__typename":"SocialMediaPost","id":"HnPost-25992735","excerpt":"","slug":"/hn/25992735","title":"VideoLAN is 20 years old today","date":"February 01, 2021","dateISO":"2021-02-01T20:34:47.987Z","datetime":"2021-02-01 20:34","tags":["story","Hacker News"],"image":null,"imageAlt":null,"provider":"Hacker News","thirdPartyId":"25992735","url":"https://news.ycombinator.com/item?id=25992735","originalUrl":"https://www.videolan.org/press/videolan-20.html","imageRemote":"https://images.videolan.org/images/logoOrange.png","video":null,"channel":null,"channelUrl":null,"author":"jbk","authorUrl":"https://news.ycombinator.com/user?id=jbk","authorImage":null,"authorSlug":null,"score":1331,"views":null,"sharedCount":null,"likeCount":null,"sharedContent":null,"parent":{"__typename":"HnJson","localize":[{"title":"VideoLAN今天已经20岁了","locale":"zh"},{"title":"VideoLAN今天已經20歲了","locale":"zh-Hant"}]}},{"__typename":"SocialMediaPost","id":"HnPost-25989764","excerpt":"","slug":"/hn/25989764","title":"Ask HN: Who is hiring? (February 2021)","date":"February 01, 2021","dateISO":"2021-02-01T19:54:57.725Z","datetime":"2021-02-01 19:54","tags":["story","ASK HN","Hacker News"],"image":null,"imageAlt":null,"provider":"Hacker News","thirdPartyId":"25989764","url":"https://news.ycombinator.com/item?id=25989764","originalUrl":"https://news.ycombinator.com/item?id=25989764","imageRemote":null,"video":null,"channel":"ASK HN","channelUrl":"https://news.ycombinator.com/ask","author":"whoishiring","authorUrl":"https://news.ycombinator.com/user?id=whoishiring","authorImage":null,"authorSlug":null,"score":455,"views":null,"sharedCount":null,"likeCount":null,"sharedContent":null,"parent":{"__typename":"HnJson","localize":[{"title":"问HN：谁在招聘？(2021年2月)","locale":"zh"},{"title":"問HN：誰在招聘？(2021年2月)","locale":"zh-Hant"}]}},{"__typename":"SocialMediaPost","id":"HnPost-25989698","excerpt":"","slug":"/hn/25989698","title":"Solid Project: All of your data, under your control","date":"February 01, 2021","dateISO":"2021-02-01T19:38:55.090Z","datetime":"2021-02-01 19:38","tags":["story","Hacker News"],"image":null,"imageAlt":null,"provider":"Hacker News","thirdPartyId":"25989698","url":"https://news.ycombinator.com/item?id=25989698","originalUrl":"https://solidproject.org/","imageRemote":"https://solidproject.org/assets/img/solid-emblem.svg","video":null,"channel":null,"channelUrl":null,"author":"gibsonf1","authorUrl":"https://news.ycombinator.com/user?id=gibsonf1","authorImage":null,"authorSlug":null,"score":348,"views":null,"sharedCount":null,"likeCount":null,"sharedContent":null,"parent":{"__typename":"HnJson","localize":[{"title":"坚实的项目。你的所有数据，在你的控制之下","locale":"zh"},{"title":"堅實的項目。你的所有數據，在你的控制之下","locale":"zh-Hant"}]}},{"__typename":"SocialMediaPost","id":"HnPost-25989010","excerpt":"","slug":"/hn/25989010","title":"My Third Year as a Solo Developer","date":"February 01, 2021","dateISO":"2021-02-01T19:13:24.398Z","datetime":"2021-02-01 19:13","tags":["story","Hacker News"],"image":null,"imageAlt":null,"provider":"Hacker News","thirdPartyId":"25989010","url":"https://news.ycombinator.com/item?id=25989010","originalUrl":"https://mtlynch.io/solo-developer-year-3/","imageRemote":"https://mtlynch.io/solo-developer-year-3/og-cover.jpg","video":null,"channel":null,"channelUrl":null,"author":"mtlynch","authorUrl":"https://news.ycombinator.com/user?id=mtlynch","authorImage":null,"authorSlug":null,"score":384,"views":null,"sharedCount":null,"likeCount":null,"sharedContent":null,"parent":{"__typename":"HnJson","localize":[{"title":"我作为一个独立开发者的第三年","locale":"zh"},{"title":"我作爲一個獨立開發者的第三年","locale":"zh-Hant"}]}},{"__typename":"SocialMediaPost","id":"HnPost-25990238","excerpt":"","slug":"/hn/25990238","title":"FB testing screen to encourage users to accept active tracking","date":"February 01, 2021","dateISO":"2021-02-01T18:10:31.203Z","datetime":"2021-02-01 18:10","tags":["story","Hacker News"],"image":null,"imageAlt":null,"provider":"Hacker News","thirdPartyId":"25990238","url":"https://news.ycombinator.com/item?id=25990238","originalUrl":"https://www.axios.com/facebook-notification-apple-privacy-changes-39092ba5-25e4-4e83-87ff-81967733f919.html","imageRemote":"https://images.axios.com/YiBRRZqvhu9jZQe2hzYq5QWJZgo=/0x65:3718x2156/1366x768/2021/02/01/1612190823116.png","video":null,"channel":null,"channelUrl":null,"author":"asimpletune","authorUrl":"https://news.ycombinator.com/user?id=asimpletune","authorImage":null,"authorSlug":null,"score":445,"views":null,"sharedCount":null,"likeCount":null,"sharedContent":null,"parent":{"__typename":"HnJson","localize":[{"title":"FB测试画面鼓励用户接受主动追踪","locale":"zh"},{"title":"FB測試畫面鼓勵用戶接受主動追蹤","locale":"zh-Hant"}]}},{"__typename":"SocialMediaPost","id":"HnPost-25979436","excerpt":"","slug":"/hn/25979436","title":"Rome in 3D","date":"February 01, 2021","dateISO":"2021-02-01T17:33:49.937Z","datetime":"2021-02-01 17:33","tags":["story","Hacker News"],"image":null,"imageAlt":null,"provider":"Hacker News","thirdPartyId":"25979436","url":"https://news.ycombinator.com/item?id=25979436","originalUrl":"https://relivehistoryin3d.com/projects/rome-in-3d/","imageRemote":"https://relivehistoryin3d.com/wp-content/uploads/2019/11/Rome-in-3D_opt.jpg","video":null,"channel":null,"channelUrl":null,"author":"GizmoSwan","authorUrl":"https://news.ycombinator.com/user?id=GizmoSwan","authorImage":null,"authorSlug":null,"score":167,"views":null,"sharedCount":null,"likeCount":null,"sharedContent":null,"parent":{"__typename":"HnJson","localize":[{"title":"罗马的3D","locale":"zh"},{"title":"羅馬的3D","locale":"zh-Hant"}]}},{"__typename":"SocialMediaPost","id":"HnPost-25988228","excerpt":"","slug":"/hn/25988228","title":"Slack’s Outage on January 4th 2021","date":"February 01, 2021","dateISO":"2021-02-01T17:33:49.936Z","datetime":"2021-02-01 17:33","tags":["story","Hacker News"],"image":null,"imageAlt":null,"provider":"Hacker News","thirdPartyId":"25988228","url":"https://news.ycombinator.com/item?id=25988228","originalUrl":"https://slack.engineering/slacks-outage-on-january-4th-2021/","imageRemote":"https://slack.engineering/wp-content/uploads/sites/7/2021/01/loading-bar-5514303_1920-1.jpg","video":null,"channel":null,"channelUrl":null,"author":"benedikt","authorUrl":"https://news.ycombinator.com/user?id=benedikt","authorImage":null,"authorSlug":null,"score":310,"views":null,"sharedCount":null,"likeCount":null,"sharedContent":null,"parent":{"__typename":"HnJson","localize":[{"title":"Slack在2021年1月4日的停工事件","locale":"zh"},{"title":"Slack在2021年1月4日的停工事件","locale":"zh-Hant"}]}},{"__typename":"SocialMediaPost","id":"HnPost-25988871","excerpt":"","slug":"/hn/25988871","title":"An unexpected find that freed 20gb of unused index space in PostgreSQL","date":"February 01, 2021","dateISO":"2021-02-01T17:33:49.936Z","datetime":"2021-02-01 17:33","tags":["story","Hacker News"],"image":null,"imageAlt":null,"provider":"Hacker News","thirdPartyId":"25988871","url":"https://news.ycombinator.com/item?id=25988871","originalUrl":"https://hakibenita.com/postgresql-unused-index-size","imageRemote":"https://hakibenita.com/images/00-postgresql-unused-index-size.png","video":null,"channel":null,"channelUrl":null,"author":"haki","authorUrl":"https://news.ycombinator.com/user?id=haki","authorImage":null,"authorSlug":null,"score":373,"views":null,"sharedCount":null,"likeCount":null,"sharedContent":null,"parent":{"__typename":"HnJson","localize":[{"title":"一个意外的发现，在PostgreSQL中释放了20GB未使用的索引空间。","locale":"zh"},{"title":"一個意外的發現，在PostgreSQL中釋放了20GB未使用的索引空間。","locale":"zh-Hant"}]}},{"__typename":"SocialMediaPost","id":"HnPost-25984829","excerpt":"","slug":"/hn/25984829","title":"Spotify patent would suggest songs based on users' emotions","date":"February 01, 2021","dateISO":"2021-02-01T16:57:04.625Z","datetime":"2021-02-01 16:57","tags":["story","Hacker News"],"image":null,"imageAlt":null,"provider":"Hacker News","thirdPartyId":"25984829","url":"https://news.ycombinator.com/item?id=25984829","originalUrl":"https://www.bbc.com/news/entertainment-arts-55839655","imageRemote":"https://ichef.bbci.co.uk/news/1024/branded_news/4BF1/production/_116714491_gettyimages-1006512072.jpg","video":null,"channel":null,"channelUrl":null,"author":"walterbell","authorUrl":"https://news.ycombinator.com/user?id=walterbell","authorImage":null,"authorSlug":null,"score":171,"views":null,"sharedCount":null,"likeCount":null,"sharedContent":null,"parent":{"__typename":"HnJson","localize":[{"title":"Spotify专利将根据用户的情绪推荐歌曲","locale":"zh"},{"title":"Spotify專利將根據用戶的情緒推薦歌曲","locale":"zh-Hant"}]}},{"__typename":"SocialMediaPost","id":"HnPost-25987664","excerpt":"","slug":"/hn/25987664","title":"Ask HN: Recommended books and papers on distributed systems?","date":"February 01, 2021","dateISO":"2021-02-01T16:57:04.625Z","datetime":"2021-02-01 16:57","tags":["story","ASK HN","Hacker News"],"image":null,"imageAlt":null,"provider":"Hacker News","thirdPartyId":"25987664","url":"https://news.ycombinator.com/item?id=25987664","originalUrl":"https://news.ycombinator.com/item?id=25987664","imageRemote":null,"video":null,"channel":"ASK HN","channelUrl":"https://news.ycombinator.com/ask","author":"letientai299","authorUrl":"https://news.ycombinator.com/user?id=letientai299","authorImage":null,"authorSlug":null,"score":293,"views":null,"sharedCount":null,"likeCount":null,"sharedContent":null,"parent":{"__typename":"HnJson","localize":[{"title":"问HN：推荐分布式系统的书籍和论文？","locale":"zh"},{"title":"問HN：推薦分佈式系統的書籍和論文？","locale":"zh-Hant"}]}},{"__typename":"SocialMediaPost","id":"HnPost-25988702","excerpt":"","slug":"/hn/25988702","title":"SpaCy 3.0","date":"February 01, 2021","dateISO":"2021-02-01T16:01:58.918Z","datetime":"2021-02-01 16:01","tags":["story","Hacker News"],"image":null,"imageAlt":null,"provider":"Hacker News","thirdPartyId":"25988702","url":"https://news.ycombinator.com/item?id=25988702","originalUrl":"https://github.com/explosion/spaCy/releases/tag/v3.0.0","imageRemote":"https://repository-images.githubusercontent.com/21467110/61e46a80-649b-11eb-83e8-8a2dd9f6ff62","video":null,"channel":null,"channelUrl":null,"author":"syllogism","authorUrl":"https://news.ycombinator.com/user?id=syllogism","authorImage":null,"authorSlug":null,"score":480,"views":null,"sharedCount":null,"likeCount":null,"sharedContent":null,"parent":{"__typename":"HnJson","localize":[{"title":"SpaCy 3.0","locale":"zh"},{"title":"SpaCy 3.0","locale":"zh-Hant"}]}},{"__typename":"SocialMediaPost","id":"HnPost-25986316","excerpt":"","slug":"/hn/25986316","title":"F# is gaining independence from .NET","date":"February 01, 2021","dateISO":"2021-02-01T15:15:59.286Z","datetime":"2021-02-01 15:15","tags":["story","Hacker News"],"image":null,"imageAlt":null,"provider":"Hacker News","thirdPartyId":"25986316","url":"https://news.ycombinator.com/item?id=25986316","originalUrl":"https://onurgumus.github.io/2021/01/31/What-the-F.html","imageRemote":"https://onurgumus.github.io/assets/posts/2021-01-31-What-the-F/wheel.png","video":null,"channel":null,"channelUrl":null,"author":"sidcool","authorUrl":"https://news.ycombinator.com/user?id=sidcool","authorImage":null,"authorSlug":null,"score":210,"views":null,"sharedCount":null,"likeCount":null,"sharedContent":null,"parent":{"__typename":"HnJson","localize":[{"title":"F#正在从.NET中获得独立","locale":"zh"},{"title":"F#正在從.NET中獲得獨立","locale":"zh-Hant"}]}},{"__typename":"SocialMediaPost","id":"HnPost-25987314","excerpt":"","slug":"/hn/25987314","title":"Internet disrupted in Myanmar amid military coup","date":"February 01, 2021","dateISO":"2021-02-01T14:42:57.004Z","datetime":"2021-02-01 14:42","tags":["story","Hacker News"],"image":null,"imageAlt":null,"provider":"Hacker News","thirdPartyId":"25987314","url":"https://news.ycombinator.com/item?id=25987314","originalUrl":"https://netblocks.org/reports/internet-disrupted-in-myanmar-amid-apparent-military-uprising-JBZrmlB6","imageRemote":"https://netblocks.org/wp-content/uploads/sites/8/2021/01/myanmar-uprising-internet-blackout-2021-01-31.png","video":null,"channel":null,"channelUrl":null,"author":"giuliomagnifico","authorUrl":"https://news.ycombinator.com/user?id=giuliomagnifico","authorImage":null,"authorSlug":null,"score":201,"views":null,"sharedCount":null,"likeCount":null,"sharedContent":null,"parent":{"__typename":"HnJson","localize":[{"title":"缅甸发生军事政变，互联网中断。","locale":"zh"},{"title":"緬甸發生軍事政變，互聯網中斷。","locale":"zh-Hant"}]}},{"__typename":"SocialMediaPost","id":"HnPost-25982860","excerpt":"","slug":"/hn/25982860","title":"WhatsApp and the Domestication of Users","date":"February 01, 2021","dateISO":"2021-02-01T14:33:53.727Z","datetime":"2021-02-01 14:33","tags":["story","Hacker News"],"image":null,"imageAlt":null,"provider":"Hacker News","thirdPartyId":"25982860","url":"https://news.ycombinator.com/item?id=25982860","originalUrl":"https://seirdy.one/2021/01/27/whatsapp-and-the-domestication-of-users.html","imageRemote":"https://seirdy.one/open_graph.42bd16c0c4d0bffd6b521a72ee60d618.png","video":null,"channel":null,"channelUrl":null,"author":"upofadown","authorUrl":"https://news.ycombinator.com/user?id=upofadown","authorImage":null,"authorSlug":null,"score":167,"views":null,"sharedCount":null,"likeCount":null,"sharedContent":null,"parent":{"__typename":"HnJson","localize":[{"title":"WhatsApp与用户的驯化问题","locale":"zh"},{"title":"WhatsApp與用戶的馴化問題","locale":"zh-Hant"}]}},{"__typename":"SocialMediaPost","id":"HnPost-25986378","excerpt":"","slug":"/hn/25986378","title":"gemini:// space","date":"February 01, 2021","dateISO":"2021-02-01T14:33:53.727Z","datetime":"2021-02-01 14:33","tags":["story","Hacker News"],"image":null,"imageAlt":null,"provider":"Hacker News","thirdPartyId":"25986378","url":"https://news.ycombinator.com/item?id=25986378","originalUrl":"https://spwhitton.name//blog/entry/geminispace/","imageRemote":null,"video":null,"channel":null,"channelUrl":null,"author":"pabs3","authorUrl":"https://news.ycombinator.com/user?id=pabs3","authorImage":null,"authorSlug":null,"score":276,"views":null,"sharedCount":null,"likeCount":null,"sharedContent":null,"parent":{"__typename":"HnJson","localize":[{"title":"双子座://空间","locale":"zh"},{"title":"雙子座://空間","locale":"zh-Hant"}]}},{"__typename":"SocialMediaPost","id":"HnPost-25978962","excerpt":"","slug":"/hn/25978962","title":"Math Inspector: A Visual Programming Environment for Scientific Computing","date":"February 01, 2021","dateISO":"2021-02-01T13:57:33.936Z","datetime":"2021-02-01 13:57","tags":["story","Hacker News"],"image":null,"imageAlt":null,"provider":"Hacker News","thirdPartyId":"25978962","url":"https://news.ycombinator.com/item?id=25978962","originalUrl":"https://mathinspector.com/","imageRemote":"https://mathinspector.com/img/share.jpg","video":null,"channel":null,"channelUrl":null,"author":"jarmitage","authorUrl":"https://news.ycombinator.com/user?id=jarmitage","authorImage":null,"authorSlug":null,"score":173,"views":null,"sharedCount":null,"likeCount":null,"sharedContent":null,"parent":{"__typename":"HnJson","localize":[{"title":"Math Inspector: 科学计算的可视化编程环境","locale":"zh"},{"title":"Math Inspector: 科學計算的可視化編程環境","locale":"zh-Hant"}]}},{"__typename":"SocialMediaPost","id":"HnPost-25978000","excerpt":"","slug":"/hn/25978000","title":"Building a personal data warehouse in Snowflake for fun and no profit","date":"February 01, 2021","dateISO":"2021-02-01T11:56:36.166Z","datetime":"2021-02-01 11:56","tags":["story","Hacker News"],"image":null,"imageAlt":null,"provider":"Hacker News","thirdPartyId":"25978000","url":"https://news.ycombinator.com/item?id=25978000","originalUrl":"https://www.thomasdziedzic0.com/blog/building-a-personal-data-warehouse-in-snowflake-for-fun-and-no-profit","imageRemote":"http://static1.squarespace.com/static/5ff677a2eaa9b578ef9d00ba/t/60132c9c31da361bcbfe9917/1611883584161/Screenshot-from-2021-01-24-17-14-08.png?format=1500w","video":null,"channel":null,"channelUrl":null,"author":"thomasdziedzic","authorUrl":"https://news.ycombinator.com/user?id=thomasdziedzic","authorImage":null,"authorSlug":null,"score":166,"views":null,"sharedCount":null,"likeCount":null,"sharedContent":null,"parent":{"__typename":"HnJson","localize":[{"title":"在雪绒花中建立个人数据仓库，好玩又不赚钱。","locale":"zh"},{"title":"在雪絨花中建立個人數據倉庫，好玩又不賺錢。","locale":"zh-Hant"}]}},{"__typename":"SocialMediaPost","id":"HnPost-25976855","excerpt":"","slug":"/hn/25976855","title":"How does Clang 2.7 hold up in 2021?","date":"February 01, 2021","dateISO":"2021-02-01T11:32:18.577Z","datetime":"2021-02-01 11:32","tags":["story","Hacker News"],"image":null,"imageAlt":null,"provider":"Hacker News","thirdPartyId":"25976855","url":"https://news.ycombinator.com/item?id=25976855","originalUrl":"https://gist.github.com/zeux/3ce4fcc3a43072b4315abde95319ecb6","imageRemote":"https://github.githubassets.com/images/modules/gists/gist-og-image.png","video":null,"channel":null,"channelUrl":null,"author":"tbodt","authorUrl":"https://news.ycombinator.com/user?id=tbodt","authorImage":null,"authorSlug":null,"score":163,"views":null,"sharedCount":null,"likeCount":null,"sharedContent":null,"parent":{"__typename":"HnJson","localize":[{"title":"Clang 2.7在2021年如何保持？","locale":"zh"},{"title":"Clang 2.7在2021年如何保持？","locale":"zh-Hant"}]}}]}},"pageContext":{"basePath":"/","pageType":"tag","tag":"story","tagsFilter":{"id":{"glob":"!*Post-1"}},"filter":{"id":{"glob":"!*Post-1"},"tags":{"eq":"story"}},"limit":25,"skip":1175,"total":2599,"totalPages":104,"currentPage":48,"maxWidth":1024,"maxHeight":512,"locale":"zh-Hant","hrefLang":"zh-Hant","originalPath":"/tags/story/page/48","dateFormat":"YYYY-MM-DD"}},"staticQueryHashes":["1239077767","2506312863","2744905544","3025052997","3493603132","3493603132","3513215887","386998304"]}